{
    "dcr_id": "1517601529868",
    "lang": "en",
    "type_name": "intra-intra/news-nouv",
    "approvalsadvisor": "janet.dowell@agr.gc.ca",
    "approvalsdirector": "christiane.deslauriers@agr.gc.ca",
    "submitername": "Talen McLean",
    "submiteremail": "talen.mclean@canada.ca",
    "submiterphoneNumber": "613-773-2893",
    "issued": "2018-02-08",
    "translateReqNumber": "null"
}