{
    "dcr_id": "1517862669479",
    "lang": "en",
    "type_name": "intra-intra/news-nouv",
    "approvalsadvisor": "nina.hamad@canada.ca",
    "approvalsdirector": "heather.earle@canada.ca",
    "submitername": "Seana Collins",
    "submiteremail": "seana.collins@agr.gc.ca",
    "submiterphoneNumber": "902-365-8466",
    "issued": "2018-02-08",
    "translateReqNumber": "null"
}