{
    "dcr_id": "1518535452902",
    "lang": "en",
    "type_name": "intra-intra/news-nouv",
    "approvalsadvisor": "justine.walker2@canada.ca",
    "approvalsdirector": "fred.gorrell@agr.gc.ca",
    "submitername": "Augustus Reeves",
    "submiteremail": "augustus.reeves@agr.gc.ca",
    "submiterphoneNumber": "613-773-2004",
    "issued": "2018-02-15",
    "translateReqNumber": "null"
}