{
    "dcr_id": "1521030399419",
    "lang": "en",
    "type_name": "intra-intra/news-nouv",
    "approvalsadvisor": "stela.susic@canada.ca",
    "approvalsdirector": "Jeff.Lamirande@canada.ca",
    "submitername": "Deneen Quenneville",
    "submiteremail": "deneen.quenneville@canada.ca",
    "submiterphoneNumber": "613-773-0134",
    "issued": "2018-03-15",
    "translateReqNumber": "null"
}