{
    "dcr_id": "1525448627163",
    "lang": "en",
    "type_name": "intra-intra/news-nouv",
    "approvalsadvisor": "natalie.ekholm@canada.ca",
    "approvalsdirector": "Pierre.Corriveau@agr.gc.ca",
    "submitername": "Rachelle Hill",
    "submiteremail": "Rachelle.Hill@agr.gc.ca",
    "submiterphoneNumber": "613-773-1691",
    "issued": "2018-05-08",
    "translateReqNumber": "n/a"
}