{
    "dcr_id": "1525268817037",
    "lang": "en",
    "type_name": "intra-intra/news-nouv",
    "approvalsadvisor": "natalie.ekholm@canada.ca",
    "approvalsdirector": "augustus.reeves@agr.gc.ca",
    "submitername": "Augustus Reeves",
    "submiteremail": "augustus.reeves@agr.gc.ca",
    "submiterphoneNumber": "613-773-2004",
    "issued": "2018-05-03",
    "translateReqNumber": "n/a"
}