{
    "dcr_id": "1532356678147",
    "lang": "en",
    "type_name": "intra-intra/news-nouv",
    "approvalsadvisor": "natalie.ekholm@canada.ca",
    "approvalsdirector": "jill.hull@agr.gc.ca",
    "submitername": "Talen McLean",
    "submiteremail": "talen.mclean@canada.ca",
    "submiterphoneNumber": "613-773-2893",
    "issued": "2018-08-02",
    "translateReqNumber": "AAFC-180718-21"
}