{
    "dcr_id": "1536602023953",
    "lang": "en",
    "type_name": "intra-intra/news-nouv",
    "approvalsadvisor": "ricky.lee@canada.ca",
    "approvalsdirector": "pierre.corriveau@agr.gc.ca",
    "submitername": "Lesley Gervais",
    "submiteremail": "lesley.gervais@canada.ca",
    "submiterphoneNumber": "613-773-3489",
    "issued": "2018-09-13",
    "translateReqNumber": "180619-23"
}