{
    "dcr_id": "1537453572820",
    "lang": "en",
    "type_name": "intra-intra/news-nouv",
    "approvalsadvisor": "ricky.lee@canada.ca",
    "approvalsdirector": "ricky.lee@canada.ca",
    "submitername": "justine walker",
    "submiteremail": "justine.walker2@canada.ca",
    "submiterphoneNumber": "613-773-0443",
    "issued": "2018-09-20",
    "translateReqNumber": "n/a"
}