{
    "dcr_id": "1538409059844",
    "lang": "en",
    "type_name": "intra-intra/news-nouv",
    "approvalsadvisor": "samer.younes@canada.ca",
    "approvalsdirector": "samuel.bonti-ankomah@canada.ca",
    "submitername": "Jennifer Vignola",
    "submiteremail": "jennifer.vignola@canada.ca",
    "submiterphoneNumber": "613-773-1256",
    "issued": "2018-10-04",
    "translateReqNumber": "180926-34"
}