{
    "dcr_id": "1539196638197",
    "lang": "en",
    "type_name": "intra-intra/news-nouv",
    "approvalsadvisor": "ricky.lee@canada.ca",
    "approvalsdirector": "christine.walker2@canada.ca",
    "submitername": "Ricky Lee",
    "submiteremail": "ricky.lee@canada.ca",
    "submiterphoneNumber": "613-773-2252",
    "issued": "2018-10-11",
    "translateReqNumber": "Translation supplied"
}