{
    "dcr_id": "1539615745852",
    "lang": "en",
    "type_name": "intra-intra/news-nouv",
    "approvalsadvisor": "jeff.wright@canada.ca",
    "approvalsdirector": "Lorraine.Burnett@canada.ca",
    "submitername": "Paul Aubin",
    "submiteremail": "Paul.Aubin@canada.ca",
    "submiterphoneNumber": "613-773-2147",
    "issued": "2018-10-18",
    "translateReqNumber": " 207766"
}