{
    "dcr_id": "1549980345339",
    "lang": "en",
    "type_name": "intra-intra/news-nouv",
    "approvalsadvisor": "kathleen.kelly@canada.ca",
    "approvalsdirector": "scott.aughey@canada.ca",
    "submitername": "Kathleen Kelly",
    "submiteremail": "kathleen.kelly@canada.ca",
    "submiterphoneNumber": "613-850-6221",
    "issued": "2019-02-14",
    "translateReqNumber": "AAFC - 190211 - 2"
}