{
    "dcr_id": "1552938206334",
    "lang": "en",
    "type_name": "intra-intra/news-nouv",
    "approvalsadvisor": "stela.susic@canada.ca",
    "approvalsdirector": "jacint.boucher@canada.ca",
    "submitername": "Denis Guitard",
    "submiteremail": "denis.guitard@canada.ca",
    "submiterphoneNumber": "506-961-4236",
    "issued": "2019-03-20",
    "translateReqNumber": "00"
}