{
    "dcr_id": "1556035928560",
    "lang": "en",
    "type_name": "intra-intra/news-nouv",
    "approvalsadvisor": "Irina.andritoiu@canada.ca",
    "approvalsdirector": "Lucille.lacelle@canada.ca",
    "submitername": "Deb O'Neil",
    "submiteremail": "deborah.oneil@canada.ca",
    "submiterphoneNumber": "613-773-2762",
    "issued": "2019-04-25",
    "translateReqNumber": "Translation was from the website"
}