{
    "dcr_id": "1558450383745",
    "lang": "en",
    "type_name": "intra-intra/news-nouv",
    "approvalsadvisor": "joy.moskovic@canada.ca",
    "approvalsdirector": "kathleen.mcguire@canada.ca",
    "submitername": "Kim Callihoo",
    "submiteremail": "kim.callihoo@canada.ca",
    "submiterphoneNumber": "613-773-1982",
    "issued": "2019-05-23",
    "translateReqNumber": "AAFC-190509-39"
}