{
    "dcr_id": "1560186886076",
    "lang": "en",
    "type_name": "intra-intra/news-nouv",
    "approvalsadvisor": "kathleen.kelly@canada.ca",
    "approvalsdirector": "rick.raymond@canada.ca",
    "submitername": "Kathleen Kelly",
    "submiteremail": "kathleen.kelly@canada.ca",
    "submiterphoneNumber": "613-850-6221",
    "issued": "2019-06-13",
    "translateReqNumber": "190606-27"
}