{
    "dcr_id": "1562176790926",
    "lang": "en",
    "type_name": "intra-intra/news-nouv",
    "approvalsadvisor": "susan.sutherland@canada.ca",
    "approvalsdirector": "daniel.labelle4@canada.ca",
    "submitername": "Channel Villeneuve",
    "submiteremail": "channel.villeneuve2@canada.ca",
    "submiterphoneNumber": "613-773-2749",
    "issued": "2019-07-11",
    "translateReqNumber": "AAFC-190702-2"
}