{
    "dcr_id": "1563547611668",
    "lang": "en",
    "type_name": "intra-intra/news-nouv",
    "approvalsadvisor": "jean-pierre.potvin@canada.ca",
    "approvalsdirector": "sonia.forget@canada.ca",
    "submitername": "Emily Smyth",
    "submiteremail": "emily.smyth@canada.ca",
    "submiterphoneNumber": "613-773-0628",
    "issued": "2019-07-25",
    "translateReqNumber": "N/A"
}