{
    "dcr_id": "1563211690062",
    "lang": "en",
    "type_name": "intra-intra/news-nouv",
    "approvalsadvisor": "andrea.cameron@canada.ca",
    "approvalsdirector": "sonia.forget@canada.ca",
    "submitername": "Andrea Cameron",
    "submiteremail": "andrea.cameron@canada.ca",
    "submiterphoneNumber": "613-773-0653",
    "issued": "2019-07-15",
    "translateReqNumber": "n/a"
}