{
    "dcr_id": "1567519541757",
    "lang": "en",
    "type_name": "intra-intra/news-nouv",
    "approvalsadvisor": "joy.moskovic@canada.ca",
    "approvalsdirector": "elise.legendre@canada.ca",
    "submitername": "Shannon Fraser",
    "submiteremail": "shannon.fraser@canada.ca",
    "submiterphoneNumber": "613-773-1574",
    "issued": "2019-09-05",
    "translateReqNumber": "AAFC-190822-7"
}