{
    "dcr_id": "1568141304098",
    "lang": "en",
    "type_name": "intra-intra/news-nouv",
    "approvalsadvisor": "joy.moskovic@canada.ca",
    "approvalsdirector": "anne.lacombe@canada.ca",
    "submitername": "Jenn",
    "submiteremail": "Jennifer.mclaurin@canada.ca",
    "submiterphoneNumber": "613-773-0214",
    "issued": "2019-09-10",
    "translateReqNumber": "190910-6"
}