{
    "dcr_id": "1583265983791",
    "lang": "en",
    "type_name": "intra-intra/news-nouv",
    "approvalsadvisor": "natalie.ekholm@canada.ca",
    "approvalsdirector": "michel.lessard@canada.ca",
    "submitername": "Debbie Lockrey-Wessel",
    "submiteremail": "debbie.lockrey-wessel@canada.ca",
    "submiterphoneNumber": "519-819-2907",
    "issued": "2020-03-03",
    "translateReqNumber": "20022617"
}