{
    "dcr_id": "1322607792840",
    "title": {
        "en": "D-11-01: Phytosanitary Requirements for Plants for Planting and Fresh Branches to Prevent the Entry and Spread of <i lang=\"la\">Anoplophora</i> <abbr title=\"species\">spp.</abbr>",
        "fr": "D-11-01\u00a0: Exigences phytosanitaires visant les v\u00e9g\u00e9taux destin\u00e9s \u00e0 la plantation et les rameaux d\u00e9coratifs frais afin de pr\u00e9venir l'introduction et la diss\u00e9mination des insectes appartenant au genre <i lang=\"la\">Anoplophora</i> <abbr title=\"esp\u00e8ce\">spp.</abbr>"
    },
    "html_modified": "2024-01-26 2:20:48 PM",
    "modified": "2020-07-29",
    "issued": "2011-11-29 18:03:23",
    "teamsite_location": {
        "en": "/default/main/inspection/cont-cont/plants-vegetaux/STAGING/templatedata/comn-comn/gene-gene/data/protect_directives_d-11-01_1322607792840_eng",
        "fr": "/default/main/inspection/cont-cont/plants-vegetaux/STAGING/templatedata/comn-comn/gene-gene/data/protect_directives_d-11-01_1322607792840_fra"
    },
    "ia_id": "1322607917651",
    "parent_ia_id": "1312234987259",
    "chronicletopic": {
        "en": "",
        "fr": ""
    },
    "chroniclecontent": {
        "en": "",
        "fr": ""
    },
    "chronicleaudience": {
        "en": "",
        "fr": ""
    },
    "sfcrdocumenttype": {
        "en": "",
        "fr": ""
    },
    "sfcraudience": {
        "en": "",
        "fr": ""
    },
    "sfcrmethodofproduction": {
        "en": "",
        "fr": ""
    },
    "activity": {
        "en": "Imports|Policy Directives|Regulated Pests",
        "fr": "Directives de protection|Importations|Parasites r\u00e9glement\u00e9s"
    },
    "commodity": {
        "en": "Plant Protection",
        "fr": "Protection des v\u00e9g\u00e9taux"
    },
    "program": {
        "en": "Plants",
        "fr": "V\u00e9g\u00e9taux"
    },
    "search_type": "guidancefinder",
    "parent_node_id": "1312234987259",
    "layout_name": "content page 1 column",
    "breadcrumb": {
        "en": "D-11-01: Phytosanitary Requirements for Plants for Planting and Fresh Branches to Prevent the Entry and Spread of <i lang=\"la\">Anoplophora</i> <abbr title=\"species\">spp.</abbr>",
        "fr": "D-11-01\u00a0: Exigences phytosanitaires visant les v\u00e9g\u00e9taux destin\u00e9s \u00e0 la plantation et les rameaux d\u00e9coratifs frais afin de pr\u00e9venir l'introduction et la diss\u00e9mination des insectes appartenant au genre <i lang=\"la\">Anoplophora</i> <abbr title=\"esp\u00e8ce\">spp.</abbr>"
    },
    "label": {
        "en": "D-11-01: Phytosanitary Requirements for Plants for Planting and Fresh Branches to Prevent the Entry and Spread of <i lang=\"la\">Anoplophora</i> <abbr title=\"species\">spp.</abbr>",
        "fr": "D-11-01\u00a0: Exigences phytosanitaires visant les v\u00e9g\u00e9taux destin\u00e9s \u00e0 la plantation et les rameaux d\u00e9coratifs frais afin de pr\u00e9venir l'introduction et la diss\u00e9mination des insectes appartenant au genre <i lang=\"la\">Anoplophora</i> <abbr title=\"esp\u00e8ce\">spp.</abbr>"
    },
    "templatetype": "content page 1 column",
    "node_id": "1322607917651",
    "managing_branch": "comn",
    "type_name": "sitemapinit",
    "dcr_type": "gene-gene",
    "parent_dcr_id": "1312234775640",
    "orig_type_name": "sitemapinit",
    "has_dcr_id": true,
    "lang": "en",
    "could_not_load": 0,
    "refaire": false,
    "interwoven_url": {
        "en": "/plant-health/invasive-species/directives/forest-products/d-11-01/",
        "fr": "/protection-des-vegetaux/especes-envahissantes/directives/produits-forestiers/d-11-01/"
    },
    "meta": {
        "viewport": {
            "en": "width=device-width,initial-scale=1",
            "fr": "width=device-width,initial-scale=1"
        },
        "service": {
            "en": "CFIA-ACIA",
            "fr": "CFIA-ACIA"
        },
        "accessRights": {
            "en": "2",
            "fr": "2"
        },
        "title": {
            "en": "D-11-01: Phytosanitary Requirements for Plants for Planting and Fresh Branches to Prevent the Entry and Spread of Anoplophora spp.",
            "fr": "D-11-01\u00a0: Exigences phytosanitaires visant les v\u00e9g\u00e9taux destin\u00e9s \u00e0 la plantation et les rameaux d\u00e9coratifs frais afin de pr\u00e9venir l'introduction et la diss\u00e9mination des insectes appartenant au genre Anoplophora spp."
        },
        "description": {
            "en": "This directive outlines the phytosanitary requirements for plants for planting and fresh branches that are considered hosts of Anoplophora spp.",
            "fr": "La pr\u00e9sente directive d\u00e9crit les exigences phytosanitaires s'appliquant aux v\u00e9g\u00e9taux destin\u00e9s \u00e0 la plantation et aux rameaux d\u00e9coratifs frais appartenant aux plantes h\u00f4tes des Anoplophora spp."
        },
        "keywords": {
            "en": "Plant Protection Act, Plant Protection Regulations. imports, policy, Anoplophora spp, A. chinensis, citrus longhorned beetle, A. glabripennis, nursery stock, plants for planting, fresh branches, Asian longhorned beetle, Asian long-horned beetle, ALHB, ALB, Starry sky beetle",
            "fr": "Loi sur la protection des v\u00e9g\u00e9taux, de protection des v\u00e9g\u00e9taux r\u00e8glements. les importations, politique, Anoplophora spp, A. chinensis, citrus Longicorne, A. glabripennis, le mat\u00e9riel de p\u00e9pini\u00e8re, les plantes \u00e0 la plantation, \u00e0 l'\u00e9tat frais succursales, Longicorne asiatique, Longicorne \u00e9toil\u00e9"
        },
        "dcterms.subject": {
            "en": "imports,inspection,plants,policy",
            "fr": "importation,inspection,plante,politique"
        },
        "creator": {
            "en": "Government of Canada,Canadian Food Inspection Agency,Plant Health and Biosecurity Directorate",
            "fr": "Gouvernement du Canada,Agence canadienne d'inspection des aliments,Direction de la protection des v\u00e9g\u00e9taux et bios\u00e9curit\u00e9"
        },
        "language": {
            "en": "eng",
            "fr": "fra"
        },
        "issued": {
            "en": "2011-11-29 18:03:23",
            "fr": "2011-11-29 18:03:23"
        },
        "modified": {
            "en": "2020-07-29",
            "fr": "2020-07-29"
        },
        "name": {
            "en": "Government of Canada",
            "fr": "Gouvernement du Canada"
        },
        "areaServed": {
            "en": "Canada",
            "fr": "Canada"
        }
    },
    "h1": {
        "en": "D-11-01: Phytosanitary Requirements for Plants for Planting and Fresh Branches to Prevent the Entry and Spread of Anoplophora spp.",
        "fr": "D-11-01\u00a0: Exigences phytosanitaires visant les v\u00e9g\u00e9taux destin\u00e9s \u00e0 la plantation et les rameaux d\u00e9coratifs frais afin de pr\u00e9venir l'introduction et la diss\u00e9mination des insectes appartenant au genre Anoplophora spp."
    },
    "body": {
        "en": "        \r\n        \n<section class=\"alert alert-info\">\r\n<h2 class=\"h3\">This page is part of the Guidance Document Repository (GDR).</h2>\r\n<p>\r\n<br>\r\n<a href=\"/industry-guidance/eng/1374161650885/1374161737236?gp=3&amp;gc=24&amp;ga=64#gdr_results\" class=\"alert-link\">\r\n            Search for related documents in the Guidance Document Repository\r\n</a>\r\n</p>\r\n</section><p><strong>Effective Date: December 22, 2011<br>\n</strong></p>\n<h2>Subject</h2>\n<p>This directive outlines the phytosanitary requirements for plants for planting and fresh branches that are considered hosts of <i lang=\"la\">Anoplophora</i> spp. At the time of writing this directive, specific information pertaining to two species of <i lang=\"la\">Anoplophora</i> (<i lang=\"la\"><abbr title=\"Anoplophora\">A.</abbr> chinensis</i> and <i lang=\"la\"><abbr title=\"Anoplophora\">A.</abbr> glabripennis</i>) was available and therefore included in this document, but it is important to note that the entire genus <i lang=\"la\">Anoplophora</i> spp. is regulated by the Canadian Food Inspection Agency (CFIA). The requirements included in this directive are intended to mitigate the risk of unintentional introduction of these quarantine pests into Canada with imported plants for planting and fresh branches.</p>\n<h2>On this page</h2>\n\n<ul>\n<li><a href=\"#a\">Review</a></li>\n<li><a href=\"#b\">Endorsement</a></li>\n<li><a href=\"#c\">Amendment record</a></li>\n<li><a href=\"#d\">Distribution</a></li>\n<li><a href=\"#e\">Introduction</a></li>\n<li><a href=\"#f\">Scope</a></li>\n<li><a href=\"#g\">References</a></li>\n<li><a href=\"#h\">Definitions, abbreviations and acronyms</a></li>\n<li><a href=\"#a1\">1.0 General requirements</a>\n<ul>\n<li><a href=\"#a11\">1.1 Legislative authority</a></li>\n<li><a href=\"#a12\">1.2 Fees</a></li>\n<li><a href=\"#a13\">1.3 Regulated pests</a></li>\n<li><a href=\"#a14\">1.4 Regulated commodities</a></li>\n<li><a href=\"#a15\">1.5 Exempt commodities</a>\n<ul>\n<li><a href=\"#a151\">1.5.1 Document requirements for exempt commodities</a></li>\n</ul>\n</li>\n<li><a href=\"#a16\">1.6 Regulated areas</a></li>\n</ul>\n</li>\n<li><a href=\"#a2\">2.0 Import Requirements</a>\n<ul>\n<li><a href=\"#a21\">2.1 Domestic requirements</a></li>\n<li><a href=\"#a22\">2.2 Regulated commodities from countries other than the Continental <abbr title=\"United States\">U.S</abbr> where <i lang=\"la\">Anoplophora</i> spp. are present</a>\n<ul>\n<li><a href=\"#a221\">2.2.1 Document Requirements for regulated commodities from countries other than the Continental <abbr title=\"United States\">U.S</abbr> where <i lang=\"la\">Anoplophora</i> spp. are present</a></li>\n</ul>\n</li>\n<li><a href=\"#a23\">2.3 Regulated commodities from countries other than the Continental <abbr title=\"United States\">U.S</abbr> where <i lang=\"la\">Anoplophora</i> spp. are known not to occur</a></li>\n<li><a href=\"#a24\">2.4 Regulated commodities from states of the Continental <abbr title=\"United States\">U.S</abbr> where populations of <i lang=\"la\">Anoplophora</i> spp. have been detected and are currently under official control</a>\n<ul>\n<li><a href=\"#a241\">2.4.1 Document requirements for regulated commodities from states of the Continental <abbr title=\"United States\">U.S</abbr> where populations of <i lang=\"la\">Anoplophora</i> spp. have been detected and are currently under official control</a></li>\n</ul>\n</li>\n<li><a href=\"#a25\">2.5 Regulated commodities from states of the Continental <abbr title=\"United States\">U.S</abbr> where <i lang=\"la\">Anoplophora</i> spp. are known not to occur</a></li>\n</ul>\n</li>\n<li><a href=\"#a3\">3.0 Non-compliance</a></li>\n<li><a href=\"#a4\">4.0 Appendices</a>\n<ul>\n<li><a href=\"#app1\">Appendix 1: Host genera of <i lang=\"la\">Anoplophora</i> spp.</a></li>\n<li><a href=\"#app2\">Appendix 2: Areas, territories and countries where <i lang=\"la\">Anoplophora</i> spp. are present</a></li>\n</ul>\n</li>\n</ul>\n<h2 id=\"a\">Review</h2>\n<p>This directive will be reviewed every 5 years unless otherwise needed. For further information or clarification, please contact the <abbr title=\"Canadian Food Inspection Agency\">CFIA</abbr>.</p>\n<h2 id=\"b\">Endorsement</h2>\n<p>Approved by:</p>\n<p>Chief Plant Health Officer</p>\n<h2 id=\"c\">Amendment Record</h2>\n<p>Amendments to this directive will be dated and distributed as outlined in the distribution section below.</p>\n<h2 id=\"d\">Distribution</h2>\n<ol>\n<li>Directive mail list (<abbr title=\"Canadian Food Inspection Agency\">CFIA</abbr> regional offices, <abbr title=\"Canadian Food Inspection Agency\">CFIA</abbr> Plant Health Risk Assessment Unit, United states Department of Agriculture)</li>\n<li>Provincial Government, industry (determined by author)</li>\n<li>National Industry organizations (determined by author)</li>\n<li>Internet</li>\n</ol>\n<h2 id=\"e\">Introduction</h2>\n<p>The purpose of this directive is to prevent the introduction of <i lang=\"la\">Anoplophora</i> spp. into Canada. <i lang=\"la\">Anoplophora</i> species are native to China, Japan, Korea and other countries in Asia. <i lang=\"la\">Anoplophora chinensis</i> (Forester) (the citrus longhorned beetle (CLHB)) and <i lang=\"la\"><abbr title=\"Anoplophora\">A.</abbr> glabripennis</i> (Asian longhorned beetle (ALHB)) are considered to be pests of great concern worldwide and are quarantine pests in many countries, including major trading partners of Canada, such as the United States (U.S.) and many European Union (E.U.) member states. Canada regulates the entire genus as quarantine pests.</p>\n<p>Insects belonging to the genus <i lang=\"la\">Anoplophora</i> are wood-boring, longhorned beetles belonging to the family Cerambycidae, which can either attack live, healthy trees or weakened and stressed trees. Trees ranging in size from bonsais to mature trees can be attacked. The larval stage is the most damaging as it feeds internally on the vascular systems of the roots, trunk, stem branches or twigs of its hosts. The resulting tunnels weaken the tree and may, over several years, kill it. Secondary infection may also happen as a result of the entry of pathogens through feeding wounds or exit holes. Much of their lifecycle is spent within the trees, these beetles are very difficult to detect until the tree shows signs of stress. It is also very difficult to control these pests as the larval and the pupal stages are protected from contact insecticides and most predators and parasitoids.</p>\n<p>The genus <i lang=\"la\">Anoplophora</i> has a very large host range. <i lang=\"la\">Anoplophora chinensis</i> and <i lang=\"la\"><abbr title=\"Anoplophora\">A.</abbr> glabripennis</i> can attack over 100 species in at least 26 and 15 families respectively (<abbr title=\"Centre for Agricultural Bioscience International\">CABI</abbr>, 2005; Lingafeter &amp; Hoebeke, 2002), including several economically important forest, fruit and ornamental plant species. A list of host plants of <abbr title=\"citrus longhorned beetle\">CLHB</abbr> and <abbr title=\"Asian Long-horned Beetle\">ALHB</abbr> is included in <a href=\"#app1\">Appendix 1</a>.</p>\n<p>Longhorned beetles have been moved around the world with wood packaging materials, dunnage and with live plants. This document is intended to provide the import requirements to prevent the entry of <i lang=\"la\">Anoplophora</i> spp. only, via the plants for planting and fresh branches pathways. Other commodities, which may contribute to the dissemination of these pests, are regulated in other <abbr title=\"Canadian Food Inspection Agency\">CFIA</abbr> policies. The policy directive <a href=\"/plant-health/invasive-species/directives/forest-products/d-98-08/eng/1323963831423/1323964135993\">D-98-08</a> (Entry Requirements for Wood Packaging Materials Produced in All Areas Other Than the Continental United States) specifies the phytosanitary requirements for non-manufactured wood packing materials. The phytosanitary import requirements for forestry products can be found in the policy directive <a href=\"/plant-health/invasive-species/directives/forest-products/d-02-12/eng/1488215831209/1488215831755\">D-02-12</a> Import requirements for non-processed wood and other non-propagative wood products, except solid wood packaging material, from all areas other than the Continental United States.</p>\n<p>The first reported detection of <i lang=\"la\"><abbr title=\"Anoplophora\">A.</abbr> chinensis</i> was in 1980 in the Netherlands and since 2000, several breeding populations have been detected in Italy, France, Lithuania and the Netherlands. <abbr title=\"citrus longhorned beetle\">CLHB</abbr> poses an economic and ecological threat to horticulture, forestry and woodland trees in Europe and to citrus production in the Mediterranean (<abbr title=\"Department for Environment Food and Rural Affairs\">DEFRA</abbr> 2008). In North America, no established populations of <abbr title=\"citrus longhorned beetle\">CLHB</abbr> have ever been detected, but a few adult specimens were found in 2001 in a Washington State nursery. This finding was linked to the import of host material from Korea and, after the area underwent an intensive eradication program, the <abbr title=\"United States Department of Agriculture\">USDA</abbr> was able to declare eradication as successful in 2007. Other specimens of <abbr title=\"citrus longhorned beetle\">CLHB</abbr> were also intercepted on imported host material over the last few years, but these incidents were reported as interceptions only and did not lead to the establishment of a population. <abbr title=\"citrus longhorned beetle\">CLHB</abbr> has never been detected in Canada. The potential impacts related to the unintentional introduction of <abbr title=\"citrus longhorned beetle\">CLHB</abbr> in Canada are expected to be major, considering that it can attack a wide range of hosts including several economically important fruit, forest and ornamental plant species.</p>\n<p>The first discovery of an established population of <i lang=\"la\"><abbr title=\"Anoplophora\">A.</abbr> glabripennis</i> outside of its native range was in 1996 in Brooklyn, New York. The beetle was later detected in Long Island, Queens and Manhattan. In 1998, another <abbr title=\"Asian long-horned beetle\">ALHB</abbr> was discovered in the suburbs of Chicago, Illinois. Established populations were also detected in two separate New Jersey locations\u00a0\u2013\u00a0in Jersey City in 2002 and in Middlesex/Union counties in 2004. In 2007, <abbr title=\"Asian long-horned beetle\">ALHB</abbr> was found on Staten and Prall's Islands in New York and in August 2008, it was detected in Worcester, Massachusetts. In June 2011, the <abbr title=\"United States Department of Agriculture\">USDA</abbr> confirmed the presence of <abbr title=\"Asian long-horned beetle\">ALHB</abbr> in Ohio. Infestations in Illinois and in Jersey City have been declared eradicated. In Europe, breeding populations have been detected in Austria, France, Germany and Italy, and several interceptions have been reported in various European countries. As of November 2010, the Netherlands have confirmed the first detection of an <abbr title=\"Asian long-horned beetle\">ALHB</abbr> population, which is currently under eradication.</p>\n<p>In September 2003, <abbr title=\"Asian long-horned beetle\">ALHB</abbr> was detected for the first time in Canada in the Toronto area. The beetle was believed to have been introduced in non-manufactured wood packaging material several years prior to detection. The <abbr title=\"Canadian Food Inspection Agency\">CFIA</abbr> removed approximately 26,000 trees as part of eradication efforts. An aggressive eradication plan is in place in Canada and annual surveys are conducted to ensure early detection of any new infestations. Evidence suggests that if eradication efforts are not successful, <abbr title=\"Asian long-horned beetle\">ALHB</abbr> could become a major pest of hardwood trees, resulting in large losses, especially for the maple products (approximately <span class=\"nowrap\">$280 million</span>), tourism and hardwood lumber industries (approximately <span class=\"nowrap\">$112 billion</span>). If <abbr title=\"Asian long-horned beetle\">ALHB</abbr> were to spread to other parts of Canada, it could threaten other urban forests, as well as natural forests, including provincial and federal parks, recreational areas and protected lands.</p>\n<h2 id=\"f\">Scope</h2>\n<p>This directive is intended for use by importers of nursery stock, plants for planting and fresh branches from countries where <i lang=\"la\">Anoplophora</i> spp. are known to occur. It is also intended for use by <abbr title=\"Canadian Food Inspection Agency\">CFIA</abbr> inspectors, the Canada Border Services Agency and foreign National Plant Protection Organizations (NPPOs) in order to determine the phytosanitary import requirements and domestic movement requirements for plants for planting and fresh branches with respect to the requirements for <i lang=\"la\">Anoplophora</i> spp.</p>\n<h2 id=\"g\">References</h2>\n<ul>\n<li class=\"mrgn-bttm-md\"><a href=\"/plant-health/invasive-species/directives/exports/d-01-06/eng/1320037517418/1320037680823\">D-01-06, Canadian Phytosanitary Policy for the Notification of Non-Compliance and Emergency Action</a></li>\n<li class=\"mrgn-bttm-md\"><a href=\"/plant-health/invasive-species/directives/forest-products/d-02-12/eng/1488215831209/1488215831755\">D-02-12, Import requirements for non-processed wood and other non-propagative wood products, except solid wood packaging material, from all areas other than the Continental United States</a></li>\n<li class=\"mrgn-bttm-md\"><a href=\"/plant-health/invasive-species/directives/imports/d-08-04/eng/1323752901318/1323753560467\">D-08-04, Plant protection import requirements for plants and plant parts for planting: Preventing the entry and spread of regulated plant pests associated with the plants for planting pathway</a></li>\n<li class=\"mrgn-bttm-md\"><a href=\"/eng/1326390329570/1326390421438\">D-11-05, Phytosanitary requirements for non-manufactured and non-propagative wood products to prevent the introduction from the continental United States and spread within Canada of the Asian longhorned Beetle, Anoplophora glabripennis (Motschulsky)</a></li>\n<li class=\"mrgn-bttm-md\"><abbr title=\"International Standard For Phytosanitary Measures\">ISPM</abbr> <abbr title=\"number\">No.</abbr> 4 - Requirements for the establishment of pest free areas. 1995. Rome, <abbr title=\"Food and Agriculture Organization\">FAO</abbr></li>\n<li class=\"mrgn-bttm-md\"><abbr title=\"International Standard For Phytosanitary Measures\">ISPM</abbr> <abbr title=\"number\">No.</abbr> 5 - Glossary of Phytosanitary Terms. Rome, <abbr title=\"Food and Agriculture Organization\">FAO</abbr> (updated annually)</li>\n<li class=\"mrgn-bttm-md\"><abbr title=\"International Standard For Phytosanitary Measures\">ISPM</abbr> <abbr title=\"number\">No.</abbr> 6 - Guidelines for surveillance. 1997. Rome, <abbr title=\"Food and Agriculture Organization\">FAO</abbr></li>\n<li class=\"mrgn-bttm-md\"><abbr title=\"International Standard For Phytosanitary Measures\">ISPM</abbr> <abbr title=\"number\">No.</abbr> 10 - Requirements for the establishment of pest free places of production and pest free production sites, 1999. Rome, <abbr title=\"Food and Agriculture Organization\">FAO</abbr></li>\n<li class=\"mrgn-bttm-md\"><abbr title=\"International Standard For Phytosanitary Measures\">ISPM</abbr> <abbr title=\"number\">No.</abbr> 14 - The use of integrated measures in a systems approach for pest risk management. 2002. Rome, <abbr title=\"Food and Agriculture Organization\">FAO</abbr></li>\n</ul>\n<h2 id=\"h\">Definitions, abbreviations and acronyms</h2>\n<p>Definitions for terms used in the present document can be found in the <a href=\"/plant-health/invasive-species/directives/glossary/eng/1304730588212/1304730789969\">Plant Health Glossary of Terms</a>.</p>\n<h2 id=\"a1\">1.0 General requirements</h2>\n<h3 id=\"a11\">1.1 Legislative authority</h3>\n<p><i>The Plant Protection Act,</i> <abbr title=\"Statutes of Canada\">S.C.</abbr> 1990, <abbr title=\"chapter\">c.</abbr>22<br>\n<i>The Plant Protection Regulations</i>, <abbr title=\"Statutory Orders and Regulations\">SOR</abbr>/95-212<br>\n<abbr title=\"1\">I</abbr> (as amended from time to time)</p>\n<h3 id=\"a12\">1.2 Fees</h3>\n<p>The <abbr title=\"Canadian Food Inspection Agency\">CFIA</abbr> is charging fees in accordance with the Canadian Food Inspection Agency Fees Notice. For information regarding fees associated with imported product, please contact the <a href=\"/importing-food-plants-or-animals/food-imports/nisc/eng/1364059150360/1364059265637\">Import Service Centre</a> (ISC). Anyone requiring other information regarding fees may contact any local <abbr title=\"Canadian Food Inspection Agency\">CFIA</abbr> office or visit our <a href=\"/about-cfia/acts-and-regulations/list-of-acts-and-regulations/cfia-fees-notice/eng/1582641645528/1582641871296?chap=0#c13\">Fees Notice</a> Web Site.</p>\n<h3 id=\"a13\">1.3 Regulated pests</h3>\n<p>The genus <i lang=\"la\">Anoplophora</i> spp., including, but not limited to the following:</p>\n<ul>\n<li><i lang=\"la\"><abbr title=\"Anoplophora\">A.</abbr> chinensis</i>, citrus longhorned beetle</li>\n<li><i lang=\"la\"><abbr title=\"Anoplophora\">A.</abbr> glabripennis</i>, Asian longhorned beetle or starry sky beetle</li>\n</ul>\n<h3 id=\"a14\">1.4 Regulated commodities</h3>\n<p>All rooted and unrooted plants for planting and fresh branches that are a host of <i lang=\"la\">Anoplophora</i> spp. and that have a diameter of 10\u00a0<abbr title=\"millimetres\">mm</abbr> (0.4 <abbr title=\"inches\">in</abbr>) or more at their widest point, including artificially dwarfed plants (bonsai and penjing). A list of host plants for <i lang=\"la\">Anoplophora</i> spp. can be found in <a href=\"#app1\">Appendix 1.</a></p>\n<h3 id=\"a15\">1.5 Exempt commodities</h3>\n<p>All rooted and unrooted host plants for planting and fresh branches which have a diameter less than 10\u00a0<abbr title=\"millimetres\">mm</abbr> (0.4 <abbr title=\"inches\">in</abbr>) at their widest point.</p>\n<p>Dry material.</p>\n<h4 id=\"a151\">1.5.1 Document requirements for exempt commodities</h4>\n<p>A Phytosanitary Certificate must accompany the material and include the following additional declaration:</p>\n<p class=\"mrgn-lft-md\">\"The plant material in this consignment meet the <abbr title=\"Canadian Food Inspection Agency\">CFIA</abbr> phytosanitary requirements as described in policy directive D-11-01 to prevent the entry and spread of <i lang=\"la\">Anoplophora</i> spp.\"</p>\n<p><strong>Note:</strong> Commodities that are exempted under this directive may be regulated under other <a href=\"/plant-health/invasive-species/directives/eng/1304570539802/1304570628492\">policy directives</a>. Please consult the <abbr title=\"Canadian Food Inspection Agency\">CFIA</abbr> website or the <a href=\"/importing-food-plants-or-animals/plant-and-plant-product-imports/airs/eng/1300127512994/1300127627409\">Automated Import Reference System</a> for further information.</p>\n<h3 id=\"a16\">1.6 Regulated areas</h3>\n<p>All countries of the world.</p>\n<h2 id=\"a2\">2.0 Import Requirements</h2>\n<p>The import requirements specified in this policy directive are intended to prevent the entry of <i lang=\"la\">Anoplophora</i> spp. only. Additional import requirements may exist for other pests and will be outlined in different policy directives.</p>\n<h3 id=\"a21\">2.1 Domestic requirements</h3>\n<p>For <abbr title=\"Asian long-horned beetle\">ALHB</abbr>, the movement of regulated commodities from regulated to non-regulated areas of Canada requires written authorization by the <abbr title=\"Canadian Food Inspection Agency\">CFIA</abbr> and is authorized only under the provisions stipulated in the Asian Long-horned Beetle Infested Place Order.</p>\n<p><strong>Please contact your local office of the <abbr title=\"Canadian Food Inspection Agency\">CFIA</abbr> for more information.</strong></p>\n<h3 id=\"a22\">2.2 Regulated commodities from countries other than the Continental <abbr title=\"United States\">U.S</abbr> where <i lang=\"la\">Anoplophora</i> spp. are present</h3>\n<p>Refer to <a href=\"#app2\">Appendix 2</a> for a list of countries where <i lang=\"la\">Anoplophora</i> spp. are present.</p>\n<p><strong>Note:</strong> Fresh branches that are a host of <i lang=\"la\">Anoplophora</i> spp. and that have a diameter of 10\u00a0<abbr title=\"millimetres\">mm</abbr> (0.4 <abbr title=\"inches\">in</abbr>) or more at their widest point <strong>are prohibited</strong> from countries (other than the Continental <abbr title=\"United States\">U.S</abbr>) where <i lang=\"la\">Anoplophora</i> spp. are present.</p>\n<p>All regulated commodities, other than fresh branches, must have been produced in a pest free area (PFA) established and maintained according to <abbr title=\"International Standard For Phytosanitary Measures\">ISPM</abbr> <abbr title=\"number\">No.</abbr> 4 Requirements for the establishment of pest free areas. The establishment and maintenance of a pest free area are based on the implementation of surveys, systems approaches and testing protocols agreed to by the <abbr title=\"Canadian Food Inspection Agency\">CFIA</abbr>.</p>\n<p><strong>Or</strong></p>\n<p>All regulated commodities, other than fresh branches, must have been produced in a pest free place of production (PFPP) or pest free production site (PFPS) established and maintained according to <abbr title=\"International Standard For Phytosanitary Measures\">ISPM</abbr> <abbr title=\"number\">No.</abbr> 10  Requirements for the establishment of pest free places of production and pest free production sites. The establishment and maintenance of a pest free place of production or pest free production site are based on the implementation of surveys, systems approaches and testing protocols agreed to by the <abbr title=\"Canadian Food Inspection Agency\">CFIA</abbr>.</p>\n<p>Once a country is approved for the export of regulated material to Canada, the following requirements must be met:</p>\n<h4 id=\"a221\">2.2.1 Document Requirements for regulated commodities from countries other than the Continental <abbr title=\"United States\">U.S</abbr> where <i lang=\"la\">Anoplophora</i> spp. are present</h4>\n<p><strong>A Permit to Import is required.</strong></p>\n<p>A Phytosanitary Certificate must accompany the material and include the following additional declaration:</p>\n<p class=\"mrgn-lft-md\">\"The plant material in this consignment meet the <abbr title=\"Canadian Food Inspection Agency\">CFIA</abbr> phytosanitary requirements as described in policy directive D-11-01 to prevent the entry and spread of <i lang=\"la\">Anoplophora</i> spp.\"</p>\n<p><strong>Additional declarations attesting to freedom from other pests may be required depending on the commodity and country of origin.</strong></p>\n<p><strong>Note:</strong> The import of regulated material, other than fresh branches, from countries where <i lang=\"la\">Anoplophora</i> spp. are present is only approved when the material was produced in pest free areas, pest free places of production or pest free production sites within these countries. <strong>The material has to be grown in the <abbr title=\"pest free area\">PFA</abbr>, <abbr title=\"pest free place of production\">PFPP</abbr> or <abbr title=\"pest free production site\">PFPS</abbr> for its entire life or for a minimum of three consecutive years immediately prior to export.</strong> The approval process of <abbr title=\"pest free area\">PFA</abbr>, <abbr title=\"pest free place of production\">PFPP</abbr> or <abbr title=\"pest free production site\">PFPS</abbr> for individual countries must be initiated by the exporting country by submitting information to the <abbr title=\"Canadian Food Inspection Agency\">CFIA</abbr> describing the official control measures implemented against these pests. Official control measures include, but are not limited to, systems approaches, surveys, and surveillance. Until the <abbr title=\"Canadian Food Inspection Agency\">CFIA</abbr> has reviewed and recognized the official control measures implemented by the <abbr title=\"National Plant Protection Organizations\">NPPO</abbr> in the exporting country as sufficient to mitigate the risks of spreading <i lang=\"la\">Anoplophora</i> spp., the import of regulated commodities from these countries is prohibited. Please consult <abbr title=\"International Standard For Phytosanitary Measures\">ISPM</abbr> <abbr title=\"number\">No.</abbr> 4, 6, 10 and 14, for more information about the establishment of pest free areas, pest free production sites or pest free places of production, and about surveillance and systems approaches.</p>\n<p>In the event of discrepancies between the list of plant genera regulated by the <abbr title=\"Canadian Food Inspection Agency\">CFIA</abbr> and the foreign <abbr title=\"National Plant Protection Organizations\">NPPO</abbr>, the <abbr title=\"Canadian Food Inspection Agency\">CFIA</abbr>'s list of hosts will take precedence.</p>\n<h3 id=\"a23\">2.3 Regulated commodities from countries other than the Continental <abbr title=\"United States\">U.S</abbr> where Anoplophora spp. are known not to occur</h3>\n<p><strong>A Permit to Import is required.</strong></p>\n<p>A Phytosanitary Certificate must accompany the material and include the following additional declaration:</p>\n<p class=\"mrgn-lft-md\">\"The plant material in this consignment was solely grown in Name of exporting country and <i lang=\"la\">Anoplophora chinensis</i> and <i lang=\"la\"><abbr title=\"Anoplophora\">A.</abbr> glabripennis</i> are known not to occur in Name of exporting country.\"</p>\n<p><strong>Additional declarations attesting to freedom from other pests may be required depending on the commodity and country of origin.</strong></p>\n<h3 id=\"a24\">2.4 Regulated commodities from states of the Continental <abbr title=\"United States\">U.S</abbr> where populations of <i lang=\"la\">Anoplophora</i> spp. have been detected and are currently under official control</h3>\n<p>A list of <abbr title=\"United States\">U.S</abbr> states where populations of <i lang=\"la\">Anoplophora glabripennis</i> have been detected is provided in <a href=\"#app2\">Appendix 2</a>.</p>\n<p>The <abbr title=\"Canadian Food Inspection Agency\">CFIA</abbr> recognizes the <abbr title=\"United States Department of Agriculture\">USDA</abbr> regulated areas where <i lang=\"la\">Anoplophora</i> spp. are under official control as defined by the <abbr title=\"United States Department of Agriculture\">USDA</abbr> in <abbr title=\"Code of Federal Regulations\">CFR</abbr> 301.51 and associated <abbr title=\"United States\">U.S</abbr> Federal Orders.</p>\n<p><strong>Note:</strong> Regulated commodities originating from <abbr title=\"United States\">U.S</abbr> states where populations of <i lang=\"la\">Anoplophora</i> spp. have been detected but are <strong>from outside</strong> of the regulated areas are not subjected to the <i lang=\"la\">Anoplophora</i> spp. phytosanitary requirements.</p>\n<p>Regulated commodities originating from <abbr title=\"United States\">U.S</abbr> states where populations of <i lang=\"la\">Anoplophora</i> spp. have been detected and <strong>from within</strong> regulated areas are subjected to the <i lang=\"la\">Anoplophora</i> spp. requirements as outlined below.</p>\n<p><strong>In order to be approved entry into Canada, regulated commodities from regulated areas must originate from facilities that have entered into a compliance agreement with the <abbr title=\"United States Department of Agriculture\">USDA</abbr> and must meet the requirements of the <abbr title=\"United States\">U.S</abbr> Federal regulations related to <i lang=\"la\"><abbr title=\"Anoplophora\">A.</abbr> glabripennis</i> (7 <abbr title=\"Code of Federal Regulations\">CFR</abbr> 301.51).</strong></p>\n<h4 id=\"a241\">2.4.1 Document requirements for regulated commodities from states of the Continental <abbr title=\"United States\">U.S</abbr> where populations of <i lang=\"la\">Anoplophora</i> spp. have been detected and are currently under official control</h4>\n<p>A Permit to Import is not required unless specified in <a href=\"/importing-food-plants-or-animals/plant-and-plant-product-imports/airs/eng/1300127512994/1300127627409\">AIRS</a>.</p>\n<p>A Phytosanitary Certificate must accompany the material and must include the following additional declaration:</p>\n<p class=\"mrgn-lft-md\">\"This shipment conforms to 7 <abbr title=\"Code of Federal Regulations\">CFR</abbr> 301.51, which regulates the movement of plant material from areas regulated for <i lang=\"la\"><abbr title=\"Anoplophora\">A.</abbr> glabripennis</i>.\"</p>\n<p><strong>Additional declarations attesting to freedom from other pests may be required depending on the commodity and state of origin.</strong></p>\n<h3 id=\"a25\">2.5 Regulated commodities from states of the Continental <abbr title=\"United States\">U.S</abbr> where <i lang=\"la\">Anoplophora</i> spp. are known not to occur</h3>\n<p>A Permit to Import is not required unless specified in <a href=\"/importing-food-plants-or-animals/plant-and-plant-product-imports/airs/eng/1300127512994/1300127627409\">AIRS</a>.</p>\n<p><strong>For fresh branches:</strong><br>\n<a href=\"/plant-health/invasive-species/directives/imports/d-08-04/eng/1323752901318/1323753560467\">D-08-04</a> Plant protection import requirements for plants and plant parts for planting: Preventing the entry and spread of regulated plant pests associated with the plants for planting pathway.</p>\n<p><strong>For rooted and unrooted plants for planting:</strong><br>\n<i lang=\"la\">Anoplophora</i> spp. is not required.</p>\n<p><strong>Additional declarations attesting to freedom from other pests may be required depending on the commodity and state of origin.</strong></p>\n<h2 id=\"a3\">3.0 Non-compliance</h2>\n<p>The importer is responsible for any and all costs related to inspection and any costs associated with non-compliant shipments, including removal, return to origin, rerouting, treatment, disposal or any other measure deemed necessary by the <abbr title=\"Canadian Food Inspection Agency\">CFIA</abbr>. Canada will provide notification to the exporting country's <abbr title=\"National Plant Protection Organizations\">NPPO</abbr> of any interception and non-compliance. The detection of quarantine pests during inspection in Canada or any other non-compliance may result in the suspension of the importation of commodities from that country until remedial action is taken at origin.</p>\n<p>For more information, please refer to the <abbr title=\"Canadian Food Inspection Agency\">CFIA</abbr> policy directive <a href=\"/plant-health/invasive-species/directives/exports/d-01-06/eng/1320037517418/1320037680823\">D-01-06</a> Canadian Phytosanitary Policy for the Notification of Non-Compliance and Emergency Action.</p>\n<h2 id=\"a4\">4.0 Appendices</h2>\n<h3 id=\"app1\">Appendix 1: Host genera of <i lang=\"la\">Anoplophora</i> spp.</h3>\n<p><a href=\"/plant-health/invasive-species/directives/forest-products/d-11-01/appendix-1/eng/1322628753967/1322628853096\">List of host genera of <i lang=\"la\">Anoplophora</i> spp.</a></p>\n<h3 id=\"app2\">Appendix 2: Areas, territories and countries regulated for <i lang=\"la\">Anoplophora</i> spp.</h3>\n<p><a href=\"/plant-health/invasive-species/directives/forest-products/d-11-01/appendix-2/eng/1322631098721/1322631226612\">List of areas, territories and countries where <i lang=\"la\">Anoplophora</i> spp. are present</a></p>\n\r\n        \r\n\r\n\r\n\r\n<div class=\"row\">\r\n \r\n\t\r\n\t\t\t\r\n\r\n<div class=\"col-xm-12 pagedetails container\">\r\n\t\t\t\t\r\n\r\n</div>\r\n\t\r\n</div>",
        "fr": "\r\n        \r\n        \n<section class=\"alert alert-info\">\r\n<h2 class=\"h3\">Cette page fait partie du r\u00e9pertoire des documents d'orientation (RDO).</h2>\r\n<p>\r\n<br>\r\n<a href=\"/orientation-pour-l-industrie/fra/1374161650885/1374161737236?gp=3&amp;gc=24&amp;ga=64#gdr_results\" class=\"alert-link\">\r\n            Recherche de documents connexes dans le r\u00e9pertoire des documents d'orientation.\r\n</a>\r\n</p>\r\n</section><p><strong>Date d'entr\u00e9e en vigueur\u00a0: 22 d\u00e9cembre 2011<br> (Original)</strong></p>\n<h2>Objet</h2>\n<p>La pr\u00e9sente directive d\u00e9crit les exigences phytosanitaires s'appliquant aux v\u00e9g\u00e9taux destin\u00e9s \u00e0 la plantation et aux rameaux d\u00e9coratifs frais appartenant aux plantes h\u00f4tes des <i lang=\"la\">Anoplophora</i> spp. Au moment d'\u00e9crire cette directive, des donn\u00e9es propres \u00e0 deux esp\u00e8ces d'<i lang=\"la\">Anoplophora</i> (<i lang=\"la\"><abbr title=\"Anoplophora\">A.</abbr> chinensis</i> et <i lang=\"la\"><abbr title=\"Anoplophora\">A.</abbr> glabripennis</i>) \u00e9taient disponibles et figurent donc dans le document. Il faut noter que le genre <i lang=\"la\">Anoplophora</i> spp. dans son entier est r\u00e9glement\u00e9 par l'<abbr title=\"Agence canadienne d'inspection des aliments\">ACIA</abbr>. Les exigences de la directive visent \u00e0 att\u00e9nuer le risque d'introduction involontaire au Canada de ces organismes de quarantaine dans les v\u00e9g\u00e9taux destin\u00e9s \u00e0 la multiplication et dans les rameaux d\u00e9coratifs frais import\u00e9s.</p>\n<h2>Sur cette page</h2>\n<ul>\n<li><a href=\"#a\">R\u00e9vision</a></li>\n<li><a href=\"#b\">Approbation</a></li>\n<li><a href=\"#c\">Registre des modifications</a></li>\n<li><a href=\"#d\">Liste de distribution</a></li>\n<li><a href=\"#e\">Introduction</a></li>\n<li><a href=\"#f\">Port\u00e9e</a></li>\n<li><a href=\"#g\">R\u00e9f\u00e9rences</a></li>\n<li><a href=\"#h\">D\u00e9finitions, abr\u00e9viations et acronymes</a></li>\n<li><a href=\"#a1\">1.0 Exigences g\u00e9n\u00e9rales</a> \n<ul>\n<li><a href=\"#a11\">1.1 Cadre l\u00e9gislatif</a></li>\n<li><a href=\"#a12\">1.2 Droits</a></li>\n<li><a href=\"#a13\">1.3 Ravageurs r\u00e9glement\u00e9s</a></li>\n<li><a href=\"#a14\">1.4 Produits r\u00e9glement\u00e9s</a></li>\n<li><a href=\"#a15\">1.5 Produits exempt\u00e9s</a>\n<ul>\n<li><a href=\"#a151\">1.5.1 Document requis pour produits exempt\u00e9s</a></li>\n</ul></li>\n<li><a href=\"#a16\">1.6 Zones r\u00e9glement\u00e9es</a></li>\n</ul>\n</li>\n<li><a href=\"#a2\">2.0 Exigences d'importation</a> \n<ul>\n<li><a href=\"#a21\">2.1 Exigences domestiques</a></li>\n<li><a href=\"#a22\">2.2 Produits r\u00e9glement\u00e9s en provenance de pays autres que la zone continentale des \u00c9tats-Unis o\u00f9 des esp\u00e8ces d'<i lang=\"la\">Anoplophora</i> spp. sont pr\u00e9sentes</a>\n<ul>\n<li><a href=\"#a221\">2.2.1 Document requis pour produits r\u00e9glement\u00e9s en provenance de pays autres que la zone continentale des \u00c9tats-Unis o\u00f9 des esp\u00e8ces d'<i lang=\"la\">Anoplophora</i> spp. sont pr\u00e9sentes</a></li>\n</ul></li>\n<li><a href=\"#a23\">2.3 Produits r\u00e9glement\u00e9s en provenance de pays autres que la zone continentale des \u00c9tats-Unis o\u00f9 il est \u00e9tabli que des esp\u00e8ces d'<i lang=\"la\">Anoplophora</i> spp. ne sont pas pr\u00e9sentes</a></li>\n<li><a href=\"#a24\">2.4 Produits r\u00e9glement\u00e9s en provenance d'\u00c9tats de la zone continentale des \u00c9tats-Unis o\u00f9 des populations d'<i lang=\"la\">Anoplophora</i> spp. ont \u00e9t\u00e9 d\u00e9tect\u00e9es et sont sous contr\u00f4le officiel</a>\n<ul>\n<li><a href=\"#a241\">2.4.1 Document requis pour produits r\u00e9glement\u00e9s en provenance d'\u00c9tats de la zone continentale des \u00c9tats-Unis o\u00f9des populations d'<i lang=\"la\">Anoplophora</i> spp. ont \u00e9t\u00e9 d\u00e9tect\u00e9es et sont sous contr\u00f4le officiel</a></li>\n</ul></li>\n<li><a href=\"#a25\">2.5 Produits r\u00e9glement\u00e9s en provenance d'\u00c9tats de la zone continentale des \u00c9tats-Unis o\u00f9 les insectes du genre <i lang=\"la\">Anoplophora</i> spp. sont r\u00e9put\u00e9s absents</a></li>\n</ul>\n</li>\n<li><a href=\"#a3\">3.0 Non-conformit\u00e9</a></li>\n<li><a href=\"#a4\">4.0 Annexes</a> \n<ul>\n<li><a href=\"#app1\">Annexe 1 Genres h\u00f4tes des insectes du genre <i lang=\"la\">Anoplophora</i> spp.</a></li>\n<li><a href=\"#app2\">Annexe 2 Zones, territoires et pays o\u00f9 des esp\u00e8ces d'<i lang=\"la\">Anoplophora</i> spp. sont pr\u00e9sentes</a></li>\n</ul>\n</li>\n</ul>\n<h2 id=\"a\">R\u00e9vision</h2>\n<p>La pr\u00e9sente directive sera r\u00e9vis\u00e9e tous les cinq ans ou au besoin. Pour de plus amples renseignements ou clarifications, communiquez avec l'<abbr title=\"Agence canadienne d'inspection des aliments\">ACIA</abbr>.</p>\n<h2 id=\"b\">Approbation</h2>\n<p>Approuv\u00e9 par\u00a0:</p>\n<p>Dirigeant principal de la protection des v\u00e9g\u00e9taux</p>\n<h2 id=\"c\">Registre des modifications</h2>\n<p>Les modifications apport\u00e9es \u00e0 la pr\u00e9sente directive seront dat\u00e9es et distribu\u00e9es selon la liste ci-dessous.</p>\n<h2 id=\"d\">Liste de distribution</h2>\n<ol>\n<li>Liste d'envoi des directives (bureaux r\u00e9gionaux de l'<abbr title=\"Agence canadienne d'inspection des aliments\">ACIA</abbr>, Unit\u00e9 d'\u00e9valuation des risques phytosanitaires de l'<abbr title=\"Agence canadienne d'inspection des aliments\">ACIA</abbr>, D\u00e9partement de l'Agriculture des \u00c9tats-Unis)</li>\n<li>Gouvernements provinciaux, industrie (\u00e0 d\u00e9terminer par l'auteur)</li>\n<li>Organismes sectoriels nationaux (\u00e0 d\u00e9terminer par l'auteur)</li>\n<li>Internet</li>\n</ol>\n<h2 id=\"e\">Introduction</h2>\n<p>La pr\u00e9sente directive a pour but de pr\u00e9venir l'introduction des insectes appartenant au genre <i lang=\"la\">Anoplophora</i> spp. au Canada. Toutes les esp\u00e8ces d'<i lang=\"la\">Anoplophora</i> sont originaires de la Chine, du Japon, de la Cor\u00e9e et d'autres pays de l'Asie. <i lang=\"la\">Anoplophora chinensis</i> (Forester) (longicorne des agrumes) et <i lang=\"la\"><abbr title=\"Anoplophora\">A.</abbr> glabripennis</i> (longicorne asiatique) sont des organismes nuisibles qui suscitent beaucoup d'inqui\u00e9tude dans le monde entier et sont consid\u00e9r\u00e9s comme \u00e9tant des organismes de quarantaine dans de nombreux pays, dont les principaux partenaires commerciaux du Canada, comme les \u00c9tats-Unis. Au Canada, le genre entier est r\u00e9glement\u00e9 et est consid\u00e9r\u00e9 comme \u00e9tant de quarantaine.</p>\n<p>Les insectes du genre <i lang=\"la\">Anoplophora</i> sont des col\u00e9opt\u00e8res longicornes xylophages, de la famille des C\u00e9rambycides, qui s'attaquent tout aussi bien \u00e0 des arbres verts et en sant\u00e9 qu'\u00e0 des arbres affaiblis ou stress\u00e9s. Ils peuvent attaquer des arbres de diverses tailles, du bonsa\u00ef \u00e0 l'arbre mature. Les larves sont particuli\u00e8rement destructrices parce que pour se nourrir elles p\u00e9n\u00e8trent le syst\u00e8me vasculaire des racines, du tronc, des tiges secondaires ou des rameaux de ses h\u00f4tes. Le minage occasionn\u00e9 affaiblit l'arbre et peut, en plusieurs ann\u00e9es, le tuer. Une infection secondaire est aussi possible \u00e0 la suite de l'introduction de pathog\u00e8nes dans les l\u00e9sions cr\u00e9\u00e9es ou les trous de sortie. Puisque ces col\u00e9opt\u00e8res passent une grande partie de leur cycle de vie \u00e0 l'int\u00e9rieur des arbres, il est tr\u00e8s difficile de d\u00e9tecter leur pr\u00e9sence avant que les arbres montrent des signes de stress. Il est \u00e9galement tr\u00e8s difficile de lutter contre ces ravageurs puisqu'\u00e0 l'\u00e9tat de larve et de nymphe ils sont \u00e0 l'abri des insecticides de contact et de la plupart des pr\u00e9dateurs et des parasito\u00efdes.</p>\n<p>Le genre <i lang=\"la\">Anoplophora</i> a une gamme d'h\u00f4tes tr\u00e8s \u00e9tendue. <i lang=\"la\">Anoplophora chinensis</i> et <i lang=\"la\"><abbr title=\"Anoplophora\">A.</abbr> glabripennis</i> peuvent s'attaquer \u00e0 plus de 100 esp\u00e8ces appartenant \u00e0 au moins 26 et 15 familles, respectivement (<abbr title=\"Centre pour l'agriculture et les sciences biologiques internationales\">CABI</abbr>, 2005; Lingafeter et Hoebeke, 2002), dont plusieurs esp\u00e8ces foresti\u00e8res, fruiti\u00e8res et ornementales de grande importance \u00e9conomique. La liste des plantes h\u00f4tes du longicorne des agrumes et du longicorne asiatique peut \u00eatre consult\u00e9e \u00e0 l'<a href=\"#app1\">Annexe 1</a>.</p>\n<p>Les col\u00e9opt\u00e8res longicornes se sont diss\u00e9min\u00e9s \u00e0 travers le monde dans les mat\u00e9riaux d'emballage et d'arrimage en bois et dans les plantes vivantes. Le pr\u00e9sent document pr\u00e9cise les exigences d'importation visant \u00e0 pr\u00e9venir l'introduction des <i lang=\"la\">Anoplophora</i> spp. par la voie des v\u00e9g\u00e9taux destin\u00e9s \u00e0 la plantation et des rameaux d\u00e9coratifs frais seulement. Les autres produits pouvant contribuer \u00e0 la diss\u00e9mination de ces organismes nuisibles sont r\u00e9glement\u00e9s par d'autres politiques de l'<abbr title=\"Agence canadienne d'inspection des aliments\">ACIA</abbr>. La directive <a href=\"/protection-des-vegetaux/especes-envahissantes/directives/produits-forestiers/d-98-08/fra/1323963831423/1323964135993\">D-98-08</a> (Exigences relatives \u00e0 l'entr\u00e9e au Canada des mat\u00e9riaux d'emballage en bois produits dans toute r\u00e9gion du monde autre que la zone continentale des \u00c9tats-Unis) pr\u00e9cise les exigences phytosanitaires relatives aux mat\u00e9riaux d'emballage en bois non manufactur\u00e9. Les exigences phytosanitaires \u00e0 l'importation des produits forestiers se trouvent dans la directive <a href=\"/protection-des-vegetaux/especes-envahissantes/directives/produits-forestiers/d-02-12/fra/1488215831209/1488215831755\">D-02-12</a>, Exigences s'appliquant \u00e0 l'importation de bois non transform\u00e9 et d'autres produits de bois non destin\u00e9s \u00e0 la multiplication (sauf les mat\u00e9riaux d'emballage en bois massif), provenant de toutes les r\u00e9gions autres que la zone continentale des \u00c9tats-Unis.</p>\n<p>La premi\u00e8re d\u00e9tection de <i lang=\"la\"><abbr title=\"Anoplophora\">A.</abbr> chinensis</i> qui a \u00e9t\u00e9 signal\u00e9e remonte en 1980 aux Pays-Bas. Depuis l'an 2000, plusieurs populations aptes \u00e0 se reproduire ont \u00e9t\u00e9 d\u00e9tect\u00e9es en Italie, en France, en Lituanie et aux Pays-Bas. Le longicorne des agrumes repr\u00e9sente une menace \u00e9conomique et \u00e9cologique pour les arbres utilis\u00e9s en horticulture et en foresterie dans les r\u00e9gions bois\u00e9es de l'Europe, et pour la production d'agrumes de la M\u00e9diterran\u00e9e (<abbr lang=\"en\" title=\"Department for Environment Food and Rural Affairs\">DEFRA</abbr>, 2008). En Am\u00e9rique du Nord, aucune population \u00e9tablie du longicorne des agrumes n'a \u00e9t\u00e9 d\u00e9tect\u00e9e jusqu'\u00e0 pr\u00e9sent, mais quelques sp\u00e9cimens adultes ont \u00e9t\u00e9 localis\u00e9s en 2001 dans une p\u00e9pini\u00e8re de l'\u00c9tat de Washington. Cette d\u00e9couverte a \u00e9t\u00e9 reli\u00e9e \u00e0 l'importation de mat\u00e9riel h\u00f4te provenant de la Cor\u00e9e, et a men\u00e9 \u00e0 la mise en place d'un programme intensif d'\u00e9radication dans la r\u00e9gion, qui a \u00e9t\u00e9 d\u00e9clar\u00e9 r\u00e9ussi en 2007 par le <abbr lang=\"en\" title=\"United States Department of Agriculture\">USDA</abbr>. Au cours des derni\u00e8res ann\u00e9es, d'autres sp\u00e9cimens du longicorne des agrumes ont aussi \u00e9t\u00e9 intercept\u00e9s dans du mat\u00e9riel h\u00f4te import\u00e9, mais ces incidents n'ont \u00e9t\u00e9 signal\u00e9s qu'en tant qu'interceptions et n'ont pas entra\u00een\u00e9 l'\u00e9tablissement d'une population. Le longicorne des agrumes n'a jamais \u00e9t\u00e9 d\u00e9tect\u00e9 au Canada. Les r\u00e9percussions possibles d'une introduction involontaire de ce ravageur au Canada sont consid\u00e9r\u00e9es comme majeures, \u00e9tant donn\u00e9 qu'il peut attaquer une vaste gamme d'h\u00f4tes dont plusieurs sont des esp\u00e8ces foresti\u00e8res, fruiti\u00e8res et ornementales de grande importance \u00e9conomique.</p>\n<p>La premi\u00e8re population \u00e9tablie d'<i lang=\"la\"><abbr title=\"Anoplophora\">A.</abbr> glabripennis</i> \u00e0 l'ext\u00e9rieur des r\u00e9gions o\u00f9 l'insecte est indig\u00e8ne a \u00e9t\u00e9 d\u00e9couverte en 1996 \u00e0 <span lang=\"en\">Brooklyn, New York</span>. Le col\u00e9opt\u00e8re a ensuite \u00e9t\u00e9 d\u00e9tect\u00e9 \u00e0 <span lang=\"en\">Long Island</span>, dans le <span lang=\"en\">Queens</span> et \u00e0 <span lang=\"en\">Manhattan</span>. En 1998, un autre sp\u00e9cimen a \u00e9t\u00e9 d\u00e9couvert en banlieue de <span lang=\"en\">Chicago</span>, dans l'<span lang=\"en\">Illinois</span>. Des populations \u00e9tablies ont aussi \u00e9t\u00e9 d\u00e9tect\u00e9es dans deux emplacements distincts du <span lang=\"en\">New Jersey</span>\u00a0\u2013\u00a0\u00e0 <span lang=\"en\">Jersey City</span> en 2002 et dans les comt\u00e9s de <span lang=\"en\">Middlesex</span> et d'Union en 2004. En 2007, le longicorne asiatique \u00e9tait d\u00e9couvert dans <span lang=\"en\">Staten</span> et <span lang=\"en\">Prall's Islands</span>, dans l'\u00c9tat de <span lang=\"en\">New York</span>, et a \u00e9t\u00e9 d\u00e9tect\u00e9 \u00e0 <span lang=\"en\">Worcester</span>, au <span lang=\"en\">Massachusetts</span>, en ao\u00fbt 2008. En juin 2011, le <abbr lang=\"en\" title=\"United States Department of Agriculture\">USDA</abbr> a confirm\u00e9 la pr\u00e9sence de populations du longicorne asiatique en Ohio. Les infestations en <span lang=\"en\">Illinois</span> et \u00e0 <span lang=\"en\">Jersey City</span> ont \u00e9t\u00e9 d\u00e9clar\u00e9es \u00e9radiqu\u00e9es. En Europe, des populations en reproduction ont \u00e9t\u00e9 d\u00e9tect\u00e9es en Autriche, en France, en Allemagne et en Italie, et quelques interceptions ont \u00e9t\u00e9 signal\u00e9es dans divers pays europ\u00e9ens. En date de novembre 2010, les Pays-Bas ont confirm\u00e9 leur premi\u00e8re d\u00e9tection d'une population de longicorne asiatique, qui fait pr\u00e9sentement l'objet d'un programme d'\u00e9radication.</p>\n<p>En septembre 2003, le longicorne asiatique a \u00e9t\u00e9 d\u00e9tect\u00e9 pour la premi\u00e8re fois au Canada dans la r\u00e9gion de Toronto. On croit que le col\u00e9opt\u00e8re a \u00e9t\u00e9 introduit au pays dans des mat\u00e9riaux d'emballage en bois non manufactur\u00e9 plusieurs ann\u00e9es auparavant. L'<abbr title=\"Agence canadienne d'inspection des aliments\">ACIA</abbr> a abattu environ 26\u00a0000 arbres dans le cadre de ses efforts d'\u00e9radication. Un plan d'\u00e9radication vigoureux a \u00e9t\u00e9 mis en place au Canada et des enqu\u00eates annuelles sont men\u00e9es pour favoriser la d\u00e9tection pr\u00e9coce des nouvelles infestations, le cas \u00e9ch\u00e9ant. Les donn\u00e9es indiquent qu'en cas d'\u00e9chec des efforts d'\u00e9radication, le longicorne asiatique pourrait devenir un important ravageur des arbres feuillus et occasionner de vastes pertes, en particulier en ce qui concerne les produits de l'\u00e9rable, le tourisme, le secteur du bois d'oeuvre de feuillus, et les for\u00eats urbaines. Si le longicorne asiatique devait se propager dans d'autres r\u00e9gions canadiennes, il pourrait menacer d'autres for\u00eats urbaines, ainsi que les for\u00eats naturelles, entre autres celles des parcs provinciaux et f\u00e9d\u00e9raux, des r\u00e9gions touristiques et des terrains prot\u00e9g\u00e9s.</p>\n<h2 id=\"f\">Port\u00e9e</h2>\n<p>La pr\u00e9sente directive est \u00e0 l'intention des personnes qui souhaitent importer du mat\u00e9riel de p\u00e9pini\u00e8re, des v\u00e9g\u00e9taux destin\u00e9s \u00e0 la plantation et des rameaux d\u00e9coratifs frais en provenance de pays o\u00f9 des esp\u00e8ces d'<i lang=\"la\">Anoplophora</i> spp. sont pr\u00e9sentes. Elle s'adresse \u00e9galement aux inspecteurs de l'<abbr title=\"Agence canadienne d'inspection des aliments\">ACIA</abbr>, \u00e0 l'Agence des services frontaliers du Canada et aux Organisations nationales de la protection des v\u00e9g\u00e9taux (ONPV) afin de leur permettre de d\u00e9terminer quelles sont les exigences phytosanitaires concernant l'importation et la circulation domestique de v\u00e9g\u00e9taux destin\u00e9s \u00e0 la plantation et de rameaux d\u00e9coratifs frais \u00e0 l'\u00e9gard des <i lang=\"la\">Anoplophora</i> spp.</p>\n\n<h2 id=\"g\">R\u00e9f\u00e9rences</h2>\n\n<ul>\n<li class=\"mrgn-bttm-md\"><a href=\"/protection-des-vegetaux/especes-envahissantes/directives/exportation/d-01-06/fra/1320037517418/1320037680823\">D-01-06, Politique phytosanitaire canadienne relative \u00e0 la notification de non-conformit\u00e9 et d'action d'urgence</a></li>\n<li class=\"mrgn-bttm-md\"><a href=\"/protection-des-vegetaux/especes-envahissantes/directives/produits-forestiers/d-02-12/fra/1488215831209/1488215831755\">D-02-12, Exigences s'appliquant \u00e0 l'importation de bois non transform\u00e9 et d'autres produits de bois non destin\u00e9s \u00e0 la multiplication (sauf les mat\u00e9riaux d'emballage en bois massif), provenant de toutes les r\u00e9gions autres que la zone continentale des \u00c9tats-Unis</a></li>\n<li class=\"mrgn-bttm-md\"><a href=\"/protection-des-vegetaux/especes-envahissantes/directives/importation/d-08-04/fra/1323752901318/1323753560467\">D-08-04, Exigences phytosanitaires r\u00e9gissant l'importation de v\u00e9g\u00e9taux et de parties de v\u00e9g\u00e9taux destin\u00e9s \u00e0 la plantation\u00a0: r\u00e9glementer la fili\u00e8re des v\u00e9g\u00e9taux destin\u00e9s \u00e0 la plantation pour contrer l'entr\u00e9e et la dispersion de phytoravageurs r\u00e9glement\u00e9s</a></li>\n<li class=\"mrgn-bttm-md\"><a href=\"/fra/1326390329570/1326390421438\">D-11-05, Exigences phytosanitaires pour les produits de bois non transform\u00e9 et non destin\u00e9s \u00e0 la multiplication visant \u00e0 pr\u00e9venir l'introduction en provenance de la partie continentale des \u00c9tats-Unis et la propagation au Canada du longicorne asiatique, <span lang=\"la\">Anoplophora glabripennis</span> (Motschulsky)</a></li>\n<li class=\"mrgn-bttm-md\"><abbr title=\"Normes internationales pour les mesures phytosanitaires\">NIMP</abbr> <abbr title=\"num\u00e9ro\">n<sup>o</sup></abbr> 4 - Exigences pour l'\u00e9tablissement de zones indemnes. 1995. Rome, <abbr title=\"Organisation des Nations Unies pour l'alimentation et l'agriculture\">FAO</abbr></li>\n<li class=\"mrgn-bttm-md\"><abbr title=\"Normes internationales pour les mesures phytosanitaires\">NIMP</abbr> <abbr title=\"num\u00e9ro\">n<sup>o</sup></abbr> 5 - Glossaire des termes phytosanitaires. Rome, <abbr title=\"Organisation des Nations Unies pour l'alimentation et l'agriculture\">FAO</abbr> (mis \u00e0 jour annuellement)</li>\n<li class=\"mrgn-bttm-md\"><abbr title=\"Normes internationales pour les mesures phytosanitaires\">NIMP</abbr> <abbr title=\"num\u00e9ro\">n<sup>o</sup></abbr> 6 \u2013 Directives pour la surveillance. 1997. Rome, <abbr title=\"Organisation des Nations Unies pour l'alimentation et l'agriculture\">FAO</abbr></li>\n<li class=\"mrgn-bttm-md\"><abbr title=\"Normes internationales pour les mesures phytosanitaires\">NIMP</abbr> <abbr title=\"num\u00e9ro\">n<sup>o</sup></abbr> 10 - Exigences pour l'\u00e9tablissement de lieux et sites de production exempts d'organismes nuisibles. 1999. Rome, <abbr title=\"Organisation des Nations Unies pour l'alimentation et l'agriculture\">FAO</abbr></li>\n<li class=\"mrgn-bttm-md\"><abbr title=\"Normes internationales pour les mesures phytosanitaires\">NIMP</abbr> <abbr title=\"num\u00e9ro\">n<sup>o</sup></abbr> 14 \u2013 L'utilisation de mesures int\u00e9gr\u00e9es dans une approche syst\u00e9mique du risque phytosanitaire. 2002. Rome, <abbr title=\"Organisation des Nations Unies pour l'alimentation et l'agriculture\">FAO</abbr></li></ul>\n<h2 id=\"h\">D\u00e9finitions, abr\u00e9viations et acronymes</h2>\n<p>Les d\u00e9finitions des termes utilis\u00e9s dans le pr\u00e9sent document se trouvent dans le <a href=\"/protection-des-vegetaux/especes-envahissantes/directives/glossaire/fra/1304730588212/1304730789969\">Glossaire des termes utilis\u00e9s en protection des v\u00e9g\u00e9taux</a>.</p>\n<h2 id=\"a1\">1.0 Exigences g\u00e9n\u00e9rales</h2>\n<h3 id=\"a11\">1.1 Cadre l\u00e9gislatif</h3>\n<p><i>Loi sur la protection des v\u00e9g\u00e9taux</i>, <abbr title=\"Lois du Canada\">L.C.</abbr> 1990, <abbr title=\"chapitre\">c.</abbr> 22<br> <i>R\u00e8glement sur la protection des v\u00e9g\u00e9taux</i>, <abbr title=\"D\u00e9crets, ordonnances et r\u00e8glements statutaires\">DORS</abbr>/95-212<br> Avis sur les prix de l'Agence canadienne d'inspection des aliments, Partie <abbr title=\"1\">I</abbr> de la Gazette du Canada (mis \u00e0 jour annuellement)</p>\n<h3 id=\"a12\">1.2 Droits</h3>\n<p>L'<abbr title=\"Agence canadienne d'inspection des aliments\">ACIA</abbr> impose des droits conform\u00e9ment \u00e0 l'Avis sur les prix de l'Agence canadienne d'inspection des aliments. Pour obtenir des renseignements concernant les co\u00fbts associ\u00e9s aux produits import\u00e9s, veuillez communiquer avec le <a href=\"/importation-d-aliments-de-vegetaux-ou-d-animaux/importation-d-aliments/csni/fra/1364059150360/1364059265637\">Centre de service d'importation</a> (CSI). Toute personne qui souhaite obtenir d'autres renseignements sur les frais peut communiquer avec n'importe quel bureau local de l'<abbr title=\"Agence canadienne d'inspection des aliments\">ACIA</abbr> ou de visiter le site web <a href=\"/fra/1307222845373/1307222984162\">Avis sur les prix</a>.</p>\n<h3 id=\"a13\">1.3 Ravageurs r\u00e9glement\u00e9s</h3>\n<p>Le genre <i lang=\"la\">Anoplophora</i> spp. comprend, sans en exclure d'autres, les esp\u00e8ces suivantes\u00a0:</p>\n<ul>\n<li><i lang=\"la\"><abbr title=\"Anoplophora\">A.</abbr> chinensis</i>, longicorne des agrumes</li>\n<li><i lang=\"la\"><abbr title=\"Anoplophora\">A.</abbr> glabripennis</i>, longicorne asiatique ou longicorne \u00e9toil\u00e9</li>\n</ul>\n<h3 id=\"a14\">1.4 Produits r\u00e9glement\u00e9s</h3>\n<p>Tous les v\u00e9g\u00e9taux destin\u00e9s \u00e0 la plantation, avec racines ou non, et les rameaux d\u00e9coratifs frais qui sont des h\u00f4tes des <i lang=\"la\">Anoplophora</i> spp. et qui ont un diam\u00e8tre d'au moins 10 <abbr title=\"millim\u00e8tres\">mm</abbr> (0,4 <abbr title=\"pouce\">po</abbr>) au point le plus large, y compris les v\u00e9g\u00e9taux rendus nains de fa\u00e7on artificielle (bonsa\u00ef, penjing). La liste des v\u00e9g\u00e9taux h\u00f4tes des <i lang=\"la\">Anoplophora</i> spp. est pr\u00e9sent\u00e9e \u00e0 l'<a href=\"#app1\">annexe 1</a>.</p>\n<h3 id=\"a15\">1.5 Produits exempt\u00e9s</h3>\n<p>Tous les v\u00e9g\u00e9taux destin\u00e9s \u00e0 la plantation, avec racines ou non, et les rameaux d\u00e9coratifs frais dont le diam\u00e8tre au point le plus large est inf\u00e9rieur \u00e0 10 <abbr title=\"millim\u00e8tres\">mm</abbr> (0,4 <abbr title=\"pouce\">po</abbr>).</p>\n<p>Mat\u00e9riel d\u00e9coratif s\u00e9ch\u00e9.</p>\n<h4 id=\"a151\">1.5.1 Document requis pour produits exempt\u00e9s</h4>\n<p>Un certificat phytosanitaire doit accompagner le mat\u00e9riel exp\u00e9di\u00e9 et comprendre la d\u00e9claration suppl\u00e9mentaire suivante:</p>\n<p class=\"mrgn-lft-md\">\u00ab\u00a0Le mat\u00e9riel v\u00e9g\u00e9tal contenu dans cet envoi satisfait aux exigence phytosanitaires de l'<abbr title=\"Agence canadienne d'inspection des aliments\">ACIA</abbr> tells que d\u00e9crites dans la directive D-11-01 afin de pr\u00e9venir l'entr\u00e9e et la diss\u00e9mination d'<i lang=\"la\">Anoplophora</i> spp.\u00a0\u00bb</p>\n<p><strong>Note\u00a0:</strong> les produits exempt\u00e9s sous cette directive peuvent \u00eatre r\u00e9glement\u00e9s en vertu de d'autres <a href=\"/protection-des-vegetaux/especes-envahissantes/directives/fra/1304570539802/1304570628492\">directives en mati\u00e8re de politique</a>. Pour plus d'information, veuillez consulter le site de l'<abbr title=\"Agence canadienne d'inspection des aliments\">ACIA</abbr> ou le <a href=\"/importation-d-aliments-de-vegetaux-ou-d-animaux/importations-de-vegetaux-et-de-produits-vegetaux/sari/fra/1300127512994/1300127627409\">syst\u00e8me automatis\u00e9 de r\u00e9f\u00e9rence \u00e0 l'importation</a>.</p>\n<h3 id=\"a16\">1.6 Zones r\u00e9glement\u00e9es</h3>\n<p>Tous les pays du monde.</p>\n<h2 id=\"a2\">2.0 Exigences d'importation</h2>\n<p>Les exigences d'importation \u00e9nonc\u00e9es dans la pr\u00e9sente directive visent \u00e0 pr\u00e9venir l'introduction des <i lang=\"la\">Anoplophora</i> spp. seulement. D'autres exigences d'importation visant d'autres organismes nuisibles peuvent \u00eatre applicables et \u00eatre \u00e9nonc\u00e9es dans des directives diff\u00e9rentes.</p>\n<h3 id=\"a21\">2.1 Exigences domestiques</h3>\n<p>En ce qui concerne le longicorne asiatique, le d\u00e9placement de produits r\u00e9glement\u00e9s en provenance de zones r\u00e9glement\u00e9es vers des zones non r\u00e9glement\u00e9es du Canada n\u00e9cessite une autorisation par \u00e9crit de l'<abbr title=\"Agence canadienne d'inspection des aliments\">ACIA</abbr> et n'est autoris\u00e9 qu'en vertu des dispositions de l'Ordonnance sur les lieux infest\u00e9s par le longicorne asiatique.</p>\n<p><strong>Pour de plus amples renseignements, communiquer avec le bureau local de l'<abbr title=\"Agence canadienne d'inspection des aliments\">ACIA</abbr>.</strong></p>\n<h3 id=\"a22\">2.2 Produits r\u00e9glement\u00e9s en provenance de pays autres que la zone continentale des \u00c9tats-Unis o\u00f9 des esp\u00e8ces d'<i lang=\"la\">Anoplophora</i> spp. sont pr\u00e9sentes</h3>\n<p>Voir la liste des pays o\u00f9 des esp\u00e8ces d'<i lang=\"la\">Anoplophora</i> spp. sont pr\u00e9sentes \u00e0 l'<a href=\"#app2\">annexe 2</a>.</p>\n<p><strong>Note\u00a0:</strong> Les rameaux d\u00e9coratifs frais pouvant servir d'h\u00f4tes aux esp\u00e8ces d'<i lang=\"la\">Anoplophora</i> spp., qui ont un diam\u00e8tre \u00e9gal ou sup\u00e9rieur \u00e0 10 <abbr title=\"millim\u00e8tres\">mm</abbr> (0,4 <abbr title=\"pouce\">po</abbr>) \u00e0 leur point le plus large, provenant de pays autres que la zone continentale des \u00c9tats-Unis o\u00f9 des esp\u00e8ces d'<i lang=\"la\">Anoplophora</i> spp. sont pr\u00e9sentes <strong>sont interdits</strong>.</p>\n<p>Tous les produits r\u00e9glement\u00e9s, autres que les rameaux d\u00e9coratifs frais, doivent avoir \u00e9t\u00e9 produits \u00e0 l'int\u00e9rieur d'une zone exempte d'organismes nuisibles satisfaisant les conditions de la <abbr title=\"Normes internationales pour les mesures phytosanitaires\">NIMP</abbr> <abbr title=\"num\u00e9ro\">n<sup>o</sup></abbr> 4 Exigences pour l'\u00e9tablissement de zones indemnes. L'\u00e9tablissement et le maintien d'une zone exempte d'organismes nuisibles se fondent sur la mise en application d'enqu\u00eates, d'approches syst\u00e9miques et de protocoles d'analyse approuv\u00e9s par l'<abbr title=\"Agence canadienne d'inspection des aliments\">ACIA</abbr>.</p>\n<p><strong>Ou</strong></p>\n<p>Tous les produits r\u00e9glement\u00e9s, autres que les rameaux d\u00e9coratifs frais, doivent avoir \u00e9t\u00e9 produits \u00e0 l'int\u00e9rieur d'un lieu de production ou d'un site de production exempt d'organismes nuisibles, \u00e9tabli et maintenu conform\u00e9ment \u00e0 la <abbr title=\"Normes internationales pour les mesures phytosanitaires\">NIMP</abbr> <abbr title=\"num\u00e9ro\">n<sup>o</sup></abbr> 10 Exigences pour l'\u00e9tablissement de lieux et sites de production exempts d'organismes nuisibles. L'\u00e9tablissement et le maintien d'un lieu de production ou d'un site de production exempt d'organismes nuisibles se fondent sur la mise en application d'enqu\u00eates, d'approches syst\u00e9miques et de protocoles d'analyse approuv\u00e9s par l'<abbr title=\"Agence canadienne d'inspection des aliments\">ACIA</abbr>.</p>\n<p>Une fois qu'un pays a re\u00e7u une approbation pour l'exportation de produits r\u00e9glement\u00e9s au Canada, les exigences suivantes doivent \u00eatre satisfaites.</p>\n<h4 id=\"a221\">2.2.1 Document requis pour produits r\u00e9glement\u00e9s en provenance de pays autres que la zone continentale des \u00c9tats-Unis o\u00f9 des esp\u00e8ces d'<i lang=\"la\">Anoplophora</i> spp. sont pr\u00e9sentes</h4>\n<p><strong>Un permis d'importation est exig\u00e9.</strong></p>\n<p>Un certificat phytosanitaire doit accompagner le mat\u00e9riel exp\u00e9di\u00e9 et comprendre la d\u00e9claration suppl\u00e9mentaire suivante\u00a0:</p>\n<p class=\"mrgn-lft-md\">\u00ab\u00a0Le mat\u00e9riel v\u00e9g\u00e9tal contenu dans cet envoi rencontre les exigences phytosanitaires telles que d\u00e9crites dans la directive D-11-01 afin de pr\u00e9venir l'entr\u00e9e et la propagation de <i lang=\"la\">Anoplophora</i> spp.\u00a0\u00bb</p>\n<p><strong>Des d\u00e9clarations suppl\u00e9mentaires attestant que les produits sont exempts d'autres phytoravageurs peuvent \u00e9galement \u00eatre requises, selon le produit et le pays d'origine.</strong></p>\n<p><strong>Remarque\u00a0:</strong> L'importation de produits r\u00e9glement\u00e9s, autres que les rameaux d\u00e9coratifs frais, en provenance de pays o\u00f9 des populations d'<span lang=\"la\">Anoplophora</span> spp. sont pr\u00e9sentes n'est approuv\u00e9e que lorsque le mat\u00e9riel a \u00e9t\u00e9 produit dans des zones, lieux de production et sites de production exempts de ravageurs de ces pays. <strong>Le mat\u00e9riel doit avoir \u00e9t\u00e9 cultiv\u00e9 dans une zone, un lieu de production ou un site de production exempts de ravageurs durant sa vie enti\u00e8re ou durant un minimum de trois ann\u00e9es imm\u00e9diatement avant l'exportation.</strong> Pour un pays donn\u00e9, le processus d'approbation d'une zone exempte, d'un lieu de production exempt ou d'un site de production exempt d'organismes nuisibles doit \u00eatre initi\u00e9 \u00e0 la demande du pays exportateur qui doit pr\u00e9senter \u00e0 l'<abbr title=\"Agence canadienne d'inspection des aliments\">ACIA</abbr> des renseignements d\u00e9crivant les mesures de contr\u00f4le officiel mises en oeuvre contre lesdits organismes nuisibles. Les mesures de contr\u00f4le officiel comprennent, notamment, les approches syst\u00e9miques, les enqu\u00eates et la surveillance. Jusqu'au moment o\u00f9 l'<abbr title=\"Agence canadienne d'inspection des aliments\">ACIA</abbr> a r\u00e9vis\u00e9 les mesures de contr\u00f4le officiel mises en oeuvre par l'<abbr title=\"Organisations nationales de la protection des v\u00e9g\u00e9taux\">ONPV</abbr> dans le pays exportateur et les a reconnues comme \u00e9tant suffisantes pour att\u00e9nuer les risques de propagation des insectes du genre <i lang=\"la\">Anoplophora</i> spp, l'importation de produits r\u00e9glement\u00e9s en provenance de ce pays restera interdite. Consultez les <abbr title=\"Normes internationales pour les mesures phytosanitaires\">NIMP</abbr> <abbr title=\"num\u00e9ro\">n<sup>o</sup></abbr> 4, 6, 10 et 14 pour de plus amples renseignements au sujet de l'\u00e9tablissement de zones, de lieux et de sites de production exempts d'organismes nuisibles, et au sujet de la surveillance et des approches syst\u00e9miques.</p>\n<p>En cas de divergences entre la liste des genres v\u00e9g\u00e9taux r\u00e9glement\u00e9s par l'<abbr title=\"Agence canadienne d'inspection des aliments\">ACIA</abbr> et celle des Organisations nationales de la protection des v\u00e9g\u00e9taux (ONPV), la liste des h\u00f4tes produite par l'<abbr title=\"Agence canadienne d'inspection des aliments\">ACIA</abbr> aura la primaut\u00e9.</p>\n<h3 id=\"a23\">2.3 Produits r\u00e9glement\u00e9s en provenance de pays autres que la zone continentale des \u00c9tats-Unis o\u00f9 il est \u00e9tabli que des esp\u00e8ces d'<i lang=\"la\">Anoplophora</i> spp. ne sont pas pr\u00e9sentes</h3>\n<p><strong>Un permis d'importation est requis.</strong></p>\n<p>Un certificat phytosanitaire doit accompagner le mat\u00e9riel exp\u00e9di\u00e9 et comprendre la d\u00e9claration suppl\u00e9mentaire suivante\u00a0:</p>\n<p class=\"mrgn-lft-md\">\u00ab\u00a0Le mat\u00e9riel v\u00e9g\u00e9tal contenu dans cet envoi a \u00e9t\u00e9 cultiv\u00e9 uniquement en Nom du pays exportateur et il est \u00e9tabli que <i lang=\"la\">Anoplophora chinensis</i> et <i lang=\"la\"><abbr title=\"Anoplophora\">A.</abbr> glabripennis</i> ne sont pas pr\u00e9sents en Nom du pays exportateur.\u00a0\u00bb</p>\n<p><strong>Des d\u00e9clarations suppl\u00e9mentaires attestant que les produits sont exempts d'autres phytoravageurs peuvent \u00e9galement \u00eatre requises, selon le produit et le pays d'origine.</strong></p>\n<h3 id=\"a24\">2.4 Produits r\u00e9glement\u00e9s en provenance d'\u00c9tats de la zone continentale des \u00c9tats-Unis o\u00f9 des populations d'<i lang=\"la\">Anoplophora</i> spp. ont \u00e9t\u00e9 d\u00e9tect\u00e9es et sont sous contr\u00f4le officiel</h3>\n<p>La liste des \u00c9tats am\u00e9ricains o\u00f9 des populations d'<i lang=\"la\">Anoplophora</i> spp. ont \u00e9t\u00e9 d\u00e9tect\u00e9es est incluse \u00e0 l'<a href=\"#app2\">annexe 2</a>.</p>\n<p>L'<abbr title=\"Agence canadienne d'inspection des aliments\">ACIA</abbr> reconna\u00eet les zones r\u00e9glement\u00e9es par les \u00c9tats-Unis pour <i lang=\"la\">Anoplophora</i> spp., telles qu'elles sont d\u00e9finies dans le <abbr lang=\"en\" title=\"United States Department of Agriculture\">USDA</abbr> 7 <abbr lang=\"en\" title=\"Code of Federal Regulations\">CFR</abbr> 301.51 et les ordonnances f\u00e9d\u00e9rales am\u00e9ricaines reli\u00e9es.</p>\n<p><strong>Note\u00a0:</strong> Les produits r\u00e9glement\u00e9s en provenance des \u00e9tats am\u00e9ricains o\u00f9 des populations d'<i lang=\"la\">Anoplophora</i> spp. ont \u00e9t\u00e9 d\u00e9tect\u00e9es, mais de <strong>l'ext\u00e9rieur</strong> des zones r\u00e9glement\u00e9es, ne sont pas assujettis aux exigences reli\u00e9es \u00e0 <i lang=\"la\">Anoplophora</i> spp.</p>\n<p>Les produits r\u00e9glement\u00e9s en provenance d'\u00e9tats am\u00e9ricains o\u00f9 des populations d'<i lang=\"la\">Anoplophora</i> spp. ont \u00e9t\u00e9 d\u00e9tect\u00e9es et <strong>de l'int\u00e9rieur</strong> des zones r\u00e9glement\u00e9es, sont assujettis aux exigences reli\u00e9es \u00e0 <i lang=\"la\">Anoplophora</i> spp qui sont sp\u00e9cifi\u00e9es plus bas.</p>\n<p><strong>Afin que leur entr\u00e9e au Canada soit approuv\u00e9e, les produits r\u00e9glement\u00e9s en provenance des zones r\u00e9glement\u00e9es doivent provenir d'\u00e9tablissements qui sont sous entente de conformit\u00e9 avec le <abbr lang=\"en\" title=\"United States Department of Agriculture\">USDA</abbr> et doivent satisfaire aux exigences de la r\u00e9glementation f\u00e9d\u00e9rale am\u00e9ricaine relative \u00e0 <i lang=\"la\"><abbr title=\"Anoplophora\">A.</abbr> glabripennis</i> (7 <abbr lang=\"en\" title=\"Code of Federal Regulations\">CFR</abbr> 301.51).</strong></p>\n<h4 id=\"a241\">2.4.1 Document requis pour produits r\u00e9glement\u00e9s en provenance d'\u00c9tats de la zone continentale des \u00c9tats-Unis o\u00f9des populations d'<i lang=\"la\">Anoplophora</i> spp. ont \u00e9t\u00e9 d\u00e9tect\u00e9es et sont sous contr\u00f4le officiel</h4>\n<p>Un permis d'importation n'est pas requis, sauf indication contraire dans le <a href=\"/importation-d-aliments-de-vegetaux-ou-d-animaux/importations-de-vegetaux-et-de-produits-vegetaux/sari/fra/1300127512994/1300127627409\">SARI</a>.</p>\n<p>Un certificat phytosanitaire doit accompagner le mat\u00e9riel exp\u00e9di\u00e9 et comprendre la d\u00e9claration suivante\u00a0:</p>\n<p class=\"mrgn-lft-md\">\u00ab\u00a0Cet envoi rencontre les exigences du 7 <abbr lang=\"en\" title=\"Code of Federal Regulations\">CFR</abbr> 301.51 qui r\u00e9glemente le mouvement de produits v\u00e9g\u00e9taux en provenance de zones r\u00e9glement\u00e9es \u00e0 l'\u00e9gard de <i lang=\"la\"><abbr title=\"Anoplophora\">A.</abbr> glabripennis</i>.\u00a0\u00bb</p>\n<p><strong>Des d\u00e9clarations suppl\u00e9mentaires attestant que les produits sont exempts d'autres phytoravageurs peuvent \u00e9galement \u00eatre requises, selon le produit et le pays d'origine.</strong></p>\n<h3 id=\"a25\">2.5 Produits r\u00e9glement\u00e9s en provenance d'\u00c9tats de la zone continentale des \u00c9tats-Unis o\u00f9 les insectes du genre <i lang=\"la\">Anoplophora</i> spp. sont r\u00e9put\u00e9s absents</h3>\n<p>Un permis d'importation n'est pas exig\u00e9, sauf indication contraire dans le <a href=\"/importation-d-aliments-de-vegetaux-ou-d-animaux/importations-de-vegetaux-et-de-produits-vegetaux/sari/fra/1300127512994/1300127627409\">SARI</a>.</p>\n<p><strong>Pour les rameaux d\u00e9coratifs frais:</strong><br> Un certificat phytosanitaire n'est pas exig\u00e9, sauf indication contraire dans la directive <a href=\"/protection-des-vegetaux/especes-envahissantes/directives/importation/d-08-04/fra/1323752901318/1323753560467\">D-08-04</a> Exigences phytosanitaires r\u00e9gissant l'importation de v\u00e9g\u00e9taux et de parties de v\u00e9g\u00e9taux destines \u00e0 la plantation\u00a0: r\u00e9glementer la fili\u00e8re des v\u00e9g\u00e9taux destin\u00e9s \u00e0 la plantation pour contrer l'entr\u00e9e et la dispersion de phytoravageurs r\u00e9glement\u00e9s.</p>\n<p><strong>Pour les v\u00e9g\u00e9taux destin\u00e9s \u00e0 la plantation, avec racines ou non\u00a0:</strong><br> Un certificat phytosanitaire est exig\u00e9. Une d\u00e9claration suppl\u00e9mentaire concernant <i lang=\"la\">Anoplophora</i> spp. n'est pas requise.</p>\n<p><strong>Des d\u00e9clarations suppl\u00e9mentaires attestant que les produits sont exempts d'autres phytoravageurs peuvent \u00e9galement \u00eatre requises, selon le produit et le pays d'origine.</strong></p>\n<h2 id=\"a3\">3.0 Non-conformit\u00e9</h2>\n<p>L'importateur est tenu d'acquitter tous les co\u00fbts d'inspection et tous les co\u00fbts associ\u00e9s aux chargements non conformes, y compris les co\u00fbts d'enl\u00e8vement, de r\u00e9acheminement vers le lieu d'origine, de traitement, de destruction ou de toute autre mesure jug\u00e9e n\u00e9cessaire par l'<abbr title=\"Agence canadienne d'inspection des aliments\">ACIA</abbr>. Le Canada avisera l'<abbr title=\"Organisations nationales de la protection des v\u00e9g\u00e9taux\">ONPV</abbr> du pays exportateur de toute interception ou non-conformit\u00e9. La d\u00e9tection d'organismes de quarantaine ou de toute autre non-conformit\u00e9 durant l'inspection effectu\u00e9e au Canada peut entra\u00eener la suspension de l'importation de produits en provenance du pays concern\u00e9 jusqu'\u00e0 ce qu'on ait pris, au point d'origine, les mesures n\u00e9cessaires pour rem\u00e9dier au probl\u00e8me.</p>\n<p>Pour de plus amples renseignements, consultez la directive <a href=\"/protection-des-vegetaux/especes-envahissantes/directives/exportation/d-01-06/fra/1320037517418/1320037680823\">D-01-06</a> de l'<abbr title=\"Agence canadienne d'inspection des aliments\">ACIA</abbr>, Politique phytosanitaire canadienne relative \u00e0 la notification de non-conformit\u00e9 et d'action d'urgence.</p>\n<h2 id=\"a4\">4.0 Annexes</h2>\n<h3 id=\"app1\">Annexe 1 : Genres h\u00f4tes des insectes du genre <i lang=\"la\">Anoplophora</i> spp.</h3>\n<p><a href=\"/protection-des-vegetaux/especes-envahissantes/directives/produits-forestiers/d-11-01/annexe-1/fra/1322628753967/1322628853096\">Liste des genres h\u00f4tes des insectes du genre <i lang=\"la\">Anoplophora</i> spp.</a></p>\n<h3 id=\"app2\">Annexe 2 : Zones, territoires et pays r\u00e9glement\u00e9s \u00e0 l'\u00e9gard d'<i lang=\"la\">Anoplophora</i> spp.</h3>\n<p><a href=\"/protection-des-vegetaux/especes-envahissantes/directives/produits-forestiers/d-11-01/annexe-2/fra/1322631098721/1322631226612\">Liste des zones, territoires et pays o\u00f9 des esp\u00e8ces d'<i lang=\"la\">Anoplophora</i> spp. sont pr\u00e9sentes</a></p>\r\n        \r\n\r\n<div class=\"row\">\r\n \r\n\t\t\t\r\n\t\t\t\r\n\r\n\t\t\r\n\t\r\n</div>"
    },
    "js": {
        "en": "",
        "fr": ""
    },
    "success": true,
    "chat_wizard": false
}