{
    "dcr_id": "1328859578422",
    "title": {
        "en": "<abbr title=\"Regulatory Guidance\">RG</abbr>-4 Regulatory Guidance:<br /> Disposal of animals, their products or by-products through commercial inedible rendering",
        "fr": "<abbr title=\"Directives r\u00e9glementaires\">RG</abbr>-4 Directives R\u00e9glementaires\u00a0:<br /> L'\u00e9limination des animaux, de leurs produits ou de leurs sous-produits par les usines d'\u00e9quarrissage commerciales"
    },
    "html_modified": "2024-01-26 2:20:57 PM",
    "modified": "2018-08-30",
    "issued": "2012-02-10 02:39:40",
    "teamsite_location": {
        "en": "/default/main/inspection/cont-cont/animals-animaux/STAGING/templatedata/comn-comn/gene-gene/data/feeds_reg_guide_rg4_1328859578422_eng",
        "fr": "/default/main/inspection/cont-cont/animals-animaux/STAGING/templatedata/comn-comn/gene-gene/data/feeds_reg_guide_rg4_1328859578422_fra"
    },
    "ia_id": "1328859655711",
    "parent_ia_id": "1320602307623",
    "chronicletopic": {
        "en": "",
        "fr": ""
    },
    "chroniclecontent": {
        "en": "",
        "fr": ""
    },
    "chronicleaudience": {
        "en": "",
        "fr": ""
    },
    "sfcrdocumenttype": {
        "en": "",
        "fr": ""
    },
    "sfcraudience": {
        "en": "",
        "fr": ""
    },
    "sfcrmethodofproduction": {
        "en": "",
        "fr": ""
    },
    "activity": {
        "en": "Regulatory Guidance",
        "fr": "Directives r\u00e9glementaires"
    },
    "commodity": {
        "en": "Feeds",
        "fr": "Aliments du b\u00e9tail"
    },
    "program": {
        "en": "Animals",
        "fr": "Animaux"
    },
    "search_type": "guidancefinder",
    "parent_node_id": "1320602307623",
    "layout_name": "content page 1 column",
    "breadcrumb": {
        "en": "<abbr title=\"Regulatory Guidance\">RG</abbr>-4 Regulatory Guidance:<br /> Disposal of animals, their products or by-products through commercial inedible rendering",
        "fr": "<abbr title=\"Directives r\u00e9glementaires\">RG</abbr>-4 Directives R\u00e9glementaires\u00a0:<br /> L'\u00e9limination des animaux, de leurs produits ou de leurs sous-produits par les usines d'\u00e9quarrissage commerciales"
    },
    "label": {
        "en": "<abbr title=\"Regulatory Guidance\">RG</abbr>-4 Regulatory Guidance:<br /> Disposal of animals, their products or by-products through commercial inedible rendering",
        "fr": "<abbr title=\"Directives r\u00e9glementaires\">RG</abbr>-4 Directives R\u00e9glementaires\u00a0:<br /> L'\u00e9limination des animaux, de leurs produits ou de leurs sous-produits par les usines d'\u00e9quarrissage commerciales"
    },
    "templatetype": "content page 1 column",
    "node_id": "1328859655711",
    "managing_branch": "comn",
    "type_name": "sitemapinit",
    "dcr_type": "gene-gene",
    "parent_dcr_id": "1299871623634",
    "orig_type_name": "sitemapinit",
    "has_dcr_id": true,
    "lang": "en",
    "could_not_load": 0,
    "refaire": false,
    "interwoven_url": {
        "en": "/animal-health/livestock-feeds/regulatory-guidance/rg-4/",
        "fr": "/sante-des-animaux/aliments-du-betail/directives-reglementaires/rg-4/"
    },
    "meta": {
        "viewport": {
            "en": "width=device-width,initial-scale=1",
            "fr": "width=device-width,initial-scale=1"
        },
        "service": {
            "en": "CFIA-ACIA",
            "fr": "CFIA-ACIA"
        },
        "accessRights": {
            "en": "2",
            "fr": "2"
        },
        "title": {
            "en": "RG-4 Regulatory Guidance: Disposal of animals, their products or by-products through commercial inedible rendering",
            "fr": "RG-4 Directives R\u00e9glementaires\u00a0: L'\u00e9limination des animaux, de leurs produits ou de leurs sous-produits par les usines d'\u00e9quarrissage commerciales"
        },
        "description": {
            "en": "This policy is intended to explain and clarify the conditions regarding the disposal of animals, both food and non-food (and their products and by-products), through commercial inedible rendering.",
            "fr": "La pr\u00e9sente politique a pour but d'expliquer et de clarifier les conditions de l'\u00e9limination des animaux, comestibles et non comestibles (ainsi que leurs produits et sous-produits), par le canal des usines d'\u00e9quarrissage commerciales de produits non comestibles."
        },
        "keywords": {
            "en": "Health of Animals Act, Health of Animals Regulations, Feeds Act, Feeds Regulations, livestock, animal feeds, ingredients, rendering, inedible rendering, feed ban",
            "fr": "Loi sur la sant\u00e9 des animaux, R\u00e8glement sur la sant\u00e9 des animaux, Loi relative aux aliments du b\u00e9tail, R\u00e8glement sur les aliments du b\u00e9tail, ingr\u00e9dients, \u00e9quarrissage, interdiction concernant les aliments du b\u00e9tail"
        },
        "dcterms.subject": {
            "en": "livestock,labelling,inspection,standards,policy,regulation,animal health",
            "fr": "b\u00e9tail,\u00e9tiquetage,inspection,norme,politique,r\u00e9glementation,sant\u00e9 animale"
        },
        "creator": {
            "en": "Government of Canada,Canadian Food Inspection Agency,Animal Feed Division",
            "fr": "Gouvernement du Canada,Agence canadienne d'inspection des aliments,Division des aliments pour animaux"
        },
        "language": {
            "en": "eng",
            "fr": "fra"
        },
        "issued": {
            "en": "2012-02-10 02:39:40",
            "fr": "2012-02-10 02:39:40"
        },
        "modified": {
            "en": "2018-08-30",
            "fr": "2018-08-30"
        },
        "type": {
            "en": "reference material",
            "fr": "mat\u00e9riel de r\u00e9f\u00e9rence"
        },
        "audience": {
            "en": "business,government",
            "fr": "entreprises,gouvernement"
        },
        "name": {
            "en": "Government of Canada",
            "fr": "Gouvernement du Canada"
        },
        "areaServed": {
            "en": "Canada",
            "fr": "Canada"
        }
    },
    "h1": {
        "en": "RG-4 Regulatory Guidance: Disposal of animals, their products or by-products through commercial inedible rendering",
        "fr": "RG-4 Directives R\u00e9glementaires\u00a0: L'\u00e9limination des animaux, de leurs produits ou de leurs sous-produits par les usines d'\u00e9quarrissage commerciales"
    },
    "body": {
        "en": "        \r\n        \n<section class=\"alert alert-info\">\r\n<h2 class=\"h3\">This page is part of the Guidance Document Repository (GDR).</h2>\r\n<p>\r\n<br>\r\n<a href=\"/industry-guidance/eng/1374161650885/1374161737236?gp=1&amp;gc=6&amp;ga=80#gdr_results\" class=\"alert-link\">\r\n            Search for related documents in the Guidance Document Repository\r\n</a>\r\n</p>\r\n</section><h2>Overview</h2>\n<p>Commercial inedible rendering has traditionally served as an outlet to process animals and their products or by-products for numerous applications. Certain products derived from the rendering process (<abbr title=\"for example\">e.g.</abbr>, tallow, meat and bone meal) are commonly used in livestock feed. To protect animal and human health, the Canadian Food Inspection Agency (CFIA) enforces federal regulations governing the production and use of rendered materials that may be used in animal feed.</p>\n<p>The <abbr title=\"Canadian Food Inspection Agency\">CFIA</abbr> regulates the import, manufacture and sale of livestock feed under the authority of the federal Feeds Act and Regulations. Any ingredient added to livestock rations must first be approved and listed in the Feeds Regulations. This legislation stipulates that, besides being effective, ingredients and mixed feeds must also be safe for humans, animals and the environment. No product may be used as a feed ingredient without first undergoing a rigorous safety review and approval.</p>\n<ul>\n<li><a href=\"/animal-health/livestock-feeds/regulatory-guidance/rg-4/mbm-feed/eng/1344034643361/1344034748453\">Change Over to Specified Risk Material (SRM) Removed Meat and Bone Meal (MBM) in Feed Production</a></li>\n<li><a href=\"/animal-health/livestock-feeds/regulatory-guidance/rg-4/mbm-rendering/eng/1343334657949/1343334731654\">Change Over to Specified Risk Material (SRM) Removed Meat and Bone Meal (MBM) Production in Rendering Plant Operations</a></li>\n</ul>\n<p>This policy is intended to explain and clarify the conditions regarding the disposal of animals, both food and non-food (and their products and by-products), through commercial inedible rendering.</p>\n<h2>Definitions</h2>\n<p>For the purposes of this policy, the terms used are defined as follows:</p>\n<p><strong>Animal product:</strong> Any product that is consumed by humans and originates from a bird, mammal or fish (<abbr title=\"for example\">e.g.</abbr> meat, milk, eggs). This includes food by-products (<abbr title=\"for example\">e.g.</abbr> whey, lactose) derived from animal products.</p>\n<p><strong>Animal by-product:</strong> Any product that is not consumed by humans and originates from an animal or animal product (<abbr title=\"for example\">e.g.</abbr> egg shells, meat and bone meal) intended for consumption by animals.</p>\n<p><strong>Commercial inedible rendering:</strong> A cooking, separating and drying process that uses animal, fish and/or poultry carcasses or their by-products, including bone, fat, hide and feathers, to produce purified fat and protein products for use in such things as livestock feed, pet food, fertilizer or industrial applications.</p>\n<p><strong>Food animal:</strong> Any animal classified as a mammal, fish or bird that is slaughtered and processed as a meat product for human consumption.</p>\n<p><strong>Food animal used in research:</strong> Any animal involved in feeding, administering and/or exposure to new unapproved substances for research purposes, or an animal that is considered novel.</p>\n<h2>Enhanced feed ban</h2>\n<p>As of July 12, 2007, a series of enhancements to the Feeds Regulations and the Health of Animals Regulations came into effect. These enhancements were intended to further protect animal and human health, primarily by strengthening the 1997 ruminant feed ban, and included additional restrictions on what materials may be used in animal feed. Section 19 (1) (d.2) of the amended Feeds Regulations specifies what types of animal proteins may be used, as follows:</p>\n<ul>\n<li>\"[a feed shall not contain] proteins in any form derived from the carcass of an animal other than (<abbr title=\"1\">i</abbr>) a fish, or (<abbr title=\"2\">ii</abbr>) a food animal, as defined in subsection 2(1) of the Meat Inspection Regulations, 1990, that was slaughtered for human consumption as food or was raised for slaughter for human consumption as food\".</li>\n</ul>\n<p>Animals not raised for human consumption may contain disease organisms, residues of veterinary drugs, other chemicals or genetic modifications that may carry forward into livestock feed via commercial inedible rendering. As a measure to prevent animals not raised for human consumption from entering the livestock feed chain, the animals listed below are prohibited from being processed by means of commercial inedible rendering for livestock feed:</p>\n<div class=\"well-sm brdr-tp brdr-rght brdr-bttm brdr-lft mrgn-bttm-md\">\n<section>\n<p><strong>Prohibited for Processing in Commercial Inedible Rendering (as of July 12, 2007) for livestock feed:</strong></p>\n<ul>\n<li>zoo animals</li>\n<li>companion animals</li>\n<li>non-food animals used in research or their by-products</li>\n<li>other non-food animals, including wild animals</li>\n<li>animals killed along roadways</li>\n<li>food animals used in research that are not approved for release*</li>\n</ul>\n<p>* see section below for more information on food animals used in research</p></section>\n</div>\n<p>Consequently, only the following will be permitted for commercial inedible rendering for use in livestock feed:</p>\n\n<div class=\"well-sm brdr-tp brdr-rght brdr-bttm brdr-lft mrgn-bttm-md\">\n<section>\n<p><strong>Permitted for Processing in Commercial Inedible Rendering for livestock feed:</strong></p>\n<ul>\n<li>food animals</li>\n<li>food animal products and by-products</li>\n<li>food animals used in research*</li>\n<li>food by-products</li>\n</ul>\n<p>* see section below for more information on food animals used in research</p>\n</section>\n</div>\n<h2>Permits</h2>\n<p>All operators of commercial inedible rendering facilities in Canada are required by the Health of Animals Regulations to obtain a permit from the <abbr title=\"Canadian Food Inspection Agency\">CFIA</abbr> to operate their plants. Each facility operator is required, as a condition of their permit, to establish and maintain controls to prevent prohibited animals (zoo animals, companion animals, non-food animals used in research, other non-food animals, animals killed along roadways, and food animals used in research that are not approved for release) and their by-products, from being collected and processed. Alternative methods should be sought for disposal, destruction or alternative uses for these animals in accordance with the appropriate legislation (<abbr title=\"for example\">e.g.</abbr>, municipal, provincial).</p>\n<ul>\n<li><a href=\"/animal-health/livestock-feeds/regulatory-guidance/rg-4/fish-by-product-renderers/eng/1369006594714/1369006595839\">Fish By-Product Renderers</a></li>\n</ul>\n<h2>Food Animals used in Research</h2>\n<p>In the course of experimental research on food animals, residues and contaminants could accumulate in the tissues and/or in the products or by-products of these animals. These residues and contaminants may not be destroyed by the commercial inedible rendering process, and could have an adverse impact on animal health, food safety, and thus human health. Therefore, the following guidelines are provided for determining if and when food animals used in research are permitted for commercial inedible rendering.</p>\n<p>Research using food animals could include, but is not restricted to, research on experimental livestock feeds, veterinary biologics, veterinary drugs, pesticides and biotechnology-derived animals (somatic cell nuclear transfer clones, transgenics, <abbr title=\"et cetera\">etc.</abbr>).</p>\n<p>The following conditions must be met prior to food animals (including control animals) used in research or the products derived from them (<abbr title=\"for example\">e.g.</abbr> milk, eggs, <abbr title=\"et cetera\">etc.</abbr>), being permitted for processing by commercial inedible rendering or incorporation into livestock feeds:</p>\n<ol>\n<li>Research trials must be evaluated by the relevant regulatory authority, <strong>and</strong></li>\n<li>Research animals must be found safe for disposition by commercial inedible rendering for livestock feed by the relevant regulatory authority evaluating the research.</li>\n</ol>\n<p>The relevant regulatory authority could include one or more programs within the following federal regulatory departments:</p>\n<ul>\n<li><abbr title=\"Canadian Food Inspection Agency\">CFIA</abbr> (including the Feed Program and the Veterinary Biologics Section);</li>\n<li>Health Canada (including the Veterinary Drugs Directorate, Pest Management Regulatory Agency) ; and/or</li>\n<li>Environment Canada.</li>\n</ul>\n<div class=\"well-sm brdr-tp brdr-rght brdr-bttm brdr-lft mrgn-bttm-md\">\n<section>\n<p><strong>Only when specific conditions are met and approval is granted can the following be used in rendering and/or in livestock feed:</strong></p>\n<ul>\n<li>food animals used in research treated with new or unapproved drugs in Canada;</li>\n<li>food animals used in research treated with experimental veterinary biologics;</li>\n<li>food animals used in research fed unapproved livestock feed or ingredients; and</li>\n<li>food animals developed through biotechnology, where the animal is considered novel.</li>\n</ul>\n</section>\n</div>\n\n<p>For more information, please contact:</p>\n<p><strong>Canadian Food Inspection Agency<br> Animal Feed Division<br> (responsible for regulation of livestock feed, related research evaluation and approval)</strong></p>\n<p>Animal Feed Division<br> Canadian Food Inspection Agency<br> 59 Camelot Drive<br> Ottawa, Ontario<br> K1A 0Y9</p>\n<p><abbr title=\"Electronic\">E</abbr>-mail: <a href=\"mailto:cfia.afp-paa.acia@inspection.gc.ca\">cfia.afp-paa.acia@inspection.gc.ca</a><br> Facsimile: 613-773-7565</p>\n<p><strong>Canadian Food Inspection Agency<br> Canadian Centre for Veterinary Biologics<br> (responsible for regulation of veterinary biologics)</strong></p>\n<p>Canadian Centre for Veterinary Biologics<br> Terristrial Animal Health Division<br> Canadian Food Inspection Agency<br> 59 Camelot Drive<br> Ottawa, Ontario<br> K1A 0Y9</p>\n<p>Telephone: 613-773-7408<br> Facsimile: 613-773-7570</p>\n<p><strong>Health Canada<br> (responsible for regulation of veterinary drugs)</strong></p>\n<p>Veterinary Drugs Directorate<br> Health Canada<br> Holland Cross Complex<br> 14-11 Holland Avenue<br> Ottawa, Ontario<br> K1A 0K9</p>\n<p>Telephone: 613-954-5687<br> Facsimile: 613-957-3861</p>\n\n<p><strong>Environment and Climate Change Canada</strong><br>\n<strong>(responsible for regulation of animals derived via techniques of biotechnology)</strong></p>\n<p>Substances Management Information Line<br>\n<br>\n<br>\n<br>\n<br>\n<br>\n</p>\n<p>Telephone: 1-800-567-1999 (Toll Free in Canada) / 1-819-938-3232 (Outside of Canada)<br>\n<br>\n<a href=\"mailto:eccc.substances.eccc@canada.ca\">eccc.substances.eccc@canada.ca</a></p>\n\n<p><strong>Health Canada<br> Pest Management Regulatory Agency<br> (responsible for regulation of pesticide products)</strong></p>\n<p>2720 Riverside Drive<br> Ottawa, Ontario<br> <abbr title=\"Address Locator\">A.L.</abbr> 6606D2<br> K1A 0K9</p>\n<p>Telephone: 1-800-267-6315 (Toll Free in Canada)<br> Facsimile: 613-736-3798</p>\r\n        \r\n\r\n\r\n\r\n<div class=\"row\">\r\n \r\n\t\r\n\t\t\t\r\n\r\n<div class=\"col-xm-12 pagedetails container\">\r\n\t\t\t\t\r\n\r\n</div>\r\n\t\r\n</div>",
        "fr": "\r\n        \r\n        \n<section class=\"alert alert-info\">\r\n<h2 class=\"h3\">Cette page fait partie du r\u00e9pertoire des documents d'orientation (RDO).</h2>\r\n<p>\r\n<br>\r\n<a href=\"/orientation-pour-l-industrie/fra/1374161650885/1374161737236?gp=1&amp;gc=6&amp;ga=80#gdr_results\" class=\"alert-link\">\r\n            Recherche de documents connexes dans le r\u00e9pertoire des documents d'orientation.\r\n</a>\r\n</p>\r\n</section><h2>Aper\u00e7u</h2>\n<p>Les usines d'\u00e9quarrissage commerciales de produits non comestibles ont traditionnellement servi comme des installations o\u00f9 l'on transformait les animaux et leurs produits ou leurs sous-produits pour diverses applications. Certains produits issus de l'\u00e9quarrissage (<abbr title=\"par exemple\">p.ex.</abbr>, suif, la farine d'os et de viande) sont couramment utilis\u00e9s pour la pr\u00e9paration d'aliments du b\u00e9tail. En cons\u00e9quence, pour prot\u00e9ger la sant\u00e9 des humains et des animaux, l'Agence canadienne d'inspection des aliments (ACIA) applique des r\u00e8glements f\u00e9d\u00e9raux r\u00e9gissant la production et l'utilisation des produits \u00e9quarris qui peuvent entrer dans les aliments pour animaux.</p>\n<p>L'<abbr title=\"Agence canadienne d'inspection des aliments\">ACIA</abbr> r\u00e9glemente l'importation, la fabrication et la vente des aliments pour le b\u00e9tail en vertu de la Loi relative aux aliments du b\u00e9tail et de son r\u00e8glement d'application, de comp\u00e9tence f\u00e9d\u00e9rale. Tout ingr\u00e9dient ajout\u00e9 aux rations pour le b\u00e9tail doit d'abord \u00eatre approuv\u00e9 et inscrit au R\u00e8glement sur les aliments du b\u00e9tail. La loi pr\u00e9cise en outre qu'en plus d'\u00eatre efficaces, les ingr\u00e9dients et les aliments m\u00e9lang\u00e9s doivent \u00eatre sans danger pour la sant\u00e9 humaine et animale, ainsi que pour l'environnement. Aucun produit ne peut servir d'ingr\u00e9dient d'aliments pour le b\u00e9tail sans avoir d'abord subi une rigoureuse \u00e9valuation de son innocuit\u00e9 et son approbation.</p>\n<ul>\n<li><a href=\"/sante-des-animaux/aliments-du-betail/directives-reglementaires/rg-4/farine-de-viande-et-d-os-aliments-du-betail/fra/1344034643361/1344034748453\">La transition des meuneries \u00e0 la farine de viande et d'os exempte de mati\u00e8res \u00e0 risque sp\u00e9cifi\u00e9 (MRS)</a></li>\n<li><a href=\"/sante-des-animaux/aliments-du-betail/directives-reglementaires/rg-4/farines-de-viande-et-d-os-equarrissage/fra/1343334657949/1343334731654\">La transition vers la production de farines de viande et d'os exemptes de mat\u00e9riel \u00e0 risque sp\u00e9cifi\u00e9 (MRS) dans les usines d'\u00e9quarrissage</a></li>\n</ul>\n<p>La pr\u00e9sente politique a pour but d'expliquer et de clarifier les conditions de l'\u00e9limination des animaux, comestibles et non comestibles (ainsi que leurs produits et sous-produits), par le canal des usines d'\u00e9quarrissage commerciales de produits non comestibles.</p>\n<h2>D\u00e9finitions</h2>\n<p>Aux fins de la pr\u00e9sente politique, les termes utilis\u00e9s sont d\u00e9finis comme suit\u00a0:</p>\n<p><strong>Produit animal\u00a0:</strong> Tout produit qui est consomm\u00e9 par les \u00eatres humains et qui provient d'un oiseau, d'un mammif\u00e8re ou d'un poisson (<abbr title=\"par exemple\">p.ex.</abbr> la viande, le lait, les \u0153ufs). Ils comprennent les sous-produits d'alimentation humaine (<abbr title=\"par exemple\">p.ex.</abbr> le lactos\u00e9rum, le lactose) d\u00e9riv\u00e9s de produits animaux.</p>\n<p><strong>Sous-produit animal\u00a0:</strong> Tout produit qui n'est pas consomm\u00e9 par les \u00eatres humains et qui provient d'un animal ou d'un produit animal (<abbr title=\"par exemple\">p.ex.</abbr> les coquilles d'\u0153uf, la farine d'os et de viande) destin\u00e9 \u00e0 la consommation par des animaux.</p>\n<p><strong>\u00c9quarrissage commercial de produits non comestibles\u00a0:</strong> Un proc\u00e9d\u00e9 de cuisson, de s\u00e9paration et de s\u00e9chage par lequel des carcasses d'animaux, de poisson et/ou de volaille ou leurs sous-produits, notamment les os, la graisse, les peaux et les plumes, sont utilis\u00e9s pour fabriquer des produits purifi\u00e9s de graisse et de prot\u00e9ine qui seront employ\u00e9s soit dans les aliments du b\u00e9tail, les aliments pour animaux de compagnie, les engrais ou des applications industrielles.</p>\n<p><strong>Animal pour l'alimentation humaine\u00a0:</strong> Tout animal class\u00e9 comme mammif\u00e8re, poisson ou oiseau qui est abattu puis transform\u00e9 en produit carn\u00e9 destin\u00e9 \u00e0 la consommation humaine.</p>\n<p><strong>Animaux pour l'alimentation humaine utilis\u00e9s en recherche\u00a0:</strong> Tout animal servant \u00e0 l'alimentation, l'administration de nouvelles substances non approuv\u00e9es \u00e0 des fins de recherche, et/ou \u00e0 l'exposition de ces substances, ou encore tout \u00e0 un animal jug\u00e9 nouveau.</p>\n<h2>Renforcement de l'interdiction concernant les aliments du b\u00e9tail</h2>\n<p>Le 12 juillet 2007, une s\u00e9rie d'am\u00e9liorations apport\u00e9es au R\u00e8glement de 1983 sur les aliments du b\u00e9tail et au R\u00e8glement sur la sant\u00e9 des animaux, a \u00e9t\u00e9 mise en vigueur. Ces am\u00e9liorations ont eu pour but de prot\u00e9ger davantage la sant\u00e9 des animaux et des humains, principalement en renfor\u00e7ant l'interdiction de 1997 visant les aliments des ruminants et elles ont inclus des restrictions additionnelles sur les ingr\u00e9dients qui peuvent entrer dans la pr\u00e9paration d'aliments pour animaux. L'alin\u00e9a d.2) de l'article 19(1) du R\u00e8glement modifi\u00e9 sur les aliments du b\u00e9tail pr\u00e9cise comme suit les types de prot\u00e9ines animales qui peuvent \u00eatre employ\u00e9es\u00a0:</p>\n<ul>\n<li>\u00ab\u00a0[un aliment ne doit pas contenir] des prot\u00e9ines, sous quelque forme que ce soit, d\u00e9riv\u00e9es de la carcasse d'un animal \u00e0 l'exclusion des prot\u00e9ines qui proviennent\u00a0: (<abbr title=\"1\">i</abbr>) d'un poisson; (<abbr title=\"2\">ii</abbr>) d'un animal pour alimentation humaine, au sens du paragraphe 2(1) du R\u00e8glement de 1990 sur l'inspection des viandes, qui a \u00e9t\u00e9 \u00e9lev\u00e9 ou abattu pour la consommation alimentaire humaine\u00a0\u00bb.</li>\n</ul>\n<p>Les sujets non \u00e9lev\u00e9s pour la consommation humaine peuvent contenir des organismes provenant de maladies, des r\u00e9sidus de m\u00e9dicaments v\u00e9t\u00e9rinaires, d'autres produits chimiques ou des produits de modifications g\u00e9n\u00e9tiques qui peuvent \u00eatre transmis dans les aliments du b\u00e9tail par l'\u00e9quarrissage commerciale de produits non comestibles. Pour emp\u00eacher que des animaux non \u00e9lev\u00e9s pour la consommation humaine n'entrent dans la cha\u00eene alimentaire du b\u00e9tail, le r\u00e8glement interdira que les animaux \u00e9num\u00e9r\u00e9s ci-dessous sont interdits d'\u00eatre trait\u00e9es par des moyens d'\u00e9quarrissage commercial de produits non comestibles commerciales pour l'alimentation animale :</p>\n<div class=\"well-sm brdr-tp brdr-rght brdr-bttm brdr-lft mrgn-bttm-md\">\n<section>\n<p><strong>Interdits dans la transformation par les usines d'\u00e9quarrissage commerciales de produits non comestibles (au 12 juillet 2007)\u00a0:</strong></p>\n<ul>\n<li>animaux de zoos</li>\n<li>animaux de compagnie</li>\n<li>animaux non destin\u00e9s \u00e0 l'alimentation humaine utilis\u00e9s dans des projets de recherche ou leurs sous-produits</li>\n<li>autres animaux non destin\u00e9s \u00e0 l'alimentation humaine, y compris les animaux sauvages</li>\n<li>animaux morts au bord des routes</li>\n<li>animaux destin\u00e9s \u00e0 l'alimentation humaine utilis\u00e9s dans des projets de recherche dont la mise en circulation* n'a pas \u00e9t\u00e9 approuv\u00e9e</li>\n</ul>\n<p>* voir la section suivante pour un compl\u00e9ment d'information sur les animaux pour l'alimentation humaine utilis\u00e9s en recherche</p>\n</section>\n</div>\n<p>En cons\u00e9quence, seuls les animaux suivants pourront \u00eatre trait\u00e9s par des usines d'\u00e9quarrissage commerciales de produits non comestibles pour une utilisation dans les aliments du b\u00e9tail:</p>\n<div class=\"well-sm brdr-tp brdr-rght brdr-bttm brdr-lft mrgn-bttm-md\">\n<section>\n<p><strong>Autoris\u00e9s dans la transformation par les usines d'\u00e9quarrissage commerciales de produits non comestibles\u00a0:</strong></p>\n<ul>\n<li>animaux pour l'alimentation humaine</li>\n<li>produits et sous-produits d'animaux pour l'alimentation humaine</li>\n<li>animaux pour l'alimentation humaine utilis\u00e9s dans des projets de recherche*</li>\n<li>sous-produits destin\u00e9s \u00e0 l'alimentation humaine</li>\n</ul>\n<p>* voir la section suivante pour un compl\u00e9ment d'information sur les animaux pour l'alimentation humaine utilis\u00e9s en recherche</p>\n</section>\n</div>\n<h2>Permis</h2>\n<p>Aux termes du R\u00e8glement sur la sant\u00e9 des animaux, tous les exploitants d'usines d'\u00e9quarrissage commerciales de produits non comestibles du Canada doivent d\u00e9tenir un permis de l'<abbr title=\"Agence canadienne d'inspection des aliments\">ACIA</abbr> pour pouvoir exploiter leurs entreprises. Pour obtenir un nouveau permis, chaque exploitant d'installation est tenu d'\u00e9tablir et de maintenir des mesures de contr\u00f4le pour \u00e9viter que les animaux interdits (animaux de zoos, animaux de compagnie, animaux non destin\u00e9s \u00e0 l'alimentation humaine utilis\u00e9s en recherche, autres animaux non destin\u00e9s \u00e0 l'alimentation humaine, animaux morts au bord des routes et animaux destin\u00e9s \u00e0 l'alimentation humaine utilis\u00e9s en recherche dont la mise en circulation n'est pas approuv\u00e9e), ainsi que leurs sous-produits, ne soient recueillis et transform\u00e9s. Il faudrait trouver d'autres m\u00e9thodes d'\u00e9limination, de destruction de ces animaux ou d'autres modes d'utilisation et ce, en fonction des l\u00e9gislations appropri\u00e9es (<abbr title=\"par exemple\">p.ex.</abbr>, municipale, provinciale).</p>\n<ul>\n<li><a href=\"/sante-des-animaux/aliments-du-betail/directives-reglementaires/rg-4/usines-d-equarrissage-des-sous-produits-du-poisson/fra/1369006594714/1369006595839\">Usines d'\u00e9quarrissage des sous-produits du poisson</a></li>\n</ul>\n<h2>Animaux destin\u00e9s \u00e0 l'alimentation humaine utilis\u00e9s en recherche</h2>\n<p>Dans le cadre d'essais exp\u00e9rimentaux sur des animaux destin\u00e9s \u00e0 la consommation humaine, des r\u00e9sidus et des contaminants pourraient s'accumuler dans les tissus et/ou dans les produits et leurs sous-produits. Ces r\u00e9sidus et ces contaminants pourraient ne pas \u00eatre d\u00e9truits par le proc\u00e9d\u00e9 d'\u00e9quarrissage commercial des produits non comestibles et pourraient avoir un effet n\u00e9gatif sur la sant\u00e9 des animaux, la salubrit\u00e9 des aliments et, par cons\u00e9quent, sur la sant\u00e9 humaine. En cons\u00e9quence, les directives suivantes sont prises pour d\u00e9terminer si et quand des animaux destin\u00e9s \u00e0 l'alimentation humaine utilis\u00e9s en recherche sont admissibles dans les usines d'\u00e9quarrissage commerciales des produits non comestibles.</p>\n<p>Les recherches utilisant des animaux destin\u00e9s \u00e0 l'alimentation humaine pourraient comprendre, sans toutefois s'y limiter, les recherches sur les aliments du b\u00e9tail, les produits v\u00e9t\u00e9rinaires biologiques, les m\u00e9dicaments v\u00e9t\u00e9rinaires, les pesticides, les animaux issus de la biotechnologie (clones provenant de transfert de noyau de cellules somatiques, produits transg\u00e9niques, <abbr title=\"et cetera\">etc.</abbr>) et les animaux cr\u00e9\u00e9s par mutag\u00e9n\u00e8se.</p>\n<p>Les conditions suivantes doivent \u00eatre satisfaites avant que des animaux pour l'alimentation humaine (y compris les animaux t\u00e9moins) utilis\u00e9s dans des travaux de recherche ou les produits qui en d\u00e9rivent (<abbr title=\"par exemple\">p.ex.</abbr>, le lait, les \u0153ufs, <abbr title=\"et cetera\">etc.</abbr>), ne soient autoris\u00e9s \u00e0 \u00eatre transform\u00e9s par des usines d'\u00e9quarrissage commerciales de produits non comestibles ou \u00eatre incorpor\u00e9s dans les aliments du b\u00e9tail\u00a0:</p>\n<ol>\n<li>La recherche a \u00e9t\u00e9 \u00e9valu\u00e9e par l'organisme de r\u00e9glementation pertinent, <strong>et</strong></li>\n<li>Les animaux exp\u00e9rimentaux sont jug\u00e9s sans risque pour l'\u00e9limination par un \u00e9tablissement commercial d'\u00e9quarrissage de produits non comestibles ou pour l'alimentation du b\u00e9tail par l'organisme de r\u00e9glementation pertinent qui \u00e9value la recherche.</li>\n</ol>\n<p>L'organisme de r\u00e9glementation pertinent pourrait comprendre un ou plusieurs programmes des minist\u00e8res f\u00e9d\u00e9raux suivants charg\u00e9s de la r\u00e9glementation\u00a0:</p>\n<ul>\n<li>l'<abbr title=\"Agence canadienne d'inspection des aliments\">ACIA</abbr> (y compris le Programme des aliments du b\u00e9tail et la Section des produits biologiques v\u00e9t\u00e9rinaires);</li>\n<li>Sant\u00e9 Canada (y compris la Direction des m\u00e9dicaments v\u00e9t\u00e9rinaires, l'Agence de r\u00e9glementation de la lutte antiparasitaire) et/ou,</li>\n<li>Environnement Canada.</li>\n</ul>\n<div class=\"well-sm brdr-tp brdr-rght brdr-bttm brdr-lft mrgn-bttm-md\">\n<section>\n<p>Ce n'est que lorsque les conditions particuli\u00e8res seront satisfaites et que l'approbation aura \u00e9t\u00e9 accord\u00e9e que les animaux suivants pourront \u00eatre utilis\u00e9s pour l'\u00e9quarrissage et/ou dans les aliments du b\u00e9tail\u00a0:</p>\n<ul>\n<li>les animaux pour alimentation humaine utilis\u00e9s dans des travaux de recherche ayant re\u00e7u des m\u00e9dicaments nouveaux ou non approuv\u00e9s au Canada;</li>\n<li>les animaux pour alimentation humaine utilis\u00e9s dans des recherches ayant re\u00e7u des produits biologiques v\u00e9t\u00e9rinaires exp\u00e9rimentaux;</li>\n<li>les animaux pour alimentation humaine utilis\u00e9s dans des recherches ayant \u00e9t\u00e9 nourris par des aliments du b\u00e9tail ou des ingr\u00e9dients non approuv\u00e9s;</li>\n<li>les animaux pour alimentation humaine obtenus par la biotechnologie, o\u00f9 l'animal est consid\u00e9r\u00e9 comme nouveau.</li>\n</ul>\n</section>\n</div>\n<p>Pour plus d'informations, communiquez avec\u00a0:</p>\n<p><strong>Division des aliments pour animaux<br> Agence canadienne d'inspection des aliments<br> (responsable du contr\u00f4le des aliments du b\u00e9tail, de l'\u00e9valuation et de l'approbation des recherches connexes)</strong></p>\n<p>Division des aliments pour animaux<br> Agence canadienne d'inspection des aliments<br> 59, promenade Camelot<br> Ottawa (Ontario)<br> K1A 0Y9</p>\n<p>Courriel : <a href=\"mailto:cfia.afp-paa.acia@inspection.gc.ca\">cfia.afp-paa.acia@inspection.gc.ca</a><br> T\u00e9l\u00e9copieur\u00a0: 613-773-7565</p>\n<p><strong>Agence canadienne d'inspection des aliments<br> Centre canadien des produits biologiques v\u00e9t\u00e9rinaires<br> (responsable de la r\u00e9glementation des produits biologiques v\u00e9t\u00e9rinaires)</strong></p>\n<p>Centre canadien des produits biologiques v\u00e9t\u00e9rinaires<br> Division de la sant\u00e9 des animaux terrestres<br> Agence canadienne d'inspection des aliments<br> 59, promenade Camelot<br> Ottawa (Ontario)<br> K1A 0Y9</p>\n<p>T\u00e9l\u00e9phone\u00a0: 613-773-7408<br> T\u00e9l\u00e9copieur\u00a0: 613-773-7570</p>\n\n<p><strong>Sant\u00e9 Canada<br> (responsable de la r\u00e9glementation des m\u00e9dicaments v\u00e9t\u00e9rinaires)</strong></p>\n<p>Direction des m\u00e9dicaments v\u00e9t\u00e9rinaires<br> Sant\u00e9 Canada<br> Complexe Holland Cross<br> 14-11, Avenue Holland<br> Ottawa (Ontario)<br> K1A 0K9</p>\n<p>T\u00e9l\u00e9phone\u00a0: 613-954-5687<br> T\u00e9l\u00e9copieur\u00a0: 613-957-3861</p>\n\n<p><strong>Environnement et Changement climatique Canada</strong><br>\n<strong>(responsable de la r\u00e9glementation des animaux issus des techniques de la biotechnologie)</strong></p>\n<p>Ligne d\u2019information de la gestion des substances<br>\n<br>\n<br>\n<br>\n<br>\n</p>\n<p>T\u00e9l\u00e9phone : 1-800-567-1999 (sans frais au Canada)<br>\n<br>\n<br>\n<a href=\"mailto:eccc.substances.eccc@canada.ca\">eccc.substances.eccc@canada.ca</a></p>\n\n<p><strong>Sant\u00e9 Canada<br> L'Agence de r\u00e9glementation de la lutte antiparasitaire<br> (responsable de la r\u00e9glementation des produits pesticides)</strong></p>\n<p>2720, promenade Riverside<br> Ottawa (Ontario)<br> <abbr title=\"Indice de l'adresse\">I.A.</abbr> 6606D2<br> K1A 0K9</p>\n<p>T\u00e9l\u00e9phone\u00a0: 1-800-267-6315 (sans frais au Canada)<br> T\u00e9l\u00e9copieur\u00a0: 613-736-3798</p>\r\n        \r\n\r\n<div class=\"row\">\r\n \r\n\t\t\t\r\n\t\t\t\r\n\r\n\t\t\r\n\t\r\n</div>"
    },
    "js": {
        "en": "",
        "fr": ""
    },
    "success": true,
    "chat_wizard": false
}