{
    "dcr_id": "1560907264492",
    "title": {
        "en": "Proposed documents to be incorporated by reference into the <i>Safe Food for Canadians Regulations</i> and <i>Food and Drug Regulations</i>",
        "fr": "Documents propos\u00e9es \u00e0 l'incorporation par renvoi dans le <i>R\u00e8glement sur la salubrit\u00e9 des aliments au Canada</i> et le <i>R\u00e8glement sur les aliments et drogues</i>"
    },
    "html_modified": "2024-01-26 2:24:44 PM",
    "modified": "2019-09-05",
    "issued": "2019-06-21",
    "teamsite_location": {
        "en": "/default/main/inspection/cont-cont/aboutcfia-sujetacia/STAGING/templatedata/comn-comn/gene-gene/data/acco_cnsltns_prop_doc_incorp_ref_1560907264492_eng",
        "fr": "/default/main/inspection/cont-cont/aboutcfia-sujetacia/STAGING/templatedata/comn-comn/gene-gene/data/acco_cnsltns_prop_doc_incorp_ref_1560907264492_fra"
    },
    "ia_id": "1560907264746",
    "parent_ia_id": "1560901381202",
    "chronicletopic": {
        "en": "",
        "fr": ""
    },
    "chroniclecontent": {
        "en": "",
        "fr": ""
    },
    "chronicleaudience": {
        "en": "",
        "fr": ""
    },
    "sfcrdocumenttype": {
        "en": "",
        "fr": ""
    },
    "sfcraudience": {
        "en": "",
        "fr": ""
    },
    "sfcrmethodofproduction": {
        "en": "",
        "fr": ""
    },
    "activity": {
        "en": "",
        "fr": ""
    },
    "commodity": {
        "en": "",
        "fr": ""
    },
    "program": {
        "en": "",
        "fr": ""
    },
    "search_type": "other",
    "parent_node_id": "1560901381202",
    "layout_name": "content page 1 column",
    "breadcrumb": {
        "en": "Proposed documents to be incorporated by reference into the <i>Safe Food for Canadians Regulations</i> and <i>Food and Drug Regulations</i>",
        "fr": "Documents propos\u00e9es \u00e0 l'incorporation par renvoi dans le <i>R\u00e8glement sur la salubrit\u00e9 des aliments au Canada</i> et le <i>R\u00e8glement sur les aliments et drogues</i>"
    },
    "label": {
        "en": "Proposed documents to be incorporated by reference into the <i>Safe Food for Canadians Regulations</i> and <i>Food and Drug Regulations</i>",
        "fr": "Documents propos\u00e9es \u00e0 l'incorporation par renvoi dans le <i>R\u00e8glement sur la salubrit\u00e9 des aliments au Canada</i> et le <i>R\u00e8glement sur les aliments et drogues</i>"
    },
    "templatetype": "content page 1 column",
    "node_id": "1560907264746",
    "managing_branch": "comn",
    "type_name": "sitemapinit",
    "dcr_type": "gene-gene",
    "parent_dcr_id": "1560901380974",
    "orig_type_name": "sitemapinit",
    "has_dcr_id": true,
    "lang": "en",
    "could_not_load": 0,
    "refaire": false,
    "interwoven_url": {
        "en": "/about-cfia/transparency/consultations-and-engagement/completed/proposed-flm/proposed-documents/",
        "fr": "/a-propos-de-l-acia/transparence/consultations-et-participation/terminees/proposees-dans-le-cadre-de-l-initiative-de-mea/documents-proposees/"
    },
    "meta": {
        "viewport": {
            "en": "width=device-width,initial-scale=1",
            "fr": "width=device-width,initial-scale=1"
        },
        "service": {
            "en": "CFIA-ACIA",
            "fr": "CFIA-ACIA"
        },
        "accessRights": {
            "en": "2",
            "fr": "2"
        },
        "title": {
            "en": "Proposed documents to be incorporated by reference into the Safe Food for Canadians Regulations and Food and Drug Regulations",
            "fr": "Documents propos\u00e9es \u00e0 l'incorporation par renvoi dans le R\u00e8glement sur la salubrit\u00e9 des aliments au Canada et le R\u00e8glement sur les aliments et drogues"
        },
        "description": {
            "en": "The documents listed below are incorporated by reference in proposed amendments to the Safe Food for Canadians Regulations (SFCR) and Food and Drug Regulations (FDR). Once the proposed amendments to the regulations are finalized and come into force, the documents that are incorporated by reference have the same force of law as the regulation in which they are incorporated.",
            "fr": "Les documents \u00e9num\u00e9r\u00e9s ci-dessous sont incorpor\u00e9s par renvoi dans les modifications propos\u00e9es au R\u00e8glement sur la salubrit\u00e9 des aliments au Canada (RSAC) et R\u00e8glement sur les aliments et drogues (RAD). Une fois que les modifications propos\u00e9es au r\u00e8glement sont finalis\u00e9es et entrent en vigueur, les documents incorpor\u00e9s par renvoi ont la m\u00eame force de loi que le r\u00e8glement dans lequel ils ont \u00e9t\u00e9 incorpor\u00e9s."
        },
        "keywords": {
            "en": "information, Consultation, public, transparent government, Food Labelling Modernization, FLM, Food and Drug Regulations, Safe Food for Canadians Regulations, documents, incorporated by reference, proposed amendments",
            "fr": "information, Consultation, publique, transparence du gouvernement, modifications r\u00e9glementaires propos\u00e9es, Initiative de modernisation de l'\u00e9tiquetage des aliments, R\u00e8glement sur les aliments et drogues, RAD, R\u00e8glement sur la salubrit\u00e9 des aliments au Canada, RSAC, documents \u00e9num\u00e9r\u00e9s, incorpor\u00e9s par renvoi"
        },
        "dcterms.subject": {
            "en": "consumers,consultation,government information,inspection,consumer protection,government publication,food safety",
            "fr": "consommateur,consultation,information gouvernementale,inspection,protection du consommateur,publication gouvernementale,salubrit\u00e9 des aliments"
        },
        "creator": {
            "en": "Government of Canada,Canadian Food Inspection Agency",
            "fr": "Gouvernement du Canada,Agence canadienne d'inspection des aliments,Vice pr\u00e9sident, Communications et affaires publiques"
        },
        "language": {
            "en": "eng",
            "fr": "fra"
        },
        "issued": {
            "en": "2019-06-21",
            "fr": "2019-06-21"
        },
        "modified": {
            "en": "2019-09-05",
            "fr": "2019-09-05"
        },
        "type": {
            "en": "reference material",
            "fr": "mat\u00e9riel de r\u00e9f\u00e9rence"
        },
        "audience": {
            "en": "business,government,general public",
            "fr": "entreprises,gouvernement,grand public"
        },
        "name": {
            "en": "Government of Canada",
            "fr": "Gouvernement du Canada"
        },
        "areaServed": {
            "en": "Canada",
            "fr": "Canada"
        }
    },
    "h1": {
        "en": "Archived - Proposed documents to be incorporated by reference into the Safe Food for Canadians Regulations and Food and Drug Regulations",
        "fr": "Archiv\u00e9e - Documents propos\u00e9es \u00e0 l'incorporation par renvoi dans le R\u00e8glement sur la salubrit\u00e9 des aliments au Canada et le R\u00e8glement sur les aliments et drogues"
    },
    "body": {
        "en": "        \r\n        \n<section id=\"archived\" class=\"alert alert-warning wb-inview\" data-inview=\"archived-bnr\">\r\n<h2>This page has been archived</h2>\r\n<p>Information identified as archived is provided for reference, research or record-keeping purposes. It is not subject to the Government of Canada Web Standards and has not been altered or updated since it was archived. Please contact us to request a format other than those available.</p>\r\n</section>\r\n\r\n<section id=\"archived-bnr\" class=\"wb-overlay modal-content overlay-def wb-bar-t\">\r\n<header>\r\n<h2 class=\"wb-inv\">Archived</h2>\r\n</header>\r\n<p><a href=\"#archived\">This page has been archived.</a></p>\r\n</section>\r\n\r\n<div class=\"well\">\n<section> \n<h2 class=\"h5 mrgn-tp-sm\">Pre-publication of Food Labelling Modernization regulatory amendments in the <i>Canada Gazette</i>, Part I</h2>\n<p class=\"mrgn-bttm-sm\">The Canadian Food Inspection Agency (CFIA) consulted on amendments to the <i>Food and Drug Regulations</i> and the <i>Safe Food for Canadians Regulations</i> stemming from the Food Labelling Modernization initiative. The proposed amendments were pre-published in the <i>Canada Gazette</i>, Part I for a consultation period that ended on September 4, 2019. The documents below are incorporated by reference into the <i>Food and Drug Regulations</i> and the <i>Safe Food for Canadians Regulations</i> and were also part of the <i>Canada Gazette</i>, Part I consultation.</p>\n</section>\n</div>\n\n<p>The documents listed below are incorporated by reference in proposed amendments to the <i>Safe Food for Canadians Regulations</i> (SFCR) and <i>Food and Drug Regulations</i> (FDR). Once the proposed amendments to the regulations are finalized and come into force, the documents that are incorporated by reference have the same force of law as the regulation in which they are incorporated.</p>\n\n<h3 class=\"h5\">Documents incorporated by reference in the proposed amendments to the FDR</h3>\n\n<ul><li><a href=\"/about-cfia/transparency/consultations-and-engagement/completed/proposed-flm/proposed-documents/prepackaged-products/eng/1561064401571/1561064402029\">Prepackaged Products which do not Require a Best Before Date</a></li>\n<li><a href=\"/about-cfia/transparency/consultations-and-engagement/completed/proposed-flm/proposed-documents/common-names/eng/1561064953670/1561064953893\">Common Names for Ingredients and Components</a></li>\n</ul>\n\n<h3 class=\"h5\">Documents incorporated by reference in the proposed amendments to the SFCR</h3>\n\n<ul><li><a href=\"/eng/1561065936474/1561065936717\">Standard Container Sizes</a></li>\n<li><a href=\"/about-cfia/transparency/consultations-and-engagement/completed/proposed-flm/proposed-documents/terms-and-names/eng/1561068014244/1561068014510\">Descriptive Terms and Identification Names for Specific Foods</a></li></ul>\n\n<h3 class=\"h5\">Related links:</h3>\n\n<ul><li><a href=\"http://gazette.gc.ca/rp-pr/p1/2019/2019-06-22/html/reg1-eng.html\">Regulations amending the <i>Food and Drug Regulations</i></a></li>\n<li><a href=\"http://gazette.gc.ca/rp-pr/p1/2019/2019-06-22/html/reg2-eng.html\">Regulations amending the <i>Safe Food for Canadians Regulations</i></a></li>\n</ul>\n\n<p>For more information on the <a href=\"/food-labels/labelling/labelling-modernization-initiative/eng/1370111174659/1370111346666\">Food Labelling Modernization initiative</a>, email <a href=\"mailto:Modernization@inspection.gc.ca\">Modernization@inspection.gc.ca</a>.</p>\r\n        \r\n\r\n\r\n\r\n<div class=\"row\">\r\n \r\n\t\r\n\t\t\t\r\n\r\n<div class=\"col-xm-12 pagedetails container\">\r\n\t\t\t\t\r\n\r\n</div>\r\n\t\r\n</div>",
        "fr": "\r\n        \r\n        \n<section id=\"archived\" class=\"alert alert-warning wb-inview\" data-inview=\"archived-bnr\">\r\n<h2>Cette page a \u00e9t\u00e9 archiv\u00e9e</h2>\r\n<p>L'information dont il est indiqu\u00e9 qu'elle est archiv\u00e9e est fournie \u00e0 des fins de r\u00e9f\u00e9rence, de recherche ou de tenue de documents. Elle n'est pas assujettie aux normes Web du gouvernement du Canada et elle n'a pas \u00e9t\u00e9 modifi\u00e9e ou mise \u00e0 jour depuis son archivage. Pour obtenir cette information dans un autre format, veuillez communiquer avec nous.</p>\r\n</section>\r\n\r\n<section id=\"archived-bnr\" class=\"wb-overlay modal-content overlay-def wb-bar-t\">\r\n<header>\r\n<h2 class=\"wb-inv\">Archiv\u00e9e</h2>\r\n</header>\r\n<p><a href=\"#archived\">Cette page a \u00e9t\u00e9 archiv\u00e9e.</a></p>\r\n</section><div class=\"well\">\n<section> \n<h2 class=\"h5 mrgn-tp-sm\">Publication pr\u00e9alable des modifications r\u00e9glementaires relatives \u00e0 la modernisation de l'\u00e9tiquetage des aliments dans la <i>Gazette du Canada</i>, partie I</h2>\n<p class=\"mrgn-bttm-sm\">L'Agence canadienne d'inspection des aliments (ACIA) a men\u00e9 une consultation sur les modifications au <i>R\u00e8glement sur les aliments et drogues</i> et au <i>R\u00e8glement sur la salubrit\u00e9 des aliments au Canada</i> d\u00e9coulant de l'Initiative de modernisation de l'\u00e9tiquetage des aliments. Les modifications propos\u00e9es ont \u00e9t\u00e9 publi\u00e9es au pr\u00e9alable dans la <i>Gazette du Canada</i>, partie I pour une p\u00e9riode de consultation qui s'est termin\u00e9e le 4 septembre 2019. Les documents ci-dessous sont incorpor\u00e9s par renvoi dans le <i>R\u00e8glement sur les aliments et drogues</i> et le <i>R\u00e8glement sur la salubrit\u00e9 des aliments au Canada</i> et ont \u00e9galement font partie de la consultation de la <i>Gazette du Canada</i>, partie I.</p>\n</section>\n</div>\n\n<p>Les documents \u00e9num\u00e9r\u00e9s ci-dessous sont incorpor\u00e9s par renvoi dans les modifications propos\u00e9es au <i>R\u00e8glement sur la salubrit\u00e9 des aliments au Canada</i> (RSAC) et <i>R\u00e8glement sur les aliments et drogues</i> (RAD). Une fois que les modifications propos\u00e9es au r\u00e8glement sont finalis\u00e9es et entrent en vigueur, les documents incorpor\u00e9s par renvoi ont la m\u00eame force de loi que le r\u00e8glement dans lequel ils ont \u00e9t\u00e9 incorpor\u00e9s.</p>\n\n<h3 class=\"h5\">Documents incorpor\u00e9s par renvoi dans les modifications propos\u00e9es au RAD</h3>\n\n<ul><li><a href=\"/a-propos-de-l-acia/transparence/consultations-et-participation/terminees/proposees-dans-le-cadre-de-l-initiative-de-mea/documents-proposees/produits-preemballes/fra/1561064401571/1561064402029\">Produits pr\u00e9emball\u00e9s qui ne n\u00e9cessitent pas une date \u00ab\u00a0meilleur avant\u00a0\u00bb</a></li>\n<li><a href=\"/a-propos-de-l-acia/transparence/consultations-et-participation/terminees/proposees-dans-le-cadre-de-l-initiative-de-mea/documents-proposees/noms-usuels/fra/1561064953670/1561064953893\">Noms usuels d'ingr\u00e9dients et de constituants</a></li>\n</ul>\n\n<h3 class=\"h5\">Documents Incorpor\u00e9s par renvoi dans les modifications propos\u00e9es au RSAC</h3>\n\n<ul><li><a href=\"/fra/1561065936474/1561065936717\">Tailles de contenants normalis\u00e9es</a></li>\n<li><a href=\"/a-propos-de-l-acia/transparence/consultations-et-participation/terminees/proposees-dans-le-cadre-de-l-initiative-de-mea/documents-proposees/termes-et-noms/fra/1561068014244/1561068014510\">Termes descriptifs et noms d'identification propres \u00e0 certains aliments</a></li></ul>\n\n<h3 class=\"h5\">Liens connexes\u00a0:</h3>\n\n<ul><li><a href=\"http://gazette.gc.ca/rp-pr/p1/2019/2019-06-22/html/reg1-fra.html\">R\u00e8glement modifiant le <i>R\u00e8glement sur les aliments et drogues</i></a></li>\n<li><a href=\"http://gazette.gc.ca/rp-pr/p1/2019/2019-06-22/html/reg2-fra.html\">R\u00e8glement modifiant le <i>R\u00e8glement sur la salubrit\u00e9 des aliments au Canada</i></a></li>\n</ul>\n\n<p>Pour de plus amples renseignements sur la <a href=\"/etiquetage-des-aliments/etiquetage/initiative-de-modernisation-de-l-etiquetage/fra/1370111174659/1370111346666\">modernisation de l'\u00e9tiquetage des aliments initiative</a>, envoyez un courriel \u00e0 <a href=\"mailto:Modernization@inspection.gc.ca\">Modernization@inspection.gc.ca</a>.</p>\r\n        \r\n\r\n<div class=\"row\">\r\n \r\n\t\t\t\r\n\t\t\t\r\n\r\n\t\t\r\n\t\r\n</div>"
    },
    "js": {
        "en": "",
        "fr": ""
    },
    "success": true,
    "chat_wizard": false
}