{
    "dcr_id": "1584031163275",
    "title": {
        "en": "Proposed changes to the <i>Health of Animals Regulations</i>\u00a0\u2013\u00a0Hatcheries and Supply Flocks : Closed consultation",
        "fr": "Modifications propos\u00e9es au <i>R\u00e8glement sur la sant\u00e9 des animaux</i>\u00a0\u2013\u00a0couvoirs et troupeaux fournisseurs \u2013 Consultation ferm\u00e9e"
    },
    "html_modified": "2024-01-26 2:25:03 PM",
    "modified": "2020-09-30",
    "issued": "2020-03-13",
    "teamsite_location": {
        "en": "/default/main/inspection/cont-cont/aboutcfia-sujetacia/STAGING/templatedata/comn-comn/gene-gene/data/proposed_changes_hatcheries_supply_flocks_1584031163275_eng",
        "fr": "/default/main/inspection/cont-cont/aboutcfia-sujetacia/STAGING/templatedata/comn-comn/gene-gene/data/proposed_changes_hatcheries_supply_flocks_1584031163275_fra"
    },
    "ia_id": "1584031163728",
    "parent_ia_id": "1330978369105",
    "chronicletopic": {
        "en": "",
        "fr": ""
    },
    "chroniclecontent": {
        "en": "",
        "fr": ""
    },
    "chronicleaudience": {
        "en": "",
        "fr": ""
    },
    "sfcrdocumenttype": {
        "en": "",
        "fr": ""
    },
    "sfcraudience": {
        "en": "",
        "fr": ""
    },
    "sfcrmethodofproduction": {
        "en": "",
        "fr": ""
    },
    "activity": {
        "en": "",
        "fr": ""
    },
    "commodity": {
        "en": "",
        "fr": ""
    },
    "program": {
        "en": "",
        "fr": ""
    },
    "search_type": "other",
    "parent_node_id": "1330978369105",
    "layout_name": "content page 1 column",
    "breadcrumb": {
        "en": "Proposed changes to the <i>Health of Animals Regulations</i>\u00a0\u2013\u00a0Hatcheries and Supply Flocks : Closed consultation",
        "fr": "Modifications propos\u00e9es au <i>R\u00e8glement sur la sant\u00e9 des animaux</i>\u00a0\u2013\u00a0couvoirs et troupeaux fournisseurs \u2013 Consultation ferm\u00e9e"
    },
    "label": {
        "en": "Proposed changes to the <i>Health of Animals Regulations</i>\u00a0\u2013\u00a0Hatcheries and Supply Flocks : Closed consultation",
        "fr": "Modifications propos\u00e9es au <i>R\u00e8glement sur la sant\u00e9 des animaux</i>\u00a0\u2013\u00a0couvoirs et troupeaux fournisseurs \u2013 Consultation ferm\u00e9e"
    },
    "templatetype": "content page 1 column",
    "node_id": "1584031163728",
    "managing_branch": "comn",
    "type_name": "sitemapinit",
    "dcr_type": "gene-gene",
    "parent_dcr_id": "1330978174872",
    "orig_type_name": "gene-gene",
    "has_dcr_id": true,
    "lang": "en",
    "could_not_load": 0,
    "refaire": false,
    "interwoven_url": {
        "en": "/about-cfia/transparency/consultations-and-engagement/completed/hatcheries-and-supply-flocks/",
        "fr": "/a-propos-de-l-acia/transparence/consultations-et-participation/terminees/couvoirs-et-troupeaux-fournisseurs/"
    },
    "meta": {
        "viewport": {
            "en": "width=device-width,initial-scale=1",
            "fr": "width=device-width,initial-scale=1"
        },
        "service": {
            "en": "CFIA-ACIA",
            "fr": "CFIA-ACIA"
        },
        "accessRights": {
            "en": "2",
            "fr": "2"
        },
        "title": {
            "en": "Proposed changes to the Health of Animals Regulations\u00a0\u2013\u00a0Hatcheries and Supply Flocks : Closed consultation",
            "fr": "Modifications propos\u00e9es au R\u00e8glement sur la sant\u00e9 des animaux\u00a0\u2013\u00a0couvoirs et troupeaux fournisseurs \u2013 Consultation ferm\u00e9e"
        },
        "description": {
            "en": "The Canadian Food Inspection Agency (CFIA) has extended its public consultation on these proposed amendments.",
            "fr": "L'Agence canadienne d'inspection des aliments (ACIA) a lanc\u00e9 une consultation publique de 60\u00a0jours sur ces propositions de modifications."
        },
        "keywords": {
            "en": "Comment on,  Proposed changes, Proposed changes to the Health of Animals Regulations, Hatcheries and Supply Flocks",
            "fr": "Commentez sur, Modifications propos\u00e9es, quantit\u00e9 d'aliments que les individus peuvent apporter \u00e0 travers les fronti\u00e8res canadiennes, ACIA, Agence canadienne d'inspection des aliments, changements, quantit\u00e9 d'aliments, les individus peuvent apporter avec eux, \u00e0 travers les fronti\u00e8res canadiennes"
        },
        "dcterms.subject": {
            "en": "consumers,government information,inspection,consumer protection,government publication,food safety",
            "fr": "consommateur,information gouvernementale,inspection,protection du consommateur,publication gouvernementale,salubrit\u00e9 des aliments"
        },
        "creator": {
            "en": "Government of Canada,Canadian Food Inspection Agency",
            "fr": "Gouvernement du Canada,Agence canadienne d'inspection des aliments"
        },
        "language": {
            "en": "eng",
            "fr": "fra"
        },
        "issued": {
            "en": "2020-03-13",
            "fr": "2020-03-13"
        },
        "modified": {
            "en": "2020-09-30",
            "fr": "2020-09-30"
        },
        "type": {
            "en": "reference material",
            "fr": "mat\u00e9riel de r\u00e9f\u00e9rence"
        },
        "audience": {
            "en": "business,government,general public",
            "fr": "entreprises,gouvernement,grand public"
        },
        "name": {
            "en": "Government of Canada",
            "fr": "Gouvernement du Canada"
        },
        "areaServed": {
            "en": "Canada",
            "fr": "Canada"
        }
    },
    "h1": {
        "en": "Archived - Proposed changes to the Health of Animals Regulations\u00a0\u2013\u00a0Hatcheries and Supply Flocks : Closed consultation",
        "fr": "Archiv\u00e9e - Modifications propos\u00e9es au R\u00e8glement sur la sant\u00e9 des animaux\u00a0\u2013\u00a0couvoirs et troupeaux fournisseurs \u2013 Consultation ferm\u00e9e"
    },
    "body": {
        "en": "        \r\n        \n<section id=\"archived\" class=\"alert alert-warning wb-inview\" data-inview=\"archived-bnr\">\r\n<h2>This page has been archived</h2>\r\n<p>Information identified as archived is provided for reference, research or record-keeping purposes. It is not subject to the Government of Canada Web Standards and has not been altered or updated since it was archived. Please contact us to request a format other than those available.</p>\r\n</section>\r\n\r\n<section id=\"archived-bnr\" class=\"wb-overlay modal-content overlay-def wb-bar-t\">\r\n<header>\r\n<h2 class=\"wb-inv\">Archived</h2>\r\n</header>\r\n<p><a href=\"#archived\">This page has been archived.</a></p>\r\n</section>\r\n\r\n<section class=\"alert alert-warning\">\n<h2>Current status: Closed</h2>\n<p>This consultation ran from March 14, 2020 to September 30, 2020.</p>\n</section>\n\n<p>The purpose of this consultation was  to solicit comments on the <a href=\"http://gazette.gc.ca/rp-pr/p1/2020/2020-03-14/html/reg1-eng.html\">proposed changes to the <i>Health of Animals  Regulations</i> \u2013 Hatcheries and Supply Flocks</a> .</p>\n\n<h3>Who was the focus of this consultation</h3>\n<p> The Government of Canada  engaged with:</p>\n<ul>\n<li>consumers and the general public</li>\n<li>hatchery operators and supply flock operators, importers, distributors and retailers</li>\n<li>poultry meat and egg producers associations</li>\n<li>other government departments</li>\n</ul>\n<h3>About the consultation</h3>\n<p>The CFIA asked for feedback on the hatchery-related  amendments to the <i>Health of Animals Regulations</i> which would modernize  the regulations by:</p>\n<ul>\n<li>replacing the existing requirements for hatcheries in       various regulations with new requirements in a new Part of the <i>Health       of Animals Regulations</i></li>\n<li>requiring preventive control plans to describe the       measures that will be taken to mitigate the risks referred to in the       proposed regulations </li>\n<li>adding flexibility to cover existing and emerging       zoonotic diseases and </li>\n<li>requiring hatcheries to obtain their eggs from supply       flock operators that are similarly mitigating risks</li>\n</ul>\n<h2>Related information</h2>\n<ul>\n<li>Proposed documents to be Incorporated by Reference: \n<ul>\n<li><a href=\"/animal-health/terrestrial-animals/hatcheries/canadian-hatchery-and-supply-flock-testing-standar/eng/1583865875096/1583865875440\">Canadian Hatchery and Supply Flock Testing Standards</a></li>\n<li><a href=\"https://www.nfacc.ca/codes-of-practice/chickens-turkeys-and-breeders\">National Farm Animal Care Council's Code of Practice for the Care and Handling of Hatching Eggs, Breeders, Chickens, and Turkeys</a></li>\n</ul></li>\n</ul>\n<h2 id=\"contact\">Contact us</h2>\n<p>Canadian Food Inspection Agency<br>\n<br>\n<br>\n<br>\n<br>\n</p>\n<p id=\"email\"><strong>Email:</strong> <a href=\"mailto:AnimalHealth.Regs@inspection.gc.ca\">AnimalHealth.Regs@inspection.gc.ca</a></p>\r\n        \r\n\r\n\r\n\r\n<div class=\"row\">\r\n \r\n\t\r\n\t\t\t\r\n\r\n<div class=\"col-xm-12 pagedetails container\">\r\n\t\t\t\t\r\n\r\n</div>\r\n\t\r\n</div>",
        "fr": "\r\n        \r\n        \n<section id=\"archived\" class=\"alert alert-warning wb-inview\" data-inview=\"archived-bnr\">\r\n<h2>Cette page a \u00e9t\u00e9 archiv\u00e9e</h2>\r\n<p>L'information dont il est indiqu\u00e9 qu'elle est archiv\u00e9e est fournie \u00e0 des fins de r\u00e9f\u00e9rence, de recherche ou de tenue de documents. Elle n'est pas assujettie aux normes Web du gouvernement du Canada et elle n'a pas \u00e9t\u00e9 modifi\u00e9e ou mise \u00e0 jour depuis son archivage. Pour obtenir cette information dans un autre format, veuillez communiquer avec nous.</p>\r\n</section>\r\n\r\n<section id=\"archived-bnr\" class=\"wb-overlay modal-content overlay-def wb-bar-t\">\r\n<header>\r\n<h2 class=\"wb-inv\">Archiv\u00e9e</h2>\r\n</header>\r\n<p><a href=\"#archived\">Cette page a \u00e9t\u00e9 archiv\u00e9e.</a></p>\r\n</section><section class=\"alert alert-warning\">\n<h2>\u00c9tat actuel : Ferm\u00e9</h2>\n<p>Cette consultation a eu lieu du 14 mars 2020 au 30 septembre 2020</p>\n</section>\n\n<p>Le  but de cette consultation\u00a0\u00e9tait de solliciter des commentaires  sur les <a href=\"http://gazette.gc.ca/rp-pr/p1/2020/2020-03-14/html/reg1-fra.html\">modifications propos\u00e9es au\u00a0<i>R\u00e8glement  sur la sant\u00e9 des animaux</i>\u00a0- couvoirs et troupeaux fournisseurs</a>..</p>\n<h2>Qui \u00e9tait vis\u00e9 par cette consultation</h2>\n<p>Le gouvernement du Canada a engag\u00e9 un dialogue avec\u00a0:</p>\n<ul>\n<li>les consommateurs et le grand public;</li>\n<li>les exploitants de couvoirs et de troupeaux fournisseurs, les importateurs, les distributeurs et les d\u00e9taillants;</li>\n<li>les associations de producteurs d'\u0153ufs et de viande de volaille; </li>\n<li>d'autres minist\u00e8res.</li>\n</ul>\n<h2>La consultation</h2>\n<p>L'ACIA a demand\u00e9 des commentaires  sur les  \u00a0modifications propos\u00e9es au\u00a0<i>R\u00e8glement  sur la sant\u00e9 des animaux\u00a0</i>en rapport avec les couvoirs qui moderniseraient le  r\u00e8glement en\u00a0:</p>\n<ul>\n<li>rempla\u00e7ant les exigences existantes pour les couvoirs dans divers       r\u00e8glements par de nouvelles exigences dans une nouvelle partie du\u00a0<i>R\u00e8glement       sur la sant\u00e9 des animaux</i>;</li>\n<li>exigeant que les plans de contr\u00f4le pr\u00e9ventif d\u00e9crivent les mesures       qui seront prises pour att\u00e9nuer les risques vis\u00e9s dans le r\u00e8glement       propos\u00e9;</li>\n<li>ajoutant de la flexibilit\u00e9 pour couvrir les zoonoses existantes et       \u00e9mergentes;</li>\n<li>exigeant des couvoirs qu'ils se procurent leurs \u0153ufs aupr\u00e8s       d'exploitants de troupeaux fournisseurs qui att\u00e9nuent \u00e9galement les       risques.</li>\n</ul>\n<h2>Renseignements connexes</h2>\n<ul>\n<li>Documents propos\u00e9s \u00e0 l'incorporation par renvoi\u00a0: \n<ul>\n<li><a href=\"/sante-des-animaux/animaux-terrestres/couvoirs/normes-canadiennes-pour-les-epreuves-effectuees-da/fra/1583865875096/1583865875440\">Normes canadiennes pour les \u00e9preuves effectu\u00e9es dans les couvoirs et les troupeaux fournisseurs</a></li>\n<li><a href=\"https://www.nfacc.ca/codes-de-pratiques/poulets-dindons-et-reproducteurs\">Code de pratique du Conseil national pour les soins aux animaux d'\u00e9levage pour le soin et la manipulation des \u0153ufs \u00e0 couver, des \u00e9leveurs, des poulets et des dindes</a></li>\n</ul>\n</li>\n</ul>\n<h2 id=\"contact\">Communiquez avec nous</h2>\n<p>Agence canadienne d'inspection des aliments<br>\n<br>\n<br>\n<br>\n</p>\n<p id=\"email\"><strong>Courriel\u00a0:</strong> <a href=\"mailto:AnimalHealth.Regs@inspection.gc.ca\">AnimalHealth.Regs@inspection.gc.ca</a></p>\n\r\n        \r\n\r\n<div class=\"row\">\r\n \r\n\t\t\t\r\n\t\t\t\r\n\r\n\t\t\r\n\t\r\n</div>"
    },
    "js": {
        "en": "",
        "fr": ""
    },
    "success": true,
    "chat_wizard": false
}