{
    "dcr_id": "1638986038379",
    "title": {
        "en": "Phase\u00a02: proposed changes to grades and requirements for apples, apricots, asparagus, grapes, peaches, pears, plums and prunes, including a new standard for nectarines",
        "fr": "<span class=\"no_wrap\">\u00c9tape 2 :</span> modifications propos\u00e9es aux cat\u00e9gories et exigences visant les pommes, les abricots, les asperges, les raisins, les p\u00eaches, les poires, les prunes de table et de prunes \u00e0 pruneaux, ainsi que l'instauration de nouvelles cat\u00e9gories et exigences relatives aux nectarines"
    },
    "html_modified": "2024-01-26 2:25:44 PM",
    "modified": "2022-02-11",
    "issued": "2021-12-10",
    "teamsite_location": {
        "en": "/default/main/inspection/cont-cont/aboutcfia-sujetacia/STAGING/templatedata/comn-comn/gene-gene/data/phase_2_proposed_changes_to_grades_reqs_fruits_and_veg_1638986038379_eng",
        "fr": "/default/main/inspection/cont-cont/aboutcfia-sujetacia/STAGING/templatedata/comn-comn/gene-gene/data/phase_2_proposed_changes_to_grades_reqs_fruits_and_veg_1638986038379_fra"
    },
    "ia_id": "1638986039223",
    "parent_ia_id": "1635177997772",
    "chronicletopic": {
        "en": "",
        "fr": ""
    },
    "chroniclecontent": {
        "en": "",
        "fr": ""
    },
    "chronicleaudience": {
        "en": "",
        "fr": ""
    },
    "sfcrdocumenttype": {
        "en": "",
        "fr": ""
    },
    "sfcraudience": {
        "en": "",
        "fr": ""
    },
    "sfcrmethodofproduction": {
        "en": "",
        "fr": ""
    },
    "activity": {
        "en": "",
        "fr": ""
    },
    "commodity": {
        "en": "",
        "fr": ""
    },
    "program": {
        "en": "",
        "fr": ""
    },
    "search_type": "other",
    "parent_node_id": "1635177997772",
    "layout_name": "content page 1 column",
    "breadcrumb": {
        "en": "Phase\u00a02: proposed changes to grades and requirements for apples, apricots, asparagus, grapes, peaches, pears, plums and prunes, including a new standard for nectarines",
        "fr": "<span class=\"no_wrap\">\u00c9tape 2 :</span> modifications propos\u00e9es aux cat\u00e9gories et exigences visant les pommes, les abricots, les asperges, les raisins, les p\u00eaches, les poires, les prunes de table et de prunes \u00e0 pruneaux, ainsi que l'instauration de nouvelles cat\u00e9gories et exigences relatives aux nectarines"
    },
    "label": {
        "en": "Phase\u00a02: proposed changes to grades and requirements for apples, apricots, asparagus, grapes, peaches, pears, plums and prunes, including a new standard for nectarines",
        "fr": "<span class=\"no_wrap\">\u00c9tape 2 :</span> modifications propos\u00e9es aux cat\u00e9gories et exigences visant les pommes, les abricots, les asperges, les raisins, les p\u00eaches, les poires, les prunes de table et de prunes \u00e0 pruneaux, ainsi que l'instauration de nouvelles cat\u00e9gories et exigences relatives aux nectarines"
    },
    "templatetype": "content page 1 column",
    "node_id": "1638986039223",
    "managing_branch": "comn",
    "type_name": "sitemapinit",
    "dcr_type": "gene-gene",
    "parent_dcr_id": "1635177704225",
    "orig_type_name": "sitemapinit",
    "has_dcr_id": true,
    "lang": "en",
    "could_not_load": 0,
    "refaire": false,
    "interwoven_url": {
        "en": "/about-cfia/transparency/consultations-and-engagement/ffv/phase-2/",
        "fr": "/a-propos-de-l-acia/transparence/consultations-et-participation/flf/etape-2/"
    },
    "meta": {
        "viewport": {
            "en": "width=device-width,initial-scale=1",
            "fr": "width=device-width,initial-scale=1"
        },
        "service": {
            "en": "CFIA-ACIA",
            "fr": "CFIA-ACIA"
        },
        "accessRights": {
            "en": "2",
            "fr": "2"
        },
        "title": {
            "en": "Phase\u00a02: proposed changes to grades and requirements for apples, apricots, asparagus, grapes, peaches, pears, plums and prunes, including a new standard for nectarines",
            "fr": "\u00c9tape 2 : modifications propos\u00e9es aux cat\u00e9gories et exigences visant les pommes, les abricots, les asperges, les raisins, les p\u00eaches, les poires, les prunes de table et de prunes \u00e0 pruneaux, ainsi que l'instauration de nouvelles cat\u00e9gories et exigences relatives aux nectarines"
        },
        "description": {
            "en": "The consultation on proposed changes for grades and requirements for apples, apricots, asparagus, grapes, peaches, pears, plums and prunes, including a new standard for nectarines, is now open for comments.",
            "fr": "La consultation sur les changements propos\u00e9s aux cat\u00e9gories et aux exigences visant les pommes, les abricots, les asperges, les raisins, les p\u00eaches, les poires, les prunes de table et de prunes \u00e0 pruneaux, ainsi que l'instauration de nouvelles cat\u00e9gories et exigences relatives aux nectarines, est maintenant ouverte aux commentaires."
        },
        "keywords": {
            "en": "information, Consultation, public, transparent government, Phase\u00a02, changes, grades, requirements, apples, apricots, asparagus, grapes, peaches, pears, plums, prunes, new standard, nectarines",
            "fr": "information, Consultation, public, transparent government, \u00c9tape\u00a02, modifications, cat\u00e9gories, exigences, pommes, abricots, asperges, raisins, p\u00eaches, poires, prunes de table, prunes \u00e0 pruneaux, nouvelles cat\u00e9gories et exigences, nectarines"
        },
        "dcterms.subject": {
            "en": "consumers,government information,inspection,consumer protection,government publication,food safety",
            "fr": "consommateur,information gouvernementale,inspection,protection du consommateur,publication gouvernementale,salubrit\u00e9 des aliments"
        },
        "creator": {
            "en": "Government of Canada,Canadian Food Inspection Agency",
            "fr": "Gouvernement du Canada,Agence canadienne d'inspection des aliments"
        },
        "language": {
            "en": "eng",
            "fr": "fra"
        },
        "issued": {
            "en": "2021-12-10",
            "fr": "2021-12-10"
        },
        "modified": {
            "en": "2022-02-11",
            "fr": "2022-02-11"
        },
        "type": {
            "en": "reference material",
            "fr": "mat\u00e9riel de r\u00e9f\u00e9rence"
        },
        "audience": {
            "en": "business,government,general public",
            "fr": "entreprises,gouvernement,grand public"
        },
        "name": {
            "en": "Government of Canada",
            "fr": "Gouvernement du Canada"
        },
        "areaServed": {
            "en": "Canada",
            "fr": "Canada"
        }
    },
    "h1": {
        "en": "Phase\u00a02: proposed changes to grades and requirements for apples, apricots, asparagus, grapes, peaches, pears, plums and prunes, including a new standard for nectarines",
        "fr": "\u00c9tape 2 : modifications propos\u00e9es aux cat\u00e9gories et exigences visant les pommes, les abricots, les asperges, les raisins, les p\u00eaches, les poires, les prunes de table et de prunes \u00e0 pruneaux, ainsi que l'instauration de nouvelles cat\u00e9gories et exigences relatives aux nectarines"
    },
    "js": {
        "en": "",
        "fr": ""
    },
    "body": {
        "en": "        \r\n        \n<div class=\"alert alert-info\">\n<p>This page was part of the public consultation on the <a href=\"/about-cfia/transparency/consultations-and-engagement/ffv/eng/1635177704225/1635177997772#consultation\">Proposed changes to the Canadian Grade Compendium: Volume\u00a02\u00a0\u2013 Fresh Fruit or Vegetables</a>. Each phase of the consultation will focus on a group of fresh fruit or vegetables and will be open for a\u00a060-day period.</p>\n</div>\n\n<p>The consultation on proposed changes for grades and requirements for apples, apricots, asparagus, grapes, peaches, pears, plums and prunes, including a new standard for nectarines, is now closed. The consultation for Phase 2 ran from December\u00a010,\u00a02021 to February\u00a011,\u00a02022.</p>\n\n<h2>Phase 2 proposed changes</h2>\n\n<ul>\n<li><a href=\"/about-cfia/transparency/consultations-and-engagement/ffv/phase-2/proposed-changes-to-grades-and-requirements-for-ap/eng/1638987888530/1638987889295\">apples</a></li>\n<li><a href=\"/about-cfia/transparency/consultations-and-engagement/ffv/phase-2/proposed-changes-to-grades-and-requirements-for-ap/eng/1638992932173/1638992932501\">apricots</a></li>\n<li><a href=\"/about-cfia/transparency/consultations-and-engagement/ffv/phase-2/proposed-changes-to-grades-and-requirements-for-as/eng/1638993887247/1638993887622\">asparagus</a></li>\n<li><a href=\"/about-cfia/transparency/consultations-and-engagement/ffv/phase-2/proposed-changes-to-grades-and-requirements-for-gr/eng/1638995433899/1638995434274\">grapes</a></li>\n<li><a href=\"/about-cfia/transparency/consultations-and-engagement/ffv/phase-2/proposed-changes-to-grades-and-requirements-for-pe/eng/1638997741913/1638997742257\">peaches</a></li>\n<li><a href=\"/about-cfia/transparency/consultations-and-engagement/ffv/phase-2/proposed-changes-to-grades-and-requirements-for-pe/eng/1638998874155/1638998874429\">pears</a></li>\n<li><a href=\"/about-cfia/transparency/consultations-and-engagement/ffv/phase-2/proposed-changes-to-grades-and-requirements-for-pl/eng/1638999540089/1638999540390\">plums and prunes</a></li>\n<li><a href=\"/about-cfia/transparency/consultations-and-engagement/ffv/phase-2/proposed-changes-to-grades-and-requirements-for-ne/eng/1638999977874/1638999978202\">nectarines</a></li>\n</ul>\r\n        \r\n\r\n\r\n\r\n<div class=\"row\">\r\n \r\n\t\r\n\t\t\t\r\n\r\n<div class=\"col-xm-12 pagedetails container\">\r\n\t\t\t\t\r\n\r\n</div>\r\n\t\r\n</div>",
        "fr": "\r\n        \r\n        \n<div class=\"alert alert-info\">\n<p>La pr\u00e9sente page faisait partie de la consultation publique sur les <a href=\"/a-propos-de-l-acia/transparence/consultations-et-participation/flf/fra/1635177704225/1635177997772#consultation\">modifications propos\u00e9es au Recueil des normes canadiennes de classification\u00a0: Volume\u00a02\u00a0\u2013 Fruits ou l\u00e9gumes frais</a>. Chaque \u00e9tape de consultation sera ax\u00e9e sur un groupe de fruits ou de l\u00e9gumes frais et se tiendra sur une p\u00e9riode de\u00a060 jours.</p>\n</div>\n\n<p>La consultation sur les changements propos\u00e9s aux cat\u00e9gories et aux exigences visant les pommes, les abricots, les asperges, les raisins, les p\u00eaches, les poires, les prunes de table et de prunes \u00e0 pruneaux, ainsi que l'instauration de nouvelles cat\u00e9gories et exigences relatives aux nectarines, est maintenant ferm\u00e9e. La consultation pour l'\u00e9tape 2 s'est d\u00e9roul\u00e9e du 10 d\u00e9cembre 2021 au 11 f\u00e9vrier 2022.</p>\n\n<h2>Modifications propos\u00e9es de l'\u00e9tape 2</h2>\n\n<ul>\n<li><a href=\"/a-propos-de-l-acia/transparence/consultations-et-participation/flf/etape-2/modifications-proposees-aux-categories-et-exigence/fra/1638987888530/1638987889295\">pomme</a></li>\n<li><a href=\"/a-propos-de-l-acia/transparence/consultations-et-participation/flf/etape-2/modifications-proposees-aux-categories-et-exigence/fra/1638992932173/1638992932501\">abricots</a></li>\n<li><a href=\"/a-propos-de-l-acia/transparence/consultations-et-participation/flf/etape-2/modifications-proposees-aux-categories-et-exigence/fra/1638993887247/1638993887622\">asperges</a></li>\n<li><a href=\"/a-propos-de-l-acia/transparence/consultations-et-participation/flf/etape-2/modifications-proposees-aux-categories-et-exigence/fra/1638995433899/1638995434274\">raisins</a></li>\n<li><a href=\"/a-propos-de-l-acia/transparence/consultations-et-participation/flf/etape-2/modifications-proposees-aux-categories-et-exigence/fra/1638997741913/1638997742257\">p\u00eaches</a></li>\n<li><a href=\"/a-propos-de-l-acia/transparence/consultations-et-participation/flf/etape-2/modifications-proposees-aux-categories-et-exigence/fra/1638998874155/1638998874429\">poires</a></li>\n<li><a href=\"/a-propos-de-l-acia/transparence/consultations-et-participation/flf/etape-2/modifications-proposees-aux-categories-et-exigence/fra/1638999540089/1638999540390\">prunes de table et de prunes \u00e0 pruneaux</a></li>\n<li><a href=\"/a-propos-de-l-acia/transparence/consultations-et-participation/flf/etape-2/modifications-proposees-aux-categories-et-exigence/fra/1638999977874/1638999978202\">nectarines</a></li>\n</ul>\r\n        \r\n\r\n<div class=\"row\">\r\n \r\n\t\t\t\r\n\t\t\t\r\n\r\n\t\t\r\n\t\r\n</div>"
    },
    "success": true,
    "chat_wizard": false
}