{
    "dcr_id": "1351711796172",
    "title": {
        "en": "Certain Stellar Smoke Salmon brand Sliced Smoked Salmon may contain <span lang=\"la\" xml:lang=\"la\"><i>Clostridium botulinum</i></span>",
        "fr": "Certains <span lang=\"en\" xml:lang=\"en\">Sliced Smoked Salmon</span> de marque <span lang=\"en\" xml:lang=\"en\">Stellar Smoke Salmon</span> peuvent contenir des <span lang=\"la\" xml:lang=\"la\"><i>Clostridium botulinum</i></span>"
    },
    "html_modified": "2012-08-07",
    "modified": "2012-10-31",
    "issued": "",
    "teamsite_location": {
        "en": "/default/main/inspection/cont-cont/recall-rappel/WORKAREA/recall-rappel/templatedata/comn-comn/recall-rappel/data/20120807_r7321_1351711796172_eng",
        "fr": "/default/main/inspection/cont-cont/recall-rappel/WORKAREA/recall-rappel/templatedata/comn-comn/recall-rappel/data/20120807_r7321_1351711796172_fra"
    },
    "type_name": "recall-rappel",
    "parent_node_id": null,
    "layout_name": "content page 1 column",
    "breadcrumb": {
        "en": "Certain Stellar Smoke Salmon brand Sliced Smoked Salmon may contain <span lang=\"la\" xml:lang=\"la\"><i>Clostridium botulinum</i></span>",
        "fr": "Certains <span lang=\"en\" xml:lang=\"en\">Sliced Smoked Salmon</span> de marque <span lang=\"en\" xml:lang=\"en\">Stellar Smoke Salmon</span> peuvent contenir des <span lang=\"la\" xml:lang=\"la\"><i>Clostridium botulinum</i></span>"
    },
    "label": {
        "en": "Certain Stellar Smoke Salmon brand Sliced Smoked Salmon may contain <span lang=\"la\" xml:lang=\"la\"><i>Clostridium botulinum</i></span>",
        "fr": "Certains <span lang=\"en\" xml:lang=\"en\">Sliced Smoked Salmon</span> de marque <span lang=\"en\" xml:lang=\"en\">Stellar Smoke Salmon</span> peuvent contenir des <span lang=\"la\" xml:lang=\"la\"><i>Clostridium botulinum</i></span>"
    },
    "templatetype": "content page 1 column",
    "node_id": null,
    "managing_branch": "comn",
    "has_dcr_id": true,
    "lang": "en"
}