{
    "dcr_id": "1351617128745",
    "title": {
        "en": "Various Extra Lean Ground Chicken may contain pieces of metal",
        "fr": "Divers Poulet Haché Extra Maigre peuvent contenir des morceaux de métal"
    },
    "html_modified": "2012-06-13",
    "modified": "2012-10-30",
    "issued": "",
    "teamsite_location": {
        "en": "/default/main/inspection/cont-cont/recall-rappel/WORKAREA/recall-rappel/templatedata/comn-comn/recall-rappel/data/20120613_r7224_1351617128745_eng",
        "fr": "/default/main/inspection/cont-cont/recall-rappel/WORKAREA/recall-rappel/templatedata/comn-comn/recall-rappel/data/20120613_r7224_1351617128745_fra"
    },
    "type_name": "recall-rappel",
    "parent_node_id": null,
    "layout_name": "content page 1 column",
    "breadcrumb": {
        "en": "Various Extra Lean Ground Chicken may contain pieces of metal",
        "fr": "Divers Poulet Haché Extra Maigre peuvent contenir des morceaux de métal"
    },
    "label": {
        "en": "Various Extra Lean Ground Chicken may contain pieces of metal",
        "fr": "Divers Poulet Haché Extra Maigre peuvent contenir des morceaux de métal"
    },
    "templatetype": "content page 1 column",
    "node_id": null,
    "managing_branch": "comn",
    "has_dcr_id": true,
    "lang": "en"
}