{
    "dcr_id": "1351104670675",
    "title": {
        "en": "Various Kirkland Signature brand pork and lamb products may contain extraneous material",
        "fr": "Divers produits de porc et d'agneau de marque <span lang=\"en\" xml:lang=\"en\">Kirkland Signature</span> peut contenir des matières étrangères"
    },
    "html_modified": "2012-05-04",
    "modified": "2012-10-24",
    "issued": "",
    "teamsite_location": {
        "en": "/default/main/inspection/cont-cont/recall-rappel/WORKAREA/recall-rappel/templatedata/comn-comn/recall-rappel/data/20120504_r7145_1351104670675_eng",
        "fr": "/default/main/inspection/cont-cont/recall-rappel/WORKAREA/recall-rappel/templatedata/comn-comn/recall-rappel/data/20120504_r7145_1351104670675_fra"
    },
    "type_name": "recall-rappel",
    "parent_node_id": null,
    "layout_name": "content page 1 column",
    "breadcrumb": {
        "en": "Various Kirkland Signature brand pork and lamb products may contain extraneous material",
        "fr": "Divers produits de porc et d'agneau de marque <span lang=\"en\" xml:lang=\"en\">Kirkland Signature</span> peut contenir des matières étrangères"
    },
    "label": {
        "en": "Various Kirkland Signature brand pork and lamb products may contain extraneous material",
        "fr": "Divers produits de porc et d'agneau de marque <span lang=\"en\" xml:lang=\"en\">Kirkland Signature</span> peut contenir des matières étrangères"
    },
    "templatetype": "content page 1 column",
    "node_id": null,
    "managing_branch": "comn",
    "has_dcr_id": true,
    "lang": "en"
}