{
    "dcr_id": "1351861383856",
    "title": {
        "en": "Certain Kettle brand Cheddar & Sour Cream Krinkle Cut Potato Chips may contain pieces of metal",
        "fr": "Certains <span lang=\"en\" xml:lang=\"en\">Cheddar & Sour Cream Krinkle Cut Potato Chips</span> de marque <span lang=\"en\" xml:lang=\"en\">Kettle</span> peuvent contenir des morceaux de métal"
    },
    "html_modified": "2012-06-22",
    "modified": "2012-11-02",
    "issued": "",
    "teamsite_location": {
        "en": "/default/main/inspection/cont-cont/recall-rappel/WORKAREA/recall-rappel/templatedata/comn-comn/recall-rappel/data/20120622_r7241_1351861383856_eng",
        "fr": "/default/main/inspection/cont-cont/recall-rappel/WORKAREA/recall-rappel/templatedata/comn-comn/recall-rappel/data/20120622_r7241_1351861383856_fra"
    },
    "type_name": "recall-rappel",
    "parent_node_id": null,
    "layout_name": "content page 1 column",
    "breadcrumb": {
        "en": "Certain Kettle brand Cheddar & Sour Cream Krinkle Cut Potato Chips may contain pieces of metal",
        "fr": "Certains <span lang=\"en\" xml:lang=\"en\">Cheddar & Sour Cream Krinkle Cut Potato Chips</span> de marque <span lang=\"en\" xml:lang=\"en\">Kettle</span> peuvent contenir des morceaux de métal"
    },
    "label": {
        "en": "Certain Kettle brand Cheddar & Sour Cream Krinkle Cut Potato Chips may contain pieces of metal",
        "fr": "Certains <span lang=\"en\" xml:lang=\"en\">Cheddar & Sour Cream Krinkle Cut Potato Chips</span> de marque <span lang=\"en\" xml:lang=\"en\">Kettle</span> peuvent contenir des morceaux de métal"
    },
    "templatetype": "content page 1 column",
    "node_id": null,
    "managing_branch": "comn",
    "has_dcr_id": true,
    "lang": "en"
}