{
    "dcr_id": "1352320154595",
    "title": {
        "en": "Certain Fromagerie Bergeron brand cheese products May Contain Harmful Pieces of Metal Wire",
        "fr": "Certains PRODUITS DE FROMAGE de marque FROMAGERIE BERGERON pourraient contenir des morceaux de fil métallique dangereux"
    },
    "html_modified": "2012-05-04",
    "modified": "2012-11-18",
    "issued": "2012-05-04",
    "teamsite_location": {
        "en": "/default/main/inspection/cont-cont/recall-rappel/WORKAREA/recall-rappel/templatedata/comn-comn/recall-rappel/data/20120504_r7151_1352320154595_eng",
        "fr": "/default/main/inspection/cont-cont/recall-rappel/WORKAREA/recall-rappel/templatedata/comn-comn/recall-rappel/data/20120504_r7151_1352320154595_fra"
    },
    "type_name": "recall-rappel",
    "parent_node_id": null,
    "layout_name": "content page 1 column",
    "breadcrumb": {
        "en": "Certain Fromagerie Bergeron brand cheese products May Contain Harmful Pieces of Metal Wire",
        "fr": "Certains PRODUITS DE FROMAGE de marque FROMAGERIE BERGERON pourraient contenir des morceaux de fil métallique dangereux"
    },
    "label": {
        "en": "Certain Fromagerie Bergeron brand cheese products May Contain Harmful Pieces of Metal Wire",
        "fr": "Certains PRODUITS DE FROMAGE de marque FROMAGERIE BERGERON pourraient contenir des morceaux de fil métallique dangereux"
    },
    "templatetype": "content page 1 column",
    "node_id": null,
    "managing_branch": "comn",
    "has_dcr_id": true,
    "lang": "en"
}