{
    "dcr_id": "1352494179599",
    "title": {
        "en": "Certain Merrylynd Organics brand Maple Syrup (Medium) may contain lead",
        "fr": "Certains <span lang=\"en\" xml:lang=\"en\">Maple Syrup (Medium)</span> de marque Merrylynd Organics peuvent contenir du plomb"
    },
    "html_modified": "2012-07-19",
    "modified": "2012-11-09",
    "issued": "2012-07-19",
    "teamsite_location": {
        "en": "/default/main/inspection/cont-cont/recall-rappel/WORKAREA/recall-rappel/templatedata/comn-comn/recall-rappel/data/20120719_r7285_1352494179599_eng",
        "fr": "/default/main/inspection/cont-cont/recall-rappel/WORKAREA/recall-rappel/templatedata/comn-comn/recall-rappel/data/20120719_r7285_1352494179599_fra"
    },
    "type_name": "recall-rappel",
    "parent_node_id": null,
    "layout_name": "content page 1 column",
    "breadcrumb": {
        "en": "Certain Merrylynd Organics brand Maple Syrup (Medium) may contain lead",
        "fr": "Certains <span lang=\"en\" xml:lang=\"en\">Maple Syrup (Medium)</span> de marque Merrylynd Organics peuvent contenir du plomb"
    },
    "label": {
        "en": "Certain Merrylynd Organics brand Maple Syrup (Medium) may contain lead",
        "fr": "Certains <span lang=\"en\" xml:lang=\"en\">Maple Syrup (Medium)</span> de marque Merrylynd Organics peuvent contenir du plomb"
    },
    "templatetype": "content page 1 column",
    "node_id": null,
    "managing_branch": "comn",
    "has_dcr_id": true,
    "lang": "en"
}