{
    "dcr_id": "1352390077525",
    "title": {
        "en": "Certain River Ranch brand and Sysco Natural brand salads may contain <span xml:lang='la' lang='la'><i>Listeria monocytogenes</i></span>",
        "fr": "Présence possible de <span xml:lang='la' lang='la'><i>Listeria monocytogenes</i></span> dans certaines salades de marques <span xml:lang='en' lang='en'>RIVER RANCH</span> et <span xml:lang='en' lang='en'>SYSCO NATURAL</span>"
    },
    "html_modified": "2012-05-19",
    "modified": "2012-12-22",
    "issued": "2012-05-19",
    "teamsite_location": {
        "en": "/default/main/inspection/cont-cont/recall-rappel/WORKAREA/recall-rappel/templatedata/comn-comn/recall-rappel/data/20120519_1352390077525_eng",
        "fr": "/default/main/inspection/cont-cont/recall-rappel/WORKAREA/recall-rappel/templatedata/comn-comn/recall-rappel/data/20120519_1352390077525_fra"
    },
    "type_name": "recall-rappel",
    "parent_node_id": null,
    "layout_name": "content page 1 column",
    "breadcrumb": {
        "en": "Certain River Ranch brand and Sysco Natural brand salads may contain <span xml:lang='la' lang='la'><i>Listeria monocytogenes</i></span>",
        "fr": "Présence possible de <span xml:lang='la' lang='la'><i>Listeria monocytogenes</i></span> dans certaines salades de marques <span xml:lang='en' lang='en'>RIVER RANCH</span> et <span xml:lang='en' lang='en'>SYSCO NATURAL</span>"
    },
    "label": {
        "en": "Certain River Ranch brand and Sysco Natural brand salads may contain <span xml:lang='la' lang='la'><i>Listeria monocytogenes</i></span>",
        "fr": "Présence possible de <span xml:lang='la' lang='la'><i>Listeria monocytogenes</i></span> dans certaines salades de marques <span xml:lang='en' lang='en'>RIVER RANCH</span> et <span xml:lang='en' lang='en'>SYSCO NATURAL</span>"
    },
    "templatetype": "content page 1 column",
    "node_id": null,
    "managing_branch": "comn",
    "has_dcr_id": true,
    "lang": "en"
}