{
    "dcr_id": "1353105051560",
    "title": {
        "en": "Undeclared sulphites in certain David Roberts Two for the Road brand Madeira Mix",
        "fr": "Présence non déclarée de le sulfite dans les Madeira <span lang=\"en\">Mix</span> de marque David Roberts <span lang=\"en\">Two for the Road</span>"
    },
    "html_modified": "2012-11-16",
    "modified": "2012-11-16",
    "issued": "2012-11-16",
    "teamsite_location": {
        "en": "/default/main/inspection/cont-cont/recall-rappel/WORKAREA/recall-rappel/templatedata/comn-comn/recall-rappel/data/20121115_r7571_1353105051560_eng",
        "fr": "/default/main/inspection/cont-cont/recall-rappel/WORKAREA/recall-rappel/templatedata/comn-comn/recall-rappel/data/20121115_r7571_1353105051560_fra"
    },
    "type_name": "recall-rappel",
    "parent_node_id": null,
    "layout_name": "content page 1 column",
    "breadcrumb": {
        "en": "Undeclared sulphites in certain David Roberts Two for the Road brand Madeira Mix",
        "fr": "Présence non déclarée de le sulfite dans les Madeira <span lang=\"en\">Mix</span> de marque David Roberts <span lang=\"en\">Two for the Road</span>"
    },
    "label": {
        "en": "Undeclared sulphites in certain David Roberts Two for the Road brand Madeira Mix",
        "fr": "Présence non déclarée de le sulfite dans les Madeira <span lang=\"en\">Mix</span> de marque David Roberts <span lang=\"en\">Two for the Road</span>"
    },
    "templatetype": "content page 1 column",
    "node_id": null,
    "managing_branch": "comn",
    "has_dcr_id": true,
    "lang": "en"
}