{
    "dcr_id": "1353533300475",
    "title": {
        "en": "Undeclared milk and soy in certain Murray's brand Pineapple Topping <abbr title=\"number\">No.</abbr> 713",
        "fr": "Présence non déclarée de le lait et soja dans les <span lang=\"en\" xml:lang=\"en\">pineapple topping <abbr title=\"number\">no</span> 713 de marque <span lang=\"en\" xml:lang=\"en\">Murray's</span>"
    },
    "html_modified": "2012-11-19",
    "modified": "2012-11-21",
    "issued": "2012-11-21",
    "teamsite_location": {
        "en": "/default/main/inspection/cont-cont/recall-rappel/WORKAREA/recall-rappel/templatedata/comn-comn/recall-rappel/data/20121119_r7582_1353533300475_eng",
        "fr": "/default/main/inspection/cont-cont/recall-rappel/WORKAREA/recall-rappel/templatedata/comn-comn/recall-rappel/data/20121119_r7582_1353533300475_fra"
    },
    "type_name": "recall-rappel",
    "parent_node_id": null,
    "layout_name": "content page 1 column",
    "breadcrumb": {
        "en": "Undeclared milk and soy in certain Murray's brand Pineapple Topping <abbr title=\"number\">No.</abbr> 713",
        "fr": "Présence non déclarée de le lait et soja dans les <span lang=\"en\" xml:lang=\"en\">pineapple topping <abbr title=\"number\">no</span> 713 de marque <span lang=\"en\" xml:lang=\"en\">Murray's</span>"
    },
    "label": {
        "en": "Undeclared milk and soy in certain Murray's brand Pineapple Topping <abbr title=\"number\">No.</abbr> 713",
        "fr": "Présence non déclarée de le lait et soja dans les <span lang=\"en\" xml:lang=\"en\">pineapple topping <abbr title=\"number\">no</span> 713 de marque <span lang=\"en\" xml:lang=\"en\">Murray's</span>"
    },
    "templatetype": "content page 1 column",
    "node_id": null,
    "managing_branch": "comn",
    "has_dcr_id": true,
    "lang": "en"
}