{
    "dcr_id": "1353362691004",
    "title": {
        "en": "Undeclared sulphites in certain National brand Apple Spread",
        "fr": "Présence non déclarée de les sulfites dans les Confiture de pommes de marque <span lang=\"en\" xml:lang=\"en\">National</span>"
    },
    "html_modified": "2012-11-15",
    "modified": "2012-11-19",
    "issued": "2012-11-15",
    "teamsite_location": {
        "en": "/default/main/inspection/cont-cont/recall-rappel/WORKAREA/recall-rappel/templatedata/comn-comn/recall-rappel/data/20121115_r7576_1353362691004_eng",
        "fr": "/default/main/inspection/cont-cont/recall-rappel/WORKAREA/recall-rappel/templatedata/comn-comn/recall-rappel/data/20121115_r7576_1353362691004_fra"
    },
    "type_name": "recall-rappel",
    "parent_node_id": null,
    "layout_name": "content page 1 column",
    "breadcrumb": {
        "en": "Undeclared sulphites in certain National brand Apple Spread",
        "fr": "Présence non déclarée de les sulfites dans les Confiture de pommes de marque <span lang=\"en\" xml:lang=\"en\">National</span>"
    },
    "label": {
        "en": "Undeclared sulphites in certain National brand Apple Spread",
        "fr": "Présence non déclarée de les sulfites dans les Confiture de pommes de marque <span lang=\"en\" xml:lang=\"en\">National</span>"
    },
    "templatetype": "content page 1 column",
    "node_id": null,
    "managing_branch": "comn",
    "has_dcr_id": true,
    "lang": "en"
}