{
    "dcr_id": "1353725235043",
    "title": {
        "en": "Undeclared mustard in certain various brand weiners",
        "fr": "Présence non déclarée de le moutarde dans les weiners de marque divers"
    },
    "html_modified": "2012-11-23",
    "modified": "2012-11-23",
    "issued": "2012-11-23",
    "teamsite_location": {
        "en": "/default/main/inspection/cont-cont/recall-rappel/WORKAREA/recall-rappel/templatedata/comn-comn/recall-rappel/data/20121123_r7589_1353725235043_eng",
        "fr": "/default/main/inspection/cont-cont/recall-rappel/WORKAREA/recall-rappel/templatedata/comn-comn/recall-rappel/data/20121123_r7589_1353725235043_fra"
    },
    "type_name": "recall-rappel",
    "parent_node_id": null,
    "layout_name": "content page 1 column",
    "breadcrumb": {
        "en": "Undeclared mustard in certain various brand weiners",
        "fr": "Présence non déclarée de le moutarde dans les weiners de marque divers"
    },
    "label": {
        "en": "Undeclared mustard in certain various brand weiners",
        "fr": "Présence non déclarée de le moutarde dans les weiners de marque divers"
    },
    "templatetype": "content page 1 column",
    "node_id": null,
    "managing_branch": "comn",
    "has_dcr_id": true,
    "lang": "en"
}