{
    "dcr_id": "1354026925352",
    "title": {
        "en": "Certain Nostrano brand Cooked Mild Capicollo may contain <span lang='la' xml:lang='la'><em>Listeria</em></span>",
        "fr": "Certains Capicollo cuit doux de marque Nostrano peuvent contenir des <span lang='la' xml:lang='la'><em>Listeria</em></span>"
    },
    "html_modified": "2011-08-12",
    "modified": "2011-08-12",
    "issued": "2009-11-16",
    "teamsite_location": {
        "en": "/default/main/inspection/cont-cont/recall-rappel/WORKAREA/recall-rappel/templatedata/comn-comn/recall-rappel/data/20110812_r6617_1354026925352_eng",
        "fr": "/default/main/inspection/cont-cont/recall-rappel/WORKAREA/recall-rappel/templatedata/comn-comn/recall-rappel/data/20110812_r6617_1354026925352_fra"
    },
    "type_name": "recall-rappel",
    "parent_node_id": null,
    "layout_name": "content page 1 column",
    "breadcrumb": {
        "en": "Certain Nostrano brand Cooked Mild Capicollo may contain <span lang='la' xml:lang='la'><em>Listeria</em></span>",
        "fr": "Certains Capicollo cuit doux de marque Nostrano peuvent contenir des <span lang='la' xml:lang='la'><em>Listeria</em></span>"
    },
    "label": {
        "en": "Certain Nostrano brand Cooked Mild Capicollo may contain <span lang='la' xml:lang='la'><em>Listeria</em></span>",
        "fr": "Certains Capicollo cuit doux de marque Nostrano peuvent contenir des <span lang='la' xml:lang='la'><em>Listeria</em></span>"
    },
    "templatetype": "content page 1 column",
    "node_id": null,
    "managing_branch": "comn",
    "has_dcr_id": true,
    "lang": "en"
}