{
    "dcr_id": "1354026917542",
    "title": {
        "en": "Undeclared milk and soy in McBuns Bakery brand Butterscotch Oatmeal Cookies",
        "fr": "Présence non déclarée de lait et de soja dans certains « Biscuits Avoine - <span lang='en'>Butterscotch Chips</span> » de marque <span lang='en'>McBuns Bakery</span>"
    },
    "html_modified": "2011-08-29",
    "modified": "2011-08-29",
    "issued": "2011-08-29",
    "teamsite_location": {
        "en": "/default/main/inspection/cont-cont/recall-rappel/WORKAREA/recall-rappel/templatedata/comn-comn/recall-rappel/data/20110829_r6655_1354026917542_eng",
        "fr": "/default/main/inspection/cont-cont/recall-rappel/WORKAREA/recall-rappel/templatedata/comn-comn/recall-rappel/data/20110829_r6655_1354026917542_fra"
    },
    "type_name": "recall-rappel",
    "parent_node_id": null,
    "layout_name": "content page 1 column",
    "breadcrumb": {
        "en": "Undeclared milk and soy in McBuns Bakery brand Butterscotch Oatmeal Cookies",
        "fr": "Présence non déclarée de lait et de soja dans certains « Biscuits Avoine - <span lang='en'>Butterscotch Chips</span> » de marque <span lang='en'>McBuns Bakery</span>"
    },
    "label": {
        "en": "Undeclared milk and soy in McBuns Bakery brand Butterscotch Oatmeal Cookies",
        "fr": "Présence non déclarée de lait et de soja dans certains « Biscuits Avoine - <span lang='en'>Butterscotch Chips</span> » de marque <span lang='en'>McBuns Bakery</span>"
    },
    "templatetype": "content page 1 column",
    "node_id": null,
    "managing_branch": "comn",
    "has_dcr_id": true,
    "lang": "en"
}