{
    "dcr_id": "1354226115249",
    "title": {
        "en": "Certain Eraa brand Jaggery may contain extraneous material",
        "fr": "Présence possible de la matière étrangère dans certaines <span lang=\"en\" xml:lang=\"en\">Jaggery</span> de marque Eraa"
    },
    "html_modified": "2012-11-27",
    "modified": "2012-11-29",
    "issued": "2012-11-29",
    "teamsite_location": {
        "en": "/default/main/inspection/cont-cont/recall-rappel/WORKAREA/recall-rappel/templatedata/comn-comn/recall-rappel/data/20121127_r7592_1354226115249_eng",
        "fr": "/default/main/inspection/cont-cont/recall-rappel/WORKAREA/recall-rappel/templatedata/comn-comn/recall-rappel/data/20121127_r7592_1354226115249_fra"
    },
    "type_name": "recall-rappel",
    "parent_node_id": null,
    "layout_name": "content page 1 column",
    "breadcrumb": {
        "en": "Certain Eraa brand Jaggery may contain extraneous material",
        "fr": "Présence possible de la matière étrangère dans certaines <span lang=\"en\" xml:lang=\"en\">Jaggery</span> de marque Eraa"
    },
    "label": {
        "en": "Certain Eraa brand Jaggery may contain extraneous material",
        "fr": "Présence possible de la matière étrangère dans certaines <span lang=\"en\" xml:lang=\"en\">Jaggery</span> de marque Eraa"
    },
    "templatetype": "content page 1 column",
    "node_id": null,
    "managing_branch": "comn",
    "has_dcr_id": true,
    "lang": "en"
}