{
    "dcr_id": "1354026917136",
    "title": {
        "en": "Undeclared sulphites and soy in various McBuns Bakery brand products",
        "fr": "Présence non déclarée de sulfites et de soja dans certains produits de marque <span lang='en'>McBuns Bakery</span>"
    },
    "html_modified": "2011-08-31",
    "modified": "2011-08-31",
    "issued": "2011-08-31",
    "teamsite_location": {
        "en": "/default/main/inspection/cont-cont/recall-rappel/WORKAREA/recall-rappel/templatedata/comn-comn/recall-rappel/data/20110831_r6660_1354026917136_eng",
        "fr": "/default/main/inspection/cont-cont/recall-rappel/WORKAREA/recall-rappel/templatedata/comn-comn/recall-rappel/data/20110831_r6660_1354026917136_fra"
    },
    "type_name": "recall-rappel",
    "parent_node_id": null,
    "layout_name": "content page 1 column",
    "breadcrumb": {
        "en": "Undeclared sulphites and soy in various McBuns Bakery brand products",
        "fr": "Présence non déclarée de sulfites et de soja dans certains produits de marque <span lang='en'>McBuns Bakery</span>"
    },
    "label": {
        "en": "Undeclared sulphites and soy in various McBuns Bakery brand products",
        "fr": "Présence non déclarée de sulfites et de soja dans certains produits de marque <span lang='en'>McBuns Bakery</span>"
    },
    "templatetype": "content page 1 column",
    "node_id": null,
    "managing_branch": "comn",
    "has_dcr_id": true,
    "lang": "en"
}