{
    "dcr_id": "1354026958215",
    "title": {
        "en": "Undeclared sulphites in Rasm The Great Indian Tradition brand products",
        "fr": "Présence non déclarée de sulfites dans produits de marque <span lang=\"en\">Rasm The Great Indian Tradition</span>"
    },
    "html_modified": "2011-04-27",
    "modified": "2011-04-27",
    "issued": "2011-04-27",
    "teamsite_location": {
        "en": "/default/main/inspection/cont-cont/recall-rappel/WORKAREA/recall-rappel/templatedata/comn-comn/recall-rappel/data/20110427_r6355_1354026958215_eng",
        "fr": "/default/main/inspection/cont-cont/recall-rappel/WORKAREA/recall-rappel/templatedata/comn-comn/recall-rappel/data/20110427_r6355_1354026958215_fra"
    },
    "type_name": "recall-rappel",
    "parent_node_id": null,
    "layout_name": "content page 1 column",
    "breadcrumb": {
        "en": "Undeclared sulphites in Rasm The Great Indian Tradition brand products",
        "fr": "Présence non déclarée de sulfites dans produits de marque <span lang=\"en\">Rasm The Great Indian Tradition</span>"
    },
    "label": {
        "en": "Undeclared sulphites in Rasm The Great Indian Tradition brand products",
        "fr": "Présence non déclarée de sulfites dans produits de marque <span lang=\"en\">Rasm The Great Indian Tradition</span>"
    },
    "templatetype": "content page 1 column",
    "node_id": null,
    "managing_branch": "comn",
    "has_dcr_id": true,
    "lang": "en"
}