{
    "dcr_id": "1354026913746",
    "title": {
        "en": "Certain Country Ribbon brand chicken bologna are recalled",
        "fr": "Certains bologne de poulet marque <span lang=\"en\">Country Ribbon</span> sont rappelés"
    },
    "html_modified": "2011-09-16",
    "modified": "2013-05-07",
    "issued": "2009-11-16",
    "teamsite_location": {
        "en": "/default/main/inspection/cont-cont/recall-rappel/WORKAREA/recall-rappel/templatedata/comn-comn/recall-rappel/data/20110916_r6691_1354026913746_eng",
        "fr": "/default/main/inspection/cont-cont/recall-rappel/WORKAREA/recall-rappel/templatedata/comn-comn/recall-rappel/data/20110916_r6691_1354026913746_fra"
    },
    "type_name": "recall-rappel",
    "parent_node_id": null,
    "layout_name": "content page 1 column",
    "breadcrumb": {
        "en": "Certain Country Ribbon brand chicken bologna are recalled",
        "fr": "Certains bologne de poulet marque <span lang=\"en\">Country Ribbon</span> sont rappelés"
    },
    "label": {
        "en": "Certain Country Ribbon brand chicken bologna are recalled",
        "fr": "Certains bologne de poulet marque <span lang=\"en\">Country Ribbon</span> sont rappelés"
    },
    "templatetype": "content page 1 column",
    "node_id": null,
    "managing_branch": "comn",
    "has_dcr_id": true,
    "lang": "en"
}