{
    "dcr_id": "1354026916308",
    "title": {
        "en": "Undeclared milk in Guenther's brand Multigrain Cookies",
        "fr": "Présence non déclarée de lait dans certains <span lang='en'>Multigrain Cookies</span> de marque Guenther's"
    },
    "html_modified": "2011-09-02",
    "modified": "2011-09-02",
    "issued": "2009-11-16",
    "teamsite_location": {
        "en": "/default/main/inspection/cont-cont/recall-rappel/WORKAREA/recall-rappel/templatedata/comn-comn/recall-rappel/data/20110902_r6665_1354026916308_eng",
        "fr": "/default/main/inspection/cont-cont/recall-rappel/WORKAREA/recall-rappel/templatedata/comn-comn/recall-rappel/data/20110902_r6665_1354026916308_fra"
    },
    "type_name": "recall-rappel",
    "parent_node_id": null,
    "layout_name": "content page 1 column",
    "breadcrumb": {
        "en": "Undeclared milk in Guenther's brand Multigrain Cookies",
        "fr": "Présence non déclarée de lait dans certains <span lang='en'>Multigrain Cookies</span> de marque Guenther's"
    },
    "label": {
        "en": "Undeclared milk in Guenther's brand Multigrain Cookies",
        "fr": "Présence non déclarée de lait dans certains <span lang='en'>Multigrain Cookies</span> de marque Guenther's"
    },
    "templatetype": "content page 1 column",
    "node_id": null,
    "managing_branch": "comn",
    "has_dcr_id": true,
    "lang": "en"
}