{
    "dcr_id": "1354026992937",
    "title": {
        "en": "Undeclared gluten in Ideal Food brand Ideal Spicy Bake Mix",
        "fr": "Présence non déclarée de gluten dans certains préparation de Mélange épicé pour poulet à rotir de marque <span lang=\"en\">Ideal Food</span>"
    },
    "html_modified": "2011-01-04",
    "modified": "2011-01-04",
    "issued": "2009-11-16",
    "teamsite_location": {
        "en": "/default/main/inspection/cont-cont/recall-rappel/WORKAREA/recall-rappel/templatedata/comn-comn/recall-rappel/data/20110104_r6160_1354026992937_eng",
        "fr": "/default/main/inspection/cont-cont/recall-rappel/WORKAREA/recall-rappel/templatedata/comn-comn/recall-rappel/data/20110104_r6160_1354026992937_fra"
    },
    "type_name": "recall-rappel",
    "parent_node_id": null,
    "layout_name": "content page 1 column",
    "breadcrumb": {
        "en": "Undeclared gluten in Ideal Food brand Ideal Spicy Bake Mix",
        "fr": "Présence non déclarée de gluten dans certains préparation de Mélange épicé pour poulet à rotir de marque <span lang=\"en\">Ideal Food</span>"
    },
    "label": {
        "en": "Undeclared gluten in Ideal Food brand Ideal Spicy Bake Mix",
        "fr": "Présence non déclarée de gluten dans certains préparation de Mélange épicé pour poulet à rotir de marque <span lang=\"en\">Ideal Food</span>"
    },
    "templatetype": "content page 1 column",
    "node_id": null,
    "managing_branch": "comn",
    "has_dcr_id": true,
    "lang": "en"
}