{
    "dcr_id": "1354026960527",
    "title": {
        "en": "Undeclared gluten in certain <span lang=\"fr\">Les Moissonneries du Pays</span> brand Green Buckwheat Flour Stone Ground Finely Milled",
        "fr": "Présence non déclarée de gluten dans certains farine de sarrasin vert moulu sur pierre mouture fine de marque Les Moissonneries du Pays"
    },
    "html_modified": "2011-04-15",
    "modified": "2011-04-15",
    "issued": "2011-04-15",
    "teamsite_location": {
        "en": "/default/main/inspection/cont-cont/recall-rappel/WORKAREA/recall-rappel/templatedata/comn-comn/recall-rappel/data/20110415_r6338_1354026960527_eng",
        "fr": "/default/main/inspection/cont-cont/recall-rappel/WORKAREA/recall-rappel/templatedata/comn-comn/recall-rappel/data/20110415_r6338_1354026960527_fra"
    },
    "type_name": "recall-rappel",
    "parent_node_id": null,
    "layout_name": "content page 1 column",
    "breadcrumb": {
        "en": "Undeclared gluten in certain <span lang=\"fr\">Les Moissonneries du Pays</span> brand Green Buckwheat Flour Stone Ground Finely Milled",
        "fr": "Présence non déclarée de gluten dans certains farine de sarrasin vert moulu sur pierre mouture fine de marque Les Moissonneries du Pays"
    },
    "label": {
        "en": "Undeclared gluten in certain <span lang=\"fr\">Les Moissonneries du Pays</span> brand Green Buckwheat Flour Stone Ground Finely Milled",
        "fr": "Présence non déclarée de gluten dans certains farine de sarrasin vert moulu sur pierre mouture fine de marque Les Moissonneries du Pays"
    },
    "templatetype": "content page 1 column",
    "node_id": null,
    "managing_branch": "comn",
    "has_dcr_id": true,
    "lang": "en"
}