{
    "dcr_id": "1354550231730",
    "title": {
        "en": "'Tempeh Starter Yeast' and 'Super Starter Yeast' may contain <span lang='la' xml:lang='la'><i>Salmonella</i></span> bacteria",
        "fr": "Présence possible de la bactérie <span lang='la' xml:lang='la'><i>Salmonella</i></span> dans de la levure de ferment « <span lang='en' xml:lang='en'>Tempeh Starter Yeast</span> » et « <span lang='en' xml:lang='en'>Super Starter Yeast</span> »"
    },
    "html_modified": "2012-05-24",
    "modified": "2012-12-03",
    "issued": "2012-12-03",
    "teamsite_location": {
        "en": "/default/main/inspection/cont-cont/recall-rappel/WORKAREA/recall-rappel/templatedata/comn-comn/recall-rappel/data/20120524_1354550231730_eng",
        "fr": "/default/main/inspection/cont-cont/recall-rappel/WORKAREA/recall-rappel/templatedata/comn-comn/recall-rappel/data/20120524_1354550231730_fra"
    },
    "type_name": "recall-rappel",
    "parent_node_id": null,
    "layout_name": "content page 1 column",
    "breadcrumb": {
        "en": "'Tempeh Starter Yeast' and 'Super Starter Yeast' may contain <span lang='la' xml:lang='la'><i>Salmonella</i></span> bacteria",
        "fr": "Présence possible de la bactérie <span lang='la' xml:lang='la'><i>Salmonella</i></span> dans de la levure de ferment « <span lang='en' xml:lang='en'>Tempeh Starter Yeast</span> » et « <span lang='en' xml:lang='en'>Super Starter Yeast</span> »"
    },
    "label": {
        "en": "'Tempeh Starter Yeast' and 'Super Starter Yeast' may contain <span lang='la' xml:lang='la'><i>Salmonella</i></span> bacteria",
        "fr": "Présence possible de la bactérie <span lang='la' xml:lang='la'><i>Salmonella</i></span> dans de la levure de ferment « <span lang='en' xml:lang='en'>Tempeh Starter Yeast</span> » et « <span lang='en' xml:lang='en'>Super Starter Yeast</span> »"
    },
    "templatetype": "content page 1 column",
    "node_id": null,
    "managing_branch": "comn",
    "has_dcr_id": true,
    "lang": "en"
}