{
    "dcr_id": "1354026953373",
    "title": {
        "en": "Certain A-One Products brand Pan Gilori are recalled due to non-permitted food ingredients",
        "fr": "Certains Pan Gilori de marque <span lang=\"en\">A-One Products</span> sont rappelés en raison d'un problème de ingrédients alimentaires non permis"
    },
    "html_modified": "2011-05-31",
    "modified": "2011-05-31",
    "issued": "2011-05-31",
    "teamsite_location": {
        "en": "/default/main/inspection/cont-cont/recall-rappel/WORKAREA/recall-rappel/templatedata/comn-comn/recall-rappel/data/20110531_r6428_1354026953373_eng",
        "fr": "/default/main/inspection/cont-cont/recall-rappel/WORKAREA/recall-rappel/templatedata/comn-comn/recall-rappel/data/20110531_r6428_1354026953373_fra"
    },
    "type_name": "recall-rappel",
    "parent_node_id": null,
    "layout_name": "content page 1 column",
    "breadcrumb": {
        "en": "Certain A-One Products brand Pan Gilori are recalled due to non-permitted food ingredients",
        "fr": "Certains Pan Gilori de marque <span lang=\"en\">A-One Products</span> sont rappelés en raison d'un problème de ingrédients alimentaires non permis"
    },
    "label": {
        "en": "Certain A-One Products brand Pan Gilori are recalled due to non-permitted food ingredients",
        "fr": "Certains Pan Gilori de marque <span lang=\"en\">A-One Products</span> sont rappelés en raison d'un problème de ingrédients alimentaires non permis"
    },
    "templatetype": "content page 1 column",
    "node_id": null,
    "managing_branch": "comn",
    "has_dcr_id": true,
    "lang": "en"
}