{
    "dcr_id": "1354026963260",
    "title": {
        "en": "Certain Oceanprime brand Seafood Mix is being recalled",
        "fr": "Certains « produits de mer mélange » de marque <span lang=\"en\">Oceanprime</span> est rappelé"
    },
    "html_modified": "2011-04-01",
    "modified": "2011-04-01",
    "issued": "2011-04-01",
    "teamsite_location": {
        "en": "/default/main/inspection/cont-cont/recall-rappel/WORKAREA/recall-rappel/templatedata/comn-comn/recall-rappel/data/20110401_r6314_1354026963260_eng",
        "fr": "/default/main/inspection/cont-cont/recall-rappel/WORKAREA/recall-rappel/templatedata/comn-comn/recall-rappel/data/20110401_r6314_1354026963260_fra"
    },
    "type_name": "recall-rappel",
    "parent_node_id": null,
    "layout_name": "content page 1 column",
    "breadcrumb": {
        "en": "Certain Oceanprime brand Seafood Mix is being recalled",
        "fr": "Certains « produits de mer mélange » de marque <span lang=\"en\">Oceanprime</span> est rappelé"
    },
    "label": {
        "en": "Certain Oceanprime brand Seafood Mix is being recalled",
        "fr": "Certains « produits de mer mélange » de marque <span lang=\"en\">Oceanprime</span> est rappelé"
    },
    "templatetype": "content page 1 column",
    "node_id": null,
    "managing_branch": "comn",
    "has_dcr_id": true,
    "lang": "en"
}