{
    "dcr_id": "1355280773752",
    "title": {
        "en": "Certain Buitoni brand pizzas may contain pieces of metal",
        "fr": "Certaines pizzas de marque Buitoni pourrait contenir des morceaux de métal"
    },
    "html_modified": "2012-12-11",
    "modified": "2012-12-11",
    "issued": "2012-12-11",
    "teamsite_location": {
        "en": "/default/main/inspection/cont-cont/recall-rappel/WORKAREA/recall-rappel/templatedata/comn-comn/recall-rappel/data/20121211_1355280773752_eng",
        "fr": "/default/main/inspection/cont-cont/recall-rappel/WORKAREA/recall-rappel/templatedata/comn-comn/recall-rappel/data/20121211_1355280773752_fra"
    },
    "type_name": "recall-rappel",
    "parent_node_id": null,
    "layout_name": "content page 1 column",
    "breadcrumb": {
        "en": "Certain Buitoni brand pizzas may contain pieces of metal",
        "fr": "Certaines pizzas de marque Buitoni pourrait contenir des morceaux de métal"
    },
    "label": {
        "en": "Certain Buitoni brand pizzas may contain pieces of metal",
        "fr": "Certaines pizzas de marque Buitoni pourrait contenir des morceaux de métal"
    },
    "templatetype": "content page 1 column",
    "node_id": null,
    "managing_branch": "comn",
    "has_dcr_id": true,
    "lang": "en"
}