{
    "dcr_id": "1355956871134",
    "title": {
        "en": "Certain dried BASIL may contain Salmonella bacteria",
        "fr": "Présence possible de la bactérie Salmonella dans certain BASILIC séché"
    },
    "html_modified": "2012-08-06",
    "modified": "2012-08-20",
    "issued": "2012-08-06",
    "teamsite_location": {
        "en": "/default/main/inspection/cont-cont/recall-rappel/WORKAREA/recall-rappel/templatedata/comn-comn/recall-rappel/data/20120806_1355956871134_eng",
        "fr": "/default/main/inspection/cont-cont/recall-rappel/WORKAREA/recall-rappel/templatedata/comn-comn/recall-rappel/data/20120806_1355956871134_fra"
    },
    "type_name": "recall-rappel",
    "parent_node_id": null,
    "layout_name": "content page 1 column",
    "breadcrumb": {
        "en": "Certain dried BASIL may contain Salmonella bacteria",
        "fr": "Présence possible de la bactérie Salmonella dans certain BASILIC séché"
    },
    "label": {
        "en": "Certain dried BASIL may contain Salmonella bacteria",
        "fr": "Présence possible de la bactérie Salmonella dans certain BASILIC séché"
    },
    "templatetype": "content page 1 column",
    "node_id": null,
    "managing_branch": "comn",
    "has_dcr_id": true,
    "lang": "en"
}