{
    "dcr_id": "1355956870587",
    "title": {
        "en": "Certain TANIMURA&ANTLE brand ROMAINE LETTUCE may contain E. coli",
        "fr": "Présence possible de la bactérie E. coli O157:H7 dans de la LAITUE ROMAINE de marque TANIMURA & ANTLE"
    },
    "html_modified": "2012-08-20",
    "modified": "2012-08-20",
    "issued": "2012-08-20",
    "teamsite_location": {
        "en": "/default/main/inspection/cont-cont/recall-rappel/WORKAREA/recall-rappel/templatedata/comn-comn/recall-rappel/data/20120820_1355956870587_eng",
        "fr": "/default/main/inspection/cont-cont/recall-rappel/WORKAREA/recall-rappel/templatedata/comn-comn/recall-rappel/data/20120820_1355956870587_fra"
    },
    "type_name": "recall-rappel",
    "parent_node_id": null,
    "layout_name": "content page 1 column",
    "breadcrumb": {
        "en": "Certain TANIMURA&ANTLE brand ROMAINE LETTUCE may contain E. coli",
        "fr": "Présence possible de la bactérie E. coli O157:H7 dans de la LAITUE ROMAINE de marque TANIMURA & ANTLE"
    },
    "label": {
        "en": "Certain TANIMURA&ANTLE brand ROMAINE LETTUCE may contain E. coli",
        "fr": "Présence possible de la bactérie E. coli O157:H7 dans de la LAITUE ROMAINE de marque TANIMURA & ANTLE"
    },
    "templatetype": "content page 1 column",
    "node_id": null,
    "managing_branch": "comn",
    "has_dcr_id": true,
    "lang": "en"
}