{
    "dcr_id": "1355956871196",
    "title": {
        "en": "Undeclared milk in various CRISPY JUST BAKED, CRISPY, and SUNRIZE OVEN FRESH brands of COOKIES",
        "fr": "Présence non déclarée de lait dans divers BISCUITS de marque CRISPY JUST BAKED, CRISPY et SUNRIZE OVEN FRESH"
    },
    "html_modified": "2012-08-03",
    "modified": "2012-08-03",
    "issued": "2012-08-03",
    "teamsite_location": {
        "en": "/default/main/inspection/cont-cont/recall-rappel/WORKAREA/recall-rappel/templatedata/comn-comn/recall-rappel/data/20120803b_1355956871196_eng",
        "fr": "/default/main/inspection/cont-cont/recall-rappel/WORKAREA/recall-rappel/templatedata/comn-comn/recall-rappel/data/20120803b_1355956871196_fra"
    },
    "type_name": "recall-rappel",
    "parent_node_id": null,
    "layout_name": "content page 1 column",
    "breadcrumb": {
        "en": "Undeclared milk in various CRISPY JUST BAKED, CRISPY, and SUNRIZE OVEN FRESH brands of COOKIES",
        "fr": "Présence non déclarée de lait dans divers BISCUITS de marque CRISPY JUST BAKED, CRISPY et SUNRIZE OVEN FRESH"
    },
    "label": {
        "en": "Undeclared milk in various CRISPY JUST BAKED, CRISPY, and SUNRIZE OVEN FRESH brands of COOKIES",
        "fr": "Présence non déclarée de lait dans divers BISCUITS de marque CRISPY JUST BAKED, CRISPY et SUNRIZE OVEN FRESH"
    },
    "templatetype": "content page 1 column",
    "node_id": null,
    "managing_branch": "comn",
    "has_dcr_id": true,
    "lang": "en"
}