{
    "dcr_id": "1355956873633",
    "title": {
        "en": "Certain MUMM'S brand SPROUTING SEEDS - SUNFLOWER may contain Salmonella",
        "fr": "Présence possible de la bactérie <span lang=\"la\"><em>Salmonella</em></span> dans certains produits « SPROUTING SEEDS - SUNFLOWER »"
    },
    "html_modified": "2012-04-04",
    "modified": "2012-04-04",
    "issued": "2012-04-04",
    "teamsite_location": {
        "en": "/default/main/inspection/cont-cont/recall-rappel/WORKAREA/recall-rappel/templatedata/comn-comn/recall-rappel/data/20120404b_1355956873633_eng",
        "fr": "/default/main/inspection/cont-cont/recall-rappel/WORKAREA/recall-rappel/templatedata/comn-comn/recall-rappel/data/20120404b_1355956873633_fra"
    },
    "type_name": "recall-rappel",
    "parent_node_id": null,
    "layout_name": "content page 1 column",
    "breadcrumb": {
        "en": "Certain MUMM'S brand SPROUTING SEEDS - SUNFLOWER may contain Salmonella",
        "fr": "Présence possible de la bactérie <span lang=\"la\"><em>Salmonella</em></span> dans certains produits « SPROUTING SEEDS - SUNFLOWER »"
    },
    "label": {
        "en": "Certain MUMM'S brand SPROUTING SEEDS - SUNFLOWER may contain Salmonella",
        "fr": "Présence possible de la bactérie <span lang=\"la\"><em>Salmonella</em></span> dans certains produits « SPROUTING SEEDS - SUNFLOWER »"
    },
    "templatetype": "content page 1 column",
    "node_id": null,
    "managing_branch": "comn",
    "has_dcr_id": true,
    "lang": "en"
}