{
    "dcr_id": "1355524901989",
    "title": {
        "en": "Undeclared egg and milk in certain None brand mushroom flavored soybean strips",
        "fr": "Présence non déclarée de oeufs et lait dans le <span lang=\"en\" xml:lang=\"en\">mushroom flavored soybean strips</span> de marque Aucun"
    },
    "html_modified": "2012-12-11",
    "modified": "2012-12-14",
    "issued": "2012-12-14",
    "teamsite_location": {
        "en": "/default/main/inspection/cont-cont/recall-rappel/WORKAREA/recall-rappel/templatedata/comn-comn/recall-rappel/data/20121211_r7644_1355524901989_eng",
        "fr": "/default/main/inspection/cont-cont/recall-rappel/WORKAREA/recall-rappel/templatedata/comn-comn/recall-rappel/data/20121211_r7644_1355524901989_fra"
    },
    "type_name": "recall-rappel",
    "parent_node_id": null,
    "layout_name": "content page 1 column",
    "breadcrumb": {
        "en": "Undeclared egg and milk in certain None brand mushroom flavored soybean strips",
        "fr": "Présence non déclarée de oeufs et lait dans le <span lang=\"en\" xml:lang=\"en\">mushroom flavored soybean strips</span> de marque Aucun"
    },
    "label": {
        "en": "Undeclared egg and milk in certain None brand mushroom flavored soybean strips",
        "fr": "Présence non déclarée de oeufs et lait dans le <span lang=\"en\" xml:lang=\"en\">mushroom flavored soybean strips</span> de marque Aucun"
    },
    "templatetype": "content page 1 column",
    "node_id": null,
    "managing_branch": "comn",
    "has_dcr_id": true,
    "lang": "en"
}