{
    "dcr_id": "1355956872352",
    "title": {
        "en": "CUISINE DU VIÊT-NAM brand BUTTERFLY KNOTS HONEY & SESAME may contain Salmonella",
        "fr": "Présence possible de la bactérie Salmonella"
    },
    "html_modified": "2012-06-01",
    "modified": "2012-06-01",
    "issued": "2012-06-01",
    "teamsite_location": {
        "en": "/default/main/inspection/cont-cont/recall-rappel/WORKAREA/recall-rappel/templatedata/comn-comn/recall-rappel/data/20120601_1355956872352_eng",
        "fr": "/default/main/inspection/cont-cont/recall-rappel/WORKAREA/recall-rappel/templatedata/comn-comn/recall-rappel/data/20120601_1355956872352_fra"
    },
    "type_name": "recall-rappel",
    "parent_node_id": null,
    "layout_name": "content page 1 column",
    "breadcrumb": {
        "en": "CUISINE DU VIÊT-NAM brand BUTTERFLY KNOTS HONEY & SESAME may contain Salmonella",
        "fr": "Présence possible de la bactérie Salmonella"
    },
    "label": {
        "en": "CUISINE DU VIÊT-NAM brand BUTTERFLY KNOTS HONEY & SESAME may contain Salmonella",
        "fr": "Présence possible de la bactérie Salmonella"
    },
    "templatetype": "content page 1 column",
    "node_id": null,
    "managing_branch": "comn",
    "has_dcr_id": true,
    "lang": "en"
}