{
    "dcr_id": "1355956869978",
    "title": {
        "en": "Store-made FRUIT CUPS, YOGURTS, and SALADS sold at Sunterra Markets in Calgary and Edmonton, Alberta may contain Salmonella Braenderup bacteria",
        "fr": "Présence possible de la bactérie Salmonella Braenderup dans des COUPES DE FRUITS, DES YOGOURTS ET DES SALADES fabriqués en magasin et vendus dans des marchés Sunterra Markets de Calgary et d'Edmonton (Alberta)"
    },
    "html_modified": "2012-08-30",
    "modified": "2012-08-30",
    "issued": "2012-08-30",
    "teamsite_location": {
        "en": "/default/main/inspection/cont-cont/recall-rappel/WORKAREA/recall-rappel/templatedata/comn-comn/recall-rappel/data/20120830_1355956869978_eng",
        "fr": "/default/main/inspection/cont-cont/recall-rappel/WORKAREA/recall-rappel/templatedata/comn-comn/recall-rappel/data/20120830_1355956869978_fra"
    },
    "type_name": "recall-rappel",
    "parent_node_id": null,
    "layout_name": "content page 1 column",
    "breadcrumb": {
        "en": "Store-made FRUIT CUPS, YOGURTS, and SALADS sold at Sunterra Markets in Calgary and Edmonton, Alberta may contain Salmonella Braenderup bacteria",
        "fr": "Présence possible de la bactérie Salmonella Braenderup dans des COUPES DE FRUITS, DES YOGOURTS ET DES SALADES fabriqués en magasin et vendus dans des marchés Sunterra Markets de Calgary et d'Edmonton (Alberta)"
    },
    "label": {
        "en": "Store-made FRUIT CUPS, YOGURTS, and SALADS sold at Sunterra Markets in Calgary and Edmonton, Alberta may contain Salmonella Braenderup bacteria",
        "fr": "Présence possible de la bactérie Salmonella Braenderup dans des COUPES DE FRUITS, DES YOGOURTS ET DES SALADES fabriqués en magasin et vendus dans des marchés Sunterra Markets de Calgary et d'Edmonton (Alberta)"
    },
    "templatetype": "content page 1 column",
    "node_id": null,
    "managing_branch": "comn",
    "has_dcr_id": true,
    "lang": "en"
}