{
    "dcr_id": "1355956872618",
    "title": {
        "en": "Certain COMPLIMENTS brand salads and prepared foods may contain Listeria monocytogenes",
        "fr": "Présence possible de Listeria monocytogenes dans certaines salades de marque COMPLIMENTS"
    },
    "html_modified": "2012-05-18",
    "modified": "2012-05-18",
    "issued": "2012-05-18",
    "teamsite_location": {
        "en": "/default/main/inspection/cont-cont/recall-rappel/WORKAREA/recall-rappel/templatedata/comn-comn/recall-rappel/data/20120518b_1355956872618_eng",
        "fr": "/default/main/inspection/cont-cont/recall-rappel/WORKAREA/recall-rappel/templatedata/comn-comn/recall-rappel/data/20120518b_1355956872618_fra"
    },
    "type_name": "recall-rappel",
    "parent_node_id": null,
    "layout_name": "content page 1 column",
    "breadcrumb": {
        "en": "Certain COMPLIMENTS brand salads and prepared foods may contain Listeria monocytogenes",
        "fr": "Présence possible de Listeria monocytogenes dans certaines salades de marque COMPLIMENTS"
    },
    "label": {
        "en": "Certain COMPLIMENTS brand salads and prepared foods may contain Listeria monocytogenes",
        "fr": "Présence possible de Listeria monocytogenes dans certaines salades de marque COMPLIMENTS"
    },
    "templatetype": "content page 1 column",
    "node_id": null,
    "managing_branch": "comn",
    "has_dcr_id": true,
    "lang": "en"
}