{
    "dcr_id": "1355956873523",
    "title": {
        "en": "Certain AYYAM ZAMAN brand EXTRA FINE TAHINA may contain Salmonella",
        "fr": "Présence possible de la bactérie Salmonella dans du tahini « EXTRA FINE TAHINA » de marque AYYAM ZAMAN"
    },
    "html_modified": "2012-04-05",
    "modified": "2012-04-05",
    "issued": "2012-04-05",
    "teamsite_location": {
        "en": "/default/main/inspection/cont-cont/recall-rappel/WORKAREA/recall-rappel/templatedata/comn-comn/recall-rappel/data/20120405_1355956873523_eng",
        "fr": "/default/main/inspection/cont-cont/recall-rappel/WORKAREA/recall-rappel/templatedata/comn-comn/recall-rappel/data/20120405_1355956873523_fra"
    },
    "type_name": "recall-rappel",
    "parent_node_id": null,
    "layout_name": "content page 1 column",
    "breadcrumb": {
        "en": "Certain AYYAM ZAMAN brand EXTRA FINE TAHINA may contain Salmonella",
        "fr": "Présence possible de la bactérie Salmonella dans du tahini « EXTRA FINE TAHINA » de marque AYYAM ZAMAN"
    },
    "label": {
        "en": "Certain AYYAM ZAMAN brand EXTRA FINE TAHINA may contain Salmonella",
        "fr": "Présence possible de la bactérie Salmonella dans du tahini « EXTRA FINE TAHINA » de marque AYYAM ZAMAN"
    },
    "templatetype": "content page 1 column",
    "node_id": null,
    "managing_branch": "comn",
    "has_dcr_id": true,
    "lang": "en"
}