{
    "dcr_id": "1355956870790",
    "title": {
        "en": "Certain SLICED WHITE MUSHROOMS may contain Listeria monocytogenes",
        "fr": "Présence possible de Listeria monocytogenes dans certains CHAMPIGNONS BLANCS TRANCHÉS"
    },
    "html_modified": "2012-08-13",
    "modified": "2012-08-13",
    "issued": "2012-08-13",
    "teamsite_location": {
        "en": "/default/main/inspection/cont-cont/recall-rappel/WORKAREA/recall-rappel/templatedata/comn-comn/recall-rappel/data/20120813_1355956870790_eng",
        "fr": "/default/main/inspection/cont-cont/recall-rappel/WORKAREA/recall-rappel/templatedata/comn-comn/recall-rappel/data/20120813_1355956870790_fra"
    },
    "type_name": "recall-rappel",
    "parent_node_id": null,
    "layout_name": "content page 1 column",
    "breadcrumb": {
        "en": "Certain SLICED WHITE MUSHROOMS may contain Listeria monocytogenes",
        "fr": "Présence possible de Listeria monocytogenes dans certains CHAMPIGNONS BLANCS TRANCHÉS"
    },
    "label": {
        "en": "Certain SLICED WHITE MUSHROOMS may contain Listeria monocytogenes",
        "fr": "Présence possible de Listeria monocytogenes dans certains CHAMPIGNONS BLANCS TRANCHÉS"
    },
    "templatetype": "content page 1 column",
    "node_id": null,
    "managing_branch": "comn",
    "has_dcr_id": true,
    "lang": "en"
}