{
    "dcr_id": "1357650976432",
    "title": {
        "en": "Certain <span lang=\"fr\">Fromagerie du pied-de-vent</span> brand cheese may contain <span lang=\"la\"><em>Staphylococcus aureus</em></span>",
        "fr": "Certains fromage de marque Fromagerie du pied-de-vent peuvent contenir des <span lang=\"la\"><em>Staphylococcus aureus</em></span>"
    },
    "html_modified": "2012-02-21",
    "modified": "2009-11-16",
    "issued": "2009-11-16",
    "teamsite_location": {
        "en": "/default/main/inspection/cont-cont/recall-rappel/WORKAREA/recall-rappel/templatedata/comn-comn/recall-rappel/data/20120221_r6999_1357650976432_eng",
        "fr": "/default/main/inspection/cont-cont/recall-rappel/WORKAREA/recall-rappel/templatedata/comn-comn/recall-rappel/data/20120221_r6999_1357650976432_fra"
    },
    "type_name": "recall-rappel",
    "parent_node_id": null,
    "layout_name": "content page 1 column",
    "breadcrumb": {
        "en": "Certain <span lang=\"fr\">Fromagerie du pied-de-vent</span> brand cheese may contain <span lang=\"la\"><em>Staphylococcus aureus</em></span>",
        "fr": "Certains fromage de marque Fromagerie du pied-de-vent peuvent contenir des <span lang=\"la\"><em>Staphylococcus aureus</em></span>"
    },
    "label": {
        "en": "Certain <span lang=\"fr\">Fromagerie du pied-de-vent</span> brand cheese may contain <span lang=\"la\"><em>Staphylococcus aureus</em></span>",
        "fr": "Certains fromage de marque Fromagerie du pied-de-vent peuvent contenir des <span lang=\"la\"><em>Staphylococcus aureus</em></span>"
    },
    "templatetype": "content page 1 column",
    "node_id": null,
    "managing_branch": "comn",
    "has_dcr_id": true,
    "lang": "en"
}