{
    "dcr_id": "1357586660237",
    "title": {
        "en": "Certain Lin's Farm brand Honey Products may contain sulfonamide antibiotic drug residue",
        "fr": "Présence de résidus d'antibiotiques sulfamides dans certains produits du miel de marque <span lang=\"en\">Lin's Farm</span>"
    },
    "html_modified": "2012-02-24",
    "modified": "2012-02-24",
    "issued": "2012-02-24",
    "teamsite_location": {
        "en": "/default/main/inspection/cont-cont/recall-rappel/WORKAREA/recall-rappel/templatedata/comn-comn/recall-rappel/data/20120224_1357586660237_eng",
        "fr": "/default/main/inspection/cont-cont/recall-rappel/WORKAREA/recall-rappel/templatedata/comn-comn/recall-rappel/data/20120224_1357586660237_fra"
    },
    "type_name": "recall-rappel",
    "parent_node_id": null,
    "layout_name": "content page 1 column",
    "breadcrumb": {
        "en": "Certain Lin's Farm brand Honey Products may contain sulfonamide antibiotic drug residue",
        "fr": "Présence de résidus d'antibiotiques sulfamides dans certains produits du miel de marque <span lang=\"en\">Lin's Farm</span>"
    },
    "label": {
        "en": "Certain Lin's Farm brand Honey Products may contain sulfonamide antibiotic drug residue",
        "fr": "Présence de résidus d'antibiotiques sulfamides dans certains produits du miel de marque <span lang=\"en\">Lin's Farm</span>"
    },
    "templatetype": "content page 1 column",
    "node_id": null,
    "managing_branch": "comn",
    "has_dcr_id": true,
    "lang": "en"
}