{
    "dcr_id": "1357586660393",
    "title": {
        "en": " Certain Country Morning brand beef burgers and No Name club pack beef steakettes may contain <span lang=\"la\"><i><abbr title=\"Escherichia\">E.</abbr> coli</i></span> 0157:H7 bacteria",
        "fr": "Certains burgers de b<span class=\"lig\">oe</span>uf de marque <span lang=\"en\">Country Morning</span> et certaines steakettes de b<span class=\"lig\">oe</span>uf en emballage format club Sans Nom peuvent contenir la bactérie <span lang=\"la\"><abbr title=\"Escherichia\">E.</abbr> coli</span> O157:H7"
    },
    "html_modified": "2012-02-18",
    "modified": "2012-03-13",
    "issued": "2012-02-18",
    "teamsite_location": {
        "en": "/default/main/inspection/cont-cont/recall-rappel/WORKAREA/recall-rappel/templatedata/comn-comn/recall-rappel/data/20120218_1357586660393_eng",
        "fr": "/default/main/inspection/cont-cont/recall-rappel/WORKAREA/recall-rappel/templatedata/comn-comn/recall-rappel/data/20120218_1357586660393_fra"
    },
    "type_name": "recall-rappel",
    "parent_node_id": null,
    "layout_name": "content page 1 column",
    "breadcrumb": {
        "en": " Certain Country Morning brand beef burgers and No Name club pack beef steakettes may contain <span lang=\"la\"><i><abbr title=\"Escherichia\">E.</abbr> coli</i></span> 0157:H7 bacteria",
        "fr": "Certains burgers de b<span class=\"lig\">oe</span>uf de marque <span lang=\"en\">Country Morning</span> et certaines steakettes de b<span class=\"lig\">oe</span>uf en emballage format club Sans Nom peuvent contenir la bactérie <span lang=\"la\"><abbr title=\"Escherichia\">E.</abbr> coli</span> O157:H7"
    },
    "label": {
        "en": " Certain Country Morning brand beef burgers and No Name club pack beef steakettes may contain <span lang=\"la\"><i><abbr title=\"Escherichia\">E.</abbr> coli</i></span> 0157:H7 bacteria",
        "fr": "Certains burgers de b<span class=\"lig\">oe</span>uf de marque <span lang=\"en\">Country Morning</span> et certaines steakettes de b<span class=\"lig\">oe</span>uf en emballage format club Sans Nom peuvent contenir la bactérie <span lang=\"la\"><abbr title=\"Escherichia\">E.</abbr> coli</span> O157:H7"
    },
    "templatetype": "content page 1 column",
    "node_id": null,
    "managing_branch": "comn",
    "has_dcr_id": true,
    "lang": "en"
}