{
    "dcr_id": "1357650979791",
    "title": {
        "en": "Undeclared sulphites in certain Nutrafruit brand Plum Butter",
        "fr": "Présence non déclarée de sulfites dans certains Tartinade de Prunes de marque <span lang=\"en\" xml:lang=\"en\">Nutrafruit</span>"
    },
    "html_modified": "2012-01-27",
    "modified": "2012-01-27",
    "issued": "2012-01-27",
    "teamsite_location": {
        "en": "/default/main/inspection/cont-cont/recall-rappel/WORKAREA/recall-rappel/templatedata/comn-comn/recall-rappel/data/20120127_r6928_1357650979791_eng",
        "fr": "/default/main/inspection/cont-cont/recall-rappel/WORKAREA/recall-rappel/templatedata/comn-comn/recall-rappel/data/20120127_r6928_1357650979791_fra"
    },
    "type_name": "recall-rappel",
    "parent_node_id": null,
    "layout_name": "content page 1 column",
    "breadcrumb": {
        "en": "Undeclared sulphites in certain Nutrafruit brand Plum Butter",
        "fr": "Présence non déclarée de sulfites dans certains Tartinade de Prunes de marque <span lang=\"en\" xml:lang=\"en\">Nutrafruit</span>"
    },
    "label": {
        "en": "Undeclared sulphites in certain Nutrafruit brand Plum Butter",
        "fr": "Présence non déclarée de sulfites dans certains Tartinade de Prunes de marque <span lang=\"en\" xml:lang=\"en\">Nutrafruit</span>"
    },
    "templatetype": "content page 1 column",
    "node_id": null,
    "managing_branch": "comn",
    "has_dcr_id": true,
    "lang": "en"
}