{
    "dcr_id": "1357586660908",
    "title": {
        "en": "Certain dry sausage sold at Livno Meats retail store in Hornby, Ontario may contain <span lang=\"la\"><em>Salmonella</em></span> bacteria",
        "fr": "Présence possible de la bactérie <span lang=\"la\"><em>Salmonella</em></span> dans certains saucissons secs vendus par le détaillant <span lang=\"en\">Livno Meats</span> à Hornby (Ontario)"
    },
    "html_modified": "2012-02-04",
    "modified": "2012-02-04",
    "issued": "2012-02-04",
    "teamsite_location": {
        "en": "/default/main/inspection/cont-cont/recall-rappel/WORKAREA/recall-rappel/templatedata/comn-comn/recall-rappel/data/20120204_1357586660908_eng",
        "fr": "/default/main/inspection/cont-cont/recall-rappel/WORKAREA/recall-rappel/templatedata/comn-comn/recall-rappel/data/20120204_1357586660908_fra"
    },
    "type_name": "recall-rappel",
    "parent_node_id": null,
    "layout_name": "content page 1 column",
    "breadcrumb": {
        "en": "Certain dry sausage sold at Livno Meats retail store in Hornby, Ontario may contain <span lang=\"la\"><em>Salmonella</em></span> bacteria",
        "fr": "Présence possible de la bactérie <span lang=\"la\"><em>Salmonella</em></span> dans certains saucissons secs vendus par le détaillant <span lang=\"en\">Livno Meats</span> à Hornby (Ontario)"
    },
    "label": {
        "en": "Certain dry sausage sold at Livno Meats retail store in Hornby, Ontario may contain <span lang=\"la\"><em>Salmonella</em></span> bacteria",
        "fr": "Présence possible de la bactérie <span lang=\"la\"><em>Salmonella</em></span> dans certains saucissons secs vendus par le détaillant <span lang=\"en\">Livno Meats</span> à Hornby (Ontario)"
    },
    "templatetype": "content page 1 column",
    "node_id": null,
    "managing_branch": "comn",
    "has_dcr_id": true,
    "lang": "en"
}