{
    "dcr_id": "1357650954737",
    "title": {
        "en": "Certain Mills Sea Food <abbr title=\"Limited\">Ltd</abbr> brand Soft-Shell Clams may contain marine biotoxin",
        "fr": "Présence possible des biotoxine marine dans certaines <span lang=\"en\" xml:lang=\"en\">Soft-shell clams</span> de marque <span lang=\"en\" xml:lang=\"en\">Mills Sea Food <abbr title=\"Limited\">Ltd.</abbr></span>"
    },
    "html_modified": "2012-10-19",
    "modified": "2012-10-19",
    "issued": "2009-11-16",
    "teamsite_location": {
        "en": "/default/main/inspection/cont-cont/recall-rappel/WORKAREA/recall-rappel/templatedata/comn-comn/recall-rappel/data/20121019_r7512_1357650954737_eng",
        "fr": "/default/main/inspection/cont-cont/recall-rappel/WORKAREA/recall-rappel/templatedata/comn-comn/recall-rappel/data/20121019_r7512_1357650954737_fra"
    },
    "type_name": "recall-rappel",
    "parent_node_id": null,
    "layout_name": "content page 1 column",
    "breadcrumb": {
        "en": "Certain Mills Sea Food <abbr title=\"Limited\">Ltd</abbr> brand Soft-Shell Clams may contain marine biotoxin",
        "fr": "Présence possible des biotoxine marine dans certaines <span lang=\"en\" xml:lang=\"en\">Soft-shell clams</span> de marque <span lang=\"en\" xml:lang=\"en\">Mills Sea Food <abbr title=\"Limited\">Ltd.</abbr></span>"
    },
    "label": {
        "en": "Certain Mills Sea Food <abbr title=\"Limited\">Ltd</abbr> brand Soft-Shell Clams may contain marine biotoxin",
        "fr": "Présence possible des biotoxine marine dans certaines <span lang=\"en\" xml:lang=\"en\">Soft-shell clams</span> de marque <span lang=\"en\" xml:lang=\"en\">Mills Sea Food <abbr title=\"Limited\">Ltd.</abbr></span>"
    },
    "templatetype": "content page 1 column",
    "node_id": null,
    "managing_branch": "comn",
    "has_dcr_id": true,
    "lang": "en"
}