{
    "dcr_id": "1357653790609",
    "title": {
        "en": "Signature Cafe 6-Layer Dip may contain <span lang=\"la\"><em>Listeria monocytogenes</em></span>",
        "fr": "Présence possible de la bactérie <span lang=\"la\"><em>Listeria monocytogenes</em></span> dans la Trempette 6 Étages <span lang=\"en\">Signature Cafe</span>"
    },
    "html_modified": "2011-08-12",
    "modified": "2011-08-12",
    "issued": "2011-08-12",
    "teamsite_location": {
        "en": "/default/main/inspection/cont-cont/recall-rappel/WORKAREA/recall-rappel/templatedata/comn-comn/recall-rappel/data/20110812b_1357653790609_eng",
        "fr": "/default/main/inspection/cont-cont/recall-rappel/WORKAREA/recall-rappel/templatedata/comn-comn/recall-rappel/data/20110812b_1357653790609_fra"
    },
    "type_name": "recall-rappel",
    "parent_node_id": null,
    "layout_name": "content page 1 column",
    "breadcrumb": {
        "en": "Signature Cafe 6-Layer Dip may contain <span lang=\"la\"><em>Listeria monocytogenes</em></span>",
        "fr": "Présence possible de la bactérie <span lang=\"la\"><em>Listeria monocytogenes</em></span> dans la Trempette 6 Étages <span lang=\"en\">Signature Cafe</span>"
    },
    "label": {
        "en": "Signature Cafe 6-Layer Dip may contain <span lang=\"la\"><em>Listeria monocytogenes</em></span>",
        "fr": "Présence possible de la bactérie <span lang=\"la\"><em>Listeria monocytogenes</em></span> dans la Trempette 6 Étages <span lang=\"en\">Signature Cafe</span>"
    },
    "templatetype": "content page 1 column",
    "node_id": null,
    "managing_branch": "comn",
    "has_dcr_id": true,
    "lang": "en"
}