{
    "dcr_id": "1357586654098",
    "title": {
        "en": " Various Labelled and Unlabelled GROUND BEEF Products May Contain E. coli O157:H7 Bacteria",
        "fr": " Présence possible de la bactérie E. coli O157:H7 dans divers produits de BOEUF HACHÉ étiquetés et non étiquetés"
    },
    "html_modified": "2012-09-19",
    "modified": "2012-09-19",
    "issued": "2012-09-19",
    "teamsite_location": {
        "en": "/default/main/inspection/cont-cont/recall-rappel/WORKAREA/recall-rappel/templatedata/comn-comn/recall-rappel/data/20120919_1357586654098_eng",
        "fr": "/default/main/inspection/cont-cont/recall-rappel/WORKAREA/recall-rappel/templatedata/comn-comn/recall-rappel/data/20120919_1357586654098_fra"
    },
    "type_name": "recall-rappel",
    "parent_node_id": null,
    "layout_name": "content page 1 column",
    "breadcrumb": {
        "en": " Various Labelled and Unlabelled GROUND BEEF Products May Contain E. coli O157:H7 Bacteria",
        "fr": " Présence possible de la bactérie E. coli O157:H7 dans divers produits de BOEUF HACHÉ étiquetés et non étiquetés"
    },
    "label": {
        "en": " Various Labelled and Unlabelled GROUND BEEF Products May Contain E. coli O157:H7 Bacteria",
        "fr": " Présence possible de la bactérie E. coli O157:H7 dans divers produits de BOEUF HACHÉ étiquetés et non étiquetés"
    },
    "templatetype": "content page 1 column",
    "node_id": null,
    "managing_branch": "comn",
    "has_dcr_id": true,
    "lang": "en"
}