{
    "dcr_id": "1357586658831",
    "title": {
        "en": "Undeclared almonds and/or milk in certain Crispy by TWI Foods Cookies and Rusks",
        "fr": " Présence non déclarée d'amandes et/ou de lait dans certains BISCUITS et BISCOTTES de marque CRISPY BY TWI FOODS"
    },
    "html_modified": "2012-03-29",
    "modified": "2012-03-29",
    "issued": "2012-03-29",
    "teamsite_location": {
        "en": "/default/main/inspection/cont-cont/recall-rappel/WORKAREA/recall-rappel/templatedata/comn-comn/recall-rappel/data/20120329_1357586658831_eng",
        "fr": "/default/main/inspection/cont-cont/recall-rappel/WORKAREA/recall-rappel/templatedata/comn-comn/recall-rappel/data/20120329_1357586658831_fra"
    },
    "type_name": "recall-rappel",
    "parent_node_id": null,
    "layout_name": "content page 1 column",
    "breadcrumb": {
        "en": "Undeclared almonds and/or milk in certain Crispy by TWI Foods Cookies and Rusks",
        "fr": " Présence non déclarée d'amandes et/ou de lait dans certains BISCUITS et BISCOTTES de marque CRISPY BY TWI FOODS"
    },
    "label": {
        "en": "Undeclared almonds and/or milk in certain Crispy by TWI Foods Cookies and Rusks",
        "fr": " Présence non déclarée d'amandes et/ou de lait dans certains BISCUITS et BISCOTTES de marque CRISPY BY TWI FOODS"
    },
    "templatetype": "content page 1 column",
    "node_id": null,
    "managing_branch": "comn",
    "has_dcr_id": true,
    "lang": "en"
}