{
    "dcr_id": "1357650959454",
    "title": {
        "en": "Undeclared gluten in certain Valley Flax Flour brand Wheat Free Pancake Mix",
        "fr": "Présence non déclarée de gluten dans préparation pour crêpes sans blé de marque <span lang=\"en\">Valley Flax Flour</span>"
    },
    "html_modified": "2012-09-07",
    "modified": "2012-09-07",
    "issued": "2009-11-16",
    "teamsite_location": {
        "en": "/default/main/inspection/cont-cont/recall-rappel/WORKAREA/recall-rappel/templatedata/comn-comn/recall-rappel/data/20120907_r7408_1357650959454_eng",
        "fr": "/default/main/inspection/cont-cont/recall-rappel/WORKAREA/recall-rappel/templatedata/comn-comn/recall-rappel/data/20120907_r7408_1357650959454_fra"
    },
    "type_name": "recall-rappel",
    "parent_node_id": null,
    "layout_name": "content page 1 column",
    "breadcrumb": {
        "en": "Undeclared gluten in certain Valley Flax Flour brand Wheat Free Pancake Mix",
        "fr": "Présence non déclarée de gluten dans préparation pour crêpes sans blé de marque <span lang=\"en\">Valley Flax Flour</span>"
    },
    "label": {
        "en": "Undeclared gluten in certain Valley Flax Flour brand Wheat Free Pancake Mix",
        "fr": "Présence non déclarée de gluten dans préparation pour crêpes sans blé de marque <span lang=\"en\">Valley Flax Flour</span>"
    },
    "templatetype": "content page 1 column",
    "node_id": null,
    "managing_branch": "comn",
    "has_dcr_id": true,
    "lang": "en"
}