{
    "dcr_id": "1357653790812",
    "title": {
        "en": "Certain mussels may contain a biotoxin which causes diarrhetic shellfish poisoning",
        "fr": "Certaines moules pourraient contenir une biotoxine causant une intoxication diarrhéique"
    },
    "html_modified": "2011-08-06",
    "modified": "2011-08-06",
    "issued": "2011-08-06",
    "teamsite_location": {
        "en": "/default/main/inspection/cont-cont/recall-rappel/WORKAREA/recall-rappel/templatedata/comn-comn/recall-rappel/data/20110806_1357653790812_eng",
        "fr": "/default/main/inspection/cont-cont/recall-rappel/WORKAREA/recall-rappel/templatedata/comn-comn/recall-rappel/data/20110806_1357653790812_fra"
    },
    "type_name": "recall-rappel",
    "parent_node_id": null,
    "layout_name": "content page 1 column",
    "breadcrumb": {
        "en": "Certain mussels may contain a biotoxin which causes diarrhetic shellfish poisoning",
        "fr": "Certaines moules pourraient contenir une biotoxine causant une intoxication diarrhéique"
    },
    "label": {
        "en": "Certain mussels may contain a biotoxin which causes diarrhetic shellfish poisoning",
        "fr": "Certaines moules pourraient contenir une biotoxine causant une intoxication diarrhéique"
    },
    "templatetype": "content page 1 column",
    "node_id": null,
    "managing_branch": "comn",
    "has_dcr_id": true,
    "lang": "en"
}