{
    "dcr_id": "1357650956205",
    "title": {
        "en": "Certain None brand Live Blue Mussels may contain marine biotoxin",
        "fr": "Présence possible de la biotoxine marine dans certaines <span lang=\"en\" xml:lang=\"en\">Live Blue Mussels</span> de marque Aucun"
    },
    "html_modified": "2012-10-10",
    "modified": "2012-10-10",
    "issued": "2009-11-16",
    "teamsite_location": {
        "en": "/default/main/inspection/cont-cont/recall-rappel/WORKAREA/recall-rappel/templatedata/comn-comn/recall-rappel/data/20121010_r7486_1357650956205_eng",
        "fr": "/default/main/inspection/cont-cont/recall-rappel/WORKAREA/recall-rappel/templatedata/comn-comn/recall-rappel/data/20121010_r7486_1357650956205_fra"
    },
    "type_name": "recall-rappel",
    "parent_node_id": null,
    "layout_name": "content page 1 column",
    "breadcrumb": {
        "en": "Certain None brand Live Blue Mussels may contain marine biotoxin",
        "fr": "Présence possible de la biotoxine marine dans certaines <span lang=\"en\" xml:lang=\"en\">Live Blue Mussels</span> de marque Aucun"
    },
    "label": {
        "en": "Certain None brand Live Blue Mussels may contain marine biotoxin",
        "fr": "Présence possible de la biotoxine marine dans certaines <span lang=\"en\" xml:lang=\"en\">Live Blue Mussels</span> de marque Aucun"
    },
    "templatetype": "content page 1 column",
    "node_id": null,
    "managing_branch": "comn",
    "has_dcr_id": true,
    "lang": "en"
}