{
    "dcr_id": "1357650977276",
    "title": {
        "en": "Undeclared milk in Cosine brand Instant Pudding Powder",
        "fr": "Présence non déclarée de lait dans certains <span lang=\"en\">Instant Pudding Powder</span> de marque Cosine"
    },
    "html_modified": "2012-02-10",
    "modified": "2012-02-10",
    "issued": "2012-02-10",
    "teamsite_location": {
        "en": "/default/main/inspection/cont-cont/recall-rappel/WORKAREA/recall-rappel/templatedata/comn-comn/recall-rappel/data/20120210_r6983_1357650977276_eng",
        "fr": "/default/main/inspection/cont-cont/recall-rappel/WORKAREA/recall-rappel/templatedata/comn-comn/recall-rappel/data/20120210_r6983_1357650977276_fra"
    },
    "type_name": "recall-rappel",
    "parent_node_id": null,
    "layout_name": "content page 1 column",
    "breadcrumb": {
        "en": "Undeclared milk in Cosine brand Instant Pudding Powder",
        "fr": "Présence non déclarée de lait dans certains <span lang=\"en\">Instant Pudding Powder</span> de marque Cosine"
    },
    "label": {
        "en": "Undeclared milk in Cosine brand Instant Pudding Powder",
        "fr": "Présence non déclarée de lait dans certains <span lang=\"en\">Instant Pudding Powder</span> de marque Cosine"
    },
    "templatetype": "content page 1 column",
    "node_id": null,
    "managing_branch": "comn",
    "has_dcr_id": true,
    "lang": "en"
}