{
    "dcr_id": "1358991626135",
    "title": {
        "en": "Undeclared soy, wheat and shellfish in various dumplings and potstickers prepared for Siwin Foods <abbr title='Limited'>Ltd.</abbr>",
        "fr": "Présence non déclarée de soja, de blé et de crustacés dans diverses dumplings et potstickers préparés pour les <span lang=\"en\">Siwin Foods <abbr title='Limited'>Ltd.</abbr></span>"
    },
    "html_modified": "2013-01-22",
    "modified": "2013-01-23",
    "issued": "2013-01-23",
    "teamsite_location": {
        "en": "/default/main/inspection/cont-cont/recall-rappel/WORKAREA/recall-rappel/templatedata/comn-comn/recall-rappel/data/20130122_r7768_1358991626135_eng",
        "fr": "/default/main/inspection/cont-cont/recall-rappel/WORKAREA/recall-rappel/templatedata/comn-comn/recall-rappel/data/20130122_r7768_1358991626135_fra"
    },
    "type_name": "recall-rappel",
    "parent_node_id": null,
    "layout_name": "content page 1 column",
    "breadcrumb": {
        "en": "Undeclared soy, wheat and shellfish in various dumplings and potstickers prepared for Siwin Foods <abbr title='Limited'>Ltd.</abbr>",
        "fr": "Présence non déclarée de soja, de blé et de crustacés dans diverses dumplings et potstickers préparés pour les <span lang=\"en\">Siwin Foods <abbr title='Limited'>Ltd.</abbr></span>"
    },
    "label": {
        "en": "Undeclared soy, wheat and shellfish in various dumplings and potstickers prepared for Siwin Foods <abbr title='Limited'>Ltd.</abbr>",
        "fr": "Présence non déclarée de soja, de blé et de crustacés dans diverses dumplings et potstickers préparés pour les <span lang=\"en\">Siwin Foods <abbr title='Limited'>Ltd.</abbr></span>"
    },
    "templatetype": "content page 1 column",
    "node_id": null,
    "managing_branch": "comn",
    "has_dcr_id": true,
    "lang": "en"
}