{
    "dcr_id": "1359548340660",
    "title": {
        "en": "Undeclared peanuts in Sea-Ray brand Lightly Breaded and Seasoned Calamari",
        "fr": "Présence non déclarée d'arachides dans le produit « Calmars legerment panees et assaisonnes » de marque <span lang=\"en\">Sea-Ray</span>"
    },
    "html_modified": "2011-03-11",
    "modified": "2011-03-11",
    "issued": "2011-03-11",
    "teamsite_location": {
        "en": "/default/main/inspection/cont-cont/recall-rappel/WORKAREA/recall-rappel/templatedata/comn-comn/recall-rappel/data/20110311_1359548340660_eng",
        "fr": "/default/main/inspection/cont-cont/recall-rappel/WORKAREA/recall-rappel/templatedata/comn-comn/recall-rappel/data/20110311_1359548340660_fra"
    },
    "type_name": "recall-rappel",
    "parent_node_id": null,
    "layout_name": "content page 1 column",
    "breadcrumb": {
        "en": "Undeclared peanuts in Sea-Ray brand Lightly Breaded and Seasoned Calamari",
        "fr": "Présence non déclarée d'arachides dans le produit « Calmars legerment panees et assaisonnes » de marque <span lang=\"en\">Sea-Ray</span>"
    },
    "label": {
        "en": "Undeclared peanuts in Sea-Ray brand Lightly Breaded and Seasoned Calamari",
        "fr": "Présence non déclarée d'arachides dans le produit « Calmars legerment panees et assaisonnes » de marque <span lang=\"en\">Sea-Ray</span>"
    },
    "templatetype": "content page 1 column",
    "node_id": null,
    "managing_branch": "comn",
    "has_dcr_id": true,
    "lang": "en"
}