{
    "dcr_id": "1359548342066",
    "title": {
        "en": "Sprouters Northwest brand Deli Sprouts sold at Wal-Mart in Western Canada may contain <span lang=\"la\"><i>Salmonella</i></span> bacteria",
        "fr": "Les pousses de traiteur de la marque <span lang=\"en\">Sprouters Northwest</span>, vendues dans les magasins Wal-Mart de l'ouest Canadien, pourraient être contaminées par la bactérie <span lang=\"la\"><i>Salmonella</i></span>"
    },
    "html_modified": "2011-01-04",
    "modified": "2011-01-04",
    "issued": "2011-01-04",
    "teamsite_location": {
        "en": "/default/main/inspection/cont-cont/recall-rappel/WORKAREA/recall-rappel/templatedata/comn-comn/recall-rappel/data/20110104_1359548342066_eng",
        "fr": "/default/main/inspection/cont-cont/recall-rappel/WORKAREA/recall-rappel/templatedata/comn-comn/recall-rappel/data/20110104_1359548342066_fra"
    },
    "type_name": "recall-rappel",
    "parent_node_id": null,
    "layout_name": "content page 1 column",
    "breadcrumb": {
        "en": "Sprouters Northwest brand Deli Sprouts sold at Wal-Mart in Western Canada may contain <span lang=\"la\"><i>Salmonella</i></span> bacteria",
        "fr": "Les pousses de traiteur de la marque <span lang=\"en\">Sprouters Northwest</span>, vendues dans les magasins Wal-Mart de l'ouest Canadien, pourraient être contaminées par la bactérie <span lang=\"la\"><i>Salmonella</i></span>"
    },
    "label": {
        "en": "Sprouters Northwest brand Deli Sprouts sold at Wal-Mart in Western Canada may contain <span lang=\"la\"><i>Salmonella</i></span> bacteria",
        "fr": "Les pousses de traiteur de la marque <span lang=\"en\">Sprouters Northwest</span>, vendues dans les magasins Wal-Mart de l'ouest Canadien, pourraient être contaminées par la bactérie <span lang=\"la\"><i>Salmonella</i></span>"
    },
    "templatetype": "content page 1 column",
    "node_id": null,
    "managing_branch": "comn",
    "has_dcr_id": true,
    "lang": "en"
}