{
    "dcr_id": "1360289245881",
    "title": {
        "en": "Undeclared tree nut in Glutenull brand Coco Moko Cookie",
        "fr": "Présence non déclarée de noix dans les <span lang='en' xml:lang='en'>Coco Moko Cookie</span> de marque Glutenull"
    },
    "html_modified": "2013-02-06",
    "modified": "2013-02-07",
    "issued": "2013-02-07",
    "teamsite_location": {
        "en": "/default/main/inspection/cont-cont/recall-rappel/WORKAREA/recall-rappel/templatedata/comn-comn/recall-rappel/data/20130206_r7798_1360289245881_eng",
        "fr": "/default/main/inspection/cont-cont/recall-rappel/WORKAREA/recall-rappel/templatedata/comn-comn/recall-rappel/data/20130206_r7798_1360289245881_fra"
    },
    "type_name": "recall-rappel",
    "parent_node_id": null,
    "layout_name": "content page 1 column",
    "breadcrumb": {
        "en": "Undeclared tree nut in Glutenull brand Coco Moko Cookie",
        "fr": "Présence non déclarée de noix dans les <span lang='en' xml:lang='en'>Coco Moko Cookie</span> de marque Glutenull"
    },
    "label": {
        "en": "Undeclared tree nut in Glutenull brand Coco Moko Cookie",
        "fr": "Présence non déclarée de noix dans les <span lang='en' xml:lang='en'>Coco Moko Cookie</span> de marque Glutenull"
    },
    "templatetype": "content page 1 column",
    "node_id": null,
    "managing_branch": "comn",
    "has_dcr_id": true,
    "lang": "en"
}