{
    "dcr_id": "1361312596285",
    "title": {
        "en": "Certain Gogo Quinoa brand Amaranth and Kaniwa Cream are recalled",
        "fr": "Certains crème d'amaranthe et kaniwa marque <span lang=\"en\">Gogo Quinoa</span> sont rappelés"
    },
    "html_modified": "2013-02-18",
    "modified": "2013-02-19",
    "issued": "2013-02-19",
    "teamsite_location": {
        "en": "/default/main/inspection/cont-cont/recall-rappel/WORKAREA/recall-rappel/templatedata/comn-comn/recall-rappel/data/20130218_r7827_1361312596285_eng",
        "fr": "/default/main/inspection/cont-cont/recall-rappel/WORKAREA/recall-rappel/templatedata/comn-comn/recall-rappel/data/20130218_r7827_1361312596285_fra"
    },
    "type_name": "recall-rappel",
    "parent_node_id": null,
    "layout_name": "content page 1 column",
    "breadcrumb": {
        "en": "Certain Gogo Quinoa brand Amaranth and Kaniwa Cream are recalled",
        "fr": "Certains crème d'amaranthe et kaniwa marque <span lang=\"en\">Gogo Quinoa</span> sont rappelés"
    },
    "label": {
        "en": "Certain Gogo Quinoa brand Amaranth and Kaniwa Cream are recalled",
        "fr": "Certains crème d'amaranthe et kaniwa marque <span lang=\"en\">Gogo Quinoa</span> sont rappelés"
    },
    "templatetype": "content page 1 column",
    "node_id": null,
    "managing_branch": "comn",
    "has_dcr_id": true,
    "lang": "en"
}