{
    "dcr_id": "1361976092688",
    "title": {
        "en": "Various beef products may contain <span lang=\"la\" xml:lang=\"la\"><i><abbr title=\"Escherichia\">E.</abbr> coli</i></span> O157:H7 bacteria",
        "fr": "Présence possible de la bactérie <span lang=\"la\" xml:lang=\"la\"><i><abbr title=\"Escherichia\">E.</abbr> coli</i></span> O157:H7 dans divers produits de b<span class=\"lig\">oe</span>uf"
    },
    "html_modified": "2012-09-27",
    "modified": "2012-09-27",
    "issued": "2012-09-27",
    "teamsite_location": {
        "en": "/default/main/inspection/cont-cont/recall-rappel/WORKAREA/recall-rappel/templatedata/comn-comn/recall-rappel/data/20120927_r7705_1361976092688_eng",
        "fr": "/default/main/inspection/cont-cont/recall-rappel/WORKAREA/recall-rappel/templatedata/comn-comn/recall-rappel/data/20120927_r7705_1361976092688_fra"
    },
    "type_name": "recall-rappel",
    "parent_node_id": null,
    "layout_name": "content page 1 column",
    "breadcrumb": {
        "en": "Various beef products may contain <span lang=\"la\" xml:lang=\"la\"><i><abbr title=\"Escherichia\">E.</abbr> coli</i></span> O157:H7 bacteria",
        "fr": "Présence possible de la bactérie <span lang=\"la\" xml:lang=\"la\"><i><abbr title=\"Escherichia\">E.</abbr> coli</i></span> O157:H7 dans divers produits de b<span class=\"lig\">oe</span>uf"
    },
    "label": {
        "en": "Various beef products may contain <span lang=\"la\" xml:lang=\"la\"><i><abbr title=\"Escherichia\">E.</abbr> coli</i></span> O157:H7 bacteria",
        "fr": "Présence possible de la bactérie <span lang=\"la\" xml:lang=\"la\"><i><abbr title=\"Escherichia\">E.</abbr> coli</i></span> O157:H7 dans divers produits de b<span class=\"lig\">oe</span>uf"
    },
    "templatetype": "content page 1 column",
    "node_id": null,
    "managing_branch": "comn",
    "has_dcr_id": true,
    "lang": "en"
}