{
    "dcr_id": "1362732544781",
    "title": {
        "en": "Undeclared milk in certain Anita's Organic Mill products",
        "fr": "Présence non déclarée de lait dans certains produits de mélanges au chocolat de marque <span lang=\"en\">Anita's Organic Mill</span>"
    },
    "html_modified": "2013-03-08",
    "modified": "2013-03-08",
    "issued": "2013-03-08",
    "teamsite_location": {
        "en": "/default/main/inspection/cont-cont/recall-rappel/WORKAREA/recall-rappel/templatedata/comn-comn/recall-rappel/data/20130307c_1362732544781_eng",
        "fr": "/default/main/inspection/cont-cont/recall-rappel/WORKAREA/recall-rappel/templatedata/comn-comn/recall-rappel/data/20130307c_1362732544781_fra"
    },
    "type_name": "recall-rappel",
    "parent_node_id": null,
    "layout_name": "content page 1 column",
    "breadcrumb": {
        "en": "Undeclared milk in certain Anita's Organic Mill products",
        "fr": "Présence non déclarée de lait dans certains produits de mélanges au chocolat de marque <span lang=\"en\">Anita's Organic Mill</span>"
    },
    "label": {
        "en": "Undeclared milk in certain Anita's Organic Mill products",
        "fr": "Présence non déclarée de lait dans certains produits de mélanges au chocolat de marque <span lang=\"en\">Anita's Organic Mill</span>"
    },
    "templatetype": "content page 1 column",
    "node_id": null,
    "managing_branch": "comn",
    "has_dcr_id": true,
    "lang": "en"
}