{
    "dcr_id": "1363615504451",
    "title": {
        "en": "Undeclared Milk and Wheat in Chelsea Chocolates brand Chocolate Products",
        "fr": "Présence non déclarée de lait et de blé dans certains chocolates de marque <span lang=\"en\">Chelsea Chocolates</span>"
    },
    "html_modified": "2013-03-13",
    "modified": "2013-03-21",
    "issued": "2013-03-18",
    "teamsite_location": {
        "en": "/default/main/inspection/cont-cont/recall-rappel/WORKAREA/recall-rappel/templatedata/comn-comn/recall-rappel/data/20130313_r7894_1363615504451_eng",
        "fr": "/default/main/inspection/cont-cont/recall-rappel/WORKAREA/recall-rappel/templatedata/comn-comn/recall-rappel/data/20130313_r7894_1363615504451_fra"
    },
    "type_name": "recall-rappel",
    "parent_node_id": null,
    "layout_name": "content page 1 column",
    "breadcrumb": {
        "en": "Undeclared Milk and Wheat in Chelsea Chocolates brand Chocolate Products",
        "fr": "Présence non déclarée de lait et de blé dans certains chocolates de marque <span lang=\"en\">Chelsea Chocolates</span>"
    },
    "label": {
        "en": "Undeclared Milk and Wheat in Chelsea Chocolates brand Chocolate Products",
        "fr": "Présence non déclarée de lait et de blé dans certains chocolates de marque <span lang=\"en\">Chelsea Chocolates</span>"
    },
    "templatetype": "content page 1 column",
    "node_id": null,
    "managing_branch": "comn",
    "has_dcr_id": true,
    "lang": "en"
}