{
    "dcr_id": "1368038529876",
    "title": {
        "en": "Undeclared milk in certain Rococo Fine Foods brand nut products",
        "fr": "Présence non déclarée de lait dans certains produits de noix de marque <span lang=\"en\">Rococo Fine Foods</span>"
    },
    "html_modified": "2013-05-06",
    "modified": "2013-05-08",
    "issued": "2013-05-08",
    "teamsite_location": {
        "en": "/default/main/inspection/cont-cont/recall-rappel/WORKAREA/recall-rappel/templatedata/comn-comn/recall-rappel/data/20130506_r7986_1368038529876_eng",
        "fr": "/default/main/inspection/cont-cont/recall-rappel/WORKAREA/recall-rappel/templatedata/comn-comn/recall-rappel/data/20130506_r7986_1368038529876_fra"
    },
    "type_name": "recall-rappel",
    "parent_node_id": null,
    "layout_name": "content page 1 column",
    "breadcrumb": {
        "en": "Undeclared milk in certain Rococo Fine Foods brand nut products",
        "fr": "Présence non déclarée de lait dans certains produits de noix de marque <span lang=\"en\">Rococo Fine Foods</span>"
    },
    "label": {
        "en": "Undeclared milk in certain Rococo Fine Foods brand nut products",
        "fr": "Présence non déclarée de lait dans certains produits de noix de marque <span lang=\"en\">Rococo Fine Foods</span>"
    },
    "templatetype": "content page 1 column",
    "node_id": null,
    "managing_branch": "comn",
    "has_dcr_id": true,
    "lang": "en"
}