{
    "dcr_id": "1372170601888",
    "title": {
        "en": "Undeclared gluten and mustard in certain Budweiser brand sauces",
        "fr": "Présence non déclarée de gluten et de moutarde dans divers sauces de marque <span lang=\"en\">Budweiser</span>"
    },
    "html_modified": "2013-06-19",
    "modified": "2013-06-25",
    "issued": "2013-06-25",
    "teamsite_location": {
        "en": "/default/main/inspection/cont-cont/recall-rappel/WORKAREA/recall-rappel/templatedata/comn-comn/recall-rappel/data/20130619_r8076_1372170601888_eng",
        "fr": "/default/main/inspection/cont-cont/recall-rappel/WORKAREA/recall-rappel/templatedata/comn-comn/recall-rappel/data/20130619_r8076_1372170601888_fra"
    },
    "type_name": "recall-rappel",
    "parent_node_id": null,
    "layout_name": "content page 1 column",
    "breadcrumb": {
        "en": "Undeclared gluten and mustard in certain Budweiser brand sauces",
        "fr": "Présence non déclarée de gluten et de moutarde dans divers sauces de marque <span lang=\"en\">Budweiser</span>"
    },
    "label": {
        "en": "Undeclared gluten and mustard in certain Budweiser brand sauces",
        "fr": "Présence non déclarée de gluten et de moutarde dans divers sauces de marque <span lang=\"en\">Budweiser</span>"
    },
    "templatetype": "content page 1 column",
    "node_id": null,
    "managing_branch": "comn",
    "has_dcr_id": true,
    "lang": "en"
}