{
    "dcr_id": "1373659558171",
    "title": {
        "en": "Certain <span lang=\"fr\">Grande Entrée Aquaculture</span> brand and <span lang=\"fr\">Culti-Mer</span> brand blue mussels may contain marine biotoxin",
        "fr": "Présence possible d’une biotoxine marine dans certaines moules bleues de marques Grande Entrée Aquaculture et Culti-mer "
    },
    "html_modified": "2013-07-06",
    "modified": "2013-07-12",
    "issued": "2013-07-12",
    "teamsite_location": {
        "en": "/default/main/inspection/cont-cont/recall-rappel/WORKAREA/recall-rappel/templatedata/comn-comn/recall-rappel/data/20130706_r8141_1373659558171_eng",
        "fr": "/default/main/inspection/cont-cont/recall-rappel/WORKAREA/recall-rappel/templatedata/comn-comn/recall-rappel/data/20130706_r8141_1373659558171_fra"
    },
    "type_name": "recall-rappel",
    "parent_node_id": null,
    "layout_name": "content page 1 column",
    "breadcrumb": {
        "en": "Certain <span lang=\"fr\">Grande Entrée Aquaculture</span> brand and <span lang=\"fr\">Culti-Mer</span> brand blue mussels may contain marine biotoxin",
        "fr": "Présence possible d’une biotoxine marine dans certaines moules bleues de marques Grande Entrée Aquaculture et Culti-mer "
    },
    "label": {
        "en": "Certain <span lang=\"fr\">Grande Entrée Aquaculture</span> brand and <span lang=\"fr\">Culti-Mer</span> brand blue mussels may contain marine biotoxin",
        "fr": "Présence possible d’une biotoxine marine dans certaines moules bleues de marques Grande Entrée Aquaculture et Culti-mer "
    },
    "templatetype": "content page 1 column",
    "node_id": null,
    "managing_branch": "comn",
    "has_dcr_id": true,
    "lang": "en"
}