{
    "dcr_id": "1373941026526",
    "title": {
        "en": " Certain Il Villaggio brand Gorgonzola Dolce Cheese may contain <i lang=\"la\">Listeria monocytogenes</i>",
        "fr": "Présence possible de <i lang=\"la\">Listeria monocytogenes</i> dans certains Fromage Gorgonzola Dolce  de marque Il Villaggio"
    },
    "html_modified": "2013-07-15",
    "modified": "2013-07-15",
    "issued": "2013-07-15",
    "teamsite_location": {
        "en": "/default/main/inspection/cont-cont/recall-rappel/WORKAREA/recall-rappel/templatedata/comn-comn/recall-rappel/data/20130715_1373941026526_eng",
        "fr": "/default/main/inspection/cont-cont/recall-rappel/WORKAREA/recall-rappel/templatedata/comn-comn/recall-rappel/data/20130715_1373941026526_fra"
    },
    "type_name": "recall-rappel",
    "parent_node_id": null,
    "layout_name": "content page 1 column",
    "breadcrumb": {
        "en": " Certain Il Villaggio brand Gorgonzola Dolce Cheese may contain <i lang=\"la\">Listeria monocytogenes</i>",
        "fr": "Présence possible de <i lang=\"la\">Listeria monocytogenes</i> dans certains Fromage Gorgonzola Dolce  de marque Il Villaggio"
    },
    "label": {
        "en": " Certain Il Villaggio brand Gorgonzola Dolce Cheese may contain <i lang=\"la\">Listeria monocytogenes</i>",
        "fr": "Présence possible de <i lang=\"la\">Listeria monocytogenes</i> dans certains Fromage Gorgonzola Dolce  de marque Il Villaggio"
    },
    "templatetype": "content page 1 column",
    "node_id": null,
    "managing_branch": "comn",
    "has_dcr_id": true,
    "lang": "en"
}