{
    "dcr_id": "1373902836757",
    "title": {
        "en": "Certain Cortas brand Foul Medammas are recalled",
        "fr": "Certain « <span lang=\"en\">Foul Medammas</span> » de marque Cortas est rappelé"
    },
    "html_modified": "2013-05-23",
    "modified": "2013-07-15",
    "issued": "2013-07-15",
    "teamsite_location": {
        "en": "/default/main/inspection/cont-cont/recall-rappel/WORKAREA/recall-rappel/templatedata/comn-comn/recall-rappel/data/20130523_r8020_1373902836757_eng",
        "fr": "/default/main/inspection/cont-cont/recall-rappel/WORKAREA/recall-rappel/templatedata/comn-comn/recall-rappel/data/20130523_r8020_1373902836757_fra"
    },
    "type_name": "recall-rappel",
    "parent_node_id": null,
    "layout_name": "content page 1 column",
    "breadcrumb": {
        "en": "Certain Cortas brand Foul Medammas are recalled",
        "fr": "Certain « <span lang=\"en\">Foul Medammas</span> » de marque Cortas est rappelé"
    },
    "label": {
        "en": "Certain Cortas brand Foul Medammas are recalled",
        "fr": "Certain « <span lang=\"en\">Foul Medammas</span> » de marque Cortas est rappelé"
    },
    "templatetype": "content page 1 column",
    "node_id": null,
    "managing_branch": "comn",
    "has_dcr_id": true,
    "lang": "en"
}