{
    "dcr_id": "1373606731091",
    "title": {
        "en": "Undeclared mustard and / or sulphites in certain <span class=\"fr\">Printemps</span> brand Dressings",
        "fr": "Présence non déclarée de moutarde et/ou de sulfites dans certaines vinaigrettes de marque Printemps"
    },
    "html_modified": "2013-07-11",
    "modified": "2013-07-12",
    "issued": "2013-07-12",
    "teamsite_location": {
        "en": "/default/main/inspection/cont-cont/recall-rappel/WORKAREA/recall-rappel/templatedata/comn-comn/recall-rappel/data/20130711_1373606731091_eng",
        "fr": "/default/main/inspection/cont-cont/recall-rappel/WORKAREA/recall-rappel/templatedata/comn-comn/recall-rappel/data/20130711_1373606731091_fra"
    },
    "type_name": "recall-rappel",
    "parent_node_id": null,
    "layout_name": "content page 1 column",
    "breadcrumb": {
        "en": "Undeclared mustard and / or sulphites in certain <span class=\"fr\">Printemps</span> brand Dressings",
        "fr": "Présence non déclarée de moutarde et/ou de sulfites dans certaines vinaigrettes de marque Printemps"
    },
    "label": {
        "en": "Undeclared mustard and / or sulphites in certain <span class=\"fr\">Printemps</span> brand Dressings",
        "fr": "Présence non déclarée de moutarde et/ou de sulfites dans certaines vinaigrettes de marque Printemps"
    },
    "templatetype": "content page 1 column",
    "node_id": null,
    "managing_branch": "comn",
    "has_dcr_id": true,
    "lang": "en"
}