{
    "dcr_id": "1375455817707",
    "title": {
        "en": "Certain Country Ribbon brand Salami and Pepperoni may contain bone fragments",
        "fr": "Présence possible d'esquilles d'os dans certains Salamis et Pepperonis de marque <span lang=\"en\">Country Ribbon</span>"
    },
    "html_modified": "2013-08-01",
    "modified": "2013-08-02",
    "issued": "2013-08-02",
    "teamsite_location": {
        "en": "/default/main/inspection/cont-cont/recall-rappel/WORKAREA/recall-rappel/templatedata/comn-comn/recall-rappel/data/20130801_r8205_1375455817707_eng",
        "fr": "/default/main/inspection/cont-cont/recall-rappel/WORKAREA/recall-rappel/templatedata/comn-comn/recall-rappel/data/20130801_r8205_1375455817707_fra"
    },
    "type_name": "recall-rappel",
    "parent_node_id": null,
    "layout_name": "content page 1 column",
    "breadcrumb": {
        "en": "Certain Country Ribbon brand Salami and Pepperoni may contain bone fragments",
        "fr": "Présence possible d'esquilles d'os dans certains Salamis et Pepperonis de marque <span lang=\"en\">Country Ribbon</span>"
    },
    "label": {
        "en": "Certain Country Ribbon brand Salami and Pepperoni may contain bone fragments",
        "fr": "Présence possible d'esquilles d'os dans certains Salamis et Pepperonis de marque <span lang=\"en\">Country Ribbon</span>"
    },
    "templatetype": "content page 1 column",
    "node_id": null,
    "managing_branch": "comn",
    "has_dcr_id": true,
    "lang": "en"
}