{
    "dcr_id": "1376429465555",
    "title": {
        "en": "Certain Clover Leaf Cheese brand Gorgonzola cheese may contain <span lang=\"la\">Listeria monocytogenes</span>",
        "fr": "Présence possible de la bactérie <span lang=\"la\">Listeria monocytogenes</span> dans certains fromages gorgonzola de marque <span lang=\"en\">Clover Leaf Cheese</span>"
    },
    "html_modified": "2013-08-09",
    "modified": "2013-08-14",
    "issued": "2013-08-13",
    "teamsite_location": {
        "en": "/default/main/inspection/cont-cont/recall-rappel/WORKAREA/recall-rappel/templatedata/comn-comn/recall-rappel/data/2013-08-09_r8243_1376429465555_eng",
        "fr": "/default/main/inspection/cont-cont/recall-rappel/WORKAREA/recall-rappel/templatedata/comn-comn/recall-rappel/data/2013-08-09_r8243_1376429465555_fra"
    },
    "type_name": "recall-rappel",
    "parent_node_id": null,
    "layout_name": "content page 1 column",
    "breadcrumb": {
        "en": "Certain Clover Leaf Cheese brand Gorgonzola cheese may contain <span lang=\"la\">Listeria monocytogenes</span>",
        "fr": "Présence possible de la bactérie <span lang=\"la\">Listeria monocytogenes</span> dans certains fromages gorgonzola de marque <span lang=\"en\">Clover Leaf Cheese</span>"
    },
    "label": {
        "en": "Certain Clover Leaf Cheese brand Gorgonzola cheese may contain <span lang=\"la\">Listeria monocytogenes</span>",
        "fr": "Présence possible de la bactérie <span lang=\"la\">Listeria monocytogenes</span> dans certains fromages gorgonzola de marque <span lang=\"en\">Clover Leaf Cheese</span>"
    },
    "templatetype": "content page 1 column",
    "node_id": null,
    "managing_branch": "comn",
    "has_dcr_id": true,
    "lang": "en"
}