{
    "dcr_id": "1378007947849",
    "title": {
        "en": "Certain Cedar brand Tahina products may contain <i lang=\"la\">Salmonella</i> bacteria",
        "fr": "Présence possible de la bactérie <i lang=\"la\">Salmonella</i> dans certains des produits Tahini de marque <span lang=\"en\">Cedar</span>"
    },
    "html_modified": "2013-08-31",
    "modified": "2013-09-01",
    "issued": "2013-08-31",
    "teamsite_location": {
        "en": "/default/main/inspection/cont-cont/recall-rappel/WORKAREA/recall-rappel/templatedata/comn-comn/recall-rappel/data/20130831a_1378007947849_eng",
        "fr": "/default/main/inspection/cont-cont/recall-rappel/WORKAREA/recall-rappel/templatedata/comn-comn/recall-rappel/data/20130831a_1378007947849_fra"
    },
    "type_name": "recall-rappel",
    "parent_node_id": null,
    "layout_name": "content page 1 column",
    "breadcrumb": {
        "en": "Certain Cedar brand Tahina products may contain <i lang=\"la\">Salmonella</i> bacteria",
        "fr": "Présence possible de la bactérie <i lang=\"la\">Salmonella</i> dans certains des produits Tahini de marque <span lang=\"en\">Cedar</span>"
    },
    "label": {
        "en": "Certain Cedar brand Tahina products may contain <i lang=\"la\">Salmonella</i> bacteria",
        "fr": "Présence possible de la bactérie <i lang=\"la\">Salmonella</i> dans certains des produits Tahini de marque <span lang=\"en\">Cedar</span>"
    },
    "templatetype": "content page 1 column",
    "node_id": null,
    "managing_branch": "comn",
    "has_dcr_id": true,
    "lang": "en"
}