{
    "dcr_id": "1378392107253",
    "title": {
        "en": "Undeclared Gluten in certain Elise brand truffles",
        "fr": "Présence non déclarée de gluten dans certains « <span lang=\"en\">Truffles</span> » de marque Elise"
    },
    "html_modified": "2013-08-14",
    "modified": "2013-09-05",
    "issued": "2013-09-05",
    "teamsite_location": {
        "en": "/default/main/inspection/cont-cont/recall-rappel/WORKAREA/recall-rappel/templatedata/comn-comn/recall-rappel/data/20130814_r8245_1378392107253_eng",
        "fr": "/default/main/inspection/cont-cont/recall-rappel/WORKAREA/recall-rappel/templatedata/comn-comn/recall-rappel/data/20130814_r8245_1378392107253_fra"
    },
    "type_name": "recall-rappel",
    "parent_node_id": null,
    "layout_name": "content page 1 column",
    "breadcrumb": {
        "en": "Undeclared Gluten in certain Elise brand truffles",
        "fr": "Présence non déclarée de gluten dans certains « <span lang=\"en\">Truffles</span> » de marque Elise"
    },
    "label": {
        "en": "Undeclared Gluten in certain Elise brand truffles",
        "fr": "Présence non déclarée de gluten dans certains « <span lang=\"en\">Truffles</span> » de marque Elise"
    },
    "templatetype": "content page 1 column",
    "node_id": null,
    "managing_branch": "comn",
    "has_dcr_id": true,
    "lang": "en"
}