{
    "dcr_id": "1379466612985",
    "title": {
        "en": "Certain Gort's Gouda Cheese Farm brand raw milk cheeses may contain <i lang=\"la\"><abbr title=\"Escherichia\">E.</abbr> coli</i> O157:H7 bacteria",
        "fr": "Présence possible de la bactérie <i lang=\"la\"><abbr title=\"Escherichia\">E.</abbr> coli</i> O157:H7 dans certains produits de fromage de lait cru de marque <span lang=\"en\">Gort's Gouda Cheese Farm</span> "
    },
    "html_modified": "2013-09-17",
    "modified": "2013-09-17",
    "issued": "2013-09-17",
    "teamsite_location": {
        "en": "/default/main/inspection/cont-cont/recall-rappel/WORKAREA/recall-rappel/templatedata/comn-comn/recall-rappel/data/20130917_1379466612985_eng",
        "fr": "/default/main/inspection/cont-cont/recall-rappel/WORKAREA/recall-rappel/templatedata/comn-comn/recall-rappel/data/20130917_1379466612985_fra"
    },
    "type_name": "recall-rappel",
    "parent_node_id": null,
    "layout_name": "content page 1 column",
    "breadcrumb": {
        "en": "Certain Gort's Gouda Cheese Farm brand raw milk cheeses may contain <i lang=\"la\"><abbr title=\"Escherichia\">E.</abbr> coli</i> O157:H7 bacteria",
        "fr": "Présence possible de la bactérie <i lang=\"la\"><abbr title=\"Escherichia\">E.</abbr> coli</i> O157:H7 dans certains produits de fromage de lait cru de marque <span lang=\"en\">Gort's Gouda Cheese Farm</span> "
    },
    "label": {
        "en": "Certain Gort's Gouda Cheese Farm brand raw milk cheeses may contain <i lang=\"la\"><abbr title=\"Escherichia\">E.</abbr> coli</i> O157:H7 bacteria",
        "fr": "Présence possible de la bactérie <i lang=\"la\"><abbr title=\"Escherichia\">E.</abbr> coli</i> O157:H7 dans certains produits de fromage de lait cru de marque <span lang=\"en\">Gort's Gouda Cheese Farm</span> "
    },
    "templatetype": "content page 1 column",
    "node_id": null,
    "managing_branch": "comn",
    "has_dcr_id": true,
    "lang": "en"
}