{
    "dcr_id": "1380895903648",
    "title": {
        "en": "Certain Cortas brand canned mallow products are recalled",
        "fr": "Certains produits de mulokhia en conserve de marque Cortas sont rappelés"
    },
    "html_modified": "2013-09-30",
    "modified": "2013-10-04",
    "issued": "2013-10-04",
    "teamsite_location": {
        "en": "/default/main/inspection/cont-cont/recall-rappel/WORKAREA/recall-rappel/templatedata/comn-comn/recall-rappel/data/20130930_r8356_1380895903648_eng",
        "fr": "/default/main/inspection/cont-cont/recall-rappel/WORKAREA/recall-rappel/templatedata/comn-comn/recall-rappel/data/20130930_r8356_1380895903648_fra"
    },
    "type_name": "recall-rappel",
    "parent_node_id": null,
    "layout_name": "content page 1 column",
    "breadcrumb": {
        "en": "Certain Cortas brand canned mallow products are recalled",
        "fr": "Certains produits de mulokhia en conserve de marque Cortas sont rappelés"
    },
    "label": {
        "en": "Certain Cortas brand canned mallow products are recalled",
        "fr": "Certains produits de mulokhia en conserve de marque Cortas sont rappelés"
    },
    "templatetype": "content page 1 column",
    "node_id": null,
    "managing_branch": "comn",
    "has_dcr_id": true,
    "lang": "en"
}