{
    "dcr_id": "1380043094892",
    "title": {
        "en": "Undeclared gluten in certain Bob's Red Mill brand Sweet White Sorghum Flour",
        "fr": "Présence non déclarée de gluten dans certain farine douce de sorgho blanc de marque <span lang=\"en\">Bob's Red Mill</span>"
    },
    "html_modified": "2013-09-18",
    "modified": "2013-09-24",
    "issued": "2013-09-24",
    "teamsite_location": {
        "en": "/default/main/inspection/cont-cont/recall-rappel/WORKAREA/recall-rappel/templatedata/comn-comn/recall-rappel/data/20130918_r8334_1380043094892_eng",
        "fr": "/default/main/inspection/cont-cont/recall-rappel/WORKAREA/recall-rappel/templatedata/comn-comn/recall-rappel/data/20130918_r8334_1380043094892_fra"
    },
    "type_name": "recall-rappel",
    "parent_node_id": null,
    "layout_name": "content page 1 column",
    "breadcrumb": {
        "en": "Undeclared gluten in certain Bob's Red Mill brand Sweet White Sorghum Flour",
        "fr": "Présence non déclarée de gluten dans certain farine douce de sorgho blanc de marque <span lang=\"en\">Bob's Red Mill</span>"
    },
    "label": {
        "en": "Undeclared gluten in certain Bob's Red Mill brand Sweet White Sorghum Flour",
        "fr": "Présence non déclarée de gluten dans certain farine douce de sorgho blanc de marque <span lang=\"en\">Bob's Red Mill</span>"
    },
    "templatetype": "content page 1 column",
    "node_id": null,
    "managing_branch": "comn",
    "has_dcr_id": true,
    "lang": "en"
}