{
    "dcr_id": "1380780378980",
    "title": {
        "en": "Certain Original brand  Original Halloween Kiss Candies sold in bulk may contain harmful pieces of metal",
        "fr": "Certains bonbons <span lang=\"en\">Original Halloween Kiss</span> de marque <span lang=\"en\">Original</span> vendus en vrac pourraient contenir des morceaux de métal dangereux"
    },
    "html_modified": "2013-10-02",
    "modified": "2013-10-03",
    "issued": "2013-10-03",
    "teamsite_location": {
        "en": "/default/main/inspection/cont-cont/recall-rappel/WORKAREA/recall-rappel/templatedata/comn-comn/recall-rappel/data/20131002c_1380780378980_eng",
        "fr": "/default/main/inspection/cont-cont/recall-rappel/WORKAREA/recall-rappel/templatedata/comn-comn/recall-rappel/data/20131002c_1380780378980_fra"
    },
    "type_name": "recall-rappel",
    "parent_node_id": null,
    "layout_name": "content page 1 column",
    "breadcrumb": {
        "en": "Certain Original brand  Original Halloween Kiss Candies sold in bulk may contain harmful pieces of metal",
        "fr": "Certains bonbons <span lang=\"en\">Original Halloween Kiss</span> de marque <span lang=\"en\">Original</span> vendus en vrac pourraient contenir des morceaux de métal dangereux"
    },
    "label": {
        "en": "Certain Original brand  Original Halloween Kiss Candies sold in bulk may contain harmful pieces of metal",
        "fr": "Certains bonbons <span lang=\"en\">Original Halloween Kiss</span> de marque <span lang=\"en\">Original</span> vendus en vrac pourraient contenir des morceaux de métal dangereux"
    },
    "templatetype": "content page 1 column",
    "node_id": null,
    "managing_branch": "comn",
    "has_dcr_id": true,
    "lang": "en"
}