{
    "dcr_id": "1380648785635",
    "title": {
        "en": "Certain oysters from Massachusetts (<abbr title=\"United States of America\">USA</abbr>) may contain <i lang=\"la\">Vibrio parahaemolyticus</i> bacteria",
        "fr": "Présence possible de la bactérie <i lang=\"la\">Vibrio parahaemolyticus</i> dans certaines huîtres provenant du Massachusetts (<abbr title=\"États-Unis\">É-U</abbr>)"
    },
    "html_modified": "2013-09-23",
    "modified": "2013-10-01",
    "issued": "2013-10-01",
    "teamsite_location": {
        "en": "/default/main/inspection/cont-cont/recall-rappel/WORKAREA/recall-rappel/templatedata/comn-comn/recall-rappel/data/20130923_r8346_1380648785635_eng",
        "fr": "/default/main/inspection/cont-cont/recall-rappel/WORKAREA/recall-rappel/templatedata/comn-comn/recall-rappel/data/20130923_r8346_1380648785635_fra"
    },
    "type_name": "recall-rappel",
    "parent_node_id": null,
    "layout_name": "content page 1 column",
    "breadcrumb": {
        "en": "Certain oysters from Massachusetts (<abbr title=\"United States of America\">USA</abbr>) may contain <i lang=\"la\">Vibrio parahaemolyticus</i> bacteria",
        "fr": "Présence possible de la bactérie <i lang=\"la\">Vibrio parahaemolyticus</i> dans certaines huîtres provenant du Massachusetts (<abbr title=\"États-Unis\">É-U</abbr>)"
    },
    "label": {
        "en": "Certain oysters from Massachusetts (<abbr title=\"United States of America\">USA</abbr>) may contain <i lang=\"la\">Vibrio parahaemolyticus</i> bacteria",
        "fr": "Présence possible de la bactérie <i lang=\"la\">Vibrio parahaemolyticus</i> dans certaines huîtres provenant du Massachusetts (<abbr title=\"États-Unis\">É-U</abbr>)"
    },
    "templatetype": "content page 1 column",
    "node_id": null,
    "managing_branch": "comn",
    "has_dcr_id": true,
    "lang": "en"
}