{
    "dcr_id": "1381199307676",
    "title": {
        "en": "Certain Nirapara brand Chutney Powder may contain <i lang=\"la\">Salmonella</i> bacteria",
        "fr": "Présence possible de la bactérie <i lang=\"la\">Salmonella</i> dans la poudre Chutney de marque Nirapara "
    },
    "html_modified": "2013-10-07",
    "modified": "2013-10-08",
    "issued": "2013-10-07",
    "teamsite_location": {
        "en": "/default/main/inspection/cont-cont/recall-rappel/WORKAREA/recall-rappel/templatedata/comn-comn/recall-rappel/data/20131007_1381199307676_eng",
        "fr": "/default/main/inspection/cont-cont/recall-rappel/WORKAREA/recall-rappel/templatedata/comn-comn/recall-rappel/data/20131007_1381199307676_fra"
    },
    "type_name": "recall-rappel",
    "parent_node_id": null,
    "layout_name": "content page 1 column",
    "breadcrumb": {
        "en": "Certain Nirapara brand Chutney Powder may contain <i lang=\"la\">Salmonella</i> bacteria",
        "fr": "Présence possible de la bactérie <i lang=\"la\">Salmonella</i> dans la poudre Chutney de marque Nirapara "
    },
    "label": {
        "en": "Certain Nirapara brand Chutney Powder may contain <i lang=\"la\">Salmonella</i> bacteria",
        "fr": "Présence possible de la bactérie <i lang=\"la\">Salmonella</i> dans la poudre Chutney de marque Nirapara "
    },
    "templatetype": "content page 1 column",
    "node_id": null,
    "managing_branch": "comn",
    "has_dcr_id": true,
    "lang": "en"
}