{
    "dcr_id": "1381171875847",
    "title": {
        "en": "Undeclared egg and milk in certain Sanritsu brand products",
        "fr": "Présence non déclarée d'œufs et de lait dans certains produits de marque Sanritsu"
    },
    "html_modified": "2013-10-04",
    "modified": "2013-10-07",
    "issued": "2013-10-07",
    "teamsite_location": {
        "en": "/default/main/inspection/cont-cont/recall-rappel/WORKAREA/recall-rappel/templatedata/comn-comn/recall-rappel/data/20131004_r8377_1381171875847_eng",
        "fr": "/default/main/inspection/cont-cont/recall-rappel/WORKAREA/recall-rappel/templatedata/comn-comn/recall-rappel/data/20131004_r8377_1381171875847_fra"
    },
    "type_name": "recall-rappel",
    "parent_node_id": null,
    "layout_name": "content page 1 column",
    "breadcrumb": {
        "en": "Undeclared egg and milk in certain Sanritsu brand products",
        "fr": "Présence non déclarée d'œufs et de lait dans certains produits de marque Sanritsu"
    },
    "label": {
        "en": "Undeclared egg and milk in certain Sanritsu brand products",
        "fr": "Présence non déclarée d'œufs et de lait dans certains produits de marque Sanritsu"
    },
    "templatetype": "content page 1 column",
    "node_id": null,
    "managing_branch": "comn",
    "has_dcr_id": true,
    "lang": "en"
}