{
    "dcr_id": "1381333214197",
    "title": {
        "en": "Undeclared milk in certain Kujawianka brand Raisins in Chocolate",
        "fr": "Présence non déclarée de lait dans certains « <span lang=\"en\">Raisins in Chocolate</span> » de marque Kujawianka"
    },
    "html_modified": "2015-03-20 19:13",
    "modified": "2015-03-20",
    "issued": "2015-03-20",
    "teamsite_location": {
        "en": "/default/main/inspection/cont-cont/recall-rappel/WORKAREA/recall-rappel/templatedata/comn-comn/recall-rappel/data/20131008_r8379_1381333214197_eng",
        "fr": "/default/main/inspection/cont-cont/recall-rappel/WORKAREA/recall-rappel/templatedata/comn-comn/recall-rappel/data/20131008_r8379_1381333214197_fra"
    },
    "type_name": "recall-rappel",
    "parent_node_id": null,
    "layout_name": "content page 1 column",
    "breadcrumb": {
        "en": "Undeclared milk in certain Kujawianka brand Raisins in Chocolate",
        "fr": "Présence non déclarée de lait dans certains « <span lang=\"en\">Raisins in Chocolate</span> » de marque Kujawianka"
    },
    "label": {
        "en": "Undeclared milk in certain Kujawianka brand Raisins in Chocolate",
        "fr": "Présence non déclarée de lait dans certains « <span lang=\"en\">Raisins in Chocolate</span> » de marque Kujawianka"
    },
    "templatetype": "content page 1 column",
    "node_id": null,
    "managing_branch": "comn",
    "has_dcr_id": true,
    "lang": "en"
}