{
    "dcr_id": "1381972806466",
    "title": {
        "en": "Undeclared egg in various KCB and RFP brand baked goods",
        "fr": "Présence non déclarée d'œufs dans certains produits de boulangerie de marques KCB et RFP"
    },
    "html_modified": "2015-03-23 11:16",
    "modified": "2015-03-23",
    "issued": "2015-03-23",
    "teamsite_location": {
        "en": "/default/main/inspection/cont-cont/recall-rappel/WORKAREA/recall-rappel/templatedata/comn-comn/recall-rappel/data/20131016_1381972806466_eng",
        "fr": "/default/main/inspection/cont-cont/recall-rappel/WORKAREA/recall-rappel/templatedata/comn-comn/recall-rappel/data/20131016_1381972806466_fra"
    },
    "type_name": "recall-rappel",
    "parent_node_id": null,
    "layout_name": "content page 1 column",
    "breadcrumb": {
        "en": "Undeclared egg in various KCB and RFP brand baked goods",
        "fr": "Présence non déclarée d'œufs dans certains produits de boulangerie de marques KCB et RFP"
    },
    "label": {
        "en": "Undeclared egg in various KCB and RFP brand baked goods",
        "fr": "Présence non déclarée d'œufs dans certains produits de boulangerie de marques KCB et RFP"
    },
    "templatetype": "content page 1 column",
    "node_id": null,
    "managing_branch": "comn",
    "has_dcr_id": true,
    "lang": "en"
}