{
    "dcr_id": "1381542757427",
    "title": {
        "en": "Certain Kirkland Signature brand Organic Lean Ground Beef, Product of <abbr title=\"United States of America\">USA</abbr>, may contain pathogenic <i lang=\"la\"><abbr title=\"Escherichia\">E.</abbr> coli</i> bacteria",
        "fr": "Présence possible de la bactérie pathogène <i lang=\"la\"><abbr title=\"Escherichia\">E.</abbr> coli</i> dans certains produits de bœuf haché maigre biologique de marque <span lang=\"en\">Kirkland Signature</span> en provenance des États-Unis"
    },
    "html_modified": "2015-03-23 10:28",
    "modified": "2015-03-23",
    "issued": "2015-03-23",
    "teamsite_location": {
        "en": "/default/main/inspection/cont-cont/recall-rappel/WORKAREA/recall-rappel/templatedata/comn-comn/recall-rappel/data/20131011_1381542757427_eng",
        "fr": "/default/main/inspection/cont-cont/recall-rappel/WORKAREA/recall-rappel/templatedata/comn-comn/recall-rappel/data/20131011_1381542757427_fra"
    },
    "type_name": "recall-rappel",
    "parent_node_id": null,
    "layout_name": "content page 1 column",
    "breadcrumb": {
        "en": "Certain Kirkland Signature brand Organic Lean Ground Beef, Product of <abbr title=\"United States of America\">USA</abbr>, may contain pathogenic <i lang=\"la\"><abbr title=\"Escherichia\">E.</abbr> coli</i> bacteria",
        "fr": "Présence possible de la bactérie pathogène <i lang=\"la\"><abbr title=\"Escherichia\">E.</abbr> coli</i> dans certains produits de bœuf haché maigre biologique de marque <span lang=\"en\">Kirkland Signature</span> en provenance des États-Unis"
    },
    "label": {
        "en": "Certain Kirkland Signature brand Organic Lean Ground Beef, Product of <abbr title=\"United States of America\">USA</abbr>, may contain pathogenic <i lang=\"la\"><abbr title=\"Escherichia\">E.</abbr> coli</i> bacteria",
        "fr": "Présence possible de la bactérie pathogène <i lang=\"la\"><abbr title=\"Escherichia\">E.</abbr> coli</i> dans certains produits de bœuf haché maigre biologique de marque <span lang=\"en\">Kirkland Signature</span> en provenance des États-Unis"
    },
    "templatetype": "content page 1 column",
    "node_id": null,
    "managing_branch": "comn",
    "has_dcr_id": true,
    "lang": "en"
}