{
    "dcr_id": "1383982992950",
    "title": {
        "en": "Bella Tavola brand pastas recalled due to undeclared milk",
        "fr": "Rappel de produits de pâtes alimentaires de marque <span lang=\"en\">Bella Tavola</span> en raison de la présence non déclarée de lait"
    },
    "html_modified": "2015-04-22 12:01",
    "modified": "2015-04-22",
    "issued": "2015-04-22",
    "teamsite_location": {
        "en": "/default/main/inspection/cont-cont/recall-rappel/WORKAREA/recall-rappel/templatedata/comn-comn/recall-rappel/data/20131108c_1383982992950_eng",
        "fr": "/default/main/inspection/cont-cont/recall-rappel/WORKAREA/recall-rappel/templatedata/comn-comn/recall-rappel/data/20131108c_1383982992950_fra"
    },
    "type_name": "recall-rappel",
    "parent_node_id": null,
    "layout_name": "content page 1 column",
    "breadcrumb": {
        "en": "Bella Tavola brand pastas recalled due to undeclared milk",
        "fr": "Rappel de produits de pâtes alimentaires de marque <span lang=\"en\">Bella Tavola</span> en raison de la présence non déclarée de lait"
    },
    "label": {
        "en": "Bella Tavola brand pastas recalled due to undeclared milk",
        "fr": "Rappel de produits de pâtes alimentaires de marque <span lang=\"en\">Bella Tavola</span> en raison de la présence non déclarée de lait"
    },
    "templatetype": "content page 1 column",
    "node_id": null,
    "managing_branch": "comn",
    "has_dcr_id": true,
    "lang": "en"
}