{
    "dcr_id": "1385506598568",
    "title": {
        "en": "Certain Shredded and Flaked Coconut products (various brand names) are being recalled",
        "fr": "Certains produits de noix de coco râpée ou en flocons (de marques diverses) font l’objet d’un rappel"
    },
    "html_modified": "2013-11-22",
    "modified": "2013-11-26",
    "issued": "2013-11-26",
    "teamsite_location": {
        "en": "/default/main/inspection/cont-cont/recall-rappel/WORKAREA/recall-rappel/templatedata/comn-comn/recall-rappel/data/20131122_r8473_1385506598568_eng",
        "fr": "/default/main/inspection/cont-cont/recall-rappel/WORKAREA/recall-rappel/templatedata/comn-comn/recall-rappel/data/20131122_r8473_1385506598568_fra"
    },
    "type_name": "recall-rappel",
    "parent_node_id": null,
    "layout_name": "content page 1 column",
    "breadcrumb": {
        "en": "Certain Shredded and Flaked Coconut products (various brand names) are being recalled",
        "fr": "Certains produits de noix de coco râpée ou en flocons (de marques diverses) font l’objet d’un rappel"
    },
    "label": {
        "en": "Certain Shredded and Flaked Coconut products (various brand names) are being recalled",
        "fr": "Certains produits de noix de coco râpée ou en flocons (de marques diverses) font l’objet d’un rappel"
    },
    "templatetype": "content page 1 column",
    "node_id": null,
    "managing_branch": "comn",
    "has_dcr_id": true,
    "lang": "en"
}