{
    "dcr_id": "1385698554790",
    "title": {
        "en": "Hazella brand Chocolatey Hazelnut Spread recalled due to undeclared almonds",
        "fr": "Rappel de tartinade aux noisettes chocolatine de marque <span lang=\"en\">Hazella</span> en raison de la présence non déclarée d'amandes"
    },
    "html_modified": "2013-11-28",
    "modified": "2013-11-28",
    "issued": "2013-11-28",
    "teamsite_location": {
        "en": "/default/main/inspection/cont-cont/recall-rappel/WORKAREA/recall-rappel/templatedata/comn-comn/recall-rappel/data/20131128_1385698554790_eng",
        "fr": "/default/main/inspection/cont-cont/recall-rappel/WORKAREA/recall-rappel/templatedata/comn-comn/recall-rappel/data/20131128_1385698554790_fra"
    },
    "type_name": "recall-rappel",
    "parent_node_id": null,
    "layout_name": "content page 1 column",
    "breadcrumb": {
        "en": "Hazella brand Chocolatey Hazelnut Spread recalled due to undeclared almonds",
        "fr": "Rappel de tartinade aux noisettes chocolatine de marque <span lang=\"en\">Hazella</span> en raison de la présence non déclarée d'amandes"
    },
    "label": {
        "en": "Hazella brand Chocolatey Hazelnut Spread recalled due to undeclared almonds",
        "fr": "Rappel de tartinade aux noisettes chocolatine de marque <span lang=\"en\">Hazella</span> en raison de la présence non déclarée d'amandes"
    },
    "templatetype": "content page 1 column",
    "node_id": null,
    "managing_branch": "comn",
    "has_dcr_id": true,
    "lang": "en"
}