{
    "dcr_id": "1387576372603",
    "title": {
        "en": "Certain no name brand Tomato Condensed Soup is recalled",
        "fr": "Certaine Soupe condensée tomate de marque sans nom est rappelée"
    },
    "html_modified": "2013-12-20",
    "modified": "2013-12-20",
    "issued": "2013-12-20",
    "teamsite_location": {
        "en": "/default/main/inspection/cont-cont/recall-rappel/WORKAREA/recall-rappel/templatedata/comn-comn/recall-rappel/data/20131219_r8517_1387576372603_eng",
        "fr": "/default/main/inspection/cont-cont/recall-rappel/WORKAREA/recall-rappel/templatedata/comn-comn/recall-rappel/data/20131219_r8517_1387576372603_fra"
    },
    "type_name": "recall-rappel",
    "parent_node_id": null,
    "layout_name": "content page 1 column",
    "breadcrumb": {
        "en": "Certain no name brand Tomato Condensed Soup is recalled",
        "fr": "Certaine Soupe condensée tomate de marque sans nom est rappelée"
    },
    "label": {
        "en": "Certain no name brand Tomato Condensed Soup is recalled",
        "fr": "Certaine Soupe condensée tomate de marque sans nom est rappelée"
    },
    "templatetype": "content page 1 column",
    "node_id": null,
    "managing_branch": "comn",
    "has_dcr_id": true,
    "lang": "en"
}