{
    "dcr_id": "1389129359012",
    "title": {
        "en": "Non-permitted food colours in certain Nika-S brand Pomegranate Juice",
        "fr": "Présence de colorants alimentaires interdits dans certain jus de grenade de marque Nika-S"
    },
    "html_modified": "2014-01-07",
    "modified": "2014-01-07",
    "issued": "2014-01-07",
    "teamsite_location": {
        "en": "/default/main/inspection/cont-cont/recall-rappel/WORKAREA/recall-rappel/templatedata/comn-comn/recall-rappel/data/20140107_r8527_1389129359012_eng",
        "fr": "/default/main/inspection/cont-cont/recall-rappel/WORKAREA/recall-rappel/templatedata/comn-comn/recall-rappel/data/20140107_r8527_1389129359012_fra"
    },
    "type_name": "recall-rappel",
    "parent_node_id": null,
    "layout_name": "content page 1 column",
    "breadcrumb": {
        "en": "Non-permitted food colours in certain Nika-S brand Pomegranate Juice",
        "fr": "Présence de colorants alimentaires interdits dans certain jus de grenade de marque Nika-S"
    },
    "label": {
        "en": "Non-permitted food colours in certain Nika-S brand Pomegranate Juice",
        "fr": "Présence de colorants alimentaires interdits dans certain jus de grenade de marque Nika-S"
    },
    "templatetype": "content page 1 column",
    "node_id": null,
    "managing_branch": "comn",
    "has_dcr_id": true,
    "lang": "en"
}