{
    "dcr_id": "1391706475964",
    "title": {
        "en": "Undeclared allergens in Xufuji brand Crispy Candy",
        "fr": "Présence non déclarée d'allergènes dans « <span lang=\"en\">Crispy Candy</span> » de marque Xufuji"
    },
    "html_modified": "2014-02-04",
    "modified": "2014-02-06",
    "issued": "2014-02-06",
    "teamsite_location": {
        "en": "/default/main/inspection/cont-cont/recall-rappel/WORKAREA/recall-rappel/templatedata/comn-comn/recall-rappel/data/20140204_r8590_1391706475964_eng",
        "fr": "/default/main/inspection/cont-cont/recall-rappel/WORKAREA/recall-rappel/templatedata/comn-comn/recall-rappel/data/20140204_r8590_1391706475964_fra"
    },
    "type_name": "recall-rappel",
    "parent_node_id": null,
    "layout_name": "content page 1 column",
    "breadcrumb": {
        "en": "Undeclared allergens in Xufuji brand Crispy Candy",
        "fr": "Présence non déclarée d'allergènes dans « <span lang=\"en\">Crispy Candy</span> » de marque Xufuji"
    },
    "label": {
        "en": "Undeclared allergens in Xufuji brand Crispy Candy",
        "fr": "Présence non déclarée d'allergènes dans « <span lang=\"en\">Crispy Candy</span> » de marque Xufuji"
    },
    "templatetype": "content page 1 column",
    "node_id": null,
    "managing_branch": "comn",
    "has_dcr_id": true,
    "lang": "en"
}