{
    "dcr_id": "1391443215650",
    "title": {
        "en": "Undeclared almonds in Sicilian Ice Cream brand Bacio Tartufo",
        "fr": "Présence non déclarée d'amandes dans Bacio Tartufo de marque <span lang=\"en\">Sicilian Ice Cream</span>"
    },
    "html_modified": "2014-01-30",
    "modified": "2014-02-03",
    "issued": "2014-02-03",
    "teamsite_location": {
        "en": "/default/main/inspection/cont-cont/recall-rappel/WORKAREA/recall-rappel/templatedata/comn-comn/recall-rappel/data/20140130_r8587_1391443215650_eng",
        "fr": "/default/main/inspection/cont-cont/recall-rappel/WORKAREA/recall-rappel/templatedata/comn-comn/recall-rappel/data/20140130_r8587_1391443215650_fra"
    },
    "type_name": "recall-rappel",
    "parent_node_id": null,
    "layout_name": "content page 1 column",
    "breadcrumb": {
        "en": "Undeclared almonds in Sicilian Ice Cream brand Bacio Tartufo",
        "fr": "Présence non déclarée d'amandes dans Bacio Tartufo de marque <span lang=\"en\">Sicilian Ice Cream</span>"
    },
    "label": {
        "en": "Undeclared almonds in Sicilian Ice Cream brand Bacio Tartufo",
        "fr": "Présence non déclarée d'amandes dans Bacio Tartufo de marque <span lang=\"en\">Sicilian Ice Cream</span>"
    },
    "templatetype": "content page 1 column",
    "node_id": null,
    "managing_branch": "comn",
    "has_dcr_id": true,
    "lang": "en"
}