{
    "dcr_id": "1392963753317",
    "title": {
        "en": "Ferme Sunshine brand drink mix powders recalled due to undeclared milk",
        "fr": "Rappel de mélanges à boisson de marque <span lang=\"en\">Ferme Sunshine</span> en raison de la présence non déclarée de lait"
    },
    "html_modified": "2014-02-20",
    "modified": "2014-02-21",
    "issued": "2014-02-21",
    "teamsite_location": {
        "en": "/default/main/inspection/cont-cont/recall-rappel/WORKAREA/recall-rappel/templatedata/comn-comn/recall-rappel/data/20140220b_1392963753317_eng",
        "fr": "/default/main/inspection/cont-cont/recall-rappel/WORKAREA/recall-rappel/templatedata/comn-comn/recall-rappel/data/20140220b_1392963753317_fra"
    },
    "type_name": "recall-rappel",
    "parent_node_id": null,
    "layout_name": "content page 1 column",
    "breadcrumb": {
        "en": "Ferme Sunshine brand drink mix powders recalled due to undeclared milk",
        "fr": "Rappel de mélanges à boisson de marque <span lang=\"en\">Ferme Sunshine</span> en raison de la présence non déclarée de lait"
    },
    "label": {
        "en": "Ferme Sunshine brand drink mix powders recalled due to undeclared milk",
        "fr": "Rappel de mélanges à boisson de marque <span lang=\"en\">Ferme Sunshine</span> en raison de la présence non déclarée de lait"
    },
    "templatetype": "content page 1 column",
    "node_id": null,
    "managing_branch": "comn",
    "has_dcr_id": true,
    "lang": "en"
}