{
    "dcr_id": "1392692683945",
    "title": {
        "en": "Various Tillamook Country Smoker brand beef jerky products recalled",
        "fr": "Rappel de divers produits de jerky de boeuf de la marque <span lang=\"en\">Tillamook Country Smoker</span>"
    },
    "html_modified": "2014-02-17",
    "modified": "2014-02-17",
    "issued": "2014-02-17",
    "teamsite_location": {
        "en": "/default/main/inspection/cont-cont/recall-rappel/WORKAREA/recall-rappel/templatedata/comn-comn/recall-rappel/data/20140217b_1392692683945_eng",
        "fr": "/default/main/inspection/cont-cont/recall-rappel/WORKAREA/recall-rappel/templatedata/comn-comn/recall-rappel/data/20140217b_1392692683945_fra"
    },
    "type_name": "recall-rappel",
    "parent_node_id": null,
    "layout_name": "content page 1 column",
    "breadcrumb": {
        "en": "Various Tillamook Country Smoker brand beef jerky products recalled",
        "fr": "Rappel de divers produits de jerky de boeuf de la marque <span lang=\"en\">Tillamook Country Smoker</span>"
    },
    "label": {
        "en": "Various Tillamook Country Smoker brand beef jerky products recalled",
        "fr": "Rappel de divers produits de jerky de boeuf de la marque <span lang=\"en\">Tillamook Country Smoker</span>"
    },
    "templatetype": "content page 1 column",
    "node_id": null,
    "managing_branch": "comn",
    "has_dcr_id": true,
    "lang": "en"
}