{
    "dcr_id": "1392156287207",
    "title": {
        "en": "Undeclared sulphites in E-Touch Food brand Pineapple Short Cake",
        "fr": "Présence non déclarée de sulfites dans Gâteau d'ananas de marque <span lang=\"en\">E-Touch Food</span>"
    },
    "html_modified": "2014-02-11",
    "modified": "2014-02-11",
    "issued": "2014-02-11",
    "teamsite_location": {
        "en": "/default/main/inspection/cont-cont/recall-rappel/WORKAREA/recall-rappel/templatedata/comn-comn/recall-rappel/data/20140211_r8607_1392156287207_eng",
        "fr": "/default/main/inspection/cont-cont/recall-rappel/WORKAREA/recall-rappel/templatedata/comn-comn/recall-rappel/data/20140211_r8607_1392156287207_fra"
    },
    "type_name": "recall-rappel",
    "parent_node_id": null,
    "layout_name": "content page 1 column",
    "breadcrumb": {
        "en": "Undeclared sulphites in E-Touch Food brand Pineapple Short Cake",
        "fr": "Présence non déclarée de sulfites dans Gâteau d'ananas de marque <span lang=\"en\">E-Touch Food</span>"
    },
    "label": {
        "en": "Undeclared sulphites in E-Touch Food brand Pineapple Short Cake",
        "fr": "Présence non déclarée de sulfites dans Gâteau d'ananas de marque <span lang=\"en\">E-Touch Food</span>"
    },
    "templatetype": "content page 1 column",
    "node_id": null,
    "managing_branch": "comn",
    "has_dcr_id": true,
    "lang": "en"
}