{
    "dcr_id": "1393446941425",
    "title": {
        "en": "Certain Nacho Mix from Castle Cheese may contain <span lang=\"la\"><em>Listeria monocytogenes</em></span>",
        "fr": "Présence possible de la bactérie <span lang=\"la\"><em>Listeria monocytogenes</em></span> dans certain « <span lang=\"en\">Nacho Mix</span> » de Castle Cheese"
    },
    "html_modified": "2014-02-25",
    "modified": "2014-02-26",
    "issued": "2014-02-26",
    "teamsite_location": {
        "en": "/default/main/inspection/cont-cont/recall-rappel/WORKAREA/recall-rappel/templatedata/comn-comn/recall-rappel/data/20140225_r8658_1393446941425_eng",
        "fr": "/default/main/inspection/cont-cont/recall-rappel/WORKAREA/recall-rappel/templatedata/comn-comn/recall-rappel/data/20140225_r8658_1393446941425_fra"
    },
    "type_name": "recall-rappel",
    "parent_node_id": null,
    "layout_name": "content page 1 column",
    "breadcrumb": {
        "en": "Certain Nacho Mix from Castle Cheese may contain <span lang=\"la\"><em>Listeria monocytogenes</em></span>",
        "fr": "Présence possible de la bactérie <span lang=\"la\"><em>Listeria monocytogenes</em></span> dans certain « <span lang=\"en\">Nacho Mix</span> » de Castle Cheese"
    },
    "label": {
        "en": "Certain Nacho Mix from Castle Cheese may contain <span lang=\"la\"><em>Listeria monocytogenes</em></span>",
        "fr": "Présence possible de la bactérie <span lang=\"la\"><em>Listeria monocytogenes</em></span> dans certain « <span lang=\"en\">Nacho Mix</span> » de Castle Cheese"
    },
    "templatetype": "content page 1 column",
    "node_id": null,
    "managing_branch": "comn",
    "has_dcr_id": true,
    "lang": "en"
}