{
    "dcr_id": "1393872414702",
    "title": {
        "en": "Certain cheese products from Castle Cheese <abbr title=\"Incorporated\">Inc.</abbr> may contain <em>Listeria monocytogenes</em>",
        "fr": "Présence possible de la bactérie <em>Listeria monocytogenes</em> dans certains produits de fromage de <span lang=\"en\">Castle Cheese <abbr title=\"Incorporated\">Inc.</abbr></span>"
    },
    "html_modified": "2014-03-03",
    "modified": "2014-03-04",
    "issued": "2014-03-03",
    "teamsite_location": {
        "en": "/default/main/inspection/cont-cont/recall-rappel/WORKAREA/recall-rappel/templatedata/comn-comn/recall-rappel/data/20140228_r8676_1393872414702_eng",
        "fr": "/default/main/inspection/cont-cont/recall-rappel/WORKAREA/recall-rappel/templatedata/comn-comn/recall-rappel/data/20140228_r8676_1393872414702_fra"
    },
    "type_name": "recall-rappel",
    "parent_node_id": null,
    "layout_name": "content page 1 column",
    "breadcrumb": {
        "en": "Certain cheese products from Castle Cheese <abbr title=\"Incorporated\">Inc.</abbr> may contain <em>Listeria monocytogenes</em>",
        "fr": "Présence possible de la bactérie <em>Listeria monocytogenes</em> dans certains produits de fromage de <span lang=\"en\">Castle Cheese <abbr title=\"Incorporated\">Inc.</abbr></span>"
    },
    "label": {
        "en": "Certain cheese products from Castle Cheese <abbr title=\"Incorporated\">Inc.</abbr> may contain <em>Listeria monocytogenes</em>",
        "fr": "Présence possible de la bactérie <em>Listeria monocytogenes</em> dans certains produits de fromage de <span lang=\"en\">Castle Cheese <abbr title=\"Incorporated\">Inc.</abbr></span>"
    },
    "templatetype": "content page 1 column",
    "node_id": null,
    "managing_branch": "comn",
    "has_dcr_id": true,
    "lang": "en"
}