{
    "dcr_id": "1394648539317",
    "title": {
        "en": "Undeclared milk in Dandy's Brand Cheese crackers and undeclared sulphites in Dong Ming Da Qiao (Chinese characters only) Dried bean curd stick",
        "fr": "Présence non déclarée de lait dans des « biscuits au fromage » de marque Dandy’s et présence non déclarée de sulfites dans du « caillé de haricot séché » de marque Dong Ming Da Qiao (caractères chinois seulement)"
    },
    "html_modified": "2014-03-12",
    "modified": "2014-03-12",
    "issued": "2014-03-12",
    "teamsite_location": {
        "en": "/default/main/inspection/cont-cont/recall-rappel/WORKAREA/recall-rappel/templatedata/comn-comn/recall-rappel/data/20140307_r8685_1394648539317_eng",
        "fr": "/default/main/inspection/cont-cont/recall-rappel/WORKAREA/recall-rappel/templatedata/comn-comn/recall-rappel/data/20140307_r8685_1394648539317_fra"
    },
    "type_name": "recall-rappel",
    "parent_node_id": null,
    "layout_name": "content page 1 column",
    "breadcrumb": {
        "en": "Undeclared milk in Dandy's Brand Cheese crackers and undeclared sulphites in Dong Ming Da Qiao (Chinese characters only) Dried bean curd stick",
        "fr": "Présence non déclarée de lait dans des « biscuits au fromage » de marque Dandy’s et présence non déclarée de sulfites dans du « caillé de haricot séché » de marque Dong Ming Da Qiao (caractères chinois seulement)"
    },
    "label": {
        "en": "Undeclared milk in Dandy's Brand Cheese crackers and undeclared sulphites in Dong Ming Da Qiao (Chinese characters only) Dried bean curd stick",
        "fr": "Présence non déclarée de lait dans des « biscuits au fromage » de marque Dandy’s et présence non déclarée de sulfites dans du « caillé de haricot séché » de marque Dong Ming Da Qiao (caractères chinois seulement)"
    },
    "templatetype": "content page 1 column",
    "node_id": null,
    "managing_branch": "comn",
    "has_dcr_id": true,
    "lang": "en"
}