{
    "dcr_id": "1395091471822",
    "title": {
        "en": "Meddo Belle and Okanagan's Choice Cheese brands shredded cheese products recalled due to <i lang=\"la\">Listeria</i>",
        "fr": "Rappel de produits de fromage râpé des marques Meddo Belle et <span lang=\"en\">Okanagan's Choice Cheese</span> en raison de la bactérie <i lang=\"la\">Listeria</i>"
    },
    "html_modified": "2014-03-17",
    "modified": "2014-03-17",
    "issued": "2014-03-17",
    "teamsite_location": {
        "en": "/default/main/inspection/cont-cont/recall-rappel/WORKAREA/recall-rappel/templatedata/comn-comn/recall-rappel/data/20140317_1395091471822_eng",
        "fr": "/default/main/inspection/cont-cont/recall-rappel/WORKAREA/recall-rappel/templatedata/comn-comn/recall-rappel/data/20140317_1395091471822_fra"
    },
    "type_name": "recall-rappel",
    "parent_node_id": null,
    "layout_name": "content page 1 column",
    "breadcrumb": {
        "en": "Meddo Belle and Okanagan's Choice Cheese brands shredded cheese products recalled due to <i lang=\"la\">Listeria</i>",
        "fr": "Rappel de produits de fromage râpé des marques Meddo Belle et <span lang=\"en\">Okanagan's Choice Cheese</span> en raison de la bactérie <i lang=\"la\">Listeria</i>"
    },
    "label": {
        "en": "Meddo Belle and Okanagan's Choice Cheese brands shredded cheese products recalled due to <i lang=\"la\">Listeria</i>",
        "fr": "Rappel de produits de fromage râpé des marques Meddo Belle et <span lang=\"en\">Okanagan's Choice Cheese</span> en raison de la bactérie <i lang=\"la\">Listeria</i>"
    },
    "templatetype": "content page 1 column",
    "node_id": null,
    "managing_branch": "comn",
    "has_dcr_id": true,
    "lang": "en"
}