{
    "dcr_id": "1395152931949",
    "title": {
        "en": "Insects in Fragranti Dolcezze brand Soft Sicilian Traditional Almond Pastries",
        "fr": "Présence d'insectes dans « Douce pate aux Amandes typique de la Sicile » de marque Fragranti Dolcezze"
    },
    "html_modified": "2014-03-18",
    "modified": "2014-03-18",
    "issued": "2014-03-18",
    "teamsite_location": {
        "en": "/default/main/inspection/cont-cont/recall-rappel/WORKAREA/recall-rappel/templatedata/comn-comn/recall-rappel/data/20140317_r8704_1395152931949_eng",
        "fr": "/default/main/inspection/cont-cont/recall-rappel/WORKAREA/recall-rappel/templatedata/comn-comn/recall-rappel/data/20140317_r8704_1395152931949_fra"
    },
    "type_name": "recall-rappel",
    "parent_node_id": null,
    "layout_name": "content page 1 column",
    "breadcrumb": {
        "en": "Insects in Fragranti Dolcezze brand Soft Sicilian Traditional Almond Pastries",
        "fr": "Présence d'insectes dans « Douce pate aux Amandes typique de la Sicile » de marque Fragranti Dolcezze"
    },
    "label": {
        "en": "Insects in Fragranti Dolcezze brand Soft Sicilian Traditional Almond Pastries",
        "fr": "Présence d'insectes dans « Douce pate aux Amandes typique de la Sicile » de marque Fragranti Dolcezze"
    },
    "templatetype": "content page 1 column",
    "node_id": null,
    "managing_branch": "comn",
    "has_dcr_id": true,
    "lang": "en"
}