{
    "dcr_id": "1395979466728",
    "title": {
        "en": "Safeway brand baked bean products recalled due to undeclared mustard",
        "fr": "Rappel de produits de fèves au lard de marque <span lang=\"en\">Safeway</span> en raison de la présence non déclarée de moutarde"
    },
    "html_modified": "2014-03-28",
    "modified": "2014-03-28",
    "issued": "2014-03-28",
    "teamsite_location": {
        "en": "/default/main/inspection/cont-cont/recall-rappel/WORKAREA/recall-rappel/templatedata/comn-comn/recall-rappel/data/20140327b_1395979466728_eng",
        "fr": "/default/main/inspection/cont-cont/recall-rappel/WORKAREA/recall-rappel/templatedata/comn-comn/recall-rappel/data/20140327b_1395979466728_fra"
    },
    "type_name": "recall-rappel",
    "parent_node_id": null,
    "layout_name": "content page 1 column",
    "breadcrumb": {
        "en": "Safeway brand baked bean products recalled due to undeclared mustard",
        "fr": "Rappel de produits de fèves au lard de marque <span lang=\"en\">Safeway</span> en raison de la présence non déclarée de moutarde"
    },
    "label": {
        "en": "Safeway brand baked bean products recalled due to undeclared mustard",
        "fr": "Rappel de produits de fèves au lard de marque <span lang=\"en\">Safeway</span> en raison de la présence non déclarée de moutarde"
    },
    "templatetype": "content page 1 column",
    "node_id": null,
    "managing_branch": "comn",
    "has_dcr_id": true,
    "lang": "en"
}