{
    "dcr_id": "1396450449803",
    "title": {
        "en": "Undeclared milk in certain Chocolat Alprose brand confections",
        "fr": "Présence non déclarée de lait dans certaines confiseries de marque Chocolat Alprose"
    },
    "html_modified": "2014-04-02",
    "modified": "2014-04-02",
    "issued": "2014-04-02",
    "teamsite_location": {
        "en": "/default/main/inspection/cont-cont/recall-rappel/WORKAREA/recall-rappel/templatedata/comn-comn/recall-rappel/data/20140326_r8732_1396450449803_eng",
        "fr": "/default/main/inspection/cont-cont/recall-rappel/WORKAREA/recall-rappel/templatedata/comn-comn/recall-rappel/data/20140326_r8732_1396450449803_fra"
    },
    "type_name": "recall-rappel",
    "parent_node_id": null,
    "layout_name": "content page 1 column",
    "breadcrumb": {
        "en": "Undeclared milk in certain Chocolat Alprose brand confections",
        "fr": "Présence non déclarée de lait dans certaines confiseries de marque Chocolat Alprose"
    },
    "label": {
        "en": "Undeclared milk in certain Chocolat Alprose brand confections",
        "fr": "Présence non déclarée de lait dans certaines confiseries de marque Chocolat Alprose"
    },
    "templatetype": "content page 1 column",
    "node_id": null,
    "managing_branch": "comn",
    "has_dcr_id": true,
    "lang": "en"
}