{
    "dcr_id": "1396497352135",
    "title": {
        "en": "The French Oven brand Dessert Cup Carrot recalled due to undeclared milk",
        "fr": "Rappel du produit « <span lang=\"en\">Dessert Cup Carrot</span> » de marque <span lang=\"en\">The French Oven</span> en raison de la présence non déclarée de lait"
    },
    "html_modified": "2014-04-03",
    "modified": "2014-04-03",
    "issued": "2014-04-02",
    "teamsite_location": {
        "en": "/default/main/inspection/cont-cont/recall-rappel/WORKAREA/recall-rappel/templatedata/comn-comn/recall-rappel/data/20140402_1396497352135_eng",
        "fr": "/default/main/inspection/cont-cont/recall-rappel/WORKAREA/recall-rappel/templatedata/comn-comn/recall-rappel/data/20140402_1396497352135_fra"
    },
    "type_name": "recall-rappel",
    "parent_node_id": null,
    "layout_name": "content page 1 column",
    "breadcrumb": {
        "en": "The French Oven brand Dessert Cup Carrot recalled due to undeclared milk",
        "fr": "Rappel du produit « <span lang=\"en\">Dessert Cup Carrot</span> » de marque <span lang=\"en\">The French Oven</span> en raison de la présence non déclarée de lait"
    },
    "label": {
        "en": "The French Oven brand Dessert Cup Carrot recalled due to undeclared milk",
        "fr": "Rappel du produit « <span lang=\"en\">Dessert Cup Carrot</span> » de marque <span lang=\"en\">The French Oven</span> en raison de la présence non déclarée de lait"
    },
    "templatetype": "content page 1 column",
    "node_id": null,
    "managing_branch": "comn",
    "has_dcr_id": true,
    "lang": "en"
}