{
    "dcr_id": "1396367828126",
    "title": {
        "en": "Undeclared eggs, gluten and wheat in DSI brand Ham Style Product Veggie",
        "fr": "Présence non déclarée d'oeufs, de gluten et de blé dans « <span lang=\"en\">Ham Style Product Veggie</span> » de marque DSI"
    },
    "html_modified": "2014-04-01",
    "modified": "2014-04-01",
    "issued": "2014-04-01",
    "teamsite_location": {
        "en": "/default/main/inspection/cont-cont/recall-rappel/WORKAREA/recall-rappel/templatedata/comn-comn/recall-rappel/data/20140328_r8743_1396367828126_eng",
        "fr": "/default/main/inspection/cont-cont/recall-rappel/WORKAREA/recall-rappel/templatedata/comn-comn/recall-rappel/data/20140328_r8743_1396367828126_fra"
    },
    "type_name": "recall-rappel",
    "parent_node_id": null,
    "layout_name": "content page 1 column",
    "breadcrumb": {
        "en": "Undeclared eggs, gluten and wheat in DSI brand Ham Style Product Veggie",
        "fr": "Présence non déclarée d'oeufs, de gluten et de blé dans « <span lang=\"en\">Ham Style Product Veggie</span> » de marque DSI"
    },
    "label": {
        "en": "Undeclared eggs, gluten and wheat in DSI brand Ham Style Product Veggie",
        "fr": "Présence non déclarée d'oeufs, de gluten et de blé dans « <span lang=\"en\">Ham Style Product Veggie</span> » de marque DSI"
    },
    "templatetype": "content page 1 column",
    "node_id": null,
    "managing_branch": "comn",
    "has_dcr_id": true,
    "lang": "en"
}