{
    "dcr_id": "1397004974227",
    "title": {
        "en": "<span lang=\"fr\">Prolimer</span> and Waterfront Bistro brand fish and seafood products recalled due to undeclared mustard",
        "fr": "Rappel de produits de poisson et de fruits de mer de marque Prolimer et <span lang=\"en\">Waterfront Bistro</span> en raison de la présence non déclarée de moutarde"
    },
    "html_modified": "2014-04-08",
    "modified": "2014-04-08",
    "issued": "2014-04-08",
    "teamsite_location": {
        "en": "/default/main/inspection/cont-cont/recall-rappel/WORKAREA/recall-rappel/templatedata/comn-comn/recall-rappel/data/20140408b_1397004974227_eng",
        "fr": "/default/main/inspection/cont-cont/recall-rappel/WORKAREA/recall-rappel/templatedata/comn-comn/recall-rappel/data/20140408b_1397004974227_fra"
    },
    "type_name": "recall-rappel",
    "parent_node_id": null,
    "layout_name": "content page 1 column",
    "breadcrumb": {
        "en": "<span lang=\"fr\">Prolimer</span> and Waterfront Bistro brand fish and seafood products recalled due to undeclared mustard",
        "fr": "Rappel de produits de poisson et de fruits de mer de marque Prolimer et <span lang=\"en\">Waterfront Bistro</span> en raison de la présence non déclarée de moutarde"
    },
    "label": {
        "en": "<span lang=\"fr\">Prolimer</span> and Waterfront Bistro brand fish and seafood products recalled due to undeclared mustard",
        "fr": "Rappel de produits de poisson et de fruits de mer de marque Prolimer et <span lang=\"en\">Waterfront Bistro</span> en raison de la présence non déclarée de moutarde"
    },
    "templatetype": "content page 1 column",
    "node_id": null,
    "managing_branch": "comn",
    "has_dcr_id": true,
    "lang": "en"
}