{
    "dcr_id": "1397486577852",
    "title": {
        "en": "Undeclared milk in Zing brand Dark Chocolate Hazelnut bars",
        "fr": "Présence non déclarée de lait dans barres « <span lang=\"en\">Dark Chocolate Hazelnut</span> » de marque Zing"
    },
    "html_modified": "2014-04-14",
    "modified": "2014-04-14",
    "issued": "2014-04-14",
    "teamsite_location": {
        "en": "/default/main/inspection/cont-cont/recall-rappel/WORKAREA/recall-rappel/templatedata/comn-comn/recall-rappel/data/20140411_r8800_1397486577852_eng",
        "fr": "/default/main/inspection/cont-cont/recall-rappel/WORKAREA/recall-rappel/templatedata/comn-comn/recall-rappel/data/20140411_r8800_1397486577852_fra"
    },
    "type_name": "recall-rappel",
    "parent_node_id": null,
    "layout_name": "content page 1 column",
    "breadcrumb": {
        "en": "Undeclared milk in Zing brand Dark Chocolate Hazelnut bars",
        "fr": "Présence non déclarée de lait dans barres « <span lang=\"en\">Dark Chocolate Hazelnut</span> » de marque Zing"
    },
    "label": {
        "en": "Undeclared milk in Zing brand Dark Chocolate Hazelnut bars",
        "fr": "Présence non déclarée de lait dans barres « <span lang=\"en\">Dark Chocolate Hazelnut</span> » de marque Zing"
    },
    "templatetype": "content page 1 column",
    "node_id": null,
    "managing_branch": "comn",
    "has_dcr_id": true,
    "lang": "en"
}