{
    "dcr_id": "1399681355229",
    "title": {
        "en": "Selection brand Rosemary Leaves recalled due to <i lang=\"la\">Salmonella</i>",
        "fr": "Rappel de Feuilles de romarin de marque <span lang=\"en\">Selection</span> en raison de la bactérie <i lang=\"la\">Salmonella</i>"
    },
    "html_modified": "2014-05-09",
    "modified": "2014-05-09",
    "issued": "2014-05-09",
    "teamsite_location": {
        "en": "/default/main/inspection/cont-cont/recall-rappel/WORKAREA/recall-rappel/templatedata/comn-comn/recall-rappel/data/20140509c_1399681355229_eng",
        "fr": "/default/main/inspection/cont-cont/recall-rappel/WORKAREA/recall-rappel/templatedata/comn-comn/recall-rappel/data/20140509c_1399681355229_fra"
    },
    "type_name": "recall-rappel",
    "parent_node_id": null,
    "layout_name": "content page 1 column",
    "breadcrumb": {
        "en": "Selection brand Rosemary Leaves recalled due to <i lang=\"la\">Salmonella</i>",
        "fr": "Rappel de Feuilles de romarin de marque <span lang=\"en\">Selection</span> en raison de la bactérie <i lang=\"la\">Salmonella</i>"
    },
    "label": {
        "en": "Selection brand Rosemary Leaves recalled due to <i lang=\"la\">Salmonella</i>",
        "fr": "Rappel de Feuilles de romarin de marque <span lang=\"en\">Selection</span> en raison de la bactérie <i lang=\"la\">Salmonella</i>"
    },
    "templatetype": "content page 1 column",
    "node_id": null,
    "managing_branch": "comn",
    "has_dcr_id": true,
    "lang": "en"
}