{
    "dcr_id": "1400081764413",
    "title": {
        "en": "Trojan Fruit Latte brand Bubble Milk Tea Mix recalled due to undeclared milk ",
        "fr": "Rappel de produits « <span lang=\"en\">Bubble Milk Tea Mix</span> » de marque <span lang=\"en\">Trojan Fruit Latte</span> en raison de la présence non déclarée de lait "
    },
    "html_modified": "2014-05-14",
    "modified": "2014-05-14",
    "issued": "2014-05-14",
    "teamsite_location": {
        "en": "/default/main/inspection/cont-cont/recall-rappel/WORKAREA/recall-rappel/templatedata/comn-comn/recall-rappel/data/20140512_r8849_1400081764413_eng",
        "fr": "/default/main/inspection/cont-cont/recall-rappel/WORKAREA/recall-rappel/templatedata/comn-comn/recall-rappel/data/20140512_r8849_1400081764413_fra"
    },
    "type_name": "recall-rappel",
    "parent_node_id": null,
    "layout_name": "content page 1 column",
    "breadcrumb": {
        "en": "Trojan Fruit Latte brand Bubble Milk Tea Mix recalled due to undeclared milk ",
        "fr": "Rappel de produits « <span lang=\"en\">Bubble Milk Tea Mix</span> » de marque <span lang=\"en\">Trojan Fruit Latte</span> en raison de la présence non déclarée de lait "
    },
    "label": {
        "en": "Trojan Fruit Latte brand Bubble Milk Tea Mix recalled due to undeclared milk ",
        "fr": "Rappel de produits « <span lang=\"en\">Bubble Milk Tea Mix</span> » de marque <span lang=\"en\">Trojan Fruit Latte</span> en raison de la présence non déclarée de lait "
    },
    "templatetype": "content page 1 column",
    "node_id": null,
    "managing_branch": "comn",
    "has_dcr_id": true,
    "lang": "en"
}