{
    "dcr_id": "1400267732102",
    "title": {
        "en": "Recall of Mother Hen brand Strained Veal Puree and Strained Lamb Puree",
        "fr": "Rappel de Purée de veau et de Purée d'agneau de marque La Mère Poule"
    },
    "html_modified": "2014-05-22",
    "modified": "2014-05-22",
    "issued": "2014-05-16",
    "teamsite_location": {
        "en": "/default/main/inspection/cont-cont/recall-rappel/WORKAREA/recall-rappel/templatedata/comn-comn/recall-rappel/data/20140514_r8853_1400267732102_eng",
        "fr": "/default/main/inspection/cont-cont/recall-rappel/WORKAREA/recall-rappel/templatedata/comn-comn/recall-rappel/data/20140514_r8853_1400267732102_fra"
    },
    "type_name": "recall-rappel",
    "parent_node_id": null,
    "layout_name": "content page 1 column",
    "breadcrumb": {
        "en": "Recall of Mother Hen brand Strained Veal Puree and Strained Lamb Puree",
        "fr": "Rappel de Purée de veau et de Purée d'agneau de marque La Mère Poule"
    },
    "label": {
        "en": "Recall of Mother Hen brand Strained Veal Puree and Strained Lamb Puree",
        "fr": "Rappel de Purée de veau et de Purée d'agneau de marque La Mère Poule"
    },
    "templatetype": "content page 1 column",
    "node_id": null,
    "managing_branch": "comn",
    "has_dcr_id": true,
    "lang": "en"
}