{
    "dcr_id": "1401129082802",
    "title": {
        "en": "3:15 <abbr lang=la\" title=\"post meridien\">PM</abbr>\" brand coffee beverage mixes recalled due to undeclared milk",
        "fr": "Rappel de mélanges de boisson au café de marque 3:15 <abbr lang=\"la\" title=\"post Meridiem\">PM</abbr> en raison de la présence non déclarée de lait"
    },
    "html_modified": "2014-05-27",
    "modified": "2014-05-27",
    "issued": "2014-05-26",
    "teamsite_location": {
        "en": "/default/main/inspection/cont-cont/recall-rappel/WORKAREA/recall-rappel/templatedata/comn-comn/recall-rappel/data/20140520_r8875_1401129082802_eng",
        "fr": "/default/main/inspection/cont-cont/recall-rappel/WORKAREA/recall-rappel/templatedata/comn-comn/recall-rappel/data/20140520_r8875_1401129082802_fra"
    },
    "type_name": "recall-rappel",
    "parent_node_id": null,
    "layout_name": "content page 1 column",
    "breadcrumb": {
        "en": "3:15 <abbr lang=la\" title=\"post meridien\">PM</abbr>\" brand coffee beverage mixes recalled due to undeclared milk",
        "fr": "Rappel de mélanges de boisson au café de marque 3:15 <abbr lang=\"la\" title=\"post Meridiem\">PM</abbr> en raison de la présence non déclarée de lait"
    },
    "label": {
        "en": "3:15 <abbr lang=la\" title=\"post meridien\">PM</abbr>\" brand coffee beverage mixes recalled due to undeclared milk",
        "fr": "Rappel de mélanges de boisson au café de marque 3:15 <abbr lang=\"la\" title=\"post Meridiem\">PM</abbr> en raison de la présence non déclarée de lait"
    },
    "templatetype": "content page 1 column",
    "node_id": null,
    "managing_branch": "comn",
    "has_dcr_id": true,
    "lang": "en"
}