{
    "dcr_id": "1401207717026",
    "title": {
        "en": "Recall of Roybos brand tea products due to undeclared almond",
        "fr": "Rappel de produits de thé de marque Roybos en raison de la présence non déclarée d'amandes"
    },
    "html_modified": "2014-05-27",
    "modified": "2014-05-27",
    "issued": "2014-05-27",
    "teamsite_location": {
        "en": "/default/main/inspection/cont-cont/recall-rappel/WORKAREA/recall-rappel/templatedata/comn-comn/recall-rappel/data/20140522_r8876_1401207717026_eng",
        "fr": "/default/main/inspection/cont-cont/recall-rappel/WORKAREA/recall-rappel/templatedata/comn-comn/recall-rappel/data/20140522_r8876_1401207717026_fra"
    },
    "type_name": "recall-rappel",
    "parent_node_id": null,
    "layout_name": "content page 1 column",
    "breadcrumb": {
        "en": "Recall of Roybos brand tea products due to undeclared almond",
        "fr": "Rappel de produits de thé de marque Roybos en raison de la présence non déclarée d'amandes"
    },
    "label": {
        "en": "Recall of Roybos brand tea products due to undeclared almond",
        "fr": "Rappel de produits de thé de marque Roybos en raison de la présence non déclarée d'amandes"
    },
    "templatetype": "content page 1 column",
    "node_id": null,
    "managing_branch": "comn",
    "has_dcr_id": true,
    "lang": "en"
}