{
    "dcr_id": "1403028742396",
    "title": {
        "en": "Stawnichy's brand meat products recalled due to undeclared wheat",
        "fr": "Rappel de produits de viande de marque Stawnichy's en raison de la présence non déclarée de blé"
    },
    "html_modified": "2014-06-17",
    "modified": "2014-06-20",
    "issued": "2014-06-17",
    "teamsite_location": {
        "en": "/default/main/inspection/cont-cont/recall-rappel/WORKAREA/recall-rappel/templatedata/comn-comn/recall-rappel/data/20140613_r8959_1403028742396_eng",
        "fr": "/default/main/inspection/cont-cont/recall-rappel/WORKAREA/recall-rappel/templatedata/comn-comn/recall-rappel/data/20140613_r8959_1403028742396_fra"
    },
    "type_name": "recall-rappel",
    "parent_node_id": null,
    "layout_name": "content page 1 column",
    "breadcrumb": {
        "en": "Stawnichy's brand meat products recalled due to undeclared wheat",
        "fr": "Rappel de produits de viande de marque Stawnichy's en raison de la présence non déclarée de blé"
    },
    "label": {
        "en": "Stawnichy's brand meat products recalled due to undeclared wheat",
        "fr": "Rappel de produits de viande de marque Stawnichy's en raison de la présence non déclarée de blé"
    },
    "templatetype": "content page 1 column",
    "node_id": null,
    "managing_branch": "comn",
    "has_dcr_id": true,
    "lang": "en"
}