{
    "dcr_id": "1403542543029",
    "title": {
        "en": "Kopiko Astig brand 3inOne Instant Coffee recalled due to undeclared milk",
        "fr": "Rappel de « <span lang=\"en\">3inOne Instant Coffee</span> » de marque Kopiko Astig en raison de la présence non déclarée de lait"
    },
    "html_modified": "2014-06-23",
    "modified": "2014-06-23",
    "issued": "2014-06-23",
    "teamsite_location": {
        "en": "/default/main/inspection/cont-cont/recall-rappel/WORKAREA/recall-rappel/templatedata/comn-comn/recall-rappel/data/20140620_r8971_1403542543029_eng",
        "fr": "/default/main/inspection/cont-cont/recall-rappel/WORKAREA/recall-rappel/templatedata/comn-comn/recall-rappel/data/20140620_r8971_1403542543029_fra"
    },
    "type_name": "recall-rappel",
    "parent_node_id": null,
    "layout_name": "content page 1 column",
    "breadcrumb": {
        "en": "Kopiko Astig brand 3inOne Instant Coffee recalled due to undeclared milk",
        "fr": "Rappel de « <span lang=\"en\">3inOne Instant Coffee</span> » de marque Kopiko Astig en raison de la présence non déclarée de lait"
    },
    "label": {
        "en": "Kopiko Astig brand 3inOne Instant Coffee recalled due to undeclared milk",
        "fr": "Rappel de « <span lang=\"en\">3inOne Instant Coffee</span> » de marque Kopiko Astig en raison de la présence non déclarée de lait"
    },
    "templatetype": "content page 1 column",
    "node_id": null,
    "managing_branch": "comn",
    "has_dcr_id": true,
    "lang": "en"
}