{
    "dcr_id": "1405105182525",
    "title": {
        "en": "Bikano brand Navratan Mixture recalled due to undeclared gluten",
        "fr": "Rappel de <span class=\"nowrap\" lang=\"en\">« Navratan Mixture »</span> de marque <span lang=\"en\">Bikano</span> en raison de la présence non déclarée de gluten"
    },
    "html_modified": "2014-07-11",
    "modified": "2014-07-11",
    "issued": "2014-07-11",
    "teamsite_location": {
        "en": "/default/main/inspection/cont-cont/recall-rappel/WORKAREA/recall-rappel/templatedata/comn-comn/recall-rappel/data/20140710_r9017_1405105182525_eng",
        "fr": "/default/main/inspection/cont-cont/recall-rappel/WORKAREA/recall-rappel/templatedata/comn-comn/recall-rappel/data/20140710_r9017_1405105182525_fra"
    },
    "type_name": "recall-rappel",
    "parent_node_id": null,
    "layout_name": "content page 1 column",
    "breadcrumb": {
        "en": "Bikano brand Navratan Mixture recalled due to undeclared gluten",
        "fr": "Rappel de <span class=\"nowrap\" lang=\"en\">« Navratan Mixture »</span> de marque <span lang=\"en\">Bikano</span> en raison de la présence non déclarée de gluten"
    },
    "label": {
        "en": "Bikano brand Navratan Mixture recalled due to undeclared gluten",
        "fr": "Rappel de <span class=\"nowrap\" lang=\"en\">« Navratan Mixture »</span> de marque <span lang=\"en\">Bikano</span> en raison de la présence non déclarée de gluten"
    },
    "templatetype": "content page 1 column",
    "node_id": null,
    "managing_branch": "comn",
    "has_dcr_id": true,
    "lang": "en"
}