{
    "dcr_id": "1407364562192",
    "title": {
        "en": "Marc Angelo brand Genoa Salami recalled due to <i lang=\"la\">Listeria monocytogenes</i>",
        "fr": "Rappel du Salami de Gênes de marque Marc Angelo en raison de la bactérie <i lang=\"la\">Listeria monocytogenes</i>"
    },
    "html_modified": "2014-08-06",
    "modified": "2014-08-06",
    "issued": "2014-08-06",
    "teamsite_location": {
        "en": "/default/main/inspection/cont-cont/recall-rappel/WORKAREA/recall-rappel/templatedata/comn-comn/recall-rappel/data/20140806b_1407364562192_eng",
        "fr": "/default/main/inspection/cont-cont/recall-rappel/WORKAREA/recall-rappel/templatedata/comn-comn/recall-rappel/data/20140806b_1407364562192_fra"
    },
    "type_name": "recall-rappel",
    "parent_node_id": null,
    "layout_name": "content page 1 column",
    "breadcrumb": {
        "en": "Marc Angelo brand Genoa Salami recalled due to <i lang=\"la\">Listeria monocytogenes</i>",
        "fr": "Rappel du Salami de Gênes de marque Marc Angelo en raison de la bactérie <i lang=\"la\">Listeria monocytogenes</i>"
    },
    "label": {
        "en": "Marc Angelo brand Genoa Salami recalled due to <i lang=\"la\">Listeria monocytogenes</i>",
        "fr": "Rappel du Salami de Gênes de marque Marc Angelo en raison de la bactérie <i lang=\"la\">Listeria monocytogenes</i>"
    },
    "templatetype": "content page 1 column",
    "node_id": null,
    "managing_branch": "comn",
    "has_dcr_id": true,
    "lang": "en"
}