{
    "dcr_id": "1408026490753",
    "title": {
        "en": "Live Kumamoto Oysters recalled due to Vibrio parahaemolyticus",
        "fr": "Rappel de « <span lang=\"en\">Live Kumamoto Oysters</span> » en raison de la présence de Vibrio parahaemolyticus"
    },
    "html_modified": "2014-08-14",
    "modified": "2014-08-14",
    "issued": "2014-08-14",
    "teamsite_location": {
        "en": "/default/main/inspection/cont-cont/recall-rappel/WORKAREA/recall-rappel/templatedata/comn-comn/recall-rappel/data/20140801_r9135_1408026490753_eng",
        "fr": "/default/main/inspection/cont-cont/recall-rappel/WORKAREA/recall-rappel/templatedata/comn-comn/recall-rappel/data/20140801_r9135_1408026490753_fra"
    },
    "type_name": "recall-rappel",
    "parent_node_id": null,
    "layout_name": "content page 1 column",
    "breadcrumb": {
        "en": "Live Kumamoto Oysters recalled due to Vibrio parahaemolyticus",
        "fr": "Rappel de « <span lang=\"en\">Live Kumamoto Oysters</span> » en raison de la présence de Vibrio parahaemolyticus"
    },
    "label": {
        "en": "Live Kumamoto Oysters recalled due to Vibrio parahaemolyticus",
        "fr": "Rappel de « <span lang=\"en\">Live Kumamoto Oysters</span> » en raison de la présence de Vibrio parahaemolyticus"
    },
    "templatetype": "content page 1 column",
    "node_id": null,
    "managing_branch": "comn",
    "has_dcr_id": true,
    "lang": "en"
}