{
    "dcr_id": "1408667804849",
    "title": {
        "en": "MaraNatha brand almond butters and peanut butters and Trader Joe's brand raw almond butters recalled due to <i lang=\"la\">Salmonella</i>",
        "fr": "Rappel des beurres d'amandes et des beurres d'arachide de marque <span lang=\"en\">MaraNatha</span> et des beurres d'amandes crue de marque <span lang=\"en\">Trader Joe's</span> en raison de la bactérie <i lang=\"la\">Salmonella</i>"
    },
    "html_modified": "2014-08-21",
    "modified": "2014-08-21",
    "issued": "2014-08-21",
    "teamsite_location": {
        "en": "/default/main/inspection/cont-cont/recall-rappel/WORKAREA/recall-rappel/templatedata/comn-comn/recall-rappel/data/20140821_1408667804849_eng",
        "fr": "/default/main/inspection/cont-cont/recall-rappel/WORKAREA/recall-rappel/templatedata/comn-comn/recall-rappel/data/20140821_1408667804849_fra"
    },
    "type_name": "recall-rappel",
    "parent_node_id": null,
    "layout_name": "content page 1 column",
    "breadcrumb": {
        "en": "MaraNatha brand almond butters and peanut butters and Trader Joe's brand raw almond butters recalled due to <i lang=\"la\">Salmonella</i>",
        "fr": "Rappel des beurres d'amandes et des beurres d'arachide de marque <span lang=\"en\">MaraNatha</span> et des beurres d'amandes crue de marque <span lang=\"en\">Trader Joe's</span> en raison de la bactérie <i lang=\"la\">Salmonella</i>"
    },
    "label": {
        "en": "MaraNatha brand almond butters and peanut butters and Trader Joe's brand raw almond butters recalled due to <i lang=\"la\">Salmonella</i>",
        "fr": "Rappel des beurres d'amandes et des beurres d'arachide de marque <span lang=\"en\">MaraNatha</span> et des beurres d'amandes crue de marque <span lang=\"en\">Trader Joe's</span> en raison de la bactérie <i lang=\"la\">Salmonella</i>"
    },
    "templatetype": "content page 1 column",
    "node_id": null,
    "managing_branch": "comn",
    "has_dcr_id": true,
    "lang": "en"
}