{
    "dcr_id": "1410395713373",
    "title": {
        "en": "Frozen pork spring rolls, pork buns and pork wontons sold in Alberta recalled due to <i lang=\"la\"><abbr title=\"Escherichia\">E.</abbr> coli</i> O157:H7",
        "fr": "Rappel de rouleaux de printemps au porc, de petits pains au porc et de wontons au porc congelés vendus en Alberta, en raison de la bactérie <i lang=\"la\"><abbr title=\"Escherichia\">E.</abbr> coli</i> O157:H7"
    },
    "html_modified": "2014-09-10",
    "modified": "2014-09-10",
    "issued": "2014-09-10",
    "teamsite_location": {
        "en": "/default/main/inspection/cont-cont/recall-rappel/WORKAREA/recall-rappel/templatedata/comn-comn/recall-rappel/data/20140910_1410395713373_eng",
        "fr": "/default/main/inspection/cont-cont/recall-rappel/WORKAREA/recall-rappel/templatedata/comn-comn/recall-rappel/data/20140910_1410395713373_fra"
    },
    "type_name": "recall-rappel",
    "parent_node_id": null,
    "layout_name": "content page 1 column",
    "breadcrumb": {
        "en": "Frozen pork spring rolls, pork buns and pork wontons sold in Alberta recalled due to <i lang=\"la\"><abbr title=\"Escherichia\">E.</abbr> coli</i> O157:H7",
        "fr": "Rappel de rouleaux de printemps au porc, de petits pains au porc et de wontons au porc congelés vendus en Alberta, en raison de la bactérie <i lang=\"la\"><abbr title=\"Escherichia\">E.</abbr> coli</i> O157:H7"
    },
    "label": {
        "en": "Frozen pork spring rolls, pork buns and pork wontons sold in Alberta recalled due to <i lang=\"la\"><abbr title=\"Escherichia\">E.</abbr> coli</i> O157:H7",
        "fr": "Rappel de rouleaux de printemps au porc, de petits pains au porc et de wontons au porc congelés vendus en Alberta, en raison de la bactérie <i lang=\"la\"><abbr title=\"Escherichia\">E.</abbr> coli</i> O157:H7"
    },
    "templatetype": "content page 1 column",
    "node_id": null,
    "managing_branch": "comn",
    "has_dcr_id": true,
    "lang": "en"
}