{
    "dcr_id": "1410480704410",
    "title": {
        "en": "Organic Traditions brand Sprouted Chia & Flax Seed Powder recalled due to <i lang=\"la\">Salmonella</i>",
        "fr": "Rappel de poudre de graines de chia et de lin germées de marque <span lang=\"en\">Organic Traditions</span> en raison de la bactérie <i lang=\"la\">Salmonella</i>"
    },
    "html_modified": "2014-09-11",
    "modified": "2014-09-11",
    "issued": "2014-09-11",
    "teamsite_location": {
        "en": "/default/main/inspection/cont-cont/recall-rappel/WORKAREA/recall-rappel/templatedata/comn-comn/recall-rappel/data/20140911_1410480704410_eng",
        "fr": "/default/main/inspection/cont-cont/recall-rappel/WORKAREA/recall-rappel/templatedata/comn-comn/recall-rappel/data/20140911_1410480704410_fra"
    },
    "type_name": "recall-rappel",
    "parent_node_id": null,
    "layout_name": "content page 1 column",
    "breadcrumb": {
        "en": "Organic Traditions brand Sprouted Chia & Flax Seed Powder recalled due to <i lang=\"la\">Salmonella</i>",
        "fr": "Rappel de poudre de graines de chia et de lin germées de marque <span lang=\"en\">Organic Traditions</span> en raison de la bactérie <i lang=\"la\">Salmonella</i>"
    },
    "label": {
        "en": "Organic Traditions brand Sprouted Chia & Flax Seed Powder recalled due to <i lang=\"la\">Salmonella</i>",
        "fr": "Rappel de poudre de graines de chia et de lin germées de marque <span lang=\"en\">Organic Traditions</span> en raison de la bactérie <i lang=\"la\">Salmonella</i>"
    },
    "templatetype": "content page 1 column",
    "node_id": null,
    "managing_branch": "comn",
    "has_dcr_id": true,
    "lang": "en"
}