{
    "dcr_id": "1411485881821",
    "title": {
        "en": "Mountain Path brand Organic Flax Seed Brown recalled due to pieces of metal",
        "fr": "Rappel de « Biologique graines de lin brunes » de marque <span lang=\"en\">Mountain Path</span> en raison de la présence de morceaux de métal"
    },
    "html_modified": "2014-09-23",
    "modified": "2014-09-23",
    "issued": "2014-09-23",
    "teamsite_location": {
        "en": "/default/main/inspection/cont-cont/recall-rappel/WORKAREA/recall-rappel/templatedata/comn-comn/recall-rappel/data/20140923_r9277_1411485881821_eng",
        "fr": "/default/main/inspection/cont-cont/recall-rappel/WORKAREA/recall-rappel/templatedata/comn-comn/recall-rappel/data/20140923_r9277_1411485881821_fra"
    },
    "type_name": "recall-rappel",
    "parent_node_id": null,
    "layout_name": "content page 1 column",
    "breadcrumb": {
        "en": "Mountain Path brand Organic Flax Seed Brown recalled due to pieces of metal",
        "fr": "Rappel de « Biologique graines de lin brunes » de marque <span lang=\"en\">Mountain Path</span> en raison de la présence de morceaux de métal"
    },
    "label": {
        "en": "Mountain Path brand Organic Flax Seed Brown recalled due to pieces of metal",
        "fr": "Rappel de « Biologique graines de lin brunes » de marque <span lang=\"en\">Mountain Path</span> en raison de la présence de morceaux de métal"
    },
    "templatetype": "content page 1 column",
    "node_id": null,
    "managing_branch": "comn",
    "has_dcr_id": true,
    "lang": "en"
}