{
    "dcr_id": "1411510894742",
    "title": {
        "en": "Highfly brand \"Datte Deglet Nour of Tunisia\" recalled due to insect infestation",
        "fr": "Rappel de « Datte Deglet Nour <span lang=\"en\">of Tunisia</span> » de marque <span lang=\"en\">Highfly</span> en raison d'une infestation d'insectes"
    },
    "html_modified": "2015-01-15 12:46",
    "modified": "2015-01-15",
    "issued": "2015-01-15",
    "teamsite_location": {
        "en": "/default/main/inspection/cont-cont/recall-rappel/WORKAREA/recall-rappel/templatedata/comn-comn/recall-rappel/data/20140917_r9178_1411510894742_eng",
        "fr": "/default/main/inspection/cont-cont/recall-rappel/WORKAREA/recall-rappel/templatedata/comn-comn/recall-rappel/data/20140917_r9178_1411510894742_fra"
    },
    "type_name": "recall-rappel",
    "parent_node_id": null,
    "layout_name": "content page 1 column",
    "breadcrumb": {
        "en": "Highfly brand \"Datte Deglet Nour of Tunisia\" recalled due to insect infestation",
        "fr": "Rappel de « Datte Deglet Nour <span lang=\"en\">of Tunisia</span> » de marque <span lang=\"en\">Highfly</span> en raison d'une infestation d'insectes"
    },
    "label": {
        "en": "Highfly brand \"Datte Deglet Nour of Tunisia\" recalled due to insect infestation",
        "fr": "Rappel de « Datte Deglet Nour <span lang=\"en\">of Tunisia</span> » de marque <span lang=\"en\">Highfly</span> en raison d'une infestation d'insectes"
    },
    "templatetype": "content page 1 column",
    "node_id": null,
    "managing_branch": "comn",
    "has_dcr_id": true,
    "lang": "en"
}