{
    "dcr_id": "1414180091660",
    "title": {
        "en": "Potatoes recalled by Linkletter Farms <abbr title=\"Limited\">Ltd.</abbr> due to presence of metal needles",
        "fr": "Rappel de pommes de terre par <span lang=\"en\">Linkletter Farms <abbr title=\"Limited\">Ltd.</abbr></span> en raison de la présence d'aiguilles métalliques"
    },
    "html_modified": "2014-10-24",
    "modified": "2014-10-24",
    "issued": "2014-10-24",
    "teamsite_location": {
        "en": "/default/main/inspection/cont-cont/recall-rappel/WORKAREA/recall-rappel/templatedata/comn-comn/recall-rappel/data/20141007_r9316_1414180091660_eng",
        "fr": "/default/main/inspection/cont-cont/recall-rappel/WORKAREA/recall-rappel/templatedata/comn-comn/recall-rappel/data/20141007_r9316_1414180091660_fra"
    },
    "type_name": "recall-rappel",
    "parent_node_id": null,
    "layout_name": "content page 1 column",
    "breadcrumb": {
        "en": "Potatoes recalled by Linkletter Farms <abbr title=\"Limited\">Ltd.</abbr> due to presence of metal needles",
        "fr": "Rappel de pommes de terre par <span lang=\"en\">Linkletter Farms <abbr title=\"Limited\">Ltd.</abbr></span> en raison de la présence d'aiguilles métalliques"
    },
    "label": {
        "en": "Potatoes recalled by Linkletter Farms <abbr title=\"Limited\">Ltd.</abbr> due to presence of metal needles",
        "fr": "Rappel de pommes de terre par <span lang=\"en\">Linkletter Farms <abbr title=\"Limited\">Ltd.</abbr></span> en raison de la présence d'aiguilles métalliques"
    },
    "templatetype": "content page 1 column",
    "node_id": null,
    "managing_branch": "comn",
    "has_dcr_id": true,
    "lang": "en"
}