{
    "dcr_id": "1414808590969",
    "title": {
        "en": "Unpasteurized cider recalled due to <i lang=\"la\"><abbr title=\"Escherichia\">E.</abbr> coli</i> O157:H7",
        "fr": "Rappel de jus non pasteurisés en raison de la bactérie <i lang=\"la\"><abbr title=\"Escherichia\">E.</abbr> coli</i> O157:H7"
    },
    "html_modified": "2014-10-31",
    "modified": "2014-11-04",
    "issued": "2014-10-31",
    "teamsite_location": {
        "en": "/default/main/inspection/cont-cont/recall-rappel/WORKAREA/recall-rappel/templatedata/comn-comn/recall-rappel/data/20141031b_1414808590969_eng",
        "fr": "/default/main/inspection/cont-cont/recall-rappel/WORKAREA/recall-rappel/templatedata/comn-comn/recall-rappel/data/20141031b_1414808590969_fra"
    },
    "type_name": "recall-rappel",
    "parent_node_id": null,
    "layout_name": "content page 1 column",
    "breadcrumb": {
        "en": "Unpasteurized cider recalled due to <i lang=\"la\"><abbr title=\"Escherichia\">E.</abbr> coli</i> O157:H7",
        "fr": "Rappel de jus non pasteurisés en raison de la bactérie <i lang=\"la\"><abbr title=\"Escherichia\">E.</abbr> coli</i> O157:H7"
    },
    "label": {
        "en": "Unpasteurized cider recalled due to <i lang=\"la\"><abbr title=\"Escherichia\">E.</abbr> coli</i> O157:H7",
        "fr": "Rappel de jus non pasteurisés en raison de la bactérie <i lang=\"la\"><abbr title=\"Escherichia\">E.</abbr> coli</i> O157:H7"
    },
    "templatetype": "content page 1 column",
    "node_id": null,
    "managing_branch": "comn",
    "has_dcr_id": true,
    "lang": "en"
}