{
    "dcr_id": "1414531019358",
    "title": {
        "en": "Sesame paste product recalled due to undeclared peanut",
        "fr": "Rappel de produit de pâte de sésame en raison de la présence non déclarée d'arachides"
    },
    "html_modified": "2014-10-28 17:17",
    "modified": "2014-10-28",
    "issued": "2014-10-28",
    "teamsite_location": {
        "en": "/default/main/inspection/cont-cont/recall-rappel/WORKAREA/recall-rappel/templatedata/comn-comn/recall-rappel/data/20141028_1414531019358_eng",
        "fr": "/default/main/inspection/cont-cont/recall-rappel/WORKAREA/recall-rappel/templatedata/comn-comn/recall-rappel/data/20141028_1414531019358_fra"
    },
    "type_name": "recall-rappel",
    "parent_node_id": null,
    "layout_name": "content page 1 column",
    "breadcrumb": {
        "en": "Sesame paste product recalled due to undeclared peanut",
        "fr": "Rappel de produit de pâte de sésame en raison de la présence non déclarée d'arachides"
    },
    "label": {
        "en": "Sesame paste product recalled due to undeclared peanut",
        "fr": "Rappel de produit de pâte de sésame en raison de la présence non déclarée d'arachides"
    },
    "templatetype": "content page 1 column",
    "node_id": null,
    "managing_branch": "comn",
    "has_dcr_id": true,
    "lang": "en"
}