{
    "dcr_id": "1414528275347",
    "title": {
        "en": "Pasta <span lang=\"fr\">D'Aprile</span> brand Tortellini and Ravioli recalled due to undeclared milk",
        "fr": "Rappel de tortellini et de ravioli de marque Pasta D'Aprile en raison de la présence non déclarée de lait"
    },
    "html_modified": "2014-10-29",
    "modified": "2014-10-28",
    "issued": "2014-10-28",
    "teamsite_location": {
        "en": "/default/main/inspection/cont-cont/recall-rappel/WORKAREA/recall-rappel/templatedata/comn-comn/recall-rappel/data/20141024_r9368_1414528275347_eng",
        "fr": "/default/main/inspection/cont-cont/recall-rappel/WORKAREA/recall-rappel/templatedata/comn-comn/recall-rappel/data/20141024_r9368_1414528275347_fra"
    },
    "type_name": "recall-rappel",
    "parent_node_id": null,
    "layout_name": "content page 1 column",
    "breadcrumb": {
        "en": "Pasta <span lang=\"fr\">D'Aprile</span> brand Tortellini and Ravioli recalled due to undeclared milk",
        "fr": "Rappel de tortellini et de ravioli de marque Pasta D'Aprile en raison de la présence non déclarée de lait"
    },
    "label": {
        "en": "Pasta <span lang=\"fr\">D'Aprile</span> brand Tortellini and Ravioli recalled due to undeclared milk",
        "fr": "Rappel de tortellini et de ravioli de marque Pasta D'Aprile en raison de la présence non déclarée de lait"
    },
    "templatetype": "content page 1 column",
    "node_id": null,
    "managing_branch": "comn",
    "has_dcr_id": true,
    "lang": "en"
}