{
    "dcr_id": "1414817272622",
    "title": {
        "en": "Ortega brand Taco Seasoning Mix recalled due to undeclared peanut and almond",
        "fr": "Rappel de « <span lang=\"en\">Taco Seasoning Mix</span> » de marque Ortega en raison de la présence non déclarée d'arachides et d'amandes"
    },
    "html_modified": "2014-11-01",
    "modified": "2014-11-01",
    "issued": "2014-11-01",
    "teamsite_location": {
        "en": "/default/main/inspection/cont-cont/recall-rappel/WORKAREA/recall-rappel/templatedata/comn-comn/recall-rappel/data/20141031d_1414817272622_eng",
        "fr": "/default/main/inspection/cont-cont/recall-rappel/WORKAREA/recall-rappel/templatedata/comn-comn/recall-rappel/data/20141031d_1414817272622_fra"
    },
    "type_name": "recall-rappel",
    "parent_node_id": null,
    "layout_name": "content page 1 column",
    "breadcrumb": {
        "en": "Ortega brand Taco Seasoning Mix recalled due to undeclared peanut and almond",
        "fr": "Rappel de « <span lang=\"en\">Taco Seasoning Mix</span> » de marque Ortega en raison de la présence non déclarée d'arachides et d'amandes"
    },
    "label": {
        "en": "Ortega brand Taco Seasoning Mix recalled due to undeclared peanut and almond",
        "fr": "Rappel de « <span lang=\"en\">Taco Seasoning Mix</span> » de marque Ortega en raison de la présence non déclarée d'arachides et d'amandes"
    },
    "templatetype": "content page 1 column",
    "node_id": null,
    "managing_branch": "comn",
    "has_dcr_id": true,
    "lang": "en"
}