{
    "dcr_id": "1415661737360",
    "title": {
        "en": "Marco Polo brand chocolate covered wafer bars recalled due to undeclared milk",
        "fr": "Rappel de gaufrettes enrobée de chocolat de marque Marco Polo en raison de la présence non déclarée de lait"
    },
    "html_modified": "2014-11-12",
    "modified": "2014-11-10",
    "issued": "2014-11-10",
    "teamsite_location": {
        "en": "/default/main/inspection/cont-cont/recall-rappel/WORKAREA/recall-rappel/templatedata/comn-comn/recall-rappel/data/20141110_r9440_1415661737360_eng",
        "fr": "/default/main/inspection/cont-cont/recall-rappel/WORKAREA/recall-rappel/templatedata/comn-comn/recall-rappel/data/20141110_r9440_1415661737360_fra"
    },
    "type_name": "recall-rappel",
    "parent_node_id": null,
    "layout_name": "content page 1 column",
    "breadcrumb": {
        "en": "Marco Polo brand chocolate covered wafer bars recalled due to undeclared milk",
        "fr": "Rappel de gaufrettes enrobée de chocolat de marque Marco Polo en raison de la présence non déclarée de lait"
    },
    "label": {
        "en": "Marco Polo brand chocolate covered wafer bars recalled due to undeclared milk",
        "fr": "Rappel de gaufrettes enrobée de chocolat de marque Marco Polo en raison de la présence non déclarée de lait"
    },
    "templatetype": "content page 1 column",
    "node_id": null,
    "managing_branch": "comn",
    "has_dcr_id": true,
    "lang": "en"
}