{
    "dcr_id": "1415825554238",
    "title": {
        "en": "3:15 PM brand coffee products recalled due to undeclared milk",
        "fr": "Rappel de produits de café de marque 3:15 PM en raison de la présence non déclarée de lait"
    },
    "html_modified": "2014-11-13",
    "modified": "2014-11-13",
    "issued": "2014-11-12",
    "teamsite_location": {
        "en": "/default/main/inspection/cont-cont/recall-rappel/WORKAREA/recall-rappel/templatedata/comn-comn/recall-rappel/data/20141104_r9382_1415825554238_eng",
        "fr": "/default/main/inspection/cont-cont/recall-rappel/WORKAREA/recall-rappel/templatedata/comn-comn/recall-rappel/data/20141104_r9382_1415825554238_fra"
    },
    "type_name": "recall-rappel",
    "parent_node_id": null,
    "layout_name": "content page 1 column",
    "breadcrumb": {
        "en": "3:15 PM brand coffee products recalled due to undeclared milk",
        "fr": "Rappel de produits de café de marque 3:15 PM en raison de la présence non déclarée de lait"
    },
    "label": {
        "en": "3:15 PM brand coffee products recalled due to undeclared milk",
        "fr": "Rappel de produits de café de marque 3:15 PM en raison de la présence non déclarée de lait"
    },
    "templatetype": "content page 1 column",
    "node_id": null,
    "managing_branch": "comn",
    "has_dcr_id": true,
    "lang": "en"
}