{
    "dcr_id": "1417502699444",
    "title": {
        "en": "Your Fresh Market  brand ground beef products recalled due to <i lang=\"la\"><abbr title=\"Escherichia\">E.</abbr> coli</i> O157:H7",
        "fr": "Rappel de produits  de bœuf haché de marque Mon marché fraîcheur en raison de la bactérie <i lang=\"la\"><abbr title=\"Escherichia\">E.</abbr> coli</i> O157"
    },
    "html_modified": "2014-12-02 01:53",
    "modified": "2014-12-02",
    "issued": "2014-12-02",
    "teamsite_location": {
        "en": "/default/main/inspection/cont-cont/recall-rappel/WORKAREA/recall-rappel/templatedata/comn-comn/recall-rappel/data/20141201_1417502699444_eng",
        "fr": "/default/main/inspection/cont-cont/recall-rappel/WORKAREA/recall-rappel/templatedata/comn-comn/recall-rappel/data/20141201_1417502699444_fra"
    },
    "type_name": "recall-rappel",
    "parent_node_id": null,
    "layout_name": "content page 1 column",
    "breadcrumb": {
        "en": "Your Fresh Market  brand ground beef products recalled due to <i lang=\"la\"><abbr title=\"Escherichia\">E.</abbr> coli</i> O157:H7",
        "fr": "Rappel de produits  de bœuf haché de marque Mon marché fraîcheur en raison de la bactérie <i lang=\"la\"><abbr title=\"Escherichia\">E.</abbr> coli</i> O157"
    },
    "label": {
        "en": "Your Fresh Market  brand ground beef products recalled due to <i lang=\"la\"><abbr title=\"Escherichia\">E.</abbr> coli</i> O157:H7",
        "fr": "Rappel de produits  de bœuf haché de marque Mon marché fraîcheur en raison de la bactérie <i lang=\"la\"><abbr title=\"Escherichia\">E.</abbr> coli</i> O157"
    },
    "templatetype": "content page 1 column",
    "node_id": null,
    "managing_branch": "comn",
    "has_dcr_id": true,
    "lang": "en"
}