{
    "dcr_id": "1418442610665",
    "title": {
        "en": "Serengeti Trading brand ready-to-eat meat products recalled due to undeclared mustard and sulphites",
        "fr": "Rappel de produits de viande prêts-à-manger de marque <span lang=\"en\">Serengeti Trading</span> en raison de la présence non déclarée de moutarde et de sulfites"
    },
    "html_modified": "2014-12-12",
    "modified": "2014-12-12",
    "issued": "2014-12-12",
    "teamsite_location": {
        "en": "/default/main/inspection/cont-cont/recall-rappel/WORKAREA/recall-rappel/templatedata/comn-comn/recall-rappel/data/20141212b_1418442610665_eng",
        "fr": "/default/main/inspection/cont-cont/recall-rappel/WORKAREA/recall-rappel/templatedata/comn-comn/recall-rappel/data/20141212b_1418442610665_fra"
    },
    "type_name": "recall-rappel",
    "parent_node_id": null,
    "layout_name": "content page 1 column",
    "breadcrumb": {
        "en": "Serengeti Trading brand ready-to-eat meat products recalled due to undeclared mustard and sulphites",
        "fr": "Rappel de produits de viande prêts-à-manger de marque <span lang=\"en\">Serengeti Trading</span> en raison de la présence non déclarée de moutarde et de sulfites"
    },
    "label": {
        "en": "Serengeti Trading brand ready-to-eat meat products recalled due to undeclared mustard and sulphites",
        "fr": "Rappel de produits de viande prêts-à-manger de marque <span lang=\"en\">Serengeti Trading</span> en raison de la présence non déclarée de moutarde et de sulfites"
    },
    "templatetype": "content page 1 column",
    "node_id": null,
    "managing_branch": "comn",
    "has_dcr_id": true,
    "lang": "en"
}