{
    "dcr_id": "1418933661287",
    "title": {
        "en": "Distribution SL brand chicken products recalled due to Salmonella",
        "fr": "Rappel de produits de poulet de marque Distribution SL en raison de la présence de Salmonella"
    },
    "html_modified": "2014-12-19",
    "modified": "2014-12-18",
    "issued": "2014-12-18",
    "teamsite_location": {
        "en": "/default/main/inspection/cont-cont/recall-rappel/WORKAREA/recall-rappel/templatedata/comn-comn/recall-rappel/data/20141217_r9540_1418933661287_eng",
        "fr": "/default/main/inspection/cont-cont/recall-rappel/WORKAREA/recall-rappel/templatedata/comn-comn/recall-rappel/data/20141217_r9540_1418933661287_fra"
    },
    "type_name": "recall-rappel",
    "parent_node_id": null,
    "layout_name": "content page 1 column",
    "breadcrumb": {
        "en": "Distribution SL brand chicken products recalled due to Salmonella",
        "fr": "Rappel de produits de poulet de marque Distribution SL en raison de la présence de Salmonella"
    },
    "label": {
        "en": "Distribution SL brand chicken products recalled due to Salmonella",
        "fr": "Rappel de produits de poulet de marque Distribution SL en raison de la présence de Salmonella"
    },
    "templatetype": "content page 1 column",
    "node_id": null,
    "managing_branch": "comn",
    "has_dcr_id": true,
    "lang": "en"
}