{
    "dcr_id": "1419471967201",
    "title": {
        "en": "Happy Apples brand Caramel Apples recalled due to <i lang=\"la\">Listeria monocytogenes</i>",
        "fr": "Rappel de pommes au caramel de marque <span lang=\"en\">Happy Apples</span> en raison de la bactérie <i lang=\"la\">Listeria monocytogenes</i>"
    },
    "html_modified": "2014-12-24 20:46",
    "modified": "2014-12-29",
    "issued": "2014-12-24",
    "teamsite_location": {
        "en": "/default/main/inspection/cont-cont/recall-rappel/WORKAREA/recall-rappel/templatedata/comn-comn/recall-rappel/data/20141224_1419471967201_eng",
        "fr": "/default/main/inspection/cont-cont/recall-rappel/WORKAREA/recall-rappel/templatedata/comn-comn/recall-rappel/data/20141224_1419471967201_fra"
    },
    "type_name": "recall-rappel",
    "parent_node_id": null,
    "layout_name": "content page 1 column",
    "breadcrumb": {
        "en": "Happy Apples brand Caramel Apples recalled due to <i lang=\"la\">Listeria monocytogenes</i>",
        "fr": "Rappel de pommes au caramel de marque <span lang=\"en\">Happy Apples</span> en raison de la bactérie <i lang=\"la\">Listeria monocytogenes</i>"
    },
    "label": {
        "en": "Happy Apples brand Caramel Apples recalled due to <i lang=\"la\">Listeria monocytogenes</i>",
        "fr": "Rappel de pommes au caramel de marque <span lang=\"en\">Happy Apples</span> en raison de la bactérie <i lang=\"la\">Listeria monocytogenes</i>"
    },
    "templatetype": "content page 1 column",
    "node_id": null,
    "managing_branch": "comn",
    "has_dcr_id": true,
    "lang": "en"
}