{
    "dcr_id": "1422038422566",
    "title": {
        "en": "Atlantic Sprout Farm brand Chinese Mung Bean Sprouts recalled due to faecal coliforms",
        "fr": "Rappel de Germes de haricot mungo chinois de marque <span lang=\"en\">Atlantic Sprout Farm</span> en raison de coliformes fécaux"
    },
    "html_modified": "2015-01-26",
    "modified": "2015-01-26",
    "issued": "2015-01-23",
    "teamsite_location": {
        "en": "/default/main/inspection/cont-cont/recall-rappel/WORKAREA/recall-rappel/templatedata/comn-comn/recall-rappel/data/20150123_r9599_1422038422566_eng",
        "fr": "/default/main/inspection/cont-cont/recall-rappel/WORKAREA/recall-rappel/templatedata/comn-comn/recall-rappel/data/20150123_r9599_1422038422566_fra"
    },
    "type_name": "recall-rappel",
    "parent_node_id": null,
    "layout_name": "content page 1 column",
    "breadcrumb": {
        "en": "Atlantic Sprout Farm brand Chinese Mung Bean Sprouts recalled due to faecal coliforms",
        "fr": "Rappel de Germes de haricot mungo chinois de marque <span lang=\"en\">Atlantic Sprout Farm</span> en raison de coliformes fécaux"
    },
    "label": {
        "en": "Atlantic Sprout Farm brand Chinese Mung Bean Sprouts recalled due to faecal coliforms",
        "fr": "Rappel de Germes de haricot mungo chinois de marque <span lang=\"en\">Atlantic Sprout Farm</span> en raison de coliformes fécaux"
    },
    "templatetype": "content page 1 column",
    "node_id": null,
    "managing_branch": "comn",
    "has_dcr_id": true,
    "lang": "en"
}