{
    "dcr_id": "1424471266835",
    "title": {
        "en": "Elite Salads brand White Fish recalled due to potential presence of dangerous bacteria",
        "fr": "Rappel de Poisson fumé blanc de marque <span lang=\"en\">Elite Salads</span> en raison de la présence possible de bactéries dangereuses"
    },
    "html_modified": "2015-02-20",
    "modified": "2015-02-20",
    "issued": "2015-02-20",
    "teamsite_location": {
        "en": "/default/main/inspection/cont-cont/recall-rappel/WORKAREA/recall-rappel/templatedata/comn-comn/recall-rappel/data/20150220_1424471266835_eng",
        "fr": "/default/main/inspection/cont-cont/recall-rappel/WORKAREA/recall-rappel/templatedata/comn-comn/recall-rappel/data/20150220_1424471266835_fra"
    },
    "type_name": "recall-rappel",
    "parent_node_id": null,
    "layout_name": "content page 1 column",
    "breadcrumb": {
        "en": "Elite Salads brand White Fish recalled due to potential presence of dangerous bacteria",
        "fr": "Rappel de Poisson fumé blanc de marque <span lang=\"en\">Elite Salads</span> en raison de la présence possible de bactéries dangereuses"
    },
    "label": {
        "en": "Elite Salads brand White Fish recalled due to potential presence of dangerous bacteria",
        "fr": "Rappel de Poisson fumé blanc de marque <span lang=\"en\">Elite Salads</span> en raison de la présence possible de bactéries dangereuses"
    },
    "templatetype": "content page 1 column",
    "node_id": null,
    "managing_branch": "comn",
    "has_dcr_id": true,
    "lang": "en"
}