{
    "dcr_id": "1425958105303",
    "title": {
        "en": "Recall of Paradise Oysters brand Pacific Oysters due to generic <i lang=\"la\"><abbr title=\"Escherichia\">E.</abbr> coli</i>",
        "fr": "Rappel de « <span lang=\"en\">Pacific Oysters</span> » de marque <span lang=\"en\">Paradise Oysters</span> en raison d'<i lang=\"la\"><abbr title=\"Escherichia\">E.</abbr> coli</i> générique"
    },
    "html_modified": "2015-03-16",
    "modified": "2015-03-09",
    "issued": "2015-03-09",
    "teamsite_location": {
        "en": "/default/main/inspection/cont-cont/recall-rappel/WORKAREA/recall-rappel/templatedata/comn-comn/recall-rappel/data/20150305_r9699_1425958105303_eng",
        "fr": "/default/main/inspection/cont-cont/recall-rappel/WORKAREA/recall-rappel/templatedata/comn-comn/recall-rappel/data/20150305_r9699_1425958105303_fra"
    },
    "type_name": "recall-rappel",
    "parent_node_id": null,
    "layout_name": "content page 1 column",
    "breadcrumb": {
        "en": "Recall of Paradise Oysters brand Pacific Oysters due to generic <i lang=\"la\"><abbr title=\"Escherichia\">E.</abbr> coli</i>",
        "fr": "Rappel de « <span lang=\"en\">Pacific Oysters</span> » de marque <span lang=\"en\">Paradise Oysters</span> en raison d'<i lang=\"la\"><abbr title=\"Escherichia\">E.</abbr> coli</i> générique"
    },
    "label": {
        "en": "Recall of Paradise Oysters brand Pacific Oysters due to generic <i lang=\"la\"><abbr title=\"Escherichia\">E.</abbr> coli</i>",
        "fr": "Rappel de « <span lang=\"en\">Pacific Oysters</span> » de marque <span lang=\"en\">Paradise Oysters</span> en raison d'<i lang=\"la\"><abbr title=\"Escherichia\">E.</abbr> coli</i> générique"
    },
    "templatetype": "content page 1 column",
    "node_id": null,
    "managing_branch": "comn",
    "has_dcr_id": true,
    "lang": "en"
}