{
    "dcr_id": "1427220274173",
    "title": {
        "en": "Tinnel's brand Jamaican Style Patties recalled due to undeclared sesame",
        "fr": "Rappel de Pâtés à la jamaïcaine de marque Tinnel's en raison de la présence non déclarée de sésame"
    },
    "html_modified": "2015-03-26",
    "modified": "2015-03-24",
    "issued": "2015-03-24",
    "teamsite_location": {
        "en": "/default/main/inspection/cont-cont/recall-rappel/WORKAREA/recall-rappel/templatedata/comn-comn/recall-rappel/data/20150320_r9723_1427220274173_eng",
        "fr": "/default/main/inspection/cont-cont/recall-rappel/WORKAREA/recall-rappel/templatedata/comn-comn/recall-rappel/data/20150320_r9723_1427220274173_fra"
    },
    "type_name": "recall-rappel",
    "parent_node_id": null,
    "layout_name": "content page 1 column",
    "breadcrumb": {
        "en": "Tinnel's brand Jamaican Style Patties recalled due to undeclared sesame",
        "fr": "Rappel de Pâtés à la jamaïcaine de marque Tinnel's en raison de la présence non déclarée de sésame"
    },
    "label": {
        "en": "Tinnel's brand Jamaican Style Patties recalled due to undeclared sesame",
        "fr": "Rappel de Pâtés à la jamaïcaine de marque Tinnel's en raison de la présence non déclarée de sésame"
    },
    "templatetype": "content page 1 column",
    "node_id": null,
    "managing_branch": "comn",
    "has_dcr_id": true,
    "lang": "en"
}