{
    "dcr_id": "1429543027564",
    "title": {
        "en": "Gourmet Chef brand Creamy Coleslaw with Greek Yogurt recalled due to undeclared sunflower seeds",
        "fr": "Rappel de la salade de chou crémeuse avec yogourt grec de marque <span lang=\"en\">Gourmet Chef</span> en raison de la présence non déclarée de grains de tournesol"
    },
    "html_modified": "2015-04-21",
    "modified": "2015-04-20",
    "issued": "2015-04-20",
    "teamsite_location": {
        "en": "/default/main/inspection/cont-cont/recall-rappel/WORKAREA/recall-rappel/templatedata/comn-comn/recall-rappel/data/20150417_r9772_1429543027564_eng",
        "fr": "/default/main/inspection/cont-cont/recall-rappel/WORKAREA/recall-rappel/templatedata/comn-comn/recall-rappel/data/20150417_r9772_1429543027564_fra"
    },
    "type_name": "recall-rappel",
    "parent_node_id": null,
    "layout_name": "content page 1 column",
    "breadcrumb": {
        "en": "Gourmet Chef brand Creamy Coleslaw with Greek Yogurt recalled due to undeclared sunflower seeds",
        "fr": "Rappel de la salade de chou crémeuse avec yogourt grec de marque <span lang=\"en\">Gourmet Chef</span> en raison de la présence non déclarée de grains de tournesol"
    },
    "label": {
        "en": "Gourmet Chef brand Creamy Coleslaw with Greek Yogurt recalled due to undeclared sunflower seeds",
        "fr": "Rappel de la salade de chou crémeuse avec yogourt grec de marque <span lang=\"en\">Gourmet Chef</span> en raison de la présence non déclarée de grains de tournesol"
    },
    "templatetype": "content page 1 column",
    "node_id": null,
    "managing_branch": "comn",
    "has_dcr_id": true,
    "lang": "en"
}