{
    "dcr_id": "1430254212820",
    "title": {
        "en": "Dalisa brand Pork Roast recalled due to undeclared sulphites",
        "fr": "Rappel de Rôti de longe de porc de marque Dalisa en raison de la présence non déclarée de sulfites"
    },
    "html_modified": "2015-04-29",
    "modified": "2015-04-28",
    "issued": "2015-04-28",
    "teamsite_location": {
        "en": "/default/main/inspection/cont-cont/recall-rappel/WORKAREA/recall-rappel/templatedata/comn-comn/recall-rappel/data/20150331_r9788_1430254212820_eng",
        "fr": "/default/main/inspection/cont-cont/recall-rappel/WORKAREA/recall-rappel/templatedata/comn-comn/recall-rappel/data/20150331_r9788_1430254212820_fra"
    },
    "type_name": "recall-rappel",
    "parent_node_id": null,
    "layout_name": "content page 1 column",
    "breadcrumb": {
        "en": "Dalisa brand Pork Roast recalled due to undeclared sulphites",
        "fr": "Rappel de Rôti de longe de porc de marque Dalisa en raison de la présence non déclarée de sulfites"
    },
    "label": {
        "en": "Dalisa brand Pork Roast recalled due to undeclared sulphites",
        "fr": "Rappel de Rôti de longe de porc de marque Dalisa en raison de la présence non déclarée de sulfites"
    },
    "templatetype": "content page 1 column",
    "node_id": null,
    "managing_branch": "comn",
    "has_dcr_id": true,
    "lang": "en"
}