{
    "dcr_id": "1431721503847",
    "title": {
        "en": "Brown Betty brand Coconut Milk Powder Mix recalled due to undeclared milk",
        "fr": "Rappel de Poudre de lait de coco de marque <span lang=\"en\">Brown Betty</span> en raison de la présence non déclarée de lait"
    },
    "html_modified": "2015-05-15",
    "modified": "2015-05-15",
    "issued": "2015-05-15",
    "teamsite_location": {
        "en": "/default/main/inspection/cont-cont/recall-rappel/WORKAREA/recall-rappel/templatedata/comn-comn/recall-rappel/data/20150515_1431721503847_eng",
        "fr": "/default/main/inspection/cont-cont/recall-rappel/WORKAREA/recall-rappel/templatedata/comn-comn/recall-rappel/data/20150515_1431721503847_fra"
    },
    "type_name": "recall-rappel",
    "parent_node_id": null,
    "layout_name": "content page 1 column",
    "breadcrumb": {
        "en": "Brown Betty brand Coconut Milk Powder Mix recalled due to undeclared milk",
        "fr": "Rappel de Poudre de lait de coco de marque <span lang=\"en\">Brown Betty</span> en raison de la présence non déclarée de lait"
    },
    "label": {
        "en": "Brown Betty brand Coconut Milk Powder Mix recalled due to undeclared milk",
        "fr": "Rappel de Poudre de lait de coco de marque <span lang=\"en\">Brown Betty</span> en raison de la présence non déclarée de lait"
    },
    "templatetype": "content page 1 column",
    "node_id": null,
    "managing_branch": "comn",
    "has_dcr_id": true,
    "lang": "en"
}