{
    "dcr_id": "1431731285435",
    "title": {
        "en": "Orion Ball recalled due to undeclared squid, crab, and shrimp",
        "fr": "Rappel de « <span lang=\"en\">Orion Ball</span> » en raison de la présence non déclarée de calmar, de crabe, et de crevettes"
    },
    "html_modified": "2015-05-15",
    "modified": "2015-05-15",
    "issued": "2015-05-15",
    "teamsite_location": {
        "en": "/default/main/inspection/cont-cont/recall-rappel/WORKAREA/recall-rappel/templatedata/comn-comn/recall-rappel/data/20150515b_1431731285435_eng",
        "fr": "/default/main/inspection/cont-cont/recall-rappel/WORKAREA/recall-rappel/templatedata/comn-comn/recall-rappel/data/20150515b_1431731285435_fra"
    },
    "type_name": "recall-rappel",
    "parent_node_id": null,
    "layout_name": "content page 1 column",
    "breadcrumb": {
        "en": "Orion Ball recalled due to undeclared squid, crab, and shrimp",
        "fr": "Rappel de « <span lang=\"en\">Orion Ball</span> » en raison de la présence non déclarée de calmar, de crabe, et de crevettes"
    },
    "label": {
        "en": "Orion Ball recalled due to undeclared squid, crab, and shrimp",
        "fr": "Rappel de « <span lang=\"en\">Orion Ball</span> » en raison de la présence non déclarée de calmar, de crabe, et de crevettes"
    },
    "templatetype": "content page 1 column",
    "node_id": null,
    "managing_branch": "comn",
    "has_dcr_id": true,
    "lang": "en"
}