{
    "dcr_id": "1433536579878",
    "title": {
        "en": "Juliang brand Goji Berry recalled due to undeclared sulphites",
        "fr": "Rappel de Baie de Goji de marque Juliang en raison de la présence non déclarée de sulfites"
    },
    "html_modified": "2015-06-08",
    "modified": "2015-06-05",
    "issued": "2015-06-05",
    "teamsite_location": {
        "en": "/default/main/inspection/cont-cont/recall-rappel/WORKAREA/recall-rappel/templatedata/comn-comn/recall-rappel/data/20150604_r9867_1433536579878_eng",
        "fr": "/default/main/inspection/cont-cont/recall-rappel/WORKAREA/recall-rappel/templatedata/comn-comn/recall-rappel/data/20150604_r9867_1433536579878_fra"
    },
    "type_name": "recall-rappel",
    "parent_node_id": null,
    "layout_name": "content page 1 column",
    "breadcrumb": {
        "en": "Juliang brand Goji Berry recalled due to undeclared sulphites",
        "fr": "Rappel de Baie de Goji de marque Juliang en raison de la présence non déclarée de sulfites"
    },
    "label": {
        "en": "Juliang brand Goji Berry recalled due to undeclared sulphites",
        "fr": "Rappel de Baie de Goji de marque Juliang en raison de la présence non déclarée de sulfites"
    },
    "templatetype": "content page 1 column",
    "node_id": null,
    "managing_branch": "comn",
    "has_dcr_id": true,
    "lang": "en"
}