{
    "dcr_id": "1433902520301",
    "title": {
        "en": "Live Organic Raw brand Garden Vegetable Crackers recalled due to undeclared soy",
        "fr": "Rappel des craquelins légumes du jardin de marque <span lang=\"en\">Live Organic Raw</span> en raison de la présence non déclarée de soja"
    },
    "html_modified": "2015-06-09",
    "modified": "2015-06-09",
    "issued": "2015-06-09",
    "teamsite_location": {
        "en": "/default/main/inspection/cont-cont/recall-rappel/WORKAREA/recall-rappel/templatedata/comn-comn/recall-rappel/data/20150609_1433902520301_eng",
        "fr": "/default/main/inspection/cont-cont/recall-rappel/WORKAREA/recall-rappel/templatedata/comn-comn/recall-rappel/data/20150609_1433902520301_fra"
    },
    "type_name": "recall-rappel",
    "parent_node_id": null,
    "layout_name": "content page 1 column",
    "breadcrumb": {
        "en": "Live Organic Raw brand Garden Vegetable Crackers recalled due to undeclared soy",
        "fr": "Rappel des craquelins légumes du jardin de marque <span lang=\"en\">Live Organic Raw</span> en raison de la présence non déclarée de soja"
    },
    "label": {
        "en": "Live Organic Raw brand Garden Vegetable Crackers recalled due to undeclared soy",
        "fr": "Rappel des craquelins légumes du jardin de marque <span lang=\"en\">Live Organic Raw</span> en raison de la présence non déclarée de soja"
    },
    "templatetype": "content page 1 column",
    "node_id": null,
    "managing_branch": "comn",
    "has_dcr_id": true,
    "lang": "en"
}