{
    "dcr_id": "1434762100830",
    "title": {
        "en": "Phoebe brand Mote Blanco / White Corn products recalled due to undeclared sulphites",
        "fr": "Rappel de produits de « Mote Blanco/Semoule de Mais Blanc » de marque Phoebe en raison de la présence non déclarée de sulfites"
    },
    "html_modified": "2015-06-19",
    "modified": "2015-06-19",
    "issued": "2015-06-19",
    "teamsite_location": {
        "en": "/default/main/inspection/cont-cont/recall-rappel/WORKAREA/recall-rappel/templatedata/comn-comn/recall-rappel/data/20150619_1434762100830_eng",
        "fr": "/default/main/inspection/cont-cont/recall-rappel/WORKAREA/recall-rappel/templatedata/comn-comn/recall-rappel/data/20150619_1434762100830_fra"
    },
    "type_name": "recall-rappel",
    "parent_node_id": null,
    "layout_name": "content page 1 column",
    "breadcrumb": {
        "en": "Phoebe brand Mote Blanco / White Corn products recalled due to undeclared sulphites",
        "fr": "Rappel de produits de « Mote Blanco/Semoule de Mais Blanc » de marque Phoebe en raison de la présence non déclarée de sulfites"
    },
    "label": {
        "en": "Phoebe brand Mote Blanco / White Corn products recalled due to undeclared sulphites",
        "fr": "Rappel de produits de « Mote Blanco/Semoule de Mais Blanc » de marque Phoebe en raison de la présence non déclarée de sulfites"
    },
    "templatetype": "content page 1 column",
    "node_id": null,
    "managing_branch": "comn",
    "has_dcr_id": true,
    "lang": "en"
}