{
    "dcr_id": "1435683889040",
    "title": {
        "en": "Sunripe brand Caesar dressing products recalled due to undeclared mustard",
        "fr": "Rappel de produits de vinaigrette César de marque <span lang=\"en\">Sunripe</span> en raison de la présence non déclarée de moutarde"
    },
    "html_modified": "2015-07-02",
    "modified": "2015-06-30",
    "issued": "2015-06-30",
    "teamsite_location": {
        "en": "/default/main/inspection/cont-cont/recall-rappel/WORKAREA/recall-rappel/templatedata/comn-comn/recall-rappel/data/20150626_r9745_1435683889040_eng",
        "fr": "/default/main/inspection/cont-cont/recall-rappel/WORKAREA/recall-rappel/templatedata/comn-comn/recall-rappel/data/20150626_r9745_1435683889040_fra"
    },
    "type_name": "recall-rappel",
    "parent_node_id": null,
    "layout_name": "content page 1 column",
    "breadcrumb": {
        "en": "Sunripe brand Caesar dressing products recalled due to undeclared mustard",
        "fr": "Rappel de produits de vinaigrette César de marque <span lang=\"en\">Sunripe</span> en raison de la présence non déclarée de moutarde"
    },
    "label": {
        "en": "Sunripe brand Caesar dressing products recalled due to undeclared mustard",
        "fr": "Rappel de produits de vinaigrette César de marque <span lang=\"en\">Sunripe</span> en raison de la présence non déclarée de moutarde"
    },
    "templatetype": "content page 1 column",
    "node_id": null,
    "managing_branch": "comn",
    "has_dcr_id": true,
    "lang": "en"
}