{
    "dcr_id": "1435588171543",
    "title": {
        "en": "Swanson brand Stuffing Baked Turkey recalled due to undeclared monosodium glutamate",
        "fr": "Rappel de Dinde farcie cuite au four de marque Swanson en raison de la présence non déclarée de glutamate monosodique"
    },
    "html_modified": "2015-06-30",
    "modified": "2015-06-29",
    "issued": "2015-06-29",
    "teamsite_location": {
        "en": "/default/main/inspection/cont-cont/recall-rappel/WORKAREA/recall-rappel/templatedata/comn-comn/recall-rappel/data/20150623_r9903_1435588171543_eng",
        "fr": "/default/main/inspection/cont-cont/recall-rappel/WORKAREA/recall-rappel/templatedata/comn-comn/recall-rappel/data/20150623_r9903_1435588171543_fra"
    },
    "type_name": "recall-rappel",
    "parent_node_id": null,
    "layout_name": "content page 1 column",
    "breadcrumb": {
        "en": "Swanson brand Stuffing Baked Turkey recalled due to undeclared monosodium glutamate",
        "fr": "Rappel de Dinde farcie cuite au four de marque Swanson en raison de la présence non déclarée de glutamate monosodique"
    },
    "label": {
        "en": "Swanson brand Stuffing Baked Turkey recalled due to undeclared monosodium glutamate",
        "fr": "Rappel de Dinde farcie cuite au four de marque Swanson en raison de la présence non déclarée de glutamate monosodique"
    },
    "templatetype": "content page 1 column",
    "node_id": null,
    "managing_branch": "comn",
    "has_dcr_id": true,
    "lang": "en"
}