{
    "dcr_id": "1437284017578",
    "title": {
        "en": "The Healthy Butcher brand smoked fish may be unsafe due to potential presence of dangerous bacteria",
        "fr": "Poisson fumé de marque <span lang=\"en\">The Healthy Butcher</span> pourrait être dangereux en raison de la présence possible de bactéries dangereuses"
    },
    "html_modified": "2015-07-19",
    "modified": "2015-07-18",
    "issued": "2015-07-18",
    "teamsite_location": {
        "en": "/default/main/inspection/cont-cont/recall-rappel/WORKAREA/recall-rappel/templatedata/comn-comn/recall-rappel/data/20150718_1437284017578_eng",
        "fr": "/default/main/inspection/cont-cont/recall-rappel/WORKAREA/recall-rappel/templatedata/comn-comn/recall-rappel/data/20150718_1437284017578_fra"
    },
    "type_name": "recall-rappel",
    "parent_node_id": null,
    "layout_name": "content page 1 column",
    "breadcrumb": {
        "en": "The Healthy Butcher brand smoked fish may be unsafe due to potential presence of dangerous bacteria",
        "fr": "Poisson fumé de marque <span lang=\"en\">The Healthy Butcher</span> pourrait être dangereux en raison de la présence possible de bactéries dangereuses"
    },
    "label": {
        "en": "The Healthy Butcher brand smoked fish may be unsafe due to potential presence of dangerous bacteria",
        "fr": "Poisson fumé de marque <span lang=\"en\">The Healthy Butcher</span> pourrait être dangereux en raison de la présence possible de bactéries dangereuses"
    },
    "templatetype": "content page 1 column",
    "node_id": null,
    "managing_branch": "comn",
    "has_dcr_id": true,
    "lang": "en"
}