{
    "dcr_id": "1437335564276",
    "title": {
        "en": "The Healthy Butcher brand smoked fish voluntarily recalled due to potential presence of dangerous bacteria",
        "fr": "Rappel volontaire de poisson fumé de marque The Healthy Butcher en raison de la présence possible de bactéries dangereuses"
    },
    "html_modified": "2015-07-19 15:47",
    "modified": "2015-07-19",
    "issued": "2015-07-19",
    "teamsite_location": {
        "en": "/default/main/inspection/cont-cont/recall-rappel/WORKAREA/recall-rappel/templatedata/comn-comn/recall-rappel/data/20150719_1437335564276_eng",
        "fr": "/default/main/inspection/cont-cont/recall-rappel/WORKAREA/recall-rappel/templatedata/comn-comn/recall-rappel/data/20150719_1437335564276_fra"
    },
    "type_name": "recall-rappel",
    "parent_node_id": null,
    "layout_name": "content page 1 column",
    "breadcrumb": {
        "en": "The Healthy Butcher brand smoked fish voluntarily recalled due to potential presence of dangerous bacteria",
        "fr": "Rappel volontaire de poisson fumé de marque The Healthy Butcher en raison de la présence possible de bactéries dangereuses"
    },
    "label": {
        "en": "The Healthy Butcher brand smoked fish voluntarily recalled due to potential presence of dangerous bacteria",
        "fr": "Rappel volontaire de poisson fumé de marque The Healthy Butcher en raison de la présence possible de bactéries dangereuses"
    },
    "templatetype": "content page 1 column",
    "node_id": null,
    "managing_branch": "comn",
    "has_dcr_id": true,
    "lang": "en"
}