{
    "dcr_id": "1440623490618",
    "title": {
        "en": "Trader Joe's brand Dark Chocolate Covered Honey Grahams with Sea Salt recalled due to undeclared milk",
        "fr": "Rappel du produit « <span lang=\"en\">Dark Chocolate Covered Honey Grahams with Sea Salt</span> » de marque <span lang=\"en\">Trader Joe's</span> en raison de la présence non déclarée de lait"
    },
    "html_modified": "2015-08-26",
    "modified": "2015-08-26",
    "issued": "2015-08-26",
    "teamsite_location": {
        "en": "/default/main/inspection/cont-cont/recall-rappel/WORKAREA/recall-rappel/templatedata/comn-comn/recall-rappel/data/20150826_1440623490618_eng",
        "fr": "/default/main/inspection/cont-cont/recall-rappel/WORKAREA/recall-rappel/templatedata/comn-comn/recall-rappel/data/20150826_1440623490618_fra"
    },
    "type_name": "recall-rappel",
    "parent_node_id": null,
    "layout_name": "content page 1 column",
    "breadcrumb": {
        "en": "Trader Joe's brand Dark Chocolate Covered Honey Grahams with Sea Salt recalled due to undeclared milk",
        "fr": "Rappel du produit « <span lang=\"en\">Dark Chocolate Covered Honey Grahams with Sea Salt</span> » de marque <span lang=\"en\">Trader Joe's</span> en raison de la présence non déclarée de lait"
    },
    "label": {
        "en": "Trader Joe's brand Dark Chocolate Covered Honey Grahams with Sea Salt recalled due to undeclared milk",
        "fr": "Rappel du produit « <span lang=\"en\">Dark Chocolate Covered Honey Grahams with Sea Salt</span> » de marque <span lang=\"en\">Trader Joe's</span> en raison de la présence non déclarée de lait"
    },
    "templatetype": "content page 1 column",
    "node_id": null,
    "managing_branch": "comn",
    "has_dcr_id": true,
    "lang": "en"
}