{
    "dcr_id": "1442936820009",
    "title": {
        "en": "<span lang=\"fr\">Les Soeurs en Vrac</span> brand Mustard Seeds recalled due to undeclared sesame seeds",
        "fr": "Rappel de Graines de moutarde de marque Les Soeurs en Vrac en raison de la présence non déclarée de graines de sésame"
    },
    "html_modified": "2015-09-22",
    "modified": "2015-09-22",
    "issued": "2015-09-22",
    "teamsite_location": {
        "en": "/default/main/inspection/cont-cont/recall-rappel/WORKAREA/recall-rappel/templatedata/comn-comn/recall-rappel/data/20150921_r10047_1442936820009_eng",
        "fr": "/default/main/inspection/cont-cont/recall-rappel/WORKAREA/recall-rappel/templatedata/comn-comn/recall-rappel/data/20150921_r10047_1442936820009_fra"
    },
    "type_name": "recall-rappel",
    "parent_node_id": null,
    "layout_name": "content page 1 column",
    "breadcrumb": {
        "en": "<span lang=\"fr\">Les Soeurs en Vrac</span> brand Mustard Seeds recalled due to undeclared sesame seeds",
        "fr": "Rappel de Graines de moutarde de marque Les Soeurs en Vrac en raison de la présence non déclarée de graines de sésame"
    },
    "label": {
        "en": "<span lang=\"fr\">Les Soeurs en Vrac</span> brand Mustard Seeds recalled due to undeclared sesame seeds",
        "fr": "Rappel de Graines de moutarde de marque Les Soeurs en Vrac en raison de la présence non déclarée de graines de sésame"
    },
    "templatetype": "content page 1 column",
    "node_id": null,
    "managing_branch": "comn",
    "has_dcr_id": true,
    "lang": "en"
}