{
    "dcr_id": "1445402333501",
    "title": {
        "en": "<span lang=\"vi\">RAU RĂM</span> (finger mint) and <span lang=\"vi\">NGÒ GAI</span> (culantro) may be unsafe due to <i lang=\"la\">Salmonella</i>",
        "fr": "Les herbes « <span lang=\"vi\">RAU RĂM</span> » (« <span lang=\"en\">finger mint</span> ») et « <span lang=\"vi\">NGÒ GAI</span> » (« <span lang=\"en\">culantro</span> »)  pourraient être dangereux en raison de la bactérie <i lang=\"la\">Salmonella</i>"
    },
    "html_modified": "2015-10-21",
    "modified": "2015-10-21",
    "issued": "2015-10-21",
    "teamsite_location": {
        "en": "/default/main/inspection/cont-cont/recall-rappel/WORKAREA/recall-rappel/templatedata/comn-comn/recall-rappel/data/20151020b_1445402333501_eng",
        "fr": "/default/main/inspection/cont-cont/recall-rappel/WORKAREA/recall-rappel/templatedata/comn-comn/recall-rappel/data/20151020b_1445402333501_fra"
    },
    "type_name": "recall-rappel",
    "parent_node_id": null,
    "layout_name": "content page 1 column",
    "breadcrumb": {
        "en": "<span lang=\"vi\">RAU RĂM</span> (finger mint) and <span lang=\"vi\">NGÒ GAI</span> (culantro) may be unsafe due to <i lang=\"la\">Salmonella</i>",
        "fr": "Les herbes « <span lang=\"vi\">RAU RĂM</span> » (« <span lang=\"en\">finger mint</span> ») et « <span lang=\"vi\">NGÒ GAI</span> » (« <span lang=\"en\">culantro</span> »)  pourraient être dangereux en raison de la bactérie <i lang=\"la\">Salmonella</i>"
    },
    "label": {
        "en": "<span lang=\"vi\">RAU RĂM</span> (finger mint) and <span lang=\"vi\">NGÒ GAI</span> (culantro) may be unsafe due to <i lang=\"la\">Salmonella</i>",
        "fr": "Les herbes « <span lang=\"vi\">RAU RĂM</span> » (« <span lang=\"en\">finger mint</span> ») et « <span lang=\"vi\">NGÒ GAI</span> » (« <span lang=\"en\">culantro</span> »)  pourraient être dangereux en raison de la bactérie <i lang=\"la\">Salmonella</i>"
    },
    "templatetype": "content page 1 column",
    "node_id": null,
    "managing_branch": "comn",
    "has_dcr_id": true,
    "lang": "en"
}