{
    "dcr_id": "1445469841072",
    "title": {
        "en": "GoGo squeeZ® brand Apple Grape and Apple Pear pouch products recalled due to mould",
        "fr": "Rappel de gourdes à saveurs pomme raisin et pomme poire de marque <span lang=\"en\">GoGo squeeZ®</span> en raison de la présence de moisissures"
    },
    "html_modified": "2015-10-21",
    "modified": "2015-10-21",
    "issued": "2015-10-21",
    "teamsite_location": {
        "en": "/default/main/inspection/cont-cont/recall-rappel/WORKAREA/recall-rappel/templatedata/comn-comn/recall-rappel/data/20151021_1445469841072_eng",
        "fr": "/default/main/inspection/cont-cont/recall-rappel/WORKAREA/recall-rappel/templatedata/comn-comn/recall-rappel/data/20151021_1445469841072_fra"
    },
    "type_name": "recall-rappel",
    "parent_node_id": null,
    "layout_name": "content page 1 column",
    "breadcrumb": {
        "en": "GoGo squeeZ® brand Apple Grape and Apple Pear pouch products recalled due to mould",
        "fr": "Rappel de gourdes à saveurs pomme raisin et pomme poire de marque <span lang=\"en\">GoGo squeeZ®</span> en raison de la présence de moisissures"
    },
    "label": {
        "en": "GoGo squeeZ® brand Apple Grape and Apple Pear pouch products recalled due to mould",
        "fr": "Rappel de gourdes à saveurs pomme raisin et pomme poire de marque <span lang=\"en\">GoGo squeeZ®</span> en raison de la présence de moisissures"
    },
    "templatetype": "content page 1 column",
    "node_id": null,
    "managing_branch": "comn",
    "has_dcr_id": true,
    "lang": "en"
}