{
    "dcr_id": "1448653998871",
    "title": {
        "en": "Wu Hsing and Chen Chen brand spice products recalled due to presence of gluten",
        "fr": "Rappel de produits d'épices de marque Wu Hsing et Chen Chen en raison de la présence de gluten"
    },
    "html_modified": "2015-11-27",
    "modified": "2015-11-27",
    "issued": "2015-11-27",
    "teamsite_location": {
        "en": "/default/main/inspection/cont-cont/recall-rappel/WORKAREA/recall-rappel/templatedata/comn-comn/recall-rappel/data/2015-11-26_r10188_1448653998871_eng",
        "fr": "/default/main/inspection/cont-cont/recall-rappel/WORKAREA/recall-rappel/templatedata/comn-comn/recall-rappel/data/2015-11-26_r10188_1448653998871_fra"
    },
    "type_name": "recall-rappel",
    "parent_node_id": null,
    "layout_name": "content page 1 column",
    "breadcrumb": {
        "en": "Wu Hsing and Chen Chen brand spice products recalled due to presence of gluten",
        "fr": "Rappel de produits d'épices de marque Wu Hsing et Chen Chen en raison de la présence de gluten"
    },
    "label": {
        "en": "Wu Hsing and Chen Chen brand spice products recalled due to presence of gluten",
        "fr": "Rappel de produits d'épices de marque Wu Hsing et Chen Chen en raison de la présence de gluten"
    },
    "templatetype": "content page 1 column",
    "node_id": null,
    "managing_branch": "comn",
    "has_dcr_id": true,
    "lang": "en"
}