{
    "dcr_id": "1448065506720",
    "title": {
        "en": "<abbr title=\"President's Choice\">PC</abbr> brand Triangoli Pumpkin Filled Egg Pasta recalled due to undeclared cashew",
        "fr": "Rappel de pâtes aux œufs triangoli farcies à la citrouille de marque <abbr lang=\"en\" title=\"President's Choice\">PC</abbr> en raison de la présence non déclarée de noix de cajou"
    },
    "html_modified": "2015-11-20",
    "modified": "2015-11-20",
    "issued": "2015-11-20",
    "teamsite_location": {
        "en": "/default/main/inspection/cont-cont/recall-rappel/WORKAREA/recall-rappel/templatedata/comn-comn/recall-rappel/data/20151120a_1448065506720_eng",
        "fr": "/default/main/inspection/cont-cont/recall-rappel/WORKAREA/recall-rappel/templatedata/comn-comn/recall-rappel/data/20151120a_1448065506720_fra"
    },
    "type_name": "recall-rappel",
    "parent_node_id": null,
    "layout_name": "content page 1 column",
    "breadcrumb": {
        "en": "<abbr title=\"President's Choice\">PC</abbr> brand Triangoli Pumpkin Filled Egg Pasta recalled due to undeclared cashew",
        "fr": "Rappel de pâtes aux œufs triangoli farcies à la citrouille de marque <abbr lang=\"en\" title=\"President's Choice\">PC</abbr> en raison de la présence non déclarée de noix de cajou"
    },
    "label": {
        "en": "<abbr title=\"President's Choice\">PC</abbr> brand Triangoli Pumpkin Filled Egg Pasta recalled due to undeclared cashew",
        "fr": "Rappel de pâtes aux œufs triangoli farcies à la citrouille de marque <abbr lang=\"en\" title=\"President's Choice\">PC</abbr> en raison de la présence non déclarée de noix de cajou"
    },
    "templatetype": "content page 1 column",
    "node_id": null,
    "managing_branch": "comn",
    "has_dcr_id": true,
    "lang": "en"
}