{
    "dcr_id": "1449259843544",
    "title": {
        "en": "Sysco Imperial brand Meat Variety Pack recalled due to undeclared milk and wheat",
        "fr": "Rappel d'Emballage variété de viandes de marque Sysco Impérial en raison de la présence non déclarée de lait et de blé"
    },
    "html_modified": "2015-12-04",
    "modified": "2015-12-04",
    "issued": "2015-12-04",
    "teamsite_location": {
        "en": "/default/main/inspection/cont-cont/recall-rappel/WORKAREA/recall-rappel/templatedata/comn-comn/recall-rappel/data/20151204_r10208_1449259843544_eng",
        "fr": "/default/main/inspection/cont-cont/recall-rappel/WORKAREA/recall-rappel/templatedata/comn-comn/recall-rappel/data/20151204_r10208_1449259843544_fra"
    },
    "type_name": "recall-rappel",
    "parent_node_id": null,
    "layout_name": "content page 1 column",
    "breadcrumb": {
        "en": "Sysco Imperial brand Meat Variety Pack recalled due to undeclared milk and wheat",
        "fr": "Rappel d'Emballage variété de viandes de marque Sysco Impérial en raison de la présence non déclarée de lait et de blé"
    },
    "label": {
        "en": "Sysco Imperial brand Meat Variety Pack recalled due to undeclared milk and wheat",
        "fr": "Rappel d'Emballage variété de viandes de marque Sysco Impérial en raison de la présence non déclarée de lait et de blé"
    },
    "templatetype": "content page 1 column",
    "node_id": null,
    "managing_branch": "comn",
    "has_dcr_id": true,
    "lang": "en"
}