{
    "dcr_id": "1449266782359",
    "title": {
        "en": "<abbr title=\"President's Choice\">PC</abbr> Organics brand Chickpeas recalled due to presence of insects",
        "fr": "Rappel de Pois chiches de marque <abbr lang=\"en\" title=\"President's Choice\">PC</abbr> Biologique en raison de la présence d'insectes"
    },
    "html_modified": "2015-12-04",
    "modified": "2015-12-04",
    "issued": "2015-12-04",
    "teamsite_location": {
        "en": "/default/main/inspection/cont-cont/recall-rappel/WORKAREA/recall-rappel/templatedata/comn-comn/recall-rappel/data/20151204_r10209_1449266782359_eng",
        "fr": "/default/main/inspection/cont-cont/recall-rappel/WORKAREA/recall-rappel/templatedata/comn-comn/recall-rappel/data/20151204_r10209_1449266782359_fra"
    },
    "type_name": "recall-rappel",
    "parent_node_id": null,
    "layout_name": "content page 1 column",
    "breadcrumb": {
        "en": "<abbr title=\"President's Choice\">PC</abbr> Organics brand Chickpeas recalled due to presence of insects",
        "fr": "Rappel de Pois chiches de marque <abbr lang=\"en\" title=\"President's Choice\">PC</abbr> Biologique en raison de la présence d'insectes"
    },
    "label": {
        "en": "<abbr title=\"President's Choice\">PC</abbr> Organics brand Chickpeas recalled due to presence of insects",
        "fr": "Rappel de Pois chiches de marque <abbr lang=\"en\" title=\"President's Choice\">PC</abbr> Biologique en raison de la présence d'insectes"
    },
    "templatetype": "content page 1 column",
    "node_id": null,
    "managing_branch": "comn",
    "has_dcr_id": true,
    "lang": "en"
}