{
    "dcr_id": "1450202162687",
    "title": {
        "en": "Marine Food brand Japanese Style Anchovy recalled due to presence of gluten",
        "fr": "Rappel de « Anchois de japanese » de marque <span lang=\"en\">Marine Food</span> en raison de la présence de gluten"
    },
    "html_modified": "2015-12-15",
    "modified": "2015-12-15",
    "issued": "2015-12-15",
    "teamsite_location": {
        "en": "/default/main/inspection/cont-cont/recall-rappel/WORKAREA/recall-rappel/templatedata/comn-comn/recall-rappel/data/20151211_r10233_1450202162687_eng",
        "fr": "/default/main/inspection/cont-cont/recall-rappel/WORKAREA/recall-rappel/templatedata/comn-comn/recall-rappel/data/20151211_r10233_1450202162687_fra"
    },
    "type_name": "recall-rappel",
    "parent_node_id": null,
    "layout_name": "content page 1 column",
    "breadcrumb": {
        "en": "Marine Food brand Japanese Style Anchovy recalled due to presence of gluten",
        "fr": "Rappel de « Anchois de japanese » de marque <span lang=\"en\">Marine Food</span> en raison de la présence de gluten"
    },
    "label": {
        "en": "Marine Food brand Japanese Style Anchovy recalled due to presence of gluten",
        "fr": "Rappel de « Anchois de japanese » de marque <span lang=\"en\">Marine Food</span> en raison de la présence de gluten"
    },
    "templatetype": "content page 1 column",
    "node_id": null,
    "managing_branch": "comn",
    "has_dcr_id": true,
    "lang": "en"
}