{
    "dcr_id": "1452111751289",
    "title": {
        "en": "Ovaltine brand All-in-One Ready Mixed Malt Choco Beverage recalled due to undeclared milk",
        "fr": "Rappel de « La boisson pulverisee de malt de choco » de marque Ovaltine en raison de la présence non déclarée de lait"
    },
    "html_modified": "2016-01-06",
    "modified": "2016-01-06",
    "issued": "2016-01-06",
    "teamsite_location": {
        "en": "/default/main/inspection/cont-cont/recall-rappel/WORKAREA/recall-rappel/templatedata/comn-comn/recall-rappel/data/20151221_r10288_1452111751289_eng",
        "fr": "/default/main/inspection/cont-cont/recall-rappel/WORKAREA/recall-rappel/templatedata/comn-comn/recall-rappel/data/20151221_r10288_1452111751289_fra"
    },
    "type_name": "recall-rappel",
    "parent_node_id": null,
    "layout_name": "content page 1 column",
    "breadcrumb": {
        "en": "Ovaltine brand All-in-One Ready Mixed Malt Choco Beverage recalled due to undeclared milk",
        "fr": "Rappel de « La boisson pulverisee de malt de choco » de marque Ovaltine en raison de la présence non déclarée de lait"
    },
    "label": {
        "en": "Ovaltine brand All-in-One Ready Mixed Malt Choco Beverage recalled due to undeclared milk",
        "fr": "Rappel de « La boisson pulverisee de malt de choco » de marque Ovaltine en raison de la présence non déclarée de lait"
    },
    "templatetype": "content page 1 column",
    "node_id": null,
    "managing_branch": "comn",
    "has_dcr_id": true,
    "lang": "en"
}