{
    "dcr_id": "1452792866678",
    "title": {
        "en": "Certain seafood products recalled due to undeclared egg",
        "fr": "Rappel de certains produits de la mer en raison de la présence non déclarée d'œufs"
    },
    "html_modified": "2016-01-14",
    "modified": "2016-01-14",
    "issued": "2016-01-14",
    "teamsite_location": {
        "en": "/default/main/inspection/cont-cont/recall-rappel/WORKAREA/recall-rappel/templatedata/comn-comn/recall-rappel/data/20160114_1452792866678_eng",
        "fr": "/default/main/inspection/cont-cont/recall-rappel/WORKAREA/recall-rappel/templatedata/comn-comn/recall-rappel/data/20160114_1452792866678_fra"
    },
    "type_name": "recall-rappel",
    "parent_node_id": null,
    "layout_name": "content page 1 column",
    "breadcrumb": {
        "en": "Certain seafood products recalled due to undeclared egg",
        "fr": "Rappel de certains produits de la mer en raison de la présence non déclarée d'œufs"
    },
    "label": {
        "en": "Certain seafood products recalled due to undeclared egg",
        "fr": "Rappel de certains produits de la mer en raison de la présence non déclarée d'œufs"
    },
    "templatetype": "content page 1 column",
    "node_id": null,
    "managing_branch": "comn",
    "has_dcr_id": true,
    "lang": "en"
}