{
    "dcr_id": "1452903865418",
    "title": {
        "en": "Hai Pa Wang brand Frozen Fish Dumpling recalled due to undeclared egg and wheat",
        "fr": "Rappel de « Boulette de poisson congelé » de marque Hai Pa Wang en raison de la présence non déclarée d'œufs et de blé"
    },
    "html_modified": "2016-01-15",
    "modified": "2016-01-15",
    "issued": "2016-01-15",
    "teamsite_location": {
        "en": "/default/main/inspection/cont-cont/recall-rappel/WORKAREA/recall-rappel/templatedata/comn-comn/recall-rappel/data/20160115_1452903865418_eng",
        "fr": "/default/main/inspection/cont-cont/recall-rappel/WORKAREA/recall-rappel/templatedata/comn-comn/recall-rappel/data/20160115_1452903865418_fra"
    },
    "type_name": "recall-rappel",
    "parent_node_id": null,
    "layout_name": "content page 1 column",
    "breadcrumb": {
        "en": "Hai Pa Wang brand Frozen Fish Dumpling recalled due to undeclared egg and wheat",
        "fr": "Rappel de « Boulette de poisson congelé » de marque Hai Pa Wang en raison de la présence non déclarée d'œufs et de blé"
    },
    "label": {
        "en": "Hai Pa Wang brand Frozen Fish Dumpling recalled due to undeclared egg and wheat",
        "fr": "Rappel de « Boulette de poisson congelé » de marque Hai Pa Wang en raison de la présence non déclarée d'œufs et de blé"
    },
    "templatetype": "content page 1 column",
    "node_id": null,
    "managing_branch": "comn",
    "has_dcr_id": true,
    "lang": "en"
}