{
    "dcr_id": "1452913093728",
    "title": {
        "en": "Uncle Bill brand Spicy Crispy Anchovies with Sesame",
        "fr": "Rappel de « Anchois croustillant épicés au sésame » de marque <span lang=\"en\">Uncle Bill</span> en raison de la présence non déclarée de gluten"
    },
    "html_modified": "2016-01-19",
    "modified": "2016-01-19",
    "issued": "2016-01-15",
    "teamsite_location": {
        "en": "/default/main/inspection/cont-cont/recall-rappel/WORKAREA/recall-rappel/templatedata/comn-comn/recall-rappel/data/20151203_r10242_1452913093728_eng",
        "fr": "/default/main/inspection/cont-cont/recall-rappel/WORKAREA/recall-rappel/templatedata/comn-comn/recall-rappel/data/20151203_r10242_1452913093728_fra"
    },
    "type_name": "recall-rappel",
    "parent_node_id": null,
    "layout_name": "content page 1 column",
    "breadcrumb": {
        "en": "Uncle Bill brand Spicy Crispy Anchovies with Sesame",
        "fr": "Rappel de « Anchois croustillant épicés au sésame » de marque <span lang=\"en\">Uncle Bill</span> en raison de la présence non déclarée de gluten"
    },
    "label": {
        "en": "Uncle Bill brand Spicy Crispy Anchovies with Sesame",
        "fr": "Rappel de « Anchois croustillant épicés au sésame » de marque <span lang=\"en\">Uncle Bill</span> en raison de la présence non déclarée de gluten"
    },
    "templatetype": "content page 1 column",
    "node_id": null,
    "managing_branch": "comn",
    "has_dcr_id": true,
    "lang": "en"
}