{
    "dcr_id": "1452092938063",
    "title": {
        "en": "Bonavista Foods, <abbr title=\"Incorporated\">Inc.</abbr> brand Cured Pork Fatback Salt Added recalled",
        "fr": "Rappel de Gras de dos de porc salé sel ajouté de marque <span lang=\"en\">Bonavista Foods, <abbr title=\"Incorporated\">Inc.</abbr></span>"
    },
    "html_modified": "2016-01-06",
    "modified": "2016-01-06",
    "issued": "2016-01-06",
    "teamsite_location": {
        "en": "/default/main/inspection/cont-cont/recall-rappel/WORKAREA/recall-rappel/templatedata/comn-comn/recall-rappel/data/20160105_r10273_1452092938063_eng",
        "fr": "/default/main/inspection/cont-cont/recall-rappel/WORKAREA/recall-rappel/templatedata/comn-comn/recall-rappel/data/20160105_r10273_1452092938063_fra"
    },
    "type_name": "recall-rappel",
    "parent_node_id": null,
    "layout_name": "content page 1 column",
    "breadcrumb": {
        "en": "Bonavista Foods, <abbr title=\"Incorporated\">Inc.</abbr> brand Cured Pork Fatback Salt Added recalled",
        "fr": "Rappel de Gras de dos de porc salé sel ajouté de marque <span lang=\"en\">Bonavista Foods, <abbr title=\"Incorporated\">Inc.</abbr></span>"
    },
    "label": {
        "en": "Bonavista Foods, <abbr title=\"Incorporated\">Inc.</abbr> brand Cured Pork Fatback Salt Added recalled",
        "fr": "Rappel de Gras de dos de porc salé sel ajouté de marque <span lang=\"en\">Bonavista Foods, <abbr title=\"Incorporated\">Inc.</abbr></span>"
    },
    "templatetype": "content page 1 column",
    "node_id": null,
    "managing_branch": "comn",
    "has_dcr_id": true,
    "lang": "en"
}