{
    "dcr_id": "1452204082022",
    "title": {
        "en": "<span lang=\"zh\">Ying Xiang</span> brand frozen seafood products recalled due to undeclared egg",
        "fr": "Rappel de produits de la mer congelés de marque <span lang=\"zh\">Ying Xiang</span> en raison de la présence non déclarée d'œufs"
    },
    "html_modified": "2016-01-07",
    "modified": "2016-01-07",
    "issued": "2016-01-07",
    "teamsite_location": {
        "en": "/default/main/inspection/cont-cont/recall-rappel/WORKAREA/recall-rappel/templatedata/comn-comn/recall-rappel/data/20160107_1452204082022_eng",
        "fr": "/default/main/inspection/cont-cont/recall-rappel/WORKAREA/recall-rappel/templatedata/comn-comn/recall-rappel/data/20160107_1452204082022_fra"
    },
    "type_name": "recall-rappel",
    "parent_node_id": null,
    "layout_name": "content page 1 column",
    "breadcrumb": {
        "en": "<span lang=\"zh\">Ying Xiang</span> brand frozen seafood products recalled due to undeclared egg",
        "fr": "Rappel de produits de la mer congelés de marque <span lang=\"zh\">Ying Xiang</span> en raison de la présence non déclarée d'œufs"
    },
    "label": {
        "en": "<span lang=\"zh\">Ying Xiang</span> brand frozen seafood products recalled due to undeclared egg",
        "fr": "Rappel de produits de la mer congelés de marque <span lang=\"zh\">Ying Xiang</span> en raison de la présence non déclarée d'œufs"
    },
    "templatetype": "content page 1 column",
    "node_id": null,
    "managing_branch": "comn",
    "has_dcr_id": true,
    "lang": "en"
}