{
    "dcr_id": "1458150652276",
    "title": {
        "en": "Dry blends recalled by ED Foods <abbr title=\"Incorporated\">Inc.</abbr> due to pieces of metal",
        "fr": "Rappel de mélanges sec par Aliments ED <abbr title=\"Incorporé\">Inc.</abbr> en raison de la présence de morceaux de métal"
    },
    "html_modified": "2016-03-21",
    "modified": "2016-03-16",
    "issued": "2016-03-16",
    "teamsite_location": {
        "en": "/default/main/inspection/cont-cont/recall-rappel/WORKAREA/recall-rappel/templatedata/comn-comn/recall-rappel/data/20160309_r10418_1458150652276_eng",
        "fr": "/default/main/inspection/cont-cont/recall-rappel/WORKAREA/recall-rappel/templatedata/comn-comn/recall-rappel/data/20160309_r10418_1458150652276_fra"
    },
    "type_name": "recall-rappel",
    "parent_node_id": null,
    "layout_name": "content page 1 column",
    "breadcrumb": {
        "en": "Dry blends recalled by ED Foods <abbr title=\"Incorporated\">Inc.</abbr> due to pieces of metal",
        "fr": "Rappel de mélanges sec par Aliments ED <abbr title=\"Incorporé\">Inc.</abbr> en raison de la présence de morceaux de métal"
    },
    "label": {
        "en": "Dry blends recalled by ED Foods <abbr title=\"Incorporated\">Inc.</abbr> due to pieces of metal",
        "fr": "Rappel de mélanges sec par Aliments ED <abbr title=\"Incorporé\">Inc.</abbr> en raison de la présence de morceaux de métal"
    },
    "templatetype": "content page 1 column",
    "node_id": null,
    "managing_branch": "comn",
    "has_dcr_id": true,
    "lang": "en"
}