{
    "dcr_id": "1461872620263",
    "title": {
        "en": "Wang Korea brand fish sausage products recalled due to undeclared egg",
        "fr": "Rappel de saucisses de poisson de marque <span lang=\"en\">Wang Korea</span> en raison de la présence non déclarée d'œufs"
    },
    "html_modified": "2016-04-28",
    "modified": "2016-04-28",
    "issued": "2016-04-28",
    "teamsite_location": {
        "en": "/default/main/inspection/cont-cont/recall-rappel/WORKAREA/recall-rappel/templatedata/comn-comn/recall-rappel/data/20160428_1461872620263_eng",
        "fr": "/default/main/inspection/cont-cont/recall-rappel/WORKAREA/recall-rappel/templatedata/comn-comn/recall-rappel/data/20160428_1461872620263_fra"
    },
    "type_name": "recall-rappel",
    "parent_node_id": null,
    "layout_name": "content page 1 column",
    "breadcrumb": {
        "en": "Wang Korea brand fish sausage products recalled due to undeclared egg",
        "fr": "Rappel de saucisses de poisson de marque <span lang=\"en\">Wang Korea</span> en raison de la présence non déclarée d'œufs"
    },
    "label": {
        "en": "Wang Korea brand fish sausage products recalled due to undeclared egg",
        "fr": "Rappel de saucisses de poisson de marque <span lang=\"en\">Wang Korea</span> en raison de la présence non déclarée d'œufs"
    },
    "templatetype": "content page 1 column",
    "node_id": null,
    "managing_branch": "comn",
    "has_dcr_id": true,
    "lang": "en"
}