{
    "dcr_id": "1464186709137",
    "title": {
        "en": "Sun Med brand Greek Oregano Flakes recalled due to presence of twigs and pebbles",
        "fr": "Rappel d'Origan grecque en flocons de marque <span lang=\"en\">Sun Med</span> en raison de la présence de brindilles et de pierres"
    },
    "html_modified": "2016-05-25",
    "modified": "2016-05-25",
    "issued": "2016-05-25",
    "teamsite_location": {
        "en": "/default/main/inspection/cont-cont/recall-rappel/WORKAREA/recall-rappel/templatedata/comn-comn/recall-rappel/data/20160520_r10574_1464186709137_eng",
        "fr": "/default/main/inspection/cont-cont/recall-rappel/WORKAREA/recall-rappel/templatedata/comn-comn/recall-rappel/data/20160520_r10574_1464186709137_fra"
    },
    "type_name": "recall-rappel",
    "parent_node_id": null,
    "layout_name": "content page 1 column",
    "breadcrumb": {
        "en": "Sun Med brand Greek Oregano Flakes recalled due to presence of twigs and pebbles",
        "fr": "Rappel d'Origan grecque en flocons de marque <span lang=\"en\">Sun Med</span> en raison de la présence de brindilles et de pierres"
    },
    "label": {
        "en": "Sun Med brand Greek Oregano Flakes recalled due to presence of twigs and pebbles",
        "fr": "Rappel d'Origan grecque en flocons de marque <span lang=\"en\">Sun Med</span> en raison de la présence de brindilles et de pierres"
    },
    "templatetype": "content page 1 column",
    "node_id": null,
    "managing_branch": "comn",
    "has_dcr_id": true,
    "lang": "en"
}