{
    "dcr_id": "1465238786499",
    "title": {
        "en": "Alive &amp; Radiant brand Organic Kale Krunch Superfood recalled due to undeclared sunflower seeds",
        "fr": "Rappel de « <span lang=\"en\">Organic Kale Krunch Superfood</span> » de marque <span lang=\"en\">Alive &amp; Radiant</span> en raison de la présence non déclarée de graines de tournesol"
    },
    "html_modified": "2016-06-06",
    "modified": "2016-06-06",
    "issued": "2016-06-06",
    "teamsite_location": {
        "en": "/default/main/inspection/cont-cont/recall-rappel/WORKAREA/recall-rappel/templatedata/comn-comn/recall-rappel/data/20160603_r10641_1465238786499_eng",
        "fr": "/default/main/inspection/cont-cont/recall-rappel/WORKAREA/recall-rappel/templatedata/comn-comn/recall-rappel/data/20160603_r10641_1465238786499_fra"
    },
    "type_name": "recall-rappel",
    "parent_node_id": null,
    "layout_name": "content page 1 column",
    "breadcrumb": {
        "en": "Alive &amp; Radiant brand Organic Kale Krunch Superfood recalled due to undeclared sunflower seeds",
        "fr": "Rappel de « <span lang=\"en\">Organic Kale Krunch Superfood</span> » de marque <span lang=\"en\">Alive &amp; Radiant</span> en raison de la présence non déclarée de graines de tournesol"
    },
    "label": {
        "en": "Alive &amp; Radiant brand Organic Kale Krunch Superfood recalled due to undeclared sunflower seeds",
        "fr": "Rappel de « <span lang=\"en\">Organic Kale Krunch Superfood</span> » de marque <span lang=\"en\">Alive &amp; Radiant</span> en raison de la présence non déclarée de graines de tournesol"
    },
    "templatetype": "content page 1 column",
    "node_id": null,
    "managing_branch": "comn",
    "has_dcr_id": true,
    "lang": "en"
}