{
    "dcr_id": "1465019472917",
    "title": {
        "en": "Neilson brand Partly Skimmed Chocolate Milk recalled due to <i lang=\"la\">Listeria monocytogenes</i>",
        "fr": "Rappel de lait au chocolat partiellement écrémé de marque Neilson en raison de la bactérie <i lang=\"la\">Listeria monocytogenes</i>"
    },
    "html_modified": "2016-06-04",
    "modified": "2016-06-04",
    "issued": "2016-06-04",
    "teamsite_location": {
        "en": "/default/main/inspection/cont-cont/recall-rappel/WORKAREA/recall-rappel/templatedata/comn-comn/recall-rappel/data/20160603d_1465019472917_eng",
        "fr": "/default/main/inspection/cont-cont/recall-rappel/WORKAREA/recall-rappel/templatedata/comn-comn/recall-rappel/data/20160603d_1465019472917_fra"
    },
    "type_name": "recall-rappel",
    "parent_node_id": null,
    "layout_name": "content page 1 column",
    "breadcrumb": {
        "en": "Neilson brand Partly Skimmed Chocolate Milk recalled due to <i lang=\"la\">Listeria monocytogenes</i>",
        "fr": "Rappel de lait au chocolat partiellement écrémé de marque Neilson en raison de la bactérie <i lang=\"la\">Listeria monocytogenes</i>"
    },
    "label": {
        "en": "Neilson brand Partly Skimmed Chocolate Milk recalled due to <i lang=\"la\">Listeria monocytogenes</i>",
        "fr": "Rappel de lait au chocolat partiellement écrémé de marque Neilson en raison de la bactérie <i lang=\"la\">Listeria monocytogenes</i>"
    },
    "templatetype": "content page 1 column",
    "node_id": null,
    "managing_branch": "comn",
    "has_dcr_id": true,
    "lang": "en"
}