{
    "dcr_id": "1466530520739",
    "title": {
        "en": "Lakeview Bakery brand \"Chicken Pot Pie - Gluten, Dairy and Egg Free\" and \"Veggie Pot Pie - Gluten, Dairy and Egg Free\" recalled due to undeclared soy",
        "fr": "Rappel de « <span lang=\"en\">Chicken Pot Pie - Gluten, Dairy and Egg Free</span> » et « <span lang=\"en\">Veggie Pot Pie - Gluten, Dairy and Egg Free</span> » de marque <span lang=\"en\">Lakeview Bakery</span> en raison de la présence de soja"
    },
    "html_modified": "2016-06-21",
    "modified": "2016-06-21",
    "issued": "2016-06-21",
    "teamsite_location": {
        "en": "/default/main/inspection/cont-cont/recall-rappel/WORKAREA/recall-rappel/templatedata/comn-comn/recall-rappel/data/20160617_r10673_1466530520739_eng",
        "fr": "/default/main/inspection/cont-cont/recall-rappel/WORKAREA/recall-rappel/templatedata/comn-comn/recall-rappel/data/20160617_r10673_1466530520739_fra"
    },
    "type_name": "recall-rappel",
    "parent_node_id": null,
    "layout_name": "content page 1 column",
    "breadcrumb": {
        "en": "Lakeview Bakery brand \"Chicken Pot Pie - Gluten, Dairy and Egg Free\" and \"Veggie Pot Pie - Gluten, Dairy and Egg Free\" recalled due to undeclared soy",
        "fr": "Rappel de « <span lang=\"en\">Chicken Pot Pie - Gluten, Dairy and Egg Free</span> » et « <span lang=\"en\">Veggie Pot Pie - Gluten, Dairy and Egg Free</span> » de marque <span lang=\"en\">Lakeview Bakery</span> en raison de la présence de soja"
    },
    "label": {
        "en": "Lakeview Bakery brand \"Chicken Pot Pie - Gluten, Dairy and Egg Free\" and \"Veggie Pot Pie - Gluten, Dairy and Egg Free\" recalled due to undeclared soy",
        "fr": "Rappel de « <span lang=\"en\">Chicken Pot Pie - Gluten, Dairy and Egg Free</span> » et « <span lang=\"en\">Veggie Pot Pie - Gluten, Dairy and Egg Free</span> » de marque <span lang=\"en\">Lakeview Bakery</span> en raison de la présence de soja"
    },
    "templatetype": "content page 1 column",
    "node_id": null,
    "managing_branch": "comn",
    "has_dcr_id": true,
    "lang": "en"
}