{
    "dcr_id": "1468939376224",
    "title": {
        "en": "Casablanca brand Pure Honey recalled due to presence of <span lang=\"la\">ciprofloxacin</span>",
        "fr": "Rappel de Miel pur de marque <span lang=\"en\">Casablanca</span> en raison de la présence de <span lang=\"la\">ciprofloxacine</span>"
    },
    "html_modified": "2016-07-20",
    "modified": "2016-07-19",
    "issued": "2016-07-19",
    "teamsite_location": {
        "en": "/default/main/inspection/cont-cont/recall-rappel/WORKAREA/recall-rappel/templatedata/comn-comn/recall-rappel/data/20160714_r10779_1468939376224_eng",
        "fr": "/default/main/inspection/cont-cont/recall-rappel/WORKAREA/recall-rappel/templatedata/comn-comn/recall-rappel/data/20160714_r10779_1468939376224_fra"
    },
    "type_name": "recall-rappel",
    "parent_node_id": null,
    "layout_name": "content page 1 column",
    "breadcrumb": {
        "en": "Casablanca brand Pure Honey recalled due to presence of <span lang=\"la\">ciprofloxacin</span>",
        "fr": "Rappel de Miel pur de marque <span lang=\"en\">Casablanca</span> en raison de la présence de <span lang=\"la\">ciprofloxacine</span>"
    },
    "label": {
        "en": "Casablanca brand Pure Honey recalled due to presence of <span lang=\"la\">ciprofloxacin</span>",
        "fr": "Rappel de Miel pur de marque <span lang=\"en\">Casablanca</span> en raison de la présence de <span lang=\"la\">ciprofloxacine</span>"
    },
    "templatetype": "content page 1 column",
    "node_id": null,
    "managing_branch": "comn",
    "has_dcr_id": true,
    "lang": "en"
}