{
    "dcr_id": "1470757398835",
    "title": {
        "en": "President's Choice brand Tellicherry Black Peppercorns recalled due to pieces of plastic",
        "fr": "Rappel de Grains poivre noir de tellicherry de marque Le Choix du Président en raison de la présence de morceaux de plastique"
    },
    "html_modified": "2016-08-11",
    "modified": "2016-08-09",
    "issued": "2016-08-09",
    "teamsite_location": {
        "en": "/default/main/inspection/cont-cont/recall-rappel/WORKAREA/recall-rappel/templatedata/comn-comn/recall-rappel/data/20160805_r10824_1470757398835_eng",
        "fr": "/default/main/inspection/cont-cont/recall-rappel/WORKAREA/recall-rappel/templatedata/comn-comn/recall-rappel/data/20160805_r10824_1470757398835_fra"
    },
    "type_name": "recall-rappel",
    "parent_node_id": null,
    "layout_name": "content page 1 column",
    "breadcrumb": {
        "en": "President's Choice brand Tellicherry Black Peppercorns recalled due to pieces of plastic",
        "fr": "Rappel de Grains poivre noir de tellicherry de marque Le Choix du Président en raison de la présence de morceaux de plastique"
    },
    "label": {
        "en": "President's Choice brand Tellicherry Black Peppercorns recalled due to pieces of plastic",
        "fr": "Rappel de Grains poivre noir de tellicherry de marque Le Choix du Président en raison de la présence de morceaux de plastique"
    },
    "templatetype": "content page 1 column",
    "node_id": null,
    "managing_branch": "comn",
    "has_dcr_id": true,
    "lang": "en"
}