{
    "dcr_id": "1472838356250",
    "title": {
        "en": "Cantata brand Caramel Macchiato recalled due to undeclared milk",
        "fr": "Rappel de « <span lang=\"en\">Caramel Macchiato</span> » de marque Cantata en raison de la présence non déclarée de lait"
    },
    "html_modified": "2016-09-02",
    "modified": "2016-09-02",
    "issued": "2016-09-02",
    "teamsite_location": {
        "en": "/default/main/inspection/cont-cont/recall-rappel/WORKAREA/recall-rappel/templatedata/comn-comn/recall-rappel/data/20160901_r10860_1472838356250_eng",
        "fr": "/default/main/inspection/cont-cont/recall-rappel/WORKAREA/recall-rappel/templatedata/comn-comn/recall-rappel/data/20160901_r10860_1472838356250_fra"
    },
    "type_name": "recall-rappel",
    "parent_node_id": null,
    "layout_name": "content page 1 column",
    "breadcrumb": {
        "en": "Cantata brand Caramel Macchiato recalled due to undeclared milk",
        "fr": "Rappel de « <span lang=\"en\">Caramel Macchiato</span> » de marque Cantata en raison de la présence non déclarée de lait"
    },
    "label": {
        "en": "Cantata brand Caramel Macchiato recalled due to undeclared milk",
        "fr": "Rappel de « <span lang=\"en\">Caramel Macchiato</span> » de marque Cantata en raison de la présence non déclarée de lait"
    },
    "templatetype": "content page 1 column",
    "node_id": null,
    "managing_branch": "comn",
    "has_dcr_id": true,
    "lang": "en"
}