{
    "dcr_id": "1474050213293",
    "title": {
        "en": "Korean seasoned soybean paste products recalled due to undeclared peanut",
        "fr": "Rappel de produits coréens de pâte de soja assaisonnée en raison de la présence non déclarée d'arachides"
    },
    "html_modified": "2016-09-16",
    "modified": "2016-09-16",
    "issued": "2016-09-16",
    "teamsite_location": {
        "en": "/default/main/inspection/cont-cont/recall-rappel/WORKAREA/recall-rappel/templatedata/comn-comn/recall-rappel/data/20160916_1474050213293_eng",
        "fr": "/default/main/inspection/cont-cont/recall-rappel/WORKAREA/recall-rappel/templatedata/comn-comn/recall-rappel/data/20160916_1474050213293_fra"
    },
    "type_name": "recall-rappel",
    "parent_node_id": null,
    "layout_name": "content page 1 column",
    "breadcrumb": {
        "en": "Korean seasoned soybean paste products recalled due to undeclared peanut",
        "fr": "Rappel de produits coréens de pâte de soja assaisonnée en raison de la présence non déclarée d'arachides"
    },
    "label": {
        "en": "Korean seasoned soybean paste products recalled due to undeclared peanut",
        "fr": "Rappel de produits coréens de pâte de soja assaisonnée en raison de la présence non déclarée d'arachides"
    },
    "templatetype": "content page 1 column",
    "node_id": null,
    "managing_branch": "comn",
    "has_dcr_id": true,
    "lang": "en"
}