{
    "dcr_id": "1475780805051",
    "title": {
        "en": "Daïa brand and Marzougui brand Deglet Nour Dates recalled due to insect infestation",
        "fr": "Rappel de Dattes Deglet Nour de marque Daïa et de marque Marzougui en raison d'une infestation d'insectes"
    },
    "html_modified": "2016-10-12",
    "modified": "2016-10-06",
    "issued": "2016-10-06",
    "teamsite_location": {
        "en": "/default/main/inspection/cont-cont/recall-rappel/WORKAREA/recall-rappel/templatedata/comn-comn/recall-rappel/data/20160929_r10912_1475780805051_eng",
        "fr": "/default/main/inspection/cont-cont/recall-rappel/WORKAREA/recall-rappel/templatedata/comn-comn/recall-rappel/data/20160929_r10912_1475780805051_fra"
    },
    "type_name": "recall-rappel",
    "parent_node_id": null,
    "layout_name": "content page 1 column",
    "breadcrumb": {
        "en": "Daïa brand and Marzougui brand Deglet Nour Dates recalled due to insect infestation",
        "fr": "Rappel de Dattes Deglet Nour de marque Daïa et de marque Marzougui en raison d'une infestation d'insectes"
    },
    "label": {
        "en": "Daïa brand and Marzougui brand Deglet Nour Dates recalled due to insect infestation",
        "fr": "Rappel de Dattes Deglet Nour de marque Daïa et de marque Marzougui en raison d'une infestation d'insectes"
    },
    "templatetype": "content page 1 column",
    "node_id": null,
    "managing_branch": "comn",
    "has_dcr_id": true,
    "lang": "en"
}