{
    "dcr_id": "1478015971241",
    "title": {
        "en": "Algerian Dates recalled by Amira Enterprises <abbr title='Incorporated'>Inc.</abbr> due to insect infestation",
        "fr": "Rappel de Dattes d'Algérie par Les Entreprises Amira <abbr title='Incorporé'>Inc.</abbr> en raison d'une infestation d'insectes"
    },
    "html_modified": "2016-11-03",
    "modified": "2016-11-01",
    "issued": "2016-11-01",
    "teamsite_location": {
        "en": "/default/main/inspection/cont-cont/recall-rappel/WORKAREA/recall-rappel/templatedata/comn-comn/recall-rappel/data/20161025_r10960_1478015971241_eng",
        "fr": "/default/main/inspection/cont-cont/recall-rappel/WORKAREA/recall-rappel/templatedata/comn-comn/recall-rappel/data/20161025_r10960_1478015971241_fra"
    },
    "type_name": "recall-rappel",
    "parent_node_id": null,
    "layout_name": "content page 1 column",
    "breadcrumb": {
        "en": "Algerian Dates recalled by Amira Enterprises <abbr title='Incorporated'>Inc.</abbr> due to insect infestation",
        "fr": "Rappel de Dattes d'Algérie par Les Entreprises Amira <abbr title='Incorporé'>Inc.</abbr> en raison d'une infestation d'insectes"
    },
    "label": {
        "en": "Algerian Dates recalled by Amira Enterprises <abbr title='Incorporated'>Inc.</abbr> due to insect infestation",
        "fr": "Rappel de Dattes d'Algérie par Les Entreprises Amira <abbr title='Incorporé'>Inc.</abbr> en raison d'une infestation d'insectes"
    },
    "templatetype": "content page 1 column",
    "node_id": null,
    "managing_branch": "comn",
    "has_dcr_id": true,
    "lang": "en"
}