{
    "dcr_id": "1478534826741",
    "title": {
        "en": "MDH brand Curry masala for Butter Chicken recalled due to undeclared mustard",
        "fr": "Rappel de Préparation pour plat de poulet en sauce de marque MDH en raison de la présence non déclarée de moutarde"
    },
    "html_modified": "2016-11-07",
    "modified": "2016-11-07",
    "issued": "2016-11-07",
    "teamsite_location": {
        "en": "/default/main/inspection/cont-cont/recall-rappel/WORKAREA/recall-rappel/templatedata/comn-comn/recall-rappel/data/20161101_r10983_1478534826741_eng",
        "fr": "/default/main/inspection/cont-cont/recall-rappel/WORKAREA/recall-rappel/templatedata/comn-comn/recall-rappel/data/20161101_r10983_1478534826741_fra"
    },
    "type_name": "recall-rappel",
    "parent_node_id": null,
    "layout_name": "content page 1 column",
    "breadcrumb": {
        "en": "MDH brand Curry masala for Butter Chicken recalled due to undeclared mustard",
        "fr": "Rappel de Préparation pour plat de poulet en sauce de marque MDH en raison de la présence non déclarée de moutarde"
    },
    "label": {
        "en": "MDH brand Curry masala for Butter Chicken recalled due to undeclared mustard",
        "fr": "Rappel de Préparation pour plat de poulet en sauce de marque MDH en raison de la présence non déclarée de moutarde"
    },
    "templatetype": "content page 1 column",
    "node_id": null,
    "managing_branch": "comn",
    "has_dcr_id": true,
    "lang": "en"
}