{
    "dcr_id": "1478742744660",
    "title": {
        "en": "Ran-Cher Acres brand Goat Cheese recalled due to <i lang=\"la\">Salmonella</i>",
        "fr": "Rappel de fromage de chèvre de marque <span lang=\"en\">Ran-Cher Acres</span> en raison de la bactérie <i lang=\"la\">Salmonella</i>"
    },
    "html_modified": "2016-11-09",
    "modified": "2016-11-09",
    "issued": "2016-11-09",
    "teamsite_location": {
        "en": "/default/main/inspection/cont-cont/recall-rappel/WORKAREA/recall-rappel/templatedata/comn-comn/recall-rappel/data/20161109_1478742744660_eng",
        "fr": "/default/main/inspection/cont-cont/recall-rappel/WORKAREA/recall-rappel/templatedata/comn-comn/recall-rappel/data/20161109_1478742744660_fra"
    },
    "type_name": "recall-rappel",
    "parent_node_id": null,
    "layout_name": "content page 1 column",
    "breadcrumb": {
        "en": "Ran-Cher Acres brand Goat Cheese recalled due to <i lang=\"la\">Salmonella</i>",
        "fr": "Rappel de fromage de chèvre de marque <span lang=\"en\">Ran-Cher Acres</span> en raison de la bactérie <i lang=\"la\">Salmonella</i>"
    },
    "label": {
        "en": "Ran-Cher Acres brand Goat Cheese recalled due to <i lang=\"la\">Salmonella</i>",
        "fr": "Rappel de fromage de chèvre de marque <span lang=\"en\">Ran-Cher Acres</span> en raison de la bactérie <i lang=\"la\">Salmonella</i>"
    },
    "templatetype": "content page 1 column",
    "node_id": null,
    "managing_branch": "comn",
    "has_dcr_id": true,
    "lang": "en"
}