{
    "dcr_id": "1479486981848",
    "title": {
        "en": "Nona brand Alfredo-Style - Rich + Creamy Vegan Sauces recalled due to pieces of metal",
        "fr": "Rappel de « <span lang=\"en\">Alfredo-Style</span> - Sauces riches + crémeuses » de marque Nona en raison de la présence de morceaux de métal"
    },
    "html_modified": "2016-11-18",
    "modified": "2016-11-18",
    "issued": "2016-11-18",
    "teamsite_location": {
        "en": "/default/main/inspection/cont-cont/recall-rappel/WORKAREA/recall-rappel/templatedata/comn-comn/recall-rappel/data/20161116_r11029_1479486981848_eng",
        "fr": "/default/main/inspection/cont-cont/recall-rappel/WORKAREA/recall-rappel/templatedata/comn-comn/recall-rappel/data/20161116_r11029_1479486981848_fra"
    },
    "type_name": "recall-rappel",
    "parent_node_id": null,
    "layout_name": "content page 1 column",
    "breadcrumb": {
        "en": "Nona brand Alfredo-Style - Rich + Creamy Vegan Sauces recalled due to pieces of metal",
        "fr": "Rappel de « <span lang=\"en\">Alfredo-Style</span> - Sauces riches + crémeuses » de marque Nona en raison de la présence de morceaux de métal"
    },
    "label": {
        "en": "Nona brand Alfredo-Style - Rich + Creamy Vegan Sauces recalled due to pieces of metal",
        "fr": "Rappel de « <span lang=\"en\">Alfredo-Style</span> - Sauces riches + crémeuses » de marque Nona en raison de la présence de morceaux de métal"
    },
    "templatetype": "content page 1 column",
    "node_id": null,
    "managing_branch": "comn",
    "has_dcr_id": true,
    "lang": "en"
}