{
    "dcr_id": "1480606475399",
    "title": {
        "en": "Coconut Town brand Coconut Cream Powder recalled due to undeclared milk",
        "fr": "Rappel de La crème de coco en poudre de marque <span lang=\"en\">Coconut Town</span> en raison de la présence non déclarée de lait"
    },
    "html_modified": "2016-12-01",
    "modified": "2016-12-01",
    "issued": "2016-12-01",
    "teamsite_location": {
        "en": "/default/main/inspection/cont-cont/recall-rappel/WORKAREA/recall-rappel/templatedata/comn-comn/recall-rappel/data/20161129_r11048_1480606475399_eng",
        "fr": "/default/main/inspection/cont-cont/recall-rappel/WORKAREA/recall-rappel/templatedata/comn-comn/recall-rappel/data/20161129_r11048_1480606475399_fra"
    },
    "type_name": "recall-rappel",
    "parent_node_id": null,
    "layout_name": "content page 1 column",
    "breadcrumb": {
        "en": "Coconut Town brand Coconut Cream Powder recalled due to undeclared milk",
        "fr": "Rappel de La crème de coco en poudre de marque <span lang=\"en\">Coconut Town</span> en raison de la présence non déclarée de lait"
    },
    "label": {
        "en": "Coconut Town brand Coconut Cream Powder recalled due to undeclared milk",
        "fr": "Rappel de La crème de coco en poudre de marque <span lang=\"en\">Coconut Town</span> en raison de la présence non déclarée de lait"
    },
    "templatetype": "content page 1 column",
    "node_id": null,
    "managing_branch": "comn",
    "has_dcr_id": true,
    "lang": "en"
}