{
    "dcr_id": "1480621212923",
    "title": {
        "en": "Eden Organic Pasta Company brand and Sobaya brand pasta products recalled due to presence of insects",
        "fr": "Rappel de produits de pâtes de marque <span lang=\"en\">Eden Organic Pasta Company</span> et de marque <span lang=\"en\">Sobaya</span> en raison de la présence d'insectes"
    },
    "html_modified": "2016-12-05",
    "modified": "2016-12-01",
    "issued": "2016-12-01",
    "teamsite_location": {
        "en": "/default/main/inspection/cont-cont/recall-rappel/WORKAREA/recall-rappel/templatedata/comn-comn/recall-rappel/data/20161125_r11046_1480621212923_eng",
        "fr": "/default/main/inspection/cont-cont/recall-rappel/WORKAREA/recall-rappel/templatedata/comn-comn/recall-rappel/data/20161125_r11046_1480621212923_fra"
    },
    "type_name": "recall-rappel",
    "parent_node_id": null,
    "layout_name": "content page 1 column",
    "breadcrumb": {
        "en": "Eden Organic Pasta Company brand and Sobaya brand pasta products recalled due to presence of insects",
        "fr": "Rappel de produits de pâtes de marque <span lang=\"en\">Eden Organic Pasta Company</span> et de marque <span lang=\"en\">Sobaya</span> en raison de la présence d'insectes"
    },
    "label": {
        "en": "Eden Organic Pasta Company brand and Sobaya brand pasta products recalled due to presence of insects",
        "fr": "Rappel de produits de pâtes de marque <span lang=\"en\">Eden Organic Pasta Company</span> et de marque <span lang=\"en\">Sobaya</span> en raison de la présence d'insectes"
    },
    "templatetype": "content page 1 column",
    "node_id": null,
    "managing_branch": "comn",
    "has_dcr_id": true,
    "lang": "en"
}