{
    "dcr_id": "1481742721549",
    "title": {
        "en": "Food Recall Warning Duncan Hines brand Apple Caramel Cake Mix recalled due to <i lang=\"la\">Salmonella</i>",
        "fr": "Rappel de Mélange à gâteau pommes et caramel de marque <span lang=\"en\">Duncan Hines</span> en raison de la bactérie <i lang=\"la\">Salmonella</i>"
    },
    "html_modified": "2016-12-14",
    "modified": "2016-12-14",
    "issued": "2016-12-14",
    "teamsite_location": {
        "en": "/default/main/inspection/cont-cont/recall-rappel/WORKAREA/recall-rappel/templatedata/comn-comn/recall-rappel/data/20161214_1481742721549_eng",
        "fr": "/default/main/inspection/cont-cont/recall-rappel/WORKAREA/recall-rappel/templatedata/comn-comn/recall-rappel/data/20161214_1481742721549_fra"
    },
    "type_name": "recall-rappel",
    "parent_node_id": null,
    "layout_name": "content page 1 column",
    "breadcrumb": {
        "en": "Food Recall Warning Duncan Hines brand Apple Caramel Cake Mix recalled due to <i lang=\"la\">Salmonella</i>",
        "fr": "Rappel de Mélange à gâteau pommes et caramel de marque <span lang=\"en\">Duncan Hines</span> en raison de la bactérie <i lang=\"la\">Salmonella</i>"
    },
    "label": {
        "en": "Food Recall Warning Duncan Hines brand Apple Caramel Cake Mix recalled due to <i lang=\"la\">Salmonella</i>",
        "fr": "Rappel de Mélange à gâteau pommes et caramel de marque <span lang=\"en\">Duncan Hines</span> en raison de la bactérie <i lang=\"la\">Salmonella</i>"
    },
    "templatetype": "content page 1 column",
    "node_id": null,
    "managing_branch": "comn",
    "has_dcr_id": true,
    "lang": "en"
}