{
    "dcr_id": "1481931074887",
    "title": {
        "en": "Lenny and Larry's The Complete Cookie brand chocolate chip cookies recalled due to undeclared milk",
        "fr": "Rappel de biscuits aux pépites de chocolat de marque <span lang=\"en\">Lenny and Larry's The Complete Cookie</span> en raison de la présence non déclarée de lait"
    },
    "html_modified": "2016-12-16",
    "modified": "2016-12-30",
    "issued": "2016-12-16",
    "teamsite_location": {
        "en": "/default/main/inspection/cont-cont/recall-rappel/WORKAREA/recall-rappel/templatedata/comn-comn/recall-rappel/data/20161216_1481931074887_eng",
        "fr": "/default/main/inspection/cont-cont/recall-rappel/WORKAREA/recall-rappel/templatedata/comn-comn/recall-rappel/data/20161216_1481931074887_fra"
    },
    "type_name": "recall-rappel",
    "parent_node_id": null,
    "layout_name": "content page 1 column",
    "breadcrumb": {
        "en": "Lenny and Larry's The Complete Cookie brand chocolate chip cookies recalled due to undeclared milk",
        "fr": "Rappel de biscuits aux pépites de chocolat de marque <span lang=\"en\">Lenny and Larry's The Complete Cookie</span> en raison de la présence non déclarée de lait"
    },
    "label": {
        "en": "Lenny and Larry's The Complete Cookie brand chocolate chip cookies recalled due to undeclared milk",
        "fr": "Rappel de biscuits aux pépites de chocolat de marque <span lang=\"en\">Lenny and Larry's The Complete Cookie</span> en raison de la présence non déclarée de lait"
    },
    "templatetype": "content page 1 column",
    "node_id": null,
    "managing_branch": "comn",
    "has_dcr_id": true,
    "lang": "en"
}