{
    "dcr_id": "1485458994625",
    "title": {
        "en": "Thorntons brand Jolly Santa - Chocolaty Candy Santa recalled due to pieces of plastic",
        "fr": "Rappel de « Confiserie de chocolaté de père Noël » de marque Thorntons en raison de la présence de morceaux de plastique"
    },
    "html_modified": "2017-01-31",
    "modified": "2017-01-26",
    "issued": "2017-01-26",
    "teamsite_location": {
        "en": "/default/main/inspection/cont-cont/recall-rappel/WORKAREA/recall-rappel/templatedata/comn-comn/recall-rappel/data/20170124_r11154_1485458994625_eng",
        "fr": "/default/main/inspection/cont-cont/recall-rappel/WORKAREA/recall-rappel/templatedata/comn-comn/recall-rappel/data/20170124_r11154_1485458994625_fra"
    },
    "type_name": "recall-rappel",
    "parent_node_id": null,
    "layout_name": "content page 1 column",
    "breadcrumb": {
        "en": "Thorntons brand Jolly Santa - Chocolaty Candy Santa recalled due to pieces of plastic",
        "fr": "Rappel de « Confiserie de chocolaté de père Noël » de marque Thorntons en raison de la présence de morceaux de plastique"
    },
    "label": {
        "en": "Thorntons brand Jolly Santa - Chocolaty Candy Santa recalled due to pieces of plastic",
        "fr": "Rappel de « Confiserie de chocolaté de père Noël » de marque Thorntons en raison de la présence de morceaux de plastique"
    },
    "templatetype": "content page 1 column",
    "node_id": null,
    "managing_branch": "comn",
    "has_dcr_id": true,
    "lang": "en"
}