{
    "dcr_id": "1486052239035",
    "title": {
        "en": "E&amp;B brand Ginger Powder recalled due to undeclared gluten",
        "fr": "Rappel de Poudre de gingembre de marque E&amp;B en raison de la présence non déclarée de gluten"
    },
    "html_modified": "2017-02-02",
    "modified": "2017-02-02",
    "issued": "2017-02-02",
    "teamsite_location": {
        "en": "/default/main/inspection/cont-cont/recall-rappel/WORKAREA/recall-rappel/templatedata/comn-comn/recall-rappel/data/20170201_r11170_1486052239035_eng",
        "fr": "/default/main/inspection/cont-cont/recall-rappel/WORKAREA/recall-rappel/templatedata/comn-comn/recall-rappel/data/20170201_r11170_1486052239035_fra"
    },
    "type_name": "recall-rappel",
    "parent_node_id": null,
    "layout_name": "content page 1 column",
    "breadcrumb": {
        "en": "E&amp;B brand Ginger Powder recalled due to undeclared gluten",
        "fr": "Rappel de Poudre de gingembre de marque E&amp;B en raison de la présence non déclarée de gluten"
    },
    "label": {
        "en": "E&amp;B brand Ginger Powder recalled due to undeclared gluten",
        "fr": "Rappel de Poudre de gingembre de marque E&amp;B en raison de la présence non déclarée de gluten"
    },
    "templatetype": "content page 1 column",
    "node_id": null,
    "managing_branch": "comn",
    "has_dcr_id": true,
    "lang": "en"
}