{
    "dcr_id": "1488848700912",
    "title": {
        "en": "Hampton House brand Chicken Strips recalled due to possible harmful bacteria",
        "fr": "Rappel de lanières de poulet de marque <span lang=\"en\">Hampton House</span> en raison de la présence possible de bactéries dangereuses"
    },
    "html_modified": "2017-03-06",
    "modified": "2017-03-06",
    "issued": "2017-03-06",
    "teamsite_location": {
        "en": "/default/main/inspection/cont-cont/recall-rappel/WORKAREA/recall-rappel/templatedata/comn-comn/recall-rappel/data/20170306_1488848700912_eng",
        "fr": "/default/main/inspection/cont-cont/recall-rappel/WORKAREA/recall-rappel/templatedata/comn-comn/recall-rappel/data/20170306_1488848700912_fra"
    },
    "type_name": "recall-rappel",
    "parent_node_id": null,
    "layout_name": "content page 1 column",
    "breadcrumb": {
        "en": "Hampton House brand Chicken Strips recalled due to possible harmful bacteria",
        "fr": "Rappel de lanières de poulet de marque <span lang=\"en\">Hampton House</span> en raison de la présence possible de bactéries dangereuses"
    },
    "label": {
        "en": "Hampton House brand Chicken Strips recalled due to possible harmful bacteria",
        "fr": "Rappel de lanières de poulet de marque <span lang=\"en\">Hampton House</span> en raison de la présence possible de bactéries dangereuses"
    },
    "templatetype": "content page 1 column",
    "node_id": null,
    "managing_branch": "comn",
    "has_dcr_id": true,
    "lang": "en"
}