{
    "dcr_id": "1490231383488",
    "title": {
        "en": "Booby Boons brand Lactation Cookies – Chocolate Chip recalled due to undeclared peanut",
        "fr": "Rappel de « <span lang=\"en\">Lactation Cookies</span> – Pépites au chocolat » de marque <span lang=\"en\">Booby Boons</span> en raison de la présence non déclarée d'arachides"
    },
    "html_modified": "2017-03-22",
    "modified": "2017-03-22",
    "issued": "2017-03-22",
    "teamsite_location": {
        "en": "/default/main/inspection/cont-cont/recall-rappel/WORKAREA/recall-rappel/templatedata/comn-comn/recall-rappel/data/20170322_1490231383488_eng",
        "fr": "/default/main/inspection/cont-cont/recall-rappel/WORKAREA/recall-rappel/templatedata/comn-comn/recall-rappel/data/20170322_1490231383488_fra"
    },
    "type_name": "recall-rappel",
    "parent_node_id": null,
    "layout_name": "content page 1 column",
    "breadcrumb": {
        "en": "Booby Boons brand Lactation Cookies – Chocolate Chip recalled due to undeclared peanut",
        "fr": "Rappel de « <span lang=\"en\">Lactation Cookies</span> – Pépites au chocolat » de marque <span lang=\"en\">Booby Boons</span> en raison de la présence non déclarée d'arachides"
    },
    "label": {
        "en": "Booby Boons brand Lactation Cookies – Chocolate Chip recalled due to undeclared peanut",
        "fr": "Rappel de « <span lang=\"en\">Lactation Cookies</span> – Pépites au chocolat » de marque <span lang=\"en\">Booby Boons</span> en raison de la présence non déclarée d'arachides"
    },
    "templatetype": "content page 1 column",
    "node_id": null,
    "managing_branch": "comn",
    "has_dcr_id": true,
    "lang": "en"
}