{
    "dcr_id": "1493056391184",
    "title": {
        "en": "Goumas brand Kalamata String Figs recalled due to presence of insects",
        "fr": "Rappel de Figues sur cordes de marque Goumas en raison de la présence d'insectes"
    },
    "html_modified": "2017-04-27",
    "modified": "2017-04-24",
    "issued": "2017-04-24",
    "teamsite_location": {
        "en": "/default/main/inspection/cont-cont/recall-rappel/WORKAREA/recall-rappel/templatedata/comn-comn/recall-rappel/data/20170421_r11337_1493056391184_eng",
        "fr": "/default/main/inspection/cont-cont/recall-rappel/WORKAREA/recall-rappel/templatedata/comn-comn/recall-rappel/data/20170421_r11337_1493056391184_fra"
    },
    "type_name": "recall-rappel",
    "parent_node_id": null,
    "layout_name": "content page 1 column",
    "breadcrumb": {
        "en": "Goumas brand Kalamata String Figs recalled due to presence of insects",
        "fr": "Rappel de Figues sur cordes de marque Goumas en raison de la présence d'insectes"
    },
    "label": {
        "en": "Goumas brand Kalamata String Figs recalled due to presence of insects",
        "fr": "Rappel de Figues sur cordes de marque Goumas en raison de la présence d'insectes"
    },
    "templatetype": "content page 1 column",
    "node_id": null,
    "managing_branch": "comn",
    "has_dcr_id": true,
    "lang": "en"
}