{
    "dcr_id": "1494559224747",
    "title": {
        "en": "Tiny Tummies brand Scarlett's Sweet Beets Blend Baby Food recalled due to the potential presence of whole pits or pit pieces",
        "fr": "Rappel de nourriture pour bébé « <span lang=\"en\">Scarlett's Sweet Beets Blend</span> » de marque <span lang=\"en\">Tiny Tummies</span> en raison de la présence possible de noyaux ou morceaux de noyaux"
    },
    "html_modified": "2017-05-11",
    "modified": "2017-05-11",
    "issued": "2017-05-11",
    "teamsite_location": {
        "en": "/default/main/inspection/cont-cont/recall-rappel/WORKAREA/recall-rappel/templatedata/comn-comn/recall-rappel/data/20170511d_1494559224747_eng",
        "fr": "/default/main/inspection/cont-cont/recall-rappel/WORKAREA/recall-rappel/templatedata/comn-comn/recall-rappel/data/20170511d_1494559224747_fra"
    },
    "type_name": "recall-rappel",
    "parent_node_id": null,
    "layout_name": "content page 1 column",
    "breadcrumb": {
        "en": "Tiny Tummies brand Scarlett's Sweet Beets Blend Baby Food recalled due to the potential presence of whole pits or pit pieces",
        "fr": "Rappel de nourriture pour bébé « <span lang=\"en\">Scarlett's Sweet Beets Blend</span> » de marque <span lang=\"en\">Tiny Tummies</span> en raison de la présence possible de noyaux ou morceaux de noyaux"
    },
    "label": {
        "en": "Tiny Tummies brand Scarlett's Sweet Beets Blend Baby Food recalled due to the potential presence of whole pits or pit pieces",
        "fr": "Rappel de nourriture pour bébé « <span lang=\"en\">Scarlett's Sweet Beets Blend</span> » de marque <span lang=\"en\">Tiny Tummies</span> en raison de la présence possible de noyaux ou morceaux de noyaux"
    },
    "templatetype": "content page 1 column",
    "node_id": null,
    "managing_branch": "comn",
    "has_dcr_id": true,
    "lang": "en"
}