{
    "dcr_id": "1496429597629",
    "title": {
        "en": "Various brands of flour and flour products recalled due to <i lang=\"la\"><abbr title=\"Escherichia\">E.</abbr> coli</i> O121",
        "fr": "Rappel de diverses marques de farines et de produits à base de farine en raison de la bactérie <i lang=\"la\"><abbr title=\"Escherichia\">E.</abbr> coli</i> O121"
    },
    "html_modified": "2017-06-02",
    "modified": "2017-06-02",
    "issued": "2017-06-02",
    "teamsite_location": {
        "en": "/default/main/inspection/cont-cont/recall-rappel/WORKAREA/recall-rappel/templatedata/comn-comn/recall-rappel/data/20170602_r11434_1496429597629_eng",
        "fr": "/default/main/inspection/cont-cont/recall-rappel/WORKAREA/recall-rappel/templatedata/comn-comn/recall-rappel/data/20170602_r11434_1496429597629_fra"
    },
    "type_name": "recall-rappel",
    "parent_node_id": null,
    "layout_name": "content page 1 column",
    "breadcrumb": {
        "en": "Various brands of flour and flour products recalled due to <i lang=\"la\"><abbr title=\"Escherichia\">E.</abbr> coli</i> O121",
        "fr": "Rappel de diverses marques de farines et de produits à base de farine en raison de la bactérie <i lang=\"la\"><abbr title=\"Escherichia\">E.</abbr> coli</i> O121"
    },
    "label": {
        "en": "Various brands of flour and flour products recalled due to <i lang=\"la\"><abbr title=\"Escherichia\">E.</abbr> coli</i> O121",
        "fr": "Rappel de diverses marques de farines et de produits à base de farine en raison de la bactérie <i lang=\"la\"><abbr title=\"Escherichia\">E.</abbr> coli</i> O121"
    },
    "templatetype": "content page 1 column",
    "node_id": null,
    "managing_branch": "comn",
    "has_dcr_id": true,
    "lang": "en"
}