{
    "dcr_id": "1498835660918",
    "title": {
        "en": "Casbah brand Couscous - Wild Forest Mushroom recalled due to presence of insects",
        "fr": "Rappel de couscous aux champignons de la forêt sauvage de marque Casbah en raison de la présence d'insectes"
    },
    "html_modified": "2017-07-06",
    "modified": "2017-06-30",
    "issued": "2017-06-30",
    "teamsite_location": {
        "en": "/default/main/inspection/cont-cont/recall-rappel/WORKAREA/recall-rappel/templatedata/comn-comn/recall-rappel/data/20170629_r11543_1498835660918_eng",
        "fr": "/default/main/inspection/cont-cont/recall-rappel/WORKAREA/recall-rappel/templatedata/comn-comn/recall-rappel/data/20170629_r11543_1498835660918_fra"
    },
    "type_name": "recall-rappel",
    "parent_node_id": null,
    "layout_name": "content page 1 column",
    "breadcrumb": {
        "en": "Casbah brand Couscous - Wild Forest Mushroom recalled due to presence of insects",
        "fr": "Rappel de couscous aux champignons de la forêt sauvage de marque Casbah en raison de la présence d'insectes"
    },
    "label": {
        "en": "Casbah brand Couscous - Wild Forest Mushroom recalled due to presence of insects",
        "fr": "Rappel de couscous aux champignons de la forêt sauvage de marque Casbah en raison de la présence d'insectes"
    },
    "templatetype": "content page 1 column",
    "node_id": null,
    "managing_branch": "comn",
    "has_dcr_id": true,
    "lang": "en"
}