{
    "dcr_id": "1502773432227",
    "title": {
        "en": "Assi brand Puffed Cereal Cookies recalled due to undeclared wheat ",
        "fr": "Rappel de Biscuits de cereales soufflees de marque Assi en raison de la présence non déclarée de blé"
    },
    "html_modified": "2017-08-15",
    "modified": "2017-08-15",
    "issued": "2017-08-15",
    "teamsite_location": {
        "en": "/default/main/inspection/cont-cont/recall-rappel/WORKAREA/recall-rappel/templatedata/comn-comn/recall-rappel/data/20170812_r11651_1502773432227_eng",
        "fr": "/default/main/inspection/cont-cont/recall-rappel/WORKAREA/recall-rappel/templatedata/comn-comn/recall-rappel/data/20170812_r11651_1502773432227_fra"
    },
    "type_name": "recall-rappel",
    "parent_node_id": null,
    "layout_name": "content page 1 column",
    "breadcrumb": {
        "en": "Assi brand Puffed Cereal Cookies recalled due to undeclared wheat ",
        "fr": "Rappel de Biscuits de cereales soufflees de marque Assi en raison de la présence non déclarée de blé"
    },
    "label": {
        "en": "Assi brand Puffed Cereal Cookies recalled due to undeclared wheat ",
        "fr": "Rappel de Biscuits de cereales soufflees de marque Assi en raison de la présence non déclarée de blé"
    },
    "templatetype": "content page 1 column",
    "node_id": null,
    "managing_branch": "comn",
    "has_dcr_id": true,
    "lang": "en"
}