{
    "dcr_id": "1502721653857",
    "title": {
        "en": "Sawmill Bay Shellfish Company <abbr title='Limited'>Ltd.</abbr> brand Aquacultured Pacific Oysters recalled due to <i lang=\"la\">Vibrio parahaemolyticus</i>",
        "fr": "Rappel de « <span lang=\"en\">Aquacultured Pacific Oysters</span> » de marque <span lang=\"en\">Sawmill Bay Shellfish Company <abbr title='Limited'>Ltd.</abbr></span> en raison de la présence de <i lang=\"la\">Vibrio parahaemolyticus</i>"
    },
    "html_modified": "2017-08-17",
    "modified": "2017-08-24",
    "issued": "2017-08-14",
    "teamsite_location": {
        "en": "/default/main/inspection/cont-cont/recall-rappel/WORKAREA/recall-rappel/templatedata/comn-comn/recall-rappel/data/20170808_r11636_1502721653857_eng",
        "fr": "/default/main/inspection/cont-cont/recall-rappel/WORKAREA/recall-rappel/templatedata/comn-comn/recall-rappel/data/20170808_r11636_1502721653857_fra"
    },
    "type_name": "recall-rappel",
    "parent_node_id": null,
    "layout_name": "content page 1 column",
    "breadcrumb": {
        "en": "Sawmill Bay Shellfish Company <abbr title='Limited'>Ltd.</abbr> brand Aquacultured Pacific Oysters recalled due to <i lang=\"la\">Vibrio parahaemolyticus</i>",
        "fr": "Rappel de « <span lang=\"en\">Aquacultured Pacific Oysters</span> » de marque <span lang=\"en\">Sawmill Bay Shellfish Company <abbr title='Limited'>Ltd.</abbr></span> en raison de la présence de <i lang=\"la\">Vibrio parahaemolyticus</i>"
    },
    "label": {
        "en": "Sawmill Bay Shellfish Company <abbr title='Limited'>Ltd.</abbr> brand Aquacultured Pacific Oysters recalled due to <i lang=\"la\">Vibrio parahaemolyticus</i>",
        "fr": "Rappel de « <span lang=\"en\">Aquacultured Pacific Oysters</span> » de marque <span lang=\"en\">Sawmill Bay Shellfish Company <abbr title='Limited'>Ltd.</abbr></span> en raison de la présence de <i lang=\"la\">Vibrio parahaemolyticus</i>"
    },
    "templatetype": "content page 1 column",
    "node_id": null,
    "managing_branch": "comn",
    "has_dcr_id": true,
    "lang": "en"
}