{
    "dcr_id": "1503349392339",
    "title": {
        "en": "Ngoma brand Palm Oil recalled due to Sudan <abbr title=\"4\">IV</abbr>",
        "fr": "Rappel d'huile de palme de marque Ngoma en raison de la présence de Sudan <abbr title=\"4\">IV</abbr>"
    },
    "html_modified": "2017-08-22",
    "modified": "2017-08-21",
    "issued": "2017-08-21",
    "teamsite_location": {
        "en": "/default/main/inspection/cont-cont/recall-rappel/WORKAREA/recall-rappel/templatedata/comn-comn/recall-rappel/data/20170817_r11619_1503349392339_eng",
        "fr": "/default/main/inspection/cont-cont/recall-rappel/WORKAREA/recall-rappel/templatedata/comn-comn/recall-rappel/data/20170817_r11619_1503349392339_fra"
    },
    "type_name": "recall-rappel",
    "parent_node_id": null,
    "layout_name": "content page 1 column",
    "breadcrumb": {
        "en": "Ngoma brand Palm Oil recalled due to Sudan <abbr title=\"4\">IV</abbr>",
        "fr": "Rappel d'huile de palme de marque Ngoma en raison de la présence de Sudan <abbr title=\"4\">IV</abbr>"
    },
    "label": {
        "en": "Ngoma brand Palm Oil recalled due to Sudan <abbr title=\"4\">IV</abbr>",
        "fr": "Rappel d'huile de palme de marque Ngoma en raison de la présence de Sudan <abbr title=\"4\">IV</abbr>"
    },
    "templatetype": "content page 1 column",
    "node_id": null,
    "managing_branch": "comn",
    "has_dcr_id": true,
    "lang": "en"
}