{
    "dcr_id": "1503102514263",
    "title": {
        "en": "Lucky 7 brand 2 in 1 Instant Black Coffee recalled due to undeclared milk",
        "fr": "Rappel de <span lang=\"en\">« 2  in 1 Instant Black Coffee »</span> de marque <span lang=\"en\">Lucky 7</span> en raison de la présence non  déclarée de lait"
    },
    "html_modified": "2017-08-18",
    "modified": "2017-08-18",
    "issued": "2017-08-18",
    "teamsite_location": {
        "en": "/default/main/inspection/cont-cont/recall-rappel/WORKAREA/recall-rappel/templatedata/comn-comn/recall-rappel/data/20170818_1503102514263_eng",
        "fr": "/default/main/inspection/cont-cont/recall-rappel/WORKAREA/recall-rappel/templatedata/comn-comn/recall-rappel/data/20170818_1503102514263_fra"
    },
    "type_name": "recall-rappel",
    "parent_node_id": null,
    "layout_name": "content page 1 column",
    "breadcrumb": {
        "en": "Lucky 7 brand 2 in 1 Instant Black Coffee recalled due to undeclared milk",
        "fr": "Rappel de <span lang=\"en\">« 2  in 1 Instant Black Coffee »</span> de marque <span lang=\"en\">Lucky 7</span> en raison de la présence non  déclarée de lait"
    },
    "label": {
        "en": "Lucky 7 brand 2 in 1 Instant Black Coffee recalled due to undeclared milk",
        "fr": "Rappel de <span lang=\"en\">« 2  in 1 Instant Black Coffee »</span> de marque <span lang=\"en\">Lucky 7</span> en raison de la présence non  déclarée de lait"
    },
    "templatetype": "content page 1 column",
    "node_id": null,
    "managing_branch": "comn",
    "has_dcr_id": true,
    "lang": "en"
}