{
    "dcr_id": "1503517929627",
    "title": {
        "en": "Western Family brand Cranberry Chipotle Spread recalled due to mould",
        "fr": "Rappel de tartinade aux canneberges et aux chipotle de marque Western Family en raison de la présence de moisissures"
    },
    "html_modified": "2017-08-24",
    "modified": "2017-08-24",
    "issued": "2017-08-23",
    "teamsite_location": {
        "en": "/default/main/inspection/cont-cont/recall-rappel/WORKAREA/recall-rappel/templatedata/comn-comn/recall-rappel/data/20170816_r11655_1503517929627_eng",
        "fr": "/default/main/inspection/cont-cont/recall-rappel/WORKAREA/recall-rappel/templatedata/comn-comn/recall-rappel/data/20170816_r11655_1503517929627_fra"
    },
    "type_name": "recall-rappel",
    "parent_node_id": null,
    "layout_name": "content page 1 column",
    "breadcrumb": {
        "en": "Western Family brand Cranberry Chipotle Spread recalled due to mould",
        "fr": "Rappel de tartinade aux canneberges et aux chipotle de marque Western Family en raison de la présence de moisissures"
    },
    "label": {
        "en": "Western Family brand Cranberry Chipotle Spread recalled due to mould",
        "fr": "Rappel de tartinade aux canneberges et aux chipotle de marque Western Family en raison de la présence de moisissures"
    },
    "templatetype": "content page 1 column",
    "node_id": null,
    "managing_branch": "comn",
    "has_dcr_id": true,
    "lang": "en"
}