{
    "dcr_id": "1506986774298",
    "title": {
        "en": "Wolfgang Puck brand Creamy Butternut Squash Organic Soup recalled due to undeclared mustard",
        "fr": "Rappel de soupe biologique à la courge musquée crémeuse de marque <span lang=\"en\">Wolfgang Puck</span> en raison de la présence non déclarée de moutarde"
    },
    "html_modified": "2017-10-02",
    "modified": "2017-10-02",
    "issued": "2017-10-02",
    "teamsite_location": {
        "en": "/default/main/inspection/cont-cont/recall-rappel/WORKAREA/recall-rappel/templatedata/comn-comn/recall-rappel/data/20171002_1506986774298_eng",
        "fr": "/default/main/inspection/cont-cont/recall-rappel/WORKAREA/recall-rappel/templatedata/comn-comn/recall-rappel/data/20171002_1506986774298_fra"
    },
    "type_name": "recall-rappel",
    "parent_node_id": null,
    "layout_name": "content page 1 column",
    "breadcrumb": {
        "en": "Wolfgang Puck brand Creamy Butternut Squash Organic Soup recalled due to undeclared mustard",
        "fr": "Rappel de soupe biologique à la courge musquée crémeuse de marque <span lang=\"en\">Wolfgang Puck</span> en raison de la présence non déclarée de moutarde"
    },
    "label": {
        "en": "Wolfgang Puck brand Creamy Butternut Squash Organic Soup recalled due to undeclared mustard",
        "fr": "Rappel de soupe biologique à la courge musquée crémeuse de marque <span lang=\"en\">Wolfgang Puck</span> en raison de la présence non déclarée de moutarde"
    },
    "templatetype": "content page 1 column",
    "node_id": null,
    "managing_branch": "comn",
    "has_dcr_id": true,
    "lang": "en"
}