{
    "dcr_id": "1506104433863",
    "title": {
        "en": "PTI brand Yellow Split Peas recalled due to presence of insects",
        "fr": "Rappel de pois fondues jaunes de marque PTI en raison de la présence d'insectes"
    },
    "html_modified": "2017-09-22",
    "modified": "2017-09-22",
    "issued": "2017-09-22",
    "teamsite_location": {
        "en": "/default/main/inspection/cont-cont/recall-rappel/WORKAREA/recall-rappel/templatedata/comn-comn/recall-rappel/data/20170911_r11708_1506104433863_eng",
        "fr": "/default/main/inspection/cont-cont/recall-rappel/WORKAREA/recall-rappel/templatedata/comn-comn/recall-rappel/data/20170911_r11708_1506104433863_fra"
    },
    "type_name": "recall-rappel",
    "parent_node_id": null,
    "layout_name": "content page 1 column",
    "breadcrumb": {
        "en": "PTI brand Yellow Split Peas recalled due to presence of insects",
        "fr": "Rappel de pois fondues jaunes de marque PTI en raison de la présence d'insectes"
    },
    "label": {
        "en": "PTI brand Yellow Split Peas recalled due to presence of insects",
        "fr": "Rappel de pois fondues jaunes de marque PTI en raison de la présence d'insectes"
    },
    "templatetype": "content page 1 column",
    "node_id": null,
    "managing_branch": "comn",
    "has_dcr_id": true,
    "lang": "en"
}