{
    "dcr_id": "1508283692898",
    "title": {
        "en": "Mechanically Tenderized Steak recalled due to <span lang=\"la\"><abbr title=\"Escherichia\">E.</abbr> coli</span> O157:H7",
        "fr": "Rappel de Bifteck attendri mécaniquement en raison de la bactérie <span lang=\"la\"><abbr title=\"Escherichia\">E.</abbr> coli</span> O157:H7"
    },
    "html_modified": "2017-10-17",
    "modified": "2017-10-17",
    "issued": "2017-10-17",
    "teamsite_location": {
        "en": "/default/main/inspection/cont-cont/recall-rappel/WORKAREA/recall-rappel/templatedata/comn-comn/recall-rappel/data/20171017_1508283692898_eng",
        "fr": "/default/main/inspection/cont-cont/recall-rappel/WORKAREA/recall-rappel/templatedata/comn-comn/recall-rappel/data/20171017_1508283692898_fra"
    },
    "type_name": "recall-rappel",
    "parent_node_id": null,
    "layout_name": "content page 1 column",
    "breadcrumb": {
        "en": "Mechanically Tenderized Steak recalled due to <span lang=\"la\"><abbr title=\"Escherichia\">E.</abbr> coli</span> O157:H7",
        "fr": "Rappel de Bifteck attendri mécaniquement en raison de la bactérie <span lang=\"la\"><abbr title=\"Escherichia\">E.</abbr> coli</span> O157:H7"
    },
    "label": {
        "en": "Mechanically Tenderized Steak recalled due to <span lang=\"la\"><abbr title=\"Escherichia\">E.</abbr> coli</span> O157:H7",
        "fr": "Rappel de Bifteck attendri mécaniquement en raison de la bactérie <span lang=\"la\"><abbr title=\"Escherichia\">E.</abbr> coli</span> O157:H7"
    },
    "templatetype": "content page 1 column",
    "node_id": null,
    "managing_branch": "comn",
    "has_dcr_id": true,
    "lang": "en"
}