{
    "dcr_id": "1508484131924",
    "title": {
        "en": "Various brands of vegetable products recalled due to <span lang=\"la\">Listeria monocytogenes</span>",
        "fr": "Rappel de produits de légumes de diverses marques en raison de la bactérie <span lang=\"la\">Listeria monocytogenes</span>"
    },
    "html_modified": "2017-10-20",
    "modified": "2017-10-20",
    "issued": "2017-10-20",
    "teamsite_location": {
        "en": "/default/main/inspection/cont-cont/recall-rappel/WORKAREA/recall-rappel/templatedata/comn-comn/recall-rappel/data/20171019c_1508484131924_eng",
        "fr": "/default/main/inspection/cont-cont/recall-rappel/WORKAREA/recall-rappel/templatedata/comn-comn/recall-rappel/data/20171019c_1508484131924_fra"
    },
    "type_name": "recall-rappel",
    "parent_node_id": null,
    "layout_name": "content page 1 column",
    "breadcrumb": {
        "en": "Various brands of vegetable products recalled due to <span lang=\"la\">Listeria monocytogenes</span>",
        "fr": "Rappel de produits de légumes de diverses marques en raison de la bactérie <span lang=\"la\">Listeria monocytogenes</span>"
    },
    "label": {
        "en": "Various brands of vegetable products recalled due to <span lang=\"la\">Listeria monocytogenes</span>",
        "fr": "Rappel de produits de légumes de diverses marques en raison de la bactérie <span lang=\"la\">Listeria monocytogenes</span>"
    },
    "templatetype": "content page 1 column",
    "node_id": null,
    "managing_branch": "comn",
    "has_dcr_id": true,
    "lang": "en"
}