{
    "dcr_id": "1510340179706",
    "title": {
        "en": "Earth Teaze brand Pure Peppermint Finest Herbal Tea Blend and Pure Chamomile Finest Herbal Tea Blend recalled due to presence of insects",
        "fr": "Rappel de « <span lang=\"en\">Pure Peppermint Finest Herbal Tea Blend</span> » et « <span lang=\"en\">Pure Chamomile Finest Herbal Tea Blend</span> » de marque <span lang=\"en\">Earth Teaze</span> en raison de la présence d'insectes"
    },
    "html_modified": "2017-11-10",
    "modified": "2017-11-10",
    "issued": "2017-11-10",
    "teamsite_location": {
        "en": "/default/main/inspection/cont-cont/recall-rappel/WORKAREA/recall-rappel/templatedata/comn-comn/recall-rappel/data/20171106_r11861_1510340179706_eng",
        "fr": "/default/main/inspection/cont-cont/recall-rappel/WORKAREA/recall-rappel/templatedata/comn-comn/recall-rappel/data/20171106_r11861_1510340179706_fra"
    },
    "type_name": "recall-rappel",
    "parent_node_id": null,
    "layout_name": "content page 1 column",
    "breadcrumb": {
        "en": "Earth Teaze brand Pure Peppermint Finest Herbal Tea Blend and Pure Chamomile Finest Herbal Tea Blend recalled due to presence of insects",
        "fr": "Rappel de « <span lang=\"en\">Pure Peppermint Finest Herbal Tea Blend</span> » et « <span lang=\"en\">Pure Chamomile Finest Herbal Tea Blend</span> » de marque <span lang=\"en\">Earth Teaze</span> en raison de la présence d'insectes"
    },
    "label": {
        "en": "Earth Teaze brand Pure Peppermint Finest Herbal Tea Blend and Pure Chamomile Finest Herbal Tea Blend recalled due to presence of insects",
        "fr": "Rappel de « <span lang=\"en\">Pure Peppermint Finest Herbal Tea Blend</span> » et « <span lang=\"en\">Pure Chamomile Finest Herbal Tea Blend</span> » de marque <span lang=\"en\">Earth Teaze</span> en raison de la présence d'insectes"
    },
    "templatetype": "content page 1 column",
    "node_id": null,
    "managing_branch": "comn",
    "has_dcr_id": true,
    "lang": "en"
}