{
    "dcr_id": "1510338497479",
    "title": {
        "en": "Christie brand Honey Teddy Grahams recalled due to rancidity",
        "fr": "Rappel de P'tits oursons miel de marque Christie car ils sonts rances"
    },
    "html_modified": "2017-11-14",
    "modified": "2017-11-10",
    "issued": "2017-11-10",
    "teamsite_location": {
        "en": "/default/main/inspection/cont-cont/recall-rappel/WORKAREA/recall-rappel/templatedata/comn-comn/recall-rappel/data/20171103_r11811_1510338497479_eng",
        "fr": "/default/main/inspection/cont-cont/recall-rappel/WORKAREA/recall-rappel/templatedata/comn-comn/recall-rappel/data/20171103_r11811_1510338497479_fra"
    },
    "type_name": "recall-rappel",
    "parent_node_id": null,
    "layout_name": "content page 1 column",
    "breadcrumb": {
        "en": "Christie brand Honey Teddy Grahams recalled due to rancidity",
        "fr": "Rappel de P'tits oursons miel de marque Christie car ils sonts rances"
    },
    "label": {
        "en": "Christie brand Honey Teddy Grahams recalled due to rancidity",
        "fr": "Rappel de P'tits oursons miel de marque Christie car ils sonts rances"
    },
    "templatetype": "content page 1 column",
    "node_id": null,
    "managing_branch": "comn",
    "has_dcr_id": true,
    "lang": "en"
}