{
    "dcr_id": "1513023490663",
    "title": {
        "en": "Wang Zhong Wan brand Fishball with Meat recalled due to undeclared egg",
        "fr": "Rappel de boulettes de poisson et porc de marque Wang Zhong Wan en raison de la présence non déclarée d'œufs"
    },
    "html_modified": "2017-12-12",
    "modified": "2017-12-11",
    "issued": "2017-12-11",
    "teamsite_location": {
        "en": "/default/main/inspection/cont-cont/recall-rappel/WORKAREA/recall-rappel/templatedata/comn-comn/recall-rappel/data/20171211_r11917_1513023490663_eng",
        "fr": "/default/main/inspection/cont-cont/recall-rappel/WORKAREA/recall-rappel/templatedata/comn-comn/recall-rappel/data/20171211_r11917_1513023490663_fra"
    },
    "type_name": "recall-rappel",
    "parent_node_id": null,
    "layout_name": "content page 1 column",
    "breadcrumb": {
        "en": "Wang Zhong Wan brand Fishball with Meat recalled due to undeclared egg",
        "fr": "Rappel de boulettes de poisson et porc de marque Wang Zhong Wan en raison de la présence non déclarée d'œufs"
    },
    "label": {
        "en": "Wang Zhong Wan brand Fishball with Meat recalled due to undeclared egg",
        "fr": "Rappel de boulettes de poisson et porc de marque Wang Zhong Wan en raison de la présence non déclarée d'œufs"
    },
    "templatetype": "content page 1 column",
    "node_id": null,
    "managing_branch": "comn",
    "has_dcr_id": true,
    "lang": "en"
}