{
    "dcr_id": "1513022701237",
    "title": {
        "en": "Compliments Naturally Simple brand Angle Hair Nests recalled due to presence of insects",
        "fr": "Rappel de Nids de cheveux d'ange de marque Compliments Simple Naturellement en raison de la présence d'insectes"
    },
    "html_modified": "2017-12-12",
    "modified": "2017-12-11",
    "issued": "2017-12-11",
    "teamsite_location": {
        "en": "/default/main/inspection/cont-cont/recall-rappel/WORKAREA/recall-rappel/templatedata/comn-comn/recall-rappel/data/20171201_r11903_1513022701237_eng",
        "fr": "/default/main/inspection/cont-cont/recall-rappel/WORKAREA/recall-rappel/templatedata/comn-comn/recall-rappel/data/20171201_r11903_1513022701237_fra"
    },
    "type_name": "recall-rappel",
    "parent_node_id": null,
    "layout_name": "content page 1 column",
    "breadcrumb": {
        "en": "Compliments Naturally Simple brand Angle Hair Nests recalled due to presence of insects",
        "fr": "Rappel de Nids de cheveux d'ange de marque Compliments Simple Naturellement en raison de la présence d'insectes"
    },
    "label": {
        "en": "Compliments Naturally Simple brand Angle Hair Nests recalled due to presence of insects",
        "fr": "Rappel de Nids de cheveux d'ange de marque Compliments Simple Naturellement en raison de la présence d'insectes"
    },
    "templatetype": "content page 1 column",
    "node_id": null,
    "managing_branch": "comn",
    "has_dcr_id": true,
    "lang": "en"
}