{
    "dcr_id": "1513400373532",
    "title": {
        "en": "Polly Ann brand frozen dessert bars recalled due to undeclared milk",
        "fr": "Rappel de barres de dessert glacées de marque <span lang=\"en\">Polly Ann</span> en raison de la présence non déclarée de lait"
    },
    "html_modified": "2017-12-16",
    "modified": "2017-12-15",
    "issued": "2017-12-15",
    "teamsite_location": {
        "en": "/default/main/inspection/cont-cont/recall-rappel/WORKAREA/recall-rappel/templatedata/comn-comn/recall-rappel/data/20171215b_1513400373532_eng",
        "fr": "/default/main/inspection/cont-cont/recall-rappel/WORKAREA/recall-rappel/templatedata/comn-comn/recall-rappel/data/20171215b_1513400373532_fra"
    },
    "type_name": "recall-rappel",
    "parent_node_id": null,
    "layout_name": "content page 1 column",
    "breadcrumb": {
        "en": "Polly Ann brand frozen dessert bars recalled due to undeclared milk",
        "fr": "Rappel de barres de dessert glacées de marque <span lang=\"en\">Polly Ann</span> en raison de la présence non déclarée de lait"
    },
    "label": {
        "en": "Polly Ann brand frozen dessert bars recalled due to undeclared milk",
        "fr": "Rappel de barres de dessert glacées de marque <span lang=\"en\">Polly Ann</span> en raison de la présence non déclarée de lait"
    },
    "templatetype": "content page 1 column",
    "node_id": null,
    "managing_branch": "comn",
    "has_dcr_id": true,
    "lang": "en"
}