{
    "dcr_id": "1516125597278",
    "title": {
        "en": "Smithfield brand pork tenderloin recalled due to presence of desoxycarbadox",
        "fr": "Rappel de « <span lang=\"en\">pork tenderloin</span> » de marque <span lang=\"en\">Smithfield</span> en raison de la présence de desoxycarbadox"
    },
    "html_modified": "2018-01-16",
    "modified": "2018-01-16",
    "issued": "2018-01-16",
    "teamsite_location": {
        "en": "/default/main/inspection/cont-cont/recall-rappel/WORKAREA/recall-rappel/templatedata/comn-comn/recall-rappel/data/20180111_r11969_1516125597278_eng",
        "fr": "/default/main/inspection/cont-cont/recall-rappel/WORKAREA/recall-rappel/templatedata/comn-comn/recall-rappel/data/20180111_r11969_1516125597278_fra"
    },
    "type_name": "recall-rappel",
    "parent_node_id": null,
    "layout_name": "content page 1 column",
    "breadcrumb": {
        "en": "Smithfield brand pork tenderloin recalled due to presence of desoxycarbadox",
        "fr": "Rappel de « <span lang=\"en\">pork tenderloin</span> » de marque <span lang=\"en\">Smithfield</span> en raison de la présence de desoxycarbadox"
    },
    "label": {
        "en": "Smithfield brand pork tenderloin recalled due to presence of desoxycarbadox",
        "fr": "Rappel de « <span lang=\"en\">pork tenderloin</span> » de marque <span lang=\"en\">Smithfield</span> en raison de la présence de desoxycarbadox"
    },
    "templatetype": "content page 1 column",
    "node_id": null,
    "managing_branch": "comn",
    "has_dcr_id": true,
    "lang": "en"
}