{
    "dcr_id": "1516760793200",
    "title": {
        "en": "Imperial Caviar &amp; Seafood brand and VIP Caviar Club brand Whitefish and Salmon Roe recalled due to potential presence of dangerous bacteria",
        "fr": "Rappel d'Œufs de corrégone et de saumon de marque <span lang=\"en\">Imperial Caviar &amp; Seafood</span> et de marque <span lang=\"en\">VIP Caviar Club</span> en raison de la présence possible de bactéries dangereuses"
    },
    "html_modified": "2018-01-23",
    "modified": "2018-01-23",
    "issued": "2018-01-23",
    "teamsite_location": {
        "en": "/default/main/inspection/cont-cont/recall-rappel/WORKAREA/recall-rappel/templatedata/comn-comn/recall-rappel/data/20180123_1516760793200_eng",
        "fr": "/default/main/inspection/cont-cont/recall-rappel/WORKAREA/recall-rappel/templatedata/comn-comn/recall-rappel/data/20180123_1516760793200_fra"
    },
    "type_name": "recall-rappel",
    "parent_node_id": null,
    "layout_name": "content page 1 column",
    "breadcrumb": {
        "en": "Imperial Caviar &amp; Seafood brand and VIP Caviar Club brand Whitefish and Salmon Roe recalled due to potential presence of dangerous bacteria",
        "fr": "Rappel d'Œufs de corrégone et de saumon de marque <span lang=\"en\">Imperial Caviar &amp; Seafood</span> et de marque <span lang=\"en\">VIP Caviar Club</span> en raison de la présence possible de bactéries dangereuses"
    },
    "label": {
        "en": "Imperial Caviar &amp; Seafood brand and VIP Caviar Club brand Whitefish and Salmon Roe recalled due to potential presence of dangerous bacteria",
        "fr": "Rappel d'Œufs de corrégone et de saumon de marque <span lang=\"en\">Imperial Caviar &amp; Seafood</span> et de marque <span lang=\"en\">VIP Caviar Club</span> en raison de la présence possible de bactéries dangereuses"
    },
    "templatetype": "content page 1 column",
    "node_id": null,
    "managing_branch": "comn",
    "has_dcr_id": true,
    "lang": "en"
}