{
    "dcr_id": "1517516603970",
    "title": {
        "en": "Tavora brand and Alianca brand Butterfly breaded shrimp and VistaMar brand Gourmet breaded shrimp recalled due to undeclared egg",
        "fr": "Rappel de crevettes en papillon panées des marques <span lang=\"en\">Tavora</span> et <span lang=\"en\">Alianca</span> et de crevettes panées gourmet de marque <span lang=\"en\">VistaMar</span> en raison de la présence non déclarée d'œuf"
    },
    "html_modified": "2018-02-01",
    "modified": "2018-02-01",
    "issued": "2018-02-01",
    "teamsite_location": {
        "en": "/default/main/inspection/cont-cont/recall-rappel/WORKAREA/recall-rappel/templatedata/comn-comn/recall-rappel/data/20180201_1517516603970_eng",
        "fr": "/default/main/inspection/cont-cont/recall-rappel/WORKAREA/recall-rappel/templatedata/comn-comn/recall-rappel/data/20180201_1517516603970_fra"
    },
    "type_name": "recall-rappel",
    "parent_node_id": null,
    "layout_name": "content page 1 column",
    "breadcrumb": {
        "en": "Tavora brand and Alianca brand Butterfly breaded shrimp and VistaMar brand Gourmet breaded shrimp recalled due to undeclared egg",
        "fr": "Rappel de crevettes en papillon panées des marques <span lang=\"en\">Tavora</span> et <span lang=\"en\">Alianca</span> et de crevettes panées gourmet de marque <span lang=\"en\">VistaMar</span> en raison de la présence non déclarée d'œuf"
    },
    "label": {
        "en": "Tavora brand and Alianca brand Butterfly breaded shrimp and VistaMar brand Gourmet breaded shrimp recalled due to undeclared egg",
        "fr": "Rappel de crevettes en papillon panées des marques <span lang=\"en\">Tavora</span> et <span lang=\"en\">Alianca</span> et de crevettes panées gourmet de marque <span lang=\"en\">VistaMar</span> en raison de la présence non déclarée d'œuf"
    },
    "templatetype": "content page 1 column",
    "node_id": null,
    "managing_branch": "comn",
    "has_dcr_id": true,
    "lang": "en"
}