{
    "dcr_id": "1521567938664",
    "title": {
        "en": "Nutty Club brand nut products recalled due to presence of aflatoxin",
        "fr": "Rappel de produits de noix de marque <span lang=\"en\">\"Nutty Club\"</span> en raison de la présence d'aflatoxine"
    },
    "html_modified": "2018-03-20",
    "modified": "2018-03-20",
    "issued": "2018-03-20",
    "teamsite_location": {
        "en": "/default/main/inspection/cont-cont/recall-rappel/WORKAREA/recall-rappel/templatedata/comn-comn/recall-rappel/data/20180315_r12096_1521567938664_eng",
        "fr": "/default/main/inspection/cont-cont/recall-rappel/WORKAREA/recall-rappel/templatedata/comn-comn/recall-rappel/data/20180315_r12096_1521567938664_fra"
    },
    "type_name": "recall-rappel",
    "parent_node_id": null,
    "layout_name": "content page 1 column",
    "breadcrumb": {
        "en": "Nutty Club brand nut products recalled due to presence of aflatoxin",
        "fr": "Rappel de produits de noix de marque <span lang=\"en\">\"Nutty Club\"</span> en raison de la présence d'aflatoxine"
    },
    "label": {
        "en": "Nutty Club brand nut products recalled due to presence of aflatoxin",
        "fr": "Rappel de produits de noix de marque <span lang=\"en\">\"Nutty Club\"</span> en raison de la présence d'aflatoxine"
    },
    "templatetype": "content page 1 column",
    "node_id": null,
    "managing_branch": "comn",
    "has_dcr_id": true,
    "lang": "en"
}