{
    "dcr_id": "1522278434746",
    "title": {
        "en": "Durra brand Mansaf Seasoning recalled due to undeclared sesame and gluten",
        "fr": "Rappel de manssaf épices de marque Durra en raison de la présence non déclarée de sésame et de gluten"
    },
    "html_modified": "2018-03-28",
    "modified": "2018-03-28",
    "issued": "2018-03-28",
    "teamsite_location": {
        "en": "/default/main/inspection/cont-cont/recall-rappel/WORKAREA/recall-rappel/templatedata/comn-comn/recall-rappel/data/20180328c_1522278434746_eng",
        "fr": "/default/main/inspection/cont-cont/recall-rappel/WORKAREA/recall-rappel/templatedata/comn-comn/recall-rappel/data/20180328c_1522278434746_fra"
    },
    "type_name": "recall-rappel",
    "parent_node_id": null,
    "layout_name": "content page 1 column",
    "breadcrumb": {
        "en": "Durra brand Mansaf Seasoning recalled due to undeclared sesame and gluten",
        "fr": "Rappel de manssaf épices de marque Durra en raison de la présence non déclarée de sésame et de gluten"
    },
    "label": {
        "en": "Durra brand Mansaf Seasoning recalled due to undeclared sesame and gluten",
        "fr": "Rappel de manssaf épices de marque Durra en raison de la présence non déclarée de sésame et de gluten"
    },
    "templatetype": "content page 1 column",
    "node_id": null,
    "managing_branch": "comn",
    "has_dcr_id": true,
    "lang": "en"
}