{
    "dcr_id": "1523303807512",
    "title": {
        "en": "Dat'Cha brand Tunisian Processed Dates Deglet Nour recalled due to presence of insects",
        "fr": "Rappel de Dattes Deglet Nour de Tunisie de marque Dat'Cha en raison de la présence d'insectes"
    },
    "html_modified": "2018-04-10",
    "modified": "2018-04-09",
    "issued": "2018-04-09",
    "teamsite_location": {
        "en": "/default/main/inspection/cont-cont/recall-rappel/WORKAREA/recall-rappel/templatedata/comn-comn/recall-rappel/data/20180403_r12159_1523303807512_eng",
        "fr": "/default/main/inspection/cont-cont/recall-rappel/WORKAREA/recall-rappel/templatedata/comn-comn/recall-rappel/data/20180403_r12159_1523303807512_fra"
    },
    "type_name": "recall-rappel",
    "parent_node_id": null,
    "layout_name": "content page 1 column",
    "breadcrumb": {
        "en": "Dat'Cha brand Tunisian Processed Dates Deglet Nour recalled due to presence of insects",
        "fr": "Rappel de Dattes Deglet Nour de Tunisie de marque Dat'Cha en raison de la présence d'insectes"
    },
    "label": {
        "en": "Dat'Cha brand Tunisian Processed Dates Deglet Nour recalled due to presence of insects",
        "fr": "Rappel de Dattes Deglet Nour de Tunisie de marque Dat'Cha en raison de la présence d'insectes"
    },
    "templatetype": "content page 1 column",
    "node_id": null,
    "managing_branch": "comn",
    "has_dcr_id": true,
    "lang": "en"
}