{
    "dcr_id": "1523453170032",
    "title": {
        "en": "<abbr title=\"misses\">Mrs.</abbr> Dunster's brand Old Fashioned Gingersnaps recalled due to off-taste",
        "fr": "Rappel de Biscuits au gingembre à l'ancienne de marque <span lang=\"en\"><abbr title=\"misses\">Mrs.</abbr> Dunster's</span> en raison de goût désagréable"
    },
    "html_modified": "2018-04-11",
    "modified": "2018-04-11",
    "issued": "2018-04-11",
    "teamsite_location": {
        "en": "/default/main/inspection/cont-cont/recall-rappel/WORKAREA/recall-rappel/templatedata/comn-comn/recall-rappel/data/20180406_r12177_1523453170032_eng",
        "fr": "/default/main/inspection/cont-cont/recall-rappel/WORKAREA/recall-rappel/templatedata/comn-comn/recall-rappel/data/20180406_r12177_1523453170032_fra"
    },
    "type_name": "recall-rappel",
    "parent_node_id": null,
    "layout_name": "content page 1 column",
    "breadcrumb": {
        "en": "<abbr title=\"misses\">Mrs.</abbr> Dunster's brand Old Fashioned Gingersnaps recalled due to off-taste",
        "fr": "Rappel de Biscuits au gingembre à l'ancienne de marque <span lang=\"en\"><abbr title=\"misses\">Mrs.</abbr> Dunster's</span> en raison de goût désagréable"
    },
    "label": {
        "en": "<abbr title=\"misses\">Mrs.</abbr> Dunster's brand Old Fashioned Gingersnaps recalled due to off-taste",
        "fr": "Rappel de Biscuits au gingembre à l'ancienne de marque <span lang=\"en\"><abbr title=\"misses\">Mrs.</abbr> Dunster's</span> en raison de goût désagréable"
    },
    "templatetype": "content page 1 column",
    "node_id": null,
    "managing_branch": "comn",
    "has_dcr_id": true,
    "lang": "en"
}