{
    "dcr_id": "1524102661730",
    "title": {
        "en": "Orange Store brand Big 'n Beefy Sandwich recalled due to <span lang=\"la\">Listeria monocytogenes</span>",
        "fr": "Rappel de « <span lang=\"en\">Big 'n Beefy Sandwich</span> » de marque <span lang=\"en\">Orange Store</span> en raison de la bactérie <span lang=\"la\">Listeria monocytogenes</span>"
    },
    "html_modified": "2018-04-18",
    "modified": "2018-04-18",
    "issued": "2018-04-18",
    "teamsite_location": {
        "en": "/default/main/inspection/cont-cont/recall-rappel/WORKAREA/recall-rappel/templatedata/comn-comn/recall-rappel/data/20180418c_1524102661730_eng",
        "fr": "/default/main/inspection/cont-cont/recall-rappel/WORKAREA/recall-rappel/templatedata/comn-comn/recall-rappel/data/20180418c_1524102661730_fra"
    },
    "type_name": "recall-rappel",
    "parent_node_id": null,
    "layout_name": "content page 1 column",
    "breadcrumb": {
        "en": "Orange Store brand Big 'n Beefy Sandwich recalled due to <span lang=\"la\">Listeria monocytogenes</span>",
        "fr": "Rappel de « <span lang=\"en\">Big 'n Beefy Sandwich</span> » de marque <span lang=\"en\">Orange Store</span> en raison de la bactérie <span lang=\"la\">Listeria monocytogenes</span>"
    },
    "label": {
        "en": "Orange Store brand Big 'n Beefy Sandwich recalled due to <span lang=\"la\">Listeria monocytogenes</span>",
        "fr": "Rappel de « <span lang=\"en\">Big 'n Beefy Sandwich</span> » de marque <span lang=\"en\">Orange Store</span> en raison de la bactérie <span lang=\"la\">Listeria monocytogenes</span>"
    },
    "templatetype": "content page 1 column",
    "node_id": null,
    "managing_branch": "comn",
    "has_dcr_id": true,
    "lang": "en"
}