{
    "dcr_id": "1524794199846",
    "title": {
        "en": "Certain pork products sold in Alberta recalled due to <span class=\"nowrap\"><span lang=\"la\"><abbr title=\"Escherichia\">E.</abbr> coli</span> O157:H7</span>",
        "fr": "Rappel de certains produits de porc en Alberta en raison de <span class=\"nowrap\"><span lang=\"la\"><abbr title=\"Escherichia\">E.</abbr> coli</span> O157:H7</span>"
    },
    "html_modified": "2018-04-26",
    "modified": "2018-04-26",
    "issued": "2018-04-26",
    "teamsite_location": {
        "en": "/default/main/inspection/cont-cont/recall-rappel/WORKAREA/recall-rappel/templatedata/comn-comn/recall-rappel/data/20180426_1524794199846_eng",
        "fr": "/default/main/inspection/cont-cont/recall-rappel/WORKAREA/recall-rappel/templatedata/comn-comn/recall-rappel/data/20180426_1524794199846_fra"
    },
    "type_name": "recall-rappel",
    "parent_node_id": null,
    "layout_name": "content page 1 column",
    "breadcrumb": {
        "en": "Certain pork products sold in Alberta recalled due to <span class=\"nowrap\"><span lang=\"la\"><abbr title=\"Escherichia\">E.</abbr> coli</span> O157:H7</span>",
        "fr": "Rappel de certains produits de porc en Alberta en raison de <span class=\"nowrap\"><span lang=\"la\"><abbr title=\"Escherichia\">E.</abbr> coli</span> O157:H7</span>"
    },
    "label": {
        "en": "Certain pork products sold in Alberta recalled due to <span class=\"nowrap\"><span lang=\"la\"><abbr title=\"Escherichia\">E.</abbr> coli</span> O157:H7</span>",
        "fr": "Rappel de certains produits de porc en Alberta en raison de <span class=\"nowrap\"><span lang=\"la\"><abbr title=\"Escherichia\">E.</abbr> coli</span> O157:H7</span>"
    },
    "templatetype": "content page 1 column",
    "node_id": null,
    "managing_branch": "comn",
    "has_dcr_id": true,
    "lang": "en"
}