{
    "dcr_id": "1526225067832",
    "title": {
        "en": "Certain Four Seasons Marketplace brand refrigerated packaged smoked salmon products may be unsafe due to potential presence of dangerous bacteria",
        "fr": "Certains produits de saumon fumé emballés et réfrigérés de marque <span lang=\"en\">Four Seasons Marketplace</span> pourraient être dangereux en raison de la présence possible de bactéries dangereuses"
    },
    "html_modified": "2018-05-13",
    "modified": "2018-05-13",
    "issued": "2018-05-13",
    "teamsite_location": {
        "en": "/default/main/inspection/cont-cont/recall-rappel/WORKAREA/recall-rappel/templatedata/comn-comn/recall-rappel/data/20180513_1526225067832_eng",
        "fr": "/default/main/inspection/cont-cont/recall-rappel/WORKAREA/recall-rappel/templatedata/comn-comn/recall-rappel/data/20180513_1526225067832_fra"
    },
    "type_name": "recall-rappel",
    "parent_node_id": null,
    "layout_name": "content page 1 column",
    "breadcrumb": {
        "en": "Certain Four Seasons Marketplace brand refrigerated packaged smoked salmon products may be unsafe due to potential presence of dangerous bacteria",
        "fr": "Certains produits de saumon fumé emballés et réfrigérés de marque <span lang=\"en\">Four Seasons Marketplace</span> pourraient être dangereux en raison de la présence possible de bactéries dangereuses"
    },
    "label": {
        "en": "Certain Four Seasons Marketplace brand refrigerated packaged smoked salmon products may be unsafe due to potential presence of dangerous bacteria",
        "fr": "Certains produits de saumon fumé emballés et réfrigérés de marque <span lang=\"en\">Four Seasons Marketplace</span> pourraient être dangereux en raison de la présence possible de bactéries dangereuses"
    },
    "templatetype": "content page 1 column",
    "node_id": null,
    "managing_branch": "comn",
    "has_dcr_id": true,
    "lang": "en"
}