{
    "dcr_id": "1527009699512",
    "title": {
        "en": "Wang Korea brand Dumplings recalled due to undeclared egg",
        "fr": "Rappel de Quenelles de marque <span lang=\"en\">Wang Korea</abbr> en raison de la présence non déclarée d'oeufs"
    },
    "html_modified": "2018-05-23",
    "modified": "2018-05-23",
    "issued": "2018-05-22",
    "teamsite_location": {
        "en": "/default/main/inspection/cont-cont/recall-rappel/WORKAREA/recall-rappel/templatedata/comn-comn/recall-rappel/data/20180516_r12272_1527009699512_eng",
        "fr": "/default/main/inspection/cont-cont/recall-rappel/WORKAREA/recall-rappel/templatedata/comn-comn/recall-rappel/data/20180516_r12272_1527009699512_fra"
    },
    "type_name": "recall-rappel",
    "parent_node_id": null,
    "layout_name": "content page 1 column",
    "breadcrumb": {
        "en": "Wang Korea brand Dumplings recalled due to undeclared egg",
        "fr": "Rappel de Quenelles de marque <span lang=\"en\">Wang Korea</abbr> en raison de la présence non déclarée d'oeufs"
    },
    "label": {
        "en": "Wang Korea brand Dumplings recalled due to undeclared egg",
        "fr": "Rappel de Quenelles de marque <span lang=\"en\">Wang Korea</abbr> en raison de la présence non déclarée d'oeufs"
    },
    "templatetype": "content page 1 column",
    "node_id": null,
    "managing_branch": "comn",
    "has_dcr_id": true,
    "lang": "en"
}