{
    "dcr_id": "1529100180100",
    "title": {
        "en": "Now Real Food brand Zesty Sprouting Mix recalled due to <span lang=\"la\">Salmonella</span>",
        "fr": "Rappel de « <span lang=\"en\">Zesty Sprouting Mix</span> » de marque <span lang=\"en\">Now Real Food</span> en raison de la bactérie <span lang=\"la\">Salmonella</span>"
    },
    "html_modified": "2018-06-15",
    "modified": "2018-06-15",
    "issued": "2018-06-15",
    "teamsite_location": {
        "en": "/default/main/inspection/cont-cont/recall-rappel/WORKAREA/recall-rappel/templatedata/comn-comn/recall-rappel/data/20180615_1529100180100_eng",
        "fr": "/default/main/inspection/cont-cont/recall-rappel/WORKAREA/recall-rappel/templatedata/comn-comn/recall-rappel/data/20180615_1529100180100_fra"
    },
    "type_name": "recall-rappel",
    "parent_node_id": null,
    "layout_name": "content page 1 column",
    "breadcrumb": {
        "en": "Now Real Food brand Zesty Sprouting Mix recalled due to <span lang=\"la\">Salmonella</span>",
        "fr": "Rappel de « <span lang=\"en\">Zesty Sprouting Mix</span> » de marque <span lang=\"en\">Now Real Food</span> en raison de la bactérie <span lang=\"la\">Salmonella</span>"
    },
    "label": {
        "en": "Now Real Food brand Zesty Sprouting Mix recalled due to <span lang=\"la\">Salmonella</span>",
        "fr": "Rappel de « <span lang=\"en\">Zesty Sprouting Mix</span> » de marque <span lang=\"en\">Now Real Food</span> en raison de la bactérie <span lang=\"la\">Salmonella</span>"
    },
    "templatetype": "content page 1 column",
    "node_id": null,
    "managing_branch": "comn",
    "has_dcr_id": true,
    "lang": "en"
}