{
    "dcr_id": "1536284091191",
    "title": {
        "en": "Randsland brand Super Salad Kit recalled due to <span lang=\"la\">Listeria monocytogenes</span>",
        "fr": "Rappel de « Sachet de salade super » de marque <span lang=\"en\">Randsland</span> en raison de la bactérie <span lang=\"la\">Listeria monocytogenes</span>"
    },
    "html_modified": "2018-09-06",
    "modified": "2018-09-06",
    "issued": "2018-09-06",
    "teamsite_location": {
        "en": "/default/main/inspection/cont-cont/recall-rappel/WORKAREA/recall-rappel/templatedata/comn-comn/recall-rappel/data/20180906c_1536284091191_eng",
        "fr": "/default/main/inspection/cont-cont/recall-rappel/WORKAREA/recall-rappel/templatedata/comn-comn/recall-rappel/data/20180906c_1536284091191_fra"
    },
    "type_name": "recall-rappel",
    "parent_node_id": null,
    "layout_name": "content page 1 column",
    "breadcrumb": {
        "en": "Randsland brand Super Salad Kit recalled due to <span lang=\"la\">Listeria monocytogenes</span>",
        "fr": "Rappel de « Sachet de salade super » de marque <span lang=\"en\">Randsland</span> en raison de la bactérie <span lang=\"la\">Listeria monocytogenes</span>"
    },
    "label": {
        "en": "Randsland brand Super Salad Kit recalled due to <span lang=\"la\">Listeria monocytogenes</span>",
        "fr": "Rappel de « Sachet de salade super » de marque <span lang=\"en\">Randsland</span> en raison de la bactérie <span lang=\"la\">Listeria monocytogenes</span>"
    },
    "templatetype": "content page 1 column",
    "node_id": null,
    "managing_branch": "comn",
    "has_dcr_id": true,
    "lang": "en"
}