{
    "dcr_id": "1537745343943",
    "title": {
        "en": "Certain Abbott Two Cal brand and Abbott Promote brand formulated liquid diet products recalled due to possible bacterial contamination",
        "fr": "Rappel de certaines préparations pour régime liquide de marque <span lang=\"en\">Abbott Two Cal</span> et <span lang=\"en\">Abbott Promote</span> en raison d'une possible contamination bactérienne"
    },
    "html_modified": "2018-09-23",
    "modified": "2018-09-23",
    "issued": "2018-09-23",
    "teamsite_location": {
        "en": "/default/main/inspection/cont-cont/recall-rappel/WORKAREA/recall-rappel/templatedata/comn-comn/recall-rappel/data/20180923b_1537745343943_eng",
        "fr": "/default/main/inspection/cont-cont/recall-rappel/WORKAREA/recall-rappel/templatedata/comn-comn/recall-rappel/data/20180923b_1537745343943_fra"
    },
    "type_name": "recall-rappel",
    "parent_node_id": null,
    "layout_name": "content page 1 column",
    "breadcrumb": {
        "en": "Certain Abbott Two Cal brand and Abbott Promote brand formulated liquid diet products recalled due to possible bacterial contamination",
        "fr": "Rappel de certaines préparations pour régime liquide de marque <span lang=\"en\">Abbott Two Cal</span> et <span lang=\"en\">Abbott Promote</span> en raison d'une possible contamination bactérienne"
    },
    "label": {
        "en": "Certain Abbott Two Cal brand and Abbott Promote brand formulated liquid diet products recalled due to possible bacterial contamination",
        "fr": "Rappel de certaines préparations pour régime liquide de marque <span lang=\"en\">Abbott Two Cal</span> et <span lang=\"en\">Abbott Promote</span> en raison d'une possible contamination bactérienne"
    },
    "templatetype": "content page 1 column",
    "node_id": null,
    "managing_branch": "comn",
    "has_dcr_id": true,
    "lang": "en"
}