{
    "dcr_id": "1538696943723",
    "title": {
        "en": "Certain Sobeys brand packaged vegetable products recalled due to <span lang=\"la\">Listeria monocytogenes</span>",
        "fr": "Rappel de certains produits de légumes emballés de marque Sobeys en raison de  la bactérie <span lang=\"la\">Listeria monocytogenes</span>"
    },
    "html_modified": "2018-10-04",
    "modified": "2018-10-04",
    "issued": "2018-10-04",
    "teamsite_location": {
        "en": "/default/main/inspection/cont-cont/recall-rappel/WORKAREA/recall-rappel/templatedata/comn-comn/recall-rappel/data/20181004_1538696943723_eng",
        "fr": "/default/main/inspection/cont-cont/recall-rappel/WORKAREA/recall-rappel/templatedata/comn-comn/recall-rappel/data/20181004_1538696943723_fra"
    },
    "type_name": "recall-rappel",
    "parent_node_id": null,
    "layout_name": "content page 1 column",
    "breadcrumb": {
        "en": "Certain Sobeys brand packaged vegetable products recalled due to <span lang=\"la\">Listeria monocytogenes</span>",
        "fr": "Rappel de certains produits de légumes emballés de marque Sobeys en raison de  la bactérie <span lang=\"la\">Listeria monocytogenes</span>"
    },
    "label": {
        "en": "Certain Sobeys brand packaged vegetable products recalled due to <span lang=\"la\">Listeria monocytogenes</span>",
        "fr": "Rappel de certains produits de légumes emballés de marque Sobeys en raison de  la bactérie <span lang=\"la\">Listeria monocytogenes</span>"
    },
    "templatetype": "content page 1 column",
    "node_id": null,
    "managing_branch": "comn",
    "has_dcr_id": true,
    "lang": "en"
}