{
    "dcr_id": "1541621608881",
    "title": {
        "en": "Olymel brand Pork and Beef Breakfast Sausages recalled due to pieces of plastic",
        "fr": "Rappel de Saucisses à déjeuner porc et boeuf congelées de marque <span lang=\"en\">Olymel</span> en raison de la présence de morceaux de plastique"
    },
    "html_modified": "2018-11-09",
    "modified": "2018-11-07",
    "issued": "2018-11-07",
    "teamsite_location": {
        "en": "/default/main/inspection/cont-cont/recall-rappel/WORKAREA/recall-rappel/templatedata/comn-comn/recall-rappel/data/20181102_r12621_1541621608881_eng",
        "fr": "/default/main/inspection/cont-cont/recall-rappel/WORKAREA/recall-rappel/templatedata/comn-comn/recall-rappel/data/20181102_r12621_1541621608881_fra"
    },
    "type_name": "recall-rappel",
    "parent_node_id": null,
    "layout_name": "content page 1 column",
    "breadcrumb": {
        "en": "Olymel brand Pork and Beef Breakfast Sausages recalled due to pieces of plastic",
        "fr": "Rappel de Saucisses à déjeuner porc et boeuf congelées de marque <span lang=\"en\">Olymel</span> en raison de la présence de morceaux de plastique"
    },
    "label": {
        "en": "Olymel brand Pork and Beef Breakfast Sausages recalled due to pieces of plastic",
        "fr": "Rappel de Saucisses à déjeuner porc et boeuf congelées de marque <span lang=\"en\">Olymel</span> en raison de la présence de morceaux de plastique"
    },
    "templatetype": "content page 1 column",
    "node_id": null,
    "managing_branch": "comn",
    "has_dcr_id": true,
    "lang": "en"
}