{
    "dcr_id": "1542232646876",
    "title": {
        "en": "Happy Planet brand Berkeley Butternut Squash Soup recalled due to spoilage",
        "fr": "Rappel de Potage à la courge musquée de <span lang=\"en\">Berkeley</span> de marque <span lang=\"en\">Happy Planet</span> en raison d'un problème de détérioration"
    },
    "html_modified": "2018-11-15",
    "modified": "2018-11-14",
    "issued": "2018-11-14",
    "teamsite_location": {
        "en": "/default/main/inspection/cont-cont/recall-rappel/WORKAREA/recall-rappel/templatedata/comn-comn/recall-rappel/data/20181113_r12622_1542232646876_eng",
        "fr": "/default/main/inspection/cont-cont/recall-rappel/WORKAREA/recall-rappel/templatedata/comn-comn/recall-rappel/data/20181113_r12622_1542232646876_fra"
    },
    "type_name": "recall-rappel",
    "parent_node_id": null,
    "layout_name": "content page 1 column",
    "breadcrumb": {
        "en": "Happy Planet brand Berkeley Butternut Squash Soup recalled due to spoilage",
        "fr": "Rappel de Potage à la courge musquée de <span lang=\"en\">Berkeley</span> de marque <span lang=\"en\">Happy Planet</span> en raison d'un problème de détérioration"
    },
    "label": {
        "en": "Happy Planet brand Berkeley Butternut Squash Soup recalled due to spoilage",
        "fr": "Rappel de Potage à la courge musquée de <span lang=\"en\">Berkeley</span> de marque <span lang=\"en\">Happy Planet</span> en raison d'un problème de détérioration"
    },
    "templatetype": "content page 1 column",
    "node_id": null,
    "managing_branch": "comn",
    "has_dcr_id": true,
    "lang": "en"
}