{
    "dcr_id": "1547668470246",
    "title": {
        "en": "Golden City Bakery brand Red Bean Paste recalled due to undeclared wheat",
        "fr": "Rappel de Pâte rouge de haricot de marque <span lang=\"en\">Golden City Bakery</span> en raison de la présence non déclarée de blé"
    },
    "html_modified": "2019-01-16",
    "modified": "2019-01-16",
    "issued": "2019-01-16",
    "teamsite_location": {
        "en": "/default/main/inspection/cont-cont/recall-rappel/WORKAREA/recall-rappel/templatedata/comn-comn/recall-rappel/data/20190116_1547668470246_eng",
        "fr": "/default/main/inspection/cont-cont/recall-rappel/WORKAREA/recall-rappel/templatedata/comn-comn/recall-rappel/data/20190116_1547668470246_fra"
    },
    "type_name": "recall-rappel",
    "parent_node_id": null,
    "layout_name": "content page 1 column",
    "breadcrumb": {
        "en": "Golden City Bakery brand Red Bean Paste recalled due to undeclared wheat",
        "fr": "Rappel de Pâte rouge de haricot de marque <span lang=\"en\">Golden City Bakery</span> en raison de la présence non déclarée de blé"
    },
    "label": {
        "en": "Golden City Bakery brand Red Bean Paste recalled due to undeclared wheat",
        "fr": "Rappel de Pâte rouge de haricot de marque <span lang=\"en\">Golden City Bakery</span> en raison de la présence non déclarée de blé"
    },
    "templatetype": "content page 1 column",
    "node_id": null,
    "managing_branch": "comn",
    "has_dcr_id": true,
    "lang": "en"
}