{
    "dcr_id": "1547826637888",
    "title": {
        "en": "Rice Select brand Organic White Rice recalled due to presence of insects",
        "fr": "Rappel de riz blanc biologique de marque <span lang=\"en\">Rice Select</span> en raison de la présence d'insectes"
    },
    "html_modified": "2019-01-18",
    "modified": "2019-01-18",
    "issued": "2019-01-18",
    "teamsite_location": {
        "en": "/default/main/inspection/cont-cont/recall-rappel/WORKAREA/recall-rappel/templatedata/comn-comn/recall-rappel/data/20190117_r12732_1547826637888_eng",
        "fr": "/default/main/inspection/cont-cont/recall-rappel/WORKAREA/recall-rappel/templatedata/comn-comn/recall-rappel/data/20190117_r12732_1547826637888_fra"
    },
    "type_name": "recall-rappel",
    "parent_node_id": null,
    "layout_name": "content page 1 column",
    "breadcrumb": {
        "en": "Rice Select brand Organic White Rice recalled due to presence of insects",
        "fr": "Rappel de riz blanc biologique de marque <span lang=\"en\">Rice Select</span> en raison de la présence d'insectes"
    },
    "label": {
        "en": "Rice Select brand Organic White Rice recalled due to presence of insects",
        "fr": "Rappel de riz blanc biologique de marque <span lang=\"en\">Rice Select</span> en raison de la présence d'insectes"
    },
    "templatetype": "content page 1 column",
    "node_id": null,
    "managing_branch": "comn",
    "has_dcr_id": true,
    "lang": "en"
}