{
    "dcr_id": "1548961761605",
    "title": {
        "en": "Krinos brand Kalamata Dried String Figs recalled due to presence of insects",
        "fr": "Rappel de figues sur cordes de marque <span lang=\"en\">Krinos</span> en raison de la présence d'insectes"
    },
    "html_modified": "2019-02-01",
    "modified": "2019-01-31",
    "issued": "2019-01-31",
    "teamsite_location": {
        "en": "/default/main/inspection/cont-cont/recall-rappel/WORKAREA/recall-rappel/templatedata/comn-comn/recall-rappel/data/20190123_r12746_1548961761605_eng",
        "fr": "/default/main/inspection/cont-cont/recall-rappel/WORKAREA/recall-rappel/templatedata/comn-comn/recall-rappel/data/20190123_r12746_1548961761605_fra"
    },
    "type_name": "recall-rappel",
    "parent_node_id": null,
    "layout_name": "content page 1 column",
    "breadcrumb": {
        "en": "Krinos brand Kalamata Dried String Figs recalled due to presence of insects",
        "fr": "Rappel de figues sur cordes de marque <span lang=\"en\">Krinos</span> en raison de la présence d'insectes"
    },
    "label": {
        "en": "Krinos brand Kalamata Dried String Figs recalled due to presence of insects",
        "fr": "Rappel de figues sur cordes de marque <span lang=\"en\">Krinos</span> en raison de la présence d'insectes"
    },
    "templatetype": "content page 1 column",
    "node_id": null,
    "managing_branch": "comn",
    "has_dcr_id": true,
    "lang": "en"
}