{
    "dcr_id": "1549953164868",
    "title": {
        "en": "Grain Process Enterprises Ltd. brand Brewers Yeast Debittered recalled due to undeclared peanut",
        "fr": "Rappel de « <span lang=\"en\">Brewers Yeast Debittered</span> » de marque <span lang=\"en\">Grain Process Enterprises Ltd.</span> en raison de la présence non déclarée d'arachides"
    },
    "html_modified": "2019-02-12",
    "modified": "2019-02-11",
    "issued": "2019-02-12",
    "teamsite_location": {
        "en": "/default/main/inspection/cont-cont/recall-rappel/WORKAREA/recall-rappel/templatedata/comn-comn/recall-rappel/data/20190211a_1549953164868_eng",
        "fr": "/default/main/inspection/cont-cont/recall-rappel/WORKAREA/recall-rappel/templatedata/comn-comn/recall-rappel/data/20190211a_1549953164868_fra"
    },
    "type_name": "recall-rappel",
    "parent_node_id": null,
    "layout_name": "content page 1 column",
    "breadcrumb": {
        "en": "Grain Process Enterprises Ltd. brand Brewers Yeast Debittered recalled due to undeclared peanut",
        "fr": "Rappel de « <span lang=\"en\">Brewers Yeast Debittered</span> » de marque <span lang=\"en\">Grain Process Enterprises Ltd.</span> en raison de la présence non déclarée d'arachides"
    },
    "label": {
        "en": "Grain Process Enterprises Ltd. brand Brewers Yeast Debittered recalled due to undeclared peanut",
        "fr": "Rappel de « <span lang=\"en\">Brewers Yeast Debittered</span> » de marque <span lang=\"en\">Grain Process Enterprises Ltd.</span> en raison de la présence non déclarée d'arachides"
    },
    "templatetype": "content page 1 column",
    "node_id": null,
    "managing_branch": "comn",
    "has_dcr_id": true,
    "lang": "en"
}