{
    "dcr_id": "1550626805379",
    "title": {
        "en": "Debittered Brewers Yeast sold at Best of Health recalled due to undeclared peanut",
        "fr": "Rappel de « <span lang=\"en\">Debittered Brewers Yeast</span> » vendue chez <span lang=\"en\">Best of Health</span> en raison de la présence non déclarée d'arachides"
    },
    "html_modified": "2019-02-19",
    "modified": "2019-02-19",
    "issued": "2019-02-19",
    "teamsite_location": {
        "en": "/default/main/inspection/cont-cont/recall-rappel/WORKAREA/recall-rappel/templatedata/comn-comn/recall-rappel/data/20190219c_1550626805379_eng",
        "fr": "/default/main/inspection/cont-cont/recall-rappel/WORKAREA/recall-rappel/templatedata/comn-comn/recall-rappel/data/20190219c_1550626805379_fra"
    },
    "type_name": "recall-rappel",
    "parent_node_id": null,
    "layout_name": "content page 1 column",
    "breadcrumb": {
        "en": "Debittered Brewers Yeast sold at Best of Health recalled due to undeclared peanut",
        "fr": "Rappel de « <span lang=\"en\">Debittered Brewers Yeast</span> » vendue chez <span lang=\"en\">Best of Health</span> en raison de la présence non déclarée d'arachides"
    },
    "label": {
        "en": "Debittered Brewers Yeast sold at Best of Health recalled due to undeclared peanut",
        "fr": "Rappel de « <span lang=\"en\">Debittered Brewers Yeast</span> » vendue chez <span lang=\"en\">Best of Health</span> en raison de la présence non déclarée d'arachides"
    },
    "templatetype": "content page 1 column",
    "node_id": null,
    "managing_branch": "comn",
    "has_dcr_id": true,
    "lang": "en"
}