{
    "dcr_id": "1550355533368",
    "title": {
        "en": "Victoria White Linen Collection Marinara Sauce recalled due to undeclared cashew",
        "fr": "Rappel de Sauce <span lang=\"en\">Marinara</span> de marque <span lang=\"en\">Victoria White Linen Collection</span> en raison de la présence non déclarée de noix de cajou"
    },
    "html_modified": "2019-02-16 17:11",
    "modified": "2019-02-16",
    "issued": "2019-02-16",
    "teamsite_location": {
        "en": "/default/main/inspection/cont-cont/recall-rappel/WORKAREA/recall-rappel/templatedata/comn-comn/recall-rappel/data/20190216_1550355533368_eng",
        "fr": "/default/main/inspection/cont-cont/recall-rappel/WORKAREA/recall-rappel/templatedata/comn-comn/recall-rappel/data/20190216_1550355533368_fra"
    },
    "type_name": "recall-rappel",
    "parent_node_id": null,
    "layout_name": "content page 1 column",
    "breadcrumb": {
        "en": "Victoria White Linen Collection Marinara Sauce recalled due to undeclared cashew",
        "fr": "Rappel de Sauce <span lang=\"en\">Marinara</span> de marque <span lang=\"en\">Victoria White Linen Collection</span> en raison de la présence non déclarée de noix de cajou"
    },
    "label": {
        "en": "Victoria White Linen Collection Marinara Sauce recalled due to undeclared cashew",
        "fr": "Rappel de Sauce <span lang=\"en\">Marinara</span> de marque <span lang=\"en\">Victoria White Linen Collection</span> en raison de la présence non déclarée de noix de cajou"
    },
    "templatetype": "content page 1 column",
    "node_id": null,
    "managing_branch": "comn",
    "has_dcr_id": true,
    "lang": "en"
}