{
    "dcr_id": "1553871755669",
    "title": {
        "en": "Mixed Pumpkin Yam Tea recalled due to undeclared milk",
        "fr": "Rappel de Thé mélange d'igname de chine de potiron en raison de la présence non déclarée de lait"
    },
    "html_modified": "2019-03-29",
    "modified": "2019-03-29",
    "issued": "2019-03-29",
    "teamsite_location": {
        "en": "/default/main/inspection/cont-cont/recall-rappel/WORKAREA/recall-rappel/templatedata/comn-comn/recall-rappel/data/20190327_r12903_1553871755669_eng",
        "fr": "/default/main/inspection/cont-cont/recall-rappel/WORKAREA/recall-rappel/templatedata/comn-comn/recall-rappel/data/20190327_r12903_1553871755669_fra"
    },
    "type_name": "recall-rappel",
    "parent_node_id": null,
    "layout_name": "content page 1 column",
    "breadcrumb": {
        "en": "Mixed Pumpkin Yam Tea recalled due to undeclared milk",
        "fr": "Rappel de Thé mélange d'igname de chine de potiron en raison de la présence non déclarée de lait"
    },
    "label": {
        "en": "Mixed Pumpkin Yam Tea recalled due to undeclared milk",
        "fr": "Rappel de Thé mélange d'igname de chine de potiron en raison de la présence non déclarée de lait"
    },
    "templatetype": "content page 1 column",
    "node_id": null,
    "managing_branch": "comn",
    "has_dcr_id": true,
    "lang": "en"
}