{
    "dcr_id": "1554484316366",
    "title": {
        "en": "Organic Irish Cream Tulsi recalled due to <i lang=\"la\">Salmonella</i>",
        "fr": "Rappel de « Organic Irish Cream Tulsi » en raison de la bactérie <i lang=\"la\">Salmonella</i>"
    },
    "html_modified": "2019-04-05",
    "modified": "2019-04-05",
    "issued": "2019-04-05",
    "teamsite_location": {
        "en": "/default/main/inspection/cont-cont/recall-rappel/WORKAREA/recall-rappel/templatedata/comn-comn/recall-rappel/data/20190403_r12927_1554484316366_eng",
        "fr": "/default/main/inspection/cont-cont/recall-rappel/WORKAREA/recall-rappel/templatedata/comn-comn/recall-rappel/data/20190403_r12927_1554484316366_fra"
    },
    "type_name": "recall-rappel",
    "parent_node_id": null,
    "layout_name": "content page 1 column",
    "breadcrumb": {
        "en": "Organic Irish Cream Tulsi recalled due to <i lang=\"la\">Salmonella</i>",
        "fr": "Rappel de « Organic Irish Cream Tulsi » en raison de la bactérie <i lang=\"la\">Salmonella</i>"
    },
    "label": {
        "en": "Organic Irish Cream Tulsi recalled due to <i lang=\"la\">Salmonella</i>",
        "fr": "Rappel de « Organic Irish Cream Tulsi » en raison de la bactérie <i lang=\"la\">Salmonella</i>"
    },
    "templatetype": "content page 1 column",
    "node_id": null,
    "managing_branch": "comn",
    "has_dcr_id": true,
    "lang": "en"
}