{
    "dcr_id": "1556930092557",
    "title": {
        "en": "Feeding Change brand Young Thai Coconut Meat recalled due to <i lang=\"la\">Salmonella</i>",
        "fr": "Rappel de Chair de jeune noix de coco thaïlandaise de marque <span lang=\"en\">Feeding Change</span> en raison de la bactérie <i lang=\"la\">Salmonella</i>"
    },
    "html_modified": "2019-05-03",
    "modified": "2019-05-03",
    "issued": "2019-05-03",
    "teamsite_location": {
        "en": "/default/main/inspection/cont-cont/recall-rappel/WORKAREA/recall-rappel/templatedata/comn-comn/recall-rappel/data/20190503b_1556930092557_eng",
        "fr": "/default/main/inspection/cont-cont/recall-rappel/WORKAREA/recall-rappel/templatedata/comn-comn/recall-rappel/data/20190503b_1556930092557_fra"
    },
    "type_name": "recall-rappel",
    "parent_node_id": null,
    "layout_name": "content page 1 column",
    "breadcrumb": {
        "en": "Feeding Change brand Young Thai Coconut Meat recalled due to <i lang=\"la\">Salmonella</i>",
        "fr": "Rappel de Chair de jeune noix de coco thaïlandaise de marque <span lang=\"en\">Feeding Change</span> en raison de la bactérie <i lang=\"la\">Salmonella</i>"
    },
    "label": {
        "en": "Feeding Change brand Young Thai Coconut Meat recalled due to <i lang=\"la\">Salmonella</i>",
        "fr": "Rappel de Chair de jeune noix de coco thaïlandaise de marque <span lang=\"en\">Feeding Change</span> en raison de la bactérie <i lang=\"la\">Salmonella</i>"
    },
    "templatetype": "content page 1 column",
    "node_id": null,
    "managing_branch": "comn",
    "has_dcr_id": true,
    "lang": "en"
}