{
    "dcr_id": "1557350163547",
    "title": {
        "en": "Elman's brand Dressing recalled due to undeclared sesame, wheat, and gluten",
        "fr": "Rappel de Farce de marque <span lang=\"en\">Elman's</span> en raison de la présence non déclarée de sésame, de blé, et de gluten"
    },
    "html_modified": "2019-05-08",
    "modified": "2019-05-08",
    "issued": "2019-05-08",
    "teamsite_location": {
        "en": "/default/main/inspection/cont-cont/recall-rappel/WORKAREA/recall-rappel/templatedata/comn-comn/recall-rappel/data/20190508_1557350163547_eng",
        "fr": "/default/main/inspection/cont-cont/recall-rappel/WORKAREA/recall-rappel/templatedata/comn-comn/recall-rappel/data/20190508_1557350163547_fra"
    },
    "type_name": "recall-rappel",
    "parent_node_id": null,
    "layout_name": "content page 1 column",
    "breadcrumb": {
        "en": "Elman's brand Dressing recalled due to undeclared sesame, wheat, and gluten",
        "fr": "Rappel de Farce de marque <span lang=\"en\">Elman's</span> en raison de la présence non déclarée de sésame, de blé, et de gluten"
    },
    "label": {
        "en": "Elman's brand Dressing recalled due to undeclared sesame, wheat, and gluten",
        "fr": "Rappel de Farce de marque <span lang=\"en\">Elman's</span> en raison de la présence non déclarée de sésame, de blé, et de gluten"
    },
    "templatetype": "content page 1 column",
    "node_id": null,
    "managing_branch": "comn",
    "has_dcr_id": true,
    "lang": "en"
}