{
    "dcr_id": "1561679207851",
    "title": {
        "en": "Sanwu brand Spicy Hot Bean Curd recalled due to undeclared sesame and wheat",
        "fr": "Rappel de Tofu épicé de marque <span lang=\"en\">Sanwu</span> en raison de la présence non déclarée de sésame et de blé"
    },
    "html_modified": "2019-06-27",
    "modified": "2019-06-27",
    "issued": "2019-06-27",
    "teamsite_location": {
        "en": "/default/main/inspection/cont-cont/recall-rappel/WORKAREA/recall-rappel/templatedata/comn-comn/recall-rappel/data/20190627_1561679207851_eng",
        "fr": "/default/main/inspection/cont-cont/recall-rappel/WORKAREA/recall-rappel/templatedata/comn-comn/recall-rappel/data/20190627_1561679207851_fra"
    },
    "type_name": "recall-rappel",
    "parent_node_id": null,
    "layout_name": "content page 1 column",
    "breadcrumb": {
        "en": "Sanwu brand Spicy Hot Bean Curd recalled due to undeclared sesame and wheat",
        "fr": "Rappel de Tofu épicé de marque <span lang=\"en\">Sanwu</span> en raison de la présence non déclarée de sésame et de blé"
    },
    "label": {
        "en": "Sanwu brand Spicy Hot Bean Curd recalled due to undeclared sesame and wheat",
        "fr": "Rappel de Tofu épicé de marque <span lang=\"en\">Sanwu</span> en raison de la présence non déclarée de sésame et de blé"
    },
    "templatetype": "content page 1 column",
    "node_id": null,
    "managing_branch": "comn",
    "has_dcr_id": true,
    "lang": "en"
}