{
    "dcr_id": "1564110911002",
    "title": {
        "en": "Western Family brand Original Wild Sockeye Smoked Salmon Nuggets recalled due to <i lang=\"la\">Listeria monocytogenes</i>",
        "fr": "Rappel de Pépites de saumon sockeye sauvage fumé originales de marque <span lang=\"en\">Western Family</span> en raison de la bactérie <i lang=\"la\">Listeria monocytogenes</i>"
    },
    "html_modified": "2019-07-25",
    "modified": "2019-07-25",
    "issued": "2019-07-25",
    "teamsite_location": {
        "en": "/default/main/inspection/cont-cont/recall-rappel/WORKAREA/recall-rappel/templatedata/comn-comn/recall-rappel/data/20190725b_1564110911002_eng",
        "fr": "/default/main/inspection/cont-cont/recall-rappel/WORKAREA/recall-rappel/templatedata/comn-comn/recall-rappel/data/20190725b_1564110911002_fra"
    },
    "type_name": "recall-rappel",
    "parent_node_id": null,
    "layout_name": "content page 1 column",
    "breadcrumb": {
        "en": "Western Family brand Original Wild Sockeye Smoked Salmon Nuggets recalled due to <i lang=\"la\">Listeria monocytogenes</i>",
        "fr": "Rappel de Pépites de saumon sockeye sauvage fumé originales de marque <span lang=\"en\">Western Family</span> en raison de la bactérie <i lang=\"la\">Listeria monocytogenes</i>"
    },
    "label": {
        "en": "Western Family brand Original Wild Sockeye Smoked Salmon Nuggets recalled due to <i lang=\"la\">Listeria monocytogenes</i>",
        "fr": "Rappel de Pépites de saumon sockeye sauvage fumé originales de marque <span lang=\"en\">Western Family</span> en raison de la bactérie <i lang=\"la\">Listeria monocytogenes</i>"
    },
    "templatetype": "content page 1 column",
    "node_id": null,
    "managing_branch": "comn",
    "has_dcr_id": true,
    "lang": "en"
}