{
    "dcr_id": "1565835387061",
    "title": {
        "en": "QQ Fish brand Mushroom Fish Ball recalled due to undeclared egg",
        "fr": "Rappel de Boulettes de champignon de marque QQ <span lang=\"en\">Fish</span> en raison de la présence non déclarée d'oeufs"
    },
    "html_modified": "2019-08-14",
    "modified": "2019-08-14",
    "issued": "2019-08-14",
    "teamsite_location": {
        "en": "/default/main/inspection/cont-cont/recall-rappel/WORKAREA/recall-rappel/templatedata/comn-comn/recall-rappel/data/20190814c_1565835387061_eng",
        "fr": "/default/main/inspection/cont-cont/recall-rappel/WORKAREA/recall-rappel/templatedata/comn-comn/recall-rappel/data/20190814c_1565835387061_fra"
    },
    "type_name": "recall-rappel",
    "parent_node_id": null,
    "layout_name": "content page 1 column",
    "breadcrumb": {
        "en": "QQ Fish brand Mushroom Fish Ball recalled due to undeclared egg",
        "fr": "Rappel de Boulettes de champignon de marque QQ <span lang=\"en\">Fish</span> en raison de la présence non déclarée d'oeufs"
    },
    "label": {
        "en": "QQ Fish brand Mushroom Fish Ball recalled due to undeclared egg",
        "fr": "Rappel de Boulettes de champignon de marque QQ <span lang=\"en\">Fish</span> en raison de la présence non déclarée d'oeufs"
    },
    "templatetype": "content page 1 column",
    "node_id": null,
    "managing_branch": "comn",
    "has_dcr_id": true,
    "lang": "en"
}