{
    "dcr_id": "1567624714949",
    "title": {
        "en": "St-Hubert brand Chicken Breast Nuggets recalled due to presence of bone fragments",
        "fr": "Rappel de Croquettes de poitrine de poulet de marque St-Hubert en raison de la présence de fragments d'os"
    },
    "html_modified": "2019-09-04",
    "modified": "2019-09-04",
    "issued": "2019-09-04",
    "teamsite_location": {
        "en": "/default/main/inspection/cont-cont/recall-rappel/WORKAREA/recall-rappel/templatedata/comn-comn/recall-rappel/data/20190904_1567624714949_eng",
        "fr": "/default/main/inspection/cont-cont/recall-rappel/WORKAREA/recall-rappel/templatedata/comn-comn/recall-rappel/data/20190904_1567624714949_fra"
    },
    "type_name": "recall-rappel",
    "parent_node_id": null,
    "layout_name": "content page 1 column",
    "breadcrumb": {
        "en": "St-Hubert brand Chicken Breast Nuggets recalled due to presence of bone fragments",
        "fr": "Rappel de Croquettes de poitrine de poulet de marque St-Hubert en raison de la présence de fragments d'os"
    },
    "label": {
        "en": "St-Hubert brand Chicken Breast Nuggets recalled due to presence of bone fragments",
        "fr": "Rappel de Croquettes de poitrine de poulet de marque St-Hubert en raison de la présence de fragments d'os"
    },
    "templatetype": "content page 1 column",
    "node_id": null,
    "managing_branch": "comn",
    "has_dcr_id": true,
    "lang": "en"
}