{
    "dcr_id": "1567201658590",
    "title": {
        "en": "Certain The Deli-Shop brand Pâtés recalled due to <i lang=\"la\">Listeria monocytogenes</i>",
        "fr": "Rappel de certains Pâtés de marque Le Petit Charcutier en raison de la bactérie <i lang=\"la\">Listeria monocytogenes</i>"
    },
    "html_modified": "2019-08-31",
    "modified": "2019-08-30",
    "issued": "2019-08-30",
    "teamsite_location": {
        "en": "/default/main/inspection/cont-cont/recall-rappel/WORKAREA/recall-rappel/templatedata/comn-comn/recall-rappel/data/20190830d_1567201658590_eng",
        "fr": "/default/main/inspection/cont-cont/recall-rappel/WORKAREA/recall-rappel/templatedata/comn-comn/recall-rappel/data/20190830d_1567201658590_fra"
    },
    "type_name": "recall-rappel",
    "parent_node_id": null,
    "layout_name": "content page 1 column",
    "breadcrumb": {
        "en": "Certain The Deli-Shop brand Pâtés recalled due to <i lang=\"la\">Listeria monocytogenes</i>",
        "fr": "Rappel de certains Pâtés de marque Le Petit Charcutier en raison de la bactérie <i lang=\"la\">Listeria monocytogenes</i>"
    },
    "label": {
        "en": "Certain The Deli-Shop brand Pâtés recalled due to <i lang=\"la\">Listeria monocytogenes</i>",
        "fr": "Rappel de certains Pâtés de marque Le Petit Charcutier en raison de la bactérie <i lang=\"la\">Listeria monocytogenes</i>"
    },
    "templatetype": "content page 1 column",
    "node_id": null,
    "managing_branch": "comn",
    "has_dcr_id": true,
    "lang": "en"
}