{
    "dcr_id": "1569374963305",
    "title": {
        "en": "Randsland brand Super Salad Kit and Randsland brand Kale  recalled due to <i lang=\"la\">Listeria monocytogenes</i>",
        "fr": "Rappel de « Sachet de salade super » de marque <span lang=\"en\">Randsland</span> et Chou frisés de marque <span lang=\"en\">Randsland</span> en raison de la bactérie <i lang=\"la\">Listeria monocytogenes</i>"
    },
    "html_modified": "2019-09-24",
    "modified": "2019-09-24",
    "issued": "2019-09-24",
    "teamsite_location": {
        "en": "/default/main/inspection/cont-cont/recall-rappel/WORKAREA/recall-rappel/templatedata/comn-comn/recall-rappel/data/20190924_1569374963305_eng",
        "fr": "/default/main/inspection/cont-cont/recall-rappel/WORKAREA/recall-rappel/templatedata/comn-comn/recall-rappel/data/20190924_1569374963305_fra"
    },
    "type_name": "recall-rappel",
    "parent_node_id": null,
    "layout_name": "content page 1 column",
    "breadcrumb": {
        "en": "Randsland brand Super Salad Kit and Randsland brand Kale  recalled due to <i lang=\"la\">Listeria monocytogenes</i>",
        "fr": "Rappel de « Sachet de salade super » de marque <span lang=\"en\">Randsland</span> et Chou frisés de marque <span lang=\"en\">Randsland</span> en raison de la bactérie <i lang=\"la\">Listeria monocytogenes</i>"
    },
    "label": {
        "en": "Randsland brand Super Salad Kit and Randsland brand Kale  recalled due to <i lang=\"la\">Listeria monocytogenes</i>",
        "fr": "Rappel de « Sachet de salade super » de marque <span lang=\"en\">Randsland</span> et Chou frisés de marque <span lang=\"en\">Randsland</span> en raison de la bactérie <i lang=\"la\">Listeria monocytogenes</i>"
    },
    "templatetype": "content page 1 column",
    "node_id": null,
    "managing_branch": "comn",
    "has_dcr_id": true,
    "lang": "en"
}