{
    "dcr_id": "1572619145789",
    "title": {
        "en": "Deshi brand Keski Shutki - Ganges River Sprat recalled due to malachite green",
        "fr": "Rappel de Keski Shutki - « <span lang=\"en\">Ganges River Sprat</span> » de marque Deshi en raison de la présence de vert malachite"
    },
    "html_modified": "2019-11-01",
    "modified": "2019-11-01",
    "issued": "2019-11-01",
    "teamsite_location": {
        "en": "/default/main/inspection/cont-cont/recall-rappel/WORKAREA/recall-rappel/templatedata/comn-comn/recall-rappel/data/20191024_r13319_1572619145789_eng",
        "fr": "/default/main/inspection/cont-cont/recall-rappel/WORKAREA/recall-rappel/templatedata/comn-comn/recall-rappel/data/20191024_r13319_1572619145789_fra"
    },
    "type_name": "recall-rappel",
    "parent_node_id": null,
    "layout_name": "content page 1 column",
    "breadcrumb": {
        "en": "Deshi brand Keski Shutki - Ganges River Sprat recalled due to malachite green",
        "fr": "Rappel de Keski Shutki - « <span lang=\"en\">Ganges River Sprat</span> » de marque Deshi en raison de la présence de vert malachite"
    },
    "label": {
        "en": "Deshi brand Keski Shutki - Ganges River Sprat recalled due to malachite green",
        "fr": "Rappel de Keski Shutki - « <span lang=\"en\">Ganges River Sprat</span> » de marque Deshi en raison de la présence de vert malachite"
    },
    "templatetype": "content page 1 column",
    "node_id": null,
    "managing_branch": "comn",
    "has_dcr_id": true,
    "lang": "en"
}