{
    "dcr_id": "1572977804354",
    "title": {
        "en": "Ready-to-Eat Filicetti brand Dry Cured Italian Style Sausage (Hot) recalled due to <i lang=\"la\">Salmonella</i>",
        "fr": "Rappel de saucisson à l'italienne salé à sec (fort) de marque Filicetti prêt à manger en raison de la bactérie <i lang=\"la\">Salmonella</i>"
    },
    "html_modified": "2019-11-05",
    "modified": "2019-11-05",
    "issued": "2019-11-05",
    "teamsite_location": {
        "en": "/default/main/inspection/cont-cont/recall-rappel/WORKAREA/recall-rappel/templatedata/comn-comn/recall-rappel/data/20191105_1572977804354_eng",
        "fr": "/default/main/inspection/cont-cont/recall-rappel/WORKAREA/recall-rappel/templatedata/comn-comn/recall-rappel/data/20191105_1572977804354_fra"
    },
    "type_name": "recall-rappel",
    "parent_node_id": null,
    "layout_name": "content page 1 column",
    "breadcrumb": {
        "en": "Ready-to-Eat Filicetti brand Dry Cured Italian Style Sausage (Hot) recalled due to <i lang=\"la\">Salmonella</i>",
        "fr": "Rappel de saucisson à l'italienne salé à sec (fort) de marque Filicetti prêt à manger en raison de la bactérie <i lang=\"la\">Salmonella</i>"
    },
    "label": {
        "en": "Ready-to-Eat Filicetti brand Dry Cured Italian Style Sausage (Hot) recalled due to <i lang=\"la\">Salmonella</i>",
        "fr": "Rappel de saucisson à l'italienne salé à sec (fort) de marque Filicetti prêt à manger en raison de la bactérie <i lang=\"la\">Salmonella</i>"
    },
    "templatetype": "content page 1 column",
    "node_id": null,
    "managing_branch": "comn",
    "has_dcr_id": true,
    "lang": "en"
}