{
    "dcr_id": "1574782041783",
    "title": {
        "en": "Dried Figs Lerida Size 5 recalled due to presence of insects",
        "fr": "Rappel de Figues sèches lerida <span class=\"nowrap\">« <span lang=\"en\">size</span> 5 »</span> en raison de la présence d'insectes"
    },
    "html_modified": "2019-11-27",
    "modified": "2019-11-26",
    "issued": "2019-11-26",
    "teamsite_location": {
        "en": "/default/main/inspection/cont-cont/recall-rappel/WORKAREA/recall-rappel/templatedata/comn-comn/recall-rappel/data/20191125_r13509_1574782041783_eng",
        "fr": "/default/main/inspection/cont-cont/recall-rappel/WORKAREA/recall-rappel/templatedata/comn-comn/recall-rappel/data/20191125_r13509_1574782041783_fra"
    },
    "type_name": "recall-rappel",
    "parent_node_id": null,
    "layout_name": "content page 1 column",
    "breadcrumb": {
        "en": "Dried Figs Lerida Size 5 recalled due to presence of insects",
        "fr": "Rappel de Figues sèches lerida <span class=\"nowrap\">« <span lang=\"en\">size</span> 5 »</span> en raison de la présence d'insectes"
    },
    "label": {
        "en": "Dried Figs Lerida Size 5 recalled due to presence of insects",
        "fr": "Rappel de Figues sèches lerida <span class=\"nowrap\">« <span lang=\"en\">size</span> 5 »</span> en raison de la présence d'insectes"
    },
    "templatetype": "content page 1 column",
    "node_id": null,
    "managing_branch": "comn",
    "has_dcr_id": true,
    "lang": "en"
}