{
    "dcr_id": "1574735681193",
    "title": {
        "en": "Lafleur  brand Original Wieners recalled due to <i lang=\"la\">Listeria  monocytogenes</i>",
        "fr": "Rappel de Saucisses fumées original de marque Lafleur en raison de la bactérie <i lang=\"la\">Listeria monocytogenes</i>"
    },
    "html_modified": "2019-11-25 21:27",
    "modified": "2019-11-25",
    "issued": "2019-11-25",
    "teamsite_location": {
        "en": "/default/main/inspection/cont-cont/recall-rappel/WORKAREA/recall-rappel/templatedata/comn-comn/recall-rappel/data/20191125_1574735681193_eng",
        "fr": "/default/main/inspection/cont-cont/recall-rappel/WORKAREA/recall-rappel/templatedata/comn-comn/recall-rappel/data/20191125_1574735681193_fra"
    },
    "type_name": "recall-rappel",
    "parent_node_id": null,
    "layout_name": "content page 1 column",
    "breadcrumb": {
        "en": "Lafleur  brand Original Wieners recalled due to <i lang=\"la\">Listeria  monocytogenes</i>",
        "fr": "Rappel de Saucisses fumées original de marque Lafleur en raison de la bactérie <i lang=\"la\">Listeria monocytogenes</i>"
    },
    "label": {
        "en": "Lafleur  brand Original Wieners recalled due to <i lang=\"la\">Listeria  monocytogenes</i>",
        "fr": "Rappel de Saucisses fumées original de marque Lafleur en raison de la bactérie <i lang=\"la\">Listeria monocytogenes</i>"
    },
    "templatetype": "content page 1 column",
    "node_id": null,
    "managing_branch": "comn",
    "has_dcr_id": true,
    "lang": "en"
}