{
    "dcr_id": "1575492900719",
    "title": {
        "en": "Ourhome brand Spicy Jjamppongs recalled due to undeclared oyster and squid",
        "fr": "Rappel de « <span lang=\"en\">Spicy Jjamppongs</span> » en raison de la présence non déclarée d'huitre et de calmar"
    },
    "html_modified": "2019-12-05",
    "modified": "2019-12-04",
    "issued": "2019-12-04",
    "teamsite_location": {
        "en": "/default/main/inspection/cont-cont/recall-rappel/WORKAREA/recall-rappel/templatedata/comn-comn/recall-rappel/data/20191127_r13532_1575492900719_eng",
        "fr": "/default/main/inspection/cont-cont/recall-rappel/WORKAREA/recall-rappel/templatedata/comn-comn/recall-rappel/data/20191127_r13532_1575492900719_fra"
    },
    "type_name": "recall-rappel",
    "parent_node_id": null,
    "layout_name": "content page 1 column",
    "breadcrumb": {
        "en": "Ourhome brand Spicy Jjamppongs recalled due to undeclared oyster and squid",
        "fr": "Rappel de « <span lang=\"en\">Spicy Jjamppongs</span> » en raison de la présence non déclarée d'huitre et de calmar"
    },
    "label": {
        "en": "Ourhome brand Spicy Jjamppongs recalled due to undeclared oyster and squid",
        "fr": "Rappel de « <span lang=\"en\">Spicy Jjamppongs</span> » en raison de la présence non déclarée d'huitre et de calmar"
    },
    "templatetype": "content page 1 column",
    "node_id": null,
    "managing_branch": "comn",
    "has_dcr_id": true,
    "lang": "en"
}