{
    "dcr_id": "1578073834544",
    "title": {
        "en": "Hyosung and Hansung brand fish products recalled due to undeclared egg",
        "fr": "Rappel de produits de poisson de marques Hyosung et Hansung en raison de la présence non déclarée d'oeufs"
    },
    "html_modified": "2020-01-03",
    "modified": "2020-01-03",
    "issued": "2020-01-03",
    "teamsite_location": {
        "en": "/default/main/inspection/cont-cont/recall-rappel/WORKAREA/recall-rappel/templatedata/comn-comn/recall-rappel/data/20200102_r13637_1578073834544_eng",
        "fr": "/default/main/inspection/cont-cont/recall-rappel/WORKAREA/recall-rappel/templatedata/comn-comn/recall-rappel/data/20200102_r13637_1578073834544_fra"
    },
    "type_name": "recall-rappel",
    "parent_node_id": null,
    "layout_name": "content page 1 column",
    "breadcrumb": {
        "en": "Hyosung and Hansung brand fish products recalled due to undeclared egg",
        "fr": "Rappel de produits de poisson de marques Hyosung et Hansung en raison de la présence non déclarée d'oeufs"
    },
    "label": {
        "en": "Hyosung and Hansung brand fish products recalled due to undeclared egg",
        "fr": "Rappel de produits de poisson de marques Hyosung et Hansung en raison de la présence non déclarée d'oeufs"
    },
    "templatetype": "content page 1 column",
    "node_id": null,
    "managing_branch": "comn",
    "has_dcr_id": true,
    "lang": "en"
}