{
    "dcr_id": "1579118874265",
    "title": {
        "en": "Viande Richelieu Meat brand horse meat recalled due to presence of clenbuterol",
        "fr": "Rappel de Desosse viande chevaline de marque Viande Richelieu Meat en raison de la présence de clenbuterol"
    },
    "html_modified": "2020-01-17",
    "modified": "2020-01-15",
    "issued": "2020-01-15",
    "teamsite_location": {
        "en": "/default/main/inspection/cont-cont/recall-rappel/WORKAREA/recall-rappel/templatedata/comn-comn/recall-rappel/data/20200114_r13656_1579118874265_eng",
        "fr": "/default/main/inspection/cont-cont/recall-rappel/WORKAREA/recall-rappel/templatedata/comn-comn/recall-rappel/data/20200114_r13656_1579118874265_fra"
    },
    "type_name": "recall-rappel",
    "parent_node_id": null,
    "layout_name": "content page 1 column",
    "breadcrumb": {
        "en": "Viande Richelieu Meat brand horse meat recalled due to presence of clenbuterol",
        "fr": "Rappel de Desosse viande chevaline de marque Viande Richelieu Meat en raison de la présence de clenbuterol"
    },
    "label": {
        "en": "Viande Richelieu Meat brand horse meat recalled due to presence of clenbuterol",
        "fr": "Rappel de Desosse viande chevaline de marque Viande Richelieu Meat en raison de la présence de clenbuterol"
    },
    "templatetype": "content page 1 column",
    "node_id": null,
    "managing_branch": "comn",
    "has_dcr_id": true,
    "lang": "en"
}