{
    "dcr_id": "1581732539742",
    "title": {
        "en": "Goraesa brand Fish Cakes recalled due to undeclared egg",
        "fr": "Rappel de « gateau au poisson » de marque <span lang=\"en\">Goraesa</span> en raison de la présence non déclarée d'œufs"
    },
    "html_modified": "2020-02-14",
    "modified": "2020-02-14",
    "issued": "2020-02-14",
    "teamsite_location": {
        "en": "/default/main/inspection/cont-cont/recall-rappel/WORKAREA/recall-rappel/templatedata/comn-comn/recall-rappel/data/20200214_1581732539742_eng",
        "fr": "/default/main/inspection/cont-cont/recall-rappel/WORKAREA/recall-rappel/templatedata/comn-comn/recall-rappel/data/20200214_1581732539742_fra"
    },
    "type_name": "recall-rappel",
    "parent_node_id": null,
    "layout_name": "content page 1 column",
    "breadcrumb": {
        "en": "Goraesa brand Fish Cakes recalled due to undeclared egg",
        "fr": "Rappel de « gateau au poisson » de marque <span lang=\"en\">Goraesa</span> en raison de la présence non déclarée d'œufs"
    },
    "label": {
        "en": "Goraesa brand Fish Cakes recalled due to undeclared egg",
        "fr": "Rappel de « gateau au poisson » de marque <span lang=\"en\">Goraesa</span> en raison de la présence non déclarée d'œufs"
    },
    "templatetype": "content page 1 column",
    "node_id": null,
    "managing_branch": "comn",
    "has_dcr_id": true,
    "lang": "en"
}