{
    "dcr_id": "1583251178208",
    "title": {
        "en": "Wang Korea brand Mr. Bong Fish Sausage recalled due to undeclared egg",
        "fr": "Rappel de Saucisse de poisson « <span lag=\"en\">Mr. Bong</span> » de marque Wang Korea en raison de la présence non déclarée d'oeufs"
    },
    "html_modified": "2020-03-03",
    "modified": "2020-03-03",
    "issued": "2020-03-03",
    "teamsite_location": {
        "en": "/default/main/inspection/cont-cont/recall-rappel/WORKAREA/recall-rappel/templatedata/comn-comn/recall-rappel/data/20200228_r13729_1583251178208_eng",
        "fr": "/default/main/inspection/cont-cont/recall-rappel/WORKAREA/recall-rappel/templatedata/comn-comn/recall-rappel/data/20200228_r13729_1583251178208_fra"
    },
    "type_name": "recall-rappel",
    "parent_node_id": null,
    "layout_name": "content page 1 column",
    "breadcrumb": {
        "en": "Wang Korea brand Mr. Bong Fish Sausage recalled due to undeclared egg",
        "fr": "Rappel de Saucisse de poisson « <span lag=\"en\">Mr. Bong</span> » de marque Wang Korea en raison de la présence non déclarée d'oeufs"
    },
    "label": {
        "en": "Wang Korea brand Mr. Bong Fish Sausage recalled due to undeclared egg",
        "fr": "Rappel de Saucisse de poisson « <span lag=\"en\">Mr. Bong</span> » de marque Wang Korea en raison de la présence non déclarée d'oeufs"
    },
    "templatetype": "content page 1 column",
    "node_id": null,
    "managing_branch": "comn",
    "has_dcr_id": true,
    "lang": "en"
}