{
    "dcr_id": "1584119853152",
    "title": {
        "en": "Thrifty Kitchens brand Ancient Whole Grains Salad recalled due to presence of stones",
        "fr": "Rappel de « <span lang=\"en\">Ancient Whole Grains Salad</span> » de marque <span lang=\"en\">Thrifty Kitchens</span> en raison de la présence de cailloux"
    },
    "html_modified": "2020-03-13",
    "modified": "2020-03-13",
    "issued": "2020-03-13",
    "teamsite_location": {
        "en": "/default/main/inspection/cont-cont/recall-rappel/WORKAREA/recall-rappel/templatedata/comn-comn/recall-rappel/data/20200311_r13758_1584119853152_eng",
        "fr": "/default/main/inspection/cont-cont/recall-rappel/WORKAREA/recall-rappel/templatedata/comn-comn/recall-rappel/data/20200311_r13758_1584119853152_fra"
    },
    "type_name": "recall-rappel",
    "parent_node_id": null,
    "layout_name": "content page 1 column",
    "breadcrumb": {
        "en": "Thrifty Kitchens brand Ancient Whole Grains Salad recalled due to presence of stones",
        "fr": "Rappel de « <span lang=\"en\">Ancient Whole Grains Salad</span> » de marque <span lang=\"en\">Thrifty Kitchens</span> en raison de la présence de cailloux"
    },
    "label": {
        "en": "Thrifty Kitchens brand Ancient Whole Grains Salad recalled due to presence of stones",
        "fr": "Rappel de « <span lang=\"en\">Ancient Whole Grains Salad</span> » de marque <span lang=\"en\">Thrifty Kitchens</span> en raison de la présence de cailloux"
    },
    "templatetype": "content page 1 column",
    "node_id": null,
    "managing_branch": "comn",
    "has_dcr_id": true,
    "lang": "en"
}