{
    "dcr_id": "1586996841974",
    "title": {
        "en": "<span lang=\"fr\">Fromagerie</span> Blackburn brand <span lang=\"fr\">Le Mont-Jacob</span> semi-soft cheese recalled due to <i lang=\"la\">Listeria monocytogenes</i>",
        "fr": "Rappel du fromage à pâte semi-ferme Le Mont-Jacob de marque Fromagerie <span lang=\"en\">Blackburn</span> en raison de la bactérie <i lang=\"la\">Listeria monocytogenes</i>"
    },
    "html_modified": "2020-04-15",
    "modified": "2020-04-15",
    "issued": "2020-04-15",
    "teamsite_location": {
        "en": "/default/main/inspection/cont-cont/recall-rappel/WORKAREA/recall-rappel/templatedata/comn-comn/recall-rappel/data/20200415_1586996841974_eng",
        "fr": "/default/main/inspection/cont-cont/recall-rappel/WORKAREA/recall-rappel/templatedata/comn-comn/recall-rappel/data/20200415_1586996841974_fra"
    },
    "type_name": "recall-rappel",
    "parent_node_id": null,
    "layout_name": "content page 1 column",
    "breadcrumb": {
        "en": "<span lang=\"fr\">Fromagerie</span> Blackburn brand <span lang=\"fr\">Le Mont-Jacob</span> semi-soft cheese recalled due to <i lang=\"la\">Listeria monocytogenes</i>",
        "fr": "Rappel du fromage à pâte semi-ferme Le Mont-Jacob de marque Fromagerie <span lang=\"en\">Blackburn</span> en raison de la bactérie <i lang=\"la\">Listeria monocytogenes</i>"
    },
    "label": {
        "en": "<span lang=\"fr\">Fromagerie</span> Blackburn brand <span lang=\"fr\">Le Mont-Jacob</span> semi-soft cheese recalled due to <i lang=\"la\">Listeria monocytogenes</i>",
        "fr": "Rappel du fromage à pâte semi-ferme Le Mont-Jacob de marque Fromagerie <span lang=\"en\">Blackburn</span> en raison de la bactérie <i lang=\"la\">Listeria monocytogenes</i>"
    },
    "templatetype": "content page 1 column",
    "node_id": null,
    "managing_branch": "comn",
    "has_dcr_id": true,
    "lang": "en"
}