{
    "dcr_id": "1590617637156",
    "title": {
        "en": "Joe's Gluten-Free Foods brand Potato &amp; Onion Perogies recalled due to undeclared milk",
        "fr": "Rappel de Perogies pomme de terre et oignon de marque <span lang=\"en\">Joe's Gluten-Free Foods</span> en raison de la présence non déclarée de lait"
    },
    "html_modified": "2020-05-27",
    "modified": "2020-05-27",
    "issued": "2020-05-27",
    "teamsite_location": {
        "en": "/default/main/inspection/cont-cont/recall-rappel/WORKAREA/recall-rappel/templatedata/comn-comn/recall-rappel/data/20200527_1590617637156_eng",
        "fr": "/default/main/inspection/cont-cont/recall-rappel/WORKAREA/recall-rappel/templatedata/comn-comn/recall-rappel/data/20200527_1590617637156_fra"
    },
    "type_name": "recall-rappel",
    "parent_node_id": null,
    "layout_name": "content page 1 column",
    "breadcrumb": {
        "en": "Joe's Gluten-Free Foods brand Potato &amp; Onion Perogies recalled due to undeclared milk",
        "fr": "Rappel de Perogies pomme de terre et oignon de marque <span lang=\"en\">Joe's Gluten-Free Foods</span> en raison de la présence non déclarée de lait"
    },
    "label": {
        "en": "Joe's Gluten-Free Foods brand Potato &amp; Onion Perogies recalled due to undeclared milk",
        "fr": "Rappel de Perogies pomme de terre et oignon de marque <span lang=\"en\">Joe's Gluten-Free Foods</span> en raison de la présence non déclarée de lait"
    },
    "templatetype": "content page 1 column",
    "node_id": null,
    "managing_branch": "comn",
    "has_dcr_id": true,
    "lang": "en"
}