{
    "dcr_id": "1593460437193",
    "title": {
        "en": "Mampster brand and Super Vege brand Old Fashion Punjabi Biscuits and Fresh Cookies recalled due to off odour and off taste",
        "fr": "Rappel de « <span lang=\"la\">Old Fashion Punjabi Biscuits</span> » et de « <span lang=\"la\">Fresh Cookies</span> » de marque <span lang=\"la\">Mampster</span> et de marque <span lang=\"la\">Super Vege</span> en raison d'odeur et de goût désagréable"
    },
    "html_modified": "2020-06-30",
    "modified": "2020-06-29",
    "issued": "2020-06-29",
    "teamsite_location": {
        "en": "/default/main/inspection/cont-cont/recall-rappel/WORKAREA/recall-rappel/templatedata/comn-comn/recall-rappel/data/20200622_r13882_1593460437193_eng",
        "fr": "/default/main/inspection/cont-cont/recall-rappel/WORKAREA/recall-rappel/templatedata/comn-comn/recall-rappel/data/20200622_r13882_1593460437193_fra"
    },
    "type_name": "recall-rappel",
    "parent_node_id": null,
    "layout_name": "content page 1 column",
    "breadcrumb": {
        "en": "Mampster brand and Super Vege brand Old Fashion Punjabi Biscuits and Fresh Cookies recalled due to off odour and off taste",
        "fr": "Rappel de « <span lang=\"la\">Old Fashion Punjabi Biscuits</span> » et de « <span lang=\"la\">Fresh Cookies</span> » de marque <span lang=\"la\">Mampster</span> et de marque <span lang=\"la\">Super Vege</span> en raison d'odeur et de goût désagréable"
    },
    "label": {
        "en": "Mampster brand and Super Vege brand Old Fashion Punjabi Biscuits and Fresh Cookies recalled due to off odour and off taste",
        "fr": "Rappel de « <span lang=\"la\">Old Fashion Punjabi Biscuits</span> » et de « <span lang=\"la\">Fresh Cookies</span> » de marque <span lang=\"la\">Mampster</span> et de marque <span lang=\"la\">Super Vege</span> en raison d'odeur et de goût désagréable"
    },
    "templatetype": "content page 1 column",
    "node_id": null,
    "managing_branch": "comn",
    "has_dcr_id": true,
    "lang": "en"
}