{
    "dcr_id": "1594310505408",
    "title": {
        "en": "Gourmet Sauvage brand mustard products recalled due to undeclared sulphites",
        "fr": "Rappel de moutardes de marque Gourmet Sauvage en raison de la présence non déclarée de sulfites"
    },
    "html_modified": "2020-07-09",
    "modified": "2020-07-09",
    "issued": "2020-07-09",
    "teamsite_location": {
        "en": "/default/main/inspection/cont-cont/recall-rappel/WORKAREA/recall-rappel/templatedata/comn-comn/recall-rappel/data/20200706_r13896_1594310505408_eng",
        "fr": "/default/main/inspection/cont-cont/recall-rappel/WORKAREA/recall-rappel/templatedata/comn-comn/recall-rappel/data/20200706_r13896_1594310505408_fra"
    },
    "type_name": "recall-rappel",
    "parent_node_id": null,
    "layout_name": "content page 1 column",
    "breadcrumb": {
        "en": "Gourmet Sauvage brand mustard products recalled due to undeclared sulphites",
        "fr": "Rappel de moutardes de marque Gourmet Sauvage en raison de la présence non déclarée de sulfites"
    },
    "label": {
        "en": "Gourmet Sauvage brand mustard products recalled due to undeclared sulphites",
        "fr": "Rappel de moutardes de marque Gourmet Sauvage en raison de la présence non déclarée de sulfites"
    },
    "templatetype": "content page 1 column",
    "node_id": null,
    "managing_branch": "comn",
    "has_dcr_id": true,
    "lang": "en"
}