{
    "dcr_id": "1598629446272",
    "title": {
        "en": "Dom Duarte brand Emagrecimento Tea recalled due to non-permitted food ingredients",
        "fr": "Rappel de « thé Emagrecimento » de marque Dom Duarte en raison d'un problème d'ingrédients non permis"
    },
    "html_modified": "2020-08-28",
    "modified": "2020-08-28",
    "issued": "2020-08-28",
    "teamsite_location": {
        "en": "/default/main/inspection/cont-cont/recall-rappel/WORKAREA/recall-rappel/templatedata/comn-comn/recall-rappel/data/20200827_r13988_1598629446272_eng",
        "fr": "/default/main/inspection/cont-cont/recall-rappel/WORKAREA/recall-rappel/templatedata/comn-comn/recall-rappel/data/20200827_r13988_1598629446272_fra"
    },
    "type_name": "recall-rappel",
    "parent_node_id": null,
    "layout_name": "content page 1 column",
    "breadcrumb": {
        "en": "Dom Duarte brand Emagrecimento Tea recalled due to non-permitted food ingredients",
        "fr": "Rappel de « thé Emagrecimento » de marque Dom Duarte en raison d'un problème d'ingrédients non permis"
    },
    "label": {
        "en": "Dom Duarte brand Emagrecimento Tea recalled due to non-permitted food ingredients",
        "fr": "Rappel de « thé Emagrecimento » de marque Dom Duarte en raison d'un problème d'ingrédients non permis"
    },
    "templatetype": "content page 1 column",
    "node_id": null,
    "managing_branch": "comn",
    "has_dcr_id": true,
    "lang": "en"
}