{
    "dcr_id": "1600479899958",
    "title": {
        "en": "PC Blue Menu brand Artichoke &amp; Asiago Dip recalled due to undeclared egg",
        "fr": "Rappel de Trempette artichauts et asiago de marque PC Menu Bleu en raison de la présence non déclarée d'œufs"
    },
    "html_modified": "2020-09-18",
    "modified": "2020-09-18",
    "issued": "2020-09-18",
    "teamsite_location": {
        "en": "/default/main/inspection/cont-cont/recall-rappel/WORKAREA/recall-rappel/templatedata/comn-comn/recall-rappel/data/20200918b_1600479899958_eng",
        "fr": "/default/main/inspection/cont-cont/recall-rappel/WORKAREA/recall-rappel/templatedata/comn-comn/recall-rappel/data/20200918b_1600479899958_fra"
    },
    "type_name": "recall-rappel",
    "parent_node_id": null,
    "layout_name": "content page 1 column",
    "breadcrumb": {
        "en": "PC Blue Menu brand Artichoke &amp; Asiago Dip recalled due to undeclared egg",
        "fr": "Rappel de Trempette artichauts et asiago de marque PC Menu Bleu en raison de la présence non déclarée d'œufs"
    },
    "label": {
        "en": "PC Blue Menu brand Artichoke &amp; Asiago Dip recalled due to undeclared egg",
        "fr": "Rappel de Trempette artichauts et asiago de marque PC Menu Bleu en raison de la présence non déclarée d'œufs"
    },
    "templatetype": "content page 1 column",
    "node_id": null,
    "managing_branch": "comn",
    "has_dcr_id": true,
    "lang": "en"
}