{
    "dcr_id": "1601059648943",
    "title": {
        "en": "Butchers Choice brand Medium Ground Beef Butcher Pack recalled due to pieces of plastic",
        "fr": "Rappel de « <span lang=\"en\">Medium Ground Beef Butcher Pack</span> » de marque <span lang=\"en\">Butchers Choice</span> en raison de la présence de morceaux de plastique"
    },
    "html_modified": "2020-09-25",
    "modified": "2020-09-25",
    "issued": "2020-09-25",
    "teamsite_location": {
        "en": "/default/main/inspection/cont-cont/recall-rappel/WORKAREA/recall-rappel/templatedata/comn-comn/recall-rappel/data/20200925_r14023_1601059648943_eng",
        "fr": "/default/main/inspection/cont-cont/recall-rappel/WORKAREA/recall-rappel/templatedata/comn-comn/recall-rappel/data/20200925_r14023_1601059648943_fra"
    },
    "type_name": "recall-rappel",
    "parent_node_id": null,
    "layout_name": "content page 1 column",
    "breadcrumb": {
        "en": "Butchers Choice brand Medium Ground Beef Butcher Pack recalled due to pieces of plastic",
        "fr": "Rappel de « <span lang=\"en\">Medium Ground Beef Butcher Pack</span> » de marque <span lang=\"en\">Butchers Choice</span> en raison de la présence de morceaux de plastique"
    },
    "label": {
        "en": "Butchers Choice brand Medium Ground Beef Butcher Pack recalled due to pieces of plastic",
        "fr": "Rappel de « <span lang=\"en\">Medium Ground Beef Butcher Pack</span> » de marque <span lang=\"en\">Butchers Choice</span> en raison de la présence de morceaux de plastique"
    },
    "templatetype": "content page 1 column",
    "node_id": null,
    "managing_branch": "comn",
    "has_dcr_id": true,
    "lang": "en"
}