{
    "dcr_id": "1605990740487",
    "title": {
        "en": "Eggs from <span lang=\"fr\">Les Œufs</span> Richard Eggs Inc. recalled due to <i lang=\"la\">Salmonella</i>",
        "fr": "Rappel d'œufs de Les Œufs <span lang=\"en\">Richard Eggs</span> Inc. en raison de la bactérie <i lang=\"la\">Salmonella</i>"
    },
    "html_modified": "2020-11-21",
    "modified": "2020-11-21",
    "issued": "2020-11-21",
    "teamsite_location": {
        "en": "/default/main/inspection/cont-cont/recall-rappel/WORKAREA/recall-rappel/templatedata/comn-comn/recall-rappel/data/20201121_1605990740487_eng",
        "fr": "/default/main/inspection/cont-cont/recall-rappel/WORKAREA/recall-rappel/templatedata/comn-comn/recall-rappel/data/20201121_1605990740487_fra"
    },
    "type_name": "recall-rappel",
    "parent_node_id": null,
    "layout_name": "content page 1 column",
    "breadcrumb": {
        "en": "Eggs from <span lang=\"fr\">Les Œufs</span> Richard Eggs Inc. recalled due to <i lang=\"la\">Salmonella</i>",
        "fr": "Rappel d'œufs de Les Œufs <span lang=\"en\">Richard Eggs</span> Inc. en raison de la bactérie <i lang=\"la\">Salmonella</i>"
    },
    "label": {
        "en": "Eggs from <span lang=\"fr\">Les Œufs</span> Richard Eggs Inc. recalled due to <i lang=\"la\">Salmonella</i>",
        "fr": "Rappel d'œufs de Les Œufs <span lang=\"en\">Richard Eggs</span> Inc. en raison de la bactérie <i lang=\"la\">Salmonella</i>"
    },
    "templatetype": "content page 1 column",
    "node_id": null,
    "managing_branch": "comn",
    "has_dcr_id": true,
    "lang": "en"
}