{
    "dcr_id": "1605385736902",
    "title": {
        "en": "Isagenix brand Isalean Whole Blend plant-based shake Banana Bread Flavour may be unsafe due to over-fortification of minerals",
        "fr": "Fouetté à base de plantes « <span lang=\"en\">Whole Blend</span> » à la saveur de pain à la banane de marque <span lang=\"en\">Isagenix Isalean</span> pourrait être dangereux en raison d'un surenrichissement des minéraux"
    },
    "html_modified": "2020-11-14",
    "modified": "2020-11-14",
    "issued": "2020-11-14",
    "teamsite_location": {
        "en": "/default/main/inspection/cont-cont/recall-rappel/WORKAREA/recall-rappel/templatedata/comn-comn/recall-rappel/data/20201114_1605385736902_eng",
        "fr": "/default/main/inspection/cont-cont/recall-rappel/WORKAREA/recall-rappel/templatedata/comn-comn/recall-rappel/data/20201114_1605385736902_fra"
    },
    "type_name": "recall-rappel",
    "parent_node_id": null,
    "layout_name": "content page 1 column",
    "breadcrumb": {
        "en": "Isagenix brand Isalean Whole Blend plant-based shake Banana Bread Flavour may be unsafe due to over-fortification of minerals",
        "fr": "Fouetté à base de plantes « <span lang=\"en\">Whole Blend</span> » à la saveur de pain à la banane de marque <span lang=\"en\">Isagenix Isalean</span> pourrait être dangereux en raison d'un surenrichissement des minéraux"
    },
    "label": {
        "en": "Isagenix brand Isalean Whole Blend plant-based shake Banana Bread Flavour may be unsafe due to over-fortification of minerals",
        "fr": "Fouetté à base de plantes « <span lang=\"en\">Whole Blend</span> » à la saveur de pain à la banane de marque <span lang=\"en\">Isagenix Isalean</span> pourrait être dangereux en raison d'un surenrichissement des minéraux"
    },
    "templatetype": "content page 1 column",
    "node_id": null,
    "managing_branch": "comn",
    "has_dcr_id": true,
    "lang": "en"
}