{
    "dcr_id": "1605538207071",
    "title": {
        "en": "Gelsius brand IQF Sliced White Apples recalled due to undeclared sulphites",
        "fr": "Rappel de Pommes blanches tranchées IQF de marque Gelsius en raison de la présence non déclarée de sulfites"
    },
    "html_modified": "2020-11-16",
    "modified": "2020-11-16",
    "issued": "2020-11-16",
    "teamsite_location": {
        "en": "/default/main/inspection/cont-cont/recall-rappel/WORKAREA/recall-rappel/templatedata/comn-comn/recall-rappel/data/20201113_r14091_1605538207071_eng",
        "fr": "/default/main/inspection/cont-cont/recall-rappel/WORKAREA/recall-rappel/templatedata/comn-comn/recall-rappel/data/20201113_r14091_1605538207071_fra"
    },
    "type_name": "recall-rappel",
    "parent_node_id": null,
    "layout_name": "content page 1 column",
    "breadcrumb": {
        "en": "Gelsius brand IQF Sliced White Apples recalled due to undeclared sulphites",
        "fr": "Rappel de Pommes blanches tranchées IQF de marque Gelsius en raison de la présence non déclarée de sulfites"
    },
    "label": {
        "en": "Gelsius brand IQF Sliced White Apples recalled due to undeclared sulphites",
        "fr": "Rappel de Pommes blanches tranchées IQF de marque Gelsius en raison de la présence non déclarée de sulfites"
    },
    "templatetype": "content page 1 column",
    "node_id": null,
    "managing_branch": "comn",
    "has_dcr_id": true,
    "lang": "en"
}