{
    "dcr_id": "1606437567499",
    "title": {
        "en": "Bottled beef and Bottled chicken made by Robert Waite, sold with no labels, may be unsafe due to potential presence of dangerous bacteria",
        "fr": "Bœuf en bouteille et Poulet en bouteille fabriqués par <span lang=\"en\">Robert Waite</span>, vendus sans étiquette, pourraient être dangereuses en raison de la présence possible de bactéries dangereuses"
    },
    "html_modified": "2020-11-26",
    "modified": "2020-11-26",
    "issued": "2020-11-26",
    "teamsite_location": {
        "en": "/default/main/inspection/cont-cont/recall-rappel/WORKAREA/recall-rappel/templatedata/comn-comn/recall-rappel/data/20201126b_1606437567499_eng",
        "fr": "/default/main/inspection/cont-cont/recall-rappel/WORKAREA/recall-rappel/templatedata/comn-comn/recall-rappel/data/20201126b_1606437567499_fra"
    },
    "type_name": "recall-rappel",
    "parent_node_id": null,
    "layout_name": "content page 1 column",
    "breadcrumb": {
        "en": "Bottled beef and Bottled chicken made by Robert Waite, sold with no labels, may be unsafe due to potential presence of dangerous bacteria",
        "fr": "Bœuf en bouteille et Poulet en bouteille fabriqués par <span lang=\"en\">Robert Waite</span>, vendus sans étiquette, pourraient être dangereuses en raison de la présence possible de bactéries dangereuses"
    },
    "label": {
        "en": "Bottled beef and Bottled chicken made by Robert Waite, sold with no labels, may be unsafe due to potential presence of dangerous bacteria",
        "fr": "Bœuf en bouteille et Poulet en bouteille fabriqués par <span lang=\"en\">Robert Waite</span>, vendus sans étiquette, pourraient être dangereuses en raison de la présence possible de bactéries dangereuses"
    },
    "templatetype": "content page 1 column",
    "node_id": null,
    "managing_branch": "comn",
    "has_dcr_id": true,
    "lang": "en"
}