{
    "dcr_id": "1607012841705",
    "title": {
        "en": "Ding Ho Foods brand Fried Fish Balls recalled due to pieces of plastic",
        "fr": "Rappel de Boules de poissons frit de marque <span lang=\"en\">Ding Ho Foods</span> en raison de la présence de morceaux de plastique"
    },
    "html_modified": "2020-12-03",
    "modified": "2020-12-03",
    "issued": "2020-12-03",
    "teamsite_location": {
        "en": "/default/main/inspection/cont-cont/recall-rappel/WORKAREA/recall-rappel/templatedata/comn-comn/recall-rappel/data/20201202_r14124_1607012841705_eng",
        "fr": "/default/main/inspection/cont-cont/recall-rappel/WORKAREA/recall-rappel/templatedata/comn-comn/recall-rappel/data/20201202_r14124_1607012841705_fra"
    },
    "type_name": "recall-rappel",
    "parent_node_id": null,
    "layout_name": "content page 1 column",
    "breadcrumb": {
        "en": "Ding Ho Foods brand Fried Fish Balls recalled due to pieces of plastic",
        "fr": "Rappel de Boules de poissons frit de marque <span lang=\"en\">Ding Ho Foods</span> en raison de la présence de morceaux de plastique"
    },
    "label": {
        "en": "Ding Ho Foods brand Fried Fish Balls recalled due to pieces of plastic",
        "fr": "Rappel de Boules de poissons frit de marque <span lang=\"en\">Ding Ho Foods</span> en raison de la présence de morceaux de plastique"
    },
    "templatetype": "content page 1 column",
    "node_id": null,
    "managing_branch": "comn",
    "has_dcr_id": true,
    "lang": "en"
}