{
    "dcr_id": "1609457295816",
    "title": {
        "en": "Merrylady brand Blue Non-Dairy Whip Topping recalled due to undeclared milk",
        "fr": "Rappel de « <span lang=\"en\">Blue Non-Dairy Whip Topping</span> » de marque <span lang=\"en\">Merrylady</span> en raison de la présence non déclarée de lait"
    },
    "html_modified": "2020-12-31",
    "modified": "2021-01-05",
    "issued": "2020-12-31",
    "teamsite_location": {
        "en": "/default/main/inspection/cont-cont/recall-rappel/WORKAREA/recall-rappel/templatedata/comn-comn/recall-rappel/data/20201231_1609457295816_eng",
        "fr": "/default/main/inspection/cont-cont/recall-rappel/WORKAREA/recall-rappel/templatedata/comn-comn/recall-rappel/data/20201231_1609457295816_fra"
    },
    "type_name": "recall-rappel",
    "parent_node_id": null,
    "layout_name": "content page 1 column",
    "breadcrumb": {
        "en": "Merrylady brand Blue Non-Dairy Whip Topping recalled due to undeclared milk",
        "fr": "Rappel de « <span lang=\"en\">Blue Non-Dairy Whip Topping</span> » de marque <span lang=\"en\">Merrylady</span> en raison de la présence non déclarée de lait"
    },
    "label": {
        "en": "Merrylady brand Blue Non-Dairy Whip Topping recalled due to undeclared milk",
        "fr": "Rappel de « <span lang=\"en\">Blue Non-Dairy Whip Topping</span> » de marque <span lang=\"en\">Merrylady</span> en raison de la présence non déclarée de lait"
    },
    "templatetype": "content page 1 column",
    "node_id": null,
    "managing_branch": "comn",
    "has_dcr_id": true,
    "lang": "en"
}