{
    "dcr_id": "1611979385715",
    "title": {
        "en": "Certain recalled Isagenix brand products being sold through various internet sites may be unsafe due to over-fortification of vitamins",
        "fr": "Certains produits de marque Isagenix visés par un rappel et vendus au moyen de différents sites Internet pourraient être dangereux en raison d'un enrichissement des vitamines excédentaires"
    },
    "html_modified": "2021-01-29",
    "modified": "2021-01-29",
    "issued": "2021-01-29",
    "teamsite_location": {
        "en": "/default/main/inspection/cont-cont/recall-rappel/WORKAREA/recall-rappel/templatedata/comn-comn/recall-rappel/data/20210129_1611979385715_eng",
        "fr": "/default/main/inspection/cont-cont/recall-rappel/WORKAREA/recall-rappel/templatedata/comn-comn/recall-rappel/data/20210129_1611979385715_fra"
    },
    "type_name": "recall-rappel",
    "parent_node_id": null,
    "layout_name": "content page 1 column",
    "breadcrumb": {
        "en": "Certain recalled Isagenix brand products being sold through various internet sites may be unsafe due to over-fortification of vitamins",
        "fr": "Certains produits de marque Isagenix visés par un rappel et vendus au moyen de différents sites Internet pourraient être dangereux en raison d'un enrichissement des vitamines excédentaires"
    },
    "label": {
        "en": "Certain recalled Isagenix brand products being sold through various internet sites may be unsafe due to over-fortification of vitamins",
        "fr": "Certains produits de marque Isagenix visés par un rappel et vendus au moyen de différents sites Internet pourraient être dangereux en raison d'un enrichissement des vitamines excédentaires"
    },
    "templatetype": "content page 1 column",
    "node_id": null,
    "managing_branch": "comn",
    "has_dcr_id": true,
    "lang": "en"
}