{
    "dcr_id": "1611328722975",
    "title": {
        "en": "Farma Elassonas brand P.D.O Kefalograviera (Cheese) recalled due to generic <i lang\"la\">E. coli</i>",
        "fr": "Rappel de P.D.O. Kefalograviera (fromage) de marque Farma Elassonas en raison de la présence d'<i lang=\"la\">E. coli</i> générique"
    },
    "html_modified": "2021-01-22",
    "modified": "2021-01-22",
    "issued": "2021-01-22",
    "teamsite_location": {
        "en": "/default/main/inspection/cont-cont/recall-rappel/WORKAREA/recall-rappel/templatedata/comn-comn/recall-rappel/data/20210118_r14184_1611328722975_eng",
        "fr": "/default/main/inspection/cont-cont/recall-rappel/WORKAREA/recall-rappel/templatedata/comn-comn/recall-rappel/data/20210118_r14184_1611328722975_fra"
    },
    "type_name": "recall-rappel",
    "parent_node_id": null,
    "layout_name": "content page 1 column",
    "breadcrumb": {
        "en": "Farma Elassonas brand P.D.O Kefalograviera (Cheese) recalled due to generic <i lang\"la\">E. coli</i>",
        "fr": "Rappel de P.D.O. Kefalograviera (fromage) de marque Farma Elassonas en raison de la présence d'<i lang=\"la\">E. coli</i> générique"
    },
    "label": {
        "en": "Farma Elassonas brand P.D.O Kefalograviera (Cheese) recalled due to generic <i lang\"la\">E. coli</i>",
        "fr": "Rappel de P.D.O. Kefalograviera (fromage) de marque Farma Elassonas en raison de la présence d'<i lang=\"la\">E. coli</i> générique"
    },
    "templatetype": "content page 1 column",
    "node_id": null,
    "managing_branch": "comn",
    "has_dcr_id": true,
    "lang": "en"
}