{
    "dcr_id": "1612290713553",
    "title": {
        "en": "<span lang=\"fr\">Rougié</span> brand Duck <span lang=\"fr\">Foie Gras</span> recalled due to undeclared milk",
        "fr": "Rappel de Foie gras de canard de marque Rougié en raison de la présence non déclarée de lait"
    },
    "html_modified": "2021-02-02",
    "modified": "2021-02-02",
    "issued": "2021-02-02",
    "teamsite_location": {
        "en": "/default/main/inspection/cont-cont/recall-rappel/WORKAREA/recall-rappel/templatedata/comn-comn/recall-rappel/data/20210201_r14214_1612290713553_eng",
        "fr": "/default/main/inspection/cont-cont/recall-rappel/WORKAREA/recall-rappel/templatedata/comn-comn/recall-rappel/data/20210201_r14214_1612290713553_fra"
    },
    "type_name": "recall-rappel",
    "parent_node_id": null,
    "layout_name": "content page 1 column",
    "breadcrumb": {
        "en": "<span lang=\"fr\">Rougié</span> brand Duck <span lang=\"fr\">Foie Gras</span> recalled due to undeclared milk",
        "fr": "Rappel de Foie gras de canard de marque Rougié en raison de la présence non déclarée de lait"
    },
    "label": {
        "en": "<span lang=\"fr\">Rougié</span> brand Duck <span lang=\"fr\">Foie Gras</span> recalled due to undeclared milk",
        "fr": "Rappel de Foie gras de canard de marque Rougié en raison de la présence non déclarée de lait"
    },
    "templatetype": "content page 1 column",
    "node_id": null,
    "managing_branch": "comn",
    "has_dcr_id": true,
    "lang": "en"
}