{
    "dcr_id": "1616259412098",
    "title": {
        "en": "Co-op Gold Pure brand Almond Butter – Crunchy Roasted recalled due to undeclared cashew and Co-op Gold Pure brand Cashew Butter recalled due to undeclared almond",
        "fr": "Rappel de « Beurre d'amande – Rôties croquant » de marque Co-op d'Or Pure en raison de la présence non déclarée de noix de cajou et de Beurre de noix de cajou de marque Co-op d'Or Pure en raison de la présence non déclarée d'amandes"
    },
    "html_modified": "2021-03-20",
    "modified": "2021-03-20",
    "issued": "2021-03-20",
    "teamsite_location": {
        "en": "/default/main/inspection/cont-cont/recall-rappel/WORKAREA/recall-rappel/templatedata/comn-comn/recall-rappel/data/20210320_1616259412098_eng",
        "fr": "/default/main/inspection/cont-cont/recall-rappel/WORKAREA/recall-rappel/templatedata/comn-comn/recall-rappel/data/20210320_1616259412098_fra"
    },
    "type_name": "recall-rappel",
    "parent_node_id": null,
    "layout_name": "content page 1 column",
    "breadcrumb": {
        "en": "Co-op Gold Pure brand Almond Butter – Crunchy Roasted recalled due to undeclared cashew and Co-op Gold Pure brand Cashew Butter recalled due to undeclared almond",
        "fr": "Rappel de « Beurre d'amande – Rôties croquant » de marque Co-op d'Or Pure en raison de la présence non déclarée de noix de cajou et de Beurre de noix de cajou de marque Co-op d'Or Pure en raison de la présence non déclarée d'amandes"
    },
    "label": {
        "en": "Co-op Gold Pure brand Almond Butter – Crunchy Roasted recalled due to undeclared cashew and Co-op Gold Pure brand Cashew Butter recalled due to undeclared almond",
        "fr": "Rappel de « Beurre d'amande – Rôties croquant » de marque Co-op d'Or Pure en raison de la présence non déclarée de noix de cajou et de Beurre de noix de cajou de marque Co-op d'Or Pure en raison de la présence non déclarée d'amandes"
    },
    "templatetype": "content page 1 column",
    "node_id": null,
    "managing_branch": "comn",
    "has_dcr_id": true,
    "lang": "en"
}