{
    "dcr_id": "1616598981992",
    "title": {
        "en": "SugarSin brand Gummies recalled due to presence of insects",
        "fr": "Rappel de « <span lang=\"en\">Gummies</span> » de marque <span lang=\"en\">SugarSin</span> en raison de la présence d'insectes"
    },
    "html_modified": "2021-03-24",
    "modified": "2021-03-24",
    "issued": "2021-03-24",
    "teamsite_location": {
        "en": "/default/main/inspection/cont-cont/recall-rappel/WORKAREA/recall-rappel/templatedata/comn-comn/recall-rappel/data/20210318_r14290_1616598981992_eng",
        "fr": "/default/main/inspection/cont-cont/recall-rappel/WORKAREA/recall-rappel/templatedata/comn-comn/recall-rappel/data/20210318_r14290_1616598981992_fra"
    },
    "type_name": "recall-rappel",
    "parent_node_id": null,
    "layout_name": "content page 1 column",
    "breadcrumb": {
        "en": "SugarSin brand Gummies recalled due to presence of insects",
        "fr": "Rappel de « <span lang=\"en\">Gummies</span> » de marque <span lang=\"en\">SugarSin</span> en raison de la présence d'insectes"
    },
    "label": {
        "en": "SugarSin brand Gummies recalled due to presence of insects",
        "fr": "Rappel de « <span lang=\"en\">Gummies</span> » de marque <span lang=\"en\">SugarSin</span> en raison de la présence d'insectes"
    },
    "templatetype": "content page 1 column",
    "node_id": null,
    "managing_branch": "comn",
    "has_dcr_id": true,
    "lang": "en"
}