{
    "dcr_id": "1618006184144",
    "title": {
        "en": "Co-op Gold Pure brand Almond Butter – Crunchy Roasted recalled due to undeclared cashew and hazelnut",
        "fr": "Rappel de « Beurre d'amande – Rôties croquant » de marque Co-op d'Or Pure en raison de la présence non déclarée de noix de cajou et de noisettes"
    },
    "html_modified": "2021-04-09",
    "modified": "2021-04-09",
    "issued": "2021-04-09",
    "teamsite_location": {
        "en": "/default/main/inspection/cont-cont/recall-rappel/WORKAREA/recall-rappel/templatedata/comn-comn/recall-rappel/data/20210409b_1618006184144_eng",
        "fr": "/default/main/inspection/cont-cont/recall-rappel/WORKAREA/recall-rappel/templatedata/comn-comn/recall-rappel/data/20210409b_1618006184144_fra"
    },
    "type_name": "recall-rappel",
    "parent_node_id": null,
    "layout_name": "content page 1 column",
    "breadcrumb": {
        "en": "Co-op Gold Pure brand Almond Butter – Crunchy Roasted recalled due to undeclared cashew and hazelnut",
        "fr": "Rappel de « Beurre d'amande – Rôties croquant » de marque Co-op d'Or Pure en raison de la présence non déclarée de noix de cajou et de noisettes"
    },
    "label": {
        "en": "Co-op Gold Pure brand Almond Butter – Crunchy Roasted recalled due to undeclared cashew and hazelnut",
        "fr": "Rappel de « Beurre d'amande – Rôties croquant » de marque Co-op d'Or Pure en raison de la présence non déclarée de noix de cajou et de noisettes"
    },
    "templatetype": "content page 1 column",
    "node_id": null,
    "managing_branch": "comn",
    "has_dcr_id": true,
    "lang": "en"
}