{
    "dcr_id": "1620873492820",
    "title": {
        "en": "<span lang=\"it\">Castel Regio</span> brand <span lang=\"it\">Taleggio DOP</span> recalled due to <i lang=\"la\">Listeria monocytogenes</i>",
        "fr": "Rappel de <span lang=\"it\">Taleggio DOP</span> de marque <span lang=\"it\">Castel Regio</span> en raison de la bactérie <i lang=\"la\">Listeria monocytogenes</i>"
    },
    "html_modified": "2021-05-12",
    "modified": "2021-05-13",
    "issued": "2021-05-12",
    "teamsite_location": {
        "en": "/default/main/inspection/cont-cont/recall-rappel/WORKAREA/recall-rappel/templatedata/comn-comn/recall-rappel/data/20210512_1620873492820_eng",
        "fr": "/default/main/inspection/cont-cont/recall-rappel/WORKAREA/recall-rappel/templatedata/comn-comn/recall-rappel/data/20210512_1620873492820_fra"
    },
    "type_name": "recall-rappel",
    "parent_node_id": null,
    "layout_name": "content page 1 column",
    "breadcrumb": {
        "en": "<span lang=\"it\">Castel Regio</span> brand <span lang=\"it\">Taleggio DOP</span> recalled due to <i lang=\"la\">Listeria monocytogenes</i>",
        "fr": "Rappel de <span lang=\"it\">Taleggio DOP</span> de marque <span lang=\"it\">Castel Regio</span> en raison de la bactérie <i lang=\"la\">Listeria monocytogenes</i>"
    },
    "label": {
        "en": "<span lang=\"it\">Castel Regio</span> brand <span lang=\"it\">Taleggio DOP</span> recalled due to <i lang=\"la\">Listeria monocytogenes</i>",
        "fr": "Rappel de <span lang=\"it\">Taleggio DOP</span> de marque <span lang=\"it\">Castel Regio</span> en raison de la bactérie <i lang=\"la\">Listeria monocytogenes</i>"
    },
    "templatetype": "content page 1 column",
    "node_id": null,
    "managing_branch": "comn",
    "has_dcr_id": true,
    "lang": "en"
}