{
    "dcr_id": "1624495844593",
    "title": {
        "en": "Thai Best brand Thailand Black Tiger Shrimp Size 16-20 recalled due to undeclared sulphites",
        "fr": "Rappel de crevettes de Thaïlande de taille 16-20 de marque <span lang=\"en\">Thai Best</span> en raison de la présence non déclarée de sulfites"
    },
    "html_modified": "2021-06-23",
    "modified": "2021-06-23",
    "issued": "2021-06-23",
    "teamsite_location": {
        "en": "/default/main/inspection/cont-cont/recall-rappel/WORKAREA/recall-rappel/templatedata/comn-comn/recall-rappel/data/20210623b_1624495844593_eng",
        "fr": "/default/main/inspection/cont-cont/recall-rappel/WORKAREA/recall-rappel/templatedata/comn-comn/recall-rappel/data/20210623b_1624495844593_fra"
    },
    "type_name": "recall-rappel",
    "parent_node_id": null,
    "layout_name": "content page 1 column",
    "breadcrumb": {
        "en": "Thai Best brand Thailand Black Tiger Shrimp Size 16-20 recalled due to undeclared sulphites",
        "fr": "Rappel de crevettes de Thaïlande de taille 16-20 de marque <span lang=\"en\">Thai Best</span> en raison de la présence non déclarée de sulfites"
    },
    "label": {
        "en": "Thai Best brand Thailand Black Tiger Shrimp Size 16-20 recalled due to undeclared sulphites",
        "fr": "Rappel de crevettes de Thaïlande de taille 16-20 de marque <span lang=\"en\">Thai Best</span> en raison de la présence non déclarée de sulfites"
    },
    "templatetype": "content page 1 column",
    "node_id": null,
    "managing_branch": "comn",
    "has_dcr_id": true,
    "lang": "en"
}