{
    "dcr_id": "1625511367604",
    "title": {
        "en": "Gestus brand Makrel Filet I Tomatsauce recalled due to commercial sterility concerns",
        "fr": "Rappel de « <span lang=\"en\">Makrel Filet I Tomatsauce</span> » de marque Gestus en raison de préoccupations liées à la stérilité commerciale"
    },
    "html_modified": "2021-07-06",
    "modified": "2021-07-05",
    "issued": "2021-07-05",
    "teamsite_location": {
        "en": "/default/main/inspection/cont-cont/recall-rappel/WORKAREA/recall-rappel/templatedata/comn-comn/recall-rappel/data/20210702_r14457_1625511367604_eng",
        "fr": "/default/main/inspection/cont-cont/recall-rappel/WORKAREA/recall-rappel/templatedata/comn-comn/recall-rappel/data/20210702_r14457_1625511367604_fra"
    },
    "type_name": "recall-rappel",
    "parent_node_id": null,
    "layout_name": "content page 1 column",
    "breadcrumb": {
        "en": "Gestus brand Makrel Filet I Tomatsauce recalled due to commercial sterility concerns",
        "fr": "Rappel de « <span lang=\"en\">Makrel Filet I Tomatsauce</span> » de marque Gestus en raison de préoccupations liées à la stérilité commerciale"
    },
    "label": {
        "en": "Gestus brand Makrel Filet I Tomatsauce recalled due to commercial sterility concerns",
        "fr": "Rappel de « <span lang=\"en\">Makrel Filet I Tomatsauce</span> » de marque Gestus en raison de préoccupations liées à la stérilité commerciale"
    },
    "templatetype": "content page 1 column",
    "node_id": null,
    "managing_branch": "comn",
    "has_dcr_id": true,
    "lang": "en"
}