{
    "dcr_id": "1626293985659",
    "title": {
        "en": "<span lang=\"it\">La Bella Contadina</span> brand <span lang=\"it\">Burrata Nadi con latte di bufala</span> (cheese) recalled due to <i lang=\"la\">Listeria monocytogenes</i>",
        "fr": "Rappel de <span lang=\"it\">Burrata Nadi con latte di bufala</span> (fromage) de marque <span lang=\"it\">La Bella Contadina</span> en raison de la bactérie <i lang=\"la\">Listeria monocytogenes</i>"
    },
    "html_modified": "2021-07-14",
    "modified": "2021-07-17",
    "issued": "2021-07-14",
    "teamsite_location": {
        "en": "/default/main/inspection/cont-cont/recall-rappel/WORKAREA/recall-rappel/templatedata/comn-comn/recall-rappel/data/20210714_1626293985659_eng",
        "fr": "/default/main/inspection/cont-cont/recall-rappel/WORKAREA/recall-rappel/templatedata/comn-comn/recall-rappel/data/20210714_1626293985659_fra"
    },
    "type_name": "recall-rappel",
    "parent_node_id": null,
    "layout_name": "content page 1 column",
    "breadcrumb": {
        "en": "<span lang=\"it\">La Bella Contadina</span> brand <span lang=\"it\">Burrata Nadi con latte di bufala</span> (cheese) recalled due to <i lang=\"la\">Listeria monocytogenes</i>",
        "fr": "Rappel de <span lang=\"it\">Burrata Nadi con latte di bufala</span> (fromage) de marque <span lang=\"it\">La Bella Contadina</span> en raison de la bactérie <i lang=\"la\">Listeria monocytogenes</i>"
    },
    "label": {
        "en": "<span lang=\"it\">La Bella Contadina</span> brand <span lang=\"it\">Burrata Nadi con latte di bufala</span> (cheese) recalled due to <i lang=\"la\">Listeria monocytogenes</i>",
        "fr": "Rappel de <span lang=\"it\">Burrata Nadi con latte di bufala</span> (fromage) de marque <span lang=\"it\">La Bella Contadina</span> en raison de la bactérie <i lang=\"la\">Listeria monocytogenes</i>"
    },
    "templatetype": "content page 1 column",
    "node_id": null,
    "managing_branch": "comn",
    "has_dcr_id": true,
    "lang": "en"
}