{
    "dcr_id": "1628033693186",
    "title": {
        "en": "Cahill's brand Original Irish Porter Cheese recalled due to <i lang=\"la\">Listeria monocytogenes</i>",
        "fr": "Rappel de Fromage avec '<span lang=\"en\">Porter</span>' Irlandais de marque Cahill's en raison de la bactérie <i lang=\"la\">Listeria monocytogenes</i>"
    },
    "html_modified": "2021-08-03",
    "modified": "2021-08-03",
    "issued": "2021-08-03",
    "teamsite_location": {
        "en": "/default/main/inspection/cont-cont/recall-rappel/WORKAREA/recall-rappel/templatedata/comn-comn/recall-rappel/data/20210803_1628033693186_eng",
        "fr": "/default/main/inspection/cont-cont/recall-rappel/WORKAREA/recall-rappel/templatedata/comn-comn/recall-rappel/data/20210803_1628033693186_fra"
    },
    "type_name": "recall-rappel",
    "parent_node_id": null,
    "layout_name": "content page 1 column",
    "breadcrumb": {
        "en": "Cahill's brand Original Irish Porter Cheese recalled due to <i lang=\"la\">Listeria monocytogenes</i>",
        "fr": "Rappel de Fromage avec '<span lang=\"en\">Porter</span>' Irlandais de marque Cahill's en raison de la bactérie <i lang=\"la\">Listeria monocytogenes</i>"
    },
    "label": {
        "en": "Cahill's brand Original Irish Porter Cheese recalled due to <i lang=\"la\">Listeria monocytogenes</i>",
        "fr": "Rappel de Fromage avec '<span lang=\"en\">Porter</span>' Irlandais de marque Cahill's en raison de la bactérie <i lang=\"la\">Listeria monocytogenes</i>"
    },
    "templatetype": "content page 1 column",
    "node_id": null,
    "managing_branch": "comn",
    "has_dcr_id": true,
    "lang": "en"
}