{
    "dcr_id": "1634949267722",
    "title": {
        "en": "Gwillimdale Farms brand Onions, Product of Mexico recalled due to <i lang=\"la\">Salmonella</i>",
        "fr": "Rappel d'oignons de marque <span lang=\"en\">Gwillimdale Farms</span>, produits du Mexique  en raison de la bactérie <i lang=\"la\">Salmonella</i>"
    },
    "html_modified": "2021-10-22",
    "modified": "2021-10-22",
    "issued": "2021-10-22",
    "teamsite_location": {
        "en": "/default/main/inspection/cont-cont/recall-rappel/WORKAREA/recall-rappel/templatedata/comn-comn/recall-rappel/data/20211022_1634949267722_eng",
        "fr": "/default/main/inspection/cont-cont/recall-rappel/WORKAREA/recall-rappel/templatedata/comn-comn/recall-rappel/data/20211022_1634949267722_fra"
    },
    "type_name": "recall-rappel",
    "parent_node_id": null,
    "layout_name": "content page 1 column",
    "breadcrumb": {
        "en": "Gwillimdale Farms brand Onions, Product of Mexico recalled due to <i lang=\"la\">Salmonella</i>",
        "fr": "Rappel d'oignons de marque <span lang=\"en\">Gwillimdale Farms</span>, produits du Mexique  en raison de la bactérie <i lang=\"la\">Salmonella</i>"
    },
    "label": {
        "en": "Gwillimdale Farms brand Onions, Product of Mexico recalled due to <i lang=\"la\">Salmonella</i>",
        "fr": "Rappel d'oignons de marque <span lang=\"en\">Gwillimdale Farms</span>, produits du Mexique  en raison de la bactérie <i lang=\"la\">Salmonella</i>"
    },
    "templatetype": "content page 1 column",
    "node_id": null,
    "managing_branch": "comn",
    "has_dcr_id": true,
    "lang": "en"
}