{
    "dcr_id": "1634151708314",
    "title": {
        "en": "Gosselin Smokehouses brand Honey Smoked Salmon recalled due to <i lang=\"la\">Listeria monocytogenes</i>",
        "fr": "Rappel de Saumon fumé au miel de marque Fumoirs Gosselin en raison de la bactérie <i lang=\"la\">Listeria monocytogenes</i>"
    },
    "html_modified": "2021-10-14",
    "modified": "2021-10-13",
    "issued": "2021-10-13",
    "teamsite_location": {
        "en": "/default/main/inspection/cont-cont/recall-rappel/WORKAREA/recall-rappel/templatedata/comn-comn/recall-rappel/data/20210929_r14605_1634151708314_eng",
        "fr": "/default/main/inspection/cont-cont/recall-rappel/WORKAREA/recall-rappel/templatedata/comn-comn/recall-rappel/data/20210929_r14605_1634151708314_fra"
    },
    "type_name": "recall-rappel",
    "parent_node_id": null,
    "layout_name": "content page 1 column",
    "breadcrumb": {
        "en": "Gosselin Smokehouses brand Honey Smoked Salmon recalled due to <i lang=\"la\">Listeria monocytogenes</i>",
        "fr": "Rappel de Saumon fumé au miel de marque Fumoirs Gosselin en raison de la bactérie <i lang=\"la\">Listeria monocytogenes</i>"
    },
    "label": {
        "en": "Gosselin Smokehouses brand Honey Smoked Salmon recalled due to <i lang=\"la\">Listeria monocytogenes</i>",
        "fr": "Rappel de Saumon fumé au miel de marque Fumoirs Gosselin en raison de la bactérie <i lang=\"la\">Listeria monocytogenes</i>"
    },
    "templatetype": "content page 1 column",
    "node_id": null,
    "managing_branch": "comn",
    "has_dcr_id": true,
    "lang": "en"
}