{
    "dcr_id": "1378390483360",
    "title": {
        "en": "Honey Bee Producer Guide to the National Bee Farm-level Biosecurity Standard",
        "fr": "Guide du producteur d'abeilles domestiques norme nationale de bios\u00e9curit\u00e9 \u00e0 la ferme pour l'industrie apicole"
    },
    "html_modified": "2013-09-05 10:14",
    "modified": "14-10-2022",
    "issued": "5-9-2013",
    "teamsite_location": {
        "en": "/default/main/inspection/cont-cont/animals-animaux/WORKAREA/animals-animaux/templatedata/comn-comn/manuals-manuels/data/terr_biosec_standards_honey_bee_1378390483360_eng",
        "fr": "/default/main/inspection/cont-cont/animals-animaux/WORKAREA/animals-animaux/templatedata/comn-comn/manuals-manuels/data/terr_biosec_standards_honey_bee_1378390483360_fra"
    },
    "parent_ia_id": "1344707981478",
    "ia_id": "1378390541968",
    "parent_node_id": null,
    "layout_name": "content page 1 column",
    "breadcrumb": {
        "en": "Honey Bee Producer Guide to the National Bee Farm-level Biosecurity Standard",
        "fr": "Guide du producteur d'abeilles domestiques norme nationale de bios\u00e9curit\u00e9 \u00e0 la ferme pour l'industrie apicole"
    },
    "label": {
        "en": "Honey Bee Producer Guide to the National Bee Farm-level Biosecurity Standard",
        "fr": "Guide du producteur d'abeilles domestiques norme nationale de bios\u00e9curit\u00e9 \u00e0 la ferme pour l'industrie apicole"
    },
    "templatetype": "content page 1 column",
    "node_id": "1378390541968",
    "managing_branch": "comn",
    "type_name": "manuals-manuels",
    "parent_dcr_id": "1344707905203",
    "has_dcr_id": true,
    "lang": "en",
    "could_not_load": 0,
    "refaire": false,
    "interwoven_url": {
        "en": "/animal-health/terrestrial-animals/biosecurity/standards-and-principles/honey-bee-producer-guide/",
        "fr": "/sante-des-animaux/animaux-terrestres/biosecurite/normes-et-principes/guide-du-producteur-d-abeilles-domestiques-norme/"
    },
    "meta": {
        "viewport": {
            "en": "width=device-width,initial-scale=1",
            "fr": "width=device-width,initial-scale=1"
        },
        "service": {
            "en": "CFIA-ACIA",
            "fr": "CFIA-ACIA"
        },
        "accessRights": {
            "en": "2",
            "fr": "2"
        },
        "title": {
            "en": "Honey Bee Producer Guide to the National Bee Farm-level Biosecurity Standard",
            "fr": "Guide du producteur d'abeilles domestiques norme nationale de bios\u00e9curit\u00e9 \u00e0 la ferme pour l'industrie apicole"
        },
        "description": {
            "en": "The National Bee Farm-level Biosecurity Standard forms the basis of a comprehensive voluntary program designed to provide practical guidance for owners or managers involved in the three main Canadian bee sectors: honey bees, alfalfa leafcutting bees, and bumblebees. The National Standard has been developed as a tool for all people and businesses handling and keeping bees. This Producer Guide provides practical guidance to honey beekeepers on how a series of target outcomes, associated with each topic covered by the National Standard, may be achieved.",
            "fr": "La pr\u00e9sente Norme nationale de bios\u00e9curit\u00e9 \u00e0 la ferme pour l'industrie apicole constitue le fondement d'un programme exhaustif volontaire qui vise \u00e0 fournir des directives aux propri\u00e9taires ou aux gestionnaires ?uvrant dans les trois principaux secteurs apicoles au Canada : abeilles mellif\u00e8res, abeilles d\u00e9coupeuses de la luzerne et bourdons."
        },
        "keywords": {
            "en": "honey bee, biosecurity, guide",
            "fr": "abeille, bios&#233;curit&#233;, norme"
        },
        "dcterms.subject": {
            "en": "insects,best practices,honey,standards,animal health",
            "fr": "insecte,meilleures pratiques,miel,norme,sant\u00e9 animale"
        },
        "creator": {
            "en": "Government of Canada,Canadian Food Inspection Agency",
            "fr": "Gouvernement du Canada,Agence canadienne d'inspection des aliments"
        },
        "language": {
            "en": "eng",
            "fr": "fra"
        },
        "issued": {
            "en": "2013-09-05 10:14:44",
            "fr": "2013-09-05 10:14:44"
        },
        "modified": {
            "en": "2022-10-14",
            "fr": "2022-10-14"
        },
        "audience": {
            "en": "business,general public",
            "fr": "entreprises,grand public"
        },
        "name": {
            "en": "Government of Canada",
            "fr": "Gouvernement du Canada"
        },
        "areaServed": {
            "en": "Canada",
            "fr": "Canada"
        }
    },
    "h1": {
        "en": "Honey Bee Producer Guide to the National Bee Farm-level Biosecurity Standard",
        "fr": "Guide du producteur d'abeilles domestiques norme nationale de bios\u00e9curit\u00e9 \u00e0 la ferme pour l'industrie apicole"
    },
    "body": {
        "en": "        \r\n        \n\n\r\n\r\n<section class=\"alert alert-info\">\r\n<h2 class=\"h3\">This page is part of the Guidance Document Repository (GDR).</h2>\r\n<p>\r\n<br>\r\n<a href=\"/industry-guidance/eng/1374161650885/1374161737236?gp=1&amp;gc=14&amp;ga=7#gdr_results\" class=\"alert-link\">\r\n            Search for related documents in the Guidance Document Repository\r\n</a>\r\n</p>\r\n</section>\r\n\r\n\r\n\r\n<p class=\"small text-right\"><a href=\"/animal-health/terrestrial-animals/biosecurity/standards-and-principles/honey-bee-producer-guide/eng/1378390483360/1378390541968?chap=0\">Complete chapter</a></p>\r\n\r\n\r\n<h2>On this page</h2>\r\n<ul class=\"list-unstyled col-md-offset-1 mrgn-tp-md mrgn-bttm-md\">\r\n\r\n<li>\r\n<a href=\"/animal-health/terrestrial-animals/biosecurity/standards-and-principles/honey-bee-producer-guide/eng/1378390483360/1378390541968?chap=1\">About this document</a>\r\n\r\n<ul class=\"list-unstyled col-md-offset-1 mrgn-bttm-md\">\r\n\r\n<li>\r\n<a href=\"/animal-health/terrestrial-animals/biosecurity/standards-and-principles/honey-bee-producer-guide/eng/1378390483360/1378390541968?chap=1#s1c1\">Why a National Standard</a>\r\n\r\n</li>\r\n\r\n<li>\r\n<a href=\"/animal-health/terrestrial-animals/biosecurity/standards-and-principles/honey-bee-producer-guide/eng/1378390483360/1378390541968?chap=1#s2c1\">Value of the Canadian Bee Industry</a>\r\n\r\n</li>\r\n\r\n<li>\r\n<a href=\"/animal-health/terrestrial-animals/biosecurity/standards-and-principles/honey-bee-producer-guide/eng/1378390483360/1378390541968?chap=1#s3c1\">Who is this document for</a>\r\n\r\n</li>\r\n\r\n<li>\r\n<a href=\"/animal-health/terrestrial-animals/biosecurity/standards-and-principles/honey-bee-producer-guide/eng/1378390483360/1378390541968?chap=1#s4c1\">What are the benefits</a>\r\n\r\n</li>\r\n\r\n<li>\r\n<a href=\"/animal-health/terrestrial-animals/biosecurity/standards-and-principles/honey-bee-producer-guide/eng/1378390483360/1378390541968?chap=1#s5c1\">Document development</a>\r\n\r\n</li>\r\n\r\n<li>\r\n<a href=\"/animal-health/terrestrial-animals/biosecurity/standards-and-principles/honey-bee-producer-guide/eng/1378390483360/1378390541968?chap=1#s6c1\">How should this document be used</a>\r\n\r\n</li>\r\n\r\n</ul>\r\n\r\n</li>\r\n\r\n<li>\r\n<a href=\"/animal-health/terrestrial-animals/biosecurity/standards-and-principles/honey-bee-producer-guide/eng/1378390483360/1378390541968?chap=2\">Glossary</a>\r\n\r\n</li>\r\n\r\n<li>\r\n<a href=\"/animal-health/terrestrial-animals/biosecurity/standards-and-principles/honey-bee-producer-guide/eng/1378390483360/1378390541968?chap=3\">Summary of target outcomes</a>\r\n\r\n<ul class=\"list-unstyled col-md-offset-1 mrgn-bttm-md\">\r\n\r\n<li>\r\n<a href=\"/animal-health/terrestrial-animals/biosecurity/standards-and-principles/honey-bee-producer-guide/eng/1378390483360/1378390541968?chap=3#s7c3\">1.0 Bee health management</a>\r\n\r\n</li>\r\n\r\n<li>\r\n<a href=\"/animal-health/terrestrial-animals/biosecurity/standards-and-principles/honey-bee-producer-guide/eng/1378390483360/1378390541968?chap=3#s8c3\">2.0 Operations management</a>\r\n\r\n</li>\r\n\r\n</ul>\r\n\r\n</li>\r\n\r\n<li>\r\n<a href=\"/animal-health/terrestrial-animals/biosecurity/standards-and-principles/honey-bee-producer-guide/eng/1378390483360/1378390541968?chap=4\">Section 1: Bee health management</a>\r\n\r\n<ul class=\"list-unstyled col-md-offset-1 mrgn-bttm-md\">\r\n\r\n<li>\r\n<a href=\"/animal-health/terrestrial-animals/biosecurity/standards-and-principles/honey-bee-producer-guide/eng/1378390483360/1378390541968?chap=4#s9c4\">1.1 Bee sources</a>\r\n\r\n</li>\r\n\r\n<li>\r\n<a href=\"/animal-health/terrestrial-animals/biosecurity/standards-and-principles/honey-bee-producer-guide/eng/1378390483360/1378390541968?chap=4#s10c4\">1.2 Prevention: Minimizing susceptibility to pests</a>\r\n\r\n</li>\r\n\r\n<li>\r\n<a href=\"/animal-health/terrestrial-animals/biosecurity/standards-and-principles/honey-bee-producer-guide/eng/1378390483360/1378390541968?chap=4#s11c4\">1.3 Prevention: Minimizing exposure</a>\r\n\r\n</li>\r\n\r\n<li>\r\n<a href=\"/animal-health/terrestrial-animals/biosecurity/standards-and-principles/honey-bee-producer-guide/eng/1378390483360/1378390541968?chap=4#s12c4\">1.4 Diagnoses and monitoring</a>\r\n\r\n</li>\r\n\r\n<li>\r\n<a href=\"/animal-health/terrestrial-animals/biosecurity/standards-and-principles/honey-bee-producer-guide/eng/1378390483360/1378390541968?chap=4#s13c4\">1.5 Standard response plan</a>\r\n\r\n</li>\r\n\r\n<li>\r\n<a href=\"/animal-health/terrestrial-animals/biosecurity/standards-and-principles/honey-bee-producer-guide/eng/1378390483360/1378390541968?chap=4#s14c4\">1.6 Elevated response plan</a>\r\n\r\n</li>\r\n\r\n</ul>\r\n\r\n</li>\r\n\r\n<li>\r\n<a href=\"/animal-health/terrestrial-animals/biosecurity/standards-and-principles/honey-bee-producer-guide/eng/1378390483360/1378390541968?chap=5\">Section 2: Operations management</a>\r\n\r\n<ul class=\"list-unstyled col-md-offset-1 mrgn-bttm-md\">\r\n\r\n<li>\r\n<a href=\"/animal-health/terrestrial-animals/biosecurity/standards-and-principles/honey-bee-producer-guide/eng/1378390483360/1378390541968?chap=5#s15c5\">2.1 Obtaining production inputs</a>\r\n\r\n</li>\r\n\r\n<li>\r\n<a href=\"/animal-health/terrestrial-animals/biosecurity/standards-and-principles/honey-bee-producer-guide/eng/1378390483360/1378390541968?chap=5#s16c5\">2.2 Handling and disposal of production inputs</a>\r\n\r\n</li>\r\n\r\n<li>\r\n<a href=\"/animal-health/terrestrial-animals/biosecurity/standards-and-principles/honey-bee-producer-guide/eng/1378390483360/1378390541968?chap=5#s17c5\">2.3 Obtaining bee equipment</a>\r\n\r\n</li>\r\n\r\n<li>\r\n<a href=\"/animal-health/terrestrial-animals/biosecurity/standards-and-principles/honey-bee-producer-guide/eng/1378390483360/1378390541968?chap=5#s18c5\">2.4 Management and maintenance of bee equipment, dead bees and bee products</a>\r\n\r\n</li>\r\n\r\n<li>\r\n<a href=\"/animal-health/terrestrial-animals/biosecurity/standards-and-principles/honey-bee-producer-guide/eng/1378390483360/1378390541968?chap=5#s19c5\">2.5 Personal sanitation</a>\r\n\r\n</li>\r\n\r\n<li>\r\n<a href=\"/animal-health/terrestrial-animals/biosecurity/standards-and-principles/honey-bee-producer-guide/eng/1378390483360/1378390541968?chap=5#s20c5\">2.6 Design of facilities</a>\r\n\r\n</li>\r\n\r\n<li>\r\n<a href=\"/animal-health/terrestrial-animals/biosecurity/standards-and-principles/honey-bee-producer-guide/eng/1378390483360/1378390541968?chap=5#s21c5\">2.7 Maintenance of premises, buildings, vehicles, and other equipment</a>\r\n\r\n</li>\r\n\r\n<li>\r\n<a href=\"/animal-health/terrestrial-animals/biosecurity/standards-and-principles/honey-bee-producer-guide/eng/1378390483360/1378390541968?chap=5#s22c5\">2.8 Control of weeds and nuisance pests</a>\r\n\r\n</li>\r\n\r\n<li>\r\n<a href=\"/animal-health/terrestrial-animals/biosecurity/standards-and-principles/honey-bee-producer-guide/eng/1378390483360/1378390541968?chap=5#s23c5\">2.9 Training and education</a>\r\n\r\n</li>\r\n\r\n</ul>\r\n\r\n</li>\r\n\r\n<li>\r\n<a href=\"/animal-health/terrestrial-animals/biosecurity/standards-and-principles/honey-bee-producer-guide/eng/1378390483360/1378390541968?chap=6\">Appendix A: Provincial contact information</a>\r\n\r\n</li>\r\n\r\n<li>\r\n<a href=\"/animal-health/terrestrial-animals/biosecurity/standards-and-principles/honey-bee-producer-guide/eng/1378390483360/1378390541968?chap=7\">Appendix B: Additional resources</a>\r\n\r\n</li>\r\n\r\n<li>\r\n<a href=\"/animal-health/terrestrial-animals/biosecurity/standards-and-principles/honey-bee-producer-guide/eng/1378390483360/1378390541968?chap=8\">Appendix C: Honey bee operating steps</a>\r\n\r\n</li>\r\n\r\n<li>\r\n<a href=\"/animal-health/terrestrial-animals/biosecurity/standards-and-principles/honey-bee-producer-guide/eng/1378390483360/1378390541968?chap=9\">Appendix D: Diagnosis and monitoring methods: Main pests affecting honey bees</a>\r\n\r\n</li>\r\n\r\n<li>\r\n<a href=\"/animal-health/terrestrial-animals/biosecurity/standards-and-principles/honey-bee-producer-guide/eng/1378390483360/1378390541968?chap=10\">Appendix E: Honey bee biosecurity: Self-evaluation checklist</a>\r\n\r\n</li>\r\n\r\n<li>\r\n<a href=\"/animal-health/terrestrial-animals/biosecurity/standards-and-principles/honey-bee-producer-guide/eng/1378390483360/1378390541968?chap=11\">Appendix F: Equipment, storage, and extraction facility: Cleaning and disinfection</a>\r\n\r\n</li>\r\n\r\n<li>\r\n<a href=\"/animal-health/terrestrial-animals/biosecurity/standards-and-principles/honey-bee-producer-guide/eng/1378390483360/1378390541968?chap=12\">Appendix G: Sample record keeping</a>\r\n\r\n</li>\r\n\r\n<li>\r\n<a href=\"/animal-health/terrestrial-animals/biosecurity/standards-and-principles/honey-bee-producer-guide/eng/1378390483360/1378390541968?chap=13\">Appendix H: <abbr title=\"Bee Biosecurity Advisory Committee\">BeeBAC</abbr> members and project advisors</a>\r\n\r\n</li>\r\n\r\n</ul>\r\n<p>Prepared for: Office Of animal biosecurity Canadian Food Inspection Agency<br> Ottawa, Ontario</p>\r\n\r\n\n\n\r\n        \r\n\r\n\r\n\r\n<div class=\"row\">\r\n \r\n\t\r\n\t\t\t\r\n\r\n<div class=\"col-xm-12 pagedetails container\">\r\n\t\t\t\t\r\n\r\n</div>\r\n\t\r\n</div>",
        "fr": "\r\n        \r\n        \n\n\r\n\r\n<section class=\"alert alert-info\">\r\n<h2 class=\"h3\">Cette page fait partie du r\u00e9pertoire des documents d'orientation (RDO).</h2>\r\n<p>\r\n<br>\r\n<a href=\"/orientation-pour-l-industrie/fra/1374161650885/1374161737236?gp=1&amp;gc=14&amp;ga=7#gdr_results\" class=\"alert-link\">\r\n            Recherche de documents connexes dans le r\u00e9pertoire des documents d'orientation.\r\n</a>\r\n</p>\r\n</section>\r\n\r\n\r\n\r\n<p class=\"small text-right\"><a href=\"/sante-des-animaux/animaux-terrestres/biosecurite/normes-et-principes/guide-du-producteur-d-abeilles-domestiques-norme/fra/1378390483360/1378390541968?chap=0\">Chapitre complet</a></p>\r\n\r\n\r\n<h2>Sur cette page</h2>\r\n<ul class=\"list-unstyled col-md-offset-1 mrgn-tp-md mrgn-bttm-md\">\r\n\r\n<li>\r\n<a href=\"/sante-des-animaux/animaux-terrestres/biosecurite/normes-et-principes/guide-du-producteur-d-abeilles-domestiques-norme/fra/1378390483360/1378390541968?chap=1\">\u00c0 propos du pr\u00e9sent document</a>\r\n\r\n<ul class=\"list-unstyled col-md-offset-1 mrgn-bttm-md\">\r\n\r\n<li>\r\n<a href=\"/sante-des-animaux/animaux-terrestres/biosecurite/normes-et-principes/guide-du-producteur-d-abeilles-domestiques-norme/fra/1378390483360/1378390541968?chap=1#s1c1\">Pourquoi une norme nationale</a>\r\n\r\n</li>\r\n\r\n<li>\r\n<a href=\"/sante-des-animaux/animaux-terrestres/biosecurite/normes-et-principes/guide-du-producteur-d-abeilles-domestiques-norme/fra/1378390483360/1378390541968?chap=1#s2c1\">Valeur de l'industrie apicole canadienne</a>\r\n\r\n</li>\r\n\r\n<li>\r\n<a href=\"/sante-des-animaux/animaux-terrestres/biosecurite/normes-et-principes/guide-du-producteur-d-abeilles-domestiques-norme/fra/1378390483360/1378390541968?chap=1#s3c1\">\u00c0 qui ce document s'adresse-t-il</a>\r\n\r\n</li>\r\n\r\n<li>\r\n<a href=\"/sante-des-animaux/animaux-terrestres/biosecurite/normes-et-principes/guide-du-producteur-d-abeilles-domestiques-norme/fra/1378390483360/1378390541968?chap=1#s4c1\">Importance de la bios\u00e9curit\u00e9</a>\r\n\r\n</li>\r\n\r\n<li>\r\n<a href=\"/sante-des-animaux/animaux-terrestres/biosecurite/normes-et-principes/guide-du-producteur-d-abeilles-domestiques-norme/fra/1378390483360/1378390541968?chap=1#s5c1\">Avantages li\u00e9s \u00e0 l'application de bons principes de bios\u00e9curit\u00e9</a>\r\n\r\n</li>\r\n\r\n<li>\r\n<a href=\"/sante-des-animaux/animaux-terrestres/biosecurite/normes-et-principes/guide-du-producteur-d-abeilles-domestiques-norme/fra/1378390483360/1378390541968?chap=1#s6c1\">\u00c9laboration du pr\u00e9sent document</a>\r\n\r\n</li>\r\n\r\n<li>\r\n<a href=\"/sante-des-animaux/animaux-terrestres/biosecurite/normes-et-principes/guide-du-producteur-d-abeilles-domestiques-norme/fra/1378390483360/1378390541968?chap=1#s7c1\">Utilisation du pr\u00e9sent document</a>\r\n\r\n</li>\r\n\r\n</ul>\r\n\r\n</li>\r\n\r\n<li>\r\n<a href=\"/sante-des-animaux/animaux-terrestres/biosecurite/normes-et-principes/guide-du-producteur-d-abeilles-domestiques-norme/fra/1378390483360/1378390541968?chap=2\">Glossaire</a>\r\n\r\n</li>\r\n\r\n<li>\r\n<a href=\"/sante-des-animaux/animaux-terrestres/biosecurite/normes-et-principes/guide-du-producteur-d-abeilles-domestiques-norme/fra/1378390483360/1378390541968?chap=3\">Sommaire des objectifs</a>\r\n\r\n<ul class=\"list-unstyled col-md-offset-1 mrgn-bttm-md\">\r\n\r\n<li>\r\n<a href=\"/sante-des-animaux/animaux-terrestres/biosecurite/normes-et-principes/guide-du-producteur-d-abeilles-domestiques-norme/fra/1378390483360/1378390541968?chap=3#s8c3\">1.0 Gestion de la sant\u00e9 des abeilles</a>\r\n\r\n</li>\r\n\r\n<li>\r\n<a href=\"/sante-des-animaux/animaux-terrestres/biosecurite/normes-et-principes/guide-du-producteur-d-abeilles-domestiques-norme/fra/1378390483360/1378390541968?chap=3#s9c3\">2.0 Gestion des op\u00e9rations</a>\r\n\r\n</li>\r\n\r\n</ul>\r\n\r\n</li>\r\n\r\n<li>\r\n<a href=\"/sante-des-animaux/animaux-terrestres/biosecurite/normes-et-principes/guide-du-producteur-d-abeilles-domestiques-norme/fra/1378390483360/1378390541968?chap=4\">Section 1\u00a0:  Gestion de la sant\u00e9 des abeilles</a>\r\n\r\n<ul class=\"list-unstyled col-md-offset-1 mrgn-bttm-md\">\r\n\r\n<li>\r\n<a href=\"/sante-des-animaux/animaux-terrestres/biosecurite/normes-et-principes/guide-du-producteur-d-abeilles-domestiques-norme/fra/1378390483360/1378390541968?chap=4#s10c4\">1.1 Sources d'approvisionnement en abeilles</a>\r\n\r\n</li>\r\n\r\n<li>\r\n<a href=\"/sante-des-animaux/animaux-terrestres/biosecurite/normes-et-principes/guide-du-producteur-d-abeilles-domestiques-norme/fra/1378390483360/1378390541968?chap=4#s11c4\">1.2 Pr\u00e9vention\u00a0: r\u00e9duction maximale de la vuln\u00e9rabilit\u00e9 aux organismes nuisibles</a>\r\n\r\n</li>\r\n\r\n<li>\r\n<a href=\"/sante-des-animaux/animaux-terrestres/biosecurite/normes-et-principes/guide-du-producteur-d-abeilles-domestiques-norme/fra/1378390483360/1378390541968?chap=4#s12c4\">1.3 Pr\u00e9vention\u00a0: r\u00e9duction maximale de l'exposition</a>\r\n\r\n</li>\r\n\r\n<li>\r\n<a href=\"/sante-des-animaux/animaux-terrestres/biosecurite/normes-et-principes/guide-du-producteur-d-abeilles-domestiques-norme/fra/1378390483360/1378390541968?chap=4#s13c4\">1.4 Diagnostic et surveillance</a>\r\n\r\n</li>\r\n\r\n<li>\r\n<a href=\"/sante-des-animaux/animaux-terrestres/biosecurite/normes-et-principes/guide-du-producteur-d-abeilles-domestiques-norme/fra/1378390483360/1378390541968?chap=4#s14c4\">1.5 Plan d'intervention standard</a>\r\n\r\n</li>\r\n\r\n<li>\r\n<a href=\"/sante-des-animaux/animaux-terrestres/biosecurite/normes-et-principes/guide-du-producteur-d-abeilles-domestiques-norme/fra/1378390483360/1378390541968?chap=4#s15c4\">1.6 Plan d'intervention d'urgence</a>\r\n\r\n</li>\r\n\r\n</ul>\r\n\r\n</li>\r\n\r\n<li>\r\n<a href=\"/sante-des-animaux/animaux-terrestres/biosecurite/normes-et-principes/guide-du-producteur-d-abeilles-domestiques-norme/fra/1378390483360/1378390541968?chap=5\">Section 2\u00a0: Gestion des op\u00e9rations</a>\r\n\r\n<ul class=\"list-unstyled col-md-offset-1 mrgn-bttm-md\">\r\n\r\n<li>\r\n<a href=\"/sante-des-animaux/animaux-terrestres/biosecurite/normes-et-principes/guide-du-producteur-d-abeilles-domestiques-norme/fra/1378390483360/1378390541968?chap=5#s16c5\">2.1 Acquisition des intrants de production</a>\r\n\r\n</li>\r\n\r\n<li>\r\n<a href=\"/sante-des-animaux/animaux-terrestres/biosecurite/normes-et-principes/guide-du-producteur-d-abeilles-domestiques-norme/fra/1378390483360/1378390541968?chap=5#s17c5\">2.2 Manipulation et \u00e9limination des intrants de production</a>\r\n\r\n</li>\r\n\r\n<li>\r\n<a href=\"/sante-des-animaux/animaux-terrestres/biosecurite/normes-et-principes/guide-du-producteur-d-abeilles-domestiques-norme/fra/1378390483360/1378390541968?chap=5#s18c5\">2.3 Acquisition de l'\u00e9quipement apicole</a>\r\n\r\n</li>\r\n\r\n<li>\r\n<a href=\"/sante-des-animaux/animaux-terrestres/biosecurite/normes-et-principes/guide-du-producteur-d-abeilles-domestiques-norme/fra/1378390483360/1378390541968?chap=5#s19c5\">2.4 Gestion et entretien du mat\u00e9riel apicole, des abeilles mortes et des produits de la ruche</a>\r\n\r\n</li>\r\n\r\n<li>\r\n<a href=\"/sante-des-animaux/animaux-terrestres/biosecurite/normes-et-principes/guide-du-producteur-d-abeilles-domestiques-norme/fra/1378390483360/1378390541968?chap=5#s20c5\">2.5 Hygi\u00e8ne du personnel</a>\r\n\r\n</li>\r\n\r\n<li>\r\n<a href=\"/sante-des-animaux/animaux-terrestres/biosecurite/normes-et-principes/guide-du-producteur-d-abeilles-domestiques-norme/fra/1378390483360/1378390541968?chap=5#s21c5\">2.6 Conception des installations</a>\r\n\r\n</li>\r\n\r\n<li>\r\n<a href=\"/sante-des-animaux/animaux-terrestres/biosecurite/normes-et-principes/guide-du-producteur-d-abeilles-domestiques-norme/fra/1378390483360/1378390541968?chap=5#s22c5\">2.7 Entretien des installations, des b\u00e2timents, des v\u00e9hicules et des autres \u00e9quipements</a>\r\n\r\n</li>\r\n\r\n<li>\r\n<a href=\"/sante-des-animaux/animaux-terrestres/biosecurite/normes-et-principes/guide-du-producteur-d-abeilles-domestiques-norme/fra/1378390483360/1378390541968?chap=5#s23c5\">2.8 Lutte contre les mauvaises herbes et les ravageurs</a>\r\n\r\n</li>\r\n\r\n<li>\r\n<a href=\"/sante-des-animaux/animaux-terrestres/biosecurite/normes-et-principes/guide-du-producteur-d-abeilles-domestiques-norme/fra/1378390483360/1378390541968?chap=5#s24c5\">2.9 Formation et \u00e9ducation</a>\r\n\r\n</li>\r\n\r\n</ul>\r\n\r\n</li>\r\n\r\n<li>\r\n<a href=\"/sante-des-animaux/animaux-terrestres/biosecurite/normes-et-principes/guide-du-producteur-d-abeilles-domestiques-norme/fra/1378390483360/1378390541968?chap=6\">Annexe A\u00a0: Ressources provinciales</a>\r\n\r\n</li>\r\n\r\n<li>\r\n<a href=\"/sante-des-animaux/animaux-terrestres/biosecurite/normes-et-principes/guide-du-producteur-d-abeilles-domestiques-norme/fra/1378390483360/1378390541968?chap=7\">Annexe B\u00a0: Ressources additionnelles</a>\r\n\r\n</li>\r\n\r\n<li>\r\n<a href=\"/sante-des-animaux/animaux-terrestres/biosecurite/normes-et-principes/guide-du-producteur-d-abeilles-domestiques-norme/fra/1378390483360/1378390541968?chap=8\">Annexe C\u00a0: Processus op\u00e9rationnels d'une exploitation apicole, abeille domestique</a>\r\n\r\n</li>\r\n\r\n<li>\r\n<a href=\"/sante-des-animaux/animaux-terrestres/biosecurite/normes-et-principes/guide-du-producteur-d-abeilles-domestiques-norme/fra/1378390483360/1378390541968?chap=9\">Annexe D\u00a0: M\u00e9thodes de diagnostic et de surveillance : principaux organismes nuisibles ou pathog\u00e8nes associ\u00e9s \u00e0 l'abeille domestique</a>\r\n\r\n</li>\r\n\r\n<li>\r\n<a href=\"/sante-des-animaux/animaux-terrestres/biosecurite/normes-et-principes/guide-du-producteur-d-abeilles-domestiques-norme/fra/1378390483360/1378390541968?chap=10\">Annexe E\u00a0: Bios\u00e9curit\u00e9 applicable au secteur apicole : liste de contr\u00f4le d'auto-\u00e9valuation</a>\r\n\r\n</li>\r\n\r\n<li>\r\n<a href=\"/sante-des-animaux/animaux-terrestres/biosecurite/normes-et-principes/guide-du-producteur-d-abeilles-domestiques-norme/fra/1378390483360/1378390541968?chap=11\">Annexe F : Nettoyage et d\u00e9sinfection de l'\u00e9quipement et des installations d'entreposage et d'extraction</a>\r\n\r\n</li>\r\n\r\n<li>\r\n<a href=\"/sante-des-animaux/animaux-terrestres/biosecurite/normes-et-principes/guide-du-producteur-d-abeilles-domestiques-norme/fra/1378390483360/1378390541968?chap=12\">Annexe G\u00a0: Tenue de registres</a>\r\n\r\n</li>\r\n\r\n<li>\r\n<a href=\"/sante-des-animaux/animaux-terrestres/biosecurite/normes-et-principes/guide-du-producteur-d-abeilles-domestiques-norme/fra/1378390483360/1378390541968?chap=13\">Annexe H\u00a0: Membres de <abbr title=\"le comit\u00e9 consultatif sur la bios\u00e9curit\u00e9 des abeilles\">CCBA</abbr> et experts-conseils participant au projet</a>\r\n\r\n</li>\r\n\r\n</ul>\r\n<p>Pr\u00e9par\u00e9 pour\u00a0: Bureau de la bios\u00e9curit\u00e9 animale Agence canadienne d'inspection des aliments<br> Ottawa (Ontario)</p>\r\n\r\n<div class=\"clear\"></div>\r\n\n\n\r\n        \r\n\r\n<div class=\"row\">\r\n \r\n\t\t\t\r\n\t\t\t\r\n\r\n\t\t\r\n\t\r\n</div>"
    },
    "js": {
        "en": "",
        "fr": ""
    },
    "chat_wizard": false,
    "success": true
}