{
    "dcr_id": "1393627685223",
    "title": {
        "en": "Labelling requirements for foods for special dietary use",
        "fr": "Exigences en mati\u00e8re d'\u00e9tiquetage des aliments \u00e0 usage di\u00e9t\u00e9tique sp\u00e9cial"
    },
    "html_modified": "2014-02-28 17:48",
    "modified": "22-6-2023",
    "issued": "28-2-2014",
    "teamsite_location": {
        "en": "/default/main/inspection/cont-cont/food-aliments/WORKAREA/food-aliments/templatedata/comn-comn/manuals-manuels/data/lble_industry_specific_dietary_1393627685223_eng",
        "fr": "/default/main/inspection/cont-cont/food-aliments/WORKAREA/food-aliments/templatedata/comn-comn/manuals-manuels/data/lble_industry_specific_dietary_1393627685223_fra"
    },
    "parent_ia_id": "1383607344939",
    "ia_id": "1393637610720",
    "parent_node_id": null,
    "layout_name": "content page 1 column",
    "breadcrumb": {
        "en": "Labelling requirements for foods for special dietary use",
        "fr": "Exigences en mati\u00e8re d'\u00e9tiquetage des aliments \u00e0 usage di\u00e9t\u00e9tique sp\u00e9cial"
    },
    "label": {
        "en": "Labelling requirements for foods for special dietary use",
        "fr": "Exigences en mati\u00e8re d'\u00e9tiquetage des aliments \u00e0 usage di\u00e9t\u00e9tique sp\u00e9cial"
    },
    "templatetype": "content page 1 column",
    "node_id": "1393637610720",
    "managing_branch": "comn",
    "type_name": "manuals-manuels",
    "parent_dcr_id": "1383607266489",
    "has_dcr_id": true,
    "lang": "en",
    "could_not_load": 0,
    "refaire": false,
    "interwoven_url": {
        "en": "/food-labels/labelling/industry/foods-for-special-dietary-use/",
        "fr": "/etiquetage-des-aliments/etiquetage/industrie/aliments-a-usage-dietetique-special/"
    },
    "meta": {
        "viewport": {
            "en": "width=device-width,initial-scale=1",
            "fr": "width=device-width,initial-scale=1"
        },
        "service": {
            "en": "CFIA-ACIA",
            "fr": "CFIA-ACIA"
        },
        "accessRights": {
            "en": "2",
            "fr": "2"
        },
        "title": {
            "en": "Labelling requirements for foods for special dietary use",
            "fr": "Exigences en mati\u00e8re d'\u00e9tiquetage des aliments \u00e0 usage di\u00e9t\u00e9tique sp\u00e9cial"
        },
        "description": {
            "en": "Foods for special dietary use sold in Canada are subject to specific labelling requirements.",
            "fr": "Les aliments \u00e0 usage di\u00e9t\u00e9tique sp\u00e9cial vendus au Canada sont assujettis aux exigences particuli\u00e8res en mati\u00e8re d'\u00e9tiquetage."
        },
        "keywords": {
            "en": "label, labelling, advertising, retail food, decisions, nutrition, claims, Food and Drugs Act and Regulations, Consumer Packaging and Labelling Act and Regulations, Foods for Special Dietary Use",
            "fr": "\u00e9tiquette, \u00e9tiquetage, annonce, aliments au d\u00e9tail, d\u00e9cisions, nutrition, all\u00e9gations, Loi sur les aliments et drogues, R\u00e8glement sur les aliments, Loi sur l'emballage et l'\u00e9tiquetage des produits de consommation, aliments \u00e0 usage di\u00e9t\u00e9tique sp\u00e9cial"
        },
        "dcterms.subject": {
            "en": "retail trade,consumers,food labeling,inspection,agri-food products,consumer protection,food safety",
            "fr": "commerce de d\u00e9tail,consommateur,\u00e9tiquetage des aliments,inspection,produit agro-alimentaire,protection du consommateur,salubrit\u00e9 des aliments"
        },
        "creator": {
            "en": "Government of Canada,Canadian Food Inspection Agency",
            "fr": "Gouvernement du Canada,Agence canadienne d'inspection des aliments"
        },
        "language": {
            "en": "eng",
            "fr": "fra"
        },
        "issued": {
            "en": "2014-02-28 17:48:06",
            "fr": "2014-02-28 17:48:06"
        },
        "modified": {
            "en": "2023-06-22",
            "fr": "2023-06-22"
        },
        "type": {
            "en": "reference material",
            "fr": "mat\u00e9riel de r\u00e9f\u00e9rence"
        },
        "audience": {
            "en": "business,government,general public",
            "fr": "entreprises,gouvernement,grand public"
        },
        "name": {
            "en": "Government of Canada",
            "fr": "Gouvernement du Canada"
        },
        "areaServed": {
            "en": "Canada",
            "fr": "Canada"
        }
    },
    "h1": {
        "en": "Labelling requirements for foods for special dietary use",
        "fr": "Exigences en mati\u00e8re d'\u00e9tiquetage des aliments \u00e0 usage di\u00e9t\u00e9tique sp\u00e9cial"
    },
    "js": {
        "en": "",
        "fr": ""
    },
    "body": {
        "en": "        \r\n        \n\n\r\n\r\n\r\n\r\n\r\n\r\n<p class=\"small text-right\"><a href=\"/food-labels/labelling/industry/foods-for-special-dietary-use/eng/1393627685223/1393637610720?chap=0\">Complete text</a></p>\r\n\r\n\r\n<h2>On this page</h2>\r\n<ul class=\"list-unstyled col-md-offset-1 mrgn-tp-md mrgn-bttm-md\">\r\n\r\n<li>\r\n<a href=\"/food-labels/labelling/industry/foods-for-special-dietary-use/eng/1393627685223/1393637610720?chap=1\">Overview </a>\r\n\r\n</li>\r\n\r\n<li>\r\n<a href=\"/food-labels/labelling/industry/foods-for-special-dietary-use/eng/1393627685223/1393637610720?chap=2\">Expiration date </a>\r\n\r\n</li>\r\n\r\n<li>\r\n<a href=\"/food-labels/labelling/industry/foods-for-special-dietary-use/eng/1393627685223/1393637610720?chap=3\">Nutrition labelling - foods for special dietary use </a>\r\n\r\n<ul class=\"list-unstyled col-md-offset-1 mrgn-bttm-md\">\r\n\r\n<li>\r\n<a href=\"/food-labels/labelling/industry/foods-for-special-dietary-use/eng/1393627685223/1393637610720?chap=3#s1c3\">Compliance of nutrient content declarations </a>\r\n\r\n</li>\r\n\r\n<li>\r\n<a href=\"/food-labels/labelling/industry/foods-for-special-dietary-use/eng/1393627685223/1393637610720?chap=3#s2c3\">Methods of analysis </a>\r\n\r\n</li>\r\n\r\n<li>\r\n<a href=\"/food-labels/labelling/industry/foods-for-special-dietary-use/eng/1393627685223/1393637610720?chap=3#s3c3\">Tolerances </a>\r\n\r\n</li>\r\n\r\n<li>\r\n<a href=\"/food-labels/labelling/industry/foods-for-special-dietary-use/eng/1393627685223/1393637610720?chap=3#s4c3\">Variance </a>\r\n\r\n</li>\r\n\r\n<li>\r\n<a href=\"/food-labels/labelling/industry/foods-for-special-dietary-use/eng/1393627685223/1393637610720?chap=3#s5c3\">Rounding of nutrient values</a>\r\n\r\n</li>\r\n\r\n<li>\r\n<a href=\"/food-labels/labelling/industry/foods-for-special-dietary-use/eng/1393627685223/1393637610720?chap=3#s6c3\">Foods for special dietary use rounding rules </a>\r\n\r\n</li>\r\n\r\n</ul>\r\n\r\n</li>\r\n\r\n<li>\r\n<a href=\"/food-labels/labelling/industry/foods-for-special-dietary-use/eng/1393627685223/1393637610720?chap=4\">Formulated liquid diets </a>\r\n\r\n<ul class=\"list-unstyled col-md-offset-1 mrgn-bttm-md\">\r\n\r\n<li>\r\n<a href=\"/food-labels/labelling/industry/foods-for-special-dietary-use/eng/1393627685223/1393637610720?chap=4#s7c4\">Statement </a>\r\n\r\n</li>\r\n\r\n<li>\r\n<a href=\"/food-labels/labelling/industry/foods-for-special-dietary-use/eng/1393627685223/1393637610720?chap=4#s8c4\">Nutrient content declaration - formulated liquid diets</a>\r\n\r\n</li>\r\n\r\n<li>\r\n<a href=\"/food-labels/labelling/industry/foods-for-special-dietary-use/eng/1393627685223/1393637610720?chap=4#s9c4\">Directions for preparation, use and storage</a>\r\n\r\n</li>\r\n\r\n</ul>\r\n\r\n</li>\r\n\r\n<li>\r\n<a href=\"/food-labels/labelling/industry/foods-for-special-dietary-use/eng/1393627685223/1393637610720?chap=5\">Meal replacements </a>\r\n\r\n<ul class=\"list-unstyled col-md-offset-1 mrgn-bttm-md\">\r\n\r\n<li>\r\n<a href=\"/food-labels/labelling/industry/foods-for-special-dietary-use/eng/1393627685223/1393637610720?chap=5#s10c5\">Nutrient content statement - meal replacements </a>\r\n\r\n</li>\r\n\r\n<li>\r\n<a href=\"/food-labels/labelling/industry/foods-for-special-dietary-use/eng/1393627685223/1393637610720?chap=5#s11c5\">Nutrient content declaration - meal replacements </a>\r\n\r\n</li>\r\n\r\n<li>\r\n<a href=\"/food-labels/labelling/industry/foods-for-special-dietary-use/eng/1393627685223/1393637610720?chap=5#s12c5\">When used in a weight reduction diet </a>\r\n\r\n</li>\r\n\r\n<li>\r\n<a href=\"/food-labels/labelling/industry/foods-for-special-dietary-use/eng/1393627685223/1393637610720?chap=5#s13c5\">When used as a replacement for all daily meals </a>\r\n\r\n</li>\r\n\r\n<li>\r\n<a href=\"/food-labels/labelling/industry/foods-for-special-dietary-use/eng/1393627685223/1393637610720?chap=5#s14c5\">Instant breakfast </a>\r\n\r\n</li>\r\n\r\n<li>\r\n<a href=\"/food-labels/labelling/industry/foods-for-special-dietary-use/eng/1393627685223/1393637610720?chap=5#s15c5\">Voluntary claims and statements - meal replacements</a>\r\n\r\n</li>\r\n\r\n</ul>\r\n\r\n</li>\r\n\r\n<li>\r\n<a href=\"/food-labels/labelling/industry/foods-for-special-dietary-use/eng/1393627685223/1393637610720?chap=6\">Nutritional supplements </a>\r\n\r\n<ul class=\"list-unstyled col-md-offset-1 mrgn-bttm-md\">\r\n\r\n<li>\r\n<a href=\"/food-labels/labelling/industry/foods-for-special-dietary-use/eng/1393627685223/1393637610720?chap=6#s16c6\">Nutrient content statement - nutritional supplements </a>\r\n\r\n</li>\r\n\r\n<li>\r\n<a href=\"/food-labels/labelling/industry/foods-for-special-dietary-use/eng/1393627685223/1393637610720?chap=6#s17c6\">Nutrient content declaration - nutritional supplements </a>\r\n\r\n</li>\r\n\r\n<li>\r\n<a href=\"/food-labels/labelling/industry/foods-for-special-dietary-use/eng/1393627685223/1393637610720?chap=6#s18c6\">Voluntary claims and statements - nutritional supplements </a>\r\n\r\n</li>\r\n\r\n</ul>\r\n\r\n</li>\r\n\r\n<li>\r\n<a href=\"/food-labels/labelling/industry/foods-for-special-dietary-use/eng/1393627685223/1393637610720?chap=7\">Foods represented for use in very low energy diets </a>\r\n\r\n<ul class=\"list-unstyled col-md-offset-1 mrgn-bttm-md\">\r\n\r\n<li>\r\n<a href=\"/food-labels/labelling/industry/foods-for-special-dietary-use/eng/1393627685223/1393637610720?chap=7#s19c7\">Statement \u2013 under medical supervision </a>\r\n\r\n</li>\r\n\r\n<li>\r\n<a href=\"/food-labels/labelling/industry/foods-for-special-dietary-use/eng/1393627685223/1393637610720?chap=7#s20c7\">Nutrient content declaration - foods represented for use in very low energy diets </a>\r\n\r\n</li>\r\n\r\n<li>\r\n<a href=\"/food-labels/labelling/industry/foods-for-special-dietary-use/eng/1393627685223/1393637610720?chap=7#s21c7\">Directions for preparation and storage</a>\r\n\r\n</li>\r\n\r\n<li>\r\n<a href=\"/food-labels/labelling/industry/foods-for-special-dietary-use/eng/1393627685223/1393637610720?chap=7#s22c7\">Direction for use - foods represented for use in very low energy diets </a>\r\n\r\n</li>\r\n\r\n<li>\r\n<a href=\"/food-labels/labelling/industry/foods-for-special-dietary-use/eng/1393627685223/1393637610720?chap=7#s23c7\">Voluntary claims and statements - foods represented for use in very low energy diets </a>\r\n\r\n</li>\r\n\r\n</ul>\r\n\r\n</li>\r\n\r\n<li>\r\n<a href=\"/food-labels/labelling/industry/foods-for-special-dietary-use/eng/1393627685223/1393637610720?chap=8\">Prepackaged meal for use in weight-reduction diet </a>\r\n\r\n<ul class=\"list-unstyled col-md-offset-1 mrgn-bttm-md\">\r\n\r\n<li>\r\n<a href=\"/food-labels/labelling/industry/foods-for-special-dietary-use/eng/1393627685223/1393637610720?chap=8#s24c8\">Required weight reduction statement </a>\r\n\r\n</li>\r\n\r\n<li>\r\n<a href=\"/food-labels/labelling/industry/foods-for-special-dietary-use/eng/1393627685223/1393637610720?chap=8#s25c8\">Direction for use - prepackaged meal for use in weight-reduction diet </a>\r\n\r\n</li>\r\n\r\n</ul>\r\n\r\n</li>\r\n\r\n<li>\r\n<a href=\"/food-labels/labelling/industry/foods-for-special-dietary-use/eng/1393627685223/1393637610720?chap=9\">Foods sold by weight reduction clinics</a>\r\n\r\n</li>\r\n\r\n<li>\r\n<a href=\"/food-labels/labelling/industry/foods-for-special-dietary-use/eng/1393627685223/1393637610720?chap=10\">Gluten-free foods </a>\r\n\r\n</li>\r\n\r\n<li>\r\n<a href=\"/food-labels/labelling/industry/foods-for-special-dietary-use/eng/1393627685223/1393637610720?chap=11\">Weight reduction diets</a>\r\n\r\n</li>\r\n\r\n<li>\r\n<a href=\"/food-labels/labelling/industry/foods-for-special-dietary-use/eng/1393627685223/1393637610720?chap=12\">Energy-reduced diets </a>\r\n\r\n</li>\r\n\r\n<li>\r\n<a href=\"/food-labels/labelling/industry/foods-for-special-dietary-use/eng/1393627685223/1393637610720?chap=13\">Sodium-restricted diets </a>\r\n\r\n</li>\r\n\r\n<li>\r\n<a href=\"/food-labels/labelling/industry/foods-for-special-dietary-use/eng/1393627685223/1393637610720?chap=14\">Texture modified diets </a>\r\n\r\n</li>\r\n\r\n<li>\r\n<a href=\"/food-labels/labelling/industry/foods-for-special-dietary-use/eng/1393627685223/1393637610720?chap=15\">Other foods for special dietary use </a>\r\n\r\n<ul class=\"list-unstyled col-md-offset-1 mrgn-bttm-md\">\r\n\r\n<li>\r\n<a href=\"/food-labels/labelling/industry/foods-for-special-dietary-use/eng/1393627685223/1393637610720?chap=15#s26c15\">Sports nutrition products </a>\r\n\r\n</li>\r\n\r\n</ul>\r\n\r\n</li>\r\n\r\n<li>\r\n<a href=\"/food-labels/labelling/industry/foods-for-special-dietary-use/eng/1393627685223/1393637610720?chap=16\">Definitions </a>\r\n\r\n<ul class=\"list-unstyled col-md-offset-1 mrgn-bttm-md\">\r\n\r\n<li>\r\n<a href=\"/food-labels/labelling/industry/foods-for-special-dietary-use/eng/1393627685223/1393637610720?chap=16#s27c16\">Food for special dietary use</a>\r\n\r\n</li>\r\n\r\n<li>\r\n<a href=\"/food-labels/labelling/industry/foods-for-special-dietary-use/eng/1393627685223/1393637610720?chap=16#s28c16\">Formulated liquid diet </a>\r\n\r\n</li>\r\n\r\n<li>\r\n<a href=\"/food-labels/labelling/industry/foods-for-special-dietary-use/eng/1393627685223/1393637610720?chap=16#s29c16\">Meal replacement </a>\r\n\r\n</li>\r\n\r\n<li>\r\n<a href=\"/food-labels/labelling/industry/foods-for-special-dietary-use/eng/1393627685223/1393637610720?chap=16#s30c16\">Nutritional supplement</a>\r\n\r\n</li>\r\n\r\n<li>\r\n<a href=\"/food-labels/labelling/industry/foods-for-special-dietary-use/eng/1393627685223/1393637610720?chap=16#s31c16\">Prepackaged meal </a>\r\n\r\n</li>\r\n\r\n<li>\r\n<a href=\"/food-labels/labelling/industry/foods-for-special-dietary-use/eng/1393627685223/1393637610720?chap=16#s32c16\">Very low energy diet </a>\r\n\r\n</li>\r\n\r\n</ul>\r\n\r\n</li>\r\n\r\n</ul>\r\n\r\n\r\n\n\n\r\n        \r\n\r\n\r\n\r\n<div class=\"row\">\r\n \r\n\t\r\n\t\t\t\r\n\r\n<div class=\"col-xm-12 pagedetails container\">\r\n\t\t\t\t\r\n\r\n</div>\r\n\t\r\n</div>",
        "fr": "\r\n        \r\n        \n\n\r\n\r\n\r\n\r\n\r\n\r\n<p class=\"small text-right\"><a href=\"/etiquetage-des-aliments/etiquetage/industrie/aliments-a-usage-dietetique-special/fra/1393627685223/1393637610720?chap=0\">Texte complet</a></p>\r\n\r\n\r\n<h2>Sur cette page</h2>\r\n<ul class=\"list-unstyled col-md-offset-1 mrgn-tp-md mrgn-bttm-md\">\r\n\r\n<li>\r\n<a href=\"/etiquetage-des-aliments/etiquetage/industrie/aliments-a-usage-dietetique-special/fra/1393627685223/1393637610720?chap=1\">Aper\u00e7u </a>\r\n\r\n</li>\r\n\r\n<li>\r\n<a href=\"/etiquetage-des-aliments/etiquetage/industrie/aliments-a-usage-dietetique-special/fra/1393627685223/1393637610720?chap=2\">Date limite d'utilisation </a>\r\n\r\n</li>\r\n\r\n<li>\r\n<a href=\"/etiquetage-des-aliments/etiquetage/industrie/aliments-a-usage-dietetique-special/fra/1393627685223/1393637610720?chap=3\">\u00c9tiquetage nutritionnel - Aliments \u00e0 usage di\u00e9t\u00e9tique sp\u00e9cial</a>\r\n\r\n<ul class=\"list-unstyled col-md-offset-1 mrgn-bttm-md\">\r\n\r\n<li>\r\n<a href=\"/etiquetage-des-aliments/etiquetage/industrie/aliments-a-usage-dietetique-special/fra/1393627685223/1393637610720?chap=3#s1c3\">Conformit\u00e9 des d\u00e9clarations relatives \u00e0 la valeur nutritive </a>\r\n\r\n</li>\r\n\r\n<li>\r\n<a href=\"/etiquetage-des-aliments/etiquetage/industrie/aliments-a-usage-dietetique-special/fra/1393627685223/1393637610720?chap=3#s2c3\">M\u00e9thodes d'analyse </a>\r\n\r\n</li>\r\n\r\n<li>\r\n<a href=\"/etiquetage-des-aliments/etiquetage/industrie/aliments-a-usage-dietetique-special/fra/1393627685223/1393637610720?chap=3#s3c3\">Tol\u00e9rances </a>\r\n\r\n</li>\r\n\r\n<li>\r\n<a href=\"/etiquetage-des-aliments/etiquetage/industrie/aliments-a-usage-dietetique-special/fra/1393627685223/1393637610720?chap=3#s4c3\">\u00c9cart </a>\r\n\r\n</li>\r\n\r\n<li>\r\n<a href=\"/etiquetage-des-aliments/etiquetage/industrie/aliments-a-usage-dietetique-special/fra/1393627685223/1393637610720?chap=3#s5c3\">Arrondissement des valeurs nutritives </a>\r\n\r\n</li>\r\n\r\n<li>\r\n<a href=\"/etiquetage-des-aliments/etiquetage/industrie/aliments-a-usage-dietetique-special/fra/1393627685223/1393637610720?chap=3#s6c3\">R\u00e8gles d'arrondissement pour les aliments \u00e0 usage di\u00e9t\u00e9tique sp\u00e9cial </a>\r\n\r\n</li>\r\n\r\n</ul>\r\n\r\n</li>\r\n\r\n<li>\r\n<a href=\"/etiquetage-des-aliments/etiquetage/industrie/aliments-a-usage-dietetique-special/fra/1393627685223/1393637610720?chap=4\">Pr\u00e9parations pour r\u00e9gime liquide </a>\r\n\r\n<ul class=\"list-unstyled col-md-offset-1 mrgn-bttm-md\">\r\n\r\n<li>\r\n<a href=\"/etiquetage-des-aliments/etiquetage/industrie/aliments-a-usage-dietetique-special/fra/1393627685223/1393637610720?chap=4#s7c4\">Mention </a>\r\n\r\n</li>\r\n\r\n<li>\r\n<a href=\"/etiquetage-des-aliments/etiquetage/industrie/aliments-a-usage-dietetique-special/fra/1393627685223/1393637610720?chap=4#s8c4\">D\u00e9claration relative \u00e0 la valeur nutritive - Pr\u00e9parations pour r\u00e9gime liquide </a>\r\n\r\n</li>\r\n\r\n<li>\r\n<a href=\"/etiquetage-des-aliments/etiquetage/industrie/aliments-a-usage-dietetique-special/fra/1393627685223/1393637610720?chap=4#s9c4\">Mode d'emploi et de pr\u00e9paration et directives d'entreposage </a>\r\n\r\n</li>\r\n\r\n</ul>\r\n\r\n</li>\r\n\r\n<li>\r\n<a href=\"/etiquetage-des-aliments/etiquetage/industrie/aliments-a-usage-dietetique-special/fra/1393627685223/1393637610720?chap=5\">Substituts de repas  </a>\r\n\r\n<ul class=\"list-unstyled col-md-offset-1 mrgn-bttm-md\">\r\n\r\n<li>\r\n<a href=\"/etiquetage-des-aliments/etiquetage/industrie/aliments-a-usage-dietetique-special/fra/1393627685223/1393637610720?chap=5#s10c5\">Mention relative \u00e0 la teneur nutritive - Substituts de repas </a>\r\n\r\n</li>\r\n\r\n<li>\r\n<a href=\"/etiquetage-des-aliments/etiquetage/industrie/aliments-a-usage-dietetique-special/fra/1393627685223/1393637610720?chap=5#s11c5\">D\u00e9claration relative \u00e0 la valeur nutritive - Substituts de repas </a>\r\n\r\n</li>\r\n\r\n<li>\r\n<a href=\"/etiquetage-des-aliments/etiquetage/industrie/aliments-a-usage-dietetique-special/fra/1393627685223/1393637610720?chap=5#s12c5\">Utilisation dans le cadre d'un r\u00e9gime amaigrissant </a>\r\n\r\n</li>\r\n\r\n<li>\r\n<a href=\"/etiquetage-des-aliments/etiquetage/industrie/aliments-a-usage-dietetique-special/fra/1393627685223/1393637610720?chap=5#s13c5\">Utilisation comme substitut de tous les repas de la journ\u00e9e </a>\r\n\r\n</li>\r\n\r\n<li>\r\n<a href=\"/etiquetage-des-aliments/etiquetage/industrie/aliments-a-usage-dietetique-special/fra/1393627685223/1393637610720?chap=5#s14c5\">D\u00e9jeuner instantan\u00e9 </a>\r\n\r\n</li>\r\n\r\n<li>\r\n<a href=\"/etiquetage-des-aliments/etiquetage/industrie/aliments-a-usage-dietetique-special/fra/1393627685223/1393637610720?chap=5#s15c5\">All\u00e9gations et mentions volontaires - Substituts de repas  </a>\r\n\r\n</li>\r\n\r\n</ul>\r\n\r\n</li>\r\n\r\n<li>\r\n<a href=\"/etiquetage-des-aliments/etiquetage/industrie/aliments-a-usage-dietetique-special/fra/1393627685223/1393637610720?chap=6\">Suppl\u00e9ments nutritifs</a>\r\n\r\n<ul class=\"list-unstyled col-md-offset-1 mrgn-bttm-md\">\r\n\r\n<li>\r\n<a href=\"/etiquetage-des-aliments/etiquetage/industrie/aliments-a-usage-dietetique-special/fra/1393627685223/1393637610720?chap=6#s16c6\">Mention relative \u00e0 la teneur nutritive - Suppl\u00e9ments nutritifs</a>\r\n\r\n</li>\r\n\r\n<li>\r\n<a href=\"/etiquetage-des-aliments/etiquetage/industrie/aliments-a-usage-dietetique-special/fra/1393627685223/1393637610720?chap=6#s17c6\">D\u00e9claration relative \u00e0 la valeur nutritive - Suppl\u00e9ments nutritifs</a>\r\n\r\n</li>\r\n\r\n<li>\r\n<a href=\"/etiquetage-des-aliments/etiquetage/industrie/aliments-a-usage-dietetique-special/fra/1393627685223/1393637610720?chap=6#s18c6\">All\u00e9gations et mentions volontaires - Suppl\u00e9ments nutritifs </a>\r\n\r\n</li>\r\n\r\n</ul>\r\n\r\n</li>\r\n\r\n<li>\r\n<a href=\"/etiquetage-des-aliments/etiquetage/industrie/aliments-a-usage-dietetique-special/fra/1393627685223/1393637610720?chap=7\">Aliments pr\u00e9sent\u00e9s comme pouvant convenir aux r\u00e9gimes \u00e0 tr\u00e8s faible teneur en \u00e9nergie</a>\r\n\r\n<ul class=\"list-unstyled col-md-offset-1 mrgn-bttm-md\">\r\n\r\n<li>\r\n<a href=\"/etiquetage-des-aliments/etiquetage/industrie/aliments-a-usage-dietetique-special/fra/1393627685223/1393637610720?chap=7#s19c7\">Mention \u2013 \u00c0 utiliser seulement sous surveillance m\u00e9dicale</a>\r\n\r\n</li>\r\n\r\n<li>\r\n<a href=\"/etiquetage-des-aliments/etiquetage/industrie/aliments-a-usage-dietetique-special/fra/1393627685223/1393637610720?chap=7#s20c7\">D\u00e9claration relative \u00e0 la valeur nutritive - Aliments pr\u00e9sent\u00e9s comme pouvant convenir aux r\u00e9gimes \u00e0 tr\u00e8s faible teneur en \u00e9nergie</a>\r\n\r\n</li>\r\n\r\n<li>\r\n<a href=\"/etiquetage-des-aliments/etiquetage/industrie/aliments-a-usage-dietetique-special/fra/1393627685223/1393637610720?chap=7#s21c7\">Directives de pr\u00e9paration et de conservation</a>\r\n\r\n</li>\r\n\r\n<li>\r\n<a href=\"/etiquetage-des-aliments/etiquetage/industrie/aliments-a-usage-dietetique-special/fra/1393627685223/1393637610720?chap=7#s22c7\">Mode d'emploi - Aliments pr\u00e9sent\u00e9s comme pouvant convenir aux r\u00e9gimes \u00e0 tr\u00e8s faible teneur en \u00e9nergie </a>\r\n\r\n</li>\r\n\r\n<li>\r\n<a href=\"/etiquetage-des-aliments/etiquetage/industrie/aliments-a-usage-dietetique-special/fra/1393627685223/1393637610720?chap=7#s23c7\">All\u00e9gations et mentions volontaires - Aliments pr\u00e9sent\u00e9s comme pouvant convenir aux r\u00e9gimes \u00e0 tr\u00e8s faible teneur en \u00e9nergie</a>\r\n\r\n</li>\r\n\r\n</ul>\r\n\r\n</li>\r\n\r\n<li>\r\n<a href=\"/etiquetage-des-aliments/etiquetage/industrie/aliments-a-usage-dietetique-special/fra/1393627685223/1393637610720?chap=8\">Repas pr\u00e9emball\u00e9s destin\u00e9s \u00e0 un r\u00e9gime amaigrissant </a>\r\n\r\n<ul class=\"list-unstyled col-md-offset-1 mrgn-bttm-md\">\r\n\r\n<li>\r\n<a href=\"/etiquetage-des-aliments/etiquetage/industrie/aliments-a-usage-dietetique-special/fra/1393627685223/1393637610720?chap=8#s24c8\">Mention exig\u00e9e pour les repas pouvant convenir \u00e0 un r\u00e9gime amaigrissant</a>\r\n\r\n</li>\r\n\r\n<li>\r\n<a href=\"/etiquetage-des-aliments/etiquetage/industrie/aliments-a-usage-dietetique-special/fra/1393627685223/1393637610720?chap=8#s25c8\">Mode d'emploi - Repas pr\u00e9emball\u00e9s destin\u00e9s \u00e0 un r\u00e9gime amaigrissant </a>\r\n\r\n</li>\r\n\r\n</ul>\r\n\r\n</li>\r\n\r\n<li>\r\n<a href=\"/etiquetage-des-aliments/etiquetage/industrie/aliments-a-usage-dietetique-special/fra/1393627685223/1393637610720?chap=9\">Aliments vendus par des cliniques d'amaigrissement</a>\r\n\r\n</li>\r\n\r\n<li>\r\n<a href=\"/etiquetage-des-aliments/etiquetage/industrie/aliments-a-usage-dietetique-special/fra/1393627685223/1393637610720?chap=10\">Aliments sans gluten </a>\r\n\r\n</li>\r\n\r\n<li>\r\n<a href=\"/etiquetage-des-aliments/etiquetage/industrie/aliments-a-usage-dietetique-special/fra/1393627685223/1393637610720?chap=11\">R\u00e9gimes amaigrissants</a>\r\n\r\n</li>\r\n\r\n<li>\r\n<a href=\"/etiquetage-des-aliments/etiquetage/industrie/aliments-a-usage-dietetique-special/fra/1393627685223/1393637610720?chap=12\">R\u00e9gimes \u00e0 faible teneur en \u00e9nergie </a>\r\n\r\n</li>\r\n\r\n<li>\r\n<a href=\"/etiquetage-des-aliments/etiquetage/industrie/aliments-a-usage-dietetique-special/fra/1393627685223/1393637610720?chap=13\">R\u00e9gimes hyposodiques </a>\r\n\r\n</li>\r\n\r\n<li>\r\n<a href=\"/etiquetage-des-aliments/etiquetage/industrie/aliments-a-usage-dietetique-special/fra/1393627685223/1393637610720?chap=14\">R\u00e9gimes \u00e0 texture modifi\u00e9e </a>\r\n\r\n</li>\r\n\r\n<li>\r\n<a href=\"/etiquetage-des-aliments/etiquetage/industrie/aliments-a-usage-dietetique-special/fra/1393627685223/1393637610720?chap=15\">Autres aliments \u00e0 usage di\u00e9t\u00e9tique sp\u00e9cial</a>\r\n\r\n<ul class=\"list-unstyled col-md-offset-1 mrgn-bttm-md\">\r\n\r\n<li>\r\n<a href=\"/etiquetage-des-aliments/etiquetage/industrie/aliments-a-usage-dietetique-special/fra/1393627685223/1393637610720?chap=15#s26c15\">Produits de nutrition sportive </a>\r\n\r\n</li>\r\n\r\n</ul>\r\n\r\n</li>\r\n\r\n<li>\r\n<a href=\"/etiquetage-des-aliments/etiquetage/industrie/aliments-a-usage-dietetique-special/fra/1393627685223/1393637610720?chap=16\">D\u00e9finitions </a>\r\n\r\n<ul class=\"list-unstyled col-md-offset-1 mrgn-bttm-md\">\r\n\r\n<li>\r\n<a href=\"/etiquetage-des-aliments/etiquetage/industrie/aliments-a-usage-dietetique-special/fra/1393627685223/1393637610720?chap=16#s27c16\">Aliments \u00e0 usage di\u00e9t\u00e9tique sp\u00e9cial </a>\r\n\r\n</li>\r\n\r\n<li>\r\n<a href=\"/etiquetage-des-aliments/etiquetage/industrie/aliments-a-usage-dietetique-special/fra/1393627685223/1393637610720?chap=16#s28c16\">Pr\u00e9paration pour r\u00e9gime liquide</a>\r\n\r\n</li>\r\n\r\n<li>\r\n<a href=\"/etiquetage-des-aliments/etiquetage/industrie/aliments-a-usage-dietetique-special/fra/1393627685223/1393637610720?chap=16#s29c16\">R\u00e9gime \u00e0 tr\u00e8s faible teneur en \u00e9nergie </a>\r\n\r\n</li>\r\n\r\n<li>\r\n<a href=\"/etiquetage-des-aliments/etiquetage/industrie/aliments-a-usage-dietetique-special/fra/1393627685223/1393637610720?chap=16#s30c16\">Repas pr\u00e9emball\u00e9 </a>\r\n\r\n</li>\r\n\r\n<li>\r\n<a href=\"/etiquetage-des-aliments/etiquetage/industrie/aliments-a-usage-dietetique-special/fra/1393627685223/1393637610720?chap=16#s31c16\">Substitut de repas </a>\r\n\r\n</li>\r\n\r\n<li>\r\n<a href=\"/etiquetage-des-aliments/etiquetage/industrie/aliments-a-usage-dietetique-special/fra/1393627685223/1393637610720?chap=16#s32c16\">Suppl\u00e9ment nutritif</a>\r\n\r\n</li>\r\n\r\n</ul>\r\n\r\n</li>\r\n\r\n</ul>\r\n\r\n\r\n<div class=\"clear\"></div>\r\n\n\n\r\n        \r\n\r\n<div class=\"row\">\r\n \r\n\t\t\t\r\n\t\t\t\r\n\r\n\t\t\r\n\t\r\n</div>"
    },
    "chat_wizard": false,
    "success": true
}