{
    "dcr_id": "1406121526645",
    "title": {
        "en": "Feed Ingredient Assessment and Authorization \u2013 Modernized Regulatory Framework Proposal \u2013 Consultation Summary \u2013 Respondent Comments and <abbr title=\"Canadian Food Inspection Agency\">CFIA</abbr> Responses",
        "fr": "\u00c9valuation et autorisation des ingr\u00e9dients des aliments du b\u00e9tail \u2013 Proposition de cadre de r\u00e9glementation modernis\u00e9 \u2013 Sommaire des consultations \u2013 Commentaires des r\u00e9pondants et r\u00e9ponses de l'<abbr title=\"Agence canadienne d'inspection des aliments\">ACIA</abbr>"
    },
    "html_modified": "1-2-2016",
    "modified": "29-1-2016",
    "issued": "28-7-2014",
    "teamsite_location": {
        "en": "/default/main/inspection/cont-cont/animals-animaux/WORKAREA/animals-animaux/templatedata/comn-comn/manuals-manuels/data/anim_feed_ingredient_assessment_summary_1406121526645_eng",
        "fr": "/default/main/inspection/cont-cont/animals-animaux/WORKAREA/animals-animaux/templatedata/comn-comn/manuals-manuels/data/anim_feed_ingredient_assessment_summary_1406121526645_fra"
    },
    "parent_ia_id": "1343856000143",
    "ia_id": "1406121581863",
    "parent_node_id": null,
    "layout_name": "content page 1 column",
    "breadcrumb": {
        "en": "Feed Ingredient Assessment and Authorization \u2013 Modernized Regulatory Framework Proposal \u2013 Consultation Summary \u2013 Respondent Comments and <abbr title=\"Canadian Food Inspection Agency\">CFIA</abbr> Responses",
        "fr": "\u00c9valuation et autorisation des ingr\u00e9dients des aliments du b\u00e9tail \u2013 Proposition de cadre de r\u00e9glementation modernis\u00e9 \u2013 Sommaire des consultations \u2013 Commentaires des r\u00e9pondants et r\u00e9ponses de l'<abbr title=\"Agence canadienne d'inspection des aliments\">ACIA</abbr>"
    },
    "label": {
        "en": "Feed Ingredient Assessment and Authorization \u2013 Modernized Regulatory Framework Proposal \u2013 Consultation Summary \u2013 Respondent Comments and <abbr title=\"Canadian Food Inspection Agency\">CFIA</abbr> Responses",
        "fr": "\u00c9valuation et autorisation des ingr\u00e9dients des aliments du b\u00e9tail \u2013 Proposition de cadre de r\u00e9glementation modernis\u00e9 \u2013 Sommaire des consultations \u2013 Commentaires des r\u00e9pondants et r\u00e9ponses de l'<abbr title=\"Agence canadienne d'inspection des aliments\">ACIA</abbr>"
    },
    "templatetype": "content page 1 column",
    "node_id": "1406121581863",
    "managing_branch": "comn",
    "type_name": "manuals-manuels",
    "parent_dcr_id": "1343855817011",
    "has_dcr_id": true,
    "lang": "en",
    "could_not_load": 0,
    "refaire": false,
    "interwoven_url": {
        "en": "/animal-health/livestock-feeds/consultations/feed-ingredient-assessment-and-authorization/",
        "fr": "/sante-des-animaux/aliments-du-betail/consultations/evaluation-et-autorisation-des-ingredients-des-ali/"
    },
    "meta": {
        "viewport": {
            "en": "width=device-width,initial-scale=1",
            "fr": "width=device-width,initial-scale=1"
        },
        "service": {
            "en": "CFIA-ACIA",
            "fr": "CFIA-ACIA"
        },
        "accessRights": {
            "en": "2",
            "fr": "2"
        },
        "title": {
            "en": "Feed Ingredient Assessment and Authorization \u2013 Modernized Regulatory Framework Proposal \u2013 Consultation Summary \u2013 Respondent Comments and CFIA Responses",
            "fr": "\u00c9valuation et autorisation des ingr\u00e9dients des aliments du b\u00e9tail \u2013 Proposition de cadre de r\u00e9glementation modernis\u00e9 \u2013 Sommaire des consultations \u2013 Commentaires des r\u00e9pondants et r\u00e9ponses de l'ACIA"
        },
        "description": {
            "en": "The Canadian Food Inspection Agency (CFIA) has embarked on a comprehensive change agenda to strengthen its foundation of legislation, regulatory programs and inspection delivery.  These directions set the context for the renewal of the Feeds Regulations (Regulations).",
            "fr": "L'Agence canadienne d'inspection des aliments (ACIA) a entrepris un important programme de changement en vue de renforcer son fondement l\u00e9gislatif, ses programmes de r\u00e9glementation et la tenue des inspections."
        },
        "keywords": {
            "en": "Canadian Food Inspection Agency, CFIA, change agenda, foundation, legislation, regulatory programs, inspection delivery, renewal, Feeds Regulations",
            "fr": "Loi sur la sant\u00e9 des animaux, R\u00e8glement sur la sant\u00e9 des animaux, Loi relative aux aliments du b\u00e9tail, R\u00e8glement sur les aliments du b\u00e9tail, aliments du betail, aliment nouveau, biotechnologie, aliments m\u00e9dicament\u00e9s, ingr\u00e9dients, toxicologiques, directives r\u00e9glementaires"
        },
        "dcterms.subject": {
            "en": "livestock,inspection,standards,policy,regulation,animal health",
            "fr": "b\u00e9tail,inspection,norme,politique,r\u00e9glementation,sant\u00e9 animale"
        },
        "creator": {
            "en": "Government of Canada,Canadian Food Inspection Agency,Animal Health Directorate",
            "fr": "Gouvernement du Canada,Agence canadienne d'inspection des aliments,Direction sant\u00e9 des animaux"
        },
        "language": {
            "en": "eng",
            "fr": "fra"
        },
        "issued": {
            "en": "2016-02-01",
            "fr": "2016-02-01"
        },
        "modified": {
            "en": "2016-01-29",
            "fr": "2016-01-29"
        },
        "type": {
            "en": "reference material",
            "fr": "mat\u00e9riel de r\u00e9f\u00e9rence"
        },
        "audience": {
            "en": "business,government",
            "fr": "entreprises,gouvernement"
        },
        "name": {
            "en": "Government of Canada",
            "fr": "Gouvernement du Canada"
        },
        "areaServed": {
            "en": "Canada",
            "fr": "Canada"
        }
    },
    "h1": {
        "en": "Feed Ingredient Assessment and Authorization \u2013 Modernized Regulatory Framework Proposal \u2013 Consultation Summary \u2013 Respondent Comments and CFIA Responses",
        "fr": "\u00c9valuation et autorisation des ingr\u00e9dients des aliments du b\u00e9tail \u2013 Proposition de cadre de r\u00e9glementation modernis\u00e9 \u2013 Sommaire des consultations \u2013 Commentaires des r\u00e9pondants et r\u00e9ponses de l'ACIA"
    },
    "body": {
        "en": "        \r\n        \n\n\r\n\r\n\r\n<section id=\"archived\" class=\"alert alert-warning wb-inview\" data-inview=\"archived-bnr\">\r\n<h2>This page has been archived</h2>\r\n<p>Information identified as archived is provided for reference, research or record-keeping purposes. It is not subject to the Government of Canada Web Standards and has not been altered or updated since it was archived. Please contact us to request a format other than those available.</p>\r\n</section>\r\n\r\n<section id=\"archived-bnr\" class=\"wb-overlay modal-content overlay-def wb-bar-t\">\r\n<header>\r\n<h2 class=\"wb-inv\">Archived</h2>\r\n</header>\r\n<p><a href=\"#archived\">This page has been archived.</a></p>\r\n</section>\r\n\r\n\r\n\r\n\r\n<p class=\"small text-right\"><a href=\"/animal-health/livestock-feeds/consultations/feed-ingredient-assessment-and-authorization/eng/1406121526645/1406121581863?chap=0\">Complete text</a></p>\r\n\r\n\r\n<h2>Table of Contents</h2>\r\n<ul class=\"list-unstyled col-md-offset-1 mrgn-tp-md mrgn-bttm-md\">\r\n\r\n<li>\r\n<a href=\"/animal-health/livestock-feeds/consultations/feed-ingredient-assessment-and-authorization/eng/1406121526645/1406121581863?chap=1\">Introduction</a>\r\n\r\n<ul class=\"list-unstyled col-md-offset-1 mrgn-bttm-md\">\r\n\r\n<li>\r\n<a href=\"/animal-health/livestock-feeds/consultations/feed-ingredient-assessment-and-authorization/eng/1406121526645/1406121581863?chap=1#s1c1\">About the Consultation</a>\r\n\r\n</li>\r\n\r\n</ul>\r\n\r\n</li>\r\n\r\n<li>\r\n<a href=\"/animal-health/livestock-feeds/consultations/feed-ingredient-assessment-and-authorization/eng/1406121526645/1406121581863?chap=2\">What We Heard</a>\r\n\r\n<ul class=\"list-unstyled col-md-offset-1 mrgn-bttm-md\">\r\n\r\n<li>\r\n<a href=\"/animal-health/livestock-feeds/consultations/feed-ingredient-assessment-and-authorization/eng/1406121526645/1406121581863?chap=2#s2c2\">Respondent Profile</a>\r\n\r\n</li>\r\n\r\n<li>\r\n<a href=\"/animal-health/livestock-feeds/consultations/feed-ingredient-assessment-and-authorization/eng/1406121526645/1406121581863?chap=2#s3c2\">Key Respondent Messages</a>\r\n\r\n</li>\r\n\r\n<li>\r\n<a href=\"/animal-health/livestock-feeds/consultations/feed-ingredient-assessment-and-authorization/eng/1406121526645/1406121581863?chap=2#s4c2\">Classification of Feed Ingredients [Section 4 of Proposal]</a>\r\n\r\n</li>\r\n\r\n<li>\r\n<a href=\"/animal-health/livestock-feeds/consultations/feed-ingredient-assessment-and-authorization/eng/1406121526645/1406121581863?chap=2#s5c2\">Process-specific Comments</a>\r\n\r\n</li>\r\n\r\n<li>\r\n<a href=\"/animal-health/livestock-feeds/consultations/feed-ingredient-assessment-and-authorization/eng/1406121526645/1406121581863?chap=2#s6c2\">Other Areas of Potential Regulatory Change [Section 6 of the proposal]</a>\r\n\r\n</li>\r\n\r\n</ul>\r\n\r\n</li>\r\n\r\n<li>\r\n<a href=\"/animal-health/livestock-feeds/consultations/feed-ingredient-assessment-and-authorization/eng/1406121526645/1406121581863?chap=3\">Next Steps</a>\r\n\r\n</li>\r\n\r\n</ul>\r\n<p>November 20, 2013 - December 20, 2013</p>\r\n\r\n\n\n\r\n        \r\n\r\n\r\n\r\n<div class=\"row\">\r\n \r\n\t\r\n\t\t\t\r\n\r\n<div class=\"col-xm-12 pagedetails container\">\r\n\t\t\t\t\r\n\r\n</div>\r\n\t\r\n</div>",
        "fr": "\r\n        \r\n        \n\n\r\n\r\n\r\n<section id=\"archived\" class=\"alert alert-warning wb-inview\" data-inview=\"archived-bnr\">\r\n<h2>Cette page a \u00e9t\u00e9 archiv\u00e9e</h2>\r\n<p>L'information dont il est indiqu\u00e9 qu'elle est archiv\u00e9e est fournie \u00e0 des fins de r\u00e9f\u00e9rence, de recherche ou de tenue de documents. Elle n'est pas assujettie aux normes Web du gouvernement du Canada et elle n'a pas \u00e9t\u00e9 modifi\u00e9e ou mise \u00e0 jour depuis son archivage. Pour obtenir cette information dans un autre format, veuillez communiquer avec nous.</p>\r\n</section>\r\n\r\n<section id=\"archived-bnr\" class=\"wb-overlay modal-content overlay-def wb-bar-t\">\r\n<header>\r\n<h2 class=\"wb-inv\">Archiv\u00e9e</h2>\r\n</header>\r\n<p><a href=\"#archived\">Cette page a \u00e9t\u00e9 archiv\u00e9e.</a></p>\r\n</section>\r\n\r\n\r\n<p class=\"small text-right\"><a href=\"/sante-des-animaux/aliments-du-betail/consultations/evaluation-et-autorisation-des-ingredients-des-ali/fra/1406121526645/1406121581863?chap=0\">Texte complet</a></p>\r\n\r\n\r\n<h2>Table des mati\u00e8res</h2>\r\n<ul class=\"list-unstyled col-md-offset-1 mrgn-tp-md mrgn-bttm-md\">\r\n\r\n<li>\r\n<a href=\"/sante-des-animaux/aliments-du-betail/consultations/evaluation-et-autorisation-des-ingredients-des-ali/fra/1406121526645/1406121581863?chap=1\">Introduction</a>\r\n\r\n<ul class=\"list-unstyled col-md-offset-1 mrgn-bttm-md\">\r\n\r\n<li>\r\n<a href=\"/sante-des-animaux/aliments-du-betail/consultations/evaluation-et-autorisation-des-ingredients-des-ali/fra/1406121526645/1406121581863?chap=1#s1c1\">Au sujet de la consultation</a>\r\n\r\n</li>\r\n\r\n</ul>\r\n\r\n</li>\r\n\r\n<li>\r\n<a href=\"/sante-des-animaux/aliments-du-betail/consultations/evaluation-et-autorisation-des-ingredients-des-ali/fra/1406121526645/1406121581863?chap=2\">Commentaires re\u00e7us</a>\r\n\r\n<ul class=\"list-unstyled col-md-offset-1 mrgn-bttm-md\">\r\n\r\n<li>\r\n<a href=\"/sante-des-animaux/aliments-du-betail/consultations/evaluation-et-autorisation-des-ingredients-des-ali/fra/1406121526645/1406121581863?chap=2#s2c2\">Profil des r\u00e9pondants</a>\r\n\r\n</li>\r\n\r\n<li>\r\n<a href=\"/sante-des-animaux/aliments-du-betail/consultations/evaluation-et-autorisation-des-ingredients-des-ali/fra/1406121526645/1406121581863?chap=2#s3c2\">Principaux messages des r\u00e9pondants</a>\r\n\r\n</li>\r\n\r\n<li>\r\n<a href=\"/sante-des-animaux/aliments-du-betail/consultations/evaluation-et-autorisation-des-ingredients-des-ali/fra/1406121526645/1406121581863?chap=2#s4c2\">Classification des ingr\u00e9dients des aliments du b\u00e9tail [section 4 de la proposition]</a>\r\n\r\n</li>\r\n\r\n<li>\r\n<a href=\"/sante-des-animaux/aliments-du-betail/consultations/evaluation-et-autorisation-des-ingredients-des-ali/fra/1406121526645/1406121581863?chap=2#s5c2\">Commentaires sur le processus</a>\r\n\r\n</li>\r\n\r\n<li>\r\n<a href=\"/sante-des-animaux/aliments-du-betail/consultations/evaluation-et-autorisation-des-ingredients-des-ali/fra/1406121526645/1406121581863?chap=2#s6c2\">Autres secteurs pouvant faire l'objet d'un changement r\u00e9glementaire [section 6 de la proposition]</a>\r\n\r\n</li>\r\n\r\n</ul>\r\n\r\n</li>\r\n\r\n<li>\r\n<a href=\"/sante-des-animaux/aliments-du-betail/consultations/evaluation-et-autorisation-des-ingredients-des-ali/fra/1406121526645/1406121581863?chap=3\">Prochaines \u00e9tapes</a>\r\n\r\n</li>\r\n\r\n</ul>\r\n<p>20 novembre 2013 \u2013 20 d\u00e9cembre 2013</p>\r\n\r\n<div class=\"clear\"></div>\r\n\n\n\r\n        \r\n\r\n<div class=\"row\">\r\n \r\n\t\t\t\r\n\t\t\t\r\n\r\n\t\t\r\n\t\r\n</div>"
    },
    "js": {
        "en": "",
        "fr": ""
    },
    "chat_wizard": false,
    "success": true
}