{
    "dcr_id": "1435583120107",
    "title": {
        "en": "Final Report of an Audit Conducted In Argentina September 9<sup>th</sup>, through September 25<sup>th</sup>, 2013<br />Evaluating the Food Safety Systems Governing the Production of Beef And Poultry Meat Products Intended for Export to Canada",
        "fr": "Rapport final d'un audit effectu\u00e9 en Argentine du 9 au 25 septembre 2013<br /> \u00c9valuant les syst\u00e8mes de salubrit\u00e9 des aliments des produits de viande de b\u0153uf et de volaille"
    },
    "html_modified": "5-10-2015",
    "modified": "27-4-2017",
    "issued": "29-6-2015",
    "teamsite_location": {
        "en": "/default/main/inspection/cont-cont/food-aliments/WORKAREA/food-aliments/templatedata/comn-comn/manuals-manuels/data/meat_imports_audits_countries_argentina2013_1435583120107_eng",
        "fr": "/default/main/inspection/cont-cont/food-aliments/WORKAREA/food-aliments/templatedata/comn-comn/manuals-manuels/data/meat_imports_audits_countries_argentina2013_1435583120107_fra"
    },
    "parent_ia_id": "1404502949798",
    "ia_id": "1435584288076",
    "parent_node_id": null,
    "layout_name": "content page 1 column",
    "breadcrumb": {
        "en": "Final Report of an Audit Conducted In Argentina September 9<sup>th</sup>, through September 25<sup>th</sup>, 2013<br />Evaluating the Food Safety Systems Governing the Production of Beef And Poultry Meat Products Intended for Export to Canada",
        "fr": "Rapport final d'un audit effectu\u00e9 en Argentine du 9 au 25 septembre 2013<br /> \u00c9valuant les syst\u00e8mes de salubrit\u00e9 des aliments des produits de viande de b\u0153uf et de volaille"
    },
    "label": {
        "en": "Final Report of an Audit Conducted In Argentina September 9<sup>th</sup>, through September 25<sup>th</sup>, 2013<br />Evaluating the Food Safety Systems Governing the Production of Beef And Poultry Meat Products Intended for Export to Canada",
        "fr": "Rapport final d'un audit effectu\u00e9 en Argentine du 9 au 25 septembre 2013<br /> \u00c9valuant les syst\u00e8mes de salubrit\u00e9 des aliments des produits de viande de b\u0153uf et de volaille"
    },
    "templatetype": "content page 1 column",
    "node_id": "1435584288076",
    "managing_branch": "comn",
    "type_name": "manuals-manuels",
    "parent_dcr_id": "1404502855855",
    "has_dcr_id": true,
    "lang": "en",
    "could_not_load": 0,
    "refaire": false,
    "interwoven_url": {
        "en": "/importing-food-plants-or-animals/food-imports/foreign-systems/audits/final-report-of-an-audit-argentina-/",
        "fr": "/importation-d-aliments-de-vegetaux-ou-d-animaux/importation-d-aliments/systemes-etrangers/verifications/rapport-final-d-un-audit-argentine-/"
    },
    "meta": {
        "viewport": {
            "en": "width=device-width,initial-scale=1",
            "fr": "width=device-width,initial-scale=1"
        },
        "service": {
            "en": "CFIA-ACIA",
            "fr": "CFIA-ACIA"
        },
        "accessRights": {
            "en": "2",
            "fr": "2"
        },
        "title": {
            "en": "Final Report of an Audit Conducted In Argentina September 9th, through September 25th, 2013Evaluating the Food Safety Systems Governing the Production of Beef And Poultry Meat Products Intended for Export to Canada",
            "fr": "Rapport final d'un audit effectu\u00e9 en Argentine du 9 au 25 septembre 2013 \u00c9valuant les syst\u00e8mes de salubrit\u00e9 des aliments des produits de viande de b\u0153uf et de volaille"
        },
        "description": {
            "en": "This report describes the outcome of an on-site audit of Argentina's poultry and beef inspection system that was conducted by the Canadian Food Inspection Agency (CFIA) from September 9 to 25, 2013.",
            "fr": "Le pr\u00e9sent rapport consiste en un bilan descriptif de l'audit r\u00e9alis\u00e9 sur les lieux par l'Agence canadienne d\u2019inspection des aliments (ACIA) du 9 au 25 septembre 2013 et porte sur le syst\u00e8me d'inspection de la volaille et du b\u0153uf en Argentine."
        },
        "keywords": {
            "en": "food, food health, audit, controls, sanitation, animal disease, slaughter, processing, laboratory, microbiological",
            "fr": "aliment, salubrit\u00e9 alimentaire, contr\u00f4les, sanitaire, zoosanitaire, transformation, laboratoire, microbiologique"
        },
        "dcterms.subject": {
            "en": "laboratories,microorganisms,food safety,animal health,food processing",
            "fr": "laboratoire,microorganisme,salubrit\u00e9 des aliments,sant\u00e9 animale, transformation des aliments"
        },
        "creator": {
            "en": "Government of Canada,Canadian Food Inspection Agency",
            "fr": "Government of Canada,Canadian Food Inspection Agency"
        },
        "language": {
            "en": "eng",
            "fr": "fra"
        },
        "issued": {
            "en": "2015-10-05",
            "fr": "2015-10-05"
        },
        "modified": {
            "en": "2017-04-27",
            "fr": "2017-04-27"
        },
        "type": {
            "en": "reference material",
            "fr": "mat\u00e9riel de r\u00e9f\u00e9rence"
        },
        "audience": {
            "en": "business,government,general public",
            "fr": "entreprises,gouvernement,grand public"
        },
        "name": {
            "en": "Government of Canada",
            "fr": "Gouvernement du Canada"
        },
        "areaServed": {
            "en": "Canada",
            "fr": "Canada"
        }
    },
    "h1": {
        "en": "Final Report of an Audit Conducted In Argentina September 9th, through September 25th, 2013Evaluating the Food Safety Systems Governing the Production of Beef And Poultry Meat Products Intended for Export to Canada",
        "fr": "Rapport final d'un audit effectu\u00e9 en Argentine du 9 au 25 septembre 2013 \u00c9valuant les syst\u00e8mes de salubrit\u00e9 des aliments des produits de viande de b\u0153uf et de volaille"
    },
    "body": {
        "en": "        \r\n        \n\n\r\n\r\n\r\n\r\n\r\n\r\n<p class=\"small text-right\"><a href=\"/importing-food-plants-or-animals/food-imports/foreign-systems/audits/final-report-of-an-audit-argentina-/eng/1435583120107/1435584288076?chap=0\">Complete text</a></p>\r\n\r\n<div class=\"well-sm brdr-tp brdr-rght brdr-bttm brdr-lft mrgn-bttm-md\">\n<section> \n<p>This report was updated on April 21, 2017. For specific details, please see the Supplementary Response in the following sections:</p>\n<ul>\n<li><a href=\"#sum\">Executive Summary</a></li>\n<li><a href=\"/importing-food-plants-or-animals/food-imports/foreign-systems/audits/final-report-of-an-audit-argentina-/eng/1435583120107/1435584288076?chap=12\">Conclusions and Recommendations</a></li>\n<li><a href=\"/importing-food-plants-or-animals/food-imports/foreign-systems/audits/final-report-of-an-audit-argentina-/eng/1435583120107/1435584288076?chap=13\">Annex 1 (sections 2.5, 2.7 and 3.2)</a></li>\n</ul>\n</section>\n</div>\n\r\n<nav>\r\n<ul class=\"list-unstyled col-md-offset-1 mrgn-tp-md mrgn-bttm-md\">\r\n\r\n<li>\r\n<a href=\"/importing-food-plants-or-animals/food-imports/foreign-systems/audits/final-report-of-an-audit-argentina-/eng/1435583120107/1435584288076?chap=1\">1. Introduction</a>\r\n\r\n</li>\r\n\r\n<li>\r\n<a href=\"/importing-food-plants-or-animals/food-imports/foreign-systems/audits/final-report-of-an-audit-argentina-/eng/1435583120107/1435584288076?chap=2\">2. Audit Objective, Scope, and Methodology</a>\r\n\r\n</li>\r\n\r\n<li>\r\n<a href=\"/importing-food-plants-or-animals/food-imports/foreign-systems/audits/final-report-of-an-audit-argentina-/eng/1435583120107/1435584288076?chap=3\">3. Legal Basis for the Audit and Audit Standards</a>\r\n\r\n</li>\r\n\r\n<li>\r\n<a href=\"/importing-food-plants-or-animals/food-imports/foreign-systems/audits/final-report-of-an-audit-argentina-/eng/1435583120107/1435584288076?chap=4\">4. Background</a>\r\n\r\n</li>\r\n\r\n<li>\r\n<a href=\"/importing-food-plants-or-animals/food-imports/foreign-systems/audits/final-report-of-an-audit-argentina-/eng/1435583120107/1435584288076?chap=5\">5. Main Findings Concerning Government Oversight</a>\r\n\r\n</li>\r\n\r\n<li>\r\n<a href=\"/importing-food-plants-or-animals/food-imports/foreign-systems/audits/final-report-of-an-audit-argentina-/eng/1435583120107/1435584288076?chap=6\">6. Sanitation Controls</a>\r\n\r\n</li>\r\n\r\n<li>\r\n<a href=\"/importing-food-plants-or-animals/food-imports/foreign-systems/audits/final-report-of-an-audit-argentina-/eng/1435583120107/1435584288076?chap=7\">7. Animal Disease Controls</a>\r\n\r\n</li>\r\n\r\n<li>\r\n<a href=\"/importing-food-plants-or-animals/food-imports/foreign-systems/audits/final-report-of-an-audit-argentina-/eng/1435583120107/1435584288076?chap=8\">8. Slaughter/Processing Controls</a>\r\n\r\n</li>\r\n\r\n<li>\r\n<a href=\"/importing-food-plants-or-animals/food-imports/foreign-systems/audits/final-report-of-an-audit-argentina-/eng/1435583120107/1435584288076?chap=9\">9. Laboratory Controls</a>\r\n\r\n</li>\r\n\r\n<li>\r\n<a href=\"/importing-food-plants-or-animals/food-imports/foreign-systems/audits/final-report-of-an-audit-argentina-/eng/1435583120107/1435584288076?chap=10\">10. Microbiological And Enforcement Controls</a>\r\n\r\n</li>\r\n\r\n<li>\r\n<a href=\"/importing-food-plants-or-animals/food-imports/foreign-systems/audits/final-report-of-an-audit-argentina-/eng/1435583120107/1435584288076?chap=11\">11. Closing Meeting</a>\r\n\r\n</li>\r\n\r\n<li>\r\n<a href=\"/importing-food-plants-or-animals/food-imports/foreign-systems/audits/final-report-of-an-audit-argentina-/eng/1435583120107/1435584288076?chap=12\">12. Conclusions and Recommendations</a>\r\n\r\n</li>\r\n\r\n<li>\r\n<a href=\"/importing-food-plants-or-animals/food-imports/foreign-systems/audits/final-report-of-an-audit-argentina-/eng/1435583120107/1435584288076?chap=13\">13. Annexes</a>\r\n\r\n</li>\r\n\r\n</ul>\r\n</nav>\r\n\n\n<h2>Abbreviations and Special Terms Used In the Report</h2>\n\n<dl class=\"dl-horizontal mrgn-lft-0\">\n<dt>APHIS</dt>\n<dd>Animal and Plant Health Inspection Service \u2013 United States Department of Agriculture</dd>\n<dt>CCA</dt>\n<dd>Central Competent Authority: <abbr lang=\"es\" title=\"Servicio Nacional de Sanidad y Calidad Agroalimentaria\">SENASA</abbr></dd>\n<dt>CCP</dt>\n<dd>Critical Control Point</dd>\n<dt>CFIA</dt>\n<dd>Canadian Food Inspection Agency</dd>\n<dt>BSE</dt>\n<dd>Bovine Spongiform Encephalopathy</dd>\n<dt><i lang=\"la\">E. coli</i></dt>\n<dd><i lang=\"la\">Escherichia coli</i></dd>\n<dt>FMD</dt>\n<dd>Foot and Mouth Disease</dd>\n<dt>FSIS</dt>\n<dd>Food Safety and Inspection Service \u2013 United States Department of Agriculture</dd>\n<dt>GMP</dt>\n<dd>Good Manufacturing Practices</dd>\n<dt>HACCP</dt>\n<dd>Hazard Analysis and Critical Control Point</dd>\n<dt>WOAH</dt>\n<dd>World Organization for Animal Health</dd>\n<dt>MOP</dt>\n<dd>Meat Hygiene Manual of Procedures</dd>\n<dt>RTE</dt>\n<dd>Ready-to-Eat</dd>\n<dt><i lang=\"la\">Salmonella</i></dt>\n<dd><i lang=\"la\">Salmonella</i> <abbr title=\"species\">spp.</abbr></dd>\n<dt>SENASA</dt>\n<dd>National Service for Animal Health and Agro-Food Quality (<span lang=\"es\">Servicio Nacional de Sanidad y Calidad Agroalimentario</span>)</dd>\n<dt>SRM</dt>\n<dd>Specified Risk Material</dd>\n<dt>SSOP</dt>\n<dd>Sanitation Standard Operating Procedures</dd>\n<dt>VIC</dt>\n<dd>Veterinarian in Charge</dd>\n</dl>\n\n<h2 id=\"sum\">Executive Summary</h2>\n\n<p>This report describes the outcome of an on-site audit of Argentina's poultry and beef inspection system that was conducted by the Canadian Food Inspection Agency (CFIA) from September 9 to 25, 2013.</p>\n\n<p>This audit had three objectives:</p>\n\n<ol>\n\n<li class=\"mrgn-bttm-md\">To conduct a maintenance audit of the beef inspection system for the beef products that are currently allowed to be exported into Canada. The goal was to verify that Argentina continues to maintain a food safety system for beef that is equivalent to that of Canada with the capacity to produce products that are safe, unadulterated, and properly labelled in accordance with the Canadian meat inspection system. From <span class=\"nowrap\">January 1</span> to <span class=\"nowrap\">December 31, 2012</span>, Argentina exported 815,167 kilograms of processed beef products to Canada.</li>\n<li class=\"mrgn-bttm-md\">To evaluate the programs and controls to determine if raw beef can be exported to Canada from the geographical regions of Argentina that the <abbr title=\"Canadian Food Inspection Agency\">CFIA</abbr> has determined to be free of Food and Mouth Disease (FMD) with and without vaccination. </li>\n<li class=\"mrgn-bttm-md\">To conduct an initial review of the poultry inspection system to assess its equivalence with the Canadian poultry inspection system with the intention to allow the export of poultry to Canada from Argentina.</li>\n</ol>\n<p>Overall, the audit of the Central Competent Authority (CAA) indicated an effective organizational structure, facilities, equipment, transportation, communication, personnel, and training of the competent authority, to support the objectives of meat and meat product inspection and certification programs for export to Canada.</p>\n\n<p>However, the following issues need to be addressed:</p>\n\n<ol>\n<li class=\"mrgn-bttm-md\">Beef inspection: not all the requirements of Chapter 4, Annex O of the <abbr title=\"Canadian Food Inspection Agency\">CFIA</abbr> Meat Hygiene Manual of Procedures (MOP) were being followed in all establishments. The Policy described in Annex\u00a0O or equivalent must be implemented in order to allow the export of raw beef to Canada. The <abbr title=\"Canadian Food Inspection Agency\">CFIA</abbr> auditor determined that <abbr lang=\"es\" title=\"Servicio Nacional de Sanidad y Calidad Agroalimentaria\">SENASA</abbr> is not routinely incising the lateral retropharyngeal lymph node as required. <abbr lang=\"es\" title=\"Servicio Nacional de Sanidad y Calidad Agroalimentaria\">SENASA</abbr> followed up during the audit to remind field staff of this requirement. Beef grading was not evaluated during this audit.</li>\n<li class=\"mrgn-bttm-md\">Poultry Inspection: a major difference was identified during the audit related to the trimming of partially condemned portions. In Canada, all inedible portions are removed prior to the approved carcasses leaving the evisceration room, while in Argentina, carcasses with minor condemnable portions are allowed to leave the evisceration floor and pass into the chilling system where these portions are then removed and discarded. The <abbr title=\"Canadian Food Inspection Agency\">CFIA</abbr> desk review had already identified significant differences between the Argentina's and Canada's poultry grading programs, consequently, <abbr title=\"Canadian Food Inspection Agency\">CFIA</abbr> concluded that Argentina's poultry grading program is not equivalent, and therefore export of Argentinian poultry with a grade designation cannot be allowed. However, Canada does allow the imports of ungraded poultry if all other requirements are met. This program was not reviewed as part of the on-site audit. Similarly, product standards for poultry mechanically separated meat differ between Argentina and Canada, so companies that intend to export this product will need to meet the <abbr title=\"Canadian Food Inspection Agency\">CFIA</abbr> standards. Finally, control of evisceration may need to be standardized through all poultry establishment to ensure that contamination is effectively controlled in all poultry plants.</li>\n<li class=\"mrgn-bttm-md\">Compliance and Enforcement Issues: Although the <abbr title=\"Central Competent Authority\">CCA</abbr> maintains the legal authority and the responsibility to enforce all applicable laws and regulations governing Argentina and third country requirements, the auditor found that these requirements were not consistently applied throughout the system. As such, oversight of the implementation of effective sanitation and establishment operations will need further improvement.</li>\n</ol>\n<p>Following the review of the action plans provided by <abbr lang=\"es\" title=\"Servicio Nacional de Sanidad y Calidad Agroalimentaria\">SENASA</abbr>, Argentina's beef inspection system for slaughter, cutting and processing was determined to meet Canada's requirements and in addition to cooked boneless beef, raw fresh/frozen boneless beef is now approved for export to Canada.</p>\n<p>However, based on audit observations and review of subsequent action plans from <abbr lang=\"es\" title=\"Servicio Nacional de Sanidad y Calidad Agroalimentaria\">SENASA</abbr>, Argentina's Poultry inspection system cannot be approved. See \"Supplementary response\" below-</p>\n<p><strong>Supplementary response based on the information  received on April 15, 2016</strong></p>\n<p>Following the review of the action plans provided by <abbr lang=\"es\" title=\"Servicio Nacional de Sanidad y Calidad Agroalimentaria\">SENASA</abbr>, it was determined that Argentina's poultry meat inspection system for slaughtering, cutting, and processing meets Canadian requirements: in addition to cooked boneless chicken; fresh/frozen raw boneless chicken is now approved for export to Canada. However, the import of poultry feet is not allowed because the Canadian requirements for this product are not met.</p>\n<p>Documents reviewed by <abbr title=\"Canadian Food Inspection Agency\">CFIA</abbr> confirm there are major differences between the Argentina and the Canadian grading poultry system. The <abbr title=\"Canadian Food Inspection Agency\">CFIA</abbr> had concluded that the poultry grading program in Argentina is not equivalent to Canada so the <abbr title=\"Canadian Food Inspection Agency\">CFIA</abbr> maintains the conclusion that the poultry grading program in Argentina is not equivalent. The import of poultry from Argentina cannot be authorized with a grade designation. Canada allows import of poultry without designation when all other requirements are met.</p>\n<p>For mechanically separated poultry meat, the standards in Argentina and Canada are different, so the establishments that intend to export these products must meet Canadian standards.</p>\r\n\r\n\n\n\r\n        \r\n\r\n\r\n\r\n<div class=\"row\">\r\n \r\n\t\r\n\t\t\t\r\n\r\n<div class=\"col-xm-12 pagedetails container\">\r\n\t\t\t\t\r\n\r\n</div>\r\n\t\r\n</div>",
        "fr": "\r\n        \r\n        \n\n\r\n\r\n\r\n\r\n\r\n\r\n<p class=\"small text-right\"><a href=\"/importation-d-aliments-de-vegetaux-ou-d-animaux/importation-d-aliments/systemes-etrangers/verifications/rapport-final-d-un-audit-argentine-/fra/1435583120107/1435584288076?chap=0\">texte complet</a></p>\r\n\r\n<div class=\"well-sm brdr-tp brdr-rght brdr-bttm brdr-lft mrgn-bttm-md\">\n<section> \n<p>Ce rapport a \u00e9t\u00e9 mis \u00e0 jour le 21 avril 2017. Pour plus de d\u00e9tails, veuillez s'il-vous-pla\u00eet vous r\u00e9f\u00e9rer aux r\u00e9ponses suppl\u00e9mentaires dans les sections suivantes\u00a0: </p>\n<ul>\n<li><a href=\"#sum\">Sommaire</a></li>\n<li><a href=\"/importation-d-aliments-de-vegetaux-ou-d-animaux/importation-d-aliments/systemes-etrangers/verifications/rapport-final-d-un-audit-argentine-/fra/1435583120107/1435584288076?chap=12\">Conclusions et recommandations</a></li>\n<li><a href=\"/importation-d-aliments-de-vegetaux-ou-d-animaux/importation-d-aliments/systemes-etrangers/verifications/rapport-final-d-un-audit-argentine-/fra/1435583120107/1435584288076?chap=13\">Annexe 1 (sections 2.5, 2.7 et 3.2)</a></li>\n</ul>\n</section>\n</div>\n\r\n<nav>\r\n<ul class=\"list-unstyled col-md-offset-1 mrgn-tp-md mrgn-bttm-md\">\r\n\r\n<li>\r\n<a href=\"/importation-d-aliments-de-vegetaux-ou-d-animaux/importation-d-aliments/systemes-etrangers/verifications/rapport-final-d-un-audit-argentine-/fra/1435583120107/1435584288076?chap=1\">1. Introduction</a>\r\n\r\n</li>\r\n\r\n<li>\r\n<a href=\"/importation-d-aliments-de-vegetaux-ou-d-animaux/importation-d-aliments/systemes-etrangers/verifications/rapport-final-d-un-audit-argentine-/fra/1435583120107/1435584288076?chap=2\">2. Objectif, port\u00e9e et m\u00e9thode de l'audit</a>\r\n\r\n</li>\r\n\r\n<li>\r\n<a href=\"/importation-d-aliments-de-vegetaux-ou-d-animaux/importation-d-aliments/systemes-etrangers/verifications/rapport-final-d-un-audit-argentine-/fra/1435583120107/1435584288076?chap=3\">3. Fondement juridique de l'audit et normes r\u00e9gissant l'audit</a>\r\n\r\n</li>\r\n\r\n<li>\r\n<a href=\"/importation-d-aliments-de-vegetaux-ou-d-animaux/importation-d-aliments/systemes-etrangers/verifications/rapport-final-d-un-audit-argentine-/fra/1435583120107/1435584288076?chap=4\">4. Contexte</a>\r\n\r\n</li>\r\n\r\n<li>\r\n<a href=\"/importation-d-aliments-de-vegetaux-ou-d-animaux/importation-d-aliments/systemes-etrangers/verifications/rapport-final-d-un-audit-argentine-/fra/1435583120107/1435584288076?chap=5\">5. Principales conclusions concernant la surveillance gouvernementale</a>\r\n\r\n</li>\r\n\r\n<li>\r\n<a href=\"/importation-d-aliments-de-vegetaux-ou-d-animaux/importation-d-aliments/systemes-etrangers/verifications/rapport-final-d-un-audit-argentine-/fra/1435583120107/1435584288076?chap=6\">6. Contr\u00f4les sanitaires</a>\r\n\r\n</li>\r\n\r\n<li>\r\n<a href=\"/importation-d-aliments-de-vegetaux-ou-d-animaux/importation-d-aliments/systemes-etrangers/verifications/rapport-final-d-un-audit-argentine-/fra/1435583120107/1435584288076?chap=7\">7. Contr\u00f4les zoosanitaires</a>\r\n\r\n</li>\r\n\r\n<li>\r\n<a href=\"/importation-d-aliments-de-vegetaux-ou-d-animaux/importation-d-aliments/systemes-etrangers/verifications/rapport-final-d-un-audit-argentine-/fra/1435583120107/1435584288076?chap=8\">8. Contr\u00f4les d'abattage et de transformation</a>\r\n\r\n</li>\r\n\r\n<li>\r\n<a href=\"/importation-d-aliments-de-vegetaux-ou-d-animaux/importation-d-aliments/systemes-etrangers/verifications/rapport-final-d-un-audit-argentine-/fra/1435583120107/1435584288076?chap=9\">9. Contr\u00f4les en laboratoire</a>\r\n\r\n</li>\r\n\r\n<li>\r\n<a href=\"/importation-d-aliments-de-vegetaux-ou-d-animaux/importation-d-aliments/systemes-etrangers/verifications/rapport-final-d-un-audit-argentine-/fra/1435583120107/1435584288076?chap=10\">10. Contr\u00f4les microbiologiques et de l'ex\u00e9cution des lois et r\u00e8glements</a>\r\n\r\n</li>\r\n\r\n<li>\r\n<a href=\"/importation-d-aliments-de-vegetaux-ou-d-animaux/importation-d-aliments/systemes-etrangers/verifications/rapport-final-d-un-audit-argentine-/fra/1435583120107/1435584288076?chap=11\">11. S\u00e9ance de cl\u00f4ture</a>\r\n\r\n</li>\r\n\r\n<li>\r\n<a href=\"/importation-d-aliments-de-vegetaux-ou-d-animaux/importation-d-aliments/systemes-etrangers/verifications/rapport-final-d-un-audit-argentine-/fra/1435583120107/1435584288076?chap=12\">12. Conclusions et recommandations</a>\r\n\r\n</li>\r\n\r\n<li>\r\n<a href=\"/importation-d-aliments-de-vegetaux-ou-d-animaux/importation-d-aliments/systemes-etrangers/verifications/rapport-final-d-un-audit-argentine-/fra/1435583120107/1435584288076?chap=13\">13. Annexes</a>\r\n\r\n</li>\r\n\r\n</ul>\r\n</nav>\r\n\n<h2>Abr\u00e9viations et expressions particuli\u00e8res employ\u00e9es dans le rapport</h2>\n\n<dl class=\"dl-horizontal mrgn-lft-0\">\n<dt>APHIS</dt> <dd><span lang=\"en\">Animal and Plant Health Inspection Service</span> \u2013 D\u00e9partement de l'Agriculture des \u00c9tats-Unis</dd>\n<dt>ACC</dt> <dd>Autorit\u00e9 centrale comp\u00e9tente\u00a0: <abbr title=\"agence argentine charg\u00e9e de la salubrit\u00e9 et de la qualit\u00e9 dans le secteur de l'agroalimentaire\">SENASA</abbr></dd>\n<dt>ACIA</dt> <dd>Agence canadienne d'inspection des aliments</dd>\n<dt>ESB</dt> <dd>Enc\u00e9phalopathie spongiforme bovine</dd>\n<dt><i lang=\"la\">E. coli</i></dt> <dd><i lang=\"la\">Escherichia coli</i></dd>\n<dt>FSIS</dt> <dd><span lang=\"en\">Food Safety and Inspection Service</span> \u2013 D\u00e9partement de l'Agriculture des \u00c9tats-Unis</dd>\n<dt>BPF</dt> <dd>Bonnes pratiques de fabrication</dd>\n<dt>HACCP</dt> <dd>Analyse des risques et ma\u00eetrise des points critiques</dd>\n<dt>OMSA</dt> <dd>Organisation mondiale de la sant\u00e9 animale</dd>\n<dt><i lang=\"la\">Salmonella</i></dt> <dd><i lang=\"la\">Salmonella</i> <abbr title=\"esp\u00e8ce\">spp.</abbr></dd>\n<dt>SENASA</dt>\t<dd><span lang=\"es\">Servicio Nacional de Sanidad y Calidad Agroalimentario</span> (agence argentine charg\u00e9e de la salubrit\u00e9 et de la qualit\u00e9 dans le secteur de l'agroalimentaire)</dd>\n<dt>MRS</dt> <dd>Mati\u00e8re \u00e0 risque sp\u00e9cifi\u00e9e</dd>\n<dt>PNEH</dt> <dd>Proc\u00e9dures normalis\u00e9es d'exploitation pour l'hygi\u00e8ne</dd>\n</dl>\n\n\n<h2 id=\"sum\">Sommaire</h2>\n\n<p>Le pr\u00e9sent rapport consiste en un bilan descriptif de l'audit r\u00e9alis\u00e9 sur les lieux par l'Agence canadienne d'inspection des aliments (ACIA) du 9 au <span class=\"nowrap\">25 septembre 2013</span> et porte sur le syst\u00e8me d'inspection de la volaille et du b\u0153uf en Argentine.</p>\n<p>L'audit avait trois objectifs\u00a0:</p>\n<ol>\n<li class=\"mrgn-bttm-md\">Effectuer un audit de maintenance du syst\u00e8me d'inspection du b\u0153uf pour les produits de b\u0153uf dont l'exportation vers le Canada est actuellement autoris\u00e9e. L'objectif consistait \u00e0 v\u00e9rifier que l'Argentine maintient toujours un syst\u00e8me de salubrit\u00e9 alimentaire pour le b\u0153uf qui est \u00e9quivalent \u00e0 celui du Canada et qui permet la fabrication de produits salubres, non alt\u00e9r\u00e9s et bien \u00e9tiquet\u00e9s, en conformit\u00e9 avec le syst\u00e8me d'inspection des viandes du Canada. Du 1<sup>er</sup> janvier au <span class=\"nowrap\">31 d\u00e9cembre 2012</span>, l'Argentine a export\u00e9 vers le Canada <span class=\"nowrap\">815 167 <abbr title=\"kilogrammes\">kilos</abbr></span> de produits de b\u0153uf transform\u00e9.</li>\n<li class=\"mrgn-bttm-md\">\u00c9valuer les programmes et les mesures de contr\u00f4le afin de d\u00e9terminer si le b\u0153uf cru peut \u00eatre export\u00e9 vers le Canada \u00e0 partir des diff\u00e9rentes r\u00e9gions g\u00e9ographiques de l'Argentine qui ont \u00e9t\u00e9 d\u00e9termin\u00e9es par l'<abbr title=\"Agence canadienne d'inspection des aliments\">ACIA</abbr> comme \u00e9tant exemptes de la fi\u00e8vre aphteuse, avec ou sans vaccination.</li>\n<li class=\"mrgn-bttm-md\">Effectuer une premi\u00e8re \u00e9valuation du syst\u00e8me d'inspection de la volaille afin d'\u00e9valuer son \u00e9quivalence avec celui du Canada dans l'intention d'autoriser l'exportation au Canada de volailles en provenance de l'Argentine.</li>\n</ol>\n<p>Globalement, l'audit de l'autorit\u00e9 centrale comp\u00e9tente (ACC) a indiqu\u00e9 qu'il existe une structure organisationnelle efficace, des \u00e9tablissements, des \u00e9quipements, des moyens de transport, des r\u00e9seaux de communication, du personnel et une formation de l'autorit\u00e9 comp\u00e9tente qui permettent de soutenir les objectifs des programmes d'inspection et de certification de la viande et de produits carn\u00e9s en vue d'une exportation vers le Canada.</p>\n\t\n<p>Toutefois, les questions suivantes doivent \u00eatre r\u00e9gl\u00e9es\u00a0:</p>\n\t\n<ol>\n<li class=\"mrgn-bttm-md\">Inspection du b\u0153uf\u00a0: Certains \u00e9tablissements ne respectent pas toutes les exigences du chapitre\u00a04, annexe\u00a0O du Manuel des m\u00e9thodes de l'hygi\u00e8ne des viandes de l'<abbr title=\"Agence canadienne d'inspection des aliments\">ACIA</abbr>. La politique \u00e9nonc\u00e9e \u00e0 l'annexe\u00a0O, ou son \u00e9quivalent, doit \u00eatre mise en \u0153uvre afin de permettre l'exportation de b\u0153uf cru vers le Canada. L'auditeur de l'<abbr title=\"Agence canadienne d'inspection des aliments\">ACIA</abbr> a d\u00e9termin\u00e9 que le <span lang=\"es\">Servicio Nacional de Sanidad y Calidad Agroalimentaria</span> (SENASA) ne pratique pas syst\u00e9matiquement une incision dans les gonglions lymphatiques r\u00e9tropharyngiens lat\u00e9raux, tel que requis. Au cours de l'audit, le <abbr lang=\"es\" title=\"Servicio Nacional de Sanidad y Calidad Agroalimentaria\">SENASA</abbr> a donn\u00e9 suite en rappelant au personnel de terrain l'existence de cette obligation. Au cours de cet audit, le classement du b\u0153uf n'a pas \u00e9t\u00e9 \u00e9valu\u00e9.</li>\n<li class=\"mrgn-bttm-md\">Inspection de la volaille\u00a0: Au cours de l'audit, on a constat\u00e9 une grande diff\u00e9rence en ce qui a trait \u00e0 l'habillage de portions d\u00e9clar\u00e9es en partie impropres \u00e0 la consommation. Au Canada, toutes les portions non comestibles sont enlev\u00e9es avant que les carcasses approuv\u00e9es quittent l'aire d'\u00e9visc\u00e9ration; en Argentine, les carcasses ayant des portions n\u00e9gligeables d\u00e9clar\u00e9es impropres \u00e0 la consommation sont autoris\u00e9es \u00e0 quitter l'aire d'\u00e9visc\u00e9ration et \u00e0 passer au syst\u00e8me de refroidissement o\u00f9 ces portions sont ensuite enlev\u00e9es et jet\u00e9es. L'\u00e9tude des documents par l'<abbr title=\"Agence canadienne d'inspection des aliments\">ACIA</abbr> avait d\u00e9j\u00e0 permis de d\u00e9celer des diff\u00e9rences consid\u00e9rables entre les programmes de classement de la volaille de l'Argentine et celui du Canada; l'<abbr title=\"Agence canadienne d'inspection des aliments\">ACIA</abbr> en est donc venu \u00e0 la conclusion que le programme de classement de la volaille en Argentine n'est pas \u00e9quivalent et que l'on ne peut pas autoriser l'exportation de la volaille de l'Argentine comportant une d\u00e9signation de qualit\u00e9. Il n'en reste pas moins que le Canada autorise les importations de volaille sans d\u00e9signation lorsque toutes les autres exigences sont respect\u00e9es. Ce programme n'a pas fait l'objet d'un examen dans le cadre de l'audit sur les lieux. Dans le m\u00eame ordre d'id\u00e9e, les normes argentines et canadiennes relatives aux produits de volaille s\u00e9par\u00e9e m\u00e9caniquement diff\u00e8rent, de sorte que les entreprises qui entendent exporter ces produits devront satisfaire aux normes de l'<abbr title=\"Agence canadienne d'inspection des aliments\">ACIA</abbr>. Enfin, le contr\u00f4le des proc\u00e9d\u00e9s d'\u00e9visc\u00e9ration devra peut-\u00eatre \u00eatre normalis\u00e9 dans tout \u00e9tablissement de volailles afin de contr\u00f4ler efficacement la contamination dans toutes les usines de volailles.</li>\n<li class=\"mrgn-bttm-md\">Questions relatives \u00e0 la conformit\u00e9 et \u00e0 l'application de la loi\u00a0: Bien que l'<abbr title=\"autorit\u00e9 centrale comp\u00e9tente\">ACC</abbr> exerce l'autorit\u00e9 juridique et qu'elle ait la responsabilit\u00e9 d'appliquer toutes les lois et tous les r\u00e8glements r\u00e9gissant les exigences de l'Argentine et de pays tiers, l'auditeur a constat\u00e9 que ces exigences n'\u00e9taient pas appliqu\u00e9es de mani\u00e8re uniforme dans tout le syst\u00e8me. Aussi devra-t-on resserrer davantage la surveillance de la mise en \u0153uvre d'activit\u00e9s relatives aux conditions sanitaires et aux \u00e9tablissements.</li>\n</ol>\n<p>Suite \u00e0 l'examen des plans d'action fournis par la <abbr lang=\"es\" title=\"Servicio Nacional de Sanidad y Calidad Agroalimentaria\">SENASA</abbr>, il a \u00e9t\u00e9 d\u00e9termin\u00e9 que le syst\u00e8me d'inspection de la viande bovine de l'Argentine pour l'abattage, la d\u00e9coupe et la transformation rencontrent les exigences du Canada\u00a0: en plus de boeuf d\u00e9soss\u00e9 cuit, le b\u0153uf d\u00e9soss\u00e9 cru frais /congel\u00e9 est maintenant approuv\u00e9 pour exportation au Canada.</p>\n<p>Cependant, sur la base des observations d'audit et la r\u00e9vision des plans  d'action subs\u00e9quents de la <abbr lang=\"es\" title=\"Servicio Nacional de Sanidad y Calidad Agroalimentaria\">SENASA</abbr>, le syst\u00e8me d'inspection de la volaille de  l'Argentine ne peut pas \u00eatre approuv\u00e9. Voir la r\u00e9ponse suppl\u00e9mentaire ci-dessous.</p>\n<p><strong>R\u00e9ponse suppl\u00e9mentaire bas\u00e9e sur l'information re\u00e7ue le 15 avril 2016</strong></p>\n<p>Suite \u00e0 l'examen des plans d'action fournis par la <abbr lang=\"es\" title=\"Servicio Nacional de Sanidad y Calidad Agroalimentaria\">SENASA</abbr>, il a \u00e9t\u00e9 d\u00e9termin\u00e9 que le syst\u00e8me d'inspection de la viande de volaille de l'Argentine pour l'abattage, la d\u00e9coupe et la transformation rencontrent les exigences du Canada\u00a0: en plus du poulet d\u00e9soss\u00e9 cuit, le poulet d\u00e9soss\u00e9 cru frais /congel\u00e9 est maintenant approuv\u00e9 pour l'exportation au Canada. Par contre, l'importation des pattes comestibles de volaille est interdite car les exigences canadiennes pour ce produit ne sont pas rencontr\u00e9es.</p>\n<p>Les documents r\u00e9vis\u00e9s par l'<abbr title=\"Agence canadienne d'inspection des aliments\">ACIA</abbr> ont confirm\u00e9 qu'il existe des diff\u00e9rences consid\u00e9rables entre les programmes de classement de la volaille de l'Argentine et celui du Canada. L'<abbr title=\"Agence canadienne d'inspection des aliments\">ACIA</abbr> a conclu que le programme de classement de la volaille en Argentine n'est pas \u00e9quivalent \u00e0 celui du Canada et que par cons\u00e9quent l'<abbr title=\"Agence canadienne d'inspection des aliments\">ACIA</abbr> maintient la conclusion que le programme de classement en Argentine n'est pas \u00e9quivalent. L'importation de la volaille de l'Argentine comportant une d\u00e9signation de classement n'est pas autoris\u00e9e. Il n'en reste pas moins que le Canada autorise les importations de volaille sans d\u00e9signation de classement lorsque toutes les autres exigences sont respect\u00e9es.</p>\n<p>Pour les produits de viande de volaille s\u00e9par\u00e9e m\u00e9caniquement, les normes argentines et canadiennes relatives diff\u00e8rent, de sorte que les entreprises qui entendent exporter ces produits devront satisfaire aux normes canadiennes.</p>\r\n\r\n<div class=\"clear\"></div>\r\n\n\n\r\n        \r\n\r\n<div class=\"row\">\r\n \r\n\t\t\t\r\n\t\t\t\r\n\r\n\t\t\r\n\t\r\n</div>"
    },
    "js": {
        "en": "",
        "fr": ""
    },
    "chat_wizard": false,
    "success": true
}