{
    "dcr_id": "1456344248841",
    "title": {
        "en": "National Voluntary Farm-Level Biosecurity Standard for the Greenhouse, Nursery and Floriculture Sectors",
        "fr": "Norme nationale volontaire de bios\u00e9curit\u00e9 \u00e0 la ferme pour les secteurs des serres, p\u00e9pini\u00e8res et floricultures"
    },
    "html_modified": "8-3-2016",
    "modified": "16-1-2017",
    "issued": "24-2-2016",
    "teamsite_location": {
        "en": "/default/main/inspection/cont-cont/plants-vegetaux/WORKAREA/plants-vegetaux/templatedata/comn-comn/manuals-manuels/data/protect_biosec_standard_greenhouse_1456344248841_eng",
        "fr": "/default/main/inspection/cont-cont/plants-vegetaux/WORKAREA/plants-vegetaux/templatedata/comn-comn/manuals-manuels/data/protect_biosec_standard_greenhouse_1456344248841_fra"
    },
    "parent_ia_id": "1323475279124",
    "ia_id": "1456344249699",
    "parent_node_id": null,
    "layout_name": "content page 1 column",
    "breadcrumb": {
        "en": "National Voluntary Farm-Level Biosecurity Standard for the Greenhouse, Nursery and Floriculture Sectors",
        "fr": "Norme nationale volontaire de bios\u00e9curit\u00e9 \u00e0 la ferme pour les secteurs des serres, p\u00e9pini\u00e8res et floricultures"
    },
    "label": {
        "en": "National Voluntary Farm-Level Biosecurity Standard for the Greenhouse, Nursery and Floriculture Sectors",
        "fr": "Norme nationale volontaire de bios\u00e9curit\u00e9 \u00e0 la ferme pour les secteurs des serres, p\u00e9pini\u00e8res et floricultures"
    },
    "templatetype": "content page 1 column",
    "node_id": "1456344249699",
    "managing_branch": "comn",
    "type_name": "manuals-manuels",
    "parent_dcr_id": "1323475203667",
    "has_dcr_id": true,
    "lang": "en",
    "could_not_load": 0,
    "refaire": false,
    "interwoven_url": {
        "en": "/plant-health/invasive-species/biosecurity/national-voluntary-farm-level-biosecurity-standard/",
        "fr": "/protection-des-vegetaux/especes-envahissantes/biosecurite/norme-nationale-volontaire-de-biosecurite/"
    },
    "meta": {
        "viewport": {
            "en": "width=device-width,initial-scale=1",
            "fr": "width=device-width,initial-scale=1"
        },
        "service": {
            "en": "CFIA-ACIA",
            "fr": "CFIA-ACIA"
        },
        "accessRights": {
            "en": "2",
            "fr": "2"
        },
        "title": {
            "en": "National Voluntary Farm-Level Biosecurity Standard for the Greenhouse, Nursery and Floriculture Sectors",
            "fr": "Norme nationale volontaire de bios\u00e9curit\u00e9 \u00e0 la ferme pour les secteurs des serres, p\u00e9pini\u00e8res et floricultures"
        },
        "keywords": {
            "en": "plants, plant health, fruit, tree nut, producers, pests, Biosecurity, National Voluntary Farm-Level Biosecurity Standard for the Greenhouse, Nursery and Floriculture Sectors",
            "fr": "v\u00e9g\u00e9taux, sant\u00e9 des v\u00e9g\u00e9taux, fruits,noix, producteurs, ravageurs, bios\u00e9curit\u00e9, norme nationale volontaire de bios\u00e9curit\u00e9 \u00e0 la ferme pour les secteurs des serres, p\u00e9pini\u00e8res et floricultures"
        },
        "dcterms.subject": {
            "en": "food,fruits,food inspection,plants,agri-food products,food processing",
            "fr": "aliment,fruit,inspection des aliments,plante,produit agro-alimentaire, transformation des aliments"
        },
        "creator": {
            "en": "Government of Canada,Canadian Food Inspection Agency",
            "fr": "Government of Canada,Canadian Food Inspection Agency"
        },
        "language": {
            "en": "eng",
            "fr": "fra"
        },
        "issued": {
            "en": "2016-03-08",
            "fr": "2016-03-08"
        },
        "modified": {
            "en": "2017-01-16",
            "fr": "2017-01-16"
        },
        "type": {
            "en": "reference material",
            "fr": "mat\u00e9riel de r\u00e9f\u00e9rence"
        },
        "audience": {
            "en": "business,government,general public",
            "fr": "entreprises,gouvernement,grand public"
        },
        "name": {
            "en": "Government of Canada",
            "fr": "Gouvernement du Canada"
        },
        "areaServed": {
            "en": "Canada",
            "fr": "Canada"
        }
    },
    "h1": {
        "en": "National Voluntary Farm-Level Biosecurity Standard for the Greenhouse, Nursery and Floriculture Sectors",
        "fr": "Norme nationale volontaire de bios\u00e9curit\u00e9 \u00e0 la ferme pour les secteurs des serres, p\u00e9pini\u00e8res et floricultures"
    },
    "body": {
        "en": "        \r\n        \n\n\r\n\r\n<section class=\"alert alert-info\">\r\n<h2 class=\"h3\">This page is part of the Guidance Document Repository (GDR).</h2>\r\n<p>\r\n<br>\r\n<a href=\"/industry-guidance/eng/1374161650885/1374161737236?gp=3&amp;gc=24&amp;ga=7#gdr_results\" class=\"alert-link\">\r\n            Search for related documents in the Guidance Document Repository\r\n</a>\r\n</p>\r\n</section>\r\n\r\n\r\n\r\n<p class=\"small text-right\"><a href=\"/plant-health/invasive-species/biosecurity/national-voluntary-farm-level-biosecurity-standard/eng/1456344248841/1456344249699?chap=0\">Complete Text</a></p>\r\n\r\n<p class=\"text-right\"><a href=\"/DAM/DAM-plants-vegetaux/WORKAREA/DAM-plants-vegetaux/text-texte/protect_biosec_standard_greenhouse_1456941452401_eng.pdf\"><abbr title=\"Portable Document Format\">PDF</abbr> (665\u00a0<abbr title=\"kilobytes\">kb</abbr>)</a></p>\n\n\r\n<nav>\r\n<ul class=\"list-unstyled col-md-offset-1 mrgn-tp-md mrgn-bttm-md\">\r\n\r\n<li>\r\n<a href=\"/plant-health/invasive-species/biosecurity/national-voluntary-farm-level-biosecurity-standard/eng/1456344248841/1456344249699?chap=1\">Preface \u2013 How to Use this Document</a>\r\n\r\n</li>\r\n\r\n<li>\r\n<a href=\"/plant-health/invasive-species/biosecurity/national-voluntary-farm-level-biosecurity-standard/eng/1456344248841/1456344249699?chap=2\">1.0 Introduction</a>\r\n\r\n<ul class=\"list-unstyled col-md-offset-1 mrgn-bttm-md\">\r\n\r\n<li>\r\n<a href=\"/plant-health/invasive-species/biosecurity/national-voluntary-farm-level-biosecurity-standard/eng/1456344248841/1456344249699?chap=2#s1c2\">1.1 What is Farm-Level Greenhouse, Nursery and Floriculture Biosecurity? Why is it important? Who is responsible?</a>\r\n\r\n</li>\r\n\r\n<li>\r\n<a href=\"/plant-health/invasive-species/biosecurity/national-voluntary-farm-level-biosecurity-standard/eng/1456344248841/1456344249699?chap=2#s2c2\">1.2 Elements of a Biosecurity Plan</a>\r\n\r\n</li>\r\n\r\n<li>\r\n<a href=\"/plant-health/invasive-species/biosecurity/national-voluntary-farm-level-biosecurity-standard/eng/1456344248841/1456344249699?chap=2#s3c2\">1.3 The Organization of the Biosecurity Principles</a>\r\n\r\n</li>\r\n\r\n</ul>\r\n\r\n</li>\r\n\r\n<li>\r\n<a href=\"/plant-health/invasive-species/biosecurity/national-voluntary-farm-level-biosecurity-standard/eng/1456344248841/1456344249699?chap=3\">2.0 Plant Health Management</a>\r\n\r\n<ul class=\"list-unstyled col-md-offset-1 mrgn-bttm-md\">\r\n\r\n<li>\r\n<a href=\"/plant-health/invasive-species/biosecurity/national-voluntary-farm-level-biosecurity-standard/eng/1456344248841/1456344249699?chap=3#s4c3\">2.1 Management Practices</a>\r\n\r\n</li>\r\n\r\n<li>\r\n<a href=\"/plant-health/invasive-species/biosecurity/national-voluntary-farm-level-biosecurity-standard/eng/1456344248841/1456344249699?chap=3#s5c3\">2.2 Pest Vectors</a>\r\n\r\n</li>\r\n\r\n<li>\r\n<a href=\"/plant-health/invasive-species/biosecurity/national-voluntary-farm-level-biosecurity-standard/eng/1456344248841/1456344249699?chap=3#s6c3\">2.3 Pest Monitoring</a>\r\n\r\n</li>\r\n\r\n<li>\r\n<a href=\"/plant-health/invasive-species/biosecurity/national-voluntary-farm-level-biosecurity-standard/eng/1456344248841/1456344249699?chap=3#s7c3\">2.4 Responding to a Pest</a>\r\n\r\n</li>\r\n\r\n</ul>\r\n\r\n</li>\r\n\r\n<li>\r\n<a href=\"/plant-health/invasive-species/biosecurity/national-voluntary-farm-level-biosecurity-standard/eng/1456344248841/1456344249699?chap=4\">3.0 Farm Operational Management</a>\r\n\r\n<ul class=\"list-unstyled col-md-offset-1 mrgn-bttm-md\">\r\n\r\n<li>\r\n<a href=\"/plant-health/invasive-species/biosecurity/national-voluntary-farm-level-biosecurity-standard/eng/1456344248841/1456344249699?chap=4#s8c4\">3.1 Location and Layout</a>\r\n\r\n</li>\r\n\r\n<li>\r\n<a href=\"/plant-health/invasive-species/biosecurity/national-voluntary-farm-level-biosecurity-standard/eng/1456344248841/1456344249699?chap=4#s9c4\">3.2 Biosecurity Zones</a>\r\n\r\n</li>\r\n\r\n<li>\r\n<a href=\"/plant-health/invasive-species/biosecurity/national-voluntary-farm-level-biosecurity-standard/eng/1456344248841/1456344249699?chap=4#s10c4\">3.3 Movement of People, Vehicles and Equipment</a>\r\n\r\n</li>\r\n\r\n<li>\r\n<a href=\"/plant-health/invasive-species/biosecurity/national-voluntary-farm-level-biosecurity-standard/eng/1456344248841/1456344249699?chap=4#s11c4\">3.4\u00a0Production Inputs</a>\r\n\r\n</li>\r\n\r\n<li>\r\n<a href=\"/plant-health/invasive-species/biosecurity/national-voluntary-farm-level-biosecurity-standard/eng/1456344248841/1456344249699?chap=4#s12c4\">3.5 Production Outputs</a>\r\n\r\n</li>\r\n\r\n<li>\r\n<a href=\"/plant-health/invasive-species/biosecurity/national-voluntary-farm-level-biosecurity-standard/eng/1456344248841/1456344249699?chap=4#s13c4\">3.6 Maintenance of Facilities and Property</a>\r\n\r\n</li>\r\n\r\n</ul>\r\n\r\n</li>\r\n\r\n<li>\r\n<a href=\"/plant-health/invasive-species/biosecurity/national-voluntary-farm-level-biosecurity-standard/eng/1456344248841/1456344249699?chap=5\">4.0 Education, Training and Communication</a>\r\n\r\n</li>\r\n\r\n<li>\r\n<a href=\"/plant-health/invasive-species/biosecurity/national-voluntary-farm-level-biosecurity-standard/eng/1456344248841/1456344249699?chap=6\">5.0 Conclusion</a>\r\n\r\n</li>\r\n\r\n<li>\r\n<a href=\"/plant-health/invasive-species/biosecurity/national-voluntary-farm-level-biosecurity-standard/eng/1456344248841/1456344249699?chap=7\">6.0 Glossary</a>\r\n\r\n</li>\r\n\r\n<li>\r\n<a href=\"/plant-health/invasive-species/biosecurity/national-voluntary-farm-level-biosecurity-standard/eng/1456344248841/1456344249699?chap=8\">Appendix 1: Biosecurity Self-Evaluation Checklist</a>\r\n\r\n</li>\r\n\r\n<li>\r\n<a href=\"/plant-health/invasive-species/biosecurity/national-voluntary-farm-level-biosecurity-standard/eng/1456344248841/1456344249699?chap=9\">Appendix 2: Acknowledgements</a>\r\n\r\n</li>\r\n\r\n</ul>\r\n</nav>\r\n\r\n\r\n\n\n\r\n        \r\n\r\n\r\n\r\n<div class=\"row\">\r\n \r\n\t\r\n\t\t\t\r\n\r\n<div class=\"col-xm-12 pagedetails container\">\r\n\t\t\t\t\r\n\r\n</div>\r\n\t\r\n</div>",
        "fr": "\r\n        \r\n        \n\n\r\n\r\n<section class=\"alert alert-info\">\r\n<h2 class=\"h3\">Cette page fait partie du r\u00e9pertoire des documents d'orientation (RDO).</h2>\r\n<p>\r\n<br>\r\n<a href=\"/orientation-pour-l-industrie/fra/1374161650885/1374161737236?gp=3&amp;gc=24&amp;ga=7#gdr_results\" class=\"alert-link\">\r\n            Recherche de documents connexes dans le r\u00e9pertoire des documents d'orientation.\r\n</a>\r\n</p>\r\n</section>\r\n\r\n\r\n\r\n<p class=\"small text-right\"><a href=\"/protection-des-vegetaux/especes-envahissantes/biosecurite/norme-nationale-volontaire-de-biosecurite/fra/1456344248841/1456344249699?chap=0\">Texte Complet</a></p>\r\n\r\n<p class=\"text-right\"><a href=\"/DAM/DAM-plants-vegetaux/WORKAREA/DAM-plants-vegetaux/text-texte/protect_biosec_standard_greenhouse_1456941452401_fra.pdf\"><abbr title=\"Format de document portable\">PDF</abbr> (743\u00a0<abbr title=\"kilo-octet\">ko</abbr>)</a></p>\n\r\n<nav>\r\n<ul class=\"list-unstyled col-md-offset-1 mrgn-tp-md mrgn-bttm-md\">\r\n\r\n<li>\r\n<a href=\"/protection-des-vegetaux/especes-envahissantes/biosecurite/norme-nationale-volontaire-de-biosecurite/fra/1456344248841/1456344249699?chap=1\">Pr\u00e9face \u2013 Comment utiliser ce document</a>\r\n\r\n</li>\r\n\r\n<li>\r\n<a href=\"/protection-des-vegetaux/especes-envahissantes/biosecurite/norme-nationale-volontaire-de-biosecurite/fra/1456344248841/1456344249699?chap=2\">1.0 Introduction</a>\r\n\r\n<ul class=\"list-unstyled col-md-offset-1 mrgn-bttm-md\">\r\n\r\n<li>\r\n<a href=\"/protection-des-vegetaux/especes-envahissantes/biosecurite/norme-nationale-volontaire-de-biosecurite/fra/1456344248841/1456344249699?chap=2#s1c2\">1.1 En quoi consiste la bios\u00e9curit\u00e9 des serres, des p\u00e9pini\u00e8res et des floricultures \u00e0 la ferme? Pourquoi est-ce important? Qui en est responsable?</a>\r\n\r\n</li>\r\n\r\n<li>\r\n<a href=\"/protection-des-vegetaux/especes-envahissantes/biosecurite/norme-nationale-volontaire-de-biosecurite/fra/1456344248841/1456344249699?chap=2#s2c2\">1.2 \u00c9l\u00e9ments d'un plan de bios\u00e9curit\u00e9</a>\r\n\r\n</li>\r\n\r\n<li>\r\n<a href=\"/protection-des-vegetaux/especes-envahissantes/biosecurite/norme-nationale-volontaire-de-biosecurite/fra/1456344248841/1456344249699?chap=2#s3c2\">1.3 Organisation des principes de bios\u00e9curit\u00e9</a>\r\n\r\n</li>\r\n\r\n</ul>\r\n\r\n</li>\r\n\r\n<li>\r\n<a href=\"/protection-des-vegetaux/especes-envahissantes/biosecurite/norme-nationale-volontaire-de-biosecurite/fra/1456344248841/1456344249699?chap=3\">2.0 Gestion de la protection des v\u00e9g\u00e9taux</a>\r\n\r\n<ul class=\"list-unstyled col-md-offset-1 mrgn-bttm-md\">\r\n\r\n<li>\r\n<a href=\"/protection-des-vegetaux/especes-envahissantes/biosecurite/norme-nationale-volontaire-de-biosecurite/fra/1456344248841/1456344249699?chap=3#s4c3\">2.1 Pratiques de gestion</a>\r\n\r\n</li>\r\n\r\n<li>\r\n<a href=\"/protection-des-vegetaux/especes-envahissantes/biosecurite/norme-nationale-volontaire-de-biosecurite/fra/1456344248841/1456344249699?chap=3#s5c3\">2.2 Vecteurs de ravageurs</a>\r\n\r\n</li>\r\n\r\n<li>\r\n<a href=\"/protection-des-vegetaux/especes-envahissantes/biosecurite/norme-nationale-volontaire-de-biosecurite/fra/1456344248841/1456344249699?chap=3#s6c3\">2.3 Surveillance des ravageurs</a>\r\n\r\n</li>\r\n\r\n<li>\r\n<a href=\"/protection-des-vegetaux/especes-envahissantes/biosecurite/norme-nationale-volontaire-de-biosecurite/fra/1456344248841/1456344249699?chap=3#s7c3\">2.4 Intervention contre un ravageur</a>\r\n\r\n</li>\r\n\r\n</ul>\r\n\r\n</li>\r\n\r\n<li>\r\n<a href=\"/protection-des-vegetaux/especes-envahissantes/biosecurite/norme-nationale-volontaire-de-biosecurite/fra/1456344248841/1456344249699?chap=4\">3.0\u00a0Gestion des op\u00e9rations \u00e0 la ferme</a>\r\n\r\n<ul class=\"list-unstyled col-md-offset-1 mrgn-bttm-md\">\r\n\r\n<li>\r\n<a href=\"/protection-des-vegetaux/especes-envahissantes/biosecurite/norme-nationale-volontaire-de-biosecurite/fra/1456344248841/1456344249699?chap=4#s8c4\">3.1 Emplacement et am\u00e9nagement</a>\r\n\r\n</li>\r\n\r\n<li>\r\n<a href=\"/protection-des-vegetaux/especes-envahissantes/biosecurite/norme-nationale-volontaire-de-biosecurite/fra/1456344248841/1456344249699?chap=4#s9c4\">3.2 Zones de bios\u00e9curit\u00e9</a>\r\n\r\n</li>\r\n\r\n<li>\r\n<a href=\"/protection-des-vegetaux/especes-envahissantes/biosecurite/norme-nationale-volontaire-de-biosecurite/fra/1456344248841/1456344249699?chap=4#s10c4\">3.3 D\u00e9placement des personnes, des v\u00e9hicules et de l'\u00e9quipement</a>\r\n\r\n</li>\r\n\r\n<li>\r\n<a href=\"/protection-des-vegetaux/especes-envahissantes/biosecurite/norme-nationale-volontaire-de-biosecurite/fra/1456344248841/1456344249699?chap=4#s11c4\">3.4 Produits entrants</a>\r\n\r\n</li>\r\n\r\n<li>\r\n<a href=\"/protection-des-vegetaux/especes-envahissantes/biosecurite/norme-nationale-volontaire-de-biosecurite/fra/1456344248841/1456344249699?chap=4#s12c4\">3.5 Produits sortants</a>\r\n\r\n</li>\r\n\r\n<li>\r\n<a href=\"/protection-des-vegetaux/especes-envahissantes/biosecurite/norme-nationale-volontaire-de-biosecurite/fra/1456344248841/1456344249699?chap=4#s13c4\">3.6 Entretien des installations et de la propri\u00e9t\u00e9</a>\r\n\r\n</li>\r\n\r\n</ul>\r\n\r\n</li>\r\n\r\n<li>\r\n<a href=\"/protection-des-vegetaux/especes-envahissantes/biosecurite/norme-nationale-volontaire-de-biosecurite/fra/1456344248841/1456344249699?chap=5\">4.0 \u00c9ducation, formation et communication</a>\r\n\r\n</li>\r\n\r\n<li>\r\n<a href=\"/protection-des-vegetaux/especes-envahissantes/biosecurite/norme-nationale-volontaire-de-biosecurite/fra/1456344248841/1456344249699?chap=6\">5.0 Conclusion</a>\r\n\r\n</li>\r\n\r\n<li>\r\n<a href=\"/protection-des-vegetaux/especes-envahissantes/biosecurite/norme-nationale-volontaire-de-biosecurite/fra/1456344248841/1456344249699?chap=7\">6.0 Glossaire</a>\r\n\r\n</li>\r\n\r\n<li>\r\n<a href=\"/protection-des-vegetaux/especes-envahissantes/biosecurite/norme-nationale-volontaire-de-biosecurite/fra/1456344248841/1456344249699?chap=8\">Annexe\u00a01\u00a0: Liste de v\u00e9rification pour l'auto-\u00e9valuation de la bios\u00e9curit\u00e9</a>\r\n\r\n</li>\r\n\r\n<li>\r\n<a href=\"/protection-des-vegetaux/especes-envahissantes/biosecurite/norme-nationale-volontaire-de-biosecurite/fra/1456344248841/1456344249699?chap=9\">Annexe\u00a02\u00a0: Remerciements</a>\r\n\r\n</li>\r\n\r\n</ul>\r\n</nav>\r\n\r\n\r\n<div class=\"clear\"></div>\r\n\n\n\r\n        \r\n\r\n<div class=\"row\">\r\n \r\n\t\t\t\r\n\t\t\t\r\n\r\n\t\t\r\n\t\r\n</div>"
    },
    "js": {
        "en": "",
        "fr": ""
    },
    "chat_wizard": false,
    "success": true
}