{
    "dcr_id": "1496092652627",
    "title": {
        "en": "National Farm and Facility Level Biosecurity User Guide for the Equine Sector",
        "fr": "Guide national de bios\u00e9curit\u00e9 de l'utilisateur pour les exploitations et sites de rassemblement du secteur \u00e9quin"
    },
    "html_modified": "18-8-2017",
    "modified": "9-6-2017",
    "issued": "29-5-2017",
    "teamsite_location": {
        "en": "/default/main/inspection/cont-cont/animals-animaux/WORKAREA/animals-animaux/templatedata/comn-comn/manuals-manuels/data/equine_1496092652627_eng",
        "fr": "/default/main/inspection/cont-cont/animals-animaux/WORKAREA/animals-animaux/templatedata/comn-comn/manuals-manuels/data/equine_1496092652627_fra"
    },
    "parent_ia_id": "1320534707863",
    "ia_id": "1496155318525",
    "parent_node_id": null,
    "layout_name": "content page 1 column",
    "breadcrumb": {
        "en": "National Farm and Facility Level Biosecurity User Guide for the Equine Sector",
        "fr": "Guide national de bios\u00e9curit\u00e9 de l'utilisateur pour les exploitations et sites de rassemblement du secteur \u00e9quin"
    },
    "label": {
        "en": "National Farm and Facility Level Biosecurity User Guide for the Equine Sector",
        "fr": "Guide national de bios\u00e9curit\u00e9 de l'utilisateur pour les exploitations et sites de rassemblement du secteur \u00e9quin"
    },
    "templatetype": "content page 1 column",
    "node_id": "1496155318525",
    "managing_branch": "comn",
    "type_name": "manuals-manuels",
    "parent_dcr_id": "1299868055616",
    "has_dcr_id": true,
    "lang": "en",
    "could_not_load": 0,
    "refaire": false,
    "interwoven_url": {
        "en": "/animal-health/terrestrial-animals/biosecurity/user-guide-for-the-equine-sector/",
        "fr": "/sante-des-animaux/animaux-terrestres/biosecurite/guide-national-de-biosecurite-de-l-utilisateur/"
    },
    "meta": {
        "viewport": {
            "en": "width=device-width,initial-scale=1",
            "fr": "width=device-width,initial-scale=1"
        },
        "service": {
            "en": "CFIA-ACIA",
            "fr": "CFIA-ACIA"
        },
        "accessRights": {
            "en": "2",
            "fr": "2"
        },
        "title": {
            "en": "National Farm and Facility Level Biosecurity User Guide for the Equine Sector",
            "fr": "Guide national de bios\u00e9curit\u00e9 de l'utilisateur pour les exploitations et sites de rassemblement du secteur \u00e9quin"
        },
        "description": {
            "en": "This biosecurity user guide supports the national biosecurity standard. It provides greater detail and practical information on specific biosecurity measures at the farm and facility level, including tools to assist horse owners and custodians in developing and implementing biosecurity.",
            "fr": "Le pr\u00e9sent Guide de bios\u00e9curit\u00e9 de l'utilisateur appuie la Norme nationale de bios\u00e9curit\u00e9. Il fournit plus de d\u00e9tails et des renseignements pratiques sur les mesures de bios\u00e9curit\u00e9 propres \u00e0 l'exploitation ou \u00e0 l'utilisation de  sites de rassemblement, y compris des outils pour aider les propri\u00e9taires et les gardiens de chevaux \u00e0 \u00e9laborer et \u00e0 mettre en \u0153uvre la bios\u00e9curit\u00e9."
        },
        "keywords": {
            "en": "Biosecurity, animal health, diseases, standards, principles, planning guide, Animal health begins at the farm, policy",
            "fr": "bios\u00e9curit\u00e9, sant\u00e9 des animaux, maladies, normes, principes, guide de planification, La sant\u00e9 animale commence \u00e0 la ferme, politique"
        },
        "dcterms.subject": {
            "en": "animal health,imports,inspection,livestock,veterinary medicine",
            "fr": "sant\u00e9 animale,importation,inspection,b\u00e9tail,m\u00e9decine v\u00e9t\u00e9rinaire"
        },
        "creator": {
            "en": "Government of Canada,Canadian Food Inspection Agency,Animal Health Directorate",
            "fr": "Gouvernement du Canada,Agence canadienne d'inspection des aliments,Direction sant\u00e9 des animaux"
        },
        "language": {
            "en": "eng",
            "fr": "fra"
        },
        "issued": {
            "en": "2017-08-18",
            "fr": "2017-08-18"
        },
        "modified": {
            "en": "2017-06-09",
            "fr": "2017-06-09"
        },
        "type": {
            "en": "policy,reference material",
            "fr": "politique,mat\u00e9riel de r\u00e9f\u00e9rence"
        },
        "audience": {
            "en": "business,general public,government",
            "fr": "entreprises,grand public,gouvernement"
        },
        "name": {
            "en": "Government of Canada",
            "fr": "Gouvernement du Canada"
        },
        "areaServed": {
            "en": "Canada",
            "fr": "Canada"
        }
    },
    "h1": {
        "en": "National Farm and Facility Level Biosecurity User Guide for the Equine Sector",
        "fr": "Guide national de bios\u00e9curit\u00e9 de l'utilisateur pour les exploitations et sites de rassemblement du secteur \u00e9quin"
    },
    "js": {
        "en": "",
        "fr": ""
    },
    "body": {
        "en": "        \r\n        \n\n\r\n\r\n\r\n\r\n\r\n\r\n<p class=\"small text-right\"><a href=\"/animal-health/terrestrial-animals/biosecurity/user-guide-for-the-equine-sector/eng/1496092652627/1496155318525?chap=0\">Complete text</a></p>\r\n\r\n\r\n<h2>Table of Contents</h2>\r\n<ul class=\"list-unstyled col-md-offset-1 mrgn-tp-md mrgn-bttm-md\">\r\n\r\n<li>\r\n<a href=\"/animal-health/terrestrial-animals/biosecurity/user-guide-for-the-equine-sector/eng/1496092652627/1496155318525?chap=1\">Section 1: Glossary</a>\r\n\r\n</li>\r\n\r\n<li>\r\n<a href=\"/animal-health/terrestrial-animals/biosecurity/user-guide-for-the-equine-sector/eng/1496092652627/1496155318525?chap=2\">Section 2: Introduction and background</a>\r\n\r\n<ul class=\"list-unstyled col-md-offset-1 mrgn-bttm-md\">\r\n\r\n<li>\r\n<a href=\"/animal-health/terrestrial-animals/biosecurity/user-guide-for-the-equine-sector/eng/1496092652627/1496155318525?chap=2#s1c2\">2.1 What is biosecurity?</a>\r\n\r\n</li>\r\n\r\n<li>\r\n<a href=\"/animal-health/terrestrial-animals/biosecurity/user-guide-for-the-equine-sector/eng/1496092652627/1496155318525?chap=2#s2c2\">2.2 Why is equine biosecurity important?</a>\r\n\r\n</li>\r\n\r\n<li>\r\n<a href=\"/animal-health/terrestrial-animals/biosecurity/user-guide-for-the-equine-sector/eng/1496092652627/1496155318525?chap=2#s3c2\">2.3 Who is this document for?</a>\r\n\r\n</li>\r\n\r\n<li>\r\n<a href=\"/animal-health/terrestrial-animals/biosecurity/user-guide-for-the-equine-sector/eng/1496092652627/1496155318525?chap=2#s4c2\">2.4 What is the purpose of this guide?</a>\r\n\r\n</li>\r\n\r\n<li>\r\n<a href=\"/animal-health/terrestrial-animals/biosecurity/user-guide-for-the-equine-sector/eng/1496092652627/1496155318525?chap=2#s5c2\">2.5 Organization of the guide</a>\r\n\r\n</li>\r\n\r\n</ul>\r\n\r\n</li>\r\n\r\n<li>\r\n<a href=\"/animal-health/terrestrial-animals/biosecurity/user-guide-for-the-equine-sector/eng/1496092652627/1496155318525?chap=3\">Section 3: Farm and facility specific biosecurity plan</a>\r\n\r\n<ul class=\"list-unstyled col-md-offset-1 mrgn-bttm-md\">\r\n\r\n<li>\r\n<a href=\"/animal-health/terrestrial-animals/biosecurity/user-guide-for-the-equine-sector/eng/1496092652627/1496155318525?chap=3#s6c3\">3.1 Developing your farm or facility biosecurity plan</a>\r\n\r\n</li>\r\n\r\n<li>\r\n<a href=\"/animal-health/terrestrial-animals/biosecurity/user-guide-for-the-equine-sector/eng/1496092652627/1496155318525?chap=3#s7c3\">3.2 Cover your bases - Biosecurity: A cycle of activities</a>\r\n\r\n</li>\r\n\r\n</ul>\r\n\r\n</li>\r\n\r\n<li>\r\n<a href=\"/animal-health/terrestrial-animals/biosecurity/user-guide-for-the-equine-sector/eng/1496092652627/1496155318525?chap=4\">Section 4: Principles of infection prevention and control programs</a>\r\n\r\n<ul class=\"list-unstyled col-md-offset-1 mrgn-bttm-md\">\r\n\r\n<li>\r\n<a href=\"/animal-health/terrestrial-animals/biosecurity/user-guide-for-the-equine-sector/eng/1496092652627/1496155318525?chap=4#s8c4\">4.1 Sources of pathogens</a>\r\n\r\n</li>\r\n\r\n<li>\r\n<a href=\"/animal-health/terrestrial-animals/biosecurity/user-guide-for-the-equine-sector/eng/1496092652627/1496155318525?chap=4#s9c4\">4.2 Methods of transmission</a>\r\n\r\n</li>\r\n\r\n<li>\r\n<a href=\"/animal-health/terrestrial-animals/biosecurity/user-guide-for-the-equine-sector/eng/1496092652627/1496155318525?chap=4#s10c4\">4.3 General concepts of infection prevention and control</a>\r\n\r\n</li>\r\n\r\n</ul>\r\n\r\n</li>\r\n\r\n<li>\r\n<a href=\"/animal-health/terrestrial-animals/biosecurity/user-guide-for-the-equine-sector/eng/1496092652627/1496155318525?chap=5\">Section 5: Preventive horse health management program</a>\r\n\r\n<ul class=\"list-unstyled col-md-offset-1 mrgn-bttm-md\">\r\n\r\n<li>\r\n<a href=\"/animal-health/terrestrial-animals/biosecurity/user-guide-for-the-equine-sector/eng/1496092652627/1496155318525?chap=5#s11c5\">5.1 Communication</a>\r\n\r\n</li>\r\n\r\n<li>\r\n<a href=\"/animal-health/terrestrial-animals/biosecurity/user-guide-for-the-equine-sector/eng/1496092652627/1496155318525?chap=5#s12c5\">5.2 Horse (herd) health management program</a>\r\n\r\n</li>\r\n\r\n<li>\r\n<a href=\"/animal-health/terrestrial-animals/biosecurity/user-guide-for-the-equine-sector/eng/1496092652627/1496155318525?chap=5#s13c5\">5.3 Monitoring and maintaining animal health</a>\r\n\r\n</li>\r\n\r\n<li>\r\n<a href=\"/animal-health/terrestrial-animals/biosecurity/user-guide-for-the-equine-sector/eng/1496092652627/1496155318525?chap=5#s14c5\">5.4 Disease response and emergency preparedness protocols</a>\r\n\r\n</li>\r\n\r\n</ul>\r\n\r\n</li>\r\n\r\n<li>\r\n<a href=\"/animal-health/terrestrial-animals/biosecurity/user-guide-for-the-equine-sector/eng/1496092652627/1496155318525?chap=6\">Section 6: New horses, returning horses, visiting horses, movements and transportation</a>\r\n\r\n<ul class=\"list-unstyled col-md-offset-1 mrgn-bttm-md\">\r\n\r\n<li>\r\n<a href=\"/animal-health/terrestrial-animals/biosecurity/user-guide-for-the-equine-sector/eng/1496092652627/1496155318525?chap=6#s15c6\">6.1 New horses (purchase consideration), new arrivals, and returning horses</a>\r\n\r\n</li>\r\n\r\n<li>\r\n<a href=\"/animal-health/terrestrial-animals/biosecurity/user-guide-for-the-equine-sector/eng/1496092652627/1496155318525?chap=6#s16c6\">6.2 Visiting horses</a>\r\n\r\n</li>\r\n\r\n<li>\r\n<a href=\"/animal-health/terrestrial-animals/biosecurity/user-guide-for-the-equine-sector/eng/1496092652627/1496155318525?chap=6#s17c6\">6.3 Movement within the farm or facility</a>\r\n\r\n</li>\r\n\r\n<li>\r\n<a href=\"/animal-health/terrestrial-animals/biosecurity/user-guide-for-the-equine-sector/eng/1496092652627/1496155318525?chap=6#s18c6\">6.4 Attendance at events</a>\r\n\r\n</li>\r\n\r\n<li>\r\n<a href=\"/animal-health/terrestrial-animals/biosecurity/user-guide-for-the-equine-sector/eng/1496092652627/1496155318525?chap=6#s19c6\">6.5 Transportation</a>\r\n\r\n</li>\r\n\r\n</ul>\r\n\r\n</li>\r\n\r\n<li>\r\n<a href=\"/animal-health/terrestrial-animals/biosecurity/user-guide-for-the-equine-sector/eng/1496092652627/1496155318525?chap=7\">Section 7: Access management</a>\r\n\r\n<ul class=\"list-unstyled col-md-offset-1 mrgn-bttm-md\">\r\n\r\n<li>\r\n<a href=\"/animal-health/terrestrial-animals/biosecurity/user-guide-for-the-equine-sector/eng/1496092652627/1496155318525?chap=7#s20c7\">7.1 Movement onto and within farms and facilities (zones)</a>\r\n\r\n</li>\r\n\r\n<li>\r\n<a href=\"/animal-health/terrestrial-animals/biosecurity/user-guide-for-the-equine-sector/eng/1496092652627/1496155318525?chap=7#s21c7\">7.2 Procedures for moving between zones</a>\r\n\r\n</li>\r\n\r\n</ul>\r\n\r\n</li>\r\n\r\n<li>\r\n<a href=\"/animal-health/terrestrial-animals/biosecurity/user-guide-for-the-equine-sector/eng/1496092652627/1496155318525?chap=8\">Section 8: Farm and facility management</a>\r\n\r\n<ul class=\"list-unstyled col-md-offset-1 mrgn-bttm-md\">\r\n\r\n<li>\r\n<a href=\"/animal-health/terrestrial-animals/biosecurity/user-guide-for-the-equine-sector/eng/1496092652627/1496155318525?chap=8#s22c8\">8.1 Feed, water, and bedding</a>\r\n\r\n</li>\r\n\r\n<li>\r\n<a href=\"/animal-health/terrestrial-animals/biosecurity/user-guide-for-the-equine-sector/eng/1496092652627/1496155318525?chap=8#s23c8\">8.2 Property and pest management</a>\r\n\r\n</li>\r\n\r\n<li>\r\n<a href=\"/animal-health/terrestrial-animals/biosecurity/user-guide-for-the-equine-sector/eng/1496092652627/1496155318525?chap=8#s24c8\">8.3 Pasture management</a>\r\n\r\n</li>\r\n\r\n<li>\r\n<a href=\"/animal-health/terrestrial-animals/biosecurity/user-guide-for-the-equine-sector/eng/1496092652627/1496155318525?chap=8#s25c8\">8.4 Interior and perimeter fencing</a>\r\n\r\n</li>\r\n\r\n<li>\r\n<a href=\"/animal-health/terrestrial-animals/biosecurity/user-guide-for-the-equine-sector/eng/1496092652627/1496155318525?chap=8#s26c8\">8.5 Cleaning and disinfection of barns and equipment</a>\r\n\r\n</li>\r\n\r\n<li>\r\n<a href=\"/animal-health/terrestrial-animals/biosecurity/user-guide-for-the-equine-sector/eng/1496092652627/1496155318525?chap=8#s27c8\">8.6 Barn maintenance, ventilation and wash stalls</a>\r\n\r\n</li>\r\n\r\n<li>\r\n<a href=\"/animal-health/terrestrial-animals/biosecurity/user-guide-for-the-equine-sector/eng/1496092652627/1496155318525?chap=8#s28c8\">8.7 Manure management</a>\r\n\r\n</li>\r\n\r\n<li>\r\n<a href=\"/animal-health/terrestrial-animals/biosecurity/user-guide-for-the-equine-sector/eng/1496092652627/1496155318525?chap=8#s29c8\">8.8 Garbage management</a>\r\n\r\n</li>\r\n\r\n<li>\r\n<a href=\"/animal-health/terrestrial-animals/biosecurity/user-guide-for-the-equine-sector/eng/1496092652627/1496155318525?chap=8#s30c8\">8.9 Deadstock management</a>\r\n\r\n</li>\r\n\r\n</ul>\r\n\r\n</li>\r\n\r\n<li>\r\n<a href=\"/animal-health/terrestrial-animals/biosecurity/user-guide-for-the-equine-sector/eng/1496092652627/1496155318525?chap=9\">Section 9: Biosecurity awareness, education and training</a>\r\n\r\n<ul class=\"list-unstyled col-md-offset-1 mrgn-bttm-md\">\r\n\r\n<li>\r\n<a href=\"/animal-health/terrestrial-animals/biosecurity/user-guide-for-the-equine-sector/eng/1496092652627/1496155318525?chap=9#s31c9\">9.1 Leadership and biosecurity awareness</a>\r\n\r\n</li>\r\n\r\n<li>\r\n<a href=\"/animal-health/terrestrial-animals/biosecurity/user-guide-for-the-equine-sector/eng/1496092652627/1496155318525?chap=9#s32c9\">9.2 Education and training</a>\r\n\r\n</li>\r\n\r\n</ul>\r\n\r\n</li>\r\n\r\n<li>\r\n<a href=\"/animal-health/terrestrial-animals/biosecurity/user-guide-for-the-equine-sector/eng/1496092652627/1496155318525?chap=10\">Section 10: Farm and facility location, design, layout and renovations to existing facilities</a>\r\n\r\n<ul class=\"list-unstyled col-md-offset-1 mrgn-bttm-md\">\r\n\r\n<li>\r\n<a href=\"/animal-health/terrestrial-animals/biosecurity/user-guide-for-the-equine-sector/eng/1496092652627/1496155318525?chap=10#s33c10\">10.1 Geography</a>\r\n\r\n</li>\r\n\r\n<li>\r\n<a href=\"/animal-health/terrestrial-animals/biosecurity/user-guide-for-the-equine-sector/eng/1496092652627/1496155318525?chap=10#s34c10\">10.2 Topography</a>\r\n\r\n</li>\r\n\r\n<li>\r\n<a href=\"/animal-health/terrestrial-animals/biosecurity/user-guide-for-the-equine-sector/eng/1496092652627/1496155318525?chap=10#s35c10\">10.3 Layout</a>\r\n\r\n</li>\r\n\r\n<li>\r\n<a href=\"/animal-health/terrestrial-animals/biosecurity/user-guide-for-the-equine-sector/eng/1496092652627/1496155318525?chap=10#s36c10\">10.4 Traffic flow</a>\r\n\r\n</li>\r\n\r\n<li>\r\n<a href=\"/animal-health/terrestrial-animals/biosecurity/user-guide-for-the-equine-sector/eng/1496092652627/1496155318525?chap=10#s37c10\">10.5 Design of new physical structures or renovation to an existing physical structure</a>\r\n\r\n</li>\r\n\r\n</ul>\r\n\r\n</li>\r\n\r\n<li>\r\n<a href=\"/animal-health/terrestrial-animals/biosecurity/user-guide-for-the-equine-sector/eng/1496092652627/1496155318525?chap=11\">Annex 1: Development of the user guide and acknowledgements</a>\r\n\r\n</li>\r\n\r\n<li>\r\n<a href=\"/animal-health/terrestrial-animals/biosecurity/user-guide-for-the-equine-sector/eng/1496092652627/1496155318525?chap=12\">Annex 2: Important infectious diseases of horses in Canada</a>\r\n\r\n</li>\r\n\r\n<li>\r\n<a href=\"/animal-health/terrestrial-animals/biosecurity/user-guide-for-the-equine-sector/eng/1496092652627/1496155318525?chap=13\">Annex 3: Self-evaluation checklist for risk assessment</a>\r\n\r\n</li>\r\n\r\n<li>\r\n<a href=\"/animal-health/terrestrial-animals/biosecurity/user-guide-for-the-equine-sector/eng/1496092652627/1496155318525?chap=14\">Annex 4: Conducting a horse health check</a>\r\n\r\n</li>\r\n\r\n<li>\r\n<a href=\"/animal-health/terrestrial-animals/biosecurity/user-guide-for-the-equine-sector/eng/1496092652627/1496155318525?chap=15\">Annex 5: Horse Health Exam Record</a>\r\n\r\n</li>\r\n\r\n<li>\r\n<a href=\"/animal-health/terrestrial-animals/biosecurity/user-guide-for-the-equine-sector/eng/1496092652627/1496155318525?chap=16\">Annex 6: Vitals Exam Record</a>\r\n\r\n</li>\r\n\r\n<li>\r\n<a href=\"/animal-health/terrestrial-animals/biosecurity/user-guide-for-the-equine-sector/eng/1496092652627/1496155318525?chap=17\">Annex 7: Sample horse event participant declaration</a>\r\n\r\n</li>\r\n\r\n<li>\r\n<a href=\"/animal-health/terrestrial-animals/biosecurity/user-guide-for-the-equine-sector/eng/1496092652627/1496155318525?chap=18\">Annex 8: Sample letter to participant</a>\r\n\r\n</li>\r\n\r\n<li>\r\n<a href=\"/animal-health/terrestrial-animals/biosecurity/user-guide-for-the-equine-sector/eng/1496092652627/1496155318525?chap=19\">Annex 9: Incoming horse protocol and checklist</a>\r\n\r\n</li>\r\n\r\n<li>\r\n<a href=\"/animal-health/terrestrial-animals/biosecurity/user-guide-for-the-equine-sector/eng/1496092652627/1496155318525?chap=20\">Annex 10: Additional guidance on vaccination</a>\r\n\r\n</li>\r\n\r\n<li>\r\n<a href=\"/animal-health/terrestrial-animals/biosecurity/user-guide-for-the-equine-sector/eng/1496092652627/1496155318525?chap=21\">Annex 11: Additional guidance on parasite control programs</a>\r\n\r\n</li>\r\n\r\n<li>\r\n<a href=\"/animal-health/terrestrial-animals/biosecurity/user-guide-for-the-equine-sector/eng/1496092652627/1496155318525?chap=22\">Annex 12: Important gastro-intestinal nematode parasites of horses in Canada</a>\r\n\r\n</li>\r\n\r\n<li>\r\n<a href=\"/animal-health/terrestrial-animals/biosecurity/user-guide-for-the-equine-sector/eng/1496092652627/1496155318525?chap=23\">Annex 13: Separating sick horses</a>\r\n\r\n</li>\r\n\r\n<li>\r\n<a href=\"/animal-health/terrestrial-animals/biosecurity/user-guide-for-the-equine-sector/eng/1496092652627/1496155318525?chap=24\">Annex 14: Selected disinfectants</a>\r\n\r\n</li>\r\n\r\n<li>\r\n<a href=\"/animal-health/terrestrial-animals/biosecurity/user-guide-for-the-equine-sector/eng/1496092652627/1496155318525?chap=25\">Annex 15: Cleaning and disinfecting procedures</a>\r\n\r\n</li>\r\n\r\n</ul>\r\n\r\n\r\n\n\n\r\n        \r\n\r\n\r\n\r\n<div class=\"row\">\r\n \r\n\t\r\n\t\t\t\r\n\r\n<div class=\"col-xm-12 pagedetails container\">\r\n\t\t\t\t\r\n\r\n</div>\r\n\t\r\n</div>",
        "fr": "\r\n        \r\n        \n\n\r\n\r\n\r\n\r\n\r\n\r\n<p class=\"small text-right\"><a href=\"/sante-des-animaux/animaux-terrestres/biosecurite/guide-national-de-biosecurite-de-l-utilisateur/fra/1496092652627/1496155318525?chap=0\">Texte complet</a></p>\r\n\r\n\r\n<h2>Table des mati\u00e8res</h2>\r\n<ul class=\"list-unstyled col-md-offset-1 mrgn-tp-md mrgn-bttm-md\">\r\n\r\n<li>\r\n<a href=\"/sante-des-animaux/animaux-terrestres/biosecurite/guide-national-de-biosecurite-de-l-utilisateur/fra/1496092652627/1496155318525?chap=1\">Section 1\u00a0: Glossaire</a>\r\n\r\n</li>\r\n\r\n<li>\r\n<a href=\"/sante-des-animaux/animaux-terrestres/biosecurite/guide-national-de-biosecurite-de-l-utilisateur/fra/1496092652627/1496155318525?chap=2\">Section 2\u00a0: Introduction et contexte</a>\r\n\r\n<ul class=\"list-unstyled col-md-offset-1 mrgn-bttm-md\">\r\n\r\n<li>\r\n<a href=\"/sante-des-animaux/animaux-terrestres/biosecurite/guide-national-de-biosecurite-de-l-utilisateur/fra/1496092652627/1496155318525?chap=2#s1c2\">2.1 Qu'est-ce que la bios\u00e9curit\u00e9?</a>\r\n\r\n</li>\r\n\r\n<li>\r\n<a href=\"/sante-des-animaux/animaux-terrestres/biosecurite/guide-national-de-biosecurite-de-l-utilisateur/fra/1496092652627/1496155318525?chap=2#s2c2\">2.2 Pourquoi la bios\u00e9curit\u00e9 \u00e9quine est-elle importante?</a>\r\n\r\n</li>\r\n\r\n<li>\r\n<a href=\"/sante-des-animaux/animaux-terrestres/biosecurite/guide-national-de-biosecurite-de-l-utilisateur/fra/1496092652627/1496155318525?chap=2#s3c2\">2.3 \u00c0 qui est destin\u00e9 le pr\u00e9sent document?</a>\r\n\r\n</li>\r\n\r\n<li>\r\n<a href=\"/sante-des-animaux/animaux-terrestres/biosecurite/guide-national-de-biosecurite-de-l-utilisateur/fra/1496092652627/1496155318525?chap=2#s4c2\">2.4 Quel est le but du pr\u00e9sent guide?</a>\r\n\r\n</li>\r\n\r\n<li>\r\n<a href=\"/sante-des-animaux/animaux-terrestres/biosecurite/guide-national-de-biosecurite-de-l-utilisateur/fra/1496092652627/1496155318525?chap=2#s5c2\">2.5 Organisation du guide</a>\r\n\r\n</li>\r\n\r\n</ul>\r\n\r\n</li>\r\n\r\n<li>\r\n<a href=\"/sante-des-animaux/animaux-terrestres/biosecurite/guide-national-de-biosecurite-de-l-utilisateur/fra/1496092652627/1496155318525?chap=3\">Section 3\u00a0: Plan de bios\u00e9curit\u00e9 propre \u00e0 l'exploitation ou au site de rassemblement</a>\r\n\r\n<ul class=\"list-unstyled col-md-offset-1 mrgn-bttm-md\">\r\n\r\n<li>\r\n<a href=\"/sante-des-animaux/animaux-terrestres/biosecurite/guide-national-de-biosecurite-de-l-utilisateur/fra/1496092652627/1496155318525?chap=3#s6c3\">3.1 \u00c9laboration d'un plan de bios\u00e9curit\u00e9 pour une exploitation ou un site de rassemblement</a>\r\n\r\n</li>\r\n\r\n<li>\r\n<a href=\"/sante-des-animaux/animaux-terrestres/biosecurite/guide-national-de-biosecurite-de-l-utilisateur/fra/1496092652627/1496155318525?chap=3#s7c3\">3.2 Prenez vos pr\u00e9cautions - Bios\u00e9curit\u00e9\u00a0: un cycle d'activit\u00e9s</a>\r\n\r\n</li>\r\n\r\n</ul>\r\n\r\n</li>\r\n\r\n<li>\r\n<a href=\"/sante-des-animaux/animaux-terrestres/biosecurite/guide-national-de-biosecurite-de-l-utilisateur/fra/1496092652627/1496155318525?chap=4\">Section 4\u00a0: Principes des programmes de pr\u00e9vention et de contr\u00f4le des infections</a>\r\n\r\n<ul class=\"list-unstyled col-md-offset-1 mrgn-bttm-md\">\r\n\r\n<li>\r\n<a href=\"/sante-des-animaux/animaux-terrestres/biosecurite/guide-national-de-biosecurite-de-l-utilisateur/fra/1496092652627/1496155318525?chap=4#s8c4\">4.1 Sources d'agents pathog\u00e8nes</a>\r\n\r\n</li>\r\n\r\n<li>\r\n<a href=\"/sante-des-animaux/animaux-terrestres/biosecurite/guide-national-de-biosecurite-de-l-utilisateur/fra/1496092652627/1496155318525?chap=4#s9c4\">4.2 Modes de transmission</a>\r\n\r\n</li>\r\n\r\n<li>\r\n<a href=\"/sante-des-animaux/animaux-terrestres/biosecurite/guide-national-de-biosecurite-de-l-utilisateur/fra/1496092652627/1496155318525?chap=4#s10c4\">4.3 Concepts g\u00e9n\u00e9raux de la pr\u00e9vention et du contr\u00f4le des infections</a>\r\n\r\n</li>\r\n\r\n</ul>\r\n\r\n</li>\r\n\r\n<li>\r\n<a href=\"/sante-des-animaux/animaux-terrestres/biosecurite/guide-national-de-biosecurite-de-l-utilisateur/fra/1496092652627/1496155318525?chap=5\">Section 5\u00a0: Programme pr\u00e9ventif de gestion de la sant\u00e9 des chevaux</a>\r\n\r\n<ul class=\"list-unstyled col-md-offset-1 mrgn-bttm-md\">\r\n\r\n<li>\r\n<a href=\"/sante-des-animaux/animaux-terrestres/biosecurite/guide-national-de-biosecurite-de-l-utilisateur/fra/1496092652627/1496155318525?chap=5#s11c5\">5.1 Communication</a>\r\n\r\n</li>\r\n\r\n<li>\r\n<a href=\"/sante-des-animaux/animaux-terrestres/biosecurite/guide-national-de-biosecurite-de-l-utilisateur/fra/1496092652627/1496155318525?chap=5#s12c5\">5.2 Programme de gestion de la sant\u00e9 des chevaux (troupeau)</a>\r\n\r\n</li>\r\n\r\n<li>\r\n<a href=\"/sante-des-animaux/animaux-terrestres/biosecurite/guide-national-de-biosecurite-de-l-utilisateur/fra/1496092652627/1496155318525?chap=5#s13c5\">5.3 Surveillance et maintien de la sant\u00e9 animale</a>\r\n\r\n</li>\r\n\r\n<li>\r\n<a href=\"/sante-des-animaux/animaux-terrestres/biosecurite/guide-national-de-biosecurite-de-l-utilisateur/fra/1496092652627/1496155318525?chap=5#s14c5\">5.4 Protocoles d'intervention en cas de maladie et situation d'urgence</a>\r\n\r\n</li>\r\n\r\n</ul>\r\n\r\n</li>\r\n\r\n<li>\r\n<a href=\"/sante-des-animaux/animaux-terrestres/biosecurite/guide-national-de-biosecurite-de-l-utilisateur/fra/1496092652627/1496155318525?chap=6\">Section 6\u00a0: Nouveaux chevaux, retour de chevaux, chevaux en visite, d\u00e9placement et transport</a>\r\n\r\n<ul class=\"list-unstyled col-md-offset-1 mrgn-bttm-md\">\r\n\r\n<li>\r\n<a href=\"/sante-des-animaux/animaux-terrestres/biosecurite/guide-national-de-biosecurite-de-l-utilisateur/fra/1496092652627/1496155318525?chap=6#s15c6\">6.1 Nouveaux chevaux (points \u00e0 consid\u00e9rer), nouveaux arrivants et retour de chevaux</a>\r\n\r\n</li>\r\n\r\n<li>\r\n<a href=\"/sante-des-animaux/animaux-terrestres/biosecurite/guide-national-de-biosecurite-de-l-utilisateur/fra/1496092652627/1496155318525?chap=6#s16c6\">6.2 Chevaux en visite</a>\r\n\r\n</li>\r\n\r\n<li>\r\n<a href=\"/sante-des-animaux/animaux-terrestres/biosecurite/guide-national-de-biosecurite-de-l-utilisateur/fra/1496092652627/1496155318525?chap=6#s17c6\">6.3 D\u00e9placement \u00e0 l'int\u00e9rieur de l'exploitation ou du site de rassemblement</a>\r\n\r\n</li>\r\n\r\n<li>\r\n<a href=\"/sante-des-animaux/animaux-terrestres/biosecurite/guide-national-de-biosecurite-de-l-utilisateur/fra/1496092652627/1496155318525?chap=6#s18c6\">6.4 Participation \u00e0 des \u00e9v\u00e9nements</a>\r\n\r\n</li>\r\n\r\n<li>\r\n<a href=\"/sante-des-animaux/animaux-terrestres/biosecurite/guide-national-de-biosecurite-de-l-utilisateur/fra/1496092652627/1496155318525?chap=6#s19c6\">6.5 Transport</a>\r\n\r\n</li>\r\n\r\n</ul>\r\n\r\n</li>\r\n\r\n<li>\r\n<a href=\"/sante-des-animaux/animaux-terrestres/biosecurite/guide-national-de-biosecurite-de-l-utilisateur/fra/1496092652627/1496155318525?chap=7\">Section 7\u00a0: Gestion de l'acc\u00e8s</a>\r\n\r\n<ul class=\"list-unstyled col-md-offset-1 mrgn-bttm-md\">\r\n\r\n<li>\r\n<a href=\"/sante-des-animaux/animaux-terrestres/biosecurite/guide-national-de-biosecurite-de-l-utilisateur/fra/1496092652627/1496155318525?chap=7#s20c7\">7.1 D\u00e9placement vers et dans les exploitations et les sites de rassemblement (Zones)</a>\r\n\r\n</li>\r\n\r\n<li>\r\n<a href=\"/sante-des-animaux/animaux-terrestres/biosecurite/guide-national-de-biosecurite-de-l-utilisateur/fra/1496092652627/1496155318525?chap=7#s21c7\">7.2 Proc\u00e9dures de d\u00e9placement entre les zones</a>\r\n\r\n</li>\r\n\r\n</ul>\r\n\r\n</li>\r\n\r\n<li>\r\n<a href=\"/sante-des-animaux/animaux-terrestres/biosecurite/guide-national-de-biosecurite-de-l-utilisateur/fra/1496092652627/1496155318525?chap=8\">Section 8\u00a0: Gestion de l'exploitation et du site de rassemblement</a>\r\n\r\n<ul class=\"list-unstyled col-md-offset-1 mrgn-bttm-md\">\r\n\r\n<li>\r\n<a href=\"/sante-des-animaux/animaux-terrestres/biosecurite/guide-national-de-biosecurite-de-l-utilisateur/fra/1496092652627/1496155318525?chap=8#s22c8\">8.1 Aliments, eau et liti\u00e8re</a>\r\n\r\n</li>\r\n\r\n<li>\r\n<a href=\"/sante-des-animaux/animaux-terrestres/biosecurite/guide-national-de-biosecurite-de-l-utilisateur/fra/1496092652627/1496155318525?chap=8#s23c8\">8.2 Gestion de la propri\u00e9t\u00e9 et de la vermine</a>\r\n\r\n</li>\r\n\r\n<li>\r\n<a href=\"/sante-des-animaux/animaux-terrestres/biosecurite/guide-national-de-biosecurite-de-l-utilisateur/fra/1496092652627/1496155318525?chap=8#s24c8\">8.3 Gestion des p\u00e2turages</a>\r\n\r\n</li>\r\n\r\n<li>\r\n<a href=\"/sante-des-animaux/animaux-terrestres/biosecurite/guide-national-de-biosecurite-de-l-utilisateur/fra/1496092652627/1496155318525?chap=8#s25c8\">8.4 Cl\u00f4tures int\u00e9rieures et p\u00e9riph\u00e9riques</a>\r\n\r\n</li>\r\n\r\n<li>\r\n<a href=\"/sante-des-animaux/animaux-terrestres/biosecurite/guide-national-de-biosecurite-de-l-utilisateur/fra/1496092652627/1496155318525?chap=8#s26c8\">8.5 Nettoyage et d\u00e9sinfection des \u00e9curies et de l'\u00e9quipement</a>\r\n\r\n</li>\r\n\r\n<li>\r\n<a href=\"/sante-des-animaux/animaux-terrestres/biosecurite/guide-national-de-biosecurite-de-l-utilisateur/fra/1496092652627/1496155318525?chap=8#s27c8\">8.6 Entretien des \u00e9curies, de la ventilation et des douches</a>\r\n\r\n</li>\r\n\r\n<li>\r\n<a href=\"/sante-des-animaux/animaux-terrestres/biosecurite/guide-national-de-biosecurite-de-l-utilisateur/fra/1496092652627/1496155318525?chap=8#s28c8\">8.7 Gestion du fumier</a>\r\n\r\n</li>\r\n\r\n<li>\r\n<a href=\"/sante-des-animaux/animaux-terrestres/biosecurite/guide-national-de-biosecurite-de-l-utilisateur/fra/1496092652627/1496155318525?chap=8#s29c8\">8.8 Gestion des ordures</a>\r\n\r\n</li>\r\n\r\n<li>\r\n<a href=\"/sante-des-animaux/animaux-terrestres/biosecurite/guide-national-de-biosecurite-de-l-utilisateur/fra/1496092652627/1496155318525?chap=8#s30c8\">8.9 Gestion des carcasses d'animaux morts</a>\r\n\r\n</li>\r\n\r\n</ul>\r\n\r\n</li>\r\n\r\n<li>\r\n<a href=\"/sante-des-animaux/animaux-terrestres/biosecurite/guide-national-de-biosecurite-de-l-utilisateur/fra/1496092652627/1496155318525?chap=9\">Section 9\u00a0: Sensibilisation, \u00e9ducation et formation de bios\u00e9curit\u00e9</a>\r\n\r\n<ul class=\"list-unstyled col-md-offset-1 mrgn-bttm-md\">\r\n\r\n<li>\r\n<a href=\"/sante-des-animaux/animaux-terrestres/biosecurite/guide-national-de-biosecurite-de-l-utilisateur/fra/1496092652627/1496155318525?chap=9#s31c9\">9.1 Leadership et sensibilisation \u00e0 la bios\u00e9curit\u00e9</a>\r\n\r\n</li>\r\n\r\n<li>\r\n<a href=\"/sante-des-animaux/animaux-terrestres/biosecurite/guide-national-de-biosecurite-de-l-utilisateur/fra/1496092652627/1496155318525?chap=9#s32c9\">9.2 \u00c9ducation et formation</a>\r\n\r\n</li>\r\n\r\n</ul>\r\n\r\n</li>\r\n\r\n<li>\r\n<a href=\"/sante-des-animaux/animaux-terrestres/biosecurite/guide-national-de-biosecurite-de-l-utilisateur/fra/1496092652627/1496155318525?chap=10\">Section 10\u00a0: Emplacement, conception et am\u00e9nagement d'une exploitation ou d'un site de rassemblement et r\u00e9novations d'une propri\u00e9t\u00e9 existante</a>\r\n\r\n<ul class=\"list-unstyled col-md-offset-1 mrgn-bttm-md\">\r\n\r\n<li>\r\n<a href=\"/sante-des-animaux/animaux-terrestres/biosecurite/guide-national-de-biosecurite-de-l-utilisateur/fra/1496092652627/1496155318525?chap=10#s33c10\">10.1 G\u00e9ographie</a>\r\n\r\n</li>\r\n\r\n<li>\r\n<a href=\"/sante-des-animaux/animaux-terrestres/biosecurite/guide-national-de-biosecurite-de-l-utilisateur/fra/1496092652627/1496155318525?chap=10#s34c10\">10.2 Topographie</a>\r\n\r\n</li>\r\n\r\n<li>\r\n<a href=\"/sante-des-animaux/animaux-terrestres/biosecurite/guide-national-de-biosecurite-de-l-utilisateur/fra/1496092652627/1496155318525?chap=10#s35c10\">10.3 Am\u00e9nagement</a>\r\n\r\n</li>\r\n\r\n<li>\r\n<a href=\"/sante-des-animaux/animaux-terrestres/biosecurite/guide-national-de-biosecurite-de-l-utilisateur/fra/1496092652627/1496155318525?chap=10#s36c10\">10.4 Flux de trafic</a>\r\n\r\n</li>\r\n\r\n<li>\r\n<a href=\"/sante-des-animaux/animaux-terrestres/biosecurite/guide-national-de-biosecurite-de-l-utilisateur/fra/1496092652627/1496155318525?chap=10#s37c10\">10.5 Conception de nouvelles structures physiques ou r\u00e9novation d'une structure physique existante</a>\r\n\r\n</li>\r\n\r\n</ul>\r\n\r\n</li>\r\n\r\n<li>\r\n<a href=\"/sante-des-animaux/animaux-terrestres/biosecurite/guide-national-de-biosecurite-de-l-utilisateur/fra/1496092652627/1496155318525?chap=11\">Annexe 1\u00a0: \u00c9laboration du guide de l'utilisateur et remerciements</a>\r\n\r\n</li>\r\n\r\n<li>\r\n<a href=\"/sante-des-animaux/animaux-terrestres/biosecurite/guide-national-de-biosecurite-de-l-utilisateur/fra/1496092652627/1496155318525?chap=12\">Annexe 2\u00a0: Maladies infectieuses importantes des chevaux au Canada</a>\r\n\r\n</li>\r\n\r\n<li>\r\n<a href=\"/sante-des-animaux/animaux-terrestres/biosecurite/guide-national-de-biosecurite-de-l-utilisateur/fra/1496092652627/1496155318525?chap=13\">Annexe 3\u00a0: Liste de v\u00e9rification d'auto\u00e9valuation pour l'\u00e9valuation du risque</a>\r\n\r\n</li>\r\n\r\n<li>\r\n<a href=\"/sante-des-animaux/animaux-terrestres/biosecurite/guide-national-de-biosecurite-de-l-utilisateur/fra/1496092652627/1496155318525?chap=14\">Annexe 4\u00a0: Effectuer une \u00e9valuation de l'\u00e9tat de sant\u00e9 des chevaux</a>\r\n\r\n</li>\r\n\r\n<li>\r\n<a href=\"/sante-des-animaux/animaux-terrestres/biosecurite/guide-national-de-biosecurite-de-l-utilisateur/fra/1496092652627/1496155318525?chap=15\">Annexe 5\u00a0: Dossier d'examen de sant\u00e9 des chevaux</a>\r\n\r\n</li>\r\n\r\n<li>\r\n<a href=\"/sante-des-animaux/animaux-terrestres/biosecurite/guide-national-de-biosecurite-de-l-utilisateur/fra/1496092652627/1496155318525?chap=16\">Annexe 6\u00a0: Dossier d'examen des signes vitaux</a>\r\n\r\n</li>\r\n\r\n<li>\r\n<a href=\"/sante-des-animaux/animaux-terrestres/biosecurite/guide-national-de-biosecurite-de-l-utilisateur/fra/1496092652627/1496155318525?chap=17\">Annexe 7\u00a0: Exemple de la d\u00e9claration du participant \u00e0 un \u00e9v\u00e9nement hippique</a>\r\n\r\n</li>\r\n\r\n<li>\r\n<a href=\"/sante-des-animaux/animaux-terrestres/biosecurite/guide-national-de-biosecurite-de-l-utilisateur/fra/1496092652627/1496155318525?chap=18\">Annexe 8\u00a0: Exemple de lettre au participant</a>\r\n\r\n</li>\r\n\r\n<li>\r\n<a href=\"/sante-des-animaux/animaux-terrestres/biosecurite/guide-national-de-biosecurite-de-l-utilisateur/fra/1496092652627/1496155318525?chap=19\">Annexe 9\u00a0: Protocole et liste de v\u00e9rification pour les chevaux entrants</a>\r\n\r\n</li>\r\n\r\n<li>\r\n<a href=\"/sante-des-animaux/animaux-terrestres/biosecurite/guide-national-de-biosecurite-de-l-utilisateur/fra/1496092652627/1496155318525?chap=20\">Annexe 10\u00a0: Lignes directrices suppl\u00e9mentaires sur la vaccination</a>\r\n\r\n</li>\r\n\r\n<li>\r\n<a href=\"/sante-des-animaux/animaux-terrestres/biosecurite/guide-national-de-biosecurite-de-l-utilisateur/fra/1496092652627/1496155318525?chap=21\">Annexe 11\u00a0: Lignes directrices suppl\u00e9mentaires sur les programmes de lutte antiparasitaire</a>\r\n\r\n</li>\r\n\r\n<li>\r\n<a href=\"/sante-des-animaux/animaux-terrestres/biosecurite/guide-national-de-biosecurite-de-l-utilisateur/fra/1496092652627/1496155318525?chap=22\">Annexe 12\u00a0: N\u00e9matodes gastro intestinaux importants des chevaux au Canada</a>\r\n\r\n</li>\r\n\r\n<li>\r\n<a href=\"/sante-des-animaux/animaux-terrestres/biosecurite/guide-national-de-biosecurite-de-l-utilisateur/fra/1496092652627/1496155318525?chap=23\">Annexe 13\u00a0: S\u00e9paration des chevaux malades</a>\r\n\r\n</li>\r\n\r\n<li>\r\n<a href=\"/sante-des-animaux/animaux-terrestres/biosecurite/guide-national-de-biosecurite-de-l-utilisateur/fra/1496092652627/1496155318525?chap=24\">Annexe 14\u00a0: D\u00e9sinfectants s\u00e9lectionn\u00e9s</a>\r\n\r\n</li>\r\n\r\n<li>\r\n<a href=\"/sante-des-animaux/animaux-terrestres/biosecurite/guide-national-de-biosecurite-de-l-utilisateur/fra/1496092652627/1496155318525?chap=25\">Annexe 15\u00a0: Proc\u00e9dures de nettoyage et de d\u00e9sinfection</a>\r\n\r\n</li>\r\n\r\n</ul>\r\n\r\n\r\n<div class=\"clear\"></div>\r\n\n\n\r\n        \r\n\r\n<div class=\"row\">\r\n \r\n\t\t\t\r\n\t\t\t\r\n\r\n\t\t\r\n\t\r\n</div>"
    },
    "chat_wizard": false,
    "success": true
}