{
    "dcr_id": "1528732756921",
    "title": {
        "en": "National Avian On-Farm Biosecurity Standard (second edition)",
        "fr": "Norme nationale de bios\u00e9curit\u00e9 pour les fermes avicoles (deuxi\u00e8me \u00e9dition)"
    },
    "html_modified": "27-7-2018",
    "modified": "30-7-2018",
    "issued": "11-6-2018",
    "teamsite_location": {
        "en": "/default/main/inspection/cont-cont/animals-animaux/WORKAREA/animals-animaux/templatedata/comn-comn/manuals-manuels/data/terr_biosec_avian_standard_national_1528732756921_eng",
        "fr": "/default/main/inspection/cont-cont/animals-animaux/WORKAREA/animals-animaux/templatedata/comn-comn/manuals-manuels/data/terr_biosec_avian_standard_national_1528732756921_fra"
    },
    "parent_ia_id": "1344707981478",
    "ia_id": "1528732872665",
    "parent_node_id": null,
    "layout_name": "content page 1 column",
    "breadcrumb": {
        "en": "National Avian On-Farm Biosecurity Standard (second edition)",
        "fr": "Norme nationale de bios\u00e9curit\u00e9 pour les fermes avicoles (deuxi\u00e8me \u00e9dition)"
    },
    "label": {
        "en": "National Avian On-Farm Biosecurity Standard (second edition)",
        "fr": "Norme nationale de bios\u00e9curit\u00e9 pour les fermes avicoles (deuxi\u00e8me \u00e9dition)"
    },
    "templatetype": "content page 1 column",
    "node_id": "1528732872665",
    "managing_branch": "comn",
    "type_name": "manuals-manuels",
    "parent_dcr_id": "1344707905203",
    "has_dcr_id": true,
    "lang": "en",
    "could_not_load": 0,
    "refaire": false,
    "interwoven_url": {
        "en": "/animal-health/terrestrial-animals/biosecurity/standards-and-principles/national-avian-on-farm-biosecurity-standard/",
        "fr": "/sante-des-animaux/animaux-terrestres/biosecurite/normes-et-principes/norme-nationale-de-biosecurite-pour-les-fermes-avi/"
    },
    "meta": {
        "viewport": {
            "en": "width=device-width,initial-scale=1",
            "fr": "width=device-width,initial-scale=1"
        },
        "service": {
            "en": "CFIA-ACIA",
            "fr": "CFIA-ACIA"
        },
        "accessRights": {
            "en": "2",
            "fr": "2"
        },
        "title": {
            "en": "National Avian On-Farm Biosecurity Standard (second edition)",
            "fr": "Norme nationale de bios\u00e9curit\u00e9 pour les fermes avicoles (deuxi\u00e8me \u00e9dition)"
        },
        "description": {
            "en": "The National Avian On-Farm Biosecurity Standard forms the basis of a comprehensive voluntary program designed to provide applicable guidance for owners or managers of all poultry production types in Canada.",
            "fr": "La Norme nationale de bios\u00e9curit\u00e9 pour les fermes avicoles constitue le fondement d'un programme exhaustif volontaire qui vise \u00e0 fournir des directives aux propri\u00e9taires ou aux gestionnaires de tous les types de productions avicoles au Canada."
        },
        "keywords": {
            "en": "Animals, Animal Health, National Avian On-Farm Biosecurity Standard, Avian, On-Farm, Biosecurity, Standard, poultry,On-Farm Food Safety, OFFS, Avian Biosecurity Advisory Committee, ABAC",
            "fr": "animales, sant\u00e9 animale, Norme nationale de bios\u00e9curit\u00e9 pour les fermes avicoles, avicoles, \u00e0 la ferme, bios\u00e9curit\u00e9, norme, volailles, programme de salubrit\u00e9 des aliments \u00e0 la ferme, PASAF, Comit\u00e9 consultatif sur la bios\u00e9curit\u00e9 aviaire, CCBA"
        },
        "dcterms.subject": {
            "en": "food inspection,infectious diseases,veterinary medicine,standards,animal health",
            "fr": "inspection des aliments,maladie infectieuse,m\u00e9decine v\u00e9t\u00e9rinaire,norme,sant\u00e9 animale"
        },
        "creator": {
            "en": "Government of Canada,Canadian Food Inspection Agency,Animal Health Directorate",
            "fr": "Gouvernement du Canada,Agence canadienne d'inspection des aliments,Direction sant\u00e9 des animaux"
        },
        "language": {
            "en": "eng",
            "fr": "fra"
        },
        "issued": {
            "en": "2018-07-27",
            "fr": "2018-07-27"
        },
        "modified": {
            "en": "2018-07-30",
            "fr": "2018-07-30"
        },
        "type": {
            "en": "reference material",
            "fr": "mat\u00e9riel de r\u00e9f\u00e9rence"
        },
        "audience": {
            "en": "business,government",
            "fr": "entreprises,gouvernement"
        },
        "name": {
            "en": "Government of Canada",
            "fr": "Gouvernement du Canada"
        },
        "areaServed": {
            "en": "Canada",
            "fr": "Canada"
        }
    },
    "h1": {
        "en": "National Avian On-Farm Biosecurity Standard (second edition)",
        "fr": "Norme nationale de bios\u00e9curit\u00e9 pour les fermes avicoles (deuxi\u00e8me \u00e9dition)"
    },
    "body": {
        "en": "        \r\n        \n\n\r\n\r\n<section class=\"alert alert-info\">\r\n<h2 class=\"h3\">This page is part of the Guidance Document Repository (GDR).</h2>\r\n<p>\r\n<br>\r\n<a href=\"/industry-guidance/eng/1374161650885/1374161737236?gp=1&amp;gc=30&amp;ga=7#gdr_results\" class=\"alert-link\">\r\n            Search for related documents in the Guidance Document Repository\r\n</a>\r\n</p>\r\n</section>\r\n\r\n\r\n\r\n<p class=\"small text-right\"><a href=\"/animal-health/terrestrial-animals/biosecurity/standards-and-principles/national-avian-on-farm-biosecurity-standard/eng/1528732756921/1528732872665?chap=0\">Complete Text</a></p>\r\n\r\n\n<div class=\"row\">\n<section class=\"mwsdownload-link section col-xs-12 col-sm-12 col-md-12 col-lg-10\">\n<div class=\"well well-sm gc-dwnld\">\n\n<div class=\"row\">\n\n<div class=\"col-xs-2 col-sm-2 col-md-2 col-lg-2\">\n\n<p><a class=\"gc-dwnld-lnk\" href=\"/DAM/DAM-animals-animaux/WORKAREA/DAM-animals-animaux/text-texte/nat_avian_on-farm_bio_standard_1532718025222_eng.pdf\">\n<img class=\"img-responsive mrgn-lft-sm mrgn-tp-sm gc-dwnld-img\" src=\"/DAM/DAM-animals-animaux/WORKAREA/DAM-animals-animaux/images-images/nat_avian_on-farm_bio_standard-img_1532718599943_eng.jpg\" alt=\"PDF thumbnail: National Avian On-Farm Biosecurity Standard\"></a></p>\n</div>\n\n<div class=\"col-xs-10 col-sm-10 col-md-10 col-lg-10\">\n<p class=\"gc-dwnld-txt\">\n<a class=\"gc-dwnld-lnk\" href=\"/DAM/DAM-animals-animaux/WORKAREA/DAM-animals-animaux/text-texte/nat_avian_on-farm_bio_standard_1532718025222_eng.pdf\">\n<span>National Avian On-Farm Biosecurity Standard (second edition)</span><br>\n<span class=\"gc-dwnld-info\"><abbr title=\"Portable Document Format\">PDF</abbr> (1,094\u00a0<abbr title=\"kilobytes\">KB</abbr>)</span></a>\n</p>\n\n</div>\n\n</div>\n\n</div>\n</section>\n</div>\n\n<!--\n<p class=\"text-right\"><a href=\"/DAM/DAM-animals-animaux/STAGING/text-texte/terr_biosec_avian_standard_national_standard_2018_1528726089005_eng.pdf\" title=\"National Avian On-Farm Biosecurity Standard (revised in 2018)\"><abbr title=\"Portable Document Format\">PDF</abbr> version (1,030 <abbr title=\"kilobytes\">kb</abbr>)</a></p>-->\r\n<h2>On this page</h2>\r\n<ul class=\"list-unstyled col-md-offset-1 mrgn-tp-md mrgn-bttm-md\">\r\n\r\n<li>\r\n<a href=\"/animal-health/terrestrial-animals/biosecurity/standards-and-principles/national-avian-on-farm-biosecurity-standard/eng/1528732756921/1528732872665?chap=1\">About this document</a>\r\n\r\n</li>\r\n\r\n<li>\r\n<a href=\"/animal-health/terrestrial-animals/biosecurity/standards-and-principles/national-avian-on-farm-biosecurity-standard/eng/1528732756921/1528732872665?chap=2\">Glossary</a>\r\n\r\n</li>\r\n\r\n<li>\r\n<a href=\"/animal-health/terrestrial-animals/biosecurity/standards-and-principles/national-avian-on-farm-biosecurity-standard/eng/1528732756921/1528732872665?chap=3\">National Avian On-Farm Biosecurity Standard</a>\r\n\r\n</li>\r\n\r\n<li>\r\n<a href=\"/animal-health/terrestrial-animals/biosecurity/standards-and-principles/national-avian-on-farm-biosecurity-standard/eng/1528732756921/1528732872665?chap=4\">Development of this document</a>\r\n\r\n</li>\r\n\r\n<li>\r\n<a href=\"/animal-health/terrestrial-animals/biosecurity/standards-and-principles/national-avian-on-farm-biosecurity-standard/eng/1528732756921/1528732872665?chap=5\">Self-Evaluation Checklist</a>\r\n\r\n</li>\r\n\r\n</ul>\r\n\r\n\r\n\n\n\r\n        \r\n\r\n\r\n\r\n<div class=\"row\">\r\n \r\n\t\r\n\t\t\t\r\n\r\n<div class=\"col-xm-12 pagedetails container\">\r\n\t\t\t\t\r\n\r\n</div>\r\n\t\r\n</div>",
        "fr": "\r\n        \r\n        \n\n\r\n\r\n<section class=\"alert alert-info\">\r\n<h2 class=\"h3\">Cette page fait partie du r\u00e9pertoire des documents d'orientation (RDO).</h2>\r\n<p>\r\n<br>\r\n<a href=\"/orientation-pour-l-industrie/fra/1374161650885/1374161737236?gp=1&amp;gc=30&amp;ga=7#gdr_results\" class=\"alert-link\">\r\n            Recherche de documents connexes dans le r\u00e9pertoire des documents d'orientation.\r\n</a>\r\n</p>\r\n</section>\r\n\r\n\r\n\r\n<p class=\"small text-right\"><a href=\"/sante-des-animaux/animaux-terrestres/biosecurite/normes-et-principes/norme-nationale-de-biosecurite-pour-les-fermes-avi/fra/1528732756921/1528732872665?chap=0\">Texte complet</a></p>\r\n\r\n\n<div class=\"row\">\n\n<section class=\"mwsdownload-link section col-xs-12 col-sm-12 col-md-12 col-lg-10\">\n<div class=\"well well-sm gc-dwnld\">\n<div class=\"row\">\n<div class=\"col-xs-2 col-sm-2 col-md-2 col-lg-2\">\n\n<p>\n<a class=\"gc-dwnld-lnk\" href=\"/DAM/DAM-animals-animaux/WORKAREA/DAM-animals-animaux/text-texte/nat_avian_on-farm_bio_standard_1532718025222_fra.pdf\">\n<img class=\"img-responsive mrgn-lft-sm mrgn-tp-sm gc-dwnld-img\" src=\"/DAM/DAM-animals-animaux/WORKAREA/DAM-animals-animaux/images-images/nat_avian_on-farm_bio_standard-img_1532718599943_fra.jpg\" alt=\"Image de PDF : Mesures de bios\u00e9curit\u00e9 pour le transport des porcs\"></a></p>\n</div>\n\n<div class=\"col-xs-10 col-sm-10 col-md-10 col-lg-10\">\n<p class=\"gc-dwnld-txt\">\n<a class=\"gc-dwnld-lnk\" href=\"/DAM/DAM-animals-animaux/WORKAREA/DAM-animals-animaux/text-texte/nat_avian_on-farm_bio_standard_1532718025222_fra.pdf\">\n<span>Norme nationale de bios\u00e9curit\u00e9 pour les fermes avicoles (deuxi\u00e8me \u00e9dition)</span><br>\n<span class=\"gc-dwnld-info\"><abbr title=\"Format de document portable\">PDF</abbr> (1\u00a0308\u00a0<abbr title=\"kilo-octets\">ko</abbr>)</span></a>\n</p>\n\n</div>\n</div>\n</div>\n\n</section>\n</div>\n\n\n<!--\n<p class=\"text-right\"><a href=\"/DAM/DAM-animals-animaux/STAGING/text-texte/terr_biosec_avian_standard_national_standard_2018_1528726089005_fra.pdf\" title=\"Norme nationale de bios&#233;curit&#233; pour les fermes avicoles\">Version <abbr lang=\"en\" title=\"Portable Document Format\">PDF</abbr> (1&nbsp;230 <abbr title=\"kilo-octets\">ko</abbr>)</a></p>-->\r\n<h2>Sur cette page</h2>\r\n<ul class=\"list-unstyled col-md-offset-1 mrgn-tp-md mrgn-bttm-md\">\r\n\r\n<li>\r\n<a href=\"/sante-des-animaux/animaux-terrestres/biosecurite/normes-et-principes/norme-nationale-de-biosecurite-pour-les-fermes-avi/fra/1528732756921/1528732872665?chap=1\">Au sujet du pr\u00e9sent document</a>\r\n\r\n</li>\r\n\r\n<li>\r\n<a href=\"/sante-des-animaux/animaux-terrestres/biosecurite/normes-et-principes/norme-nationale-de-biosecurite-pour-les-fermes-avi/fra/1528732756921/1528732872665?chap=2\">Glossaire</a>\r\n\r\n</li>\r\n\r\n<li>\r\n<a href=\"/sante-des-animaux/animaux-terrestres/biosecurite/normes-et-principes/norme-nationale-de-biosecurite-pour-les-fermes-avi/fra/1528732756921/1528732872665?chap=3\">Norme nationale de bios\u00e9curit\u00e9 pour les fermes avicoles</a>\r\n\r\n</li>\r\n\r\n<li>\r\n<a href=\"/sante-des-animaux/animaux-terrestres/biosecurite/normes-et-principes/norme-nationale-de-biosecurite-pour-les-fermes-avi/fra/1528732756921/1528732872665?chap=4\">\u00c9laboration du pr\u00e9sent document</a>\r\n\r\n</li>\r\n\r\n<li>\r\n<a href=\"/sante-des-animaux/animaux-terrestres/biosecurite/normes-et-principes/norme-nationale-de-biosecurite-pour-les-fermes-avi/fra/1528732756921/1528732872665?chap=5\">Liste d'auto\u00e9valuation</a>\r\n\r\n</li>\r\n\r\n</ul>\r\n\r\n\r\n<div class=\"clear\"></div>\r\n\n\n\r\n        \r\n\r\n<div class=\"row\">\r\n \r\n\t\t\t\r\n\t\t\t\r\n\r\n\t\t\r\n\t\r\n</div>"
    },
    "js": {
        "en": "",
        "fr": ""
    },
    "chat_wizard": false,
    "success": true
}