{
    "dcr_id": "1603159897090",
    "lang": "en",
    "type_name": "intra-intra/news-nouv",
    "created": "2020-10-22 00:00:00.0",
    "expirydate": "2020-10-29 00:01:00.0",
    "news_category_type_id": "1308334182981"
}