{
    "dcr_id": "1348174421023",
    "title": {
        "en": "2009-2010 Bisphenol-A in Infant Food and Formula",
        "fr": "2009-2010 Bisph\u00e9nol A dans les aliments et pr\u00e9parations pour nourrisson"
    },
    "html_modified": "2024-02-13 9:47:43 AM",
    "modified": "2018-09-04",
    "issued": "2018-06-05",
    "teamsite_location": {
        "en": "/default/main/inspection/cont-cont/food-aliments/STAGING/templatedata/comn-comn/forms-formes/data/chem_residue_reports_2009-2010_bisphenol_1348174421023_eng",
        "fr": "/default/main/inspection/cont-cont/food-aliments/STAGING/templatedata/comn-comn/forms-formes/data/chem_residue_reports_2009-2010_bisphenol_1348174421023_fra"
    },
    "ia_id": "1348174905791",
    "parent_ia_id": "1453327843364",
    "chronicletopic": {
        "en": "",
        "fr": ""
    },
    "chroniclecontent": {
        "en": "",
        "fr": ""
    },
    "chronicleaudience": {
        "en": "",
        "fr": ""
    },
    "sfcrdocumenttype": {
        "en": "",
        "fr": ""
    },
    "sfcraudience": {
        "en": "",
        "fr": ""
    },
    "sfcrmethodofproduction": {
        "en": "",
        "fr": ""
    },
    "activity": {
        "en": "",
        "fr": ""
    },
    "commodity": {
        "en": "",
        "fr": ""
    },
    "program": {
        "en": "",
        "fr": ""
    },
    "search_type": "other",
    "parent_node_id": "1453327843364",
    "layout_name": "content page 1 column",
    "breadcrumb": {
        "en": "2009-2010 Bisphenol-A in Infant Food and Formula",
        "fr": "2009-2010 Bisph\u00e9nol A dans les aliments et pr\u00e9parations pour nourrisson"
    },
    "label": {
        "en": "2009-2010 Bisphenol-A in Infant Food and Formula",
        "fr": "2009-2010 Bisph\u00e9nol A dans les aliments et pr\u00e9parations pour nourrisson"
    },
    "templatetype": "content page 1 column",
    "node_id": "1348174905791",
    "managing_branch": "comn",
    "type_name": "forms-formes",
    "dcr_type": "forms-formes",
    "parent_dcr_id": "1453324778043",
    "has_dcr_id": true,
    "lang": "en",
    "could_not_load": 0,
    "refaire": false,
    "interwoven_url": {
        "en": "/food-safety-for-industry/food-chemistry-and-microbiology/food-safety-testing-reports-and-journal-articles/bisphenol-a/",
        "fr": "/salubrite-alimentaire-pour-l-industrie/chimie-et-microbiologie-alimentaires/rapports-d-analyse-et-articles-de-revues-sur-la-sa/bisphenol-a/"
    },
    "meta": {
        "viewport": {
            "en": "width=device-width,initial-scale=1",
            "fr": "width=device-width,initial-scale=1"
        },
        "service": {
            "en": "CFIA-ACIA",
            "fr": "CFIA-ACIA"
        },
        "accessRights": {
            "en": "2",
            "fr": "2"
        },
        "title": {
            "en": "2009-2010 Bisphenol-A in Infant Food and Formula",
            "fr": "2009-2010 Bisph\u00e9nol A dans les aliments et pr\u00e9parations pour nourrisson"
        },
        "description": {
            "en": "From a total of 200 samples, 59% did not contain detectable levels of bisphenol-A. Bisphenol-A was not detected in any of the powdered infant formulas or infant cereals sampled for this survey.",
            "fr": "Sur un total de 200 \u00e9chantillons, 59 % ne contenaient aucune concentration d\u00e9tectable de bisph\u00e9nol A. Aucune des pr\u00e9parations pour nourrissons en poudre ou des c\u00e9r\u00e9ales pour nourrissons \u00e9chantillonn\u00e9es n'en contenait."
        },
        "keywords": {
            "en": "chemical residues, testing, sampling, reporting, bisphenol-A, infant foods, infant formula",
            "fr": "R\u00e9sidus chimiques, essai, pr\u00e9l\u00e8vement,\u00a0rapports, bisph\u00e9nol-A, aliments pour nourrisson, pr\u00e9parations pour nourrisson"
        },
        "dcterms.subject": {
            "en": "agri-food products,assessment,food inspection,food safety,inspection,scientific research",
            "fr": "produit agro-alimentaire,\u00e9valuation,inspection des aliments,salubrit\u00e9 des aliments,inspection,recherche scientifique"
        },
        "creator": {
            "en": "Government of Canada,Canadian Food Inspection Agency,Food Safety Science Directorate",
            "fr": "Gouvernement du Canada,Agence canadienne d'inspection des aliments,Direction des sciences de la salubrit\u00e9 des aliments"
        },
        "language": {
            "en": "eng",
            "fr": "fra"
        },
        "issued": {
            "en": "2018-06-05",
            "fr": "2018-06-05"
        },
        "modified": {
            "en": "2018-09-04",
            "fr": "2018-09-04"
        },
        "type": {
            "en": "reference material,report",
            "fr": "mat\u00e9riel de r\u00e9f\u00e9rence,rapport"
        },
        "audience": {
            "en": "business,general public,government,scientists",
            "fr": "entreprises,grand public,gouvernement,Scientifiques"
        },
        "name": {
            "en": "Government of Canada",
            "fr": "Gouvernement du Canada"
        },
        "areaServed": {
            "en": "Canada",
            "fr": "Canada"
        }
    },
    "h1": {
        "en": "2009-2010 Bisphenol-A in Infant Food and Formula",
        "fr": "2009-2010 Bisph\u00e9nol A dans les aliments et pr\u00e9parations pour nourrisson"
    },
    "js": {
        "en": "<script>\n    document.frmPublication.strTitle.value = document.getElementsByTagName(\"title\")[0].innerHTML;\n    document.frmPublication.strUrl.value = document.URL;\n</script>/* --------------------- MORE JAVASCRIPT ------------------- */<script>\n$(document).ready (function(){\n\tif($(\"#strPaper\").checked || $(\"#strBraille\").checked)\n\t{\n\t\tPaperBrailleChecked();\n\t}\n});\n\n$(document).on(\"change\", \"#strBraille\", function(){\n\tif($(\"#strBraille\").is(\":checked\"))\n\t{\n\t\tPaperBrailleChecked();\n\t}\n\telse if(!($(\"#strPaper\").is(\":checked\")))\n\t{\n\t\tPaperBrailleUnChecked();\n\t}\n});\n\n$(document).on(\"change\", \"#strPaper\", function(){\n\tif($(\"#strPaper\").is(\":checked\"))\n\t{\n\t\tPaperBrailleChecked();\n\t}\n\telse if(!($(\"#strBraille\").is(\":checked\")))\n\t{\n\t\tPaperBrailleUnChecked();\n\t}\n});\n\nfunction PaperBrailleChecked()\n{\n\t$(\"#strAddress1\").attr(\"required\", \"true\");\n\t$(\"#strCity\").attr(\"required\", \"true\");\n\t$(\"#strProvince\").attr(\"required\", \"true\");\n\t$(\"#strCountry\").attr(\"required\", \"true\");\n\t$(\"#strPostal\").attr(\"required\", \"true\");\n}\n\nfunction PaperBrailleUnChecked()\n{\n\t$(\"#strAddress1\").removeAttr(\"required\");\n\t$(\"#strCity\").removeAttr(\"required\");\n\t$(\"#strProvince\").removeAttr(\"required\");\n\t$(\"#strCountry\").removeAttr(\"required\");\n\t$(\"#strPostal\").removeAttr(\"required\");\n}\n</script>",
        "fr": "<script>\n    document.frmPublication.strTitle.value = document.getElementsByTagName(\"title\")[0].innerHTML;\n    document.frmPublication.strUrl.value = document.URL;\n</script>/* --------------------- MORE JAVASCRIPT ------------------- */<script>\n$(document).ready (function(){\n\tif($(\"#strPaper\").checked || $(\"#strBraille\").checked)\n\t{\n\t\tPaperBrailleChecked();\n\t}\n});\n\n$(document).on(\"change\", \"#strBraille\", function(){\n\tif($(\"#strBraille\").is(\":checked\"))\n\t{\n\t\tPaperBrailleChecked();\n\t}\n\telse if(!($(\"#strPaper\").is(\":checked\")))\n\t{\n\t\tPaperBrailleUnChecked();\n\t}\n});\n\n$(document).on(\"change\", \"#strPaper\", function(){\n\tif($(\"#strPaper\").is(\":checked\"))\n\t{\n\t\tPaperBrailleChecked();\n\t}\n\telse if(!($(\"#strBraille\").is(\":checked\")))\n\t{\n\t\tPaperBrailleUnChecked();\n\t}\n});\n\nfunction PaperBrailleChecked()\n{\n\t$(\"#strAddress1\").attr(\"required\", \"true\");\n\t$(\"#strCity\").attr(\"required\", \"true\");\n\t$(\"#strProvince\").attr(\"required\", \"true\");\n\t$(\"#strCountry\").attr(\"required\", \"true\");\n\t$(\"#strPostal\").attr(\"required\", \"true\");\n}\n\nfunction PaperBrailleUnChecked()\n{\n\t$(\"#strAddress1\").removeAttr(\"required\");\n\t$(\"#strCity\").removeAttr(\"required\");\n\t$(\"#strProvince\").removeAttr(\"required\");\n\t$(\"#strCountry\").removeAttr(\"required\");\n\t$(\"#strPostal\").removeAttr(\"required\");\n}\n</script>"
    },
    "mode_html": "no_editor_full",
    "body": {
        "en": "        \r\n        \n<h2>Summary</h2>\n<p>The Food Safety Action Plan (FSAP) aims to modernize and enhance Canada's food safety system. As part of the <abbr title=\"Food Safety Action Plan\">FSAP</abbr> enhanced surveillance initiative, targeted surveys are used to test various foods for specific hazards.</p>\n<p>The main objectives of the bisphenol-A survey were:</p>\n<ul>\n<li>To provide baseline surveillance data for a variety of infant foods and infant formula</li>\n<li>To examine the link between different types of packaging and the levels of bisphenol-A in food</li>\n</ul>\n<p>Two hundred samples were collected and analyzed for bisphenol-A. They consisted of 100 infant food samples (cereals, fruit &amp; vegetable purees and mixed meals) and 100 infant formula samples (powdered, ready-to-serve and concentrated). Samples with a wide variety of packaging materials were selected to explore the link between packaging and levels of bisphenol-A. The types of packaging were:</p>\n<ul>\n<li>plastic cups/trays (plastic)</li>\n<li>paperboard coated with waterproof plastic (paper-plastic)</li>\n<li>paperboard cans with metal ends (paper-metal)</li>\n<li>metal cans (metal)</li>\n<li>glass jars with metal lids (glass-metal).</li>\n</ul>\n<p>From a total of 200 samples, 59% did not contain detectable levels of bisphenol-A. Bisphenol-A was not detected in any of the powdered infant formulas or infant cereals sampled for this survey. These samples were packaged in metal, paper-plastic or paper-metal containers, and consisted of dry ingredients, which would make migration of bisphenol-A from any potential packaging source unlikely. Detection of bisphenol-A was minimal in infant food (9%). These samples were packaged in glass containers with metal lids or individual serving plastic containers. Conversely, 65% of ready-to-serve infant formula and 100% of concentrated infant formula samples tested contained measurable residues of bisphenol-A. All concentrated infant formula samples selected were in metal cans. Ready-to-serve infant formulas were mostly in metal cans, but a few were also found in glass bottles with metal lids.</p>\n<p>When examined as a function of food packaging, no detectable levels of bisphenol-A were found for samples in plastic, paper-plastic and paper-metal packaging. The 82 samples in which bisphenol-A was detected were in metal cans (70 of 89 samples, 79%) and glass jars with metal lids (12 of 32 samples, 38%). Bisphenol-A is a component of the can/lid liner which is used to prevent direct contact of food with metal. Residues in these linings can migrate into foods especially at elevated temperatures. The levels of bisphenol-A in infant food and infant formula observed in this survey ranged from 1.4 to 9.6 <abbr title=\"parts per billion\">ppb</abbr>. These levels are consistent with previous findings obtained in Canada and the United States. Consumption of these products would result in exposures well below the provisional tolerable daily intake of 25 <abbr title=\"microgram\">\u03bcg</abbr>/<abbr title=\"kilogram\">kg</abbr> body weight per day established by Health Canada.</p>\n\r\n<style>\n/* required style */\n    .keyValue{\n\tdisplay: none !important;\n        visibility: hidden !important;\n</style>\n<h2>Request of Complete Report</h2>\n<p>The complete text of this report is available upon request.</p>\n\n<div class=\"wb-frmvld\">\n\n<form class=\"form-horizontal\" role=\"form\" method=\"post\" action=\"/active/netapp/comment/publicationposte.aspx#wb-cont\" name=\"frmPublication\">\n<input id=\"emailad0\" name=\"to\" class=\"hidden\" type=\"hidden\" aria-hidden=\"true\" value=\"tkaK298ouaccZYWFIqZoRNoeXas1QQLXJSYTvjrSIM8+rbydCQbzsRdg47qRsZPyK0IiRkBIxwjADIIh8psgzrLiQQSF9bei9HTFDkcjIHs=\">\n<input name=\"strLang\" type=\"hidden\" value=\"English\">\n<input name=\"strSubject\" type=\"hidden\" value=\"Chemical Residues / Microbiology Report Request\">\n<input name=\"strTitle\" type=\"hidden\" value=\"title\">\n<input name=\"strUrl\" type=\"hidden\" value=\"url\">\n<script type=\"text/javascript\">\n    document.frmPublication.strTitle.value = document.getElementsByTagName(\"title\")[0].innerHTML;\n    document.frmPublication.strUrl.value = document.URL;\n</script>\n        \n<fieldset class=\"mrgn-tp-md mrgn-bttm-lg\">\t\t\n\n<legend class=\"field-name required\"><span class=\"field-name\">The format in which you would like to receive the report</span> <strong class=\"required\">(required)</strong></legend>\n\n<div class=\"checkbox\">\n<label for=\"strPdf\"><input type=\"checkbox\" name=\"formatsent\" id=\"strPdf\" value=\"pdf\" required=\"required\">PDF (Portable Document Format) electronic file sent to you by email</label>\n</div>\n\n<div class=\"checkbox\">\n<label for=\"strText\"><input type=\"checkbox\" name=\"formatsent\" id=\"strText\" value=\"text\">RTF (Rich Text Format) electronic file sent to you by email</label>\n</div>\n\n<div class=\"checkbox\">\n<label for=\"strBraille\"><input type=\"checkbox\" name=\"formatsent\" id=\"strBraille\" value=\"braille\">Braille copy sent to you by mail</label>\n</div>\n\n<div class=\"checkbox\">\n<label for=\"strPaper\"><input type=\"checkbox\" name=\"formatsent\" id=\"strPaper\" value=\"paper\">Paper copy sent to you by mail</label>\n</div>\n\n</fieldset>\t\n\n<fieldset class=\"mrgn-tp-md mrgn-bttm-lg\">\t\t\n\n<legend class=\"field-name\">Your contact information</legend>\n\n<label class=\"keyValue\" for=\"name\"></label>\n<input class=\"keyValue\" autocomplete=\"off\" type=\"text\" id=\"name\" name=\"name\">\n<label class=\"keyValue\" for=\"email\"></label>\n<input class=\"keyValue\" autocomplete=\"off\" type=\"email\" id=\"email\" name=\"email\"> \n\n<div class=\"form-group\">\n<label for=\"strFirstName\" class=\"required col-md-4 control-label\"><span class=\"field-name\">First name:</span> <strong class=\"required\">(required)</strong></label>\n<div class=\"col-md-8\">\n<input class=\"form-control\" id=\"strFirstName\" name=\"strFirstName\" type=\"text\" required=\"required\" pattern=\".{2,}\" data-rule-minlength=\"2\">\n</div>\n</div>\n            \n<div class=\"form-group\">\n<label for=\"strLastName\" class=\"required col-md-4 control-label\"><span class=\"field-name\">Last name:</span> <strong class=\"required\">(required)</strong></label>\n<div class=\"col-md-8\">\n<input class=\"form-control\" id=\"strLastName\" name=\"strLastName\" type=\"text\" required=\"required\" pattern=\".{2,}\" data-rule-minlength=\"2\">\n</div>\n</div>\n\n<div class=\"form-group\">\n<label for=\"strEmail\" class=\"required col-md-4 control-label\"><span class=\"field-name\">Email address:</span>  <strong class=\"required\">(required)</strong></label>\n<div class=\"col-md-8\">\n<input class=\"form-control\" id=\"strEmail\" name=\"strEmail\" type=\"email\" required=\"required\">\n</div>\n</div>\n\n<div class=\"form-group\">\n<label for=\"strConfirmEmail\" class=\"required col-md-4 control-label\"><span class=\"field-name\">Confirm email address:</span>  <strong class=\"required\">(required)</strong></label>\n<div class=\"col-md-8\">\n<input class=\"form-control\" id=\"strConfirmEmail\" name=\"strConfirmEmail\" type=\"email\" data-rule-equalto=\"#strEmail\" required=\"required\">\n</div>\n</div>\n\n<div class=\"form-group mrgn-tp-md\">\n<label for=\"lstdescribe\" class=\"required col-md-4 control-label\"><span class=\"field-name\">How would you describe yourself?</span> <strong class=\"required\">(required)</strong></label>\n<div class=\"col-md-8\">\n<select class=\"form-control\" id=\"lstdescribe\" name=\"lstdescribe\" required=\"required\">\n<option label=\"Select from this list\"></option>\n<option value=\"Academia\">Academia</option>\n<option value=\"Consumer Association\">Consumer Association</option>\n<option value=\"Consumer/General Public\">Consumer / General Public</option>\n<option value=\"Industry Association\">Industry Association</option>\n<option value=\"Industry/Commercial Sector\">Industry / Commercial Sector</option>\n<option value=\"Other Government Departments\">Other Government Departments</option>\t\t\t\n</select>\n</div>\n</div>\t\n\n<div class=\"form-group\">\n<label for=\"strAddress1\" class=\"col-md-4 control-label\"><span class=\"field-name\">Address 1:</span></label>\n<div class=\"col-md-8\">\n<input class=\"form-control\" id=\"strAddress1\" name=\"strAddress1\" type=\"text\">\n</div>\n</div>\n\n<div class=\"form-group\">\n<label for=\"strAddress2\" class=\"col-md-4 control-label\"><span class=\"field-name\">Address 2:</span></label>\n<div class=\"col-md-8\">\n<input class=\"form-control\" id=\"strAddress2\" name=\"strAddress2\" type=\"text\">\n</div>\n</div>\n\n<div class=\"form-group\">\n<label for=\"strCity\" class=\"col-md-4 control-label\"><span class=\"field-name\">City:</span></label>\n<div class=\"col-md-8\">\n<input class=\"form-control\" id=\"strCity\" name=\"strCity\" type=\"text\">\n</div>\n</div>\n\n<div class=\"form-group\">\n<label for=\"strProvince\" class=\"col-md-4 control-label\"><span class=\"field-name\">Province:</span></label>\n<div class=\"col-md-8\">\n<input class=\"form-control\" id=\"strProvince\" name=\"strProvince\" type=\"text\">\n</div>\n</div>\n\n<div class=\"form-group\">\n<label for=\"strCountry\" class=\"col-md-4 control-label\"><span class=\"field-name\">Country:</span></label>\n<div class=\"col-md-8\">\n<input class=\"form-control\" id=\"strCountry\" name=\"strCountry\" type=\"text\">\n</div>\n</div>\n\n<div class=\"form-group\">\n<label for=\"strPostal\" class=\"col-md-4 control-label\"><span class=\"field-name\">Postal Code:</span></label>\n<div class=\"col-md-8\">\n<input class=\"form-control\" id=\"strPostal\" name=\"strPostal\" type=\"text\">\n</div>\n</div>\n\n</fieldset>\t\n\n<input value=\"Submit Your Request\" id=\"btnSubmit\" name=\"btnSubmit\" class=\"btn btn-primary\" type=\"submit\"> \n<input value=\"Clear All Information\" id=\"btnReset\" name=\"btnReset\" class=\"btn btn-default\" type=\"reset\">\n\n</form>\n</div>\n<script src=\"https://ajax.googleapis.com/ajax/libs/jquery/2.1.1/jquery.min.js\"></script>\n<script type=\"text/javascript\">\n$(document).ready (function(){\n\tif($(\"#strPaper\").checked || $(\"#strBraille\").checked)\n\t{\n\t\tPaperBrailleChecked();\n\t}\n});\n\n$(document).on(\"change\", \"#strBraille\", function(){\n\tif($(\"#strBraille\").is(\":checked\"))\n\t{\n\t\tPaperBrailleChecked();\n\t}\n\telse if(!($(\"#strPaper\").is(\":checked\")))\n\t{\n\t\tPaperBrailleUnChecked();\n\t}\n});\n\n$(document).on(\"change\", \"#strPaper\", function(){\n\tif($(\"#strPaper\").is(\":checked\"))\n\t{\n\t\tPaperBrailleChecked();\n\t}\n\telse if(!($(\"#strBraille\").is(\":checked\")))\n\t{\n\t\tPaperBrailleUnChecked();\n\t}\n});\n\nfunction PaperBrailleChecked()\n{\n\t$(\"#strAddress1\").attr(\"required\", \"true\");\n\t$(\"#strCity\").attr(\"required\", \"true\");\n\t$(\"#strProvince\").attr(\"required\", \"true\");\n\t$(\"#strCountry\").attr(\"required\", \"true\");\n\t$(\"#strPostal\").attr(\"required\", \"true\");\n}\n\nfunction PaperBrailleUnChecked()\n{\n\t$(\"#strAddress1\").removeAttr(\"required\");\n\t$(\"#strCity\").removeAttr(\"required\");\n\t$(\"#strProvince\").removeAttr(\"required\");\n\t$(\"#strCountry\").removeAttr(\"required\");\n\t$(\"#strPostal\").removeAttr(\"required\");\n}\n</script>\r\n\r\n\r\n\r\n<div class=\"row\">\r\n \r\n\t\r\n\t\t\t\r\n\r\n<div class=\"col-xm-12 pagedetails container\">\r\n\t\t\t\t\r\n\r\n</div>\r\n\t\r\n</div>",
        "fr": "\r\n        \r\n        \n<h2>R\u00e9sum\u00e9</h2>\n<p>Le Plan d'action pour assurer la s\u00e9curit\u00e9 des produits alimentaires (PAASPA) vise \u00e0 moderniser et \u00e0 am\u00e9liorer le syst\u00e8me canadien de salubrit\u00e9 des aliments. Dans le cadre de l'initiative de surveillance accrue du <abbr title=\"Plan d'action pour assurer la s\u00e9curit\u00e9 des produits alimentaires\"> PAASPA</abbr>, des enqu\u00eates cibl\u00e9es sont effectu\u00e9es afin d'analyser en vue de d\u00e9celer des dangers pr\u00e9cis dans divers aliments.</p>\n<p>L'enqu\u00eate portant sur le bisph\u00e9nol A (BPA) avait comme principaux objectifs de :</p>\n<ul>\n<li>recueillir des donn\u00e9es de surveillance de base sur divers aliments et pr\u00e9parations pour nourrissons;</li>\n<li>examiner le lien qui existe entre les diff\u00e9rents types d'emballage et les concentrations de bisph\u00e9nol A dans les aliments.</li>\n</ul>\n<p>Deux cents \u00e9chantillons ont \u00e9t\u00e9 recueillis et analys\u00e9s \u00e0 l'\u00e9gard du bisph\u00e9nol A. Ils consistaient en 100 \u00e9chantillons d'aliments pour nourrissons (c\u00e9r\u00e9ales, pur\u00e9es de fruits et de l\u00e9gumes et repas mixtes) et en 100 \u00e9chantillons de pr\u00e9parations pour nourrissons (en poudre, pr\u00eates-\u00e0-servir et concentr\u00e9es). Des \u00e9chantillons pr\u00e9sent\u00e9s dans une grande vari\u00e9t\u00e9 de mat\u00e9riaux ont \u00e9t\u00e9 choisis afin d'examiner le lien entre l'emballage et les concentrations de bisph\u00e9nol A. Les types d'emballage \u00e9taient les suivants :</p>\n<ul>\n<li>contenants ou plateaux de plastique (plastique);</li>\n<li>carton recouvert d'un mat\u00e9riau de plastique imperm\u00e9able (papier-plastique);</li>\n<li>contenants de carton avec extr\u00e9mit\u00e9s de m\u00e9tal (papier-m\u00e9tal);</li>\n<li>bo\u00eetes m\u00e9talliques (m\u00e9tal);</li>\n<li>contenants de verre avec couvercle de m\u00e9tal (verre-m\u00e9tal).</li>\n</ul>\n<p>Sur un total de 200 \u00e9chantillons, 59 % ne contenaient aucune concentration d\u00e9tectable de bisph\u00e9nol A. Aucune des pr\u00e9parations pour nourrissons en poudre ou des c\u00e9r\u00e9ales pour nourrissons \u00e9chantillonn\u00e9es n'en contenait. Ces \u00e9chantillons \u00e9taient pr\u00e9sent\u00e9s dans des contenants de m\u00e9tal, des contenants de papier-plastique ou de papier-m\u00e9tal et \u00e9taient compos\u00e9s d'ingr\u00e9dients secs, ce qui rend peu probable la migration du bisph\u00e9nol A depuis les mat\u00e9riaux d'emballage. La quantit\u00e9 de bisph\u00e9nol A d\u00e9tect\u00e9e dans les aliments pour nourrissons (9 %) \u00e9tait minimale. Ces \u00e9chantillons \u00e9taient pr\u00e9sent\u00e9s dans des contenants de verre avec couvercle de m\u00e9tal ou des contenants de portions individuelles en plastique. \u00c0 l'inverse, 65 % des \u00e9chantillons de pr\u00e9parations pour nourrissons pr\u00eates \u00e0 servir et 100 % des \u00e9chantillons de pr\u00e9parations concentr\u00e9es pour nourrissons ayant fait l'objet d'analyses contenaient des r\u00e9sidus mesurables de bisph\u00e9nol A. Tous les \u00e9chantillons de pr\u00e9parations concentr\u00e9es pour nourrissons choisis \u00e9taient pr\u00e9sent\u00e9s dans des bo\u00eetes de m\u00e9tal. Les pr\u00e9parations pour nourrissons pr\u00eates \u00e0 servir \u00e9taient g\u00e9n\u00e9ralement pr\u00e9sent\u00e9es dans des bo\u00eetes de m\u00e9tal, mais un petit nombre \u00e9tait vendu dans des bouteilles de verre avec couvercle de m\u00e9tal.</p>\n<p>L'analyse en fonction de l'emballage alimentaire des \u00e9chantillons pr\u00e9sent\u00e9s dans des emballages de plastique, de papier-plastique et de papier-m\u00e9tal n'a montr\u00e9 aucun r\u00e9sidu mesurable de bisph\u00e9nol A. Les 82 \u00e9chantillons positifs pour la pr\u00e9sence de bisph\u00e9nol A \u00e9taient emball\u00e9s dans des bo\u00eetes m\u00e9talliques (70 \u00e9chantillons sur 89 ou 79 %) et des contenants de verre avec couvercle de m\u00e9tal (12 \u00e9chantillons sur 32 ou 38 %). Le bisph\u00e9nol A est un composant du rev\u00eatement int\u00e9rieur des contenants et des couvercles utilis\u00e9s pour emp\u00eacher le contact direct du m\u00e9tal avec les aliments. Les r\u00e9sidus pr\u00e9sents dans ce rev\u00eatement peuvent migrer dans les aliments, particuli\u00e8rement \u00e0 des temp\u00e9ratures \u00e9lev\u00e9es. Dans le cadre de la pr\u00e9sente \u00e9tude, les concentrations de bisph\u00e9nol A d\u00e9tect\u00e9es dans les aliments pour nourrissons et les pr\u00e9parations pour nourrissons se situaient entre 1,4 et 9,6 <abbr title=\"partie par milliard\">ppb</abbr>. Ces concentrations sont conformes aux r\u00e9sultats obtenus pr\u00e9c\u00e9demment au Canada et aux \u00c9tats-Unis. La consommation de ces produits entra\u00eenerait des expositions bien en de\u00e7\u00e0 de la dose journali\u00e8re admissible provisoire \u00e9tablie par Sant\u00e9 Canada, qui est de 25 <abbr title=\"microgramme\">\u03bcg</abbr>/<abbr title=\"kilogramme\">kg</abbr> de poids corporel par jour.</p>\n\r\n<style>\n/* required style */\n    .keyValue{\n\tdisplay: none !important;\n        visibility: hidden !important;\n</style>\n<h2>Demande de rapport complet</h2>\n<p>La version int\u00e9grale du pr\u00e9sent rapport est disponible sur demande.</p>\n\n<div class=\"wb-frmvld\">\n\n<form class=\"form-horizontal\" role=\"form\" method=\"post\" action=\"/active/netapp/comment/publicationposte.aspx#wb-cont\" name=\"frmPublication\">\n\n<input id=\"emailad0\" name=\"to\" class=\"hidden\" type=\"hidden\" aria-hidden=\"true\" value=\"G1KO7D/okDF2fHROWFvdl2/KYtnmUA+zd9Z3GygBtDD8m7nVzEcgKXH+aPUDVkfc+Q30SCib3FTrDPRtb/RAGSwsyBbzah9HDGBY6MuNL0Q=\">\n<input name=\"strLang\" type=\"hidden\" value=\"Francais\">\n<input name=\"strSubject\" type=\"hidden\" value=\"Demande de rapport de r\u00e9sidus chimiques / microbiologie\">\n<input name=\"strTitle\" type=\"hidden\" value=\"title\">\n<input name=\"strUrl\" type=\"hidden\" value=\"url\">\n<script type=\"text/javascript\">\n    document.frmPublication.strTitle.value = document.getElementsByTagName(\"title\")[0].innerHTML;\n    document.frmPublication.strUrl.value = document.URL;\n</script>\n        \n<fieldset class=\"mrgn-tp-md mrgn-bttm-lg\">\t\t\n\n<legend class=\"field-name required\"><span class=\"field-name\">Le format dans lequel vous souhaitez recevoir le rapport</span> <strong class=\"required\">(obligatoire)</strong></legend>\n\n<div class=\"checkbox\">\n<label for=\"strPdf\"><input type=\"checkbox\" name=\"formatsent\" id=\"strPdf\" value=\"pdf\" required=\"required\">Fichier \u00e9lectronique PDF (format de document portable) envoy\u00e9 par courriel</label>\n</div>\n\n<div class=\"checkbox\">\n<label for=\"strText\"><input type=\"checkbox\" name=\"formatsent\" id=\"strText\" value=\"text\">Fichier \u00e9lectronique RTF (<span lang=\"en\">Rich Text Format</span>) envoy\u00e9 par courriel</label>\n</div>\n\n<div class=\"checkbox\">\n<label for=\"strBraille\"><input type=\"checkbox\" name=\"formatsent\" id=\"strBraille\" value=\"braille\">Copie braille envoy\u00e9e par la poste</label>\n</div>\n\n<div class=\"checkbox\">\n<label for=\"strPaper\"><input type=\"checkbox\" name=\"formatsent\" id=\"strPaper\" value=\"paper\">Copie papier envoy\u00e9e par la poste</label>\n</div>\n\n</fieldset>\t\n\n<fieldset class=\"mrgn-tp-md mrgn-bttm-lg\">\t\t\n\n<legend class=\"field-name\">Vos coordonn\u00e9es</legend>\n\n<label class=\"keyValue\" for=\"name\"></label>\n<input class=\"keyValue\" autocomplete=\"off\" type=\"text\" id=\"name\" name=\"name\">\n<label class=\"keyValue\" for=\"email\"></label>\n<input class=\"keyValue\" autocomplete=\"off\" type=\"email\" id=\"email\" name=\"email\"> \n\n<div class=\"form-group\">\n<label for=\"strFirstName\" class=\"required col-md-4 control-label\"><span class=\"field-name\">Pr\u00e9nom :</span> <strong class=\"required\">(obligatoire)</strong></label>\n<div class=\"col-md-8\">\n<input class=\"form-control\" id=\"strFirstName\" name=\"strFirstName\" type=\"text\" required=\"required\" pattern=\".{2,}\" data-rule-minlength=\"2\">\n</div>\n</div>\n            \n<div class=\"form-group\">\n<label for=\"strLastName\" class=\"required col-md-4 control-label\"><span class=\"field-name\">Nom :</span> <strong class=\"required\">(obligatoire)</strong></label>\n<div class=\"col-md-8\">\n<input class=\"form-control\" id=\"strLastName\" name=\"strLastName\" type=\"text\" required=\"required\" pattern=\".{2,}\" data-rule-minlength=\"2\">\n</div>\n</div>\n\n<div class=\"form-group\">\n<label for=\"strEmail\" class=\"required col-md-4 control-label\"><span class=\"field-name\">Adresse de courriel :</span> \u00a0<strong class=\"required\">(obligatoire)</strong></label>\n<div class=\"col-md-8\">\n<input class=\"form-control\" id=\"strEmail\" name=\"strEmail\" type=\"email\" required=\"required\">\n</div>\n</div>\n\n<div class=\"form-group\">\n<label for=\"strConfirmEmail\" class=\"required col-md-4 control-label\"><span class=\"field-name\">Confirmer Adresse de courriel :</span>  <strong class=\"required\">(obligatoire)</strong></label>\n<div class=\"col-md-8\">\n<input class=\"form-control\" id=\"strConfirmEmail\" name=\"strConfirmEmail\" type=\"email\" data-rule-equalto=\"#strEmail\" required=\"required\">\n</div>\n</div>\n\n<div class=\"form-group mrgn-tp-md\">\n<label for=\"lstdescribe\" class=\"required col-md-4 control-label\"><span class=\"field-name\">Comment vous vous d\u00e9criviez?</span> <strong class=\"required\">(obligatoire)</strong></label>\n<div class=\"col-md-8\">\n<select class=\"form-control\" id=\"lstdescribe\" name=\"lstdescribe\" required=\"required\">\n<option label=\"Choisir parmi la liste\"></option>\n<option value=\"Acad\u00e9mie\">Acad\u00e9mie</option>\n<option value=\"Association sectorielle\">Association sectorielle</option>  \n<option value=\"Autres institutions du gouvernement\">Autres institutions du gouvernement</option>\n<option value=\"Consommateur/Grand public\">Consommateur / Grand public</option>\n<option value=\"Groupe de consommateur\">Groupe de consommateur</option>\n<option value=\"Industrie/Secteur commercial\">Industrie / Secteur commercial</option>\n</select>\n</div>\n</div>\t\n\n<div class=\"form-group\">\n<label for=\"strAddress1\" class=\"col-md-4 control-label\"><span class=\"field-name\">Adresse 1 :</span></label>\n<div class=\"col-md-8\">\n<input class=\"form-control\" id=\"strAddress1\" name=\"strAddress1\" type=\"text\">\n</div>\n</div>\n\n<div class=\"form-group\">\n<label for=\"strAddress2\" class=\"col-md-4 control-label\"><span class=\"field-name\">Adresse 2 :</span></label>\n<div class=\"col-md-8\">\n<input class=\"form-control\" id=\"strAddress2\" name=\"strAddress2\" type=\"text\">\n</div>\n</div>\n\n<div class=\"form-group\">\n<label for=\"strCity\" class=\"col-md-4 control-label\"><span class=\"field-name\">Ville :</span></label>\n<div class=\"col-md-8\">\n<input class=\"form-control\" id=\"strCity\" name=\"strCity\" type=\"text\">\n</div>\n</div>\n\n<div class=\"form-group\">\n<label for=\"strProvince\" class=\"col-md-4 control-label\"><span class=\"field-name\">Province :</span></label>\n<div class=\"col-md-8\">\n<input class=\"form-control\" id=\"strProvince\" name=\"strProvince\" type=\"text\">\n</div>\n</div>\n\n<div class=\"form-group\">\n<label for=\"strCountry\" class=\"col-md-4 control-label\"><span class=\"field-name\">Pays : </span></label>\n<div class=\"col-md-8\">\n<input class=\"form-control\" id=\"strCountry\" name=\"strCountry\" type=\"text\">\n</div>\n</div>\n\n<div class=\"form-group\">\n<label for=\"strPostal\" class=\"col-md-4 control-label\"><span class=\"field-name\">Code postal : </span></label>\n<div class=\"col-md-8\">\n<input class=\"form-control\" id=\"strPostal\" name=\"strPostal\" type=\"text\">\n</div>\n</div>\n\n</fieldset>\t\n\n<input value=\"Soumettre votre demande\" id=\"btnSubmit\" name=\"btnSubmit\" class=\"btn btn-primary\" type=\"submit\"> \n<input value=\"Effacez tous les renseignements\" id=\"btnReset\" name=\"btnReset\" class=\"btn btn-default\" type=\"reset\">\n\n</form>\n</div>\n<script src=\"https://ajax.googleapis.com/ajax/libs/jquery/2.1.1/jquery.min.js\"></script>\n<script type=\"text/javascript\">\n$(document).ready (function(){\n\tif($(\"#strPaper\").checked || $(\"#strBraille\").checked)\n\t{\n\t\tPaperBrailleChecked();\n\t}\n});\n\n$(document).on(\"change\", \"#strBraille\", function(){\n\tif($(\"#strBraille\").is(\":checked\"))\n\t{\n\t\tPaperBrailleChecked();\n\t}\n\telse if(!($(\"#strPaper\").is(\":checked\")))\n\t{\n\t\tPaperBrailleUnChecked();\n\t}\n});\n\n$(document).on(\"change\", \"#strPaper\", function(){\n\tif($(\"#strPaper\").is(\":checked\"))\n\t{\n\t\tPaperBrailleChecked();\n\t}\n\telse if(!($(\"#strBraille\").is(\":checked\")))\n\t{\n\t\tPaperBrailleUnChecked();\n\t}\n});\n\nfunction PaperBrailleChecked()\n{\n\t$(\"#strAddress1\").attr(\"required\", \"true\");\n\t$(\"#strCity\").attr(\"required\", \"true\");\n\t$(\"#strProvince\").attr(\"required\", \"true\");\n\t$(\"#strCountry\").attr(\"required\", \"true\");\n\t$(\"#strPostal\").attr(\"required\", \"true\");\n}\n\nfunction PaperBrailleUnChecked()\n{\n\t$(\"#strAddress1\").removeAttr(\"required\");\n\t$(\"#strCity\").removeAttr(\"required\");\n\t$(\"#strProvince\").removeAttr(\"required\");\n\t$(\"#strCountry\").removeAttr(\"required\");\n\t$(\"#strPostal\").removeAttr(\"required\");\n}\n</script>\r\n\r\n<div class=\"row\">\r\n \r\n\t\t\t\r\n\t\t\t\r\n\r\n\t\t\r\n\t\r\n</div>"
    },
    "success": true,
    "chat_wizard": false
}