{
    "dcr_id": "1348080494670",
    "title": {
        "en": "2010-2011 Sulphites in Fruit Spreads",
        "fr": "2010-2011 Sulfites dans les tartinades aux fruits"
    },
    "html_modified": "2024-02-13 9:47:42 AM",
    "modified": "2018-09-04",
    "issued": "2018-06-05",
    "teamsite_location": {
        "en": "/default/main/inspection/cont-cont/food-aliments/STAGING/templatedata/comn-comn/forms-formes/data/chem_residue_reports_2010-2011_sulphites_1348080494670_eng",
        "fr": "/default/main/inspection/cont-cont/food-aliments/STAGING/templatedata/comn-comn/forms-formes/data/chem_residue_reports_2010-2011_sulphites_1348080494670_fra"
    },
    "ia_id": "1348080786972",
    "parent_ia_id": "1453327843364",
    "chronicletopic": {
        "en": "",
        "fr": ""
    },
    "chroniclecontent": {
        "en": "",
        "fr": ""
    },
    "chronicleaudience": {
        "en": "",
        "fr": ""
    },
    "sfcrdocumenttype": {
        "en": "",
        "fr": ""
    },
    "sfcraudience": {
        "en": "",
        "fr": ""
    },
    "sfcrmethodofproduction": {
        "en": "",
        "fr": ""
    },
    "activity": {
        "en": "",
        "fr": ""
    },
    "commodity": {
        "en": "",
        "fr": ""
    },
    "program": {
        "en": "",
        "fr": ""
    },
    "search_type": "other",
    "parent_node_id": "1453327843364",
    "layout_name": "content page 1 column",
    "breadcrumb": {
        "en": "2010-2011 Sulphites in Fruit Spreads",
        "fr": "2010-2011 Sulfites dans les tartinades aux fruits"
    },
    "label": {
        "en": "2010-2011 Sulphites in Fruit Spreads",
        "fr": "2010-2011 Sulfites dans les tartinades aux fruits"
    },
    "templatetype": "content page 1 column",
    "node_id": "1348080786972",
    "managing_branch": "comn",
    "type_name": "forms-formes",
    "dcr_type": "forms-formes",
    "parent_dcr_id": "1453324778043",
    "has_dcr_id": true,
    "lang": "en",
    "could_not_load": 0,
    "refaire": false,
    "interwoven_url": {
        "en": "/food-safety-for-industry/food-chemistry-and-microbiology/food-safety-testing-reports-and-journal-articles/sulphites/",
        "fr": "/salubrite-alimentaire-pour-l-industrie/chimie-et-microbiologie-alimentaires/rapports-d-analyse-et-articles-de-revues-sur-la-sa/sulfites/"
    },
    "meta": {
        "viewport": {
            "en": "width=device-width,initial-scale=1",
            "fr": "width=device-width,initial-scale=1"
        },
        "service": {
            "en": "CFIA-ACIA",
            "fr": "CFIA-ACIA"
        },
        "accessRights": {
            "en": "2",
            "fr": "2"
        },
        "title": {
            "en": "2010-2011 Sulphites in Fruit Spreads",
            "fr": "2010-2011 Sulfites dans les tartinades aux fruits"
        },
        "description": {
            "en": "A total of 48 fruit spreads, including butters, jams, jellies, marmalades and preserves were analyzed for the presence of undeclared sulphites. The 3 samples that contained sulphites are being followed up by CFIA.",
            "fr": "Au total, 48 tartinades \u00e0 base de fruits (beurres, confitures, gel\u00e9es, marmelades et fruits en conserve, entre autres) ont \u00e9t\u00e9 analys\u00e9es aux fins de d\u00e9tection de sulfites non d\u00e9clar\u00e9s. Les trois \u00e9chantillons qui contenaient des sulfites font actuellement l'objet d'un suivi par l'ACIA."
        },
        "keywords": {
            "en": "chemical residues, testing, sampling, reporting, fruits spreads, sulphites, butter, jams, jellies, marmalades, preserves",
            "fr": "R\u00e9sidus chimiques, essai, pr\u00e9l\u00e8vement, \u00a0rapports, sulfites, tartinades aux fruits, beurres, confitures, gel\u00e9es, marmelades, fruits en conserve"
        },
        "dcterms.subject": {
            "en": "agri-food products,assessment,butter,food inspection,food safety,fruits,inspection,scientific research",
            "fr": "produit agro-alimentaire,\u00e9valuation,beurre,inspection des aliments,salubrit\u00e9 des aliments,fruit,inspection,recherche scientifique"
        },
        "creator": {
            "en": "Government of Canada,Canadian Food Inspection Agency,Food Safety Science Directorate",
            "fr": "Gouvernement du Canada,Agence canadienne d'inspection des aliments,Direction des sciences de la salubrit\u00e9 des aliments"
        },
        "language": {
            "en": "eng",
            "fr": "fra"
        },
        "issued": {
            "en": "2018-06-05",
            "fr": "2018-06-05"
        },
        "modified": {
            "en": "2018-09-04",
            "fr": "2018-09-04"
        },
        "type": {
            "en": "reference material,report",
            "fr": "mat\u00e9riel de r\u00e9f\u00e9rence,rapport"
        },
        "audience": {
            "en": "business,general public,government,scientists",
            "fr": "entreprises,grand public,gouvernement,Scientifiques"
        },
        "name": {
            "en": "Government of Canada",
            "fr": "Gouvernement du Canada"
        },
        "areaServed": {
            "en": "Canada",
            "fr": "Canada"
        }
    },
    "h1": {
        "en": "2010-2011 Sulphites in Fruit Spreads",
        "fr": "2010-2011 Sulfites dans les tartinades aux fruits"
    },
    "js": {
        "en": "<script>\n    document.frmPublication.strTitle.value = document.getElementsByTagName(\"title\")[0].innerHTML;\n    document.frmPublication.strUrl.value = document.URL;\n</script>/* --------------------- MORE JAVASCRIPT ------------------- */<script>\n$(document).ready (function(){\n\tif($(\"#strPaper\").checked || $(\"#strBraille\").checked)\n\t{\n\t\tPaperBrailleChecked();\n\t}\n});\n\n$(document).on(\"change\", \"#strBraille\", function(){\n\tif($(\"#strBraille\").is(\":checked\"))\n\t{\n\t\tPaperBrailleChecked();\n\t}\n\telse if(!($(\"#strPaper\").is(\":checked\")))\n\t{\n\t\tPaperBrailleUnChecked();\n\t}\n});\n\n$(document).on(\"change\", \"#strPaper\", function(){\n\tif($(\"#strPaper\").is(\":checked\"))\n\t{\n\t\tPaperBrailleChecked();\n\t}\n\telse if(!($(\"#strBraille\").is(\":checked\")))\n\t{\n\t\tPaperBrailleUnChecked();\n\t}\n});\n\nfunction PaperBrailleChecked()\n{\n\t$(\"#strAddress1\").attr(\"required\", \"true\");\n\t$(\"#strCity\").attr(\"required\", \"true\");\n\t$(\"#strProvince\").attr(\"required\", \"true\");\n\t$(\"#strCountry\").attr(\"required\", \"true\");\n\t$(\"#strPostal\").attr(\"required\", \"true\");\n}\n\nfunction PaperBrailleUnChecked()\n{\n\t$(\"#strAddress1\").removeAttr(\"required\");\n\t$(\"#strCity\").removeAttr(\"required\");\n\t$(\"#strProvince\").removeAttr(\"required\");\n\t$(\"#strCountry\").removeAttr(\"required\");\n\t$(\"#strPostal\").removeAttr(\"required\");\n}\n</script>",
        "fr": "<script>\n    document.frmPublication.strTitle.value = document.getElementsByTagName(\"title\")[0].innerHTML;\n    document.frmPublication.strUrl.value = document.URL;\n</script>/* --------------------- MORE JAVASCRIPT ------------------- */<script>\n$(document).ready (function(){\n\tif($(\"#strPaper\").checked || $(\"#strBraille\").checked)\n\t{\n\t\tPaperBrailleChecked();\n\t}\n});\n\n$(document).on(\"change\", \"#strBraille\", function(){\n\tif($(\"#strBraille\").is(\":checked\"))\n\t{\n\t\tPaperBrailleChecked();\n\t}\n\telse if(!($(\"#strPaper\").is(\":checked\")))\n\t{\n\t\tPaperBrailleUnChecked();\n\t}\n});\n\n$(document).on(\"change\", \"#strPaper\", function(){\n\tif($(\"#strPaper\").is(\":checked\"))\n\t{\n\t\tPaperBrailleChecked();\n\t}\n\telse if(!($(\"#strBraille\").is(\":checked\")))\n\t{\n\t\tPaperBrailleUnChecked();\n\t}\n});\n\nfunction PaperBrailleChecked()\n{\n\t$(\"#strAddress1\").attr(\"required\", \"true\");\n\t$(\"#strCity\").attr(\"required\", \"true\");\n\t$(\"#strProvince\").attr(\"required\", \"true\");\n\t$(\"#strCountry\").attr(\"required\", \"true\");\n\t$(\"#strPostal\").attr(\"required\", \"true\");\n}\n\nfunction PaperBrailleUnChecked()\n{\n\t$(\"#strAddress1\").removeAttr(\"required\");\n\t$(\"#strCity\").removeAttr(\"required\");\n\t$(\"#strProvince\").removeAttr(\"required\");\n\t$(\"#strCountry\").removeAttr(\"required\");\n\t$(\"#strPostal\").removeAttr(\"required\");\n}\n</script>"
    },
    "mode_html": "no_editor_full",
    "body": {
        "en": "        \r\n        \n<h2>Summary</h2>\n<p>The Food Safety Action Plan (FSAP) aims to modernize and enhance Canada\u2019s food safety system. As part of the <abbr title=\"Food Safety Action Plan\">FSAP</abbr> enhanced surveillance initiative, targeted surveys are used to evaluate various foods for specific hazards.</p>\n<p>The main objectives of the undeclared sulphites in fruit spreads survey were:</p>\n<ul>\n<li>to obtain baseline information regarding the presence and levels of undeclared sulphites in fruit spreads, and;</li>\n<li>to identify potential food safety concerns relating to undeclared sulphites in fruit spreads.</li>\n</ul>\n<p>A total of 48 fruit spreads, including butters, jams, jellies, marmalades and preserves were analyzed for the presence of undeclared sulphites. The 3 samples that contained sulphites are being followed up by <abbr title=\"Canadian Food Inspection Agency\">CFIA</abbr>. Follow up action may involve a food safety investigation, including a health risk assessment conducted by Health Canada and a recall or one of the following: notification of manufacturer/importer and/or additional sampling.</p>\r\n<style>\n/* required style */\n    .keyValue{\n\tdisplay: none !important;\n        visibility: hidden !important;\n</style>\n<h2>Request of Complete Report</h2>\n<p>The complete text of this report is available upon request.</p>\n\n<div class=\"wb-frmvld\">\n\n<form class=\"form-horizontal\" role=\"form\" method=\"post\" action=\"/active/netapp/comment/publicationposte.aspx#wb-cont\" name=\"frmPublication\">\n<input id=\"emailad0\" name=\"to\" class=\"hidden\" type=\"hidden\" aria-hidden=\"true\" value=\"hw96dGUQEdPEcOkevPJTPe3GZ1SSJLoyPwnBF8Fon2GYB4jO1DI/e00ADhoALW4Wtazv09X+Y5ZRdSnNc9UiQMjNqihW1632L32H4iVgor4=\">\n<input name=\"strLang\" type=\"hidden\" value=\"English\">\n<input name=\"strSubject\" type=\"hidden\" value=\"Chemical Residues / Microbiology Report Request\">\n<input name=\"strTitle\" type=\"hidden\" value=\"title\">\n<input name=\"strUrl\" type=\"hidden\" value=\"url\">\n<script type=\"text/javascript\">\n    document.frmPublication.strTitle.value = document.getElementsByTagName(\"title\")[0].innerHTML;\n    document.frmPublication.strUrl.value = document.URL;\n</script>\n        \n<fieldset class=\"mrgn-tp-md mrgn-bttm-lg\">\t\t\n\n<legend class=\"field-name required\"><span class=\"field-name\">The format in which you would like to receive the report</span> <strong class=\"required\">(required)</strong></legend>\n\n<div class=\"checkbox\">\n<label for=\"strPdf\"><input type=\"checkbox\" name=\"formatsent\" id=\"strPdf\" value=\"pdf\" required=\"required\">PDF (Portable Document Format) electronic file sent to you by email</label>\n</div>\n\n<div class=\"checkbox\">\n<label for=\"strText\"><input type=\"checkbox\" name=\"formatsent\" id=\"strText\" value=\"text\">RTF (Rich Text Format) electronic file sent to you by email</label>\n</div>\n\n<div class=\"checkbox\">\n<label for=\"strBraille\"><input type=\"checkbox\" name=\"formatsent\" id=\"strBraille\" value=\"braille\">Braille copy sent to you by mail</label>\n</div>\n\n<div class=\"checkbox\">\n<label for=\"strPaper\"><input type=\"checkbox\" name=\"formatsent\" id=\"strPaper\" value=\"paper\">Paper copy sent to you by mail</label>\n</div>\n\n</fieldset>\t\n\n<fieldset class=\"mrgn-tp-md mrgn-bttm-lg\">\t\t\n\n<legend class=\"field-name\">Your contact information</legend>\n\n<label class=\"keyValue\" for=\"name\"></label>\n<input class=\"keyValue\" autocomplete=\"off\" type=\"text\" id=\"name\" name=\"name\">\n<label class=\"keyValue\" for=\"email\"></label>\n<input class=\"keyValue\" autocomplete=\"off\" type=\"email\" id=\"email\" name=\"email\"> \n\n<div class=\"form-group\">\n<label for=\"strFirstName\" class=\"required col-md-4 control-label\"><span class=\"field-name\">First name:</span> <strong class=\"required\">(required)</strong></label>\n<div class=\"col-md-8\">\n<input class=\"form-control\" id=\"strFirstName\" name=\"strFirstName\" type=\"text\" required=\"required\" pattern=\".{2,}\" data-rule-minlength=\"2\">\n</div>\n</div>\n            \n<div class=\"form-group\">\n<label for=\"strLastName\" class=\"required col-md-4 control-label\"><span class=\"field-name\">Last name:</span> <strong class=\"required\">(required)</strong></label>\n<div class=\"col-md-8\">\n<input class=\"form-control\" id=\"strLastName\" name=\"strLastName\" type=\"text\" required=\"required\" pattern=\".{2,}\" data-rule-minlength=\"2\">\n</div>\n</div>\n\n<div class=\"form-group\">\n<label for=\"strEmail\" class=\"required col-md-4 control-label\"><span class=\"field-name\">Email address:</span>  <strong class=\"required\">(required)</strong></label>\n<div class=\"col-md-8\">\n<input class=\"form-control\" id=\"strEmail\" name=\"strEmail\" type=\"email\" required=\"required\">\n</div>\n</div>\n\n<div class=\"form-group\">\n<label for=\"strConfirmEmail\" class=\"required col-md-4 control-label\"><span class=\"field-name\">Confirm email address:</span>  <strong class=\"required\">(required)</strong></label>\n<div class=\"col-md-8\">\n<input class=\"form-control\" id=\"strConfirmEmail\" name=\"strConfirmEmail\" type=\"email\" data-rule-equalto=\"#strEmail\" required=\"required\">\n</div>\n</div>\n\n<div class=\"form-group mrgn-tp-md\">\n<label for=\"lstdescribe\" class=\"required col-md-4 control-label\"><span class=\"field-name\">How would you describe yourself?</span> <strong class=\"required\">(required)</strong></label>\n<div class=\"col-md-8\">\n<select class=\"form-control\" id=\"lstdescribe\" name=\"lstdescribe\" required=\"required\">\n<option label=\"Select from this list\"></option>\n<option value=\"Academia\">Academia</option>\n<option value=\"Consumer Association\">Consumer Association</option>\n<option value=\"Consumer/General Public\">Consumer / General Public</option>\n<option value=\"Industry Association\">Industry Association</option>\n<option value=\"Industry/Commercial Sector\">Industry / Commercial Sector</option>\n<option value=\"Other Government Departments\">Other Government Departments</option>\t\t\t\n</select>\n</div>\n</div>\t\n\n<div class=\"form-group\">\n<label for=\"strAddress1\" class=\"col-md-4 control-label\"><span class=\"field-name\">Address 1:</span></label>\n<div class=\"col-md-8\">\n<input class=\"form-control\" id=\"strAddress1\" name=\"strAddress1\" type=\"text\">\n</div>\n</div>\n\n<div class=\"form-group\">\n<label for=\"strAddress2\" class=\"col-md-4 control-label\"><span class=\"field-name\">Address 2:</span></label>\n<div class=\"col-md-8\">\n<input class=\"form-control\" id=\"strAddress2\" name=\"strAddress2\" type=\"text\">\n</div>\n</div>\n\n<div class=\"form-group\">\n<label for=\"strCity\" class=\"col-md-4 control-label\"><span class=\"field-name\">City:</span></label>\n<div class=\"col-md-8\">\n<input class=\"form-control\" id=\"strCity\" name=\"strCity\" type=\"text\">\n</div>\n</div>\n\n<div class=\"form-group\">\n<label for=\"strProvince\" class=\"col-md-4 control-label\"><span class=\"field-name\">Province:</span></label>\n<div class=\"col-md-8\">\n<input class=\"form-control\" id=\"strProvince\" name=\"strProvince\" type=\"text\">\n</div>\n</div>\n\n<div class=\"form-group\">\n<label for=\"strCountry\" class=\"col-md-4 control-label\"><span class=\"field-name\">Country:</span></label>\n<div class=\"col-md-8\">\n<input class=\"form-control\" id=\"strCountry\" name=\"strCountry\" type=\"text\">\n</div>\n</div>\n\n<div class=\"form-group\">\n<label for=\"strPostal\" class=\"col-md-4 control-label\"><span class=\"field-name\">Postal Code:</span></label>\n<div class=\"col-md-8\">\n<input class=\"form-control\" id=\"strPostal\" name=\"strPostal\" type=\"text\">\n</div>\n</div>\n\n</fieldset>\t\n\n<input value=\"Submit Your Request\" id=\"btnSubmit\" name=\"btnSubmit\" class=\"btn btn-primary\" type=\"submit\"> \n<input value=\"Clear All Information\" id=\"btnReset\" name=\"btnReset\" class=\"btn btn-default\" type=\"reset\">\n\n</form>\n</div>\n<script src=\"https://ajax.googleapis.com/ajax/libs/jquery/2.1.1/jquery.min.js\"></script>\n<script type=\"text/javascript\">\n$(document).ready (function(){\n\tif($(\"#strPaper\").checked || $(\"#strBraille\").checked)\n\t{\n\t\tPaperBrailleChecked();\n\t}\n});\n\n$(document).on(\"change\", \"#strBraille\", function(){\n\tif($(\"#strBraille\").is(\":checked\"))\n\t{\n\t\tPaperBrailleChecked();\n\t}\n\telse if(!($(\"#strPaper\").is(\":checked\")))\n\t{\n\t\tPaperBrailleUnChecked();\n\t}\n});\n\n$(document).on(\"change\", \"#strPaper\", function(){\n\tif($(\"#strPaper\").is(\":checked\"))\n\t{\n\t\tPaperBrailleChecked();\n\t}\n\telse if(!($(\"#strBraille\").is(\":checked\")))\n\t{\n\t\tPaperBrailleUnChecked();\n\t}\n});\n\nfunction PaperBrailleChecked()\n{\n\t$(\"#strAddress1\").attr(\"required\", \"true\");\n\t$(\"#strCity\").attr(\"required\", \"true\");\n\t$(\"#strProvince\").attr(\"required\", \"true\");\n\t$(\"#strCountry\").attr(\"required\", \"true\");\n\t$(\"#strPostal\").attr(\"required\", \"true\");\n}\n\nfunction PaperBrailleUnChecked()\n{\n\t$(\"#strAddress1\").removeAttr(\"required\");\n\t$(\"#strCity\").removeAttr(\"required\");\n\t$(\"#strProvince\").removeAttr(\"required\");\n\t$(\"#strCountry\").removeAttr(\"required\");\n\t$(\"#strPostal\").removeAttr(\"required\");\n}\n</script>\r\n\r\n\r\n\r\n<div class=\"row\">\r\n \r\n\t\r\n\t\t\t\r\n\r\n<div class=\"col-xm-12 pagedetails container\">\r\n\t\t\t\t\r\n\r\n</div>\r\n\t\r\n</div>",
        "fr": "\r\n        \r\n        \n<h2>R\u00e9sum\u00e9</h2>\n<p>Le Plan d'action pour assurer la s\u00e9curit\u00e9 des produits alimentaires (PAASPA) vise \u00e0 moderniser et \u00e0 renforcer le syst\u00e8me de salubrit\u00e9 des aliments du Canada. Dans le cadre de l'initiative de surveillance accrue du <abbr title=\"Plan d'action pour assurer la s\u00e9curit\u00e9 des produits alimentaires\">PAASPA</abbr>, des enqu\u00eates cibl\u00e9es sont effectu\u00e9es afin d'\u00e9valuer divers aliments en vue de d\u00e9celer certains dangers.</p>\n<p>Voici les principaux objectifs de l'enqu\u00eate sur la pr\u00e9sence non d\u00e9clar\u00e9e de sulfites dans les tartinades aux fruits\u00a0:</p>\n<ul>\n<li>Obtenir des renseignements de base sur la pr\u00e9sence et les niveaux de sulfites dans les tartinades de fruits;</li>\n<li>Cerner les risques en mati\u00e8re de salubrit\u00e9 des aliments concernant la pr\u00e9sence de sulfites non d\u00e9clar\u00e9e dans les tartinades aux fruits.</li>\n</ul>\n<p>Au total, 48 tartinades \u00e0 base de fruits (beurres, confitures, gel\u00e9es, marmelades et fruits en conserve, entre autres) ont \u00e9t\u00e9 analys\u00e9es aux fins de d\u00e9tection de sulfites non d\u00e9clar\u00e9s. Les trois \u00e9chantillons qui contenaient des sulfites font actuellement l'objet d'un suivi par l'<abbr title=\"Agence canadienne d'inspection des aliments\">ACIA</abbr>, qui peut se traduire par une enqu\u00eate sur la salubrit\u00e9 des aliments, y compris une analyse des risques pour la sant\u00e9 effectu\u00e9e par Sant\u00e9 Canada et un rappel, ou encore un avis envoy\u00e9 au fabricant ou \u00e0 l'importateur ou un autre \u00e9chantillonnage.</p>\r\n<style>\n/* required style */\n    .keyValue{\n\tdisplay: none !important;\n        visibility: hidden !important;\n</style>\n<h2>Demande de rapport complet</h2>\n<p>La version int\u00e9grale du pr\u00e9sent rapport est disponible sur demande.</p>\n\n<div class=\"wb-frmvld\">\n\n<form class=\"form-horizontal\" role=\"form\" method=\"post\" action=\"/active/netapp/comment/publicationposte.aspx#wb-cont\" name=\"frmPublication\">\n\n<input id=\"emailad0\" name=\"to\" class=\"hidden\" type=\"hidden\" aria-hidden=\"true\" value=\"IfwkdkbXR7vBF+ST59wG4fyMUd12My0KbAfuDjCuNPPoZzw/UAGZ/uNMAevOP7Dbtu/73tjYS4d2z1zpMWR5CIK0H5iaNBddKI87RI9mf5M=\">\n<input name=\"strLang\" type=\"hidden\" value=\"Francais\">\n<input name=\"strSubject\" type=\"hidden\" value=\"Demande de rapport de r\u00e9sidus chimiques / microbiologie\">\n<input name=\"strTitle\" type=\"hidden\" value=\"title\">\n<input name=\"strUrl\" type=\"hidden\" value=\"url\">\n<script type=\"text/javascript\">\n    document.frmPublication.strTitle.value = document.getElementsByTagName(\"title\")[0].innerHTML;\n    document.frmPublication.strUrl.value = document.URL;\n</script>\n        \n<fieldset class=\"mrgn-tp-md mrgn-bttm-lg\">\t\t\n\n<legend class=\"field-name required\"><span class=\"field-name\">Le format dans lequel vous souhaitez recevoir le rapport</span> <strong class=\"required\">(obligatoire)</strong></legend>\n\n<div class=\"checkbox\">\n<label for=\"strPdf\"><input type=\"checkbox\" name=\"formatsent\" id=\"strPdf\" value=\"pdf\" required=\"required\">Fichier \u00e9lectronique PDF (format de document portable) envoy\u00e9 par courriel</label>\n</div>\n\n<div class=\"checkbox\">\n<label for=\"strText\"><input type=\"checkbox\" name=\"formatsent\" id=\"strText\" value=\"text\">Fichier \u00e9lectronique RTF (<span lang=\"en\">Rich Text Format</span>) envoy\u00e9 par courriel</label>\n</div>\n\n<div class=\"checkbox\">\n<label for=\"strBraille\"><input type=\"checkbox\" name=\"formatsent\" id=\"strBraille\" value=\"braille\">Copie braille envoy\u00e9e par la poste</label>\n</div>\n\n<div class=\"checkbox\">\n<label for=\"strPaper\"><input type=\"checkbox\" name=\"formatsent\" id=\"strPaper\" value=\"paper\">Copie papier envoy\u00e9e par la poste</label>\n</div>\n\n</fieldset>\t\n\n<fieldset class=\"mrgn-tp-md mrgn-bttm-lg\">\t\t\n\n<legend class=\"field-name\">Vos coordonn\u00e9es</legend>\n\n<label class=\"keyValue\" for=\"name\"></label>\n<input class=\"keyValue\" autocomplete=\"off\" type=\"text\" id=\"name\" name=\"name\">\n<label class=\"keyValue\" for=\"email\"></label>\n<input class=\"keyValue\" autocomplete=\"off\" type=\"email\" id=\"email\" name=\"email\"> \n\n<div class=\"form-group\">\n<label for=\"strFirstName\" class=\"required col-md-4 control-label\"><span class=\"field-name\">Pr\u00e9nom :</span> <strong class=\"required\">(obligatoire)</strong></label>\n<div class=\"col-md-8\">\n<input class=\"form-control\" id=\"strFirstName\" name=\"strFirstName\" type=\"text\" required=\"required\" pattern=\".{2,}\" data-rule-minlength=\"2\">\n</div>\n</div>\n            \n<div class=\"form-group\">\n<label for=\"strLastName\" class=\"required col-md-4 control-label\"><span class=\"field-name\">Nom :</span> <strong class=\"required\">(obligatoire)</strong></label>\n<div class=\"col-md-8\">\n<input class=\"form-control\" id=\"strLastName\" name=\"strLastName\" type=\"text\" required=\"required\" pattern=\".{2,}\" data-rule-minlength=\"2\">\n</div>\n</div>\n\n<div class=\"form-group\">\n<label for=\"strEmail\" class=\"required col-md-4 control-label\"><span class=\"field-name\">Adresse de courriel :</span> \u00a0<strong class=\"required\">(obligatoire)</strong></label>\n<div class=\"col-md-8\">\n<input class=\"form-control\" id=\"strEmail\" name=\"strEmail\" type=\"email\" required=\"required\">\n</div>\n</div>\n\n<div class=\"form-group\">\n<label for=\"strConfirmEmail\" class=\"required col-md-4 control-label\"><span class=\"field-name\">Confirmer Adresse de courriel :</span>  <strong class=\"required\">(obligatoire)</strong></label>\n<div class=\"col-md-8\">\n<input class=\"form-control\" id=\"strConfirmEmail\" name=\"strConfirmEmail\" type=\"email\" data-rule-equalto=\"#strEmail\" required=\"required\">\n</div>\n</div>\n\n<div class=\"form-group mrgn-tp-md\">\n<label for=\"lstdescribe\" class=\"required col-md-4 control-label\"><span class=\"field-name\">Comment vous vous d\u00e9criviez?</span> <strong class=\"required\">(obligatoire)</strong></label>\n<div class=\"col-md-8\">\n<select class=\"form-control\" id=\"lstdescribe\" name=\"lstdescribe\" required=\"required\">\n<option label=\"Choisir parmi la liste\"></option>\n<option value=\"Acad\u00e9mie\">Acad\u00e9mie</option>\n<option value=\"Association sectorielle\">Association sectorielle</option>  \n<option value=\"Autres institutions du gouvernement\">Autres institutions du gouvernement</option>\n<option value=\"Consommateur/Grand public\">Consommateur / Grand public</option>\n<option value=\"Groupe de consommateur\">Groupe de consommateur</option>\n<option value=\"Industrie/Secteur commercial\">Industrie / Secteur commercial</option>\n</select>\n</div>\n</div>\t\n\n<div class=\"form-group\">\n<label for=\"strAddress1\" class=\"col-md-4 control-label\"><span class=\"field-name\">Adresse 1 :</span></label>\n<div class=\"col-md-8\">\n<input class=\"form-control\" id=\"strAddress1\" name=\"strAddress1\" type=\"text\">\n</div>\n</div>\n\n<div class=\"form-group\">\n<label for=\"strAddress2\" class=\"col-md-4 control-label\"><span class=\"field-name\">Adresse 2 :</span></label>\n<div class=\"col-md-8\">\n<input class=\"form-control\" id=\"strAddress2\" name=\"strAddress2\" type=\"text\">\n</div>\n</div>\n\n<div class=\"form-group\">\n<label for=\"strCity\" class=\"col-md-4 control-label\"><span class=\"field-name\">Ville :</span></label>\n<div class=\"col-md-8\">\n<input class=\"form-control\" id=\"strCity\" name=\"strCity\" type=\"text\">\n</div>\n</div>\n\n<div class=\"form-group\">\n<label for=\"strProvince\" class=\"col-md-4 control-label\"><span class=\"field-name\">Province :</span></label>\n<div class=\"col-md-8\">\n<input class=\"form-control\" id=\"strProvince\" name=\"strProvince\" type=\"text\">\n</div>\n</div>\n\n<div class=\"form-group\">\n<label for=\"strCountry\" class=\"col-md-4 control-label\"><span class=\"field-name\">Pays : </span></label>\n<div class=\"col-md-8\">\n<input class=\"form-control\" id=\"strCountry\" name=\"strCountry\" type=\"text\">\n</div>\n</div>\n\n<div class=\"form-group\">\n<label for=\"strPostal\" class=\"col-md-4 control-label\"><span class=\"field-name\">Code postal : </span></label>\n<div class=\"col-md-8\">\n<input class=\"form-control\" id=\"strPostal\" name=\"strPostal\" type=\"text\">\n</div>\n</div>\n\n</fieldset>\t\n\n<input value=\"Soumettre votre demande\" id=\"btnSubmit\" name=\"btnSubmit\" class=\"btn btn-primary\" type=\"submit\"> \n<input value=\"Effacez tous les renseignements\" id=\"btnReset\" name=\"btnReset\" class=\"btn btn-default\" type=\"reset\">\n\n</form>\n</div>\n<script src=\"https://ajax.googleapis.com/ajax/libs/jquery/2.1.1/jquery.min.js\"></script>\n<script type=\"text/javascript\">\n$(document).ready (function(){\n\tif($(\"#strPaper\").checked || $(\"#strBraille\").checked)\n\t{\n\t\tPaperBrailleChecked();\n\t}\n});\n\n$(document).on(\"change\", \"#strBraille\", function(){\n\tif($(\"#strBraille\").is(\":checked\"))\n\t{\n\t\tPaperBrailleChecked();\n\t}\n\telse if(!($(\"#strPaper\").is(\":checked\")))\n\t{\n\t\tPaperBrailleUnChecked();\n\t}\n});\n\n$(document).on(\"change\", \"#strPaper\", function(){\n\tif($(\"#strPaper\").is(\":checked\"))\n\t{\n\t\tPaperBrailleChecked();\n\t}\n\telse if(!($(\"#strBraille\").is(\":checked\")))\n\t{\n\t\tPaperBrailleUnChecked();\n\t}\n});\n\nfunction PaperBrailleChecked()\n{\n\t$(\"#strAddress1\").attr(\"required\", \"true\");\n\t$(\"#strCity\").attr(\"required\", \"true\");\n\t$(\"#strProvince\").attr(\"required\", \"true\");\n\t$(\"#strCountry\").attr(\"required\", \"true\");\n\t$(\"#strPostal\").attr(\"required\", \"true\");\n}\n\nfunction PaperBrailleUnChecked()\n{\n\t$(\"#strAddress1\").removeAttr(\"required\");\n\t$(\"#strCity\").removeAttr(\"required\");\n\t$(\"#strProvince\").removeAttr(\"required\");\n\t$(\"#strCountry\").removeAttr(\"required\");\n\t$(\"#strPostal\").removeAttr(\"required\");\n}\n</script>\r\n\r\n<div class=\"row\">\r\n \r\n\t\t\t\r\n\t\t\t\r\n\r\n\t\t\r\n\t\r\n</div>"
    },
    "success": true,
    "chat_wizard": false
}