{
    "dcr_id": "1351917937884",
    "title": {
        "en": "2010-2011 Propylene Oxide in Foods",
        "fr": "2010-2011 L'oxyde de propyl\u00e8ne dans les aliments"
    },
    "html_modified": "2024-02-13 9:47:51 AM",
    "modified": "2018-09-04",
    "issued": "2018-06-05",
    "teamsite_location": {
        "en": "/default/main/inspection/cont-cont/food-aliments/STAGING/templatedata/comn-comn/forms-formes/data/chem_residue_reports_2010-2011_propyleneoxide_1351917937884_eng",
        "fr": "/default/main/inspection/cont-cont/food-aliments/STAGING/templatedata/comn-comn/forms-formes/data/chem_residue_reports_2010-2011_propyleneoxide_1351917937884_fra"
    },
    "ia_id": "1351918123486",
    "parent_ia_id": "1453327843364",
    "chronicletopic": {
        "en": "",
        "fr": ""
    },
    "chroniclecontent": {
        "en": "",
        "fr": ""
    },
    "chronicleaudience": {
        "en": "",
        "fr": ""
    },
    "sfcrdocumenttype": {
        "en": "",
        "fr": ""
    },
    "sfcraudience": {
        "en": "",
        "fr": ""
    },
    "sfcrmethodofproduction": {
        "en": "",
        "fr": ""
    },
    "activity": {
        "en": "",
        "fr": ""
    },
    "commodity": {
        "en": "",
        "fr": ""
    },
    "program": {
        "en": "",
        "fr": ""
    },
    "search_type": "other",
    "parent_node_id": "1453327843364",
    "layout_name": "content page 1 column",
    "breadcrumb": {
        "en": "2010-2011 Propylene Oxide in Foods",
        "fr": "2010-2011 L'oxyde de propyl\u00e8ne dans les aliments"
    },
    "label": {
        "en": "2010-2011 Propylene Oxide in Foods",
        "fr": "2010-2011 L'oxyde de propyl\u00e8ne dans les aliments"
    },
    "templatetype": "content page 1 column",
    "node_id": "1351918123486",
    "managing_branch": "comn",
    "type_name": "forms-formes",
    "dcr_type": "forms-formes",
    "parent_dcr_id": "1453324778043",
    "has_dcr_id": true,
    "lang": "en",
    "could_not_load": 0,
    "refaire": false,
    "interwoven_url": {
        "en": "/food-safety-for-industry/food-chemistry-and-microbiology/food-safety-testing-reports-and-journal-articles/propylene-oxide/",
        "fr": "/salubrite-alimentaire-pour-l-industrie/chimie-et-microbiologie-alimentaires/rapports-d-analyse-et-articles-de-revues-sur-la-sa/oxyde-de-propylene/"
    },
    "meta": {
        "viewport": {
            "en": "width=device-width,initial-scale=1",
            "fr": "width=device-width,initial-scale=1"
        },
        "service": {
            "en": "CFIA-ACIA",
            "fr": "CFIA-ACIA"
        },
        "accessRights": {
            "en": "2",
            "fr": "2"
        },
        "title": {
            "en": "2010-2011 Propylene Oxide in Foods",
            "fr": "2010-2011 L'oxyde de propyl\u00e8ne dans les aliments"
        },
        "description": {
            "en": "The main objective of the propylene oxide (PPO) in selected foods targeted survey was to generate baseline surveillance data on the levels of PPO in non-starchy foods potentially treated with fumigant, specifically cocoa, nutmeats, dried herbs, dried fruit, and spices.",
            "fr": "Le principal objectif de l'\u00e9tude cibl\u00e9e sur la pr\u00e9sence d'oxyde de propyl\u00e8ne (OPP) dans certains aliments \u00e9tait de produire des donn\u00e9es de surveillance de base sur les niveaux d'OPP dans des aliments non amylac\u00e9s potentiellement trait\u00e9s avec un fumigant, \u00e0 savoir le cacao, les noix, les herbes s\u00e8ches, les fruits secs et les \u00e9pices."
        },
        "keywords": {
            "en": "chemical residues, testing, sampling, reporting, National Chemical Residue Monitoring Program, NCRMP, Propylene Oxide, PPO, cocoa, nutmeats, dried herbs, dried fruit, spices",
            "fr": "oxyde de propyl\u00e8ne, OPP, R\u00e9sidus chimiques, essai, pr\u00e9l\u00e8vement, rapports, Programme national de surveillance des r\u00e9sidus chimiques, PNSRC, cacao, noix, herbes s\u00e8ches, fruits secs, \u00e9pices"
        },
        "dcterms.subject": {
            "en": "assessment,inspection,food inspection,agri-food products,scientific research,food safety",
            "fr": "\u00e9valuation,inspection,inspection des aliments,produit agro-alimentaire,recherche scientifique,salubrit\u00e9 des aliments"
        },
        "creator": {
            "en": "Government of Canada,Canadian Food Inspection Agency",
            "fr": "Gouvernement du Canada,Agence canadienne d'inspection des aliments"
        },
        "language": {
            "en": "eng",
            "fr": "fra"
        },
        "issued": {
            "en": "2018-06-05",
            "fr": "2018-06-05"
        },
        "modified": {
            "en": "2018-09-04",
            "fr": "2018-09-04"
        },
        "type": {
            "en": "reference material,report",
            "fr": "mat\u00e9riel de r\u00e9f\u00e9rence,rapport"
        },
        "audience": {
            "en": "business,government,general public,scientists",
            "fr": "entreprises,gouvernement,grand public,Scientifiques"
        },
        "name": {
            "en": "Government of Canada",
            "fr": "Gouvernement du Canada"
        },
        "areaServed": {
            "en": "Canada",
            "fr": "Canada"
        }
    },
    "h1": {
        "en": "2010-2011 Propylene Oxide in Foods",
        "fr": "2010-2011 L'oxyde de propyl\u00e8ne dans les aliments"
    },
    "js": {
        "en": "<script>\n    document.frmPublication.strTitle.value = document.getElementsByTagName(\"title\")[0].innerHTML;\n    document.frmPublication.strUrl.value = document.URL;\n</script>/* --------------------- MORE JAVASCRIPT ------------------- */<script>\n$(document).ready (function(){\n\tif($(\"#strPaper\").checked || $(\"#strBraille\").checked)\n\t{\n\t\tPaperBrailleChecked();\n\t}\n});\n\n$(document).on(\"change\", \"#strBraille\", function(){\n\tif($(\"#strBraille\").is(\":checked\"))\n\t{\n\t\tPaperBrailleChecked();\n\t}\n\telse if(!($(\"#strPaper\").is(\":checked\")))\n\t{\n\t\tPaperBrailleUnChecked();\n\t}\n});\n\n$(document).on(\"change\", \"#strPaper\", function(){\n\tif($(\"#strPaper\").is(\":checked\"))\n\t{\n\t\tPaperBrailleChecked();\n\t}\n\telse if(!($(\"#strBraille\").is(\":checked\")))\n\t{\n\t\tPaperBrailleUnChecked();\n\t}\n});\n\nfunction PaperBrailleChecked()\n{\n\t$(\"#strAddress1\").attr(\"required\", \"true\");\n\t$(\"#strCity\").attr(\"required\", \"true\");\n\t$(\"#strProvince\").attr(\"required\", \"true\");\n\t$(\"#strCountry\").attr(\"required\", \"true\");\n\t$(\"#strPostal\").attr(\"required\", \"true\");\n}\n\nfunction PaperBrailleUnChecked()\n{\n\t$(\"#strAddress1\").removeAttr(\"required\");\n\t$(\"#strCity\").removeAttr(\"required\");\n\t$(\"#strProvince\").removeAttr(\"required\");\n\t$(\"#strCountry\").removeAttr(\"required\");\n\t$(\"#strPostal\").removeAttr(\"required\");\n}\n</script>",
        "fr": "<script>\n    document.frmPublication.strTitle.value = document.getElementsByTagName(\"title\")[0].innerHTML;\n    document.frmPublication.strUrl.value = document.URL;\n</script>/* --------------------- MORE JAVASCRIPT ------------------- */<script>\n$(document).ready (function(){\n\tif($(\"#strPaper\").checked || $(\"#strBraille\").checked)\n\t{\n\t\tPaperBrailleChecked();\n\t}\n});\n\n$(document).on(\"change\", \"#strBraille\", function(){\n\tif($(\"#strBraille\").is(\":checked\"))\n\t{\n\t\tPaperBrailleChecked();\n\t}\n\telse if(!($(\"#strPaper\").is(\":checked\")))\n\t{\n\t\tPaperBrailleUnChecked();\n\t}\n});\n\n$(document).on(\"change\", \"#strPaper\", function(){\n\tif($(\"#strPaper\").is(\":checked\"))\n\t{\n\t\tPaperBrailleChecked();\n\t}\n\telse if(!($(\"#strBraille\").is(\":checked\")))\n\t{\n\t\tPaperBrailleUnChecked();\n\t}\n});\n\nfunction PaperBrailleChecked()\n{\n\t$(\"#strAddress1\").attr(\"required\", \"true\");\n\t$(\"#strCity\").attr(\"required\", \"true\");\n\t$(\"#strProvince\").attr(\"required\", \"true\");\n\t$(\"#strCountry\").attr(\"required\", \"true\");\n\t$(\"#strPostal\").attr(\"required\", \"true\");\n}\n\nfunction PaperBrailleUnChecked()\n{\n\t$(\"#strAddress1\").removeAttr(\"required\");\n\t$(\"#strCity\").removeAttr(\"required\");\n\t$(\"#strProvince\").removeAttr(\"required\");\n\t$(\"#strCountry\").removeAttr(\"required\");\n\t$(\"#strPostal\").removeAttr(\"required\");\n}\n</script>"
    },
    "mode_html": "no_editor_full",
    "body": {
        "en": "        \r\n        \n<h2>Summary</h2>\n<p>The Food Safety Action Plan (FSAP) aims to modernize and enhance Canada's food safety system. As a part of the <abbr title=\"Food Safety Action Plan\">FSAP</abbr> enhanced surveillance initiative, targeted surveys are used to test various foods for specific chemical and microbiological hazards.</p>\n<p>The main objective of the propylene oxide (PPO) in selected foods targeted survey was to generate baseline surveillance data on the levels of <abbr title=\"propylene oxide\">PPO</abbr> in non-starchy foods potentially treated with fumigant, specifically cocoa, nutmeats, dried herbs, dried fruit, and spices.</p>\n<p>Propylene oxide is a highly volatile chemical which does not occur naturally in the environment. It is manufactured for use as a fumigant for food and for industrial applications<sup id=\"fn1-rf\"><a class=\"fn-lnk\" href=\"#fn1\"><span class=\"wb-inv\">Footnote\u00a0</span>1</a></sup>. <abbr title=\"propylene oxide\">PPO</abbr> has been used as an insecticide and antimicrobial fumigant in dried fruits, nuts, and spices in the Unites States for over fifty years. While it is not registered for use as a fumigant/pesticide in Canada, Canadians may be exposed to this chemical via consumption of imported finished foods and food ingredients<sup id=\"fn2-rf\"><a class=\"fn-lnk\" href=\"#fn2\"><span class=\"wb-inv\">Footnote\u00a0</span>2</a></sup>.</p>\n<p>Although the primary route of human exposure to propylene oxide is by inhalation, foods treated with <abbr title=\"propylene oxide\">PPO</abbr> may contain residues of this fumigant unless adequate ventilation/aeration of the treated commodity is provided<sup id=\"fn3-rf\"><a class=\"fn-lnk\" href=\"#fn3\"><span class=\"wb-inv\">Footnote\u00a0</span>3</a></sup>. According to the toxicological studies submitted to Health Canada's Pest Management Regulatory Agency (PMRA), evidence of the potential for propylene oxide to cause cancer in animals was identified after lifetime exposure. As such, a cancer risk assessment was conducted, which demonstrated that consumption of <abbr title=\"propylene oxide\">PPO</abbr>-treated food commodities originating from the <abbr title=\"United States\">US</abbr> will not pose a human health concern to any segment of the Canadian population, including infants, children and seniors.</p>\n<p>Although not approved for domestic use, <abbr title=\"Pest Management Regulatory Agency\">PMRA</abbr>, under the authority of the Pest Control Products Act in 2009, established a maximum residue limit (MRL) of 300 parts per million (ppm) for <abbr title=\"propylene oxide\">PPO</abbr> in almonds to permit the import and sale of almonds that may contain this residue. <abbr title=\"Pest Management Regulatory Agency\">PMRA</abbr> is currently in the process of establishing new <abbr title=\"maximum residue limit\">MRL</abbr>s for <abbr title=\"propylene oxide\">PPO</abbr> in/on the entire tree nut crop group and herbs and spices crop group. These values are expected to be consistent with established residue tolerance levels in the <abbr title=\"United States\">U.S.</abbr> for nutmeats, cocoa, dried fruits, and dried herbs/spices<sup id=\"fn4-rf\"><a class=\"fn-lnk\" href=\"#fn4\"><span class=\"wb-inv\">Footnote\u00a0</span>4</a></sup>. Other <abbr title=\"propylene oxide\">PPO</abbr>-treated food products imported into Canada are currently subject to the General Maximum Residue Limit (GMRL) of 0.1\u00a0<abbr title=\"parts per million\">ppm</abbr> under Division 15 (B.15.002(1)) of Health Canada's Food and Drug Regulations.</p>\n<p>One hundred samples of dried spices and herbs, dried fruit products, cocoa powder, and nuts (of both domestic and imported origin) were analyzed for <abbr title=\"propylene oxide\">PPO</abbr> in 2009-2010. Additionally, nine hundred and sixty-four samples of dried spices and herbs, dried fruit products, cocoa and chocolate products/powders, and nuts (of both domestic and imported origin) were analyzed for <abbr title=\"propylene oxide\">PPO</abbr> in 2010-2011. Propylene oxide was not detected in any sample tested. The overall compliance with the <abbr title=\"maximum residue limit\">MRL</abbr> for almonds or the <abbr title=\"General Maximum Residue Limit\">GMRL</abbr> (as applicable) was 100%.</p>\n<aside class=\"wb-fnote\" role=\"note\"> \n<h2 id=\"fn\">Footnotes</h2> \n<dl>\n<dt>Footnote 1</dt>\n<dd id=\"fn1\">\n<p>United States Environmental Protection Agency. Technology Transfer Network. Propylene oxide hazard summary. [online]. Published January 2000. Accessed April 12, 2011. http://earth1.epa.gov/ttn/atw/hlthef/prop-oxi.html</p>\n<p class=\"fn-rtn\"><a href=\"#fn1-rf\"><span class=\"wb-inv\">Return to footnote\u00a0</span>1<span class=\"wb-inv\">\u00a0referrer</span></a></p> \n</dd>\n<dt>Footnote 2</dt>\n<dd id=\"fn2\">\n<p>United States Environmental Protection Agency. Prevention, Pesticides and Toxic Substances. Reregistration Eligibility Decision for Propylene Oxide. [online]. Published August 2006. Accessed April 12, 2011. http://www.epa.gov/oppsrrd1/REDs/propylene_oxide_red.pdf</p>\n<p class=\"fn-rtn\"><a href=\"#fn2-rf\"><span class=\"wb-inv\">Return to footnote\u00a0</span>2<span class=\"wb-inv\">\u00a0referrer</span></a></p> \n</dd>\n<dt>Footnote 3</dt>\n<dd id=\"fn3\">\n<p>European Commission, Directorate General Health and Consumers. Opinion on the results of the Risk Assessment (for Propylene Oxide). [online]. Published June 2001. Accessed July 8, 2011. http://ec.europa.eu/health/scientific_committees/environmental_risks/opinions/sctee/sct_out102_en.htm</p>\n<p class=\"fn-rtn\"><a href=\"#fn3-rf\"><span class=\"wb-inv\">Return to footnote\u00a0</span>3<span class=\"wb-inv\">\u00a0referrer</span></a></p> \n</dd>\n<dt>Footnote 4</dt>\n<dd id=\"fn4\">\n<p>United States (Electronic) Code of Federal Regulations (e-CFR). Title 40: Protection of Environment. Part 180-Tolerances and Exemptions for Pesticide Chemical Residues in Food. \u00a7180.491 Propylene oxide. [online]. Published current to 2011. Accessed July 8, 2011. http://ecfr.gpoaccess.gov/cgi/t/text/text-idx?c=ecfr&amp;sid=784dbba33bab543d82c43f0f9820bfb2&amp;rgn=div8&amp;view=text&amp;node=40:24.0.1.1.28.3.19.233&amp;idno=40</p>\n<p class=\"fn-rtn\"><a href=\"#fn4-rf\"><span class=\"wb-inv\">Return to footnote\u00a0</span>4<span class=\"wb-inv\">\u00a0referrer</span></a></p> \n</dd>\n</dl>\n</aside>\r\n<style>\n/* required style */\n    .keyValue{\n\tdisplay: none !important;\n        visibility: hidden !important;\n</style>\n<h2>Request of Complete Report</h2>\n<p>The complete text of this report is available upon request.</p>\n\n<div class=\"wb-frmvld\">\n\n<form class=\"form-horizontal\" role=\"form\" method=\"post\" action=\"/active/netapp/comment/publicationposte.aspx#wb-cont\" name=\"frmPublication\">\n<input id=\"emailad0\" name=\"to\" class=\"hidden\" type=\"hidden\" aria-hidden=\"true\" value=\"MKwjJT+1KkvCv2HD+EMo/0qs6rgSQCaSunLhi1dXmYbGBA8M0MUdvJMKkSpN2ChSA4t/1eLbYVB4ljqHJiVmTsY+rwQ9Do08upKVqVOBNi8=\">\n<input name=\"strLang\" type=\"hidden\" value=\"English\">\n<input name=\"strSubject\" type=\"hidden\" value=\"Chemical Residues / Microbiology Report Request\">\n<input name=\"strTitle\" type=\"hidden\" value=\"title\">\n<input name=\"strUrl\" type=\"hidden\" value=\"url\">\n<script type=\"text/javascript\">\n    document.frmPublication.strTitle.value = document.getElementsByTagName(\"title\")[0].innerHTML;\n    document.frmPublication.strUrl.value = document.URL;\n</script>\n        \n<fieldset class=\"mrgn-tp-md mrgn-bttm-lg\">\t\t\n\n<legend class=\"field-name required\"><span class=\"field-name\">The format in which you would like to receive the report</span> <strong class=\"required\">(required)</strong></legend>\n\n<div class=\"checkbox\">\n<label for=\"strPdf\"><input type=\"checkbox\" name=\"formatsent\" id=\"strPdf\" value=\"pdf\" required=\"required\">PDF (Portable Document Format) electronic file sent to you by email</label>\n</div>\n\n<div class=\"checkbox\">\n<label for=\"strText\"><input type=\"checkbox\" name=\"formatsent\" id=\"strText\" value=\"text\">RTF (Rich Text Format) electronic file sent to you by email</label>\n</div>\n\n<div class=\"checkbox\">\n<label for=\"strBraille\"><input type=\"checkbox\" name=\"formatsent\" id=\"strBraille\" value=\"braille\">Braille copy sent to you by mail</label>\n</div>\n\n<div class=\"checkbox\">\n<label for=\"strPaper\"><input type=\"checkbox\" name=\"formatsent\" id=\"strPaper\" value=\"paper\">Paper copy sent to you by mail</label>\n</div>\n\n</fieldset>\t\n\n<fieldset class=\"mrgn-tp-md mrgn-bttm-lg\">\t\t\n\n<legend class=\"field-name\">Your contact information</legend>\n\n<label class=\"keyValue\" for=\"name\"></label>\n<input class=\"keyValue\" autocomplete=\"off\" type=\"text\" id=\"name\" name=\"name\">\n<label class=\"keyValue\" for=\"email\"></label>\n<input class=\"keyValue\" autocomplete=\"off\" type=\"email\" id=\"email\" name=\"email\"> \n\n<div class=\"form-group\">\n<label for=\"strFirstName\" class=\"required col-md-4 control-label\"><span class=\"field-name\">First name:</span> <strong class=\"required\">(required)</strong></label>\n<div class=\"col-md-8\">\n<input class=\"form-control\" id=\"strFirstName\" name=\"strFirstName\" type=\"text\" required=\"required\" pattern=\".{2,}\" data-rule-minlength=\"2\">\n</div>\n</div>\n            \n<div class=\"form-group\">\n<label for=\"strLastName\" class=\"required col-md-4 control-label\"><span class=\"field-name\">Last name:</span> <strong class=\"required\">(required)</strong></label>\n<div class=\"col-md-8\">\n<input class=\"form-control\" id=\"strLastName\" name=\"strLastName\" type=\"text\" required=\"required\" pattern=\".{2,}\" data-rule-minlength=\"2\">\n</div>\n</div>\n\n<div class=\"form-group\">\n<label for=\"strEmail\" class=\"required col-md-4 control-label\"><span class=\"field-name\">Email address:</span>  <strong class=\"required\">(required)</strong></label>\n<div class=\"col-md-8\">\n<input class=\"form-control\" id=\"strEmail\" name=\"strEmail\" type=\"email\" required=\"required\">\n</div>\n</div>\n\n<div class=\"form-group\">\n<label for=\"strConfirmEmail\" class=\"required col-md-4 control-label\"><span class=\"field-name\">Confirm email address:</span>  <strong class=\"required\">(required)</strong></label>\n<div class=\"col-md-8\">\n<input class=\"form-control\" id=\"strConfirmEmail\" name=\"strConfirmEmail\" type=\"email\" data-rule-equalto=\"#strEmail\" required=\"required\">\n</div>\n</div>\n\n<div class=\"form-group mrgn-tp-md\">\n<label for=\"lstdescribe\" class=\"required col-md-4 control-label\"><span class=\"field-name\">How would you describe yourself?</span> <strong class=\"required\">(required)</strong></label>\n<div class=\"col-md-8\">\n<select class=\"form-control\" id=\"lstdescribe\" name=\"lstdescribe\" required=\"required\">\n<option label=\"Select from this list\"></option>\n<option value=\"Academia\">Academia</option>\n<option value=\"Consumer Association\">Consumer Association</option>\n<option value=\"Consumer/General Public\">Consumer / General Public</option>\n<option value=\"Industry Association\">Industry Association</option>\n<option value=\"Industry/Commercial Sector\">Industry / Commercial Sector</option>\n<option value=\"Other Government Departments\">Other Government Departments</option>\t\t\t\n</select>\n</div>\n</div>\t\n\n<div class=\"form-group\">\n<label for=\"strAddress1\" class=\"col-md-4 control-label\"><span class=\"field-name\">Address 1:</span></label>\n<div class=\"col-md-8\">\n<input class=\"form-control\" id=\"strAddress1\" name=\"strAddress1\" type=\"text\">\n</div>\n</div>\n\n<div class=\"form-group\">\n<label for=\"strAddress2\" class=\"col-md-4 control-label\"><span class=\"field-name\">Address 2:</span></label>\n<div class=\"col-md-8\">\n<input class=\"form-control\" id=\"strAddress2\" name=\"strAddress2\" type=\"text\">\n</div>\n</div>\n\n<div class=\"form-group\">\n<label for=\"strCity\" class=\"col-md-4 control-label\"><span class=\"field-name\">City:</span></label>\n<div class=\"col-md-8\">\n<input class=\"form-control\" id=\"strCity\" name=\"strCity\" type=\"text\">\n</div>\n</div>\n\n<div class=\"form-group\">\n<label for=\"strProvince\" class=\"col-md-4 control-label\"><span class=\"field-name\">Province:</span></label>\n<div class=\"col-md-8\">\n<input class=\"form-control\" id=\"strProvince\" name=\"strProvince\" type=\"text\">\n</div>\n</div>\n\n<div class=\"form-group\">\n<label for=\"strCountry\" class=\"col-md-4 control-label\"><span class=\"field-name\">Country:</span></label>\n<div class=\"col-md-8\">\n<input class=\"form-control\" id=\"strCountry\" name=\"strCountry\" type=\"text\">\n</div>\n</div>\n\n<div class=\"form-group\">\n<label for=\"strPostal\" class=\"col-md-4 control-label\"><span class=\"field-name\">Postal Code:</span></label>\n<div class=\"col-md-8\">\n<input class=\"form-control\" id=\"strPostal\" name=\"strPostal\" type=\"text\">\n</div>\n</div>\n\n</fieldset>\t\n\n<input value=\"Submit Your Request\" id=\"btnSubmit\" name=\"btnSubmit\" class=\"btn btn-primary\" type=\"submit\"> \n<input value=\"Clear All Information\" id=\"btnReset\" name=\"btnReset\" class=\"btn btn-default\" type=\"reset\">\n\n</form>\n</div>\n<script src=\"https://ajax.googleapis.com/ajax/libs/jquery/2.1.1/jquery.min.js\"></script>\n<script type=\"text/javascript\">\n$(document).ready (function(){\n\tif($(\"#strPaper\").checked || $(\"#strBraille\").checked)\n\t{\n\t\tPaperBrailleChecked();\n\t}\n});\n\n$(document).on(\"change\", \"#strBraille\", function(){\n\tif($(\"#strBraille\").is(\":checked\"))\n\t{\n\t\tPaperBrailleChecked();\n\t}\n\telse if(!($(\"#strPaper\").is(\":checked\")))\n\t{\n\t\tPaperBrailleUnChecked();\n\t}\n});\n\n$(document).on(\"change\", \"#strPaper\", function(){\n\tif($(\"#strPaper\").is(\":checked\"))\n\t{\n\t\tPaperBrailleChecked();\n\t}\n\telse if(!($(\"#strBraille\").is(\":checked\")))\n\t{\n\t\tPaperBrailleUnChecked();\n\t}\n});\n\nfunction PaperBrailleChecked()\n{\n\t$(\"#strAddress1\").attr(\"required\", \"true\");\n\t$(\"#strCity\").attr(\"required\", \"true\");\n\t$(\"#strProvince\").attr(\"required\", \"true\");\n\t$(\"#strCountry\").attr(\"required\", \"true\");\n\t$(\"#strPostal\").attr(\"required\", \"true\");\n}\n\nfunction PaperBrailleUnChecked()\n{\n\t$(\"#strAddress1\").removeAttr(\"required\");\n\t$(\"#strCity\").removeAttr(\"required\");\n\t$(\"#strProvince\").removeAttr(\"required\");\n\t$(\"#strCountry\").removeAttr(\"required\");\n\t$(\"#strPostal\").removeAttr(\"required\");\n}\n</script>\r\n\r\n\r\n\r\n<div class=\"row\">\r\n \r\n\t\r\n\t\t\t\r\n\r\n<div class=\"col-xm-12 pagedetails container\">\r\n\t\t\t\t\r\n\r\n</div>\r\n\t\r\n</div>",
        "fr": "\r\n        \r\n        \n<h2>R\u00e9sum\u00e9</h2>\n<p>Le Plan d'action pour assurer la s\u00e9curit\u00e9 des produits alimentaires (PAASPA) vise \u00e0 moderniser et \u00e0 renforcer le syst\u00e8me r\u00e9glementaire canadien de salubrit\u00e9 des aliments. Dans le cadre de l'initiative de surveillance accrue du <abbr title=\"Plan d'action pour assurer la s\u00e9curit\u00e9 des produits alimentaires\">PAASPA</abbr>, des \u00e9tudes cibl\u00e9es servent \u00e0 d\u00e9celer des dangers pr\u00e9cis dans divers aliments.</p>\n<p>Le principal objectif de l'\u00e9tude cibl\u00e9e sur la pr\u00e9sence d'oxyde de propyl\u00e8ne (OPP) dans certains aliments \u00e9tait de produire des donn\u00e9es de surveillance de base sur les niveaux d'<abbr title=\"oxyde de propyl\u00e8ne\">OPP</abbr> dans des aliments non amylac\u00e9s potentiellement trait\u00e9s avec un fumigant, \u00e0 savoir le cacao, les noix, les herbes s\u00e8ches, les fruits secs et les \u00e9pices.</p>\n<p>L'oxyde de propyl\u00e8ne est un compos\u00e9 chimique hautement volatil qui ne se retrouve pas de mani\u00e8re naturelle dans l'environnement. Il est produit pour s'en servir comme fumigant pour des aliments ou pour des applications industrielles<sup id=\"fn1-rf\"><a class=\"fn-lnk\" href=\"#fn1\"><span class=\"wb-inv\">Note de bas de page\u00a0</span>1</a></sup>. Depuis plus de cinquante ans, l'<abbr title=\"oxyde de propyl\u00e8ne\">OPP</abbr> est utilis\u00e9 comme fumigant insecticide et antimicrobien sur des fruits secs, des noix et des \u00e9pices aux \u00c9tats-Unis. Bien qu'il ne soit pas enregistr\u00e9 comme fumigant ou produit antiparasitaire au Canada, des Canadiens peuvent y \u00eatre expos\u00e9s en consommant des aliments et des ingr\u00e9dients alimentaires import\u00e9s<sup id=\"fn2-rf\"><a class=\"fn-lnk\" href=\"#fn2\"><span class=\"wb-inv\">Note de bas de page\u00a0</span>2</a></sup>.</p>\n<p>Bien que la principale voie d'exposition des humains \u00e0 l'oxyde de propyl\u00e8ne soit l'inhalation, les aliments trait\u00e9s avec de l'<abbr title=\"oxyde de propyl\u00e8ne\">OPP</abbr> peuvent contenir des r\u00e9sidus de ce fumigant si des mesures ad\u00e9quates de ventilation/a\u00e9ration du produit trait\u00e9 ne sont pas prises<sup id=\"fn3-rf\"><a class=\"fn-lnk\" href=\"#fn3\"><span class=\"wb-inv\">Note de bas de page\u00a0</span>3</a></sup>. Selon les \u00e9tudes toxicologiques soumises \u00e0 l'Agence de r\u00e9glementation de la lutte antiparasitaire de Sant\u00e9 Canada, la preuve de potentiel de l'oxyde de propyl\u00e8ne pour causer le cancer chez les animaux a \u00e9t\u00e9 identifi\u00e9e apr\u00e8s l'exposition \u00e0 vie. En tant que tel, une \u00e9valuation du risque de cancer a \u00e9t\u00e9 men\u00e9e, qui a demontr\u00e9 que la consommation de denr\u00e9es alimentaires provenant des \u00c9tats-Unis trait\u00e9s \u00e0 l'<abbr title=\"oxyde de propyl\u00e8ne\">OPP</abbr> ne posera pas une pr\u00e9occupation pour la sant\u00e9 humaine \u00e0 n'importe quel segment de la population canadienne, y compris les nourrissons, les enfants et les personnes \u00e2g\u00e9es.</p>\n<p>Bien que n'\u00e9tant pas approuv\u00e9 pour une utilisation domestique, l'Agence de r\u00e9glementation de la lutte antiparasitaire (ARLA) de Sant\u00e9 Canada, en vertu de la Loi sur les produits antiparasitaires (LPA), a \u00e9tabli en 2009 une limite maximale de r\u00e9sidus (LMR) de 300 parties par million (ppm) pour l'<abbr title=\"oxyde de propyl\u00e8ne\">OPP</abbr> dans les amandes afin de permettre l'importation et la vente d'amandes susceptibles de contenir ce r\u00e9sidu. L'<abbr title=\"Agence de r\u00e9glementation de la lutte antiparasitaire\">ARLA</abbr> est actuellement en train d'\u00e9tablir de nouvelles <abbr title=\"limite maximale de r\u00e9sidus\">LMR</abbr> pour l'<abbr title=\"oxyde de propyl\u00e8ne\">OPP</abbr> dans/sur le groupe de cultures de fruits \u00e0 coque entier et le groupe de cultures d'herbes et d'\u00e9pices. Ces valeurs devraient \u00eatre compatibles avec les niveaux de tol\u00e9rance de r\u00e9sidus \u00e9tablis aux <abbr title=\"\u00c9tats-Unis\">\u00c9.-U.</abbr> pour les noix, le cacao, les fruits secs, les herbes s\u00e8ches et les \u00e9pices<sup id=\"fn4-rf\"><a class=\"fn-lnk\" href=\"#fn4\"><span class=\"wb-inv\">Note de bas de page\u00a0</span>4</a></sup>. Les autres aliments trait\u00e9s \u00e0 l'<abbr title=\"oxyde de propyl\u00e8ne\">OPP</abbr> import\u00e9s au Canada sont \u00e0 l'heure actuelle assujettis \u00e0 la limite maximale de r\u00e9sidus (LMR) g\u00e9n\u00e9rale de 0,1\u00a0<abbr title=\"partie par million\">ppm</abbr>, en application du titre 15 (B.15.002(1)) du R\u00e8glement sur les aliments et drogues de Sant\u00e9 Canada.</p>\n<p>En 2009-2010, la teneur en <abbr title=\"oxyde de propyl\u00e8ne\">OPP</abbr> de cent \u00e9chantillons d'herbes s\u00e8ches, d'\u00e9pices, de produits de fruits secs, de poudre de cacao et de noix (provenant du Canada ou de l'\u00e9tranger) a \u00e9t\u00e9 mesur\u00e9e. De plus, en 2010-2011, la teneur en <abbr title=\"oxyde de propyl\u00e8ne\">OPP</abbr> de neuf cent soixante-quatre \u00e9chantillons d'herbes s\u00e8ches, d'\u00e9pices, de produits de fruits secs, de produits/poudres de cacao et chocolat et de noix (provenant du Canada ou de l'\u00e9tranger) a \u00e9t\u00e9 mesur\u00e9e. Aucune trace d'oxyde de propyl\u00e8ne n'a pu \u00eatre d\u00e9tect\u00e9e dans aucun des \u00e9chantillons analys\u00e9s. Globalement, la conformit\u00e9 avec la <abbr title=\"limite maximale de r\u00e9sidus\">LMR</abbr> fix\u00e9e en vertu de la <abbr title=\"Loi sur les produits antiparasitaires\">LPA</abbr> pour les amandes ou avec la <abbr title=\"limite maximale de r\u00e9sidus\">LMR</abbr> g\u00e9n\u00e9rale (le cas \u00e9ch\u00e9ant) \u00e9tait de 100\u00a0%.</p>\n<aside class=\"wb-fnote\" role=\"note\"> \n<h2 id=\"fn\">Notes de bas de page</h2> \n<dl>\n<dt>Note de bas de page 1</dt>\n<dd id=\"fn1\">\n<p><span lang=\"en\">Environmental Protection Agency</span> des \u00c9tats-Unis. <span lang=\"en\">Technology Transfer Network. Propylene oxide hazard summary. [online]. Published January 2000. Accessed April 12, 2011</span>. http://earth1.epa.gov/ttn/atw/hlthef/prop-oxi.html</p>\n<p class=\"fn-rtn\"><a href=\"#fn1-rf\"><span class=\"wb-inv\">Retour \u00e0 la r\u00e9f\u00e9rence de la note de bas de page\u00a0</span>1</a></p> \n</dd>\n<dt>Note de bas de page 2</dt>\n<dd id=\"fn2\">\n<p><span lang=\"en\">Environmental Protection Agency</span> des \u00c9tats-Unis. <span lang=\"en\">Pesticides and Toxic Substances. Reregistration Eligibility Decision for Propylene Oxide. [online]. Published August 2006. Accessed April 12, 2011</span>. http://www.epa.gov/oppsrrd1/REDs/propylene_oxide_red.pdf</p>\n<p class=\"fn-rtn\"><a href=\"#fn2-rf\"><span class=\"wb-inv\">Retour \u00e0 la r\u00e9f\u00e9rence de la note de bas de page\u00a0</span>2</a></p> \n</dd>\n<dt>Note de bas de page 3</dt>\n<dd id=\"fn3\">\n<p>Commission europ\u00e9enne, <span lang=\"en\">Directorate General Health and Consumers. Opinion on the results of the Risk Assessment (for Propylene Oxide). [online]. Published June 2001. Accessed July 8, 2011.</span> http://ec.europa.eu/health/scientific_committees/environmental_risks/opinions/sctee/sct_out102_en.htm</p>\n<p class=\"fn-rtn\"><a href=\"#fn3-rf\"><span class=\"wb-inv\">Retour \u00e0 la r\u00e9f\u00e9rence de la note de bas de page\u00a0</span>3</a></p> \n</dd>\n<dt>Note de bas de page 4</dt>\n<dd id=\"fn4\">\n<p><span lang=\"en\">Code of Federal Regulations</span> (e-CFR) des \u00c9tats-Unis (\u00e9lectronique). <span lang=\"en\">Title 40: Protection of Environment. Part 180-Tolerances and Exemptions for Pesticide Chemical Residues in Food. \u00a7180.491 Propylene oxide. [online]. Published current to 2011. Accessed July 8, 2011.</span> http://ecfr.gpoaccess.gov/cgi/t/text/text-idx?c=ecfr&amp;sid=784dbba33bab543d82c43f0f9820bfb2&amp;rgn=div8&amp;view=text&amp;node=40:24.0.1.1.28.3.19.233&amp;idno=40</p>\n<p class=\"fn-rtn\"><a href=\"#fn4-rf\"><span class=\"wb-inv\">Retour \u00e0 la r\u00e9f\u00e9rence de la note de bas de page\u00a0</span>4</a></p> \n</dd>\n</dl>\n</aside>\r\n<style>\n/* required style */\n    .keyValue{\n\tdisplay: none !important;\n        visibility: hidden !important;\n</style>\n<h2>Demande de rapport complet</h2>\n<p>La version int\u00e9grale du pr\u00e9sent rapport est disponible sur demande.</p>\n\n<div class=\"wb-frmvld\">\n\n<form class=\"form-horizontal\" role=\"form\" method=\"post\" action=\"/active/netapp/comment/publicationposte.aspx#wb-cont\" name=\"frmPublication\">\n\n<input id=\"emailad0\" name=\"to\" class=\"hidden\" type=\"hidden\" aria-hidden=\"true\" value=\"zqTHYIV/lCZ1ciW5Th9PrVNK7sLcEJh7vmYd88vk4Ej4XoE35Dcj6p0Ba3NX7s63NztB+MB0CDswCLKFLSrvqevk3XDHSlPDvB1G7aJZtXg=\">\n<input name=\"strLang\" type=\"hidden\" value=\"Francais\">\n<input name=\"strSubject\" type=\"hidden\" value=\"Demande de rapport de r\u00e9sidus chimiques / microbiologie\">\n<input name=\"strTitle\" type=\"hidden\" value=\"title\">\n<input name=\"strUrl\" type=\"hidden\" value=\"url\">\n<script type=\"text/javascript\">\n    document.frmPublication.strTitle.value = document.getElementsByTagName(\"title\")[0].innerHTML;\n    document.frmPublication.strUrl.value = document.URL;\n</script>\n        \n<fieldset class=\"mrgn-tp-md mrgn-bttm-lg\">\t\t\n\n<legend class=\"field-name required\"><span class=\"field-name\">Le format dans lequel vous souhaitez recevoir le rapport</span> <strong class=\"required\">(obligatoire)</strong></legend>\n\n<div class=\"checkbox\">\n<label for=\"strPdf\"><input type=\"checkbox\" name=\"formatsent\" id=\"strPdf\" value=\"pdf\" required=\"required\">Fichier \u00e9lectronique PDF (format de document portable) envoy\u00e9 par courriel</label>\n</div>\n\n<div class=\"checkbox\">\n<label for=\"strText\"><input type=\"checkbox\" name=\"formatsent\" id=\"strText\" value=\"text\">Fichier \u00e9lectronique RTF (<span lang=\"en\">Rich Text Format</span>) envoy\u00e9 par courriel</label>\n</div>\n\n<div class=\"checkbox\">\n<label for=\"strBraille\"><input type=\"checkbox\" name=\"formatsent\" id=\"strBraille\" value=\"braille\">Copie braille envoy\u00e9e par la poste</label>\n</div>\n\n<div class=\"checkbox\">\n<label for=\"strPaper\"><input type=\"checkbox\" name=\"formatsent\" id=\"strPaper\" value=\"paper\">Copie papier envoy\u00e9e par la poste</label>\n</div>\n\n</fieldset>\t\n\n<fieldset class=\"mrgn-tp-md mrgn-bttm-lg\">\t\t\n\n<legend class=\"field-name\">Vos coordonn\u00e9es</legend>\n\n<label class=\"keyValue\" for=\"name\"></label>\n<input class=\"keyValue\" autocomplete=\"off\" type=\"text\" id=\"name\" name=\"name\">\n<label class=\"keyValue\" for=\"email\"></label>\n<input class=\"keyValue\" autocomplete=\"off\" type=\"email\" id=\"email\" name=\"email\"> \n\n<div class=\"form-group\">\n<label for=\"strFirstName\" class=\"required col-md-4 control-label\"><span class=\"field-name\">Pr\u00e9nom :</span> <strong class=\"required\">(obligatoire)</strong></label>\n<div class=\"col-md-8\">\n<input class=\"form-control\" id=\"strFirstName\" name=\"strFirstName\" type=\"text\" required=\"required\" pattern=\".{2,}\" data-rule-minlength=\"2\">\n</div>\n</div>\n            \n<div class=\"form-group\">\n<label for=\"strLastName\" class=\"required col-md-4 control-label\"><span class=\"field-name\">Nom :</span> <strong class=\"required\">(obligatoire)</strong></label>\n<div class=\"col-md-8\">\n<input class=\"form-control\" id=\"strLastName\" name=\"strLastName\" type=\"text\" required=\"required\" pattern=\".{2,}\" data-rule-minlength=\"2\">\n</div>\n</div>\n\n<div class=\"form-group\">\n<label for=\"strEmail\" class=\"required col-md-4 control-label\"><span class=\"field-name\">Adresse de courriel :</span> \u00a0<strong class=\"required\">(obligatoire)</strong></label>\n<div class=\"col-md-8\">\n<input class=\"form-control\" id=\"strEmail\" name=\"strEmail\" type=\"email\" required=\"required\">\n</div>\n</div>\n\n<div class=\"form-group\">\n<label for=\"strConfirmEmail\" class=\"required col-md-4 control-label\"><span class=\"field-name\">Confirmer Adresse de courriel :</span>  <strong class=\"required\">(obligatoire)</strong></label>\n<div class=\"col-md-8\">\n<input class=\"form-control\" id=\"strConfirmEmail\" name=\"strConfirmEmail\" type=\"email\" data-rule-equalto=\"#strEmail\" required=\"required\">\n</div>\n</div>\n\n<div class=\"form-group mrgn-tp-md\">\n<label for=\"lstdescribe\" class=\"required col-md-4 control-label\"><span class=\"field-name\">Comment vous vous d\u00e9criviez?</span> <strong class=\"required\">(obligatoire)</strong></label>\n<div class=\"col-md-8\">\n<select class=\"form-control\" id=\"lstdescribe\" name=\"lstdescribe\" required=\"required\">\n<option label=\"Choisir parmi la liste\"></option>\n<option value=\"Acad\u00e9mie\">Acad\u00e9mie</option>\n<option value=\"Association sectorielle\">Association sectorielle</option>  \n<option value=\"Autres institutions du gouvernement\">Autres institutions du gouvernement</option>\n<option value=\"Consommateur/Grand public\">Consommateur / Grand public</option>\n<option value=\"Groupe de consommateur\">Groupe de consommateur</option>\n<option value=\"Industrie/Secteur commercial\">Industrie / Secteur commercial</option>\n</select>\n</div>\n</div>\t\n\n<div class=\"form-group\">\n<label for=\"strAddress1\" class=\"col-md-4 control-label\"><span class=\"field-name\">Adresse 1 :</span></label>\n<div class=\"col-md-8\">\n<input class=\"form-control\" id=\"strAddress1\" name=\"strAddress1\" type=\"text\">\n</div>\n</div>\n\n<div class=\"form-group\">\n<label for=\"strAddress2\" class=\"col-md-4 control-label\"><span class=\"field-name\">Adresse 2 :</span></label>\n<div class=\"col-md-8\">\n<input class=\"form-control\" id=\"strAddress2\" name=\"strAddress2\" type=\"text\">\n</div>\n</div>\n\n<div class=\"form-group\">\n<label for=\"strCity\" class=\"col-md-4 control-label\"><span class=\"field-name\">Ville :</span></label>\n<div class=\"col-md-8\">\n<input class=\"form-control\" id=\"strCity\" name=\"strCity\" type=\"text\">\n</div>\n</div>\n\n<div class=\"form-group\">\n<label for=\"strProvince\" class=\"col-md-4 control-label\"><span class=\"field-name\">Province :</span></label>\n<div class=\"col-md-8\">\n<input class=\"form-control\" id=\"strProvince\" name=\"strProvince\" type=\"text\">\n</div>\n</div>\n\n<div class=\"form-group\">\n<label for=\"strCountry\" class=\"col-md-4 control-label\"><span class=\"field-name\">Pays : </span></label>\n<div class=\"col-md-8\">\n<input class=\"form-control\" id=\"strCountry\" name=\"strCountry\" type=\"text\">\n</div>\n</div>\n\n<div class=\"form-group\">\n<label for=\"strPostal\" class=\"col-md-4 control-label\"><span class=\"field-name\">Code postal : </span></label>\n<div class=\"col-md-8\">\n<input class=\"form-control\" id=\"strPostal\" name=\"strPostal\" type=\"text\">\n</div>\n</div>\n\n</fieldset>\t\n\n<input value=\"Soumettre votre demande\" id=\"btnSubmit\" name=\"btnSubmit\" class=\"btn btn-primary\" type=\"submit\"> \n<input value=\"Effacez tous les renseignements\" id=\"btnReset\" name=\"btnReset\" class=\"btn btn-default\" type=\"reset\">\n\n</form>\n</div>\n<script src=\"https://ajax.googleapis.com/ajax/libs/jquery/2.1.1/jquery.min.js\"></script>\n<script type=\"text/javascript\">\n$(document).ready (function(){\n\tif($(\"#strPaper\").checked || $(\"#strBraille\").checked)\n\t{\n\t\tPaperBrailleChecked();\n\t}\n});\n\n$(document).on(\"change\", \"#strBraille\", function(){\n\tif($(\"#strBraille\").is(\":checked\"))\n\t{\n\t\tPaperBrailleChecked();\n\t}\n\telse if(!($(\"#strPaper\").is(\":checked\")))\n\t{\n\t\tPaperBrailleUnChecked();\n\t}\n});\n\n$(document).on(\"change\", \"#strPaper\", function(){\n\tif($(\"#strPaper\").is(\":checked\"))\n\t{\n\t\tPaperBrailleChecked();\n\t}\n\telse if(!($(\"#strBraille\").is(\":checked\")))\n\t{\n\t\tPaperBrailleUnChecked();\n\t}\n});\n\nfunction PaperBrailleChecked()\n{\n\t$(\"#strAddress1\").attr(\"required\", \"true\");\n\t$(\"#strCity\").attr(\"required\", \"true\");\n\t$(\"#strProvince\").attr(\"required\", \"true\");\n\t$(\"#strCountry\").attr(\"required\", \"true\");\n\t$(\"#strPostal\").attr(\"required\", \"true\");\n}\n\nfunction PaperBrailleUnChecked()\n{\n\t$(\"#strAddress1\").removeAttr(\"required\");\n\t$(\"#strCity\").removeAttr(\"required\");\n\t$(\"#strProvince\").removeAttr(\"required\");\n\t$(\"#strCountry\").removeAttr(\"required\");\n\t$(\"#strPostal\").removeAttr(\"required\");\n}\n</script>\r\n\r\n<div class=\"row\">\r\n \r\n\t\t\t\r\n\t\t\t\r\n\r\n\t\t\r\n\t\r\n</div>"
    },
    "success": true,
    "chat_wizard": false
}