{
    "dcr_id": "1430919620350",
    "title": {
        "en": "2011-2012 <i lang=\"la\">Salmonella</i> and Generic <i lang=\"la\">E. coli</i> in Tahini and Sesame Seeds",
        "fr": "2011-2012 <i lang=\"la\">Salmonella</i> et <i lang=\"la\">E. coli</i> de type g\u00e9n\u00e9rique dans le tahini et les graines de s\u00e9same"
    },
    "html_modified": "2024-02-13 9:50:46 AM",
    "modified": "2018-09-04",
    "issued": "2018-06-05",
    "teamsite_location": {
        "en": "/default/main/inspection/cont-cont/food-aliments/STAGING/templatedata/comn-comn/forms-formes/data/chem_micro_reports_2011-2012_salmonellaecoltahini_1430919620350_eng",
        "fr": "/default/main/inspection/cont-cont/food-aliments/STAGING/templatedata/comn-comn/forms-formes/data/chem_micro_reports_2011-2012_salmonellaecoltahini_1430919620350_fra"
    },
    "ia_id": "1430919620865",
    "parent_ia_id": "1453327843364",
    "chronicletopic": {
        "en": "",
        "fr": ""
    },
    "chroniclecontent": {
        "en": "",
        "fr": ""
    },
    "chronicleaudience": {
        "en": "",
        "fr": ""
    },
    "sfcrdocumenttype": {
        "en": "",
        "fr": ""
    },
    "sfcraudience": {
        "en": "",
        "fr": ""
    },
    "sfcrmethodofproduction": {
        "en": "",
        "fr": ""
    },
    "activity": {
        "en": "",
        "fr": ""
    },
    "commodity": {
        "en": "",
        "fr": ""
    },
    "program": {
        "en": "",
        "fr": ""
    },
    "search_type": "other",
    "parent_node_id": "1453327843364",
    "layout_name": "content page 1 column",
    "breadcrumb": {
        "en": "2011-2012 <i lang=\"la\">Salmonella</i> and Generic <i lang=\"la\">E. coli</i> in Tahini and Sesame Seeds",
        "fr": "2011-2012 <i lang=\"la\">Salmonella</i> et <i lang=\"la\">E. coli</i> de type g\u00e9n\u00e9rique dans le tahini et les graines de s\u00e9same"
    },
    "label": {
        "en": "2011-2012 <i lang=\"la\">Salmonella</i> and Generic <i lang=\"la\">E. coli</i> in Tahini and Sesame Seeds",
        "fr": "2011-2012 <i lang=\"la\">Salmonella</i> et <i lang=\"la\">E. coli</i> de type g\u00e9n\u00e9rique dans le tahini et les graines de s\u00e9same"
    },
    "templatetype": "content page 1 column",
    "node_id": "1430919620865",
    "managing_branch": "comn",
    "type_name": "forms-formes",
    "dcr_type": "forms-formes",
    "parent_dcr_id": "1453324778043",
    "has_dcr_id": true,
    "lang": "en",
    "could_not_load": 0,
    "refaire": false,
    "interwoven_url": {
        "en": "/food-safety-for-industry/food-chemistry-and-microbiology/food-safety-testing-reports-and-journal-articles/salmonella-and-generic-e-coli-in-tahini-and-sesame/",
        "fr": "/salubrite-alimentaire-pour-l-industrie/chimie-et-microbiologie-alimentaires/rapports-d-analyse-et-articles-de-revues-sur-la-sa/salmonella-et-e-coli-de-type-generique-dans-le-tah/"
    },
    "meta": {
        "viewport": {
            "en": "width=device-width,initial-scale=1",
            "fr": "width=device-width,initial-scale=1"
        },
        "service": {
            "en": "CFIA-ACIA",
            "fr": "CFIA-ACIA"
        },
        "accessRights": {
            "en": "2",
            "fr": "2"
        },
        "title": {
            "en": "2011-2012 Salmonella and Generic E. coli in Tahini and Sesame Seeds",
            "fr": "2011-2012 Salmonella et E. coli de type g\u00e9n\u00e9rique dans le tahini et les graines de s\u00e9same"
        },
        "description": {
            "en": "The main objectives of the 2011/12 survey were to generate baseline data on bacterial pathogen Salmonella and on generic Escherichia coli, an indicator of fecal contamination, for tahini and sesame seeds available in the Canadian market.",
            "fr": "L'objectif principal de l'\u00e9tude 2011-2012 \u00e9tait d'obtenir de donn\u00e9es de base sur la pr\u00e9sence de la souche pathog\u00e8ne de Salmonella, et sur la bact\u00e9rie Escherichia coli g\u00e9n\u00e9rique (un indicateur de contamination f\u00e9cale) dans le tahini et les graines de s\u00e9same vendus sur le march\u00e9 canadien."
        },
        "keywords": {
            "en": "food, food safety, Food Safety Action Plan, targeted survey, FSAP, Salmonella, Escherichia coli, tahini, sesame seeds, 2011, 2012",
            "fr": "aliments, salubrit\u00e9 des aliments, Plan d'action pour assurer la s\u00e9curit\u00e9 des produits alimentaires, PAASPA, Salmonella, Escherichia coli, tahini, graines de s\u00e9same, 2011-2012"
        },
        "dcterms.subject": {
            "en": "agri-food products,consumer protection,food,food safety,regulation,safety,testing",
            "fr": "produit agro-alimentaire,protection du consommateur,aliment,salubrit\u00e9 des aliments,r\u00e9glementation,s\u00e9curit\u00e9,test"
        },
        "creator": {
            "en": "Government of Canada,Canadian Food Inspection Agency,Food Safety Science Directorate",
            "fr": "Gouvernement du Canada,Agence canadienne d'inspection des aliments,Direction des sciences de la salubrit\u00e9 des aliments"
        },
        "language": {
            "en": "eng",
            "fr": "fra"
        },
        "issued": {
            "en": "2018-06-05",
            "fr": "2018-06-05"
        },
        "modified": {
            "en": "2018-09-04",
            "fr": "2018-09-04"
        },
        "type": {
            "en": "reference material,report",
            "fr": "mat\u00e9riel de r\u00e9f\u00e9rence,rapport"
        },
        "audience": {
            "en": "business,general public,government",
            "fr": "entreprises,grand public,gouvernement"
        },
        "name": {
            "en": "Government of Canada",
            "fr": "Gouvernement du Canada"
        },
        "areaServed": {
            "en": "Canada",
            "fr": "Canada"
        }
    },
    "h1": {
        "en": "2011-2012 Salmonella and Generic E. coli in Tahini and Sesame Seeds",
        "fr": "2011-2012 Salmonella et E. coli de type g\u00e9n\u00e9rique dans le tahini et les graines de s\u00e9same"
    },
    "js": {
        "en": "<script>\n    document.frmPublication.strTitle.value = document.getElementsByTagName(\"title\")[0].innerHTML;\n    document.frmPublication.strUrl.value = document.URL;\n</script>/* --------------------- MORE JAVASCRIPT ------------------- */<script>\n$(document).ready (function(){\n\tif($(\"#strPaper\").checked || $(\"#strBraille\").checked)\n\t{\n\t\tPaperBrailleChecked();\n\t}\n});\n\n$(document).on(\"change\", \"#strBraille\", function(){\n\tif($(\"#strBraille\").is(\":checked\"))\n\t{\n\t\tPaperBrailleChecked();\n\t}\n\telse if(!($(\"#strPaper\").is(\":checked\")))\n\t{\n\t\tPaperBrailleUnChecked();\n\t}\n});\n\n$(document).on(\"change\", \"#strPaper\", function(){\n\tif($(\"#strPaper\").is(\":checked\"))\n\t{\n\t\tPaperBrailleChecked();\n\t}\n\telse if(!($(\"#strBraille\").is(\":checked\")))\n\t{\n\t\tPaperBrailleUnChecked();\n\t}\n});\n\nfunction PaperBrailleChecked()\n{\n\t$(\"#strAddress1\").attr(\"required\", \"true\");\n\t$(\"#strCity\").attr(\"required\", \"true\");\n\t$(\"#strProvince\").attr(\"required\", \"true\");\n\t$(\"#strCountry\").attr(\"required\", \"true\");\n\t$(\"#strPostal\").attr(\"required\", \"true\");\n}\n\nfunction PaperBrailleUnChecked()\n{\n\t$(\"#strAddress1\").removeAttr(\"required\");\n\t$(\"#strCity\").removeAttr(\"required\");\n\t$(\"#strProvince\").removeAttr(\"required\");\n\t$(\"#strCountry\").removeAttr(\"required\");\n\t$(\"#strPostal\").removeAttr(\"required\");\n}\n</script>",
        "fr": "<script>\n    document.frmPublication.strTitle.value = document.getElementsByTagName(\"title\")[0].innerHTML;\n    document.frmPublication.strUrl.value = document.URL;\n</script>/* --------------------- MORE JAVASCRIPT ------------------- */<script>\n$(document).ready (function(){\n\tif($(\"#strPaper\").checked || $(\"#strBraille\").checked)\n\t{\n\t\tPaperBrailleChecked();\n\t}\n});\n\n$(document).on(\"change\", \"#strBraille\", function(){\n\tif($(\"#strBraille\").is(\":checked\"))\n\t{\n\t\tPaperBrailleChecked();\n\t}\n\telse if(!($(\"#strPaper\").is(\":checked\")))\n\t{\n\t\tPaperBrailleUnChecked();\n\t}\n});\n\n$(document).on(\"change\", \"#strPaper\", function(){\n\tif($(\"#strPaper\").is(\":checked\"))\n\t{\n\t\tPaperBrailleChecked();\n\t}\n\telse if(!($(\"#strBraille\").is(\":checked\")))\n\t{\n\t\tPaperBrailleUnChecked();\n\t}\n});\n\nfunction PaperBrailleChecked()\n{\n\t$(\"#strAddress1\").attr(\"required\", \"true\");\n\t$(\"#strCity\").attr(\"required\", \"true\");\n\t$(\"#strProvince\").attr(\"required\", \"true\");\n\t$(\"#strCountry\").attr(\"required\", \"true\");\n\t$(\"#strPostal\").attr(\"required\", \"true\");\n}\n\nfunction PaperBrailleUnChecked()\n{\n\t$(\"#strAddress1\").removeAttr(\"required\");\n\t$(\"#strCity\").removeAttr(\"required\");\n\t$(\"#strProvince\").removeAttr(\"required\");\n\t$(\"#strCountry\").removeAttr(\"required\");\n\t$(\"#strPostal\").removeAttr(\"required\");\n}\n</script>"
    },
    "mode_html": "no_editor_full",
    "body": {
        "en": "        \r\n        \n<h2>Summary</h2>\n\n<p>The Food Safety Action Plan (FSAP) aims to modernize and enhance Canada's food safety system in order to better protect Canadians from unsafe food and ultimately reduce the occurrence of foodborne illness.</p>\n\n<p>In recent years, foodborne outbreaks of salmonellosis associated with tahini have been reported worldwide. Tahini is a sesame seed-based high fat and low moisture food or food ingredient. Contaminated sesame seeds and/or cross-contamination due to poor hygiene practices during processing are believed to be the main sources and routes of contamination. If contaminated tahini is used as an ingredient in a high moisture food (<abbr title=\"for example\">e.g.</abbr>, hummus), the product subsequently becomes contaminated. <i lang=\"la\">Salmonella</i> can survive in tahini and hummus during the shelf-life of the products and could cause illness upon consumption.</p>\n\n<p>Considering the above factors and their relevance to Canadians, tahini has been selected as one of the priority food ingredients for enhanced surveillance under the <abbr title=\"Food Safety Action Plan\">FSAP</abbr>. Over the course of five years of targeted surveys (2008/09 to 2012/13), approximately 2,500 samples of tahini and sesame seeds were collected from Canadian retail locations and tested for the presence of bacterial pathogens of concern.</p>\n\n<p>The main objectives of the 2011/12 survey were to generate baseline data on bacterial pathogen <i lang=\"la\">Salmonella</i> and on generic <i lang=\"la\">Escherichia coli</i> (<i lang=\"la\">E.\u00a0coli</i>), an indicator of fecal contamination, for tahini and sesame seeds available in the Canadian market. A total of 606 samples of tahini and 595 samples of sesame seeds, including imported and domestic products, were collected and analysed. Levels of generic <i lang=\"la\"><abbr title=\"Escherichia\">E.</abbr>\u00a0coli</i> were found to be acceptable in all the samples, and <i lang=\"la\">Salmonella</i> was not detected in any samples of sesame seeds and in the majority (99.5%) of the tahini samples. Three tahini samples (0.5%) were found to be contaminated with <i lang=\"la\">Salmonella</i> and resulted in three tahini product recalls. These results suggest that the majority of tahini and sesame seeds in the Canadian market sampled during this survey were generally produced under Good Manufacturing Practices (GMPs) and/or Good Agricultural Practices (GAPs). However, the results also indicate that contamination of tahini with <i lang=\"la\">Salmonella</i> can occur, which could represent a food safety risk.</p>\n\n<p>The <abbr title=\"Canadian Food Inspection Agency\">CFIA</abbr> regulates and provides oversight to the food industry, works with provinces and territories, and promotes safe handling of foods throughout the food production chain. However, it is important to note that the food industry, importers, and retail sectors are ultimately responsible for the food they produce, import, and sell, while individual consumers are responsible for the safe handling of the food they have in their possession. Moreover, general advice for the consumer on the safe handling of foods is widely available. The <abbr title=\"Canadian Food Inspection Agency\">CFIA</abbr> will continue its surveillance activities and inform stakeholders of its findings.</p>\r\n<style>\n/* required style */\n    .keyValue{\n\tdisplay: none !important;\n        visibility: hidden !important;\n</style>\n<h2>Request of Complete Report</h2>\n<p>The complete text of this report is available upon request.</p>\n\n<div class=\"wb-frmvld\">\n\n<form class=\"form-horizontal\" role=\"form\" method=\"post\" action=\"/active/netapp/comment/publicationposte.aspx#wb-cont\" name=\"frmPublication\">\n<input id=\"emailad0\" name=\"to\" class=\"hidden\" type=\"hidden\" aria-hidden=\"true\" value=\"TmAk+jkMTPPZpP9bAWZRSg4egWUKDhtUxFQLAlGeKYhvIg87M/Q/cMTlfOR5bn00XkgJz87goqvXyI5CSo7S2i8tyVxDRXJFWw4+4VAJTIQ=\">\n<input name=\"strLang\" type=\"hidden\" value=\"English\">\n<input name=\"strSubject\" type=\"hidden\" value=\"Chemical Residues / Microbiology Report Request\">\n<input name=\"strTitle\" type=\"hidden\" value=\"title\">\n<input name=\"strUrl\" type=\"hidden\" value=\"url\">\n<script type=\"text/javascript\">\n    document.frmPublication.strTitle.value = document.getElementsByTagName(\"title\")[0].innerHTML;\n    document.frmPublication.strUrl.value = document.URL;\n</script>\n        \n<fieldset class=\"mrgn-tp-md mrgn-bttm-lg\">\t\t\n\n<legend class=\"field-name required\"><span class=\"field-name\">The format in which you would like to receive the report</span> <strong class=\"required\">(required)</strong></legend>\n\n<div class=\"checkbox\">\n<label for=\"strPdf\"><input type=\"checkbox\" name=\"formatsent\" id=\"strPdf\" value=\"pdf\" required=\"required\">PDF (Portable Document Format) electronic file sent to you by email</label>\n</div>\n\n<div class=\"checkbox\">\n<label for=\"strText\"><input type=\"checkbox\" name=\"formatsent\" id=\"strText\" value=\"text\">RTF (Rich Text Format) electronic file sent to you by email</label>\n</div>\n\n<div class=\"checkbox\">\n<label for=\"strBraille\"><input type=\"checkbox\" name=\"formatsent\" id=\"strBraille\" value=\"braille\">Braille copy sent to you by mail</label>\n</div>\n\n<div class=\"checkbox\">\n<label for=\"strPaper\"><input type=\"checkbox\" name=\"formatsent\" id=\"strPaper\" value=\"paper\">Paper copy sent to you by mail</label>\n</div>\n\n</fieldset>\t\n\n<fieldset class=\"mrgn-tp-md mrgn-bttm-lg\">\t\t\n\n<legend class=\"field-name\">Your contact information</legend>\n\n<label class=\"keyValue\" for=\"name\"></label>\n<input class=\"keyValue\" autocomplete=\"off\" type=\"text\" id=\"name\" name=\"name\">\n<label class=\"keyValue\" for=\"email\"></label>\n<input class=\"keyValue\" autocomplete=\"off\" type=\"email\" id=\"email\" name=\"email\"> \n\n<div class=\"form-group\">\n<label for=\"strFirstName\" class=\"required col-md-4 control-label\"><span class=\"field-name\">First name:</span> <strong class=\"required\">(required)</strong></label>\n<div class=\"col-md-8\">\n<input class=\"form-control\" id=\"strFirstName\" name=\"strFirstName\" type=\"text\" required=\"required\" pattern=\".{2,}\" data-rule-minlength=\"2\">\n</div>\n</div>\n            \n<div class=\"form-group\">\n<label for=\"strLastName\" class=\"required col-md-4 control-label\"><span class=\"field-name\">Last name:</span> <strong class=\"required\">(required)</strong></label>\n<div class=\"col-md-8\">\n<input class=\"form-control\" id=\"strLastName\" name=\"strLastName\" type=\"text\" required=\"required\" pattern=\".{2,}\" data-rule-minlength=\"2\">\n</div>\n</div>\n\n<div class=\"form-group\">\n<label for=\"strEmail\" class=\"required col-md-4 control-label\"><span class=\"field-name\">Email address:</span>  <strong class=\"required\">(required)</strong></label>\n<div class=\"col-md-8\">\n<input class=\"form-control\" id=\"strEmail\" name=\"strEmail\" type=\"email\" required=\"required\">\n</div>\n</div>\n\n<div class=\"form-group\">\n<label for=\"strConfirmEmail\" class=\"required col-md-4 control-label\"><span class=\"field-name\">Confirm email address:</span>  <strong class=\"required\">(required)</strong></label>\n<div class=\"col-md-8\">\n<input class=\"form-control\" id=\"strConfirmEmail\" name=\"strConfirmEmail\" type=\"email\" data-rule-equalto=\"#strEmail\" required=\"required\">\n</div>\n</div>\n\n<div class=\"form-group mrgn-tp-md\">\n<label for=\"lstdescribe\" class=\"required col-md-4 control-label\"><span class=\"field-name\">How would you describe yourself?</span> <strong class=\"required\">(required)</strong></label>\n<div class=\"col-md-8\">\n<select class=\"form-control\" id=\"lstdescribe\" name=\"lstdescribe\" required=\"required\">\n<option label=\"Select from this list\"></option>\n<option value=\"Academia\">Academia</option>\n<option value=\"Consumer Association\">Consumer Association</option>\n<option value=\"Consumer/General Public\">Consumer / General Public</option>\n<option value=\"Industry Association\">Industry Association</option>\n<option value=\"Industry/Commercial Sector\">Industry / Commercial Sector</option>\n<option value=\"Other Government Departments\">Other Government Departments</option>\t\t\t\n</select>\n</div>\n</div>\t\n\n<div class=\"form-group\">\n<label for=\"strAddress1\" class=\"col-md-4 control-label\"><span class=\"field-name\">Address 1:</span></label>\n<div class=\"col-md-8\">\n<input class=\"form-control\" id=\"strAddress1\" name=\"strAddress1\" type=\"text\">\n</div>\n</div>\n\n<div class=\"form-group\">\n<label for=\"strAddress2\" class=\"col-md-4 control-label\"><span class=\"field-name\">Address 2:</span></label>\n<div class=\"col-md-8\">\n<input class=\"form-control\" id=\"strAddress2\" name=\"strAddress2\" type=\"text\">\n</div>\n</div>\n\n<div class=\"form-group\">\n<label for=\"strCity\" class=\"col-md-4 control-label\"><span class=\"field-name\">City:</span></label>\n<div class=\"col-md-8\">\n<input class=\"form-control\" id=\"strCity\" name=\"strCity\" type=\"text\">\n</div>\n</div>\n\n<div class=\"form-group\">\n<label for=\"strProvince\" class=\"col-md-4 control-label\"><span class=\"field-name\">Province:</span></label>\n<div class=\"col-md-8\">\n<input class=\"form-control\" id=\"strProvince\" name=\"strProvince\" type=\"text\">\n</div>\n</div>\n\n<div class=\"form-group\">\n<label for=\"strCountry\" class=\"col-md-4 control-label\"><span class=\"field-name\">Country:</span></label>\n<div class=\"col-md-8\">\n<input class=\"form-control\" id=\"strCountry\" name=\"strCountry\" type=\"text\">\n</div>\n</div>\n\n<div class=\"form-group\">\n<label for=\"strPostal\" class=\"col-md-4 control-label\"><span class=\"field-name\">Postal Code:</span></label>\n<div class=\"col-md-8\">\n<input class=\"form-control\" id=\"strPostal\" name=\"strPostal\" type=\"text\">\n</div>\n</div>\n\n</fieldset>\t\n\n<input value=\"Submit Your Request\" id=\"btnSubmit\" name=\"btnSubmit\" class=\"btn btn-primary\" type=\"submit\"> \n<input value=\"Clear All Information\" id=\"btnReset\" name=\"btnReset\" class=\"btn btn-default\" type=\"reset\">\n\n</form>\n</div>\n<script src=\"https://ajax.googleapis.com/ajax/libs/jquery/2.1.1/jquery.min.js\"></script>\n<script type=\"text/javascript\">\n$(document).ready (function(){\n\tif($(\"#strPaper\").checked || $(\"#strBraille\").checked)\n\t{\n\t\tPaperBrailleChecked();\n\t}\n});\n\n$(document).on(\"change\", \"#strBraille\", function(){\n\tif($(\"#strBraille\").is(\":checked\"))\n\t{\n\t\tPaperBrailleChecked();\n\t}\n\telse if(!($(\"#strPaper\").is(\":checked\")))\n\t{\n\t\tPaperBrailleUnChecked();\n\t}\n});\n\n$(document).on(\"change\", \"#strPaper\", function(){\n\tif($(\"#strPaper\").is(\":checked\"))\n\t{\n\t\tPaperBrailleChecked();\n\t}\n\telse if(!($(\"#strBraille\").is(\":checked\")))\n\t{\n\t\tPaperBrailleUnChecked();\n\t}\n});\n\nfunction PaperBrailleChecked()\n{\n\t$(\"#strAddress1\").attr(\"required\", \"true\");\n\t$(\"#strCity\").attr(\"required\", \"true\");\n\t$(\"#strProvince\").attr(\"required\", \"true\");\n\t$(\"#strCountry\").attr(\"required\", \"true\");\n\t$(\"#strPostal\").attr(\"required\", \"true\");\n}\n\nfunction PaperBrailleUnChecked()\n{\n\t$(\"#strAddress1\").removeAttr(\"required\");\n\t$(\"#strCity\").removeAttr(\"required\");\n\t$(\"#strProvince\").removeAttr(\"required\");\n\t$(\"#strCountry\").removeAttr(\"required\");\n\t$(\"#strPostal\").removeAttr(\"required\");\n}\n</script>\r\n\r\n\r\n\r\n<div class=\"row\">\r\n \r\n\t\r\n\t\t\t\r\n\r\n<div class=\"col-xm-12 pagedetails container\">\r\n\t\t\t\t\r\n\r\n</div>\r\n\t\r\n</div>",
        "fr": "\r\n        \r\n        \n<h2>R\u00e9sum\u00e9</h2>\n\n<p>Le Plan d'action pour assurer la s\u00e9curit\u00e9 des produits alimentaires (PAASPA) vise \u00e0 moderniser et \u00e0 renforcer le syst\u00e8me canadien de salubrit\u00e9 des aliments afin de mieux prot\u00e9ger les Canadiens des effets des produits alimentaires insalubres et r\u00e9duire les cas de maladie d'origine alimentaire.</p>\n\n<p>Au cours des derni\u00e8res ann\u00e9es, des \u00e9closions de salmonellose associ\u00e9es au tahini ont \u00e9t\u00e9 signal\u00e9es \u00e0 diff\u00e9rents endroits dans le monde. Le tahini est un aliment ou un ingr\u00e9dient alimentaire \u00e0 teneur \u00e9lev\u00e9e en lipides et \u00e0 faible teneur en eau, fabriqu\u00e9 \u00e0 partir de graines de s\u00e9same. On croit que des graines de s\u00e9same contamin\u00e9es ou une contamination crois\u00e9e caus\u00e9e par de mauvaises pratiques d'hygi\u00e8ne durant la transformation sont les principales sources et voies de contamination. Si du tahini contamin\u00e9 est utilis\u00e9 comme ingr\u00e9dient dans un aliment \u00e0 teneur \u00e9lev\u00e9e en eau (<abbr title=\"par exemple\">p.\u00a0ex.</abbr> du hoummos), cet aliment est alors lui aussi contamin\u00e9. La bact\u00e9rie <i lang=\"la\">Salmonella</i> peut survivre dans le tahini et l'hoummos durant toute la dur\u00e9e de conservation de ces produits et elle pourrait rendre malade la personne qui les consommerait.</p>\n\n<p>Compte tenu des \u00e9l\u00e9ments ci-dessus et de leur pertinence pour la sant\u00e9 des Canadiens, le tahini a \u00e9t\u00e9 s\u00e9lectionn\u00e9 comme l'un des ingr\u00e9dients alimentaires devant prioritairement faire l'objet d'une surveillance accrue dans le cadre du <abbr title=\"Plan d'action pour assurer la s\u00e9curit\u00e9 des produits alimentaires\">PAASPA</abbr>. Au cours des cinq ann\u00e9es d'\u00e9tudes cibl\u00e9es (2008-2009 \u00e0 2012\u00ad-2013), on a pr\u00e9lev\u00e9 environ 2500 \u00e9chantillons de tahini et de graines de s\u00e9same dans des lieux de vente au d\u00e9tail canadiens pour y d\u00e9terminer la pr\u00e9sence de bact\u00e9ries pathog\u00e8nes pr\u00e9occupantes.</p>\n\n<p>L'objectif principal de l'\u00e9tude 2011-2012 \u00e9tait d'obtenir de donn\u00e9es de base sur la pr\u00e9sence de la souche pathog\u00e8ne de <i lang=\"la\">Salmonella</i>, et sur la bact\u00e9rie <i lang=\"la\">Escherichia coli</i> (<i lang=\"la\">E.\u00a0coli</i>) g\u00e9n\u00e9rique (un indicateur de contamination f\u00e9cale) dans le tahini et les graines de s\u00e9same vendus sur le march\u00e9 canadien. On a pr\u00e9lev\u00e9 un total de 606 \u00e9chantillons de tahini et 595 \u00e9chantillons de graines de s\u00e9same, comprenant des produits import\u00e9s et des produits canadiens, pour les analyser. Les concentrations d'<i lang=\"la\"><abbr title=\"Escherichia\">E.</abbr>\u00a0coli</i> g\u00e9n\u00e9rique se sont av\u00e9r\u00e9es acceptables dans tous les \u00e9chantillons, et on n'a d\u00e9tect\u00e9 de <i lang=\"la\">Salmonella</i> dans aucun des \u00e9chantillons de graines de s\u00e9same, ni dans la majorit\u00e9 (99,5\u00a0%) des \u00e9chantillons de tahini. Trois \u00e9chantillons de tahini (0,5\u00a0%) se sont av\u00e9r\u00e9s \u00eatre contamin\u00e9s par la bact\u00e9rie <i lang=\"la\">Salmonella</i>, ce qui a occasionn\u00e9 le rappel de trois produits de tahini. Ces r\u00e9sultats sugg\u00e8rent que la majorit\u00e9 du tahini et des graines de s\u00e9same en vente au Canada et \u00e9chantillonn\u00e9s dans le cadre de la pr\u00e9sente \u00e9tude \u00e9taient g\u00e9n\u00e9ralement produits conform\u00e9ment aux bonnes pratiques de fabrication (BPF) et aux bonnes pratiques agricoles (BPA). Les r\u00e9sultats indiquent toutefois que la contamination du tahini par la bact\u00e9rie <i lang=\"la\">Salmonella</i> est possible, et cela pourrait repr\u00e9senter un risque alimentaire.</p>\n\n<p>L'Agence canadienne d'inspection des aliments (ACIA) r\u00e9glemente et supervise l'industrie alimentaire, collabore avec les provinces et les territoires, et fait la promotion de m\u00e9thodes de manipulation s\u00e9curitaire des aliments pour toutes les \u00e9tapes de la cha\u00eene de production. N'oublions pas cependant que l'industrie alimentaire, les importateurs et les secteurs du d\u00e9tail sont en d\u00e9finitive responsables des aliments qu'ils produisent, importent et vendent, et qu'il appartient aux consommateurs de manipuler d'une mani\u00e8re s\u00e9curitaire les aliments qui sont en leur possession. De plus, les consommateurs ont facilement acc\u00e8s \u00e0 des conseils g\u00e9n\u00e9raux sur la manipulation s\u00e9curitaire des aliments. L'<abbr title=\"Agence canadienne d'inspection des aliments\">ACIA</abbr> poursuivra ses activit\u00e9s de surveillance et fera part de ses constatations aux intervenants.</p>\r\n<style>\n/* required style */\n    .keyValue{\n\tdisplay: none !important;\n        visibility: hidden !important;\n</style>\n<h2>Demande de rapport complet</h2>\n<p>La version int\u00e9grale du pr\u00e9sent rapport est disponible sur demande.</p>\n\n<div class=\"wb-frmvld\">\n\n<form class=\"form-horizontal\" role=\"form\" method=\"post\" action=\"/active/netapp/comment/publicationposte.aspx#wb-cont\" name=\"frmPublication\">\n\n<input id=\"emailad0\" name=\"to\" class=\"hidden\" type=\"hidden\" aria-hidden=\"true\" value=\"AuJAt6BtQaQg4kfsF9R9PhT69HY5+wK+tcuGadG6sqRiqG150uuiwNdheo5y//ow17PnUmmqlVkZNOiKj1NBtj/TMreQySfkfcHE2z0un1M=\">\n<input name=\"strLang\" type=\"hidden\" value=\"Francais\">\n<input name=\"strSubject\" type=\"hidden\" value=\"Demande de rapport de r\u00e9sidus chimiques / microbiologie\">\n<input name=\"strTitle\" type=\"hidden\" value=\"title\">\n<input name=\"strUrl\" type=\"hidden\" value=\"url\">\n<script type=\"text/javascript\">\n    document.frmPublication.strTitle.value = document.getElementsByTagName(\"title\")[0].innerHTML;\n    document.frmPublication.strUrl.value = document.URL;\n</script>\n        \n<fieldset class=\"mrgn-tp-md mrgn-bttm-lg\">\t\t\n\n<legend class=\"field-name required\"><span class=\"field-name\">Le format dans lequel vous souhaitez recevoir le rapport</span> <strong class=\"required\">(obligatoire)</strong></legend>\n\n<div class=\"checkbox\">\n<label for=\"strPdf\"><input type=\"checkbox\" name=\"formatsent\" id=\"strPdf\" value=\"pdf\" required=\"required\">Fichier \u00e9lectronique PDF (format de document portable) envoy\u00e9 par courriel</label>\n</div>\n\n<div class=\"checkbox\">\n<label for=\"strText\"><input type=\"checkbox\" name=\"formatsent\" id=\"strText\" value=\"text\">Fichier \u00e9lectronique RTF (<span lang=\"en\">Rich Text Format</span>) envoy\u00e9 par courriel</label>\n</div>\n\n<div class=\"checkbox\">\n<label for=\"strBraille\"><input type=\"checkbox\" name=\"formatsent\" id=\"strBraille\" value=\"braille\">Copie braille envoy\u00e9e par la poste</label>\n</div>\n\n<div class=\"checkbox\">\n<label for=\"strPaper\"><input type=\"checkbox\" name=\"formatsent\" id=\"strPaper\" value=\"paper\">Copie papier envoy\u00e9e par la poste</label>\n</div>\n\n</fieldset>\t\n\n<fieldset class=\"mrgn-tp-md mrgn-bttm-lg\">\t\t\n\n<legend class=\"field-name\">Vos coordonn\u00e9es</legend>\n\n<label class=\"keyValue\" for=\"name\"></label>\n<input class=\"keyValue\" autocomplete=\"off\" type=\"text\" id=\"name\" name=\"name\">\n<label class=\"keyValue\" for=\"email\"></label>\n<input class=\"keyValue\" autocomplete=\"off\" type=\"email\" id=\"email\" name=\"email\"> \n\n<div class=\"form-group\">\n<label for=\"strFirstName\" class=\"required col-md-4 control-label\"><span class=\"field-name\">Pr\u00e9nom :</span> <strong class=\"required\">(obligatoire)</strong></label>\n<div class=\"col-md-8\">\n<input class=\"form-control\" id=\"strFirstName\" name=\"strFirstName\" type=\"text\" required=\"required\" pattern=\".{2,}\" data-rule-minlength=\"2\">\n</div>\n</div>\n            \n<div class=\"form-group\">\n<label for=\"strLastName\" class=\"required col-md-4 control-label\"><span class=\"field-name\">Nom :</span> <strong class=\"required\">(obligatoire)</strong></label>\n<div class=\"col-md-8\">\n<input class=\"form-control\" id=\"strLastName\" name=\"strLastName\" type=\"text\" required=\"required\" pattern=\".{2,}\" data-rule-minlength=\"2\">\n</div>\n</div>\n\n<div class=\"form-group\">\n<label for=\"strEmail\" class=\"required col-md-4 control-label\"><span class=\"field-name\">Adresse de courriel :</span> \u00a0<strong class=\"required\">(obligatoire)</strong></label>\n<div class=\"col-md-8\">\n<input class=\"form-control\" id=\"strEmail\" name=\"strEmail\" type=\"email\" required=\"required\">\n</div>\n</div>\n\n<div class=\"form-group\">\n<label for=\"strConfirmEmail\" class=\"required col-md-4 control-label\"><span class=\"field-name\">Confirmer Adresse de courriel :</span>  <strong class=\"required\">(obligatoire)</strong></label>\n<div class=\"col-md-8\">\n<input class=\"form-control\" id=\"strConfirmEmail\" name=\"strConfirmEmail\" type=\"email\" data-rule-equalto=\"#strEmail\" required=\"required\">\n</div>\n</div>\n\n<div class=\"form-group mrgn-tp-md\">\n<label for=\"lstdescribe\" class=\"required col-md-4 control-label\"><span class=\"field-name\">Comment vous vous d\u00e9criviez?</span> <strong class=\"required\">(obligatoire)</strong></label>\n<div class=\"col-md-8\">\n<select class=\"form-control\" id=\"lstdescribe\" name=\"lstdescribe\" required=\"required\">\n<option label=\"Choisir parmi la liste\"></option>\n<option value=\"Acad\u00e9mie\">Acad\u00e9mie</option>\n<option value=\"Association sectorielle\">Association sectorielle</option>  \n<option value=\"Autres institutions du gouvernement\">Autres institutions du gouvernement</option>\n<option value=\"Consommateur/Grand public\">Consommateur / Grand public</option>\n<option value=\"Groupe de consommateur\">Groupe de consommateur</option>\n<option value=\"Industrie/Secteur commercial\">Industrie / Secteur commercial</option>\n</select>\n</div>\n</div>\t\n\n<div class=\"form-group\">\n<label for=\"strAddress1\" class=\"col-md-4 control-label\"><span class=\"field-name\">Adresse 1 :</span></label>\n<div class=\"col-md-8\">\n<input class=\"form-control\" id=\"strAddress1\" name=\"strAddress1\" type=\"text\">\n</div>\n</div>\n\n<div class=\"form-group\">\n<label for=\"strAddress2\" class=\"col-md-4 control-label\"><span class=\"field-name\">Adresse 2 :</span></label>\n<div class=\"col-md-8\">\n<input class=\"form-control\" id=\"strAddress2\" name=\"strAddress2\" type=\"text\">\n</div>\n</div>\n\n<div class=\"form-group\">\n<label for=\"strCity\" class=\"col-md-4 control-label\"><span class=\"field-name\">Ville :</span></label>\n<div class=\"col-md-8\">\n<input class=\"form-control\" id=\"strCity\" name=\"strCity\" type=\"text\">\n</div>\n</div>\n\n<div class=\"form-group\">\n<label for=\"strProvince\" class=\"col-md-4 control-label\"><span class=\"field-name\">Province :</span></label>\n<div class=\"col-md-8\">\n<input class=\"form-control\" id=\"strProvince\" name=\"strProvince\" type=\"text\">\n</div>\n</div>\n\n<div class=\"form-group\">\n<label for=\"strCountry\" class=\"col-md-4 control-label\"><span class=\"field-name\">Pays : </span></label>\n<div class=\"col-md-8\">\n<input class=\"form-control\" id=\"strCountry\" name=\"strCountry\" type=\"text\">\n</div>\n</div>\n\n<div class=\"form-group\">\n<label for=\"strPostal\" class=\"col-md-4 control-label\"><span class=\"field-name\">Code postal : </span></label>\n<div class=\"col-md-8\">\n<input class=\"form-control\" id=\"strPostal\" name=\"strPostal\" type=\"text\">\n</div>\n</div>\n\n</fieldset>\t\n\n<input value=\"Soumettre votre demande\" id=\"btnSubmit\" name=\"btnSubmit\" class=\"btn btn-primary\" type=\"submit\"> \n<input value=\"Effacez tous les renseignements\" id=\"btnReset\" name=\"btnReset\" class=\"btn btn-default\" type=\"reset\">\n\n</form>\n</div>\n<script src=\"https://ajax.googleapis.com/ajax/libs/jquery/2.1.1/jquery.min.js\"></script>\n<script type=\"text/javascript\">\n$(document).ready (function(){\n\tif($(\"#strPaper\").checked || $(\"#strBraille\").checked)\n\t{\n\t\tPaperBrailleChecked();\n\t}\n});\n\n$(document).on(\"change\", \"#strBraille\", function(){\n\tif($(\"#strBraille\").is(\":checked\"))\n\t{\n\t\tPaperBrailleChecked();\n\t}\n\telse if(!($(\"#strPaper\").is(\":checked\")))\n\t{\n\t\tPaperBrailleUnChecked();\n\t}\n});\n\n$(document).on(\"change\", \"#strPaper\", function(){\n\tif($(\"#strPaper\").is(\":checked\"))\n\t{\n\t\tPaperBrailleChecked();\n\t}\n\telse if(!($(\"#strBraille\").is(\":checked\")))\n\t{\n\t\tPaperBrailleUnChecked();\n\t}\n});\n\nfunction PaperBrailleChecked()\n{\n\t$(\"#strAddress1\").attr(\"required\", \"true\");\n\t$(\"#strCity\").attr(\"required\", \"true\");\n\t$(\"#strProvince\").attr(\"required\", \"true\");\n\t$(\"#strCountry\").attr(\"required\", \"true\");\n\t$(\"#strPostal\").attr(\"required\", \"true\");\n}\n\nfunction PaperBrailleUnChecked()\n{\n\t$(\"#strAddress1\").removeAttr(\"required\");\n\t$(\"#strCity\").removeAttr(\"required\");\n\t$(\"#strProvince\").removeAttr(\"required\");\n\t$(\"#strCountry\").removeAttr(\"required\");\n\t$(\"#strPostal\").removeAttr(\"required\");\n}\n</script>\r\n\r\n<div class=\"row\">\r\n \r\n\t\t\t\r\n\t\t\t\r\n\r\n\t\t\r\n\t\r\n</div>"
    },
    "success": true,
    "chat_wizard": false
}