{
    "dcr_id": "1480606736552",
    "title": {
        "en": "2013-2014 Coumarin in Dried Beverage Mixes, Breads, Baking Mixes, Spice Mixes, Dried Tea, Baked Goods, and Breakfast Foods",
        "fr": "2013-2014 Coumarine dans les m\u00e9langes s\u00e9ch\u00e9s pour boissons, les pains, les m\u00e9langes \u00e0 p\u00e2te, les m\u00e9langes d'\u00e9pices, le th\u00e9 s\u00e9ch\u00e9, les produits de boulangerie-p\u00e2tisserie et les aliments pour petit-d\u00e9jeuner"
    },
    "html_modified": "2024-02-13 9:51:54 AM",
    "modified": "2018-09-04",
    "issued": "2018-06-05",
    "teamsite_location": {
        "en": "/default/main/inspection/cont-cont/food-aliments/STAGING/templatedata/comn-comn/forms-formes/data/chem_testing_report_2013-2014_coumarin_food_1480606736552_eng",
        "fr": "/default/main/inspection/cont-cont/food-aliments/STAGING/templatedata/comn-comn/forms-formes/data/chem_testing_report_2013-2014_coumarin_food_1480606736552_fra"
    },
    "ia_id": "1480606737083",
    "parent_ia_id": "1453327843364",
    "chronicletopic": {
        "en": "",
        "fr": ""
    },
    "chroniclecontent": {
        "en": "",
        "fr": ""
    },
    "chronicleaudience": {
        "en": "",
        "fr": ""
    },
    "sfcrdocumenttype": {
        "en": "",
        "fr": ""
    },
    "sfcraudience": {
        "en": "",
        "fr": ""
    },
    "sfcrmethodofproduction": {
        "en": "",
        "fr": ""
    },
    "activity": {
        "en": "",
        "fr": ""
    },
    "commodity": {
        "en": "",
        "fr": ""
    },
    "program": {
        "en": "",
        "fr": ""
    },
    "search_type": "other",
    "parent_node_id": "1453327843364",
    "layout_name": "content page 1 column",
    "breadcrumb": {
        "en": "2013-2014 Coumarin in Dried Beverage Mixes, Breads, Baking Mixes, Spice Mixes, Dried Tea, Baked Goods, and Breakfast Foods",
        "fr": "2013-2014 Coumarine dans les m\u00e9langes s\u00e9ch\u00e9s pour boissons, les pains, les m\u00e9langes \u00e0 p\u00e2te, les m\u00e9langes d'\u00e9pices, le th\u00e9 s\u00e9ch\u00e9, les produits de boulangerie-p\u00e2tisserie et les aliments pour petit-d\u00e9jeuner"
    },
    "label": {
        "en": "2013-2014 Coumarin in Dried Beverage Mixes, Breads, Baking Mixes, Spice Mixes, Dried Tea, Baked Goods, and Breakfast Foods",
        "fr": "2013-2014 Coumarine dans les m\u00e9langes s\u00e9ch\u00e9s pour boissons, les pains, les m\u00e9langes \u00e0 p\u00e2te, les m\u00e9langes d'\u00e9pices, le th\u00e9 s\u00e9ch\u00e9, les produits de boulangerie-p\u00e2tisserie et les aliments pour petit-d\u00e9jeuner"
    },
    "templatetype": "content page 1 column",
    "node_id": "1480606737083",
    "managing_branch": "comn",
    "type_name": "forms-formes",
    "dcr_type": "forms-formes",
    "parent_dcr_id": "1453324778043",
    "has_dcr_id": true,
    "lang": "en",
    "could_not_load": 0,
    "refaire": false,
    "interwoven_url": {
        "en": "/food-safety-for-industry/food-chemistry-and-microbiology/food-safety-testing-reports-and-journal-articles/coumarin/",
        "fr": "/salubrite-alimentaire-pour-l-industrie/chimie-et-microbiologie-alimentaires/rapports-d-analyse-et-articles-de-revues-sur-la-sa/coumarine/"
    },
    "meta": {
        "viewport": {
            "en": "width=device-width,initial-scale=1",
            "fr": "width=device-width,initial-scale=1"
        },
        "service": {
            "en": "CFIA-ACIA",
            "fr": "CFIA-ACIA"
        },
        "accessRights": {
            "en": "2",
            "fr": "2"
        },
        "title": {
            "en": "2013-2014 Coumarin in Dried Beverage Mixes, Breads, Baking Mixes, Spice Mixes, Dried Tea, Baked Goods, and Breakfast Foods",
            "fr": "2013-2014 Coumarine dans les m\u00e9langes s\u00e9ch\u00e9s pour boissons, les pains, les m\u00e9langes \u00e0 p\u00e2te, les m\u00e9langes d'\u00e9pices, le th\u00e9 s\u00e9ch\u00e9, les produits de boulangerie-p\u00e2tisserie et les aliments pour petit-d\u00e9jeuner"
        },
        "description": {
            "en": "Targeted surveys are used by the Canadian Food Inspection Agency (CFIA) to both support the prioritization of the Agency's activities to areas of greater concern and provide scientific evidence to address areas of lesser concern.",
            "fr": "L'Agence canadienne d'inspection des aliments (ACIA) se sert d'enqu\u00eates cibl\u00e9es afin de concentrer ses activit\u00e9s de surveillance dans les domaines pr\u00e9sentant les risques les plus \u00e9lev\u00e9s."
        },
        "keywords": {
            "en": "food, food safety, food safety requirements, sampling, testing, food safety risks, dried beverage mixes, breads, baking mixes, spice mixes, dried tea, baked goods, oatmeal, breakfast cereals",
            "fr": "aliments, salubrit\u00e9 des aliments, exigences f\u00e9d\u00e9rales en mati\u00e8re de salubrit\u00e9 des aliments, \u00e9chantillonnage, analyse, risques pour la salubrit\u00e9 des aliments, m\u00e9langes s\u00e9ch\u00e9s pour boissons, pains, m\u00e9langes \u00e0 p\u00e2te, m\u00e9langes d'\u00e9pices, th\u00e9 s\u00e9ch\u00e9, produits de boulangerie-p\u00e2tisserie, gruau, c\u00e9r\u00e9ales"
        },
        "dcterms.subject": {
            "en": "food,food inspection,agri-food products,regulation,food safety,safety,testing",
            "fr": "aliment,inspection des aliments,produit agro-alimentaire,r\u00e9glementation,salubrit\u00e9 des aliments,s\u00e9curit\u00e9,test"
        },
        "creator": {
            "en": "Government of Canada,Canadian Food Inspection Agency",
            "fr": "Gouvernement du Canada,Agence canadienne d'inspection des aliments"
        },
        "language": {
            "en": "eng",
            "fr": "fra"
        },
        "issued": {
            "en": "2018-06-05",
            "fr": "2018-06-05"
        },
        "modified": {
            "en": "2018-09-04",
            "fr": "2018-09-04"
        },
        "type": {
            "en": "reference material",
            "fr": "mat\u00e9riel de r\u00e9f\u00e9rence"
        },
        "audience": {
            "en": "business,government,general public",
            "fr": "entreprises,gouvernement,grand public"
        },
        "name": {
            "en": "Government of Canada",
            "fr": "Gouvernement du Canada"
        },
        "areaServed": {
            "en": "Canada",
            "fr": "Canada"
        }
    },
    "h1": {
        "en": "2013-2014 Coumarin in Dried Beverage Mixes, Breads, Baking Mixes, Spice Mixes, Dried Tea, Baked Goods, and Breakfast Foods",
        "fr": "2013-2014 Coumarine dans les m\u00e9langes s\u00e9ch\u00e9s pour boissons, les pains, les m\u00e9langes \u00e0 p\u00e2te, les m\u00e9langes d'\u00e9pices, le th\u00e9 s\u00e9ch\u00e9, les produits de boulangerie-p\u00e2tisserie et les aliments pour petit-d\u00e9jeuner"
    },
    "js": {
        "en": "<script>\n    document.frmPublication.strTitle.value = document.getElementsByTagName(\"title\")[0].innerHTML;\n    document.frmPublication.strUrl.value = document.URL;\n</script>/* --------------------- MORE JAVASCRIPT ------------------- */<script>\n$(document).ready (function(){\n\tif($(\"#strPaper\").checked || $(\"#strBraille\").checked)\n\t{\n\t\tPaperBrailleChecked();\n\t}\n});\n\n$(document).on(\"change\", \"#strBraille\", function(){\n\tif($(\"#strBraille\").is(\":checked\"))\n\t{\n\t\tPaperBrailleChecked();\n\t}\n\telse if(!($(\"#strPaper\").is(\":checked\")))\n\t{\n\t\tPaperBrailleUnChecked();\n\t}\n});\n\n$(document).on(\"change\", \"#strPaper\", function(){\n\tif($(\"#strPaper\").is(\":checked\"))\n\t{\n\t\tPaperBrailleChecked();\n\t}\n\telse if(!($(\"#strBraille\").is(\":checked\")))\n\t{\n\t\tPaperBrailleUnChecked();\n\t}\n});\n\nfunction PaperBrailleChecked()\n{\n\t$(\"#strAddress1\").attr(\"required\", \"true\");\n\t$(\"#strCity\").attr(\"required\", \"true\");\n\t$(\"#strProvince\").attr(\"required\", \"true\");\n\t$(\"#strCountry\").attr(\"required\", \"true\");\n\t$(\"#strPostal\").attr(\"required\", \"true\");\n}\n\nfunction PaperBrailleUnChecked()\n{\n\t$(\"#strAddress1\").removeAttr(\"required\");\n\t$(\"#strCity\").removeAttr(\"required\");\n\t$(\"#strProvince\").removeAttr(\"required\");\n\t$(\"#strCountry\").removeAttr(\"required\");\n\t$(\"#strPostal\").removeAttr(\"required\");\n}\n</script>",
        "fr": "<script>\n    document.frmPublication.strTitle.value = document.getElementsByTagName(\"title\")[0].innerHTML;\n    document.frmPublication.strUrl.value = document.URL;\n</script>/* --------------------- MORE JAVASCRIPT ------------------- */<script>\n$(document).ready (function(){\n\tif($(\"#strPaper\").checked || $(\"#strBraille\").checked)\n\t{\n\t\tPaperBrailleChecked();\n\t}\n});\n\n$(document).on(\"change\", \"#strBraille\", function(){\n\tif($(\"#strBraille\").is(\":checked\"))\n\t{\n\t\tPaperBrailleChecked();\n\t}\n\telse if(!($(\"#strPaper\").is(\":checked\")))\n\t{\n\t\tPaperBrailleUnChecked();\n\t}\n});\n\n$(document).on(\"change\", \"#strPaper\", function(){\n\tif($(\"#strPaper\").is(\":checked\"))\n\t{\n\t\tPaperBrailleChecked();\n\t}\n\telse if(!($(\"#strBraille\").is(\":checked\")))\n\t{\n\t\tPaperBrailleUnChecked();\n\t}\n});\n\nfunction PaperBrailleChecked()\n{\n\t$(\"#strAddress1\").attr(\"required\", \"true\");\n\t$(\"#strCity\").attr(\"required\", \"true\");\n\t$(\"#strProvince\").attr(\"required\", \"true\");\n\t$(\"#strCountry\").attr(\"required\", \"true\");\n\t$(\"#strPostal\").attr(\"required\", \"true\");\n}\n\nfunction PaperBrailleUnChecked()\n{\n\t$(\"#strAddress1\").removeAttr(\"required\");\n\t$(\"#strCity\").removeAttr(\"required\");\n\t$(\"#strProvince\").removeAttr(\"required\");\n\t$(\"#strCountry\").removeAttr(\"required\");\n\t$(\"#strPostal\").removeAttr(\"required\");\n}\n</script>"
    },
    "mode_html": "no_editor_full",
    "body": {
        "en": "        \r\n        \n<h2>Summary</h2>\n\n<p>Targeted surveys are a means used by the Canadian Food Inspection Agency (CFIA) to focus its surveillance activities on areas of highest risk. Targeted surveys have been incorporated into the <abbr title=\"Canadian Food Inspection Agency\">CFIA</abbr>'s regular surveillance activities as a valuable tool for generating baseline information on foods and/or hazards that are not addressed by other Agency activities.</p> \n\n<p>The main objectives of this targeted survey were to:</p>\n\n<ul><li>generate baseline surveillance data on the levels of coumarin in selected domestic and imported cinnamon-containing products available on the Canadian retail market,</li>\n<li>compare, where feasible, the prevalence of coumarin in foods targeted in this survey with that of similar products in previous surveys on coumarin and the scientific literature.</li></ul>\n\n<p>Coumarin is a natural, fragrant compound found in plants such as cinnamon, tonka beans, and sweet clover. Coumarin was utilized as a flavouring agent in the food and perfume industry for many years until evidence related to its toxicological properties and potential adverse effects to the liver led to its use in food being discontinued or banned in a number of countries, such as Canada and the United States. The direct addition of coumarin to food is not permitted in Canada. It is understood that low exposure to coumarin from natural sources is expected and not anticipated to represent a health concern.</p>\n\n<p>The 2013-2014 <abbr title=\"Canadian Food Inspection Agency\">CFIA</abbr> Coumarin survey targeted domestic and imported products containing cinnamon. A total of 749 samples were collected from retail stores in 6 Canadian cities between May 2013 and February 2014. The samples collected included dried beverage mixes, breads, baking mixes, spice mixes, dried tea, baked goods, oatmeal, and adult, children and infant breakfast cereals. All products sampled contained cinnamon in their list of ingredients.</p> \n\n<p>Coumarin was detected in 95% of the survey samples. This is expected, as all products were known to contain cinnamon, and cinnamon is known to naturally contain low concentrations of coumarin. The detected coumarin levels ranged from 0.1 <abbr title=\"milligram\">mg</abbr>/<abbr title=\"kilogram\">kg</abbr> to 2510 <abbr title=\"milligram\">mg</abbr>/<abbr title=\"kilogram\">kg</abbr> (reported as parts per million in previous reports). The highest concentration of coumarin was observed in a pumpkin pie spice mix sample (2510 <abbr title=\"milligram\">mg</abbr>/<abbr title=\"kilogram\">kg</abbr>).</p> \n\n<p>The prevalence and levels of coumarin in product types sampled in the current survey were compared with results in the previous coumarin targeted surveys. The detected coumarin levels in spice mixes, dried tea, and baked goods were comparable to levels reported in previous surveys and scientific literature.</p> \n\n<p>The current as well as the 2011-2012 <abbr title=\"Food Safety Action Plan\">FSAP</abbr> survey results were provided to Health Canada. Health Canada determined that the levels of coumarin observed are not expected to pose a concern to human health, therefore no product recalls were carried out.</p>\r\n<style>\n/* required style */\n    .keyValue{\n\tdisplay: none !important;\n        visibility: hidden !important;\n</style>\n<h2>Request of Complete Report</h2>\n<p>The complete text of this report is available upon request.</p>\n\n<div class=\"wb-frmvld\">\n\n<form class=\"form-horizontal\" role=\"form\" method=\"post\" action=\"/active/netapp/comment/publicationposte.aspx#wb-cont\" name=\"frmPublication\">\n<input id=\"emailad0\" name=\"to\" class=\"hidden\" type=\"hidden\" aria-hidden=\"true\" value=\"83LqQW1Kn5ZeIkJGqjutv8zxfp7JkOEkdixBnrgBe0/lMXK6jsQeonp7Jsnd9dtILedgyHqEpV3qMcdfpGGj/UcMj9QFbtD9RKDgrcJQUIo=\">\n<input name=\"strLang\" type=\"hidden\" value=\"English\">\n<input name=\"strSubject\" type=\"hidden\" value=\"Chemical Residues / Microbiology Report Request\">\n<input name=\"strTitle\" type=\"hidden\" value=\"title\">\n<input name=\"strUrl\" type=\"hidden\" value=\"url\">\n<script type=\"text/javascript\">\n    document.frmPublication.strTitle.value = document.getElementsByTagName(\"title\")[0].innerHTML;\n    document.frmPublication.strUrl.value = document.URL;\n</script>\n        \n<fieldset class=\"mrgn-tp-md mrgn-bttm-lg\">\t\t\n\n<legend class=\"field-name required\"><span class=\"field-name\">The format in which you would like to receive the report</span> <strong class=\"required\">(required)</strong></legend>\n\n<div class=\"checkbox\">\n<label for=\"strPdf\"><input type=\"checkbox\" name=\"formatsent\" id=\"strPdf\" value=\"pdf\" required=\"required\">PDF (Portable Document Format) electronic file sent to you by email</label>\n</div>\n\n<div class=\"checkbox\">\n<label for=\"strText\"><input type=\"checkbox\" name=\"formatsent\" id=\"strText\" value=\"text\">RTF (Rich Text Format) electronic file sent to you by email</label>\n</div>\n\n<div class=\"checkbox\">\n<label for=\"strBraille\"><input type=\"checkbox\" name=\"formatsent\" id=\"strBraille\" value=\"braille\">Braille copy sent to you by mail</label>\n</div>\n\n<div class=\"checkbox\">\n<label for=\"strPaper\"><input type=\"checkbox\" name=\"formatsent\" id=\"strPaper\" value=\"paper\">Paper copy sent to you by mail</label>\n</div>\n\n</fieldset>\t\n\n<fieldset class=\"mrgn-tp-md mrgn-bttm-lg\">\t\t\n\n<legend class=\"field-name\">Your contact information</legend>\n\n<label class=\"keyValue\" for=\"name\"></label>\n<input class=\"keyValue\" autocomplete=\"off\" type=\"text\" id=\"name\" name=\"name\">\n<label class=\"keyValue\" for=\"email\"></label>\n<input class=\"keyValue\" autocomplete=\"off\" type=\"email\" id=\"email\" name=\"email\"> \n\n<div class=\"form-group\">\n<label for=\"strFirstName\" class=\"required col-md-4 control-label\"><span class=\"field-name\">First name:</span> <strong class=\"required\">(required)</strong></label>\n<div class=\"col-md-8\">\n<input class=\"form-control\" id=\"strFirstName\" name=\"strFirstName\" type=\"text\" required=\"required\" pattern=\".{2,}\" data-rule-minlength=\"2\">\n</div>\n</div>\n            \n<div class=\"form-group\">\n<label for=\"strLastName\" class=\"required col-md-4 control-label\"><span class=\"field-name\">Last name:</span> <strong class=\"required\">(required)</strong></label>\n<div class=\"col-md-8\">\n<input class=\"form-control\" id=\"strLastName\" name=\"strLastName\" type=\"text\" required=\"required\" pattern=\".{2,}\" data-rule-minlength=\"2\">\n</div>\n</div>\n\n<div class=\"form-group\">\n<label for=\"strEmail\" class=\"required col-md-4 control-label\"><span class=\"field-name\">Email address:</span>  <strong class=\"required\">(required)</strong></label>\n<div class=\"col-md-8\">\n<input class=\"form-control\" id=\"strEmail\" name=\"strEmail\" type=\"email\" required=\"required\">\n</div>\n</div>\n\n<div class=\"form-group\">\n<label for=\"strConfirmEmail\" class=\"required col-md-4 control-label\"><span class=\"field-name\">Confirm email address:</span>  <strong class=\"required\">(required)</strong></label>\n<div class=\"col-md-8\">\n<input class=\"form-control\" id=\"strConfirmEmail\" name=\"strConfirmEmail\" type=\"email\" data-rule-equalto=\"#strEmail\" required=\"required\">\n</div>\n</div>\n\n<div class=\"form-group mrgn-tp-md\">\n<label for=\"lstdescribe\" class=\"required col-md-4 control-label\"><span class=\"field-name\">How would you describe yourself?</span> <strong class=\"required\">(required)</strong></label>\n<div class=\"col-md-8\">\n<select class=\"form-control\" id=\"lstdescribe\" name=\"lstdescribe\" required=\"required\">\n<option label=\"Select from this list\"></option>\n<option value=\"Academia\">Academia</option>\n<option value=\"Consumer Association\">Consumer Association</option>\n<option value=\"Consumer/General Public\">Consumer / General Public</option>\n<option value=\"Industry Association\">Industry Association</option>\n<option value=\"Industry/Commercial Sector\">Industry / Commercial Sector</option>\n<option value=\"Other Government Departments\">Other Government Departments</option>\t\t\t\n</select>\n</div>\n</div>\t\n\n<div class=\"form-group\">\n<label for=\"strAddress1\" class=\"col-md-4 control-label\"><span class=\"field-name\">Address 1:</span></label>\n<div class=\"col-md-8\">\n<input class=\"form-control\" id=\"strAddress1\" name=\"strAddress1\" type=\"text\">\n</div>\n</div>\n\n<div class=\"form-group\">\n<label for=\"strAddress2\" class=\"col-md-4 control-label\"><span class=\"field-name\">Address 2:</span></label>\n<div class=\"col-md-8\">\n<input class=\"form-control\" id=\"strAddress2\" name=\"strAddress2\" type=\"text\">\n</div>\n</div>\n\n<div class=\"form-group\">\n<label for=\"strCity\" class=\"col-md-4 control-label\"><span class=\"field-name\">City:</span></label>\n<div class=\"col-md-8\">\n<input class=\"form-control\" id=\"strCity\" name=\"strCity\" type=\"text\">\n</div>\n</div>\n\n<div class=\"form-group\">\n<label for=\"strProvince\" class=\"col-md-4 control-label\"><span class=\"field-name\">Province:</span></label>\n<div class=\"col-md-8\">\n<input class=\"form-control\" id=\"strProvince\" name=\"strProvince\" type=\"text\">\n</div>\n</div>\n\n<div class=\"form-group\">\n<label for=\"strCountry\" class=\"col-md-4 control-label\"><span class=\"field-name\">Country:</span></label>\n<div class=\"col-md-8\">\n<input class=\"form-control\" id=\"strCountry\" name=\"strCountry\" type=\"text\">\n</div>\n</div>\n\n<div class=\"form-group\">\n<label for=\"strPostal\" class=\"col-md-4 control-label\"><span class=\"field-name\">Postal Code:</span></label>\n<div class=\"col-md-8\">\n<input class=\"form-control\" id=\"strPostal\" name=\"strPostal\" type=\"text\">\n</div>\n</div>\n\n</fieldset>\t\n\n<input value=\"Submit Your Request\" id=\"btnSubmit\" name=\"btnSubmit\" class=\"btn btn-primary\" type=\"submit\"> \n<input value=\"Clear All Information\" id=\"btnReset\" name=\"btnReset\" class=\"btn btn-default\" type=\"reset\">\n\n</form>\n</div>\n<script src=\"https://ajax.googleapis.com/ajax/libs/jquery/2.1.1/jquery.min.js\"></script>\n<script type=\"text/javascript\">\n$(document).ready (function(){\n\tif($(\"#strPaper\").checked || $(\"#strBraille\").checked)\n\t{\n\t\tPaperBrailleChecked();\n\t}\n});\n\n$(document).on(\"change\", \"#strBraille\", function(){\n\tif($(\"#strBraille\").is(\":checked\"))\n\t{\n\t\tPaperBrailleChecked();\n\t}\n\telse if(!($(\"#strPaper\").is(\":checked\")))\n\t{\n\t\tPaperBrailleUnChecked();\n\t}\n});\n\n$(document).on(\"change\", \"#strPaper\", function(){\n\tif($(\"#strPaper\").is(\":checked\"))\n\t{\n\t\tPaperBrailleChecked();\n\t}\n\telse if(!($(\"#strBraille\").is(\":checked\")))\n\t{\n\t\tPaperBrailleUnChecked();\n\t}\n});\n\nfunction PaperBrailleChecked()\n{\n\t$(\"#strAddress1\").attr(\"required\", \"true\");\n\t$(\"#strCity\").attr(\"required\", \"true\");\n\t$(\"#strProvince\").attr(\"required\", \"true\");\n\t$(\"#strCountry\").attr(\"required\", \"true\");\n\t$(\"#strPostal\").attr(\"required\", \"true\");\n}\n\nfunction PaperBrailleUnChecked()\n{\n\t$(\"#strAddress1\").removeAttr(\"required\");\n\t$(\"#strCity\").removeAttr(\"required\");\n\t$(\"#strProvince\").removeAttr(\"required\");\n\t$(\"#strCountry\").removeAttr(\"required\");\n\t$(\"#strPostal\").removeAttr(\"required\");\n}\n</script>\r\n\r\n\r\n\r\n<div class=\"row\">\r\n \r\n\t\r\n\t\t\t\r\n\r\n<div class=\"col-xm-12 pagedetails container\">\r\n\t\t\t\t\r\n\r\n</div>\r\n\t\r\n</div>",
        "fr": "\r\n        \r\n        \n<h2>R\u00e9sum\u00e9</h2>\n\n<p>L'agence canadienne d'inspection des aliments (ACIA) se sert d'\u00e9tudes cibl\u00e9es pour concentrer ses activit\u00e9s de surveillance dans les domaines pr\u00e9sentant les risques les plus \u00e9lev\u00e9s. Des \u00e9tudes cibl\u00e9es ont \u00e9t\u00e9 int\u00e9gr\u00e9es aux activit\u00e9s de surveillance r\u00e9guli\u00e8re de l'<abbr title=\"Agence canadienne d'inspection des aliments\">ACIA</abbr>, car il s'agit d'outils pr\u00e9cieux permettant de produire des renseignements de base sur les aliments ou les risques qui ne sont pas trait\u00e9s par d'autres activit\u00e9s de l'Agence. </p>\n\n<p>Les principaux objectifs de cette \u00e9tude cibl\u00e9e \u00e9taient\u00a0:</p>\n\n<ul><li>de g\u00e9n\u00e9rer des donn\u00e9es de surveillance de base sur les concentrations de coumarine dans les produits contenant de la cannelle produits au Canada et import\u00e9s qui sont vendus sur le march\u00e9 de d\u00e9tail canadien;</li>\n<li>de comparer, dans la mesure du possible, la pr\u00e9valence de la coumarine dans les aliments vis\u00e9s par cette \u00e9tude avec celle de produits semblables dans les \u00e9tudes pr\u00e9c\u00e9dentes sur la coumarine et les publications scientifiques.</li></ul>\n\n<p>La coumarine est un compos\u00e9 naturel odorant retrouv\u00e9e dans des v\u00e9g\u00e9taux comme la cannelle, la f\u00e8ve tonka et le m\u00e9lilot. La coumarine a \u00e9t\u00e9 utilis\u00e9e comme agent aromatisant dans l'industrie alimentaire et des parfums pendant de nombreuses ann\u00e9es. Cependant, lorsque des preuves ont permis de confirmer ses propri\u00e9t\u00e9s toxicologiques et ses possibles effets nocifs pour le foie, un certain nombre de pays, comme le Canada et les \u00c9tats-Unis, ont d\u00e9cid\u00e9 de cesser ou d'interdire son utilisation dans les aliments. Au Canada, l'ajout direct de coumarine dans les aliments est ill\u00e9gal. Toutefois, il est entendu qu'une faible exposition \u00e0 la coumarine provenant de sources naturelles est attendue et ne devrait pas constituer une pr\u00e9occupation pour la sant\u00e9.</p>\n\n<p>L'\u00e9tude de 2013-2014 de l'<abbr title=\"Agence canadienne d'inspection des aliments\">ACIA</abbr> sur la coumarine ciblait les produits contenant de la cannelle canadiens et import\u00e9s. Au total, 749 \u00e9chantillons ont \u00e9t\u00e9 pr\u00e9lev\u00e9s, entre mai 2013 et f\u00e9vrier 2014, dans des magasins de d\u00e9tail de six villes canadiennes. Les \u00e9chantillons recueillis comprenaient des m\u00e9langes s\u00e9ch\u00e9s pour boissons, des pains, des m\u00e9langes \u00e0 p\u00e2te, des m\u00e9langes d'\u00e9pices, du th\u00e9 s\u00e9ch\u00e9, des produits de boulangerie-p\u00e2tisserie, du gruau et des c\u00e9r\u00e9ales de petit-d\u00e9jeuner destin\u00e9es aux adultes, aux enfants et aux nourrissons. Tous les produits \u00e9chantillonn\u00e9s contenaient de la cannelle dans leur liste d'ingr\u00e9dients.</p> \n\n<p>La pr\u00e9sence de coumarine a \u00e9t\u00e9 d\u00e9cel\u00e9e dans 95 % des \u00e9chantillons analys\u00e9s dans le cadre de l'\u00e9tude. Cela n'est pas surprenant \u00e9tant donn\u00e9 que tous les produits \u00e9chantillonn\u00e9s contenaient de la cannelle, laquelle contient naturellement de faibles concentrations de coumarine. Les concentrations de coumarine d\u00e9tect\u00e9es variaient de 0,1 <abbr title=\"milligramme\">mg</abbr>/<abbr title=\"kilogramme\">kg</abbr> \u00e0 2\u00a0510 <abbr title=\"milligramme\">mg</abbr>/<abbr title=\"kilogramme\">kg</abbr> (ces concentrations ont \u00e9t\u00e9 d\u00e9clar\u00e9es en parties par million dans les pr\u00e9c\u00e9dents rapports). La concentration la plus \u00e9lev\u00e9e de coumarine a \u00e9t\u00e9 observ\u00e9e dans un \u00e9chantillon de m\u00e9lange d'\u00e9pices utilis\u00e9es pour la tarte \u00e0 la citrouille (2\u00a0510 <abbr title=\"milligramme\">mg</abbr>/<abbr title=\"kilogramme\">kg</abbr>).</p> \n\n<p>La pr\u00e9valence et les concentrations de coumarine dans les types de produits \u00e9chantillonn\u00e9s dans la pr\u00e9sente \u00e9tude ont \u00e9t\u00e9 compar\u00e9es aux r\u00e9sultats obtenus dans les pr\u00e9c\u00e9dentes \u00e9tudes cibl\u00e9es sur la coumarine. Les concentrations d\u00e9tect\u00e9es de coumarine dans les m\u00e9langes d'\u00e9pices, le th\u00e9 s\u00e9ch\u00e9 et les produits de boulangerie-p\u00e2tisserie \u00e9taient comparables aux concentrations d\u00e9clar\u00e9es dans les pr\u00e9c\u00e9dentes \u00e9tudes et les publications scientifiques.</p> \n\n<p>Les r\u00e9sultats de l'\u00e9tude actuelle ainsi que ceux de l'\u00e9tude de 2011-2012 du Plan d'action pour assurer la s\u00e9curit\u00e9 des produits alimentaires (PAASPA) ont \u00e9t\u00e9 communiqu\u00e9s \u00e0 Sant\u00e9 Canada. Sant\u00e9 Canada a d\u00e9termin\u00e9 que les concentrations de coumarine observ\u00e9es ne devraient pas \u00eatre pr\u00e9occupantes pour la sant\u00e9 humaine; par cons\u00e9quent, aucun rappel de produits n'a \u00e9t\u00e9 effectu\u00e9.</p>\r\n<style>\n/* required style */\n    .keyValue{\n\tdisplay: none !important;\n        visibility: hidden !important;\n</style>\n<h2>Demande de rapport complet</h2>\n<p>La version int\u00e9grale du pr\u00e9sent rapport est disponible sur demande.</p>\n\n<div class=\"wb-frmvld\">\n\n<form class=\"form-horizontal\" role=\"form\" method=\"post\" action=\"/active/netapp/comment/publicationposte.aspx#wb-cont\" name=\"frmPublication\">\n\n<input id=\"emailad0\" name=\"to\" class=\"hidden\" type=\"hidden\" aria-hidden=\"true\" value=\"Lv8rKJdJpMt4Qu5S995vB000S/5V/HIxRGAP6R6Nssx4IANmHm5sCRTezuoUzcXdtdIvF7T2en3+R1aHQTb79La/TNp3ma7tTSUFjyhbotU=\">\n<input name=\"strLang\" type=\"hidden\" value=\"Francais\">\n<input name=\"strSubject\" type=\"hidden\" value=\"Demande de rapport de r\u00e9sidus chimiques / microbiologie\">\n<input name=\"strTitle\" type=\"hidden\" value=\"title\">\n<input name=\"strUrl\" type=\"hidden\" value=\"url\">\n<script type=\"text/javascript\">\n    document.frmPublication.strTitle.value = document.getElementsByTagName(\"title\")[0].innerHTML;\n    document.frmPublication.strUrl.value = document.URL;\n</script>\n        \n<fieldset class=\"mrgn-tp-md mrgn-bttm-lg\">\t\t\n\n<legend class=\"field-name required\"><span class=\"field-name\">Le format dans lequel vous souhaitez recevoir le rapport</span> <strong class=\"required\">(obligatoire)</strong></legend>\n\n<div class=\"checkbox\">\n<label for=\"strPdf\"><input type=\"checkbox\" name=\"formatsent\" id=\"strPdf\" value=\"pdf\" required=\"required\">Fichier \u00e9lectronique PDF (format de document portable) envoy\u00e9 par courriel</label>\n</div>\n\n<div class=\"checkbox\">\n<label for=\"strText\"><input type=\"checkbox\" name=\"formatsent\" id=\"strText\" value=\"text\">Fichier \u00e9lectronique RTF (<span lang=\"en\">Rich Text Format</span>) envoy\u00e9 par courriel</label>\n</div>\n\n<div class=\"checkbox\">\n<label for=\"strBraille\"><input type=\"checkbox\" name=\"formatsent\" id=\"strBraille\" value=\"braille\">Copie braille envoy\u00e9e par la poste</label>\n</div>\n\n<div class=\"checkbox\">\n<label for=\"strPaper\"><input type=\"checkbox\" name=\"formatsent\" id=\"strPaper\" value=\"paper\">Copie papier envoy\u00e9e par la poste</label>\n</div>\n\n</fieldset>\t\n\n<fieldset class=\"mrgn-tp-md mrgn-bttm-lg\">\t\t\n\n<legend class=\"field-name\">Vos coordonn\u00e9es</legend>\n\n<label class=\"keyValue\" for=\"name\"></label>\n<input class=\"keyValue\" autocomplete=\"off\" type=\"text\" id=\"name\" name=\"name\">\n<label class=\"keyValue\" for=\"email\"></label>\n<input class=\"keyValue\" autocomplete=\"off\" type=\"email\" id=\"email\" name=\"email\"> \n\n<div class=\"form-group\">\n<label for=\"strFirstName\" class=\"required col-md-4 control-label\"><span class=\"field-name\">Pr\u00e9nom :</span> <strong class=\"required\">(obligatoire)</strong></label>\n<div class=\"col-md-8\">\n<input class=\"form-control\" id=\"strFirstName\" name=\"strFirstName\" type=\"text\" required=\"required\" pattern=\".{2,}\" data-rule-minlength=\"2\">\n</div>\n</div>\n            \n<div class=\"form-group\">\n<label for=\"strLastName\" class=\"required col-md-4 control-label\"><span class=\"field-name\">Nom :</span> <strong class=\"required\">(obligatoire)</strong></label>\n<div class=\"col-md-8\">\n<input class=\"form-control\" id=\"strLastName\" name=\"strLastName\" type=\"text\" required=\"required\" pattern=\".{2,}\" data-rule-minlength=\"2\">\n</div>\n</div>\n\n<div class=\"form-group\">\n<label for=\"strEmail\" class=\"required col-md-4 control-label\"><span class=\"field-name\">Adresse de courriel :</span> \u00a0<strong class=\"required\">(obligatoire)</strong></label>\n<div class=\"col-md-8\">\n<input class=\"form-control\" id=\"strEmail\" name=\"strEmail\" type=\"email\" required=\"required\">\n</div>\n</div>\n\n<div class=\"form-group\">\n<label for=\"strConfirmEmail\" class=\"required col-md-4 control-label\"><span class=\"field-name\">Confirmer Adresse de courriel :</span>  <strong class=\"required\">(obligatoire)</strong></label>\n<div class=\"col-md-8\">\n<input class=\"form-control\" id=\"strConfirmEmail\" name=\"strConfirmEmail\" type=\"email\" data-rule-equalto=\"#strEmail\" required=\"required\">\n</div>\n</div>\n\n<div class=\"form-group mrgn-tp-md\">\n<label for=\"lstdescribe\" class=\"required col-md-4 control-label\"><span class=\"field-name\">Comment vous vous d\u00e9criviez?</span> <strong class=\"required\">(obligatoire)</strong></label>\n<div class=\"col-md-8\">\n<select class=\"form-control\" id=\"lstdescribe\" name=\"lstdescribe\" required=\"required\">\n<option label=\"Choisir parmi la liste\"></option>\n<option value=\"Acad\u00e9mie\">Acad\u00e9mie</option>\n<option value=\"Association sectorielle\">Association sectorielle</option>  \n<option value=\"Autres institutions du gouvernement\">Autres institutions du gouvernement</option>\n<option value=\"Consommateur/Grand public\">Consommateur / Grand public</option>\n<option value=\"Groupe de consommateur\">Groupe de consommateur</option>\n<option value=\"Industrie/Secteur commercial\">Industrie / Secteur commercial</option>\n</select>\n</div>\n</div>\t\n\n<div class=\"form-group\">\n<label for=\"strAddress1\" class=\"col-md-4 control-label\"><span class=\"field-name\">Adresse 1 :</span></label>\n<div class=\"col-md-8\">\n<input class=\"form-control\" id=\"strAddress1\" name=\"strAddress1\" type=\"text\">\n</div>\n</div>\n\n<div class=\"form-group\">\n<label for=\"strAddress2\" class=\"col-md-4 control-label\"><span class=\"field-name\">Adresse 2 :</span></label>\n<div class=\"col-md-8\">\n<input class=\"form-control\" id=\"strAddress2\" name=\"strAddress2\" type=\"text\">\n</div>\n</div>\n\n<div class=\"form-group\">\n<label for=\"strCity\" class=\"col-md-4 control-label\"><span class=\"field-name\">Ville :</span></label>\n<div class=\"col-md-8\">\n<input class=\"form-control\" id=\"strCity\" name=\"strCity\" type=\"text\">\n</div>\n</div>\n\n<div class=\"form-group\">\n<label for=\"strProvince\" class=\"col-md-4 control-label\"><span class=\"field-name\">Province :</span></label>\n<div class=\"col-md-8\">\n<input class=\"form-control\" id=\"strProvince\" name=\"strProvince\" type=\"text\">\n</div>\n</div>\n\n<div class=\"form-group\">\n<label for=\"strCountry\" class=\"col-md-4 control-label\"><span class=\"field-name\">Pays : </span></label>\n<div class=\"col-md-8\">\n<input class=\"form-control\" id=\"strCountry\" name=\"strCountry\" type=\"text\">\n</div>\n</div>\n\n<div class=\"form-group\">\n<label for=\"strPostal\" class=\"col-md-4 control-label\"><span class=\"field-name\">Code postal : </span></label>\n<div class=\"col-md-8\">\n<input class=\"form-control\" id=\"strPostal\" name=\"strPostal\" type=\"text\">\n</div>\n</div>\n\n</fieldset>\t\n\n<input value=\"Soumettre votre demande\" id=\"btnSubmit\" name=\"btnSubmit\" class=\"btn btn-primary\" type=\"submit\"> \n<input value=\"Effacez tous les renseignements\" id=\"btnReset\" name=\"btnReset\" class=\"btn btn-default\" type=\"reset\">\n\n</form>\n</div>\n<script src=\"https://ajax.googleapis.com/ajax/libs/jquery/2.1.1/jquery.min.js\"></script>\n<script type=\"text/javascript\">\n$(document).ready (function(){\n\tif($(\"#strPaper\").checked || $(\"#strBraille\").checked)\n\t{\n\t\tPaperBrailleChecked();\n\t}\n});\n\n$(document).on(\"change\", \"#strBraille\", function(){\n\tif($(\"#strBraille\").is(\":checked\"))\n\t{\n\t\tPaperBrailleChecked();\n\t}\n\telse if(!($(\"#strPaper\").is(\":checked\")))\n\t{\n\t\tPaperBrailleUnChecked();\n\t}\n});\n\n$(document).on(\"change\", \"#strPaper\", function(){\n\tif($(\"#strPaper\").is(\":checked\"))\n\t{\n\t\tPaperBrailleChecked();\n\t}\n\telse if(!($(\"#strBraille\").is(\":checked\")))\n\t{\n\t\tPaperBrailleUnChecked();\n\t}\n});\n\nfunction PaperBrailleChecked()\n{\n\t$(\"#strAddress1\").attr(\"required\", \"true\");\n\t$(\"#strCity\").attr(\"required\", \"true\");\n\t$(\"#strProvince\").attr(\"required\", \"true\");\n\t$(\"#strCountry\").attr(\"required\", \"true\");\n\t$(\"#strPostal\").attr(\"required\", \"true\");\n}\n\nfunction PaperBrailleUnChecked()\n{\n\t$(\"#strAddress1\").removeAttr(\"required\");\n\t$(\"#strCity\").removeAttr(\"required\");\n\t$(\"#strProvince\").removeAttr(\"required\");\n\t$(\"#strCountry\").removeAttr(\"required\");\n\t$(\"#strPostal\").removeAttr(\"required\");\n}\n</script>\r\n\r\n<div class=\"row\">\r\n \r\n\t\t\t\r\n\t\t\t\r\n\r\n\t\t\r\n\t\r\n</div>"
    },
    "success": true,
    "chat_wizard": false
}