{
    "dcr_id": "1513147581367",
    "title": {
        "en": "2012-2015 Bacterial Pathogens on In-Shell Nuts and in Shelled Nuts and Nut Butters",
        "fr": "2012-2015 Bact\u00e9ries pathog\u00e8nes \u00e0 la surface de noix non d\u00e9cortiqu\u00e9es, de noix d\u00e9cortiqu\u00e9es et dans les beurres de noix"
    },
    "html_modified": "2024-02-13 9:52:35 AM",
    "modified": "2017-12-20",
    "issued": "2018-06-05",
    "teamsite_location": {
        "en": "/default/main/inspection/cont-cont/food-aliments/STAGING/templatedata/comn-comn/forms-formes/data/microbiology_2012-2015_bac_nuts_butters_1513147581367_eng",
        "fr": "/default/main/inspection/cont-cont/food-aliments/STAGING/templatedata/comn-comn/forms-formes/data/microbiology_2012-2015_bac_nuts_butters_1513147581367_fra"
    },
    "ia_id": "1513147581913",
    "parent_ia_id": "1453327843364",
    "chronicletopic": {
        "en": "",
        "fr": ""
    },
    "chroniclecontent": {
        "en": "",
        "fr": ""
    },
    "chronicleaudience": {
        "en": "",
        "fr": ""
    },
    "sfcrdocumenttype": {
        "en": "",
        "fr": ""
    },
    "sfcraudience": {
        "en": "",
        "fr": ""
    },
    "sfcrmethodofproduction": {
        "en": "",
        "fr": ""
    },
    "activity": {
        "en": "",
        "fr": ""
    },
    "commodity": {
        "en": "",
        "fr": ""
    },
    "program": {
        "en": "",
        "fr": ""
    },
    "search_type": "other",
    "parent_node_id": "1453327843364",
    "layout_name": "content page 1 column",
    "breadcrumb": {
        "en": "2012-2015 Bacterial Pathogens on In-Shell Nuts and in Shelled Nuts and Nut Butters",
        "fr": "2012-2015 Bact\u00e9ries pathog\u00e8nes \u00e0 la surface de noix non d\u00e9cortiqu\u00e9es, de noix d\u00e9cortiqu\u00e9es et dans les beurres de noix"
    },
    "label": {
        "en": "2012-2015 Bacterial Pathogens on In-Shell Nuts and in Shelled Nuts and Nut Butters",
        "fr": "2012-2015 Bact\u00e9ries pathog\u00e8nes \u00e0 la surface de noix non d\u00e9cortiqu\u00e9es, de noix d\u00e9cortiqu\u00e9es et dans les beurres de noix"
    },
    "templatetype": "content page 1 column",
    "node_id": "1513147581913",
    "managing_branch": "comn",
    "type_name": "forms-formes",
    "dcr_type": "forms-formes",
    "parent_dcr_id": "1453324778043",
    "has_dcr_id": true,
    "lang": "en",
    "could_not_load": 0,
    "refaire": false,
    "interwoven_url": {
        "en": "/food-safety-for-industry/food-chemistry-and-microbiology/food-safety-testing-reports-and-journal-articles/bacterial-pathogens-on-in-shell-nuts-and-in-shelle/",
        "fr": "/salubrite-alimentaire-pour-l-industrie/chimie-et-microbiologie-alimentaires/rapports-d-analyse-et-articles-de-revues-sur-la-sa/bacteries-pathogenes-a-la-surface-de-noix-non-deco/"
    },
    "meta": {
        "viewport": {
            "en": "width=device-width,initial-scale=1",
            "fr": "width=device-width,initial-scale=1"
        },
        "service": {
            "en": "CFIA-ACIA",
            "fr": "CFIA-ACIA"
        },
        "accessRights": {
            "en": "2",
            "fr": "2"
        },
        "title": {
            "en": "2012-2015 Bacterial Pathogens on In-Shell Nuts and in Shelled Nuts and Nut Butters",
            "fr": "2012-2015 Bact\u00e9ries pathog\u00e8nes \u00e0 la surface de noix non d\u00e9cortiqu\u00e9es, de noix d\u00e9cortiqu\u00e9es et dans les beurres de noix"
        },
        "description": {
            "en": "Nuts and nut butters are popular foods in Canada and around the world. However, foodborne illness outbreaks of salmonellosis associated with nuts and nut butters have been reported worldwide including in Canada.",
            "fr": "Les noix et les beurres de noix sont des aliments populaires au Canada et partout dans le monde."
        },
        "keywords": {
            "en": "food, food safety, food safety requirements, sampling, testing, food safety risks, bacterial pathogens, in-shell nuts, shelled nuts, nut butters",
            "fr": "aliments, salubrit\u00e9 des aliments, exigences f\u00e9d\u00e9rales en mati\u00e8re de salubrit\u00e9 des aliments, \u00e9chantillonnage, analyse, risques pour la salubrit\u00e9 des aliments, bact\u00e9ries pathog\u00e8nes, noix non d\u00e9cortiqu\u00e9es, noix d\u00e9cortiqu\u00e9es, beurres de noix"
        },
        "dcterms.subject": {
            "en": "consumer protection,food,food inspection,food safety,regulation,samples",
            "fr": "protection du consommateur,aliment,inspection des aliments,salubrit\u00e9 des aliments,r\u00e9glementation,\u00e9chantillon"
        },
        "creator": {
            "en": "Government of Canada,Canadian Food Inspection Agency,Vice President, Communications and Public Affairs",
            "fr": "Gouvernement du Canada,Agence canadienne d'inspection des aliments,Vice pr\u00e9sidente, Communications et affaires publiques"
        },
        "language": {
            "en": "eng",
            "fr": "fra"
        },
        "issued": {
            "en": "2018-06-05",
            "fr": "2018-06-05"
        },
        "modified": {
            "en": "2017-12-20",
            "fr": "2017-12-20"
        },
        "type": {
            "en": "reference material",
            "fr": "mat\u00e9riel de r\u00e9f\u00e9rence"
        },
        "audience": {
            "en": "business,general public,government",
            "fr": "entreprises,grand public,gouvernement"
        },
        "name": {
            "en": "Government of Canada",
            "fr": "Gouvernement du Canada"
        },
        "areaServed": {
            "en": "Canada",
            "fr": "Canada"
        }
    },
    "h1": {
        "en": "2012-2015 Bacterial Pathogens on In-Shell Nuts and in Shelled Nuts and Nut Butters",
        "fr": "2012-2015 Bact\u00e9ries pathog\u00e8nes \u00e0 la surface de noix non d\u00e9cortiqu\u00e9es, de noix d\u00e9cortiqu\u00e9es et dans les beurres de noix"
    },
    "js": {
        "en": "<script>\n    document.frmPublication.strTitle.value = document.getElementsByTagName(\"title\")[0].innerHTML;\n    document.frmPublication.strUrl.value = document.URL;\n</script>/* --------------------- MORE JAVASCRIPT ------------------- */<script>\n$(document).ready (function(){\n\tif($(\"#strPaper\").checked || $(\"#strBraille\").checked)\n\t{\n\t\tPaperBrailleChecked();\n\t}\n});\n\n$(document).on(\"change\", \"#strBraille\", function(){\n\tif($(\"#strBraille\").is(\":checked\"))\n\t{\n\t\tPaperBrailleChecked();\n\t}\n\telse if(!($(\"#strPaper\").is(\":checked\")))\n\t{\n\t\tPaperBrailleUnChecked();\n\t}\n});\n\n$(document).on(\"change\", \"#strPaper\", function(){\n\tif($(\"#strPaper\").is(\":checked\"))\n\t{\n\t\tPaperBrailleChecked();\n\t}\n\telse if(!($(\"#strBraille\").is(\":checked\")))\n\t{\n\t\tPaperBrailleUnChecked();\n\t}\n});\n\nfunction PaperBrailleChecked()\n{\n\t$(\"#strAddress1\").attr(\"required\", \"true\");\n\t$(\"#strCity\").attr(\"required\", \"true\");\n\t$(\"#strProvince\").attr(\"required\", \"true\");\n\t$(\"#strCountry\").attr(\"required\", \"true\");\n\t$(\"#strPostal\").attr(\"required\", \"true\");\n}\n\nfunction PaperBrailleUnChecked()\n{\n\t$(\"#strAddress1\").removeAttr(\"required\");\n\t$(\"#strCity\").removeAttr(\"required\");\n\t$(\"#strProvince\").removeAttr(\"required\");\n\t$(\"#strCountry\").removeAttr(\"required\");\n\t$(\"#strPostal\").removeAttr(\"required\");\n}\n</script>",
        "fr": "<script>\n    document.frmPublication.strTitle.value = document.getElementsByTagName(\"title\")[0].innerHTML;\n    document.frmPublication.strUrl.value = document.URL;\n</script>/* --------------------- MORE JAVASCRIPT ------------------- */<script>\n$(document).ready (function(){\n\tif($(\"#strPaper\").checked || $(\"#strBraille\").checked)\n\t{\n\t\tPaperBrailleChecked();\n\t}\n});\n\n$(document).on(\"change\", \"#strBraille\", function(){\n\tif($(\"#strBraille\").is(\":checked\"))\n\t{\n\t\tPaperBrailleChecked();\n\t}\n\telse if(!($(\"#strPaper\").is(\":checked\")))\n\t{\n\t\tPaperBrailleUnChecked();\n\t}\n});\n\n$(document).on(\"change\", \"#strPaper\", function(){\n\tif($(\"#strPaper\").is(\":checked\"))\n\t{\n\t\tPaperBrailleChecked();\n\t}\n\telse if(!($(\"#strBraille\").is(\":checked\")))\n\t{\n\t\tPaperBrailleUnChecked();\n\t}\n});\n\nfunction PaperBrailleChecked()\n{\n\t$(\"#strAddress1\").attr(\"required\", \"true\");\n\t$(\"#strCity\").attr(\"required\", \"true\");\n\t$(\"#strProvince\").attr(\"required\", \"true\");\n\t$(\"#strCountry\").attr(\"required\", \"true\");\n\t$(\"#strPostal\").attr(\"required\", \"true\");\n}\n\nfunction PaperBrailleUnChecked()\n{\n\t$(\"#strAddress1\").removeAttr(\"required\");\n\t$(\"#strCity\").removeAttr(\"required\");\n\t$(\"#strProvince\").removeAttr(\"required\");\n\t$(\"#strCountry\").removeAttr(\"required\");\n\t$(\"#strPostal\").removeAttr(\"required\");\n}\n</script>"
    },
    "mode_html": "no_editor_full",
    "body": {
        "en": "        \r\n        \n<h2>Summary</h2>\n\n<p>Nuts and nut butters are popular foods in Canada and around the world. However, foodborne illness outbreaks of salmonellosis associated with nuts and nut butters have been reported worldwide including in Canada.  Nuts are low-moisture foods of agricultural origin that can become contaminated by bacterial pathogens during primary production, harvest, processing and storage.  Once nuts are contaminated, bacterial pathogens such as Salmonella can survive for long periods of time due to the low-moisture content of the nuts. Nut butters are low-moisture, high fat foods that can be contaminated by contaminated nuts or by cross-contamination during processing and/or storage.  In addition, standard thermal treatments are often ineffective at eliminating <span lang=\"la\">Salmonella</span> from highly contaminated nut butter products due to its ability to develop heat resistance in low-moisture, high-fat environments.  Therefore, the microbial safety of nuts and nut butters remains a concern.</p>\n\n<p>Considering the factors mentioned above and their relevance to Canadians, in-shell nuts, shelled nuts and nut butters were selected for targeted surveys.  The purpose of the survey was to generate baseline information on the occurrence of bacterial pathogens on the surface of in-shell nuts and in shelled nuts and nut butters on the Canadian market.  Over the course of this study (April 1, 2012 to March 31, 2015), a total of 2400 in-shell nut samples, 2612 shelled nut samples, and 1142 nut butter samples were collected from retail locations in 11 cities across Canada and were tested for bacterial pathogens of concern:  <span lang=\"la\">Salmonella</span>, <span lang=\"la\">Escherichia coli</span> (<span lang=\"la\"><abbr title=\"Escherichia\">E.</abbr> coli</span>) O157:H7 and <span lang=\"la\">Listeria monocytogenes</span> (<span lang=\"la\"><abbr title=\"Listeria\">L.</abbr> monocytogenes</span>) (nut butters only), as well as generic <span lang=\"la\"><abbr title=\"Escherichia\">E.</abbr> coli</span>.  Generic <span lang=\"la\"><abbr title=\"Escherichia\">E.</abbr> coli</span> is an indicator of the overall sanitation conditions throughout the food chain from production to the point of sale.</p>\n\n<p>All shelled nuts (100%), nut butters (100%) and over 99.8% of in-shell nuts were found to be free of specific pathogenic bacteria tested for.  <span lang=\"la\"><abbr title=\"Escherichia\">E.</abbr> coli</span> O157:H7, <span lang=\"la\"><abbr title=\"Listeria\">L.</abbr> monocytogenes</span> and generic <span lang=\"la\"><abbr title=\"Escherichia\">E.</abbr> coli</span> (&gt; 100 colony forming unit (CFU)/<abbr title=\"gramme\">g</abbr>) were not found in any samples tested.  However, <span lang=\"la\">Salmonella</span> was found in five in-shell nut samples (5/2400, 0.21%) including two walnut samples (2/792, 0.25%) and three hazelnut samples (3/696, 0.43%).  The Canadian Food Inspection Agency (CFIA) conducted appropriate follow-up activities including food safety investigations related to the <span lang=\"la\">Salmonella</span> contaminated products.  All five affected products were recalled from the Canadian market.  No reported illnesses were associated with any of the <span lang=\"la\">Salmonella</span> contaminated products.</p> \n\n<p>The results indicate that almost all of the nut and nut butter samples appear to have been produced under Good Agricultural Practices and Good Manufacturing Practices.  Sporadically, <span lang=\"la\">Salmonella</span> contamination on in-shell nuts can occur.</p>\r\n<style>\n/* required style */\n    .keyValue{\n\tdisplay: none !important;\n        visibility: hidden !important;\n</style>\n<h2>Request of Complete Report</h2>\n<p>The complete text of this report is available upon request.</p>\n\n<div class=\"wb-frmvld\">\n\n<form class=\"form-horizontal\" role=\"form\" method=\"post\" action=\"/active/netapp/comment/publicationposte.aspx#wb-cont\" name=\"frmPublication\">\n<input id=\"emailad0\" name=\"to\" class=\"hidden\" type=\"hidden\" aria-hidden=\"true\" value=\"wgN32vupQ41DOTtkGH6A3tQohB56l9exkIhQlPCMi91QCXDuM328upqT0wlCYraSJMcr83sLbNH+6RsHBeiwYGFeDcTbS5/5ohtl0NVh3FM=\">\n<input name=\"strLang\" type=\"hidden\" value=\"English\">\n<input name=\"strSubject\" type=\"hidden\" value=\"Chemical Residues / Microbiology Report Request\">\n<input name=\"strTitle\" type=\"hidden\" value=\"title\">\n<input name=\"strUrl\" type=\"hidden\" value=\"url\">\n<script type=\"text/javascript\">\n    document.frmPublication.strTitle.value = document.getElementsByTagName(\"title\")[0].innerHTML;\n    document.frmPublication.strUrl.value = document.URL;\n</script>\n        \n<fieldset class=\"mrgn-tp-md mrgn-bttm-lg\">\t\t\n\n<legend class=\"field-name required\"><span class=\"field-name\">The format in which you would like to receive the report</span> <strong class=\"required\">(required)</strong></legend>\n\n<div class=\"checkbox\">\n<label for=\"strPdf\"><input type=\"checkbox\" name=\"formatsent\" id=\"strPdf\" value=\"pdf\" required=\"required\">PDF (Portable Document Format) electronic file sent to you by email</label>\n</div>\n\n<div class=\"checkbox\">\n<label for=\"strText\"><input type=\"checkbox\" name=\"formatsent\" id=\"strText\" value=\"text\">RTF (Rich Text Format) electronic file sent to you by email</label>\n</div>\n\n<div class=\"checkbox\">\n<label for=\"strBraille\"><input type=\"checkbox\" name=\"formatsent\" id=\"strBraille\" value=\"braille\">Braille copy sent to you by mail</label>\n</div>\n\n<div class=\"checkbox\">\n<label for=\"strPaper\"><input type=\"checkbox\" name=\"formatsent\" id=\"strPaper\" value=\"paper\">Paper copy sent to you by mail</label>\n</div>\n\n</fieldset>\t\n\n<fieldset class=\"mrgn-tp-md mrgn-bttm-lg\">\t\t\n\n<legend class=\"field-name\">Your contact information</legend>\n\n<label class=\"keyValue\" for=\"name\"></label>\n<input class=\"keyValue\" autocomplete=\"off\" type=\"text\" id=\"name\" name=\"name\">\n<label class=\"keyValue\" for=\"email\"></label>\n<input class=\"keyValue\" autocomplete=\"off\" type=\"email\" id=\"email\" name=\"email\"> \n\n<div class=\"form-group\">\n<label for=\"strFirstName\" class=\"required col-md-4 control-label\"><span class=\"field-name\">First name:</span> <strong class=\"required\">(required)</strong></label>\n<div class=\"col-md-8\">\n<input class=\"form-control\" id=\"strFirstName\" name=\"strFirstName\" type=\"text\" required=\"required\" pattern=\".{2,}\" data-rule-minlength=\"2\">\n</div>\n</div>\n            \n<div class=\"form-group\">\n<label for=\"strLastName\" class=\"required col-md-4 control-label\"><span class=\"field-name\">Last name:</span> <strong class=\"required\">(required)</strong></label>\n<div class=\"col-md-8\">\n<input class=\"form-control\" id=\"strLastName\" name=\"strLastName\" type=\"text\" required=\"required\" pattern=\".{2,}\" data-rule-minlength=\"2\">\n</div>\n</div>\n\n<div class=\"form-group\">\n<label for=\"strEmail\" class=\"required col-md-4 control-label\"><span class=\"field-name\">Email address:</span>  <strong class=\"required\">(required)</strong></label>\n<div class=\"col-md-8\">\n<input class=\"form-control\" id=\"strEmail\" name=\"strEmail\" type=\"email\" required=\"required\">\n</div>\n</div>\n\n<div class=\"form-group\">\n<label for=\"strConfirmEmail\" class=\"required col-md-4 control-label\"><span class=\"field-name\">Confirm email address:</span>  <strong class=\"required\">(required)</strong></label>\n<div class=\"col-md-8\">\n<input class=\"form-control\" id=\"strConfirmEmail\" name=\"strConfirmEmail\" type=\"email\" data-rule-equalto=\"#strEmail\" required=\"required\">\n</div>\n</div>\n\n<div class=\"form-group mrgn-tp-md\">\n<label for=\"lstdescribe\" class=\"required col-md-4 control-label\"><span class=\"field-name\">How would you describe yourself?</span> <strong class=\"required\">(required)</strong></label>\n<div class=\"col-md-8\">\n<select class=\"form-control\" id=\"lstdescribe\" name=\"lstdescribe\" required=\"required\">\n<option label=\"Select from this list\"></option>\n<option value=\"Academia\">Academia</option>\n<option value=\"Consumer Association\">Consumer Association</option>\n<option value=\"Consumer/General Public\">Consumer / General Public</option>\n<option value=\"Industry Association\">Industry Association</option>\n<option value=\"Industry/Commercial Sector\">Industry / Commercial Sector</option>\n<option value=\"Other Government Departments\">Other Government Departments</option>\t\t\t\n</select>\n</div>\n</div>\t\n\n<div class=\"form-group\">\n<label for=\"strAddress1\" class=\"col-md-4 control-label\"><span class=\"field-name\">Address 1:</span></label>\n<div class=\"col-md-8\">\n<input class=\"form-control\" id=\"strAddress1\" name=\"strAddress1\" type=\"text\">\n</div>\n</div>\n\n<div class=\"form-group\">\n<label for=\"strAddress2\" class=\"col-md-4 control-label\"><span class=\"field-name\">Address 2:</span></label>\n<div class=\"col-md-8\">\n<input class=\"form-control\" id=\"strAddress2\" name=\"strAddress2\" type=\"text\">\n</div>\n</div>\n\n<div class=\"form-group\">\n<label for=\"strCity\" class=\"col-md-4 control-label\"><span class=\"field-name\">City:</span></label>\n<div class=\"col-md-8\">\n<input class=\"form-control\" id=\"strCity\" name=\"strCity\" type=\"text\">\n</div>\n</div>\n\n<div class=\"form-group\">\n<label for=\"strProvince\" class=\"col-md-4 control-label\"><span class=\"field-name\">Province:</span></label>\n<div class=\"col-md-8\">\n<input class=\"form-control\" id=\"strProvince\" name=\"strProvince\" type=\"text\">\n</div>\n</div>\n\n<div class=\"form-group\">\n<label for=\"strCountry\" class=\"col-md-4 control-label\"><span class=\"field-name\">Country:</span></label>\n<div class=\"col-md-8\">\n<input class=\"form-control\" id=\"strCountry\" name=\"strCountry\" type=\"text\">\n</div>\n</div>\n\n<div class=\"form-group\">\n<label for=\"strPostal\" class=\"col-md-4 control-label\"><span class=\"field-name\">Postal Code:</span></label>\n<div class=\"col-md-8\">\n<input class=\"form-control\" id=\"strPostal\" name=\"strPostal\" type=\"text\">\n</div>\n</div>\n\n</fieldset>\t\n\n<input value=\"Submit Your Request\" id=\"btnSubmit\" name=\"btnSubmit\" class=\"btn btn-primary\" type=\"submit\"> \n<input value=\"Clear All Information\" id=\"btnReset\" name=\"btnReset\" class=\"btn btn-default\" type=\"reset\">\n\n</form>\n</div>\n<script src=\"https://ajax.googleapis.com/ajax/libs/jquery/2.1.1/jquery.min.js\"></script>\n<script type=\"text/javascript\">\n$(document).ready (function(){\n\tif($(\"#strPaper\").checked || $(\"#strBraille\").checked)\n\t{\n\t\tPaperBrailleChecked();\n\t}\n});\n\n$(document).on(\"change\", \"#strBraille\", function(){\n\tif($(\"#strBraille\").is(\":checked\"))\n\t{\n\t\tPaperBrailleChecked();\n\t}\n\telse if(!($(\"#strPaper\").is(\":checked\")))\n\t{\n\t\tPaperBrailleUnChecked();\n\t}\n});\n\n$(document).on(\"change\", \"#strPaper\", function(){\n\tif($(\"#strPaper\").is(\":checked\"))\n\t{\n\t\tPaperBrailleChecked();\n\t}\n\telse if(!($(\"#strBraille\").is(\":checked\")))\n\t{\n\t\tPaperBrailleUnChecked();\n\t}\n});\n\nfunction PaperBrailleChecked()\n{\n\t$(\"#strAddress1\").attr(\"required\", \"true\");\n\t$(\"#strCity\").attr(\"required\", \"true\");\n\t$(\"#strProvince\").attr(\"required\", \"true\");\n\t$(\"#strCountry\").attr(\"required\", \"true\");\n\t$(\"#strPostal\").attr(\"required\", \"true\");\n}\n\nfunction PaperBrailleUnChecked()\n{\n\t$(\"#strAddress1\").removeAttr(\"required\");\n\t$(\"#strCity\").removeAttr(\"required\");\n\t$(\"#strProvince\").removeAttr(\"required\");\n\t$(\"#strCountry\").removeAttr(\"required\");\n\t$(\"#strPostal\").removeAttr(\"required\");\n}\n</script>\r\n\r\n\r\n\r\n<div class=\"row\">\r\n \r\n\t\r\n\t\t\t\r\n\r\n<div class=\"col-xm-12 pagedetails container\">\r\n\t\t\t\t\r\n\r\n</div>\r\n\t\r\n</div>",
        "fr": "\r\n        \r\n        \n<h2>R\u00e9sum\u00e9</h2>\n\n<p>Les noix et les beurres de noix sont des aliments populaires au Canada et partout dans le monde. Toutefois, des \u00e9closions de salmonellose d'origine alimentaire associ\u00e9es aux noix et aux beurres de noix ont \u00e9t\u00e9 signal\u00e9es \u00e0 l'\u00e9chelle mondiale, y compris au Canada. Les noix sont des produits issus de l'agriculture qui contiennent une faible teneur en eau et peuvent \u00eatre contamin\u00e9s par des bact\u00e9ries pathog\u00e8nes lors de la production primaire, la r\u00e9colte, la transformation et l'entreposage. Une fois que les noix sont contamin\u00e9es, la faible teneur en eau de celles-ci fait en sorte que les bact\u00e9ries pathog\u00e8nes, comme les salmonelles, peuvent survivre durant de longues p\u00e9riodes. Les beurres de noix sont des aliments \u00e0 faible teneur en eau et \u00e0 forte teneur en lipides qui peuvent \u00eatre contamin\u00e9s par des noix contamin\u00e9es ou par contamination crois\u00e9e, lors de la transformation ou l'entreposage. De plus, les traitements thermiques classiques sont souvent inefficaces pour l'\u00e9limination des salmonelles dans les beurres de noix fortement contamin\u00e9s, car ces bact\u00e9ries peuvent acqu\u00e9rir une r\u00e9sistance \u00e0 la chaleur dans les milieux \u00e0 faible teneur en eau et \u00e0 forte teneur en lipides. L'innocuit\u00e9 microbienne des noix et des beurres de noix demeure donc une pr\u00e9occupation.</p>\n\n<p>Compte tenu des facteurs susmentionn\u00e9s et de leur pertinence pour les Canadiens, les noix non d\u00e9cortiqu\u00e9es, les noix d\u00e9cortiqu\u00e9es et les beurres de noix ont \u00e9t\u00e9 s\u00e9lectionn\u00e9s aux fins d'une \u00e9tude cibl\u00e9e. Cette \u00e9tude visait \u00e0 g\u00e9n\u00e9rer des donn\u00e9es de r\u00e9f\u00e9rence sur la pr\u00e9sence de bact\u00e9ries pathog\u00e8nes \u00e0 la surface des noix non d\u00e9cortiqu\u00e9es et des noix d\u00e9cortiqu\u00e9es et dans les beurres de noix, vendus sur le march\u00e9 canadien. Au cours de l'\u00e9tude (1<sup>er</sup> avril 2012 au 31 mars 2015), un total de 2\u00a0400 \u00e9chantillons de noix non d\u00e9cortiqu\u00e9es, de 2\u00a0612 \u00e9chantillons de noix d\u00e9cortiqu\u00e9es et de 1\u00a0142 \u00e9chantillons de beurre de noix ont \u00e9t\u00e9 recueillis dans des commerces de d\u00e9tail dans 11 villes canadiennes, puis ont \u00e9t\u00e9 analys\u00e9s aux fins de d\u00e9tection des bact\u00e9ries pathog\u00e8nes pr\u00e9occupantes\u00a0: <span lang=\"la\">Salmonella</span>, <span lang=\"la\">Escherichia coli</span> O157:H7, <span lang=\"la\">Listeria monocytogenes</span> (dans le cas des beurres de noix uniquement) et <span lang=\"la\"><abbr title=\"Escherichia\">E.</abbr> coli</span> de type g\u00e9n\u00e9rique. La bact\u00e9rie <span lang=\"la\"><abbr title=\"Escherichia\">E.</abbr> coli</span> de type g\u00e9n\u00e9rique est un indicateur des conditions d'hygi\u00e8ne g\u00e9n\u00e9rales de la fili\u00e8re de production alimentaire, de la production jusqu'au point de vente.</p>\n\n<p>Tous les \u00e9chantillons de noix d\u00e9cortiqu\u00e9es (100\u00a0%),de beurre de noix (100\u00a0%) et plus de 99,8\u00a0% des \u00e9chantillons de noix non d\u00e9cortiqu\u00e9es \u00e9taient exempts des microorganismes pathog\u00e8nes recherch\u00e9s. Les bact\u00e9ries <span lang=\"la\"><abbr title=\"Escherichia\">E.</abbr> coli</span> O157:H7, <span lang=\"la\"><abbr title=\"Listeria\">L.</abbr> monocytogenes</span> et <span lang=\"la\"><abbr title=\"Escherichia\">E.</abbr> coli</span> de type g\u00e9n\u00e9rique (&gt; 100 unit\u00e9s formatrices de colonies [UFC]/<abbr title=\"gramme\">g</abbr>) n'ont \u00e9t\u00e9 trouv\u00e9s dans aucun des \u00e9chantillons analys\u00e9s. Cependant, des salmonelles ont \u00e9t\u00e9 d\u00e9tect\u00e9es dans cinq \u00e9chantillons de noix non d\u00e9cortiqu\u00e9es (5/2\u00a0400, 0,21\u00a0%), soit dans deux \u00e9chantillons de noix de Grenoble (2/792, 0,25\u00a0%) et trois \u00e9chantillons de noisettes (3/696, 0,43\u00a0%). L'Agence canadienne d'inspection des aliments (ACIA) a pris les mesures de suivi appropri\u00e9es, notamment une enqu\u00eate sur la salubrit\u00e9 des aliments dans le cas des produits contamin\u00e9s par des salmonelles. Les cinq produits contamin\u00e9s ont \u00e9t\u00e9 retir\u00e9s du march\u00e9 canadien. Aucune maladie d\u00e9clar\u00e9e n'a \u00e9t\u00e9 associ\u00e9e aux produits contamin\u00e9s par <span lang=\"la\">Salmonella</span>.</p> \n\n<p>Selon les r\u00e9sultats, presque tous les \u00e9chantillons de noix et de beurre de noix semblaient avoir \u00e9t\u00e9 produits dans le respect des bonnes pratiques agricoles et des bonnes pratiques de fabrication. De temps \u00e0 autre, les noix non d\u00e9cortiqu\u00e9es peuvent \u00eatre contamin\u00e9es par des salmonelles.</p>\r\n<style>\n/* required style */\n    .keyValue{\n\tdisplay: none !important;\n        visibility: hidden !important;\n</style>\n<h2>Demande de rapport complet</h2>\n<p>La version int\u00e9grale du pr\u00e9sent rapport est disponible sur demande.</p>\n\n<div class=\"wb-frmvld\">\n\n<form class=\"form-horizontal\" role=\"form\" method=\"post\" action=\"/active/netapp/comment/publicationposte.aspx#wb-cont\" name=\"frmPublication\">\n\n<input id=\"emailad0\" name=\"to\" class=\"hidden\" type=\"hidden\" aria-hidden=\"true\" value=\"3b1Vy0MSy339rM+x7idq+r98V67jkgN8lIBSOqRs9ctZYtkwTE9NSgirGkGsw6t4n+Loi98uika/kfV9mvYNwqk61XDlRccZjHfqpfpLdDs=\">\n<input name=\"strLang\" type=\"hidden\" value=\"Francais\">\n<input name=\"strSubject\" type=\"hidden\" value=\"Demande de rapport de r\u00e9sidus chimiques / microbiologie\">\n<input name=\"strTitle\" type=\"hidden\" value=\"title\">\n<input name=\"strUrl\" type=\"hidden\" value=\"url\">\n<script type=\"text/javascript\">\n    document.frmPublication.strTitle.value = document.getElementsByTagName(\"title\")[0].innerHTML;\n    document.frmPublication.strUrl.value = document.URL;\n</script>\n        \n<fieldset class=\"mrgn-tp-md mrgn-bttm-lg\">\t\t\n\n<legend class=\"field-name required\"><span class=\"field-name\">Le format dans lequel vous souhaitez recevoir le rapport</span> <strong class=\"required\">(obligatoire)</strong></legend>\n\n<div class=\"checkbox\">\n<label for=\"strPdf\"><input type=\"checkbox\" name=\"formatsent\" id=\"strPdf\" value=\"pdf\" required=\"required\">Fichier \u00e9lectronique PDF (format de document portable) envoy\u00e9 par courriel</label>\n</div>\n\n<div class=\"checkbox\">\n<label for=\"strText\"><input type=\"checkbox\" name=\"formatsent\" id=\"strText\" value=\"text\">Fichier \u00e9lectronique RTF (<span lang=\"en\">Rich Text Format</span>) envoy\u00e9 par courriel</label>\n</div>\n\n<div class=\"checkbox\">\n<label for=\"strBraille\"><input type=\"checkbox\" name=\"formatsent\" id=\"strBraille\" value=\"braille\">Copie braille envoy\u00e9e par la poste</label>\n</div>\n\n<div class=\"checkbox\">\n<label for=\"strPaper\"><input type=\"checkbox\" name=\"formatsent\" id=\"strPaper\" value=\"paper\">Copie papier envoy\u00e9e par la poste</label>\n</div>\n\n</fieldset>\t\n\n<fieldset class=\"mrgn-tp-md mrgn-bttm-lg\">\t\t\n\n<legend class=\"field-name\">Vos coordonn\u00e9es</legend>\n\n<label class=\"keyValue\" for=\"name\"></label>\n<input class=\"keyValue\" autocomplete=\"off\" type=\"text\" id=\"name\" name=\"name\">\n<label class=\"keyValue\" for=\"email\"></label>\n<input class=\"keyValue\" autocomplete=\"off\" type=\"email\" id=\"email\" name=\"email\"> \n\n<div class=\"form-group\">\n<label for=\"strFirstName\" class=\"required col-md-4 control-label\"><span class=\"field-name\">Pr\u00e9nom :</span> <strong class=\"required\">(obligatoire)</strong></label>\n<div class=\"col-md-8\">\n<input class=\"form-control\" id=\"strFirstName\" name=\"strFirstName\" type=\"text\" required=\"required\" pattern=\".{2,}\" data-rule-minlength=\"2\">\n</div>\n</div>\n            \n<div class=\"form-group\">\n<label for=\"strLastName\" class=\"required col-md-4 control-label\"><span class=\"field-name\">Nom :</span> <strong class=\"required\">(obligatoire)</strong></label>\n<div class=\"col-md-8\">\n<input class=\"form-control\" id=\"strLastName\" name=\"strLastName\" type=\"text\" required=\"required\" pattern=\".{2,}\" data-rule-minlength=\"2\">\n</div>\n</div>\n\n<div class=\"form-group\">\n<label for=\"strEmail\" class=\"required col-md-4 control-label\"><span class=\"field-name\">Adresse de courriel :</span> \u00a0<strong class=\"required\">(obligatoire)</strong></label>\n<div class=\"col-md-8\">\n<input class=\"form-control\" id=\"strEmail\" name=\"strEmail\" type=\"email\" required=\"required\">\n</div>\n</div>\n\n<div class=\"form-group\">\n<label for=\"strConfirmEmail\" class=\"required col-md-4 control-label\"><span class=\"field-name\">Confirmer Adresse de courriel :</span>  <strong class=\"required\">(obligatoire)</strong></label>\n<div class=\"col-md-8\">\n<input class=\"form-control\" id=\"strConfirmEmail\" name=\"strConfirmEmail\" type=\"email\" data-rule-equalto=\"#strEmail\" required=\"required\">\n</div>\n</div>\n\n<div class=\"form-group mrgn-tp-md\">\n<label for=\"lstdescribe\" class=\"required col-md-4 control-label\"><span class=\"field-name\">Comment vous vous d\u00e9criviez?</span> <strong class=\"required\">(obligatoire)</strong></label>\n<div class=\"col-md-8\">\n<select class=\"form-control\" id=\"lstdescribe\" name=\"lstdescribe\" required=\"required\">\n<option label=\"Choisir parmi la liste\"></option>\n<option value=\"Acad\u00e9mie\">Acad\u00e9mie</option>\n<option value=\"Association sectorielle\">Association sectorielle</option>  \n<option value=\"Autres institutions du gouvernement\">Autres institutions du gouvernement</option>\n<option value=\"Consommateur/Grand public\">Consommateur / Grand public</option>\n<option value=\"Groupe de consommateur\">Groupe de consommateur</option>\n<option value=\"Industrie/Secteur commercial\">Industrie / Secteur commercial</option>\n</select>\n</div>\n</div>\t\n\n<div class=\"form-group\">\n<label for=\"strAddress1\" class=\"col-md-4 control-label\"><span class=\"field-name\">Adresse 1 :</span></label>\n<div class=\"col-md-8\">\n<input class=\"form-control\" id=\"strAddress1\" name=\"strAddress1\" type=\"text\">\n</div>\n</div>\n\n<div class=\"form-group\">\n<label for=\"strAddress2\" class=\"col-md-4 control-label\"><span class=\"field-name\">Adresse 2 :</span></label>\n<div class=\"col-md-8\">\n<input class=\"form-control\" id=\"strAddress2\" name=\"strAddress2\" type=\"text\">\n</div>\n</div>\n\n<div class=\"form-group\">\n<label for=\"strCity\" class=\"col-md-4 control-label\"><span class=\"field-name\">Ville :</span></label>\n<div class=\"col-md-8\">\n<input class=\"form-control\" id=\"strCity\" name=\"strCity\" type=\"text\">\n</div>\n</div>\n\n<div class=\"form-group\">\n<label for=\"strProvince\" class=\"col-md-4 control-label\"><span class=\"field-name\">Province :</span></label>\n<div class=\"col-md-8\">\n<input class=\"form-control\" id=\"strProvince\" name=\"strProvince\" type=\"text\">\n</div>\n</div>\n\n<div class=\"form-group\">\n<label for=\"strCountry\" class=\"col-md-4 control-label\"><span class=\"field-name\">Pays : </span></label>\n<div class=\"col-md-8\">\n<input class=\"form-control\" id=\"strCountry\" name=\"strCountry\" type=\"text\">\n</div>\n</div>\n\n<div class=\"form-group\">\n<label for=\"strPostal\" class=\"col-md-4 control-label\"><span class=\"field-name\">Code postal : </span></label>\n<div class=\"col-md-8\">\n<input class=\"form-control\" id=\"strPostal\" name=\"strPostal\" type=\"text\">\n</div>\n</div>\n\n</fieldset>\t\n\n<input value=\"Soumettre votre demande\" id=\"btnSubmit\" name=\"btnSubmit\" class=\"btn btn-primary\" type=\"submit\"> \n<input value=\"Effacez tous les renseignements\" id=\"btnReset\" name=\"btnReset\" class=\"btn btn-default\" type=\"reset\">\n\n</form>\n</div>\n<script src=\"https://ajax.googleapis.com/ajax/libs/jquery/2.1.1/jquery.min.js\"></script>\n<script type=\"text/javascript\">\n$(document).ready (function(){\n\tif($(\"#strPaper\").checked || $(\"#strBraille\").checked)\n\t{\n\t\tPaperBrailleChecked();\n\t}\n});\n\n$(document).on(\"change\", \"#strBraille\", function(){\n\tif($(\"#strBraille\").is(\":checked\"))\n\t{\n\t\tPaperBrailleChecked();\n\t}\n\telse if(!($(\"#strPaper\").is(\":checked\")))\n\t{\n\t\tPaperBrailleUnChecked();\n\t}\n});\n\n$(document).on(\"change\", \"#strPaper\", function(){\n\tif($(\"#strPaper\").is(\":checked\"))\n\t{\n\t\tPaperBrailleChecked();\n\t}\n\telse if(!($(\"#strBraille\").is(\":checked\")))\n\t{\n\t\tPaperBrailleUnChecked();\n\t}\n});\n\nfunction PaperBrailleChecked()\n{\n\t$(\"#strAddress1\").attr(\"required\", \"true\");\n\t$(\"#strCity\").attr(\"required\", \"true\");\n\t$(\"#strProvince\").attr(\"required\", \"true\");\n\t$(\"#strCountry\").attr(\"required\", \"true\");\n\t$(\"#strPostal\").attr(\"required\", \"true\");\n}\n\nfunction PaperBrailleUnChecked()\n{\n\t$(\"#strAddress1\").removeAttr(\"required\");\n\t$(\"#strCity\").removeAttr(\"required\");\n\t$(\"#strProvince\").removeAttr(\"required\");\n\t$(\"#strCountry\").removeAttr(\"required\");\n\t$(\"#strPostal\").removeAttr(\"required\");\n}\n</script>\r\n\r\n<div class=\"row\">\r\n \r\n\t\t\t\r\n\t\t\t\r\n\r\n\t\t\r\n\t\r\n</div>"
    },
    "success": true,
    "chat_wizard": false
}