{
    "dcr_id": "1645637293925",
    "title": {
        "en": "2012-2014 <i lang=\"la\">Salmonella</i>, <i lang=\"la\">Listeria Monocytogenes</i> and Generic <i lang=\"la\"><abbr title=\"Escherichia\">E.</abbr> Coli</i> in Tahini",
        "fr": "2012-2014 <i lang=\"la\">Salmonella</i>, <i lang=\"la\">Listeria monocytogenes</i> et <i lang=\"la\"><abbr title=\"Escherichia\">E.</abbr> coli</i> de type g\u00e9n\u00e9rique dans le tahini"
    },
    "html_modified": "2024-02-13 9:55:39 AM",
    "modified": "2019-08-13",
    "issued": "2022-02-23",
    "teamsite_location": {
        "en": "/default/main/inspection/cont-cont/food-aliments/STAGING/templatedata/comn-comn/forms-formes/data/chem_testing_report_2012-2014_ecoli_tahini_1645637293925_eng",
        "fr": "/default/main/inspection/cont-cont/food-aliments/STAGING/templatedata/comn-comn/forms-formes/data/chem_testing_report_2012-2014_ecoli_tahini_1645637293925_fra"
    },
    "ia_id": "1645637294253",
    "parent_ia_id": "1453327843364",
    "chronicletopic": {
        "en": "",
        "fr": ""
    },
    "chroniclecontent": {
        "en": "",
        "fr": ""
    },
    "chronicleaudience": {
        "en": "",
        "fr": ""
    },
    "sfcrdocumenttype": {
        "en": "",
        "fr": ""
    },
    "sfcraudience": {
        "en": "",
        "fr": ""
    },
    "sfcrmethodofproduction": {
        "en": "",
        "fr": ""
    },
    "activity": {
        "en": "",
        "fr": ""
    },
    "commodity": {
        "en": "",
        "fr": ""
    },
    "program": {
        "en": "",
        "fr": ""
    },
    "search_type": "other",
    "parent_node_id": "1453327843364",
    "layout_name": "content page 1 column",
    "breadcrumb": {
        "en": "2012-2014 <i lang=\"la\">Salmonella</i>, <i lang=\"la\">Listeria Monocytogenes</i> and Generic <i lang=\"la\"><abbr title=\"Escherichia\">E.</abbr> Coli</i> in Tahini",
        "fr": "2012-2014 <i lang=\"la\">Salmonella</i>, <i lang=\"la\">Listeria monocytogenes</i> et <i lang=\"la\"><abbr title=\"Escherichia\">E.</abbr> coli</i> de type g\u00e9n\u00e9rique dans le tahini"
    },
    "label": {
        "en": "2012-2014 <i lang=\"la\">Salmonella</i>, <i lang=\"la\">Listeria Monocytogenes</i> and Generic <i lang=\"la\"><abbr title=\"Escherichia\">E.</abbr> Coli</i> in Tahini",
        "fr": "2012-2014 <i lang=\"la\">Salmonella</i>, <i lang=\"la\">Listeria monocytogenes</i> et <i lang=\"la\"><abbr title=\"Escherichia\">E.</abbr> coli</i> de type g\u00e9n\u00e9rique dans le tahini"
    },
    "templatetype": "content page 1 column",
    "node_id": "1645637294253",
    "managing_branch": "comn",
    "type_name": "forms-formes",
    "dcr_type": "forms-formes",
    "parent_dcr_id": "1453324778043",
    "has_dcr_id": true,
    "lang": "en",
    "could_not_load": 0,
    "refaire": false,
    "interwoven_url": {
        "en": "/food-safety-for-industry/food-chemistry-and-microbiology/food-safety-testing-reports-and-journal-articles/salmonella-listeria-monocytogenes-and-generic-e-co/",
        "fr": "/salubrite-alimentaire-pour-l-industrie/chimie-et-microbiologie-alimentaires/rapports-d-analyse-et-articles-de-revues-sur-la-sa/salmonella-listeria-monocytogenes-et-e-coli-de-typ/"
    },
    "meta": {
        "viewport": {
            "en": "width=device-width,initial-scale=1",
            "fr": "width=device-width,initial-scale=1"
        },
        "service": {
            "en": "CFIA-ACIA",
            "fr": "CFIA-ACIA"
        },
        "accessRights": {
            "en": "2",
            "fr": "2"
        },
        "title": {
            "en": "2012-2014 Salmonella, Listeria Monocytogenes and Generic E. Coli in Tahini",
            "fr": "2012-2014 Salmonella, Listeria monocytogenes et E. coli de type g\u00e9n\u00e9rique dans le tahini"
        },
        "description": {
            "en": "Targeted surveys are used by the Canadian Food Inspection Agency (CFIA) to focus its surveillance activities on areas of highest risk.",
            "fr": "L'Agence canadienne d'inspection des aliments (ACIA) se sert d'\u00e9tudes cibl\u00e9es pour concentrer ses activit\u00e9s de surveillance dans les secteurs o\u00f9 le risque est le plus \u00e9lev\u00e9."
        },
        "keywords": {
            "en": "food, samples, food inspection, consumer protection, regulations, food safety, testing, Salmonella, Listeria monocytogenes, generic E. coli, Tahini",
            "fr": "aliment, \u00e9chantillon, inspection des aliments, protection du consommateur, r\u00e8glements, salubrit\u00e9 des aliments, s\u00e9curit\u00e9, v\u00e9rification, Salmonella, Listeria monocytogenes, E. coli de type g\u00e9n\u00e9rique, tahini"
        },
        "dcterms.subject": {
            "en": "agri-food products,assessment,food inspection,food safety,inspection,scientific research,veterinary medicine",
            "fr": "produit agro-alimentaire,\u00e9valuation,inspection des aliments,salubrit\u00e9 des aliments,inspection,recherche scientifique,m\u00e9decine v\u00e9t\u00e9rinaire"
        },
        "creator": {
            "en": "Government of Canada,Canadian Food Inspection Agency",
            "fr": "Gouvernement du Canada,Agence canadienne d'inspection des aliments"
        },
        "language": {
            "en": "eng",
            "fr": "fra"
        },
        "issued": {
            "en": "2022-02-23",
            "fr": "2022-02-23"
        },
        "modified": {
            "en": "2019-08-13",
            "fr": "2019-08-13"
        },
        "type": {
            "en": "reference material",
            "fr": "mat\u00e9riel de r\u00e9f\u00e9rence"
        },
        "audience": {
            "en": "business,general public,government,scientists",
            "fr": "entreprises,grand public,gouvernement,Scientifiques"
        },
        "name": {
            "en": "Government of Canada",
            "fr": "Gouvernement du Canada"
        },
        "areaServed": {
            "en": "Canada",
            "fr": "Canada"
        }
    },
    "h1": {
        "en": "2012-2014 Salmonella, Listeria Monocytogenes and Generic E. Coli in Tahini",
        "fr": "2012-2014 Salmonella, Listeria monocytogenes et E. coli de type g\u00e9n\u00e9rique dans le tahini"
    },
    "js": {
        "en": "<script>\n    document.frmPublication.strTitle.value = document.getElementsByTagName(\"title\")[0].innerHTML;\n    document.frmPublication.strUrl.value = document.URL;\n</script>/* --------------------- MORE JAVASCRIPT ------------------- */<script>\n$(document).ready (function(){\n\tif($(\"#strPaper\").checked || $(\"#strBraille\").checked)\n\t{\n\t\tPaperBrailleChecked();\n\t}\n});\n\n$(document).on(\"change\", \"#strBraille\", function(){\n\tif($(\"#strBraille\").is(\":checked\"))\n\t{\n\t\tPaperBrailleChecked();\n\t}\n\telse if(!($(\"#strPaper\").is(\":checked\")))\n\t{\n\t\tPaperBrailleUnChecked();\n\t}\n});\n\n$(document).on(\"change\", \"#strPaper\", function(){\n\tif($(\"#strPaper\").is(\":checked\"))\n\t{\n\t\tPaperBrailleChecked();\n\t}\n\telse if(!($(\"#strBraille\").is(\":checked\")))\n\t{\n\t\tPaperBrailleUnChecked();\n\t}\n});\n\nfunction PaperBrailleChecked()\n{\n\t$(\"#strAddress1\").attr(\"required\", \"true\");\n\t$(\"#strCity\").attr(\"required\", \"true\");\n\t$(\"#strProvince\").attr(\"required\", \"true\");\n\t$(\"#strCountry\").attr(\"required\", \"true\");\n\t$(\"#strPostal\").attr(\"required\", \"true\");\n}\n\nfunction PaperBrailleUnChecked()\n{\n\t$(\"#strAddress1\").removeAttr(\"required\");\n\t$(\"#strCity\").removeAttr(\"required\");\n\t$(\"#strProvince\").removeAttr(\"required\");\n\t$(\"#strCountry\").removeAttr(\"required\");\n\t$(\"#strPostal\").removeAttr(\"required\");\n}\n</script>",
        "fr": "<script>\n    document.frmPublication.strTitle.value = document.getElementsByTagName(\"title\")[0].innerHTML;\n    document.frmPublication.strUrl.value = document.URL;\n</script>/* --------------------- MORE JAVASCRIPT ------------------- */<script>\n$(document).ready (function(){\n\tif($(\"#strPaper\").checked || $(\"#strBraille\").checked)\n\t{\n\t\tPaperBrailleChecked();\n\t}\n});\n\n$(document).on(\"change\", \"#strBraille\", function(){\n\tif($(\"#strBraille\").is(\":checked\"))\n\t{\n\t\tPaperBrailleChecked();\n\t}\n\telse if(!($(\"#strPaper\").is(\":checked\")))\n\t{\n\t\tPaperBrailleUnChecked();\n\t}\n});\n\n$(document).on(\"change\", \"#strPaper\", function(){\n\tif($(\"#strPaper\").is(\":checked\"))\n\t{\n\t\tPaperBrailleChecked();\n\t}\n\telse if(!($(\"#strBraille\").is(\":checked\")))\n\t{\n\t\tPaperBrailleUnChecked();\n\t}\n});\n\nfunction PaperBrailleChecked()\n{\n\t$(\"#strAddress1\").attr(\"required\", \"true\");\n\t$(\"#strCity\").attr(\"required\", \"true\");\n\t$(\"#strProvince\").attr(\"required\", \"true\");\n\t$(\"#strCountry\").attr(\"required\", \"true\");\n\t$(\"#strPostal\").attr(\"required\", \"true\");\n}\n\nfunction PaperBrailleUnChecked()\n{\n\t$(\"#strAddress1\").removeAttr(\"required\");\n\t$(\"#strCity\").removeAttr(\"required\");\n\t$(\"#strProvince\").removeAttr(\"required\");\n\t$(\"#strCountry\").removeAttr(\"required\");\n\t$(\"#strPostal\").removeAttr(\"required\");\n}\n</script>"
    },
    "mode_html": "no_editor_full",
    "body": {
        "en": "        \r\n        \n<h2>Summary</h2>\n\n<p>Targeted surveys are used by the Canadian Food Inspection Agency (CFIA) to focus its surveillance activities on areas of highest risk.  The information gained from these surveys provides both support for the prioritization of the Agency's activities to areas of greater concern and scientific evidence to address areas of lesser concern.  Originally started under the Food Safety Action Plan (FSAP), targeted surveys have been incorporated into the <abbr title=\"Canadian Food Inspection Agency\">CFIA</abbr>'s regular surveillance activities as a valuable tool for generating essential information on certain hazards in foods, identifying/characterizing new and emerging hazards, informing trend analysis, prompting/refining human health risk assessments, assessing compliance with Canadian regulations, highlighting potential contamination issues, and promoting compliance.</p>\n\n<p>In recent years, foodborne outbreaks of salmonellosis associated with tahini have been reported worldwide.  Tahini is a sesame seed-based processed low moisture food or food ingredient.  Contaminated sesame seeds and/or cross-contamination due to poor hygiene practices during processing are believed to be the main sources and routes of contamination.  Once contaminated, <i lang=\"la\">Salmonella</i> can survive in tahini during the shelf-life and could cause illness upon consumption.  If contaminated tahini is used as an ingredient, the tahini-based products subsequently become contaminated.  In addition, contamination of tahini with <i lang=\"la\">Listeria monocytogenes</i> (<i lang=\"la\">L. monocytogenes</i>) is also a safety concern as this bacterium is widely distributed in the environment and can survive and/or grow in tahini-based high moisture foods under refrigeration conditions.</p> \n\n<p>Considering the above factors and their relevance to Canadians, tahini has been selected as one of the food ingredients for enhanced surveillance.  Over the course of four years of targeted surveys on tahini (2010/11 to 2013/14), approximately 2,400 samples of tahini were collected from Canadian retail locations and tested for the presence of bacterial pathogens of concern.</p> \n \n<p>The main objectives of the 2012/13 and 2013/14 surveys were to generate baseline data on bacterial pathogens <i lang=\"la\">Salmonella</i> and <i lang=\"la\"><abbr title=\"Listeria\">L.</abbr> monocytogenes</i>, and on generic <i lang=\"la\">Escherichia coli</i> (<i lang=\"la\">E. coli</i>), an indicator of fecal contamination, for tahini available in the Canadian market.  In a total of 1166 tahini samples analyzed, <i lang=\"la\"><abbr title=\"Listeria\">L.</abbr> monocytogenes</i> was not detected in any of the samples, levels of generic <i lang=\"la\"><abbr title=\"Escherichia\">E.</abbr> coli</i> were found to be acceptable in all the samples and Salmonella was found in four tahini samples (0.3%).  These unsatisfactory findings resulted in four products recalls.  The survey results suggest that the majority of tahini in the Canadian market sampled during these surveys were produced under Good Manufacturing Practices (GMPs) and/or Good Agricultural Practices (GAPs).  However, the results also indicate that contamination of tahini with Salmonella can occur, which could represent a food safety risk.</p>  \n\n<p>The <abbr title=\"Canadian Food Inspection Agency\">CFIA</abbr> regulates and provides oversight to the food industry, works with provinces and territories, and promotes safe handling of foods throughout the food production chain.  However, it is important to note that the food industry, importers, and retail sectors are ultimately responsible for the food they produce, import, and sell, while individual consumers are responsible for the safe handling of the food they have in their possession.  Moreover, general advice for the consumer on the safe handling of foods is widely available.  The <abbr title=\"Canadian Food Inspection Agency\">CFIA</abbr> will continue its surveillance activities and inform the Canadian public and stakeholders of its findings.</p>\r\n<style>\n/* required style */\n    .keyValue{\n\tdisplay: none !important;\n        visibility: hidden !important;\n</style>\n<h2>Request of Complete Report</h2>\n<p>The complete text of this report is available upon request.</p>\n\n<div class=\"wb-frmvld\">\n\n<form class=\"form-horizontal\" role=\"form\" method=\"post\" action=\"/active/netapp/comment/publicationposte.aspx#wb-cont\" name=\"frmPublication\">\n<input id=\"emailad0\" name=\"to\" class=\"hidden\" type=\"hidden\" aria-hidden=\"true\" value=\"iz77Ht3nAc0zrzUV+D8mboHEldUQxD2kRNfgAkqb1tldqNgeUioLNtUPRQIYwyRI\">\n<input name=\"strLang\" type=\"hidden\" value=\"English\">\n<input name=\"strSubject\" type=\"hidden\" value=\"Chemical Residues / Microbiology Report Request\">\n<input name=\"strTitle\" type=\"hidden\" value=\"title\">\n<input name=\"strUrl\" type=\"hidden\" value=\"url\">\n<script type=\"text/javascript\">\n    document.frmPublication.strTitle.value = document.getElementsByTagName(\"title\")[0].innerHTML;\n    document.frmPublication.strUrl.value = document.URL;\n</script>\n        \n<fieldset class=\"mrgn-tp-md mrgn-bttm-lg\">\t\t\n\n<legend class=\"field-name required\"><span class=\"field-name\">The format in which you would like to receive the report</span> <strong class=\"required\">(required)</strong></legend>\n\n<div class=\"checkbox\">\n<label for=\"strPdf\"><input type=\"checkbox\" name=\"formatsent\" id=\"strPdf\" value=\"pdf\" required=\"required\">PDF (Portable Document Format) electronic file sent to you by email</label>\n</div>\n\n<div class=\"checkbox\">\n<label for=\"strText\"><input type=\"checkbox\" name=\"formatsent\" id=\"strText\" value=\"text\">RTF (Rich Text Format) electronic file sent to you by email</label>\n</div>\n\n<div class=\"checkbox\">\n<label for=\"strBraille\"><input type=\"checkbox\" name=\"formatsent\" id=\"strBraille\" value=\"braille\">Braille copy sent to you by mail</label>\n</div>\n\n<div class=\"checkbox\">\n<label for=\"strPaper\"><input type=\"checkbox\" name=\"formatsent\" id=\"strPaper\" value=\"paper\">Paper copy sent to you by mail</label>\n</div>\n\n</fieldset>\t\n\n<fieldset class=\"mrgn-tp-md mrgn-bttm-lg\">\t\t\n\n<legend class=\"field-name\">Your contact information</legend>\n\n<label class=\"keyValue\" for=\"name\"></label>\n<input class=\"keyValue\" autocomplete=\"off\" type=\"text\" id=\"name\" name=\"name\">\n<label class=\"keyValue\" for=\"email\"></label>\n<input class=\"keyValue\" autocomplete=\"off\" type=\"email\" id=\"email\" name=\"email\"> \n\n<div class=\"form-group\">\n<label for=\"strFirstName\" class=\"required col-md-4 control-label\"><span class=\"field-name\">First name:</span> <strong class=\"required\">(required)</strong></label>\n<div class=\"col-md-8\">\n<input class=\"form-control\" id=\"strFirstName\" name=\"strFirstName\" type=\"text\" required=\"required\" pattern=\".{2,}\" data-rule-minlength=\"2\">\n</div>\n</div>\n            \n<div class=\"form-group\">\n<label for=\"strLastName\" class=\"required col-md-4 control-label\"><span class=\"field-name\">Last name:</span> <strong class=\"required\">(required)</strong></label>\n<div class=\"col-md-8\">\n<input class=\"form-control\" id=\"strLastName\" name=\"strLastName\" type=\"text\" required=\"required\" pattern=\".{2,}\" data-rule-minlength=\"2\">\n</div>\n</div>\n\n<div class=\"form-group\">\n<label for=\"strEmail\" class=\"required col-md-4 control-label\"><span class=\"field-name\">Email address:</span>  <strong class=\"required\">(required)</strong></label>\n<div class=\"col-md-8\">\n<input class=\"form-control\" id=\"strEmail\" name=\"strEmail\" type=\"email\" required=\"required\">\n</div>\n</div>\n\n<div class=\"form-group\">\n<label for=\"strConfirmEmail\" class=\"required col-md-4 control-label\"><span class=\"field-name\">Confirm email address:</span>  <strong class=\"required\">(required)</strong></label>\n<div class=\"col-md-8\">\n<input class=\"form-control\" id=\"strConfirmEmail\" name=\"strConfirmEmail\" type=\"email\" data-rule-equalto=\"#strEmail\" required=\"required\">\n</div>\n</div>\n\n<div class=\"form-group mrgn-tp-md\">\n<label for=\"lstdescribe\" class=\"required col-md-4 control-label\"><span class=\"field-name\">How would you describe yourself?</span> <strong class=\"required\">(required)</strong></label>\n<div class=\"col-md-8\">\n<select class=\"form-control\" id=\"lstdescribe\" name=\"lstdescribe\" required=\"required\">\n<option label=\"Select from this list\"></option>\n<option value=\"Academia\">Academia</option>\n<option value=\"Consumer Association\">Consumer Association</option>\n<option value=\"Consumer/General Public\">Consumer / General Public</option>\n<option value=\"Industry Association\">Industry Association</option>\n<option value=\"Industry/Commercial Sector\">Industry / Commercial Sector</option>\n<option value=\"Other Government Departments\">Other Government Departments</option>\t\t\t\n</select>\n</div>\n</div>\t\n\n<div class=\"form-group\">\n<label for=\"strAddress1\" class=\"col-md-4 control-label\"><span class=\"field-name\">Address 1:</span></label>\n<div class=\"col-md-8\">\n<input class=\"form-control\" id=\"strAddress1\" name=\"strAddress1\" type=\"text\">\n</div>\n</div>\n\n<div class=\"form-group\">\n<label for=\"strAddress2\" class=\"col-md-4 control-label\"><span class=\"field-name\">Address 2:</span></label>\n<div class=\"col-md-8\">\n<input class=\"form-control\" id=\"strAddress2\" name=\"strAddress2\" type=\"text\">\n</div>\n</div>\n\n<div class=\"form-group\">\n<label for=\"strCity\" class=\"col-md-4 control-label\"><span class=\"field-name\">City:</span></label>\n<div class=\"col-md-8\">\n<input class=\"form-control\" id=\"strCity\" name=\"strCity\" type=\"text\">\n</div>\n</div>\n\n<div class=\"form-group\">\n<label for=\"strProvince\" class=\"col-md-4 control-label\"><span class=\"field-name\">Province:</span></label>\n<div class=\"col-md-8\">\n<input class=\"form-control\" id=\"strProvince\" name=\"strProvince\" type=\"text\">\n</div>\n</div>\n\n<div class=\"form-group\">\n<label for=\"strCountry\" class=\"col-md-4 control-label\"><span class=\"field-name\">Country:</span></label>\n<div class=\"col-md-8\">\n<input class=\"form-control\" id=\"strCountry\" name=\"strCountry\" type=\"text\">\n</div>\n</div>\n\n<div class=\"form-group\">\n<label for=\"strPostal\" class=\"col-md-4 control-label\"><span class=\"field-name\">Postal Code:</span></label>\n<div class=\"col-md-8\">\n<input class=\"form-control\" id=\"strPostal\" name=\"strPostal\" type=\"text\">\n</div>\n</div>\n\n</fieldset>\t\n\n<input value=\"Submit Your Request\" id=\"btnSubmit\" name=\"btnSubmit\" class=\"btn btn-primary\" type=\"submit\"> \n<input value=\"Clear All Information\" id=\"btnReset\" name=\"btnReset\" class=\"btn btn-default\" type=\"reset\">\n\n</form>\n</div>\n<script src=\"https://ajax.googleapis.com/ajax/libs/jquery/2.1.1/jquery.min.js\"></script>\n<script type=\"text/javascript\">\n$(document).ready (function(){\n\tif($(\"#strPaper\").checked || $(\"#strBraille\").checked)\n\t{\n\t\tPaperBrailleChecked();\n\t}\n});\n\n$(document).on(\"change\", \"#strBraille\", function(){\n\tif($(\"#strBraille\").is(\":checked\"))\n\t{\n\t\tPaperBrailleChecked();\n\t}\n\telse if(!($(\"#strPaper\").is(\":checked\")))\n\t{\n\t\tPaperBrailleUnChecked();\n\t}\n});\n\n$(document).on(\"change\", \"#strPaper\", function(){\n\tif($(\"#strPaper\").is(\":checked\"))\n\t{\n\t\tPaperBrailleChecked();\n\t}\n\telse if(!($(\"#strBraille\").is(\":checked\")))\n\t{\n\t\tPaperBrailleUnChecked();\n\t}\n});\n\nfunction PaperBrailleChecked()\n{\n\t$(\"#strAddress1\").attr(\"required\", \"true\");\n\t$(\"#strCity\").attr(\"required\", \"true\");\n\t$(\"#strProvince\").attr(\"required\", \"true\");\n\t$(\"#strCountry\").attr(\"required\", \"true\");\n\t$(\"#strPostal\").attr(\"required\", \"true\");\n}\n\nfunction PaperBrailleUnChecked()\n{\n\t$(\"#strAddress1\").removeAttr(\"required\");\n\t$(\"#strCity\").removeAttr(\"required\");\n\t$(\"#strProvince\").removeAttr(\"required\");\n\t$(\"#strCountry\").removeAttr(\"required\");\n\t$(\"#strPostal\").removeAttr(\"required\");\n}\n</script>\r\n\r\n\r\n\r\n<div class=\"row\">\r\n \r\n\t\r\n\t\t\t\r\n\r\n<div class=\"col-xm-12 pagedetails container\">\r\n\t\t\t\t\r\n\r\n</div>\r\n\t\r\n</div>",
        "fr": "\r\n        \r\n        \n<h2>R\u00e9sum\u00e9</h2>\n\n<p>L'Agence canadienne d'inspection des aliments (ACIA) se sert d'\u00e9tudes cibl\u00e9es pour concentrer ses activit\u00e9s de surveillance dans les secteurs o\u00f9 le risque est le plus \u00e9lev\u00e9. Les renseignements livr\u00e9s par ces \u00e9tudes permettent \u00e0 la fois d'accorder une plus grande priorit\u00e9 aux activit\u00e9s de l'Agence concernant les secteurs plus pr\u00e9occupants et d'obtenir des preuves scientifiques concernant les secteurs moins pr\u00e9occupants. \u00c0 l'origine lanc\u00e9es dans le cadre du Plan d'action pour assurer la s\u00e9curit\u00e9 des produits alimentaires (PAASPA), les \u00e9tudes cibl\u00e9es ont \u00e9t\u00e9 int\u00e9gr\u00e9es aux activit\u00e9s de surveillance r\u00e9guli\u00e8res de l'<abbr title=\"Agence canadienne d'inspection des aliments\">ACIA</abbr> comme un outil pr\u00e9cieux pour produire des donn\u00e9es essentielles sur certains dangers li\u00e9s aux aliments, identifier/caract\u00e9riser les dangers nouveaux et \u00e9mergents, alimenter l'analyse des tendances, entra\u00eener/raffiner les \u00e9valuations du risque pour la sant\u00e9 humaine, \u00e9valuer la conformit\u00e9 aux r\u00e8glements canadiens, mettre en \u00e9vidence les probl\u00e8mes de contamination potentiels et promouvoir la conformit\u00e9.</p>\n\n<p>Au cours des derni\u00e8res ann\u00e9es, des \u00e9closions de salmonellose associ\u00e9es au tahini ont \u00e9t\u00e9 signal\u00e9es \u00e0 diff\u00e9rents endroits dans le monde. Le tahini est un aliment ou un ingr\u00e9dient alimentaire transform\u00e9 \u00e0 faible teneur en eau, fabriqu\u00e9 \u00e0 partir de graines de s\u00e9same. On croit que des graines de s\u00e9same contamin\u00e9es ou une contamination crois\u00e9e caus\u00e9e par de mauvaises pratiques hygi\u00e9niques durant la transformation sont les principales sources et voies de contamination. Une fois le tahini contamin\u00e9, la bact\u00e9rie <i lang=\"la\">Salmonella</i> peut survivre dans celui-ci durant toute sa dur\u00e9e de conservation et elle pourrait rendre malade la personne qui le consommerait. Si du tahini contamin\u00e9 est utilis\u00e9 comme ingr\u00e9dient, les produits r\u00e9sultants deviennent eux aussi contamin\u00e9s. De plus, la contamination du tahini par la bact\u00e9rie <i lang=\"la\">Listeria monocytogenes</i> (<i lang=\"la\">L. monocytogenes</i>) est aussi source de pr\u00e9occupation quant \u00e0 la salubrit\u00e9 alimentaire, car cette bact\u00e9rie est largement pr\u00e9sente dans l'environnement et elle peut survivre ou cro\u00eetre dans les aliments r\u00e9frig\u00e9r\u00e9s \u00e0 forte teneur en eau \u00e0 base de tahini.</p> \n\n<p>Compte tenu des \u00e9l\u00e9ments ci-dessus et de leur pertinence pour la sant\u00e9 des Canadiens, le tahini a \u00e9t\u00e9 s\u00e9lectionn\u00e9 comme l'un des ingr\u00e9dients alimentaires devant faire l'objet d'une surveillance accrue. Au cours des quatre ann\u00e9es d'\u00e9tudes cibl\u00e9es visant le tahini (2010-2011 \u00e0 2013-2014), on a pr\u00e9lev\u00e9 environ 2400 \u00e9chantillons de tahini dans des lieux de vente au d\u00e9tail canadiens pour y d\u00e9terminer la pr\u00e9sence de bact\u00e9ries pathog\u00e8nes pr\u00e9occupantes.</p> \n\n<p>Les enqu\u00eates de 2012-2013 et de 2013-2014 visaient principalement \u00e0 produire des donn\u00e9es de r\u00e9f\u00e9rence sur les bact\u00e9ries pathog\u00e8nes <i lang=\"la\">Salmonella</i> et <i lang=\"la\"><abbr title=\"Listeria\">L.</abbr> monocytogenes</i>, ainsi que sur la bact\u00e9rie <i lang=\"la\">Escherichia coli</i> (<i lang=\"la\">E. coli</i>) g\u00e9n\u00e9rique, un indicateur de contamination f\u00e9cale, pour le tahini vendu sur le march\u00e9 canadien. Parmi un total de 1166 \u00e9chantillons de tahini analys\u00e9s, la bact\u00e9rie <i lang=\"la\"><abbr title=\"Listeria\">L.</abbr> monocytogenes</i> n'a \u00e9t\u00e9 d\u00e9tect\u00e9e dans aucun des \u00e9chantillons, les concentrations d'<i lang=\"la\">E. coli</i> de type g\u00e9n\u00e9rique trouv\u00e9es \u00e9taient acceptables dans tous les \u00e9chantillons, et la bact\u00e9rie <i lang=\"la\">Salmonella</i> n'a \u00e9t\u00e9 trouv\u00e9e que dans quatre des \u00e9chantillons de tahini (0,3\u00a0%). Ces derniers r\u00e9sultats, non satisfaisants, ont donn\u00e9 lieu \u00e0 quatre rappels de produits. Cela sugg\u00e8re que la majorit\u00e9 du tahini en vente au Canada et \u00e9chantillonn\u00e9 dans le cadre des pr\u00e9sentes \u00e9tudes \u00e9tait produit conform\u00e9ment aux bonnes pratiques de fabrication (BPF) et aux bonnes pratiques agricoles (BPA). Les r\u00e9sultats indiquent toutefois que la contamination du tahini par la bact\u00e9rie <i lang=\"la\">Salmonella</i> est possible, et cela pourrait repr\u00e9senter un risque alimentaire.</p> \n\n<p>L'<abbr title=\"Agence canadienne d'inspection des aliments\">ACIA</abbr> r\u00e9glemente et supervise l'industrie alimentaire, collabore avec les provinces et les territoires, et fait la promotion de m\u00e9thodes s\u00e9curitaires de manipulation des aliments \u00e0 toutes les \u00e9tapes de la cha\u00eene de production. N'oublions cependant pas que l'industrie alimentaire, les importateurs et les secteurs du d\u00e9tail sont en d\u00e9finitive responsables des aliments qu'ils produisent, importent et vendent, et qu'il appartient aux consommateurs de manipuler d'une mani\u00e8re s\u00e9curitaire les aliments qu'ils ont en leur possession. De plus, les consommateurs ont facilement acc\u00e8s \u00e0 des conseils g\u00e9n\u00e9raux sur la manipulation s\u00e9curitaire des aliments. L'<abbr title=\"Agence canadienne d'inspection des aliments\">ACIA</abbr> poursuivra ses activit\u00e9s de surveillance et fera part de ses constatations au public et aux intervenants canadiens.</p>\r\n<style>\n/* required style */\n    .keyValue{\n\tdisplay: none !important;\n        visibility: hidden !important;\n</style>\n<h2>Demande de rapport complet</h2>\n<p>La version int\u00e9grale du pr\u00e9sent rapport est disponible sur demande.</p>\n\n<div class=\"wb-frmvld\">\n\n<form class=\"form-horizontal\" role=\"form\" method=\"post\" action=\"/active/netapp/comment/publicationposte.aspx#wb-cont\" name=\"frmPublication\">\n\n<input id=\"emailad0\" name=\"to\" class=\"hidden\" type=\"hidden\" aria-hidden=\"true\" value=\"t1a5wz3mc39Hdez8TQbXVmK3TdSYW59l0St0gJvyDb9GHH2kP0hSnJMRbUh5STdD\">\n<input name=\"strLang\" type=\"hidden\" value=\"Francais\">\n<input name=\"strSubject\" type=\"hidden\" value=\"Demande de rapport de r\u00e9sidus chimiques / microbiologie\">\n<input name=\"strTitle\" type=\"hidden\" value=\"title\">\n<input name=\"strUrl\" type=\"hidden\" value=\"url\">\n<script type=\"text/javascript\">\n    document.frmPublication.strTitle.value = document.getElementsByTagName(\"title\")[0].innerHTML;\n    document.frmPublication.strUrl.value = document.URL;\n</script>\n        \n<fieldset class=\"mrgn-tp-md mrgn-bttm-lg\">\t\t\n\n<legend class=\"field-name required\"><span class=\"field-name\">Le format dans lequel vous souhaitez recevoir le rapport</span> <strong class=\"required\">(obligatoire)</strong></legend>\n\n<div class=\"checkbox\">\n<label for=\"strPdf\"><input type=\"checkbox\" name=\"formatsent\" id=\"strPdf\" value=\"pdf\" required=\"required\">Fichier \u00e9lectronique PDF (format de document portable) envoy\u00e9 par courriel</label>\n</div>\n\n<div class=\"checkbox\">\n<label for=\"strText\"><input type=\"checkbox\" name=\"formatsent\" id=\"strText\" value=\"text\">Fichier \u00e9lectronique RTF (<span lang=\"en\">Rich Text Format</span>) envoy\u00e9 par courriel</label>\n</div>\n\n<div class=\"checkbox\">\n<label for=\"strBraille\"><input type=\"checkbox\" name=\"formatsent\" id=\"strBraille\" value=\"braille\">Copie braille envoy\u00e9e par la poste</label>\n</div>\n\n<div class=\"checkbox\">\n<label for=\"strPaper\"><input type=\"checkbox\" name=\"formatsent\" id=\"strPaper\" value=\"paper\">Copie papier envoy\u00e9e par la poste</label>\n</div>\n\n</fieldset>\t\n\n<fieldset class=\"mrgn-tp-md mrgn-bttm-lg\">\t\t\n\n<legend class=\"field-name\">Vos coordonn\u00e9es</legend>\n\n<label class=\"keyValue\" for=\"name\"></label>\n<input class=\"keyValue\" autocomplete=\"off\" type=\"text\" id=\"name\" name=\"name\">\n<label class=\"keyValue\" for=\"email\"></label>\n<input class=\"keyValue\" autocomplete=\"off\" type=\"email\" id=\"email\" name=\"email\"> \n\n<div class=\"form-group\">\n<label for=\"strFirstName\" class=\"required col-md-4 control-label\"><span class=\"field-name\">Pr\u00e9nom :</span> <strong class=\"required\">(obligatoire)</strong></label>\n<div class=\"col-md-8\">\n<input class=\"form-control\" id=\"strFirstName\" name=\"strFirstName\" type=\"text\" required=\"required\" pattern=\".{2,}\" data-rule-minlength=\"2\">\n</div>\n</div>\n            \n<div class=\"form-group\">\n<label for=\"strLastName\" class=\"required col-md-4 control-label\"><span class=\"field-name\">Nom :</span> <strong class=\"required\">(obligatoire)</strong></label>\n<div class=\"col-md-8\">\n<input class=\"form-control\" id=\"strLastName\" name=\"strLastName\" type=\"text\" required=\"required\" pattern=\".{2,}\" data-rule-minlength=\"2\">\n</div>\n</div>\n\n<div class=\"form-group\">\n<label for=\"strEmail\" class=\"required col-md-4 control-label\"><span class=\"field-name\">Adresse de courriel :</span> \u00a0<strong class=\"required\">(obligatoire)</strong></label>\n<div class=\"col-md-8\">\n<input class=\"form-control\" id=\"strEmail\" name=\"strEmail\" type=\"email\" required=\"required\">\n</div>\n</div>\n\n<div class=\"form-group\">\n<label for=\"strConfirmEmail\" class=\"required col-md-4 control-label\"><span class=\"field-name\">Confirmer Adresse de courriel :</span>  <strong class=\"required\">(obligatoire)</strong></label>\n<div class=\"col-md-8\">\n<input class=\"form-control\" id=\"strConfirmEmail\" name=\"strConfirmEmail\" type=\"email\" data-rule-equalto=\"#strEmail\" required=\"required\">\n</div>\n</div>\n\n<div class=\"form-group mrgn-tp-md\">\n<label for=\"lstdescribe\" class=\"required col-md-4 control-label\"><span class=\"field-name\">Comment vous vous d\u00e9criviez?</span> <strong class=\"required\">(obligatoire)</strong></label>\n<div class=\"col-md-8\">\n<select class=\"form-control\" id=\"lstdescribe\" name=\"lstdescribe\" required=\"required\">\n<option label=\"Choisir parmi la liste\"></option>\n<option value=\"Acad\u00e9mie\">Acad\u00e9mie</option>\n<option value=\"Association sectorielle\">Association sectorielle</option>  \n<option value=\"Autres institutions du gouvernement\">Autres institutions du gouvernement</option>\n<option value=\"Consommateur/Grand public\">Consommateur / Grand public</option>\n<option value=\"Groupe de consommateur\">Groupe de consommateur</option>\n<option value=\"Industrie/Secteur commercial\">Industrie / Secteur commercial</option>\n</select>\n</div>\n</div>\t\n\n<div class=\"form-group\">\n<label for=\"strAddress1\" class=\"col-md-4 control-label\"><span class=\"field-name\">Adresse 1 :</span></label>\n<div class=\"col-md-8\">\n<input class=\"form-control\" id=\"strAddress1\" name=\"strAddress1\" type=\"text\">\n</div>\n</div>\n\n<div class=\"form-group\">\n<label for=\"strAddress2\" class=\"col-md-4 control-label\"><span class=\"field-name\">Adresse 2 :</span></label>\n<div class=\"col-md-8\">\n<input class=\"form-control\" id=\"strAddress2\" name=\"strAddress2\" type=\"text\">\n</div>\n</div>\n\n<div class=\"form-group\">\n<label for=\"strCity\" class=\"col-md-4 control-label\"><span class=\"field-name\">Ville :</span></label>\n<div class=\"col-md-8\">\n<input class=\"form-control\" id=\"strCity\" name=\"strCity\" type=\"text\">\n</div>\n</div>\n\n<div class=\"form-group\">\n<label for=\"strProvince\" class=\"col-md-4 control-label\"><span class=\"field-name\">Province :</span></label>\n<div class=\"col-md-8\">\n<input class=\"form-control\" id=\"strProvince\" name=\"strProvince\" type=\"text\">\n</div>\n</div>\n\n<div class=\"form-group\">\n<label for=\"strCountry\" class=\"col-md-4 control-label\"><span class=\"field-name\">Pays : </span></label>\n<div class=\"col-md-8\">\n<input class=\"form-control\" id=\"strCountry\" name=\"strCountry\" type=\"text\">\n</div>\n</div>\n\n<div class=\"form-group\">\n<label for=\"strPostal\" class=\"col-md-4 control-label\"><span class=\"field-name\">Code postal : </span></label>\n<div class=\"col-md-8\">\n<input class=\"form-control\" id=\"strPostal\" name=\"strPostal\" type=\"text\">\n</div>\n</div>\n\n</fieldset>\t\n\n<input value=\"Soumettre votre demande\" id=\"btnSubmit\" name=\"btnSubmit\" class=\"btn btn-primary\" type=\"submit\"> \n<input value=\"Effacez tous les renseignements\" id=\"btnReset\" name=\"btnReset\" class=\"btn btn-default\" type=\"reset\">\n\n</form>\n</div>\n<script src=\"https://ajax.googleapis.com/ajax/libs/jquery/2.1.1/jquery.min.js\"></script>\n<script type=\"text/javascript\">\n$(document).ready (function(){\n\tif($(\"#strPaper\").checked || $(\"#strBraille\").checked)\n\t{\n\t\tPaperBrailleChecked();\n\t}\n});\n\n$(document).on(\"change\", \"#strBraille\", function(){\n\tif($(\"#strBraille\").is(\":checked\"))\n\t{\n\t\tPaperBrailleChecked();\n\t}\n\telse if(!($(\"#strPaper\").is(\":checked\")))\n\t{\n\t\tPaperBrailleUnChecked();\n\t}\n});\n\n$(document).on(\"change\", \"#strPaper\", function(){\n\tif($(\"#strPaper\").is(\":checked\"))\n\t{\n\t\tPaperBrailleChecked();\n\t}\n\telse if(!($(\"#strBraille\").is(\":checked\")))\n\t{\n\t\tPaperBrailleUnChecked();\n\t}\n});\n\nfunction PaperBrailleChecked()\n{\n\t$(\"#strAddress1\").attr(\"required\", \"true\");\n\t$(\"#strCity\").attr(\"required\", \"true\");\n\t$(\"#strProvince\").attr(\"required\", \"true\");\n\t$(\"#strCountry\").attr(\"required\", \"true\");\n\t$(\"#strPostal\").attr(\"required\", \"true\");\n}\n\nfunction PaperBrailleUnChecked()\n{\n\t$(\"#strAddress1\").removeAttr(\"required\");\n\t$(\"#strCity\").removeAttr(\"required\");\n\t$(\"#strProvince\").removeAttr(\"required\");\n\t$(\"#strCountry\").removeAttr(\"required\");\n\t$(\"#strPostal\").removeAttr(\"required\");\n}\n</script>\r\n\r\n<div class=\"row\">\r\n \r\n\t\t\t\r\n\t\t\t\r\n\r\n\t\t\r\n\t\r\n</div>"
    },
    "success": true,
    "chat_wizard": false
}