{
    "dcr_id": "1345231064142",
    "title": {
        "en": "Chapter 2 - Identification",
        "fr": "Chapitre 2 - Identification"
    },
    "html_modified": "2024-03-12 3:55:47 PM",
    "modified": "2024-01-17",
    "issued": "2012-08-17 15:17:46",
    "teamsite_location": {
        "en": "/default/main/inspection/cont-cont/animals-animaux/STAGING/templatedata/comn-comn/manuals-manuels/data/terr_disease_accreditvetmanual_chapter2_1345231064142_eng",
        "fr": "/default/main/inspection/cont-cont/animals-animaux/STAGING/templatedata/comn-comn/manuals-manuels/data/terr_disease_accreditvetmanual_chapter2_1345231064142_fra"
    },
    "ia_id": "1345231128550",
    "parent_ia_id": "1343915703253",
    "chronicletopic": {
        "en": "",
        "fr": ""
    },
    "chroniclecontent": {
        "en": "",
        "fr": ""
    },
    "chronicleaudience": {
        "en": "",
        "fr": ""
    },
    "sfcrdocumenttype": {
        "en": "",
        "fr": ""
    },
    "sfcraudience": {
        "en": "",
        "fr": ""
    },
    "sfcrmethodofproduction": {
        "en": "",
        "fr": ""
    },
    "activity": {
        "en": "Diseases",
        "fr": "Maladies"
    },
    "commodity": {
        "en": "Terrestrial Animal Health",
        "fr": "Sant\u00e9 des animaux terrestres"
    },
    "program": {
        "en": "Animals",
        "fr": "Animaux"
    },
    "search_type": "guidancefinder",
    "parent_node_id": "1343915703253",
    "layout_name": "content page 1 column",
    "breadcrumb": {
        "en": "Chapter 2 - Identification",
        "fr": "Chapitre 2 - Identification"
    },
    "label": {
        "en": "Chapter 2 - Identification",
        "fr": "Chapitre 2 - Identification"
    },
    "templatetype": "content page 1 column",
    "node_id": "1345231128550",
    "managing_branch": "comn",
    "type_name": "manuals-manuels",
    "dcr_type": "manuals-manuels",
    "parent_dcr_id": "1343915611518",
    "has_dcr_id": true,
    "lang": "en",
    "could_not_load": 0,
    "refaire": false,
    "interwoven_url": {
        "en": "/animal-health/terrestrial-animals/diseases/accredited-veterinarian-s-manual/chapter-2/",
        "fr": "/sante-des-animaux/animaux-terrestres/maladies/manuel-du-veterinaire-accredite/chapitre-2/"
    },
    "meta": {
        "viewport": {
            "en": "width=device-width,initial-scale=1",
            "fr": "width=device-width,initial-scale=1"
        },
        "service": {
            "en": "CFIA-ACIA",
            "fr": "CFIA-ACIA"
        },
        "accessRights": {
            "en": "2",
            "fr": "2"
        },
        "title": {
            "en": "Chapter 2 - Identification",
            "fr": "Chapitre 2 - Identification"
        },
        "description": {
            "en": "This section describes the general identification procedures for livestock, official identification, and record keeping.",
            "fr": "Le manuel du v\u00e9t\u00e9rinaire accr\u00e9dit\u00e9 est un document complet des politiques, des proc\u00e9dures et des lignes directrices pour les v\u00e9t\u00e9rinaires accr\u00e9dit\u00e9s au Canada."
        },
        "keywords": {
            "en": "animal diseases, inspection, import, export, veterinary medicine, policies, procedures, responsibilities, surveillance, certification",
            "fr": "maladie animale, inspection, importation, exportation, m\u00e9decine v\u00e9t\u00e9rinaire, politiques, proc\u00e9dures, responsabilit\u00e9s, surveillances, certification"
        },
        "dcterms.subject": {
            "en": "livestock,food inspection,infectious diseases,handbooks,veterinary medicine,standards,animal health",
            "fr": "b\u00e9tail,inspection des aliments,maladie infectieuse,manuel,m\u00e9decine v\u00e9t\u00e9rinaire,norme,sant\u00e9 animale"
        },
        "creator": {
            "en": "Government of Canada,Canadian Food Inspection Agency",
            "fr": "Gouvernement du Canada,Agence canadienne d'inspection des aliments"
        },
        "language": {
            "en": "eng",
            "fr": "fra"
        },
        "issued": {
            "en": "2012-08-17 15:17:46",
            "fr": "2012-08-17 15:17:46"
        },
        "modified": {
            "en": "2024-01-17",
            "fr": "2024-01-17"
        },
        "type": {
            "en": "reference material",
            "fr": "mat\u00e9riel de r\u00e9f\u00e9rence"
        },
        "audience": {
            "en": "business,government,general public",
            "fr": "entreprises,gouvernement,grand public"
        },
        "name": {
            "en": "Government of Canada",
            "fr": "Gouvernement du Canada"
        },
        "areaServed": {
            "en": "Canada",
            "fr": "Canada"
        }
    },
    "h1": {
        "en": "Chapter 2 - Identification",
        "fr": "Chapitre 2 - Identification"
    },
    "body": {
        "en": "        \r\n        \n\n\r\n\r\n<section class=\"alert alert-info\">\r\n<h2 class=\"h3\">This page is part of the Guidance Document Repository (GDR).</h2>\r\n<p>\r\n<br>\r\n<a href=\"/industry-guidance/eng/1374161650885/1374161737236?gp=1&amp;gc=30&amp;ga=15#gdr_results\" class=\"alert-link\">\r\n            Search for related documents in the Guidance Document Repository\r\n</a>\r\n</p>\r\n</section>\r\n\r\n\r\n\r\n\r\n<nav>\r\n<ul class=\"list-unstyled col-md-offset-1 mrgn-tp-md mrgn-bttm-md\">\r\n\r\n<li>\r\n<a href=\"/animal-health/terrestrial-animals/diseases/accredited-veterinarian-s-manual/chapter-2/eng/1345231064142/1345231128550?chap=0#c1\">2.1 Identification of livestock</a>\r\n\r\n</li>\r\n\r\n<li>\r\n<a href=\"/animal-health/terrestrial-animals/diseases/accredited-veterinarian-s-manual/chapter-2/eng/1345231064142/1345231128550?chap=0#c2\">2.2 Identification of horses</a>\r\n\r\n</li>\r\n\r\n</ul>\r\n</nav>\r\n\r\n\r\n<section>\r\n\r\n<h2 id=\"c1\">2.1 Identification of livestock</h2>\r\n\r\n\r\n<div class=\"hrline\"></div>\r\n    \n\n<p>This section describes the general identification procedures for livestock, official Identification, and record keeping.</p>\n<h3>Objective</h3>\n<p>1. Livestock identification is a cornerstone on which the National Animal Health Program is based. The ability to accurately identify and trace the movement of livestock cannot be overstated. It is essential to maintaining and ensuring a healthy livestock population.</p>\n<p>2. Accredited veterinarians are an integral part of this process. Accredited veterinarians may mark or cause an animal to be marked with a tag or in other such manner as the Minister may direct so as to identify the animal. This would include, but is not limited to, livestock inspected or tested for export, disease eradication programs, or herd certification programs. The accredited veterinarian must carefully record the identity of animal(s) they inspect or test in the course of performing their official duties and functions. Records of animals identified are the only means of tracing diseased animals to the location where they were identified. The following information should be recorded:</p>\n<ol class=\"lst-lwr-alph\">\n<li>species</li>\n<li>breed</li>\n<li>sex</li>\n<li>age</li>\n<li>tags, tattoos, leg bands, brands or electronic implants</li>\n<li>colour or markings</li>\n<li>registration numbers (if purebreds)</li>\n</ol>\n<p>3. In the case of purebred animals, the information on the registration/pedigree certificates must be verified for animals being identified as purebred on a health certificate or test chart.</p>\n<h3>Official identification</h3>\n<p>4. Three official animal identification systems have been approved by the <abbr title=\"Canadian Food Inspection Agency\">CFIA</abbr>:</p>\n<ol>\n<li>Tags or indicators approved (or considered equivalent) under the Livestock Identification and Traceability (TRACE) program;</li>\n<li>Health of Animals (HofA) ear tag for species not covered by mandatory national identification requirements;</li>\n<li>legible registered tattoos.</li>\n</ol>\n<p>Species with national mandatory identification requirements (bovine, bison, ovine and porcine) which are tested or inspected for export or entry into a semen collection centre must be identified with an ear tag or other indicator approved under the <abbr title=\"Livestock Identification and Traceability\">TRACE</abbr> program. <a href=\"/animal-health/terrestrial-animals/traceability/indicators/eng/1331582406844/1331582476216\">Approved tags</a> will bear the trade mark of a responsible administrator: Canadian Cattle Identification Agency (CCIA) or Canadian Pork Council (CPC). Approved tags delivered by <span lang=\"fr\">Agri-tra\u00e7abilit\u00e9 Qu\u00e9bec</span> (ATQ) will bear a <span lang=\"fr\">fleur-de-lis</span> marking as well.</p>\n\n<ul><li>Bovine and bison must be identified with an electronic (RFID) ear tag which bears a unique number that follows the International Organization for Standardization (ISO) 11784 standard format, <abbr title=\"that is to say\">i.e.</abbr> 15 digits. The first three digits is the country code: \"124\" for Canada. For more information, please consult <a href=\"/eng/1345235704516/1345235803337?chap=2\">module 5.2</a> Cattle and Bison Born on or After March 1, 1999.</li>\n\n<li>Ovine must be identified with tags that follow the <abbr title=\"International Organization for Standardization\">ISO</abbr> 11784 standard. These tags may be electronic (RFID) or non-electronic.</li>\n\n<li>Porcine may be identified with tags or other indicators (tattoo). Ear tags that meet the <abbr title=\"International Organization for Standardization\">ISO</abbr> 11784 standard are mandatory for swine intended for admission into a semen collection centre. For export purpose, requirements of both the national program and the country of destination will need to be met. These requirements are dependent on the country or state of destination and the end use of the animal (breeding or fattening). Please refer to the appropriate export section for more details.</li></ul>\n\n<p><a href=\"/animal-health/terrestrial-animals/traceability/indicators/eng/1331582406844/1331582476216#a7\">Foreign animal indicators deemed equivalent</a> by the <abbr title=\"Canadian Food Inspection Agency\">CFIA</abbr> to indicators approved under the Canadian livestock identification and traceability program are considered to be approved under the Health of Animals Regulations.</p>\n\n\n<p>The following species are not subject to national mandatory identification requirements for the moment: caprine, equine, cervids, camelidae and avian. Those species may be identified by their description (equine), microchips (camelidae, equine, avian), leg or wing bands (avian), <abbr title=\"Health of Animals\">HofA</abbr> (caprine) or registered tattoo for domestic purposes.</p> \n\n<p>Reference to specific export identification requirements may be contained on the export certificate for the species being exported. Consult with the district veterinarian for details.</p>\n\n<h3><abbr title=\"Health of Animals\">HofA</abbr> ear tags</h3>\n\n<p>5. When \"<abbr title=\"Health of Animals\">HofA</abbr>\" ear tags are used, they must be inserted in an animal's left ear. These tags come in two sizes. The larger one is used to identify cattle, elk and bison. The smaller one is used to identify sheep, goats, pigs, and deer.</p>\n<ol class=\"lst-lwr-alph\">\n<li>Ensure that the proper size is used.</li>\n<li>Ear tags are available to accredited veterinarians through <abbr title=\"Canadian Food Inspection Agency\">CFIA</abbr> district offices.</li>\n<li>Ear tags should be placed in the proximal third of the anterior border of the animal's ear. The alpha-numeric sequence must face \"out.\" That is, the number should appear on the dorsal surface of the ear. When inserting an ear tag, always leave a small space between the edge of the ear and the outer margins of the tag. The district veterinarian will demonstrate the proper technique if clarification is required.</li>\n</ol>\n<p>Exceptions</p>\n<p>6. Exceptions: a \"<abbr title=\"Health of Animals\">HofA</abbr>\" ear tag should not be applied:</p>\n<ol class=\"lst-lwr-alph\">\n<li>on species covered by national mandatory identification requirements, unless the test or inspection is done for disease control or herd certification purpose with no intended movement out of the farm of the origin (please verify if other provincial identification requirements apply in these situations before using a <abbr title=\"Health of Animals\">HofA</abbr> tag).</li>\n<li>if an animal bears a legible tattoo, in accordance with a recognized registered breed association, if this method is acceptable for the purpose of identification (could be acceptable for the <abbr title=\"Canada Health Accredited Herd\">CHAH</abbr> herd program, but not for export to some countries).</li>\n<li>if an animal bears a <abbr title=\"Health of Animals\">HofA</abbr> ear tag or an ear tag or indicator approved under the <abbr title=\"Livestock Identification and Traceability\">TRACE</abbr> program, which may compromise the ability to trace the animal.</li>\n<li>to identify horses. Horses are to be identified by describing the animal, diagram, freeze brand or lip tattoo (see <a href=\"/animal-health/terrestrial-animals/diseases/accredited-veterinarian-s-manual/chapter-2/eng/1345231064142/1345231128550?chap=2\">2.2 Identification of Horses</a>).</li>\n</ol>\n<h3>Record keeping and administration</h3>\n<p>7. \"<abbr title=\"Health of Animals\">HofA</abbr>\" ear tags are identified in alpha-numeric sequence and are distributed by the <abbr title=\"Canadian Food Inspection Agency\">CFIA</abbr> in boxes containing 100\u00a0tags. The tag numbers issued to each accredited veterinarian are recorded in an ear tag registry maintained at the district office.</p>\n<p>8. Accredited veterinarians must maintain a record of the ear tags issued to them, including where and when they were used. These records are to be maintained for a minimum of 10\u00a0years. As previously mentioned, records of animals identified are the only means of tracing diseased animals to the location where they were tagged. It is imperative, therefore, that orderly records of animal identification be maintained in a safe location.</p>\n<p>9. Accredited veterinarians may return the unused tags to the district office if they do not expect to use them anymore in the future. The return of these tags must be indicated in the record.</p>\n<p>10. Tags approved under the <abbr title=\"Livestock Identification and Traceability\">TRACE</abbr> program are issued and records are maintained by responsible administrators. For more information: <a href=\"http://www.canadaid.com\">Canadian Cattle Identification Agency</a>, <a href=\"https://attestra.com/en/\"><span lang=\"fr\">Agri-Tra\u00e7abilit\u00e9 Qu\u00e9bec</span></a> or <a href=\"http://pigtrace.ca/\">Canadian Pork Council</a></p>\n\r\n\r\n\r\n</section>\r\n\r\n<section>\r\n\r\n<h2 id=\"c2\">2.2 Identification of horses</h2>\r\n\r\n\r\n<div class=\"hrline\"></div>\r\n    \n\n<p>This section discusses the physical description of horses as official identification tags are not used in this species. Clear, uniform, and accurate descriptions of their physical attributes are required.</p>\n\n<h3>Horse identification</h3>\n\n<h4>Traditional descriptive identification</h4>\n\n<p>Documents identifying a horse for test or for export certification require an accurate diagram of the horse paired with an accurate written (i.e. narrative) description. In addition to brands or tattoos that the horse may bear, look for and identify <strong>any</strong> unique distinguishing marks such as white markings, hair patterns, color variations or scars. This is particularly important for horses who do not have \u00a0any obvious distinctive markings on the head, body or limbs.</p>\n\n<p>Identification methods and descriptive nomenclature for colouring and markings is described in <a href=\"/eng/1632341893457/1632341894301#a3\">Section 3 of Equine Information Document (EID) guidance</a>.\u00a0While this information relates to the identification of equines for the purpose of documenting the medical history of horses presented for slaughter, it is consistent with the Accredited Veterinarian Program's identification expectations for the purposes of testing and export certification.\u00a0Accredited veterinarians are expected to read this information and apply the guidance therein when performing their accredited duties <strong>unless otherwise stated in this module.</strong> For example, while the EID guidance specifically requires the use of black ink for written descriptions and non-white markings, modules 5.5 (Export of Horses to the US) and 8.4 (Equine Infectious Anemia [EIA]) of this manual indicate that while black ink is preferable, blue ink is also acceptable provided it is clear and legible.</p>\n\n<p>The language used in the written description must also meet the requirements of the importing country (For example, English for export to the US). Date formats to be used will be specified on the individual certificate or form. Age may be specified by the exact birth date (if known and in the format listed) or the birth year if the exact date is not known. It is not generally accepted to list the age of the horse in year or months.</p>\n\n<p>Special attention should be paid to the anatomical nomenclature used in the <a href=\"/eng/1632341893457/1632341894301#a3\">Section 3 of Equine Information Document (EID) guidance</a> document. These terms must be used for all written descriptions, rather than colloquial or common terms such as \"sock\" or \"stocking\". There are also detailed sections related to whorls and other \"peculiarities\" that may be observed in individual animals. These are particularly important when dealing with horses with few or no distinctive white or acquired markings as they may be the only means to provide accurate identification of the animal.</p>\n\n<p>Lastly, color descriptions can vary between countries with sub variations within color category noted in some instances (For example, Bay, Bay-Brown, Dark Bay, Light Bay, etc). Due to this variability, a summary of common color descriptions used in North America is provided <a href=\"/eng/1632341893457/1632341894301#a3\">Section 3 of Equine Information Document (EID) guidance</a> document.</p>\n\n<h4>Digital photographs</h4>\n\n<p>Some forms allow for the use of digital photographs to be used in lieu of the drawing/ diagram. In these cases, the accredited veterinarian must ensure that the digital photographs are of good quality by taking into consideration lighting conditions, cleanliness, image resolution, proper positioning of the equine and the absence of objects that could obstruct the animal (for example, saddle, blanket, structures). The only animal that should be visible in the photograph is the one being tested/ inspected. </p>\n\n<p>The only exceptions to this would be if other animals are partially visible in the distant background, or if a foal is with its mare. In the latter case, the animal being tested / inspected must not be obstructed by the other. Every effort should be made to exclude human handlers from the photograph.</p>\n\n<p>Getting good quality photographs is usually possible although sometimes it can be challenging due to the animal's temperament and/or the environmental conditions. It's recommended that when it's known that photographs need to be taken at an upcoming appointment, the veterinary practice notify clients of the need to have the animal adequately cleaned so that their markings are visible and that they are located in an area with sufficient lighting. If it is known that an equine will not allow for proper photographs to be taken during the appointment, it's possible to ask the owner to take their own photographs, send them to the veterinary practice, and have the practice upload them onto the digital platform.</p>\n\n<p>The photographs must conform with the requirements listed in this module and the accredited veterinarian must be able to confirm that the submitted images match the animal at the time of sampling\u00a0/ inspection.</p>\n\n<p>All white markings need to be visible on the digital photographs, and the full length of all appendages needs to appear in the photographs. For frontal photographs, if the only markings are on the head, the photograph can be limited to the head. If there are white markings on the front legs, the full length of the legs must be included in the frontal photographs. All descriptor fields are required to be filled. Please use \"N/A\" or \"None\" if appropriate. If a digital submission system is used for equines with very detailed markings (for example, Appaloosas), written descriptions of the white markings are not required and \"N/A\" can be used in the descriptor fields.</p>\n\n<p>It is the responsibility of the accredited veterinarian to ensure that the digital photographs are representative of the animal's appearance\u00a0at the time of sampling / inspection. <strong>Failure to produce good quality photographs may result in the digital certificate being rejected by an inspector.</strong> If needed, please reach out to the digital service provider for tips on how to get the best photographs.</p>\n\n<h4>Acquired markings</h4>\n\n<p>An acquired mark may be anything distinctive that is a result of an extrinsic factor(s). Common examples include brands (freeze or hot iron), scars, cryo therapy marks, tattoos, etc. Acquired marks must be described in the appropriate section of the written description and also properly indicated on the drawing or photographs. For example, where cryo marks or a freeze brand results in the overlying hair being white, the mark is indicated in red ink as for any white marking. For markings that also serve as a <strong>unique</strong> animal identifier (for example, a numbered freeze brand specifically registered to one animal), these may also be indicated in any such field of the test form or certificate. A mark that is not unique to one animal (for example, a farm's brand that is used on more than one animal) is only indicated as an acquired mark.</p>\n\n<h4>Microchips/ electronic implants</h4>\n\n<p>While microchip implants are frequently used in many species of animals, the usefulness of this means of identification is limited to those applications where the animal is accessible for a reading to be conducted and a compatible microchip reading device is available. For these reasons more traditional means of equine identification are currently in use at ports of entry into Canada. Microchips do have usefulness in domestic applications, particularly when combined with other form of identification in horses. As more options become available and technology improves, this method of identification for equines may play a larger role in the future.</p>\n\n<h4>Other considerations</h4>\n\n<p>Drawings or digital photographs on test and export certificates must match, and the written descriptions must agree with drawings and digital photographs. Additional numbered\u00a0ID\u00a0may be required under certain circumstances.\u00a0See\u00a0<a href=\"/animal-health/terrestrial-animals/diseases/accredited-veterinarian-s-manual/chapter-5-5/eng/1705423532179/1705423667919\">5.5 Export to the United States-Horses</a>\u00a0and\u00a0<a href=\"/animal-health/terrestrial-animals/diseases/accredited-veterinarian-s-manual/chapter-6/eng/1345240199631/1345240344391?chap=2\">6.2 Export to Mexico-Horses</a>\u00a0for more detail.\u00a0If an error is found after the form has been authorized (i.e. signed), a new form should be created with the correct information.\u00a0It should be noted that this may also require the collection and submission of a new blood sample, so all efforts to verify that forms have been completed correctly and accurately should be made <strong>before</strong> they are submitted.</p>\n\n<p><strong>Note:</strong> Situations may arise where a previously completed and valid form does not match the current appearance or description of a horse.\u00a0Examples include, acquired marks such as scars or cryo therapy marks appearing after the time of form completion (EIA test certificates are valid for 180 days), the gelding of a horse previously described as a stallion, etc.\u00a0Accredited veterinarians must obtain sufficient information and documentation (if available) to support the rationale for the discrepancy in appearance and consult with the CFIA District Veterinarian on the best approach for certification.</p>\n\n<details>\n<summary>Descriptions of colours and markings</summary>\n\n<h4>Colour</h4>\n\n<p>Black:</p>\n<p>When black pigment is general throughout the coat, limbs, mane and tail, with no pattern factor present other than white markings.</p>\n<p>Brown:</p>\n<p>When there is a mixture of black and brown pigment in the coat, with black limbs, mane and tail.</p>\n<p>Bay-brown:</p>\n<p>When the predominate colour is brown, with muzzle bay, black limbs, mane and tail.</p>\n<p>Bay:</p>\n<p>Bay varies considerably in shade from dull red approaching brown, to a yellowish colour approaching chestnut, but it can be distinguished from the chestnut by the fact that the bay has a black mane and tail and almost invariably has black on the limbs and tips of the ears.</p>\n<p>Chestnut:</p>\n<p>This colour consists of yellow-coloured hair in different degrees of intensity, which may be noted if thought desirable. A \"true\" chestnut has a chestnut mane and tail which may be lighter or darker than the body colour. Lighter coloured chestnut may have flaxen mane and tail. The <strong>sorrel colour</strong> must be reported under that name.</p>\n<p>Grey:</p>\n<p>When the body coat is a varying mosaic of black and white hair, with black skin. With advancing age, the coat grows lighter in colour. The flea-bitten grey may contain three colours or the two basic colours and should be so described. A pure white is exceptional.</p>\n<p>Mouse:</p>\n<p>This description is sometimes used for a grey horse with black mane and tail.</p>\n<p>Blue roan:</p>\n<p>When the body colour is black or black-brown, with a mixture of white hair, which gives a blue tinge to the coat. On the limbs from the knees and hocks down, the black hair usually predominates.</p>\n<p>Bay roan:</p>\n<p>When the body colour is bay or bay-brown, with an admixture of white hair, which gives a reddish tinge to the coat. On the limbs from the knees and hocks down the black hairs usually predominate.</p>\n<p>Strawberry/ Chestnut Roan:</p>\n<p>When the body colour is chestnut with an admixture of white hairs.</p>\n<p>Blue dun:</p>\n<p>The body colour is a dilute black evenly distributed. The mane and tail are black. There may or may not be a dorsal band (list) and/or withers stripe. The skin is black.</p>\n<p>Yellow dun:</p>\n<p>There is a diffuse yellow pigment in the hair. The mane and tail are black. There may or may not be a dorsal band (list) and/or withers stripe and bars on the legs. The striping is usually associated with black pigment on the head and limbs. The skin is black.</p>\n<p>Piebald:</p>\n<p>The body coat consists of large irregular patches of black and white. The line of demarcation between the two colours is generally well defined.</p>\n<p>Skewbald:</p>\n<p>The body consists of large irregular patches of white and of any definite colour except black. The line of demarcation between the colours is generally well-defined.</p>\n<p>Odd coloured:</p>\n<p>The body coat consists of large irregular patches of more than two colours, which may merge into each other at the edges of the patches.</p>\n<p>Isabella:</p>\n<p>The body coat is of a cream colour, with black mane and tail.</p>\n<p>Cream:</p>\n<p>The body coat is of a cream colour, with nonpigmented skin. The iris is deficient in pigment and is often devoid of it, giving the eye a pinkish or bluish appearance.</p>\n<p>Palomino:</p>\n<p>The body coat is a newly-minted gold coin colour (lighter or darker shades are permissible) with a white mane and tail.</p>\n<p>Appaloosa:</p>\n<p>Body colour is grey, covered with a mosaic of black or brown spots.</p>\n\n<h4>Unique markings</h4>\n\n<p>Withers stripe:</p>\n<p>Zebra band across the withers.</p>\n<p>List:</p>\n<p>A dorsal band of black hair which extends from the withers backwards to the base of the tail.</p>\n\n<h4>White marks</h4>\n\n<p>The characteristics of all white marks must be described:</p>\n<p>A white mark can be regular or irregular. It can be mixed with the hair of the coat, completely or in part, or at the edge. It can be bordered, a band of black skin shows under the white hair at the edge of the mark (the area appears bluish).</p>\n\n<h4>Head</h4>\n\n<p>The description should begin at the forehead, followed by the nasal bone, the muzzle, lips and chin.</p>\n<p>Star:</p>\n<p>Any white mark on the forehead. Size, shape, intensity, position and coloured markings (if any) on the white to be specified. Should the markings in the region of the centre of the forehead consist of a few white hairs only, it should be so described and not referred to as a star.</p>\n<p>Stripe:</p>\n<p>The narrow white marking down the face not wider than the flat anterior surface of the nasal bones. In many cases, the star and stripe are continuous and should be described as star and stripe connected. When the stripe is separate and distinct from the star it should be described as interrupted stripe. When no star is present the point of origin of the stripe should be indicated. The termination of the stripe and any variation in breadth, direction and any markings on the white should be so stated, <abbr title=\"for example\">e.g</abbr>. broad stripe, narrow stripe, inclined to left, <abbr title=\"et cetera\">etc</abbr>. Any markings on the white should be stated.</p>\n<p>Blaze:</p>\n<p>A white marking covering almost the whole of the forehead between the eyes and extending beyond the width of the nasal bones and usually to the muzzle. Any variations in direction, termination and any markings on the white should be stated.</p>\n<p>White face:</p>\n<p>When the white covers the forehead and front of the face, extending laterally towards the mouth. The extension may be unilateral or bilateral, in which case it should be described accordingly.</p>\n<p>Snip:</p>\n<p>An isolated white marking, independent of those already named, and situated between or in the region of the nostrils. Its size, position and intensity should be specified. When a snip is connected with a stripe it should be recorded as such, <abbr title=\"for example\">e.g</abbr>. star, stripe connected snip.</p>\n<p>Flesh mark:</p>\n<p>Lack of pigmentation. A flesh mark is described as such and not as a white mark. Black spots within the flesh mark are to be indicated. All lip markings, whether flesh marks or white marks, should be accurately described.</p>\n<p>White muzzle:</p>\n<p>When the white embraces both lips and extends to the region of the nostrils.</p>\n\n<h4>Limbs</h4>\n\n<p>All white markings on the limbs must be accurately defined and the upper limit precisely stated with reference to points of the anatomy, <abbr title=\"for example\">e.g</abbr>. white to mid-pastern, white to upper third of cannon. The use of such terms as \"sock\" or \"stocking\" are not acceptable. The exact location must be specified, examples are listed below:</p>\n<p>Examples:</p>\n<ul>\n<li>White coronet; white pastern; white fetlock; white to knee; white to hock; white to hind quarter;</li>\n<li>White patch on coronet (anterior, lateral, medial, posterior);</li>\n<li>White ring around limb: does not extend down to the coronet.</li>\n</ul>\n<p>The presence of coloured spots in white marks should be recorded. Black spots in a white coronet are referred to as ermine marks.</p>\n\n<h4>Whorls-cowlicks</h4>\n<p>Whorls or cowlicks are changes in the hair pattern, and may take various forms simple, tufted, feathered or sinuous. Their position must be clearly specified.</p>\n</details>\n\r\n\r\n\r\n</section>\r\n\r\n\n\n\r\n        \r\n\r\n\r\n\r\n<div class=\"row\">\r\n \r\n\t\r\n\t\t\t\r\n\r\n<div class=\"col-xm-12 pagedetails container\">\r\n\t\t\t\t\r\n\r\n</div>\r\n\t\r\n</div>",
        "fr": "\r\n        \r\n        \n\n\r\n\r\n<section class=\"alert alert-info\">\r\n<h2 class=\"h3\">Cette page fait partie du r\u00e9pertoire des documents d'orientation (RDO).</h2>\r\n<p>\r\n<br>\r\n<a href=\"/orientation-pour-l-industrie/fra/1374161650885/1374161737236?gp=1&amp;gc=30&amp;ga=15#gdr_results\" class=\"alert-link\">\r\n            Recherche de documents connexes dans le r\u00e9pertoire des documents d'orientation.\r\n</a>\r\n</p>\r\n</section>\r\n\r\n\r\n\r\n\r\n<nav>\r\n<ul class=\"list-unstyled col-md-offset-1 mrgn-tp-md mrgn-bttm-md\">\r\n\r\n<li>\r\n<a href=\"/sante-des-animaux/animaux-terrestres/maladies/manuel-du-veterinaire-accredite/chapitre-2/fra/1345231064142/1345231128550?chap=0#c1\">2.1 Identification des animaux d'\u00e9levage</a>\r\n\r\n</li>\r\n\r\n<li>\r\n<a href=\"/sante-des-animaux/animaux-terrestres/maladies/manuel-du-veterinaire-accredite/chapitre-2/fra/1345231064142/1345231128550?chap=0#c2\">2.2 Identification des chevaux</a>\r\n\r\n</li>\r\n\r\n</ul>\r\n</nav>\r\n\r\n\r\n<section>\r\n\r\n<h2 id=\"c1\">2.1 Identification des animaux d'\u00e9levage</h2>\r\n\r\n\r\n<div class=\"hrline\"></div>\r\n    \n\n<p>Cette section d\u00e9crit les proc\u00e9dures g\u00e9n\u00e9rales d'identification du b\u00e9tail, l'identification officielle et la conservation des donn\u00e9es d'identification.</p>\n<h3>Objectif</h3>\n<p>1. L'identification du b\u00e9tail est l'un des fondements du Programme national de la sant\u00e9 des animaux. On ne saurait trop dire combien il est important d'identifier les animaux et de suivre leurs d\u00e9placements, car c'est une mesure essentielle pour garantir la bonne sant\u00e9 du cheptel.</p>\n<p>2. Le r\u00f4le du v\u00e9t\u00e9rinaire accr\u00e9dit\u00e9 fait partie int\u00e9grante de ce processus. Un v\u00e9t\u00e9rinaire accr\u00e9dit\u00e9 peut marquer ou faire marquer un animal d'une bague (\u00e9tiquette) ou d'une autre mani\u00e8re que le ministre peut prescrire afin d'identifier l'animal. Ceci inclut, sans s'y limiter, le b\u00e9tail inspect\u00e9 ou soumis \u00e0 des \u00e9preuves diagnostiques en vue de l'exportation, dans le cadre de programmes d'\u00e9radication de maladies ou de programmes de certification de troupeaux. Il doit consigner avec toute l'attention voulue l'identit\u00e9 des animaux qu'il inspecte ou qu'il soumet \u00e0 des \u00e9preuves de d\u00e9pistage dans le cadre de ses fonctions officielles. Le registre des animaux identifi\u00e9s est le seul moyen de retracer la provenance des animaux malades. Il convient de noter les renseignements suivants\u00a0:</p>\n<ol class=\"lst-lwr-alph\">\n<li>l'esp\u00e8ce</li>\n<li>la race</li>\n<li>le sexe</li>\n<li>l'\u00e2ge</li>\n<li>les \u00e9tiquettes, les tatouages, les bagues, les marques et les implants \u00e9lectroniques</li>\n<li>la couleur et les marques</li>\n<li>les num\u00e9ros d'enregistrement (s'il s'agit d'animaux de race pure)</li>\n</ol>\n<p>3. Dans le cas des animaux certifi\u00e9s de race pure, l'information figurant sur les certificats d'enregistrement et les certificats g\u00e9n\u00e9alogiques doit \u00eatre v\u00e9rifi\u00e9e pour chaque animal.</p>\n<h3>Identification officielle</h3>\n<p>4. \u00c0 l'heure actuelle, trois syst\u00e8mes d'identification officielle sont approuv\u00e9s par l'<abbr title=\"Agence canadienne d'inspection des aliments\">ACIA</abbr>\u00a0:</p>\n<ol>\n<li>Les \u00e9tiquettes ou indicateurs approuv\u00e9s (ou consid\u00e9r\u00e9s \u00e9quivalents) sous le Programme d'identification et de tra\u00e7abilit\u00e9 des animaux d'\u00e9levage (programme TRACE)</li>\n<li>l'\u00e9tiquette d'oreille de la Sant\u00e9 des animaux (HofA), pour les esp\u00e8ces qui ne sont pas soumises \u00e0 une r\u00e9glementation nationale d'identification obligatoire</li>\n<li>un tatouage lisible enregistr\u00e9.</li>\n</ol>\n<p>Les esp\u00e8ces soumises \u00e0 des exigences nationales d'identification obligatoire (bovin, bison, ovin et porcin) qui sont test\u00e9es ou inspect\u00e9es pour l'exportation ou l'admission dans un centre de collecte de semence doivent \u00eatre identifi\u00e9es par une \u00e9tiquette d'oreille ou autre indicateur approuv\u00e9 dans le cadre du programme <abbr title=\"Programme d'identification et de tra\u00e7abilit\u00e9 des animaux d'\u00e9levages\">TRACE</abbr>. Les <a href=\"/sante-des-animaux/animaux-terrestres/tracabilite/identificateurs/fra/1331582406844/1331582476216\">\u00e9tiquettes approuv\u00e9es</a> portent la marque de commerce d'un administrateur responsable\u00a0: Agence canadienne d'identification des bovins (ACIB) ou le Conseil canadien du porc (CCP). Les \u00e9tiquettes approuv\u00e9es et d\u00e9livr\u00e9es par Agri-tra\u00e7abilit\u00e9 Qu\u00e9bec (ATQ) portent \u00e9galement une fleur de lis.</p>\n\n<ul><li>Les bovins et bisons doivent \u00eatre identifi\u00e9s \u00e0 l'aide d'une \u00e9tiquette \u00e9lectronique comportant un num\u00e9ro unique qui respecte le format de la norme 11784 de l'Organisation internationale de normalisation (ISO), c.-\u00e0-d. 15 chiffres dont les trois premiers identifient le pays (\u00ab\u00a0124\u00a0\u00bb pour le Canada). Pour de plus amples informations, pri\u00e8re de consulter le <a href=\"/fra/1345235704516/1345235803337?chap=2\">module 5.2</a> Bovins et bisons n\u00e9s le ou apr\u00e8s le 1<sup>er</sup> mars 1999</li>\n<li>Les ovins doivent \u00eatre identifi\u00e9s avec une \u00e9tiquette qui respecte la norme 11784 d'<abbr lang=\"en\" title=\"International Organization for Standardization\">ISO</abbr>. Ces \u00e9tiquettes peuvent \u00eatre \u00e9lectroniques ou non.</li> \n<li>Les porcs peuvent \u00eatre identifi\u00e9s \u00e0 l'aide d'une \u00e9tiquette ou d'un autre indicateur (tatouage). Les porcs test\u00e9s dans le but d'\u00eatre admis dans un centre d'ins\u00e9mination artificielle doivent \u00eatre identifi\u00e9s \u00e0 l'aide d'une \u00e9tiquette qui respecte les normes 11784 d'<abbr lang=\"en\" title=\"International Organization for Standardization\">ISO</abbr>. Les porcs inspect\u00e9s ou certifi\u00e9s pour exportation doivent satisfaire aux exigences du programme <abbr title=\"Programme d'identification et de tra\u00e7abilit\u00e9 des animaux d'\u00e9levages\">TRACE</abbr> et du pays importateur. Ces exigences d\u00e9pendent du pays ou \u00e9tat de destination et de l'usage final (reproduction ou engraissement). De plus amples informations sont disponibles aux diff\u00e9rents modules exportations du manuel.</li></ul>\n\n\n<p><a href=\"/sante-des-animaux/animaux-terrestres/tracabilite/identificateurs/fra/1331582406844/1331582476216#a7\">Les identificateurs d'animaux \u00e9trangers jug\u00e9s \u00e9quivalents</a> par l'<abbr title=\"Agence canadienne d'inspection des aliments\">ACIA</abbr> aux identificateurs approuv\u00e9s dans le cadre du programme canadien d'identification et de tra\u00e7abilit\u00e9 des animaux d'\u00e9levage sont consid\u00e9r\u00e9s comme approuv\u00e9s en vertu du R\u00e8glement sur la sant\u00e9 des animaux.</p>\n\n\n<p>Les esp\u00e8ces suivantes ne sont pas soumises pour le moment \u00e0 des exigences nationales d'identification obligatoire\u00a0: les caprins, \u00e9quid\u00e9s, cervid\u00e9s, cam\u00e9lid\u00e9s, et l'esp\u00e8ce aviaire. Ces esp\u00e8ces peuvent \u00eatre identifi\u00e9es par une description (\u00e9quid\u00e9s), un transpondeur (cam\u00e9lid\u00e9s, \u00e9quid\u00e9s, aviaire), une bague d'aile ou de patte (aviaire), une \u00e9tiquette \u00ab\u00a0<abbr title=\"Health of Animals\" lang=\"en\">HofA</abbr>\u00a0\u00bb (caprins) ou un tatouage enregistr\u00e9 pour des fins domestiques. Le certificat d'exportation se rapportant \u00e0 l'esp\u00e8ce vis\u00e9e peut inclure des exigences sp\u00e9cifiques en mati\u00e8re d'identification. Pour de plus amples renseignements, consulter le v\u00e9t\u00e9rinaire de district de l'<abbr title=\"Agence canadienne d'inspection des aliments\">ACIA</abbr>.</p>\n\n<h3>\u00c9tiquettes d'oreille de la Sant\u00e9 des animaux (HofA)</h3>\n<p>5. L'\u00e9tiquette d'oreille \u00ab\u00a0<span lang=\"en\">Health of Animals</span>\u00a0\u00bb (HofA) se pose \u00e0 l'oreille gauche. Il y a deux formats d'\u00e9tiquette. La plus grande sert \u00e0 l'identification des bovins, des wapitis et des bisons, et la plus petite, \u00e0 l'identification des ovins, des caprins, des porcins et des autres cervid\u00e9s.</p>\n<ol class=\"lst-lwr-alph\">\n<li>Utiliser le format d'\u00e9tiquette appropri\u00e9.</li>\n<li>Le v\u00e9t\u00e9rinaire accr\u00e9dit\u00e9 peut se procurer des \u00e9tiquettes d'oreille au bureau de district de la Sant\u00e9 des animaux.</li>\n<li>L'\u00e9tiquette doit \u00eatre pos\u00e9e dans le tiers proximal du bord ant\u00e9rieur de l'oreille de l'animal, et le code alphanum\u00e9rique doit \u00eatre du c\u00f4t\u00e9 \u00ab ext\u00e9rieur \u00bb, c'est-\u00e0-dire qu'il se trouve sur la surface dorsale de l'oreille. En posant l'\u00e9tiquette, toujours laisser un petit espace entre le bord de l'oreille et le bord ext\u00e9rieur de l'\u00e9tiquette. Au besoin, le v\u00e9t\u00e9rinaire de district peut d\u00e9montrer la technique de pose.</li>\n</ol>\n<p>Exceptions</p>\n<p>6. Exceptions\u00a0: L'\u00e9tiquette \u00ab <abbr title=\"Health of Animals\" lang=\"en\">HofA</abbr> \u00bb ne devrait pas \u00eatre appos\u00e9e\u00a0:</p>\n<ol class=\"lst-lwr-alph\">\n<li>sur des esp\u00e8ces vis\u00e9es par des exigences nationales d'identification obligatoire, sauf si l'inspection ou le test est fait dans un but de contr\u00f4le des maladies ou de certification de troupeaux lorsqu'il n'est pas pr\u00e9vu que les animaux devront sortir de la ferme d'origine (pri\u00e8re de v\u00e9rifier si des exigences provinciales d'identification s'appliquent avant d'utiliser des \u00e9tiquettes <abbr title=\"Health of Animals\" lang=\"en\">HofA</abbr>)</li>\n<li>si l'animal porte un tatouage lisible conforme aux exigences d'une association d'\u00e9leveurs d'animaux de race pure reconnue, si cette m\u00e9thode d'identification est permise \u00e0 cette fin (pourrait \u00eatre acceptable pour la certification de troupeau mais pas pour l'exportation vers certains pays)</li>\n<li>si l'animal porte d\u00e9j\u00e0 une \u00e9tiquette d'oreille \u00ab <abbr title=\"Health of Animals\" lang=\"en\">HofA</abbr> \u00bb ou une \u00e9tiquette ou indicateur approuv\u00e9 sous le programme <abbr title=\"Programme d'identification et de tra\u00e7abilit\u00e9 des animaux d'\u00e9levages\">TRACE</abbr>, car la provenance de l'animal pourrait ne plus \u00eatre retra\u00e7able</li>\n<li>pour l'identification des chevaux. Les chevaux peuvent \u00eatre identifi\u00e9s par une description, un diagramme, une cryomarquage ou un tatouage \u00e0 la l\u00e8vre (Voir le <a href=\"/sante-des-animaux/animaux-terrestres/maladies/manuel-du-veterinaire-accredite/chapitre-2/fra/1345231064142/1345231128550?chap=2\">Module 2.2 Identification des chevaux</a>).</li>\n</ol>\n<h3>Conservation des donn\u00e9es et administration</h3>\n<p>7. Les \u00e9tiquettes d'oreille \u00ab\u00a0<abbr title=\"Health of Animals\" lang=\"en\">HofA</abbr>\u00a0\u00bb portent un code alphanum\u00e9rique et sont distribu\u00e9es par l'<abbr title=\"Agence canadienne d'inspection des aliments\">ACIA</abbr> en bo\u00eetes de 100 \u00e9tiquettes. Le code de chacune des \u00e9tiquettes envoy\u00e9es aux v\u00e9t\u00e9rinaires accr\u00e9dit\u00e9s est not\u00e9 dans un registre tenu par le bureau de district de l'<abbr title=\"Agence canadienne d'inspection des aliments\">ACIA</abbr>.</p>\n<p>8. Le v\u00e9t\u00e9rinaire accr\u00e9dit\u00e9 doit conserver dans ses dossiers l'information concernant les \u00e9tiquettes d'oreille qu'il re\u00e7oit, y compris les renseignements pr\u00e9cisant o\u00f9 et quand elles ont \u00e9t\u00e9 utilis\u00e9es. Cette information doit \u00eatre conserv\u00e9e au moins 10 ans. Comme il a \u00e9t\u00e9 signal\u00e9 ci-dessus, le registre des animaux identifi\u00e9s est le seul moyen de d\u00e9terminer o\u00f9 les animaux malades ont \u00e9t\u00e9 \u00e9tiquet\u00e9s. Il importe de tenir les registres d'identification en bon ordre et de les garder en lieu s\u00fbr pour qu'ils soient toujours en \u00e9tat de servir.</p>\n<p>9. Le v\u00e9t\u00e9rinaire accr\u00e9dit\u00e9 peut retourner les \u00e9tiquettes d'oreille \u00ab\u00a0<abbr title=\"Health of Animals\" lang=\"en\">HofA</abbr>\u00a0\u00bb au bureau de district s'il ne pr\u00e9voit plus en utiliser ult\u00e9rieurement. Le retour des \u00e9tiquettes doit \u00eatre consign\u00e9 dans le registre.</p>\n<p>10. Les \u00e9tiquettes approuv\u00e9es sous le programme <abbr title=\"Programme d'identification et de tra\u00e7abilit\u00e9 des animaux d'\u00e9levages\">TRACE</abbr> sont d\u00e9livr\u00e9es par les administrateurs responsables. Pour en savoir plus, visiter les sites Internet suivants\u00a0: <a href=\"http://www.canadaid.com\">Agence canadien d'identification du b\u00e9tail</a>, <a href=\"https://attestra.com/\">Agri-Tra\u00e7abilit\u00e9 Qu\u00e9bec</a> ou le <a href=\"http://pigtrace.ca\">Conseil canadien du porc</a>.</p>\n\r\n\r\n\r\n</section>\r\n\r\n<section>\r\n\r\n<h2 id=\"c2\">2.2 Identification des chevaux</h2>\r\n\r\n\r\n<div class=\"hrline\"></div>\r\n    \n\n<p>Cette section pr\u00e9sente la description physique des chevaux car il n'existe pas d'\u00e9tiquette d'identification officielle pour cette esp\u00e8ce. Il faut faire une description claire, uniforme et pr\u00e9cise des signes distinctifs.</p>\n\n<h3>Identification des chevaux</h3>\n\n<h4>Identification descriptive traditionnelle</h4>\n\n<p>Dans les documents qu'il faut remplir lorsqu'un cheval doit \u00eatre identifi\u00e9 pour une \u00e9preuve de d\u00e9pistage ou un certificat d'exportation, il faut donner le signalement exact de l'animal \u00e0 l'aide d'un graphique, ainsi qu'une description \u00e9crite (compl\u00e8te. En plus des marques et des tatouages d'identification, il faut relever tous les signes distinctifs, tels que des marques blanches, des motifs dans le pelage, des variations de couleur ou des cicatrices. Ceci est particuli\u00e8rement important pour les chevaux qui ne pr\u00e9sentent pas de marques distinctives \u00e9videntes (par exemple, des marques blanches) sur la t\u00eate, le corps ou les membres. </p>\n\n<p>Les m\u00e9thodes d'identification et la nomenclature descriptive des couleurs et des marques sont d\u00e9crites dans <a href=\"/fra/1632341893457/1632341894301#a3\">la section 3 du document d'information concernant les \u00e9quid\u00e9s (DIE</a>). Bien que ces informations concernent l'identification des \u00e9quid\u00e9s dans le but de documenter les ant\u00e9c\u00e9dents m\u00e9dicaux des chevaux pr\u00e9sent\u00e9s \u00e0 l'abattoir, il est conforme aux attentes du Programme des v\u00e9t\u00e9rinaires accr\u00e9dit\u00e9s en mati\u00e8re d'identification des chevaux aux fins de tests et de certification \u00e0 l'exportation.</p>\n\n<p>Les v\u00e9t\u00e9rinaires accr\u00e9dit\u00e9s sont cens\u00e9s lire ce document et appliquer les directives qu'il contient par rapport \u00e0 l'identification des chevaux dans l'exercice de leurs fonctions accr\u00e9dit\u00e9es, <strong>sauf lors d'indication contraire dans le pr\u00e9sent module</strong>.\u00a0Par exemple, bien que le document de la DIE exige sp\u00e9cifiquement l'utilisation d'encre noire pour les descriptions \u00e9crites et les marques non blanches, les modules 5.5 (Exportation de chevaux aux \u00c9tats-Unis) et 8.4 (An\u00e9mie infectieuse \u00e9quine [AIE]) du pr\u00e9sent manuel indiquent que si l'encre noire est pr\u00e9f\u00e9rable, l'encre bleue est \u00e9galement acceptable \u00e0 condition qu'elle soit claire et lisible.</p>\n\n<p>La langue utilis\u00e9e dans la  description \u00e9crite doit \u00e9galement r\u00e9pondre aux exigences du pays importateur (par exemple, l'anglais pour l'exportation vers les \u00c9tats-Unis). Les formats de date \u00e0 utiliser seront  sp\u00e9cifi\u00e9s sur le certificat ou le formulaire individuel.\u00a0L'\u00e2ge peut \u00eatre sp\u00e9cifi\u00e9 par la date de  naissance exacte (si elle est connue et dans le format indiqu\u00e9) ou par l'ann\u00e9e  de naissance si la date exacte n'est pas connue. Il n'est g\u00e9n\u00e9ralement pas  accept\u00e9 d'indiquer l'\u00e2ge du cheval en ann\u00e9es ou en mois.</p>\n\n<p>Une attention particuli\u00e8re doit \u00eatre accord\u00e9e \u00e0 la nomenclature anatomique utilis\u00e9e dans le document d'orientation de la section 3 du document d'information concernant les \u00e9quid\u00e9s (DIE). Ces termes doivent \u00eatre utilis\u00e9s pour toutes les descriptions \u00e9crites, plut\u00f4t que des termes familiers ou courants tels que \"sock\" ou \"stocking\". Il existe \u00e9galement des sections d\u00e9taill\u00e9es relatives aux \u00e9pis et autres \"particularit\u00e9s\" qui peuvent \u00eatre observ\u00e9es chez certains chevaux. Ces \u00e9l\u00e9ments sont particuli\u00e8rement importants lorsqu'il s'agit de chevaux pr\u00e9sentant peu ou pas de marques blanches ou acquises distinctives, car ils peuvent \u00eatre le seul moyen de fournir une identification pr\u00e9cise de l'animal.</p>\n\n<p>Enfin, les descriptions des couleurs peuvent varier d'un pays \u00e0 l'autre, avec des variations au sein d'une m\u00eame cat\u00e9gorie de couleur dans certains cas (par exemple, bai, bai-brun, bai fonc\u00e9, bai clair, etc.)\u00a0 En raison de cette variabilit\u00e9, un r\u00e9sum\u00e9 des descriptions de couleurs courantes utilis\u00e9es en Am\u00e9rique du Nord est fourni dans la section 3 du document d'information concernant les \u00e9quid\u00e9s (DIE).</p>\n\n<h4>Photographies num\u00e9riques</h4>\n\n<p>Certains formulaires permettent l'utilisation de photographies num\u00e9riques en lieu et place du dessin/diagramme. Dans ces cas, le v\u00e9t\u00e9rinaire accr\u00e9dit\u00e9 doit s'assurer que les photographies num\u00e9riques sont de bonne qualit\u00e9 en tenant compte des conditions d'\u00e9clairage, de la propret\u00e9, de la r\u00e9solution de l'image, du bon positionnement de l'\u00e9quid\u00e9 et de l'absence d'objets qui pourraient g\u00eaner l'animal (par exemple, selle, couverture, structures). Seul l'animal devant \u00eatre test\u00e9/inspect\u00e9 doit \u00eatre visible sur la photographie. Les seules exceptions \u00e0 cette r\u00e8gle sont les suivantes\u00a0: si d'autres animaux sont partiellement visibles \u00e0 l'arri\u00e8re-plan, ou si un poulain est avec sa jument. Dans ce dernier cas, l'animal test\u00e9/inspect\u00e9 ne doit pas \u00eatre obstru\u00e9 par l'autre. Tous les efforts doivent \u00eatre faits pour exclure les manipulateurs humains de la photographie.</p>\n\n<p>Il est g\u00e9n\u00e9ralement possible d'obtenir des photographies de bonne qualit\u00e9, bien que cela puisse parfois \u00eatre difficile en raison du temp\u00e9rament de l'animal et/ou des conditions environnementales. Lorsqu'on sait que des photographies doivent \u00eatre prises lors d'un prochain rendez-vous, il est recommand\u00e9 \u00e0 la clinique v\u00e9t\u00e9rinaire d'informer les clients de la n\u00e9cessit\u00e9 de faire nettoyer l'animal de mani\u00e8re ad\u00e9quate afin que ses marques soient visibles et de le placer dans un endroit suffisamment \u00e9clair\u00e9. Si l'on anticipe des difficult\u00e9s \u00e0prendre des photos acceptables de l'\u00e9quid\u00e9 lors du rendez-vous, il est possible de demander au propri\u00e9taire de prendre ses propres photos, de les envoyer au cabinet v\u00e9t\u00e9rinaire et de demander \u00e0 ce dernier de les t\u00e9l\u00e9charger sur la plateforme num\u00e9rique. Les photographies doivent \u00eatre conformes aux exigences \u00e9num\u00e9r\u00e9es dans ce module et le v\u00e9t\u00e9rinaire accr\u00e9dit\u00e9 doit \u00eatre en mesure de confirmer que les photos soumises correspondent \u00e0 l'animal au moment de l'\u00e9chantillonnage/de l'inspection.</p>\n\n<p>Toutes les marques blanches doivent \u00eatre visibles sur les photographies num\u00e9riques et la longueur totale de tous les membres doit appara\u00eetre sur les photographies. Pour les photographies frontales, si les seules marques sont sur la t\u00eate, la photographie peut \u00eatre limit\u00e9e \u00e0 la t\u00eate. S'il y a des marques blanches sur les pattes avant, la longueur totale des pattes doit \u00eatre incluse dans les photographies frontales. Tous les champs descriptifs doivent \u00eatre remplis. Veuillez utiliser \"N/A\" ou \"None\" si n\u00e9cessaire. Si un syst\u00e8me de soumission num\u00e9rique est utilis\u00e9 pour les \u00e9quid\u00e9s pr\u00e9sentant des marques tr\u00e8s d\u00e9taill\u00e9es (par exemple, les Appaloosas), les descriptions \u00e9crites des marques blanches ne sont pas requises et \"N/A\" peut \u00eatre utilis\u00e9 dans les champs de descripteurs.</p>\n\n<p>Il incombe au v\u00e9t\u00e9rinaire accr\u00e9dit\u00e9 de s'assurer que les photographies num\u00e9riques sont repr\u00e9sentatives de l'apparence de l'animal au moment de l'\u00e9chantillonnage/de l'inspection. <strong>L'absence de photographies de bonne qualit\u00e9 peut entra\u00eener le rejet du certificat num\u00e9rique par un inspecteur</strong>. Si n\u00e9cessaire, veuillez contacter le fournisseur de services num\u00e9riques pour obtenir des conseils sur la mani\u00e8re d'obtenir de meilleures photographies.</p>\n\n<h4>Marques acquises</h4>\n\n<p>Une marque acquise peut \u00eatre tout \u00e9l\u00e9ment distinctif qui r\u00e9sulte d'un ou de plusieurs facteurs extrins\u00e8ques.\u00a0 Les exemples les plus courants sont les marques (au fer rouge ou au fer chaud), les cicatrices, les marques de cryoth\u00e9rapie, les tatouages, etc.\u00a0 Les marques acquises doivent \u00eatre d\u00e9crites dans la section appropri\u00e9e de la description \u00e9crite et \u00e9galement indiqu\u00e9es correctement sur le dessin ou les photographies en fonction de leur apparence.\u00a0 Par exemple, lorsque des cryomarquages ont pour effet de rendre les poils superpos\u00e9s blancs, la marque est indiqu\u00e9e \u00e0 l'encre rouge comme toute marque blanche.\u00a0 Pour les marques qui servent \u00e9galement d'identifiant unique\u00a0(par exemple, un cryomarquage\u00a0sp\u00e9cifiquement enregistr\u00e9 pour l'animal), elles peuvent \u00e9galement \u00eatre indiqu\u00e9es dans un champ de ce type sur le formulaire ou le certificat d'essai.\u00a0\u00a0 Une marque qui n'est pas unique \u00e0 un animal sp\u00e9cifique (par exemple, une marque sp\u00e9cifique d'une ferme qui est utilis\u00e9e sur plus d'un animal pour tous les animaux appartenant \u00e0 une ferme ou \u00e0 une personne sp\u00e9cifique) est simplement indiqu\u00e9e comme une marque acquise.</p>\n\n<h4>Micro-puces et/ou implants \u00e9lectroniques</h4>\n\n<p>Bien que les implants de micropuces soient fr\u00e9quemment utilis\u00e9s sur de nombreuses esp\u00e8ces d'animaux, l'utilit\u00e9 de ce moyen d'identification est limit\u00e9e aux applications o\u00f9 l'animal est accessible pour une lecture et o\u00f9 un dispositif de lecture de micropuces compatible est disponible. Pour ces raisons, des moyens plus traditionnels d'identification des animaux sont actuellement utilis\u00e9s aux points d'entr\u00e9e au Canada. Les micropuces ont leur utilit\u00e9 dans les applications domestiques, particuli\u00e8rement lorsqu'elles sont combin\u00e9es \u00e0 d'autres formes d'identification des chevaux.  \u00c0 mesure que d'autres options deviennent disponibles et que la technologie s'am\u00e9liore, cette m\u00e9thode d'identification des \u00e9quid\u00e9s pourrait jouer un r\u00f4le plus important \u00e0 l'avenir.</p>\n\n<h4>Autres consid\u00e9rations</h4>\n\n<p>Les graphiques ou les photographies num\u00e9riques figurant sur les certificats de test et d'exportation doivent correspondre, et les descriptions \u00e9crites doivent concorder avec les dessins et les photographies num\u00e9riques.\u00a0Dans certaines circonstances, des num\u00e9ros d'identification additionnels peuvent \u00eatre n\u00e9cessaires. Pour en savoir plus, voir modules\u00a0<a href=\"/sante-des-animaux/animaux-terrestres/maladies/manuel-du-veterinaire-accredite/chapitre-5-5/fra/1705423532179/1705423667919\">5.5. Exportation vers les \u00c9tats-Unis-Chevaux</a>\u00a0et\u00a0<a href=\"/sante-des-animaux/animaux-terrestres/maladies/manuel-du-veterinaire-accredite/chapitre-6/fra/1345240199631/1345240344391?chap=2\">6.2. Exportation vers le Mexique-Chevaux</a>. Si une erreur est d\u00e9couverte apr\u00e8s que le formulaire a \u00e9t\u00e9 autoris\u00e9 (c'est-\u00e0-dire sign\u00e9), un nouveau formulaire doit \u00eatre cr\u00e9\u00e9 avec les informations correctes. Il convient de noter que cela peut \u00e9galement n\u00e9cessiter le pr\u00e9l\u00e8vement et la soumission d'un nouvel \u00e9chantillon de sang, de sorte que tous les efforts pour v\u00e9rifier que les formulaires ont \u00e9t\u00e9 remplis correctement et avec pr\u00e9cision doivent \u00eatre faits avant de les soumettre.</p>\n\n<p><strong>Remarque</strong>\u00a0: Il peut arriver qu'un formulaire pr\u00e9c\u00e9demment rempli et valide ne corresponde pas \u00e0 l'apparence ou \u00e0 la description actuelle d'un cheval.\u00a0Par exemple, des marques acquises telles que des cicatrices ou des marques de cryoth\u00e9rapie apparaissant apr\u00e8s le moment o\u00f9 le formulaire a \u00e9t\u00e9 rempli (les certificats de test EIA sont valables pendant 180 jours), la castration d'un cheval pr\u00e9c\u00e9demment d\u00e9crit comme un \u00e9talon, etc. Les v\u00e9t\u00e9rinaires accr\u00e9dit\u00e9s doivent obtenir suffisamment d'information et de documentation (si disponible) pour justifier la diff\u00e9rence d'apparence et consulter le v\u00e9t\u00e9rinaire de district de l'ACIA afin de d\u00e9terminer la meilleure approche \u00e0 adopter pour la certification.</p>\n\n<details>\n<summary>Descriptions des couleurs et des marquages</summary>\n\n<h4>Couleur</h4>\n\n<p>Noir\u00a0:</p>\n<p>Robe de pigmentation noire g\u00e9n\u00e9rale s'\u00e9tendant aux membres, \u00e0 la crini\u00e8re et \u00e0 la queue, sans autre motif que des taches blanches. (<span lang=\"en\">Black</span>)</p>\n<p>Brun\u00a0:</p>\n<p>Robe compos\u00e9e d'un m\u00e9lange de noir et de brun avec les membres, la crini\u00e8re et la queue noirs. (<span lang=\"en\">Brown</span>)</p>\n<p>Bai-brun\u00a0:</p>\n<p>Robe avec pr\u00e9dominance du brun, avec le nez de couleur baie et les membres, la crini\u00e8re et la queue noirs. (Bay-brown)</p>\n<p>Bai\u00a0:</p>\n<p>Robe allant du rouge sombre voisin du brun \u00e0 un ton de jaune voisin de la robe alezane, mais que l'on peut distinguer de celle-ci par sa crini\u00e8re et sa queue noires et par la pr\u00e9sence de noir sur les membres et la pointe des oreilles. (<span lang=\"en\">Bay</span>)</p>\n<p>Alezan\u00a0:</p>\n<p>Robe jaune de diff\u00e9rents degr\u00e9s d'intensit\u00e9 qui peuvent \u00eatre indiqu\u00e9s si c'est jug\u00e9 utile. Un v\u00e9ritable alezan a la crini\u00e8re et la queue de couleur alezan, mais celles-ci peuvent \u00eatre plus ou moins fonc\u00e9es que le reste de la robe. Sur les alezans clairs, la crini\u00e8re et la queue peuvent \u00eatre blondes. La couleur <strong>cannelle (sorrel)</strong> doit \u00eatre consign\u00e9e comme telle. (<span lang=\"en\">Chestnut</span>)</p>\n<p>Gris\u00a0:</p>\n<p>Robe \u00e0 poils blancs et noirs m\u00e9lang\u00e9s. La peau est noire. Plus le cheval vieillit, plus sa robe p\u00e2lit. Le gris pommel\u00e9 peut comprendre trois couleurs ou les deux couleurs de base, ce qui doit \u00eatre pr\u00e9cis\u00e9 dans le signalement. Le blanc pur est exceptionnel. (<span lang=\"en\">Gray</span>)</p>\n<p>Souris\u00a0:</p>\n<p>Terme parfois utilis\u00e9 pour une robe grise avec la crini\u00e8re et la queue noires. (<span lang=\"en\">Mouse</span>)</p>\n<p>Rouan bleu\u00a0:</p>\n<p>Robe noire ou brune noire piquet\u00e9e de poils blancs qui lui donnent un reflet bleut\u00e9. Sur les membres, les poils noirs pr\u00e9dominent habituellement \u00e0 partir des genoux et des jarrets. (<span lang=\"en\">Blue roan</span>)</p>\n<p>Rouan bai\u00a0:</p>\n<p>Robe baie ou brune baie piquet\u00e9e de poils blancs qui lui donnent une teinte rouge. Sur les membres, du genou et du jarret jusqu'au sabot, les poils noirs sont habituellement pr\u00e9dominants. (<span lang=\"en\">Bay roan</span>)</p>\n<p>Aub\u00e8re\u00a0:</p>\n<p>Robe alezane piquet\u00e9e de poils blancs. (<span lang=\"en\">Chestnut roan/strawberry</span>)</p>\n<p>Louvet fonc\u00e9\u00a0:</p>\n<p>Robe uniforme noire dilu\u00e9e r\u00e9partie uniform\u00e9ment, avec la crini\u00e8re et la queue noires. Il peut y avoir une raie de mulet et/ou une bande cruciale. La peau est noire. (<span lang=\"en\">Blue dun</span>)</p>\n<p>Louvet jaunes\u00a0:</p>\n<p>Robe de pigment jaune diffuse, avec la crini\u00e8re et la queue noires. Il peut y avoir une raie de mulet et/ou une bande cruciale ainsi que des rainures sur les pattes. En g\u00e9n\u00e9ral, si les pattes sont ray\u00e9es, la t\u00eate et les membres sont noirs. La peau est noire. (<span lang=\"en\">Yellow dun</span>)</p>\n\n<p>Pie noire\u00a0:</p>\n<p>Robe comportant de grandes taches irr\u00e9guli\u00e8res noires et blanches. La ligne de d\u00e9marcation entre les deux couleurs est g\u00e9n\u00e9ralement bien d\u00e9finie. (<span lang=\"en\">Piebald</span>)</p>\n<p>Pie\u00a0:</p>\n<p>Robe comportant de grandes taches blanches et d'une autre couleur d\u00e9finie sauf le noir. La ligne de d\u00e9marcation entre les couleurs est g\u00e9n\u00e9ralement bien d\u00e9finie. (<span lang=\"en\">Skewbald</span>)</p>\n<p>Panach\u00e9\u00a0:</p>\n<p>Robe comportant de grandes taches irr\u00e9guli\u00e8res de plus de deux couleurs pouvant se fondre les unes avec les autres sur le bord des taches. (<span lang=\"en\">Odd coloured</span>)</p>\n<p>Isabelle\u00a0:</p>\n<p>Robe de couleur cr\u00e8me avec la crini\u00e8re et la queue noires. (<span lang=\"en\">Isabella</span>)</p>\n<p>Cr\u00e8me\u00a0:</p>\n<p>Robe de couleur cr\u00e8me sur peau non-pigment\u00e9e. L'iris est peu pigment\u00e9 et souvent il n'a aucune pigmentation. Ce qui donne \u00e0 l'oeil un aspect ros\u00e2tre ou bleu\u00e2tre. (<span lang=\"en\">Cream</span>)</p>\n<p>Palomino\u00a0:</p>\n<p>Robe dor\u00e9e (plus ou moins fonc\u00e9e) avec la crini\u00e8re et la queue blanches. (Palomino)</p>\n<p>Appaloosa\u00a0:</p>\n<p>Robe grise tachet\u00e9e de noir ou de brun. (Appaloosa)</p>\n\n<h4>Marques distinctives</h4>\n\n<p>Bande cruciale\u00a0:</p>\n<p>Raie transversale fonc\u00e9e ou noire sur le garrot (<span lang=\"en\">Withers Stripe</span>)</p>\n<p>Raie de mulet\u00a0:</p>\n<p>Bande dorsale noire allant du garrot \u00e0 la base de la queue. (<span lang=\"en\">List</span>)</p>\n\n<h4>Marques blanches</h4>\n\n<p>Toutes les marques blanches doivent \u00eatre d\u00e9crites\u00a0:</p>\n<p>Les marques ont une forme r\u00e9guli\u00e8re ou irr\u00e9guli\u00e8re, et des poils de la robe peuvent s'y m\u00e9langer dans toute la surface, dans une partie seulement ou sur le pourtour. Elles peuvent \u00eatre bord\u00e9es, une bande de peau noire paraissant alors en bordure sous les poils blancs (ce qui donne \u00e0 la r\u00e9gion une teinte bleu\u00e2tre).</p>\n\n<h4>T\u00eate</h4>\n\n<p>La description devrait commencer par le front, puis porter sur le chanfrein, le bout du nez, les l\u00e8vres et le menton.</p>\n<p>En-t\u00eate\u00a0:</p>\n<p>Toute marque blanche sur le front. Il faut en pr\u00e9ciser la dimension, la forme, l'emplacement et l'intensit\u00e9, et signaler la pr\u00e9sence de marques de couleur. Si la marque consiste en quelques poils blancs sur le front, il faut le pr\u00e9ciser, et elle ne peut \u00eatre appel\u00e9e \u00e9toile en t\u00eate. (<span lang=\"en\">Star</span>)</p>\n<p>Liste\u00a0:</p>\n<p>\u00c9troite bande blanche marquant le chanfrein sur toute sa longueur et ne d\u00e9passant pas la largeur de sa face ant\u00e9rieure. Dans bien des cas, la liste prolonge l'en-t\u00eate, ce qu'il faut pr\u00e9ciser. Si la liste est s\u00e9par\u00e9e de l'en-t\u00eate, elle est appel\u00e9e liste interrompue. Lorsqu'il n'y a pas d'en-t\u00eate, il faut pr\u00e9ciser o\u00f9 se trouve le point d'origine de la liste. Il faut aussi indiquer o\u00f9 se termine la liste et signaler toute variation de largeur ou d'orientation ainsi que la pr\u00e9sence de marques dans le blanc (<abbr title=\"par exemple\">p.\u00a0ex.</abbr>\u00a0: liste large, liste \u00e9troite, inclin\u00e9e vers la gauche <abbr title=\"et cetera\">etc.</abbr>\u2026). (<span lang=\"en\">Stripe</span>)</p>\n<p>Large liste\u00a0:</p>\n<p>Marque blanche couvrant presque enti\u00e8rement le front entre les deux yeux, plus large que le chanfrein et descendant habituellement jusqu'aux nasaux. Signaler toute variation d'orientation, le point de terminaison et la pr\u00e9sence de marques dans le blanc. (<span lang=\"en\">Blaze</span>)</p>\n<p>Belle face\u00a0:</p>\n<p>Marque blanche couvrant le front et le chanfrein et descendant lat\u00e9ralement vers la bouche, sur un c\u00f4t\u00e9 (unilat\u00e9rale) ou sur les deux c\u00f4t\u00e9s (bilat\u00e9rale), ce qui doit \u00eatre pr\u00e9cis\u00e9. (<span lang=\"en\">White face</span>)</p>\n<p>Grisonn\u00e9\u00a0:</p>\n<p>Marque blanche isol\u00e9e, distincte des marques d\u00e9crites ci-dessus, situ\u00e9e entre les nasaux ou dans la r\u00e9gion des nasaux. Il faut en pr\u00e9ciser la dimension, l'emplacement et l'intensit\u00e9. Si le grisonn\u00e9 est reli\u00e9 \u00e0 la liste, il faut le pr\u00e9ciser (<abbr title=\"par exemple\">p.\u00a0ex.</abbr>\u00a0: grisonn\u00e9 reli\u00e9 \u00e0 l'en-t\u00eate, \u00e0 la liste\u2026). (<span lang=\"en\">Snip</span>)</p>\n<p>Ladre\u00a0:</p>\n<p>D\u00e9pigmentation qui doit \u00eatre d\u00e9crite comme telle, non comme une marque blanche. Si le ladre est tachet\u00e9 de noir, il faut le signaler. Toutes les marques des l\u00e8vres, qu'il s'agisse de taches de ladre ou de marques blanches, doivent \u00eatre d\u00e9crites avec pr\u00e9cision. (<span lang=\"en\">Flesh mark</span>)</p>\n<p>Boit dans son lait\u00a0:</p>\n<p>Marque blanche couvrant les l\u00e8vres et la r\u00e9gion des nasaux. (<span lang=\"en\">White muzzle</span>)</p>\n\n<h4>Membres</h4>\n\n<p>Toutes les balzanes des membres doivent \u00eatre d\u00e9crites avec pr\u00e9cision, et l'emplacement de leur bord sup\u00e9rieur doit \u00eatre indiqu\u00e9 pr\u00e9cis\u00e9ment par rapport \u00e0 des rep\u00e8res anatomiques (<abbr title=\"par exemple\">p.\u00a0ex.</abbr>\u00a0: balzane \u00e0 mi-paturon, balzane au tiers sup\u00e9rieur de canon, <abbr title=\"et cetera\">etc.</abbr>). Les expressions telles que grande balzane, balzane haut-chauss\u00e9e, <abbr title=\"et cetera\">etc.</abbr> ne sont pas accept\u00e9es. Il faut pr\u00e9ciser l'emplacement exact des balzanes, comme dans les exemples pr\u00e9sent\u00e9s ci-apr\u00e8s\u00a0:</p>\n<p>Exemples\u00a0:</p>\n<ul>\n<li>Balzane \u00e0 la couronne (<span lang=\"en\">White coronet</span>); balzane au paturon (<span lang=\"en\">white pastern</span>); balzane au boulet (<span lang=\"en\">white fetlock</span>); balzane au genou (<span lang=\"en\">white to knee</span>); balzane au jarret (<span lang=\"en\">white to hock</span>); balzane \u00e0 l'arri\u00e8re-train (<span lang=\"en\">white to hind quarter</span>);</li>\n<li>Trace de balzane \u00e0 la couronne (<span lang=\"en\">White patch on coronet</span>) en pince en dehors, en dedans, en talon;</li>\n<li>Bracelet (<span lang=\"en\">White ring around limb</span>)\u00a0: fait le tour du membre, mais ne descend pas \u00e0 la couronne.</li>\n</ul>\n<p>La pr\u00e9sence de taches color\u00e9es dans les balzanes doit \u00eatre signal\u00e9e. Les taches noires sont appel\u00e9es herminures. (<span lang=\"en\">Ermine marks</span>)</p>\n\n<h4>\u00c9pis</h4>\n\n<p>L'\u00e9pi est un ensemble de poils divergents ou convergents autour d'un point; selon sa forme, il est simple, confus, penn\u00e9 ou sinueux. Il faut clairement indiquer son emplacement. (<span lang=\"en\">whorls-cowlicks</span>)</p>\n</details>\n\r\n\r\n\r\n</section>\r\n\r\n<div class=\"clear\"></div>\r\n\n\n\r\n        \r\n\r\n<div class=\"row\">\r\n \r\n\t\t\t\r\n\t\t\t\r\n\r\n\t\t\r\n\t\r\n</div>"
    },
    "js": {
        "en": "",
        "fr": ""
    },
    "success": true,
    "chat_wizard": false
}