{
    "dcr_id": "1388352402139",
    "title": {
        "en": "Pictures, vignettes, logos and trademarks on food labels",
        "fr": "Images, vignettes, logos et marques de commerce sur les \u00e9tiquettes des aliments"
    },
    "html_modified": "2024-03-12 3:56:34 PM",
    "modified": "2022-07-18",
    "issued": "2013-12-29 16:26:50",
    "teamsite_location": {
        "en": "/default/main/inspection/cont-cont/food-aliments/STAGING/templatedata/comn-comn/manuals-manuels/data/lble_industry_claims_logo_1388352402139_eng",
        "fr": "/default/main/inspection/cont-cont/food-aliments/STAGING/templatedata/comn-comn/manuals-manuels/data/lble_industry_claims_logo_1388352402139_fra"
    },
    "ia_id": "1388352491636",
    "parent_ia_id": "1383607344939",
    "chronicletopic": {
        "en": "",
        "fr": ""
    },
    "chroniclecontent": {
        "en": "",
        "fr": ""
    },
    "chronicleaudience": {
        "en": "",
        "fr": ""
    },
    "sfcrdocumenttype": {
        "en": "Guidance",
        "fr": "Document d'orientation"
    },
    "sfcraudience": {
        "en": "Agency personnel|Industry",
        "fr": "Industrie|Personnel de l'agence"
    },
    "sfcrmethodofproduction": {
        "en": "",
        "fr": ""
    },
    "activity": {
        "en": "Exporting food|Labelling",
        "fr": "Exportation d\u2019aliments|\u00c9tiquetage"
    },
    "commodity": {
        "en": "Relevant to All",
        "fr": "Pertinents pour tous"
    },
    "program": {
        "en": "Food",
        "fr": "Aliments"
    },
    "search_type": "guidancefinder",
    "parent_node_id": "1383607344939",
    "layout_name": "content page 1 column",
    "breadcrumb": {
        "en": "Pictures, vignettes, logos and trademarks on food labels",
        "fr": "Images, vignettes, logos et marques de commerce sur les \u00e9tiquettes des aliments"
    },
    "label": {
        "en": "Pictures, vignettes, logos and trademarks on food labels",
        "fr": "Images, vignettes, logos et marques de commerce sur les \u00e9tiquettes des aliments"
    },
    "templatetype": "content page 1 column",
    "node_id": "1388352491636",
    "managing_branch": "comn",
    "type_name": "manuals-manuels",
    "dcr_type": "manuals-manuels",
    "parent_dcr_id": "1383607266489",
    "has_dcr_id": true,
    "lang": "en",
    "could_not_load": 0,
    "refaire": false,
    "interwoven_url": {
        "en": "/food-labels/labelling/industry/pictures-vignettes-logos-and-trademarks-on-food-la/",
        "fr": "/etiquetage-des-aliments/etiquetage/industrie/images-vignettes-logos-et-marques-de-commerce-sur-/"
    },
    "meta": {
        "viewport": {
            "en": "width=device-width,initial-scale=1",
            "fr": "width=device-width,initial-scale=1"
        },
        "service": {
            "en": "CFIA-ACIA",
            "fr": "CFIA-ACIA"
        },
        "accessRights": {
            "en": "2",
            "fr": "2"
        },
        "title": {
            "en": "Pictures, vignettes, logos and trademarks on food labels",
            "fr": "Images, vignettes, logos et marques de commerce sur les \u00e9tiquettes des aliments"
        },
        "description": {
            "en": "Pictures, vignettes, logos, and trade-marks contribute to the overall impression created about a food product and as such are subject to the general principles for labelling and advertising and any other specific requirements.",
            "fr": "Les images, vignettes, logos et marques de commerce contribuent \u00e0 l'impression globale d\u2019un produit alimentaire et sont par cons\u00e9quent assujettis aux principes g\u00e9n\u00e9raux de l'\u00e9tiquetage et de la publicit\u00e9\u00a0ainsi qu'\u00e0 toute autre exigence particuli\u00e8re."
        },
        "keywords": {
            "en": "Pictures, vignettes, logos, endorsements, trade-marks, food labelling and advertising",
            "fr": "Les images, les vignettes, les logos, les approbations, les marques de commerce, l'\u00e9tiquetage des aliments et la publicit\u00e9"
        },
        "dcterms.subject": {
            "en": "food,labelling,food labeling,food inspection,agri-food products,consumer protection",
            "fr": "aliment,\u00e9tiquetage,\u00e9tiquetage des aliments,inspection des aliments,produit agro-alimentaire,protection du consommateur"
        },
        "creator": {
            "en": "Government of Canada,Canadian Food Inspection Agency,Food Safety and Consumer Protection Directorate",
            "fr": "Gouvernement du Canada,Agence canadienne d'inspection des aliments,Direction de la salubrit\u00e9 des aliments et de la protection des consommateurs"
        },
        "language": {
            "en": "eng",
            "fr": "fra"
        },
        "issued": {
            "en": "2013-12-29 16:26:50",
            "fr": "2013-12-29 16:26:50"
        },
        "modified": {
            "en": "2022-07-18",
            "fr": "2022-07-18"
        },
        "type": {
            "en": "reference material",
            "fr": "mat\u00e9riel de r\u00e9f\u00e9rence"
        },
        "audience": {
            "en": "business,government,general public",
            "fr": "entreprises,gouvernement,grand public"
        },
        "name": {
            "en": "Government of Canada",
            "fr": "Gouvernement du Canada"
        },
        "areaServed": {
            "en": "Canada",
            "fr": "Canada"
        }
    },
    "h1": {
        "en": "Pictures, vignettes, logos and trademarks on food labels",
        "fr": "Images, vignettes, logos et marques de commerce sur les \u00e9tiquettes des aliments"
    },
    "body": {
        "en": "        \r\n        \n\n\r\n\r\n\r\n\r\n\r\n\r\n\r\n<h2>On this page</h2>\r\n<ul class=\"list-unstyled col-md-offset-1 mrgn-tp-md mrgn-bttm-md\">\r\n\r\n<li>\r\n<a href=\"/food-labels/labelling/industry/pictures-vignettes-logos-and-trademarks-on-food-la/eng/1388352402139/1388352491636?chap=0#c1\">Overview</a>\r\n\r\n</li>\r\n\r\n<li>\r\n<a href=\"/food-labels/labelling/industry/pictures-vignettes-logos-and-trademarks-on-food-la/eng/1388352402139/1388352491636?chap=0#c2\">Pictures, vignettes and logos</a>\r\n\r\n<ul class=\"list-unstyled col-md-offset-1 mrgn-bttm-md\">\r\n\r\n<li>\r\n<a href=\"#s1c2\">General requirements</a>\r\n\r\n</li>\r\n\r\n<li>\r\n<a href=\"#s2c2\">Heart symbols and heart health claims</a>\r\n\r\n</li>\r\n\r\n<li>\r\n<a href=\"#s3c2\">Exceptions \u2013 Acceptable uses of heart symbols or heart health claims</a>\r\n\r\n</li>\r\n\r\n</ul>\r\n\r\n</li>\r\n\r\n<li>\r\n<a href=\"/food-labels/labelling/industry/pictures-vignettes-logos-and-trademarks-on-food-la/eng/1388352402139/1388352491636?chap=0#c3\">Trademarks</a>\r\n\r\n<ul class=\"list-unstyled col-md-offset-1 mrgn-bttm-md\">\r\n\r\n<li>\r\n<a href=\"#s4c3\">Use of trademarks in food labelling or advertising</a>\r\n\r\n</li>\r\n\r\n<li>\r\n<a href=\"#s5c3\">Government of Canada trademarks</a>\r\n\r\n</li>\r\n\r\n<li>\r\n<a href=\"#s6c3\">Inspection marks</a>\r\n\r\n</li>\r\n\r\n</ul>\r\n\r\n</li>\r\n\r\n<li>\r\n<a href=\"/food-labels/labelling/industry/pictures-vignettes-logos-and-trademarks-on-food-la/eng/1388352402139/1388352491636?chap=0#c4\">Third party endorsements</a>\r\n\r\n<ul class=\"list-unstyled col-md-offset-1 mrgn-bttm-md\">\r\n\r\n<li>\r\n<a href=\"#s7c4\">Third-party endorsement policy</a>\r\n\r\n</li>\r\n\r\n</ul>\r\n\r\n</li>\r\n\r\n<li>\r\n<a href=\"/food-labels/labelling/industry/pictures-vignettes-logos-and-trademarks-on-food-la/eng/1388352402139/1388352491636?chap=0#c5\">Awards, seals and certificates of approval</a>\r\n\r\n</li>\r\n\r\n<li>\r\n<a href=\"/food-labels/labelling/industry/pictures-vignettes-logos-and-trademarks-on-food-la/eng/1388352402139/1388352491636?chap=0#c6\">Definitions</a>\r\n\r\n<ul class=\"list-unstyled col-md-offset-1 mrgn-bttm-md\">\r\n\r\n<li>\r\n<a href=\"#s8c6\">Sign</a>\r\n\r\n</li>\r\n\r\n<li>\r\n<a href=\"#s9c6\">Trademark</a>\r\n\r\n</li>\r\n\r\n<li>\r\n<a href=\"#s10c6\">Trade name</a>\r\n\r\n</li>\r\n\r\n</ul>\r\n\r\n</li>\r\n\r\n</ul>\r\n\r\n\r\n<section>\r\n\r\n<h2 id=\"c1\">Overview</h2>\r\n\r\n\r\n<div class=\"hrline\"></div>\r\n    \n\n<p>Pictures, vignettes, logos, endorsements, and <a href=\"/food-labels/labelling/industry/pictures-vignettes-logos-and-trademarks-on-food-la/eng/1388352402139/1388352491636?chap=6#s9c6\">trademark (definition)</a> contribute to the overall impression created in food labelling and advertising and as such, are subject to the <a href=\"/eng/1392324632253/1392324755688\">General principles for labelling and advertising</a> and any other specific requirements.</p>\n\r\n\r\n\r\n</section>\r\n\r\n<section>\r\n\r\n<h2 id=\"c2\">Pictures, vignettes and logos</h2>\r\n\r\n\r\n<div class=\"hrline\"></div>\r\n    \n\r\n<nav>\r\n<ul class=\"list-unstyled col-md-offset-1 mrgn-tp-md mrgn-bttm-md\">\r\n\r\n<li>\r\n<a href=\"#s1c2\">General requirements</a>\r\n\r\n</li>\r\n\r\n<li>\r\n<a href=\"#s2c2\">Heart symbols and heart health claims</a>\r\n\r\n</li>\r\n\r\n<li>\r\n<a href=\"#s3c2\">Exceptions \u2013 Acceptable uses of heart symbols or heart health claims</a>\r\n\r\n</li>\r\n\r\n</ul>\r\n</nav>\r\n\n<p>Pictures, vignettes and logos are any types of pictorial representations that appear on food labels and in advertising.</p>\n\r\n\r\n\r\n</section>\r\n\r\n<section>\r\n\r\n<h3 id=\"s1c2\">General requirements</h3>\r\n\r\n<h4>Accuracy in illustrations</h4>\n<p>Pictures and charts are common types of aids that manufacturers or producers use on labels and in advertising. When they are used, they must not be deceptive, misleading or misrepresent the composition, qualities or value of a product.</p>\n<p>In addition, where a picture professes to represent the food offered for sale, the actual product should be shown. For example, if the product must be prepared, then the product prepared according to directions should be shown in the picture.</p>\n<div class=\"well well-sm mrgn-bttm-md\">\n<section> \n<h5 class=\"mrgn-tp-sm\">Example</h5>\n  \n<p>Consider a juice blend that is made of \"apple juice, orange juice, sugar and flavour\", but is labelled with the brand name \"tropical juice\" and images of coconuts, mangos, pineapples, and papaya. The brand name and images on this package give the impression that the product is made wholly out of coconut, mango, pineapple and papaya juices, which is not the case. This label representation is therefore contrary to subsection 6(1) of the <i>Safe Food for Canadians Act</i> (SFCA) and 5(1) of the <i>Food and Drugs Act</i> (FDA). For more information, refer to <a href=\"/eng/1391025998183/1391026062752\">Composition and quality claims</a>.</p>\n</section>\n</div>\n<h4>Vignettes and artificial flavours</h4>\n<p>If a vignette or other pictorial representation on a food label shows a natural substance (for example, a picture of an apple) and an artificial flavour that simulates that substance is an ingredient in the food (for example, artificial apple flavour), whether alone or with natural flavouring agents, a statement that the added flavouring ingredient is imitation, artificial or simulated is mandatory [224(1), SFCR].</p>\n<p>The statement must be in both English and French in at least the same type height for the <a href=\"/eng/1389724204704/1389724328971\">net quantity</a> declaration as required for numerals [206(1), 229(1)(b), SFCR]. The location of the statement must be:</p>\n<ul>\n<li>on or in close proximity to the vignette or portion of the vignette, on the principal display panel (PDP) if\n<ul>\n<li>the pictorial representation is on the PDP [224(2)(a), SFCR], or</li>\n<li>the pictorial representation is both on the PDP and another part of the label [224(2)(c), SFCR], or</li>\n</ul>\n</li>\n<li>on the PDP, in close proximity to the common name, if the vignette is on another part of the label [224(2)(b), SFCR]</li>\n</ul>\n<p>This provision applies to consumer prepackaged foods. The words \"serving suggestion\" do not eliminate the need for an \"artificial flavour\" statement.</p>\n<p>This regulation does not apply when:</p>\n<ul>\n<li>a vignette shows a pictorial representation of a natural substance and an artificial flavour that does not simulate this substance is an ingredient \n<ul>\n<li>Example: a blueberry/apple cookie, made with blueberries and artificial apple flavour, that has a picture of a blueberry but no picture of an apple</li>\n</ul>\n</li>\n<li>a vignette shows a pictorial representation of a natural substance, and a natural flavour that simulates this substance is an ingredient \n<ul>\n<li>Example: a picture of a cherry when natural almond flavour has been added to simulate cherry flavour. The ingredient list should state either \"natural flavour\" or \"natural almond flavour\" but not \"natural cherry flavour\"</li>\n</ul>\n</li>\n</ul>\n<h4>Illustrations of people</h4>\n<p>Several principles govern the use of illustrations of people in advertisements:</p>\n<ul>\n<li>where pictures purport to represent a known person, the actual person should be portrayed in the advertisement</li>\n<li>representations of professional people, such as illustrations of laboratories or scientific apparatus, should not be used to create \"atmosphere\" if they have no direct connection with the product</li>\n<li>\"before and after\" pictures should be avoided</li>\n</ul>\r\n\r\n</section>\r\n\r\n<section>\r\n\r\n<h3 id=\"s2c2\">Heart symbols and heart health claims</h3>\r\n\r\n<p><img class=\"img-responsive\" alt=\"this is an example of a heart symbol\" src=\"/DAM/DAM-food-aliments/STAGING/images-images/heart_symbol_1388372273662_eng.gif\"></p>\n<p>It is generally not acceptable to use heart symbols and heart healthy claims to describe a food or food choice, whether on labels, menus or in advertising. The combined use may create an erroneous impression that consuming a single food or menu selection will provide heart health or prevent heart disease.</p>\n<p>Specifically, it is considered misleading to use heart symbols or the word \"heart\" to:</p>\n<ul>\n<li>suggest or imply that a particular food is nutritionally superior to or healthier than other foods</li>\n<li>suggest that the consumption of a specific food or menu selection will, by itself, provide health benefits relating to the heart and cardiovascular system</li>\n</ul>\n<div class=\"well well-sm mrgn-bttm-md\">\n<section> \n<h4 class=\"mrgn-tp-sm h5\">Example</h4>\n<p>Nutrition information programs that incorporate heart health in restaurants cannot identify menu items with hearts. Menu items may instead be identified using a check mark (<span class=\"glyphicon glyphicon-ok\"></span>) to draw attention to good or healthy choices,  provided that the information provided satisfies the requirements stated above and the reason for the program is made clear.</p>\n</section>\n</div>\n<p>Health authorities do agree that a single pattern of healthy eating should be recommended to the public. However, even though a healthy diet may help reduce the risk of cardiovascular disease, it is only one factor in the multiple etiology of the disease.</p>\r\n\r\n</section>\r\n\r\n<section>\r\n\r\n<h3 id=\"s3c2\">Exceptions \u2013 Acceptable uses of heart symbols or heart health claims</h3>\r\n\r\n<h4>Symbols of affection</h4>\n<p>No objection will be taken to heart symbols used in a manner traditionally recognized as indicating affection or endearment, such as heart-shaped cinnamon candies, heart-shaped boxes of chocolates, or heart illustrations on food products sold for Valentine's Day.</p>\n<h4>Health organization logo, name or program </h4>\n<p>Heart symbols may also be acceptable on food labels or advertisement when they appear in the logo or name of a health organization, or are used in conjunction with that organization's health information program, provided that:</p>\n<ul>\n<li>no impression is given that the food may help prevent, treat or cure heart disease, and</li>\n<li>the appearance of the health organization's name or logo itself satisfies the <a href=\"/food-labels/labelling/industry/pictures-vignettes-logos-and-trademarks-on-food-la/eng/1388352402139/1388352491636?chap=4#s7c4\">Third party endorsement policy</a></li>\n</ul>\n<p>Additionally, terms that employ the word \"heart\" may be acceptable as part of the  name of an information program of a health organization provided the program is  identified as such.</p>\n<h4>Heart symbols with acceptable health claims</h4>\n<p>No objection will be taken to the use of heart symbols in conjunction with the  health claim \"A healthy diet low in saturated and trans fats may help  reduce the risk of heart disease. (Naming the food) is low in saturated and  trans fats\". However, the use of these symbols must not give the impression that the food itself may have a positive effect on health, or that there is a role beyond the disease risk reduction claim. See <a href=\"/food-labels/labelling/industry/health-claims-on-food-labels/eng/1392834838383/1392834887794\">Health claims</a> for additional information.</p>\r\n\r\n</section>\r\n\r\n<section>\r\n\r\n<h2 id=\"c3\">Trademarks</h2>\r\n\r\n\r\n<div class=\"hrline\"></div>\r\n    \n\r\n<nav>\r\n<ul class=\"list-unstyled col-md-offset-1 mrgn-tp-md mrgn-bttm-md\">\r\n\r\n<li>\r\n<a href=\"#s4c3\">Use of trademarks in food labelling or advertising</a>\r\n\r\n</li>\r\n\r\n<li>\r\n<a href=\"#s5c3\">Government of Canada trademarks</a>\r\n\r\n</li>\r\n\r\n<li>\r\n<a href=\"#s6c3\">Inspection marks</a>\r\n\r\n</li>\r\n\r\n</ul>\r\n</nav>\r\n\n<p>A <a href=\"/food-labels/labelling/industry/pictures-vignettes-logos-and-trademarks-on-food-la/eng/1388352402139/1388352491636?chap=6#s9c6\">trademark (definition)</a> is a word (or words), design, or a  combination of these, to identify the goods or services of one person or organization. A trademark could include any brand name, <a href=\"/food-labels/labelling/industry/pictures-vignettes-logos-and-trademarks-on-food-la/eng/1388352402139/1388352491636?chap=6#s10c6\">trade name (definition)</a>, logo, slogan, third party proprietary mark, <abbr title=\"et cetera\">etc.</abbr> that is used to brand or advertise a product, as described in the <a href=\"/english/reg/jredirect2.shtml?trademark\"><i>Trademarks Act</i></a>.</p>\n<p>Trademarks may or may not be registered; this process is not mandatory. However, when trademarks, corporate names or labels are registered, the registration does not prevent the <abbr title=\"Canadian Food Inspection Agency\">CFIA</abbr> from enforcing legislation under its jurisdiction when the trademark violates any relevant provisions.</p>\n<p>For more information on trademarks or other types of intellectual property, refer to the <a href=\"http://www.cipo.ic.gc.ca/eic/site/cipointernet-internetopic.nsf/eng/h_wr00002.html\">Canadian Intellectual Property Office</a>.</p>\n\r\n\r\n\r\n</section>\r\n\r\n<section>\r\n\r\n<h3 id=\"s4c3\">Use of trademarks in food labelling or advertising</h3>\r\n\r\n<p>The use of trademarks in labelling and advertising food sold in Canada must comply with applicable federal food legislation, including the FDA and the SFCA.</p>\n<p>Trademarks are often used on food products as claims relating to:</p>\n<ul>\n<li>the character, quality, quantity or composition of the food</li>\n<li>the method of production of the food</li>\n<li>the geographical origin of the food, or</li>\n<li>the relationship between consumption of the food or an ingredient in the food and health</li>\n</ul>\n<p>These claims,  expressed or  implied, must not be applied in a manner that is false, misleading, or likely  to create an erroneous impression with consumers.</p>\n<p>For example, depending on the product, the word \"fresh\" in a product's brand name might be determined to be misleading to consumers if it implies that food itself is fresh when it is not. Generally, the word \"fresh\" implies that food is not canned, cured, dehydrated, frozen or otherwise processed or preserved.</p>\n<p>Trademarks used to make a claim may also trigger additional labelling requirements. For example, in some situations, when a trademark implies a nutrition content claim, the product may be required to declare nutrition information, even though previously exempted. In addition, if a trademark includes or implies a health-related claim, it is subject to specific requirements. For more information, refer to <a href=\"/food-labels/labelling/industry/nutrition-labelling/exemptions/eng/1389198015395/1389198098450?chap=3\">Reasons for losing the exemption</a> and <a href=\"/food-labels/labelling/industry/health-claims-on-food-labels/eng/1392834838383/1392834887794\">Health claims</a>.</p>\r\n\r\n</section>\r\n\r\n<section>\r\n\r\n<h3 id=\"s5c3\">Government of Canada trademarks</h3>\r\n\r\n<p>Official symbols of the government, such as the Canadian flag, national emblem or crest, Health Canada or CFIA logo are ordinary trademarks that are protected against unauthorized use in Canada under paragraph 9(1)(n) of Canada's <i>Trademarks Act</i>, and protected internationally under article 6ter of the Paris Convention. As such, industry is not permitted to use the CFIA's trademark name (CFIA.ACIA) or terms closely resembling it (specifically, \"CFIA\" or \"Canadian Food Inspection Agency\") on product labels or in advertisements without express written consent from the CFIA.</p>\n\n<p>For more information, refer to <a href=\"/eng/1626884467839/1626884529209#s5c5\">National symbols</a>.</p>\n\r\n\r\n</section>\r\n\r\n<section>\r\n\r\n<h3 id=\"s6c3\">Inspection marks</h3>\r\n\r\n<p>Inspection marks are prescribed marks, stamps, seals, product legends, words or designs, or any combination of those. These include inspection legends and product legends (referred to as the <a href=\"/eng/1623967517085/1623967517522#c5\">Canada organic logo</a>) which are set out in Schedules 2 and 9 of the SFCR and are prescribed for the purposes of the definition of inspection mark in section 2 of SFCA. It is prohibited for a person to apply or use these inspection marks, unless specifically authorized by the SFCR [2, 14, SFCA; 179, 358, SFCR].</p>\n<p>Inspection legends are used for <a href=\"/eng/1630326254350/1630326374266#a11_3\">fish</a>, <a href=\"/eng/1632494849908/1632495277194#c11\">meat products</a> and <a href=\"/eng/1625836871571/1625837136204#c7\">processed egg products</a>.</p>\n\n\r\n\r\n</section>\r\n\r\n<section>\r\n\r\n<h2 id=\"c4\">Third party endorsements</h2>\r\n\r\n\r\n<div class=\"hrline\"></div>\r\n    \n\r\n<nav>\r\n<ul class=\"list-unstyled col-md-offset-1 mrgn-tp-md mrgn-bttm-md\">\r\n\r\n<li>\r\n<a href=\"#s7c4\">Third-party endorsement policy</a>\r\n\r\n</li>\r\n\r\n</ul>\r\n</nav>\r\n\n<p>For the purposes of food labelling and advertising, a third party endorsement means the approval or sanction of a food by any professional or organization, or any individual or group. The use of a name, logo, symbol, seal of approval or other certification mark of a third party-organization, whether on a food label or in an advertisement, may lead consumers to believe that the food is endorsed by this third party.</p>\n<p>Third-party endorsements may be considered misleading or deceptive when a food bearing an endorsement is represented as being superior to foods not bearing the endorsement. They may also be considered misleading if they are used in such a way as to suggest that consuming the food may, in and of itself, confer health benefits or prevent, treat or cure a disease.</p>\n\r\n\r\n\r\n</section>\r\n\r\n<section>\r\n\r\n<h3 id=\"s7c4\">Third-party endorsement policy</h3>\r\n\r\n<p>Third party endorsements or logos should be used with caution. Consumers must not be misled or deceived about the merits of a food, and they should be able to judge the merit of the endorsing organization. Third-party endorsements must:</p>\n<ul>\n<li>avoid giving the impression that a single food or brand of food is \"healthier\" than, or nutritionally superior to, other foods not  bearing the third party's name, statement, logo, symbol, seal of approval or other proprietary mark. Health is imparted by the total diet rather than by individual foods</li>\n<li>avoid giving the impression that the food is a treatment, preventative or cure for  disease. A third-party's name, statement, logo and so on must not suggest that a food may prevent a Schedule A disease. Such a suggestion is false and specifically prohibited by the FDA</li>\n</ul>\n<p>To do so, at least one of the following must appear on the label:</p>\n<ul>\n<li>a statement that clearly explains the reason for the appearance of the third party's name, statement, logo, <abbr lang=\"la\" title=\"et cetera\">etc.</abbr> (For example, is this a joint education program of Company X and Organization Y? Has Company X provided financial support, or is it a sponsor of a campaign such as a Nutrition Week Campaign of Organization Y? Is the symbol present because a certain amount of the\n</li>\n\n<li>the name of the third party (with or without its logo, symbol, or other proprietary mark) clearly shown, in conjunction with its nutrition recommendations or dietary guidelines or those it endorses. The nutrition recommendations of this third-party must be consistent with the recommended\n<a href=\"https://food-guide.canada.ca/en/\">Canada's food guide</a>\n<a href=\"https://food-guide.canada.ca/en/guidelines/\">Canada's Dietary Guidelines</a></li>\n\n<li>a clear indication that the name, statement, logo, <abbr lang=\"la\" title=\"et cetera\">etc.</abbr> of the third party does not constitute an endorsement of the food</li>\n</ul>\n<div class=\"well well-sm mrgn-bttm-md\">\n<section> \n<h4 class=\"mrgn-tp-sm h5\">Example</h4>\n \n<p>It is not acceptable to use the logo of the Canadian Dental Association on the label of sugar-free gum nor is it acceptable to state \"Recognized by the Canadian Dental Association to be safe for teeth\". The logo and statement imply that the gum is superior health-wise to others.</p>\n<p>However, the statement \"Sugar-free gums are recognized by the Canadian Dental Association to be safe for teeth\", which refers to all gum of that type, is acceptable if the use of the endorsement follows the above criteria.</p>\n</section>\n</div>\n<p>This policy applies to third-party endorsements from organizations providing health and nutrition information for a single food or single brand of food. This is the case whether the endorsement appears on food labels or in food advertisements, and whether the food is displayed in retail outlets, restaurants or food service establishments.</p>\n<p>This policy however does not apply to third-party endorsements by organizations providing health and nutrition information for groups or classes of foods. For example, it does not apply to:</p>\n<ul>\n<li>associations providing nutrition information to promote consumption of that type of foods  (for example, a dairy association promoting the consumption of dairy products)</li>\n<li>the gluten-free symbol of the Canadian Celiac Association. This symbol is recognized by consumers with celiac disease and is unlikely to be perceived by the general public as an endorsement by a health organization</li>\n<li>additional exceptions will be considered on a case-by-case basis</li>\n</ul>\r\n\r\n</section>\r\n\r\n<section>\r\n\r\n<h2 id=\"c5\">Awards, seals and certificates of approval</h2>\r\n\r\n\r\n<div class=\"hrline\"></div>\r\n    \n\n<p>When awards, seals and certificates of approval are cited, the consumer should be made fully aware of the reasons for which they were granted. Awards should be mentioned only if the praise worthy qualities for which the award was won are also outlined and are still valid for the product. The date of the award should also be mentioned. Any suggestion that the food product is nutritionally superior to others or that the award was won for reasons other than those for which it was actually won, may be misleading, false, and deceptive.</p>\n\r\n\r\n\r\n</section>\r\n\r\n<section>\r\n\r\n<h2 id=\"c6\">Definitions</h2>\r\n\r\n\r\n<div class=\"hrline\"></div>\r\n    \n\r\n<nav>\r\n<ul class=\"list-unstyled col-md-offset-1 mrgn-tp-md mrgn-bttm-md\">\r\n\r\n<li>\r\n<a href=\"#s8c6\">Sign</a>\r\n\r\n</li>\r\n\r\n<li>\r\n<a href=\"#s9c6\">Trademark</a>\r\n\r\n</li>\r\n\r\n<li>\r\n<a href=\"#s10c6\">Trade name</a>\r\n\r\n</li>\r\n\r\n</ul>\r\n</nav>\r\n\n\n\r\n\r\n\r\n</section>\r\n\r\n<section>\r\n\r\n<h3 id=\"s8c6\">Sign</h3>\r\n\r\n<p>Includes a word, a personal name, a design, a letter, a numeral, a colour, a figurative element, a three-dimensional shape, a hologram, a moving image, a mode of packaging goods, a sound, a scent, a taste, a texture and the positioning of a sign [2, <i>Trademarks Act</i>]</p>\r\n\r\n</section>\r\n\r\n<section>\r\n\r\n<h3 id=\"s9c6\">Trademark</h3>\r\n\r\n<ul>\n<li>A <a href=\"/food-labels/labelling/industry/pictures-vignettes-logos-and-trademarks-on-food-la/eng/1388352402139/1388352491636?chap=6#s8c6\">sign (definition)</a> or combination of signs that is used or proposed to be used by a person for the purpose of distinguishing or so as to distinguish their goods or services from those of others, or</li>\n<li>A certification mark [2, <i>Trademarks Act</i>]</li>\n  \n</ul>\n\r\n\r\n</section>\r\n\r\n<section>\r\n\r\n<h3 id=\"s10c6\">Trade name</h3>\r\n\r\n<p>The name under which any business is carried on, whether or not it is the name of a corporation, a partnership or an individual [2, <i>Trademarks Act</i>].</p>\r\n\r\n</section>\r\n\r\n\n\n\r\n        \r\n\r\n\r\n\r\n<div class=\"row\">\r\n \r\n\t\r\n\t\t\t\r\n\r\n<div class=\"col-xm-12 pagedetails container\">\r\n\t\t\t\t\r\n\r\n</div>\r\n\t\r\n</div>",
        "fr": "\r\n        \r\n        \n\n\r\n\r\n\r\n\r\n\r\n\r\n\r\n<h2>Sur cette page</h2>\r\n<ul class=\"list-unstyled col-md-offset-1 mrgn-tp-md mrgn-bttm-md\">\r\n\r\n<li>\r\n<a href=\"/etiquetage-des-aliments/etiquetage/industrie/images-vignettes-logos-et-marques-de-commerce-sur-/fra/1388352402139/1388352491636?chap=0#c1\">Aper\u00e7u</a>\r\n\r\n</li>\r\n\r\n<li>\r\n<a href=\"/etiquetage-des-aliments/etiquetage/industrie/images-vignettes-logos-et-marques-de-commerce-sur-/fra/1388352402139/1388352491636?chap=0#c2\">Images, vignettes et logos</a>\r\n\r\n<ul class=\"list-unstyled col-md-offset-1 mrgn-bttm-md\">\r\n\r\n<li>\r\n<a href=\"#s1c2\">Exigences g\u00e9n\u00e9rales </a>\r\n\r\n</li>\r\n\r\n<li>\r\n<a href=\"#s2c2\">Symboles en forme de c\u0153ur et all\u00e9gations relatives \u00e0 la sant\u00e9 cardiovasculaire</a>\r\n\r\n</li>\r\n\r\n<li>\r\n<a href=\"#s3c2\">Exceptions \u2013 Utilisations acceptables des symboles en forme de c\u0153ur et all\u00e9gations relatives \u00e0 la sant\u00e9 cardiovasculaire</a>\r\n\r\n</li>\r\n\r\n</ul>\r\n\r\n</li>\r\n\r\n<li>\r\n<a href=\"/etiquetage-des-aliments/etiquetage/industrie/images-vignettes-logos-et-marques-de-commerce-sur-/fra/1388352402139/1388352491636?chap=0#c3\">Marques de commerce</a>\r\n\r\n<ul class=\"list-unstyled col-md-offset-1 mrgn-bttm-md\">\r\n\r\n<li>\r\n<a href=\"#s4c3\">Utilisation de marques de commerce dans l'\u00e9tiquetage et la publicit\u00e9 concernant les aliments</a>\r\n\r\n</li>\r\n\r\n<li>\r\n<a href=\"#s5c3\">Marques de commerce du gouvernement du Canada</a>\r\n\r\n</li>\r\n\r\n<li>\r\n<a href=\"#s6c3\">Sceaux d'inspection</a>\r\n\r\n</li>\r\n\r\n</ul>\r\n\r\n</li>\r\n\r\n<li>\r\n<a href=\"/etiquetage-des-aliments/etiquetage/industrie/images-vignettes-logos-et-marques-de-commerce-sur-/fra/1388352402139/1388352491636?chap=0#c4\">Approbations de tiers</a>\r\n\r\n<ul class=\"list-unstyled col-md-offset-1 mrgn-bttm-md\">\r\n\r\n<li>\r\n<a href=\"#s7c4\">Politique sur l'approbation des tiers</a>\r\n\r\n</li>\r\n\r\n</ul>\r\n\r\n</li>\r\n\r\n<li>\r\n<a href=\"/etiquetage-des-aliments/etiquetage/industrie/images-vignettes-logos-et-marques-de-commerce-sur-/fra/1388352402139/1388352491636?chap=0#c5\">Prix, sceaux et certificats d\u2019approbation</a>\r\n\r\n</li>\r\n\r\n<li>\r\n<a href=\"/etiquetage-des-aliments/etiquetage/industrie/images-vignettes-logos-et-marques-de-commerce-sur-/fra/1388352402139/1388352491636?chap=0#c6\">D\u00e9finitions</a>\r\n\r\n<ul class=\"list-unstyled col-md-offset-1 mrgn-bttm-md\">\r\n\r\n<li>\r\n<a href=\"#s8c6\">Marque de commerce</a>\r\n\r\n</li>\r\n\r\n<li>\r\n<a href=\"#s9c6\">Nom commercial</a>\r\n\r\n</li>\r\n\r\n<li>\r\n<a href=\"#s10c6\">Signe</a>\r\n\r\n</li>\r\n\r\n</ul>\r\n\r\n</li>\r\n\r\n</ul>\r\n\r\n\r\n<section>\r\n\r\n<h2 id=\"c1\">Aper\u00e7u</h2>\r\n\r\n\r\n<div class=\"hrline\"></div>\r\n    \n\n<p>Les images, les vignettes, les logos, les approbations et les <a href=\"/etiquetage-des-aliments/etiquetage/industrie/images-vignettes-logos-et-marques-de-commerce-sur-/fra/1388352402139/1388352491636?chap=6#s8c6\">marques de commerce (d\u00e9finition)</a> contribuent \u00e0 l'impression globale de l'\u00e9tiquetage et de la publicit\u00e9 concernant les aliments et sont par cons\u00e9quent assujettis aux <a href=\"/fra/1392324632253/1392324755688\">Principes g\u00e9n\u00e9raux de l'\u00e9tiquetage et de la publicit\u00e9</a>\u00a0ainsi qu'\u00e0 toute autre exigence particuli\u00e8re.</p>\n\r\n\r\n\r\n</section>\r\n\r\n<section>\r\n\r\n<h2 id=\"c2\">Images, vignettes et logos</h2>\r\n\r\n\r\n<div class=\"hrline\"></div>\r\n    \n\r\n<nav>\r\n<ul class=\"list-unstyled col-md-offset-1 mrgn-tp-md mrgn-bttm-md\">\r\n\r\n<li>\r\n<a href=\"#s1c2\">Exigences g\u00e9n\u00e9rales </a>\r\n\r\n</li>\r\n\r\n<li>\r\n<a href=\"#s2c2\">Symboles en forme de c\u0153ur et all\u00e9gations relatives \u00e0 la sant\u00e9 cardiovasculaire</a>\r\n\r\n</li>\r\n\r\n<li>\r\n<a href=\"#s3c2\">Exceptions \u2013 Utilisations acceptables des symboles en forme de c\u0153ur et all\u00e9gations relatives \u00e0 la sant\u00e9 cardiovasculaire</a>\r\n\r\n</li>\r\n\r\n</ul>\r\n</nav>\r\n\n<p>Les images, les vignettes et les logos sont des types d'image qui figurent sur les \u00e9tiquettes des aliments et dans la publicit\u00e9.</p>\n\r\n\r\n\r\n</section>\r\n\r\n<section>\r\n\r\n<h3 id=\"s1c2\">Exigences g\u00e9n\u00e9rales </h3>\r\n\r\n<h4 class=\"h5\">Exactitude des illustrations</h4>\n\n<p>Les images et les graphiques sont des types d'aide communs que les fabricants ou les producteurs utilisent sur les \u00e9tiquettes et dans la publicit\u00e9. Lorsque des images et des graphiques sont utilis\u00e9s, ils ne doivent pas \u00eatre trompeurs ou mensongers, ni constituer une fausse d\u00e9claration quant \u00e0 la composition, aux qualit\u00e9s ou \u00e0 la valeur d'un produit.</p>\n<p>\u00c9galement, lorsqu'une image pr\u00e9tend \u00eatre celle de l'aliment mis en vente, le produit m\u00eame devrait \u00eatre reproduit. Par exemple, si le produit doit \u00eatre pr\u00e9par\u00e9, on devrait illustrer le produit pr\u00e9par\u00e9 selon le mode d'emploi.</p>\n<div class=\"well well-sm mrgn-bttm-md\">\n<h4 class=\"mrgn-tp-sm h5\">Exemple</h4>\n<p>Prenons un m\u00e9lange de jus fait \u00e0 partir \u00ab\u00a0de jus de pomme, de jus d'orange, de sucre et d'ar\u00f4mes\u00a0\u00bb, mais dont l'\u00e9tiquette indique comme nom de marque \u00ab\u00a0jus tropical\u00a0\u00bb et contient des images de noix de coco, de mangues, d'ananas et de papaye. Le nom de marque et les images sur cet emballage donnent l'impression que le produit est fait enti\u00e8rement \u00e0 partir de jus de noix de coco, de mangue, d'ananas et de papaye, ce qui n'est pas le cas. Cette repr\u00e9sentation sur l'\u00e9tiquette va donc \u00e0 l'encontre du paragraphe 6(1) de la <i>Loi sur la salubrit\u00e9 des aliments au Canada</i> (LSAC) et du paragraphe 5(1) de la <i>Loi sur les aliments et drogues</i> (LAD). Pour obtenir plus d'information, consulter <a href=\"/fra/1391025998183/1391026062752\">All\u00e9gations relatives \u00e0 la composition et \u00e0 la qualit\u00e9 des aliments</a>.</p>\n</div>\n<h4>Vignettes et ar\u00f4mes artificiels</h4>\n<p>Si une vignette ou une autre image sur l'\u00e9tiquette d'un aliment indique une substance naturelle (par exemple, image d'une pomme) et qu'un ar\u00f4me artificiel qui simule la substance est un ingr\u00e9dient de l'aliment (par exemple, ar\u00f4me artificiel de pomme), qu'il soit seul ou avec des agents aromatisants naturels, il faut d\u00e9clarer sur l'\u00e9tiquette que l'ingr\u00e9dient aromatisant ajout\u00e9 est artificiel, simul\u00e9 ou est une imitation [224(1), RSAC].</p>\n<p>Cette d\u00e9claration doit figurer en fran\u00e7ais et en anglais et doit \u00eatre de dimension au moins \u00e9gale \u00e0 celle requise pour les donn\u00e9es num\u00e9riques de la d\u00e9claration de la <a href=\"/etiquetage-des-aliments/etiquetage/industrie/quantite-nette/fra/1625703526033/1625703680279\">quantit\u00e9 nette</a> [206(1), 229(1)b), RSAC]. L'\u00e9nonc\u00e9 doit figurer\u00a0:</p>\n<ul>\n<li>sur la vignette ou partie de la vignette ou \u00e0 proximit\u00e9 de celle-ci, sur l\u2019espace principal, si\u00a0:\n<ul>\n<li>l'image figure sur l'espace principal [224(2)a), RSAC], ou </li>\n<li>l'image figure sur l'espace principal ainsi qu'\u00e0 un autre endroit sur l'\u00e9tiquette [224(2)c), RSAC]; ou</li>\n</ul>\n</li>\n<li>sur l'espace principal, \u00e0 proximit\u00e9 du nom commun, si la vignette se trouve sur une autre partie de l'\u00e9tiquette.</li>\n</ul>\n<p>Cette disposition s'applique aux aliments de consommation pr\u00e9emball\u00e9s. L'expression \u00ab\u00a0pr\u00e9sentation sugg\u00e9r\u00e9e\u00a0\u00bb n'\u00e9limine pas la n\u00e9cessit\u00e9 d'indiquer que le produit contient un ar\u00f4me artificiel.</p>\n<p>Cette disposition r\u00e9glementaire ne s'applique pas lorsqu'une vignette\u00a0:</p>\n<ul>\n<li>affiche une image d'une substance naturelle et qu'un ar\u00f4me artificiel qui ne simule pas la substance est un ingr\u00e9dient;\n<ul>\n<li>Exemple\u00a0: un biscuit aux bleuets et aux pommes fait \u00e0 partir de bleuets et d'un ar\u00f4me artificiel de pomme dont l'image montre un bleuet, mais aucune pomme;</li>\n</ul>\n</li>\n<li>affiche une image d'une substance naturelle et qu'un ar\u00f4me naturel qui simule la substance est un ingr\u00e9dient;\n<ul>\n<li>Exemple\u00a0: Image d'une cerise lorsqu'un ar\u00f4me d'amande naturel est ajout\u00e9 pour simuler l'ar\u00f4me de cerise. La liste d'ingr\u00e9dients devrait indiquer qu'il s'agit d'un \u00ab\u00a0ar\u00f4me naturel\u00a0\u00bb ou d'un \u00ab\u00a0ar\u00f4me d'amande naturel\u00a0\u00bb et non d'un \u00ab\u00a0ar\u00f4me de cerise naturel\u00a0\u00bb.</li>\n</ul>\n</li>\n</ul>\n<h4>Illustrations de personnes</h4>\n<p>Plusieurs principes r\u00e9gissent l'utilisation d'illustrations de personnes dans les publicit\u00e9s\u00a0:</p>\n<ul>\n<li>lorsque des images pr\u00e9tendent repr\u00e9senter une personne connue, la personne r\u00e9elle devrait figurer dans la publicit\u00e9;</li>\n<li>les repr\u00e9sentations de personnes professionnelles, comme des illustrations de laboratoires ou d'appareils scientifiques, ne devraient pas servir \u00e0 cr\u00e9er une \u00ab\u00a0atmosph\u00e8re\u00a0\u00bb si elles n'ont aucun lien direct avec le produit;</li>\n<li>les images \u00ab\u00a0avant et apr\u00e8s\u00a0\u00bb devraient \u00eatre \u00e9vit\u00e9es.</li>\n</ul>\r\n\r\n</section>\r\n\r\n<section>\r\n\r\n<h3 id=\"s2c2\">Symboles en forme de c\u0153ur et all\u00e9gations relatives \u00e0 la sant\u00e9 cardiovasculaire</h3>\r\n\r\n<p><img class=\"img-responsive\" alt=\"ceci est un exemple d'un symbole de c\u0153ur\" src=\"/DAM/DAM-food-aliments/STAGING/images-images/heart_symbol_1388372273662_fra.gif\"></p>\n<p>En g\u00e9n\u00e9ral, il n'est pas acceptable d'utiliser des symboles en forme de c\u0153ur et des all\u00e9gations relatives \u00e0 la sant\u00e9 cardiovasculaire pour d\u00e9crire un aliment ou un choix d'aliment, que ce soit sur des \u00e9tiquettes, dans des menus ou dans la  publicit\u00e9. Une utilisation combin\u00e9e peut cr\u00e9er la fausse impression que la consommation d'un aliment ou le choix d'un menu assure en soi la sant\u00e9  cardiovasculaire ou pr\u00e9vient les maladies cardiovasculaires.</p>\n<p>Plus particuli\u00e8rement, l'utilisation des symboles en forme de c\u0153ur ou du terme \u00ab\u00a0c\u0153ur\u00a0\u00bb est consid\u00e9r\u00e9e comme trompeuse si elle\u00a0:</p>\n<ul>\n<li>sugg\u00e8re ou sous-entend qu'un aliment particulier a une valeur nutritive sup\u00e9rieure \u00e0 celle d'autres aliments ou qu'il est plus sain que d'autres aliments;</li>\n<li>sugg\u00e8re que la consommation d'un aliment particulier  ou que le choix d'un menu procure en soi des bienfaits pour la sant\u00e9 et le syst\u00e8me cardiovasculaires.</li>\n</ul>\n<div class=\"well well-sm mrgn-bttm-md\">\n<section> \n<h4 class=\"mrgn-tp-sm h5\">Exemple</h4>\n   \n<p>Les programmes d'information sur la nutrition qui  incorporent la sant\u00e9 du c\u0153ur dans les restaurants ne peuvent identifier des  articles du menu \u00e0 l'aide d'un c\u0153ur. Des articles du menu peuvent par contre \u00eatre identifi\u00e9s au moyen d'un crochet (\u2713) pour que l'attention du consommateur soit attir\u00e9e sur des choix sains ou sant\u00e9, \u00e0 condition que les renseignements fournis respectent les exigences susmentionn\u00e9es et que la raison d'\u00eatre du programme soit claire.</p>\n</section>\n</div>\n<p>Les autorit\u00e9s sanitaires conviennent qu'il faut recommander au public d'adopter un seul mod\u00e8le d'alimentation saine. Cependant, m\u00eame si une alimentation saine peut aider \u00e0 r\u00e9duire le risque de maladies cardiovasculaires, il ne s'agit que d'un seul facteur parmi les multiples facteurs en cause.</p>\r\n\r\n</section>\r\n\r\n<section>\r\n\r\n<h3 id=\"s3c2\">Exceptions \u2013 Utilisations acceptables des symboles en forme de c\u0153ur et all\u00e9gations relatives \u00e0 la sant\u00e9 cardiovasculaire</h3>\r\n\r\n<h4>Symboles d'affection</h4>\n<p>On ne s'opposera pas \u00e0 l'utilisation de symboles en forme de c\u0153ur pour repr\u00e9senter l'affection ou la tendresse de mani\u00e8re traditionnelle, comme des bonbons \u00e0 la cannelle en forme de c\u0153ur, des bo\u00eetes de chocolats en forme de c\u0153ur ou des illustrations de  c\u0153ur sur les produits alimentaires vendus pour la Saint-Valentin.</p>\n<h4>Logo, nom ou programme d'un organisme de sant\u00e9</h4>\n<p>Les symboles en forme de c\u0153ur peuvent aussi \u00eatre acceptables sur des \u00e9tiquettes d'aliments ou dans la publicit\u00e9 sur les aliments lorsqu'ils apparaissent dans le logo ou le nom d'un organisme de sant\u00e9 ou lorsqu'ils sont utilis\u00e9s conjointement avec le programme d'information sur la sant\u00e9 de cet organisme, \u00e0 condition\u00a0:</p>\n<ul>\n<li>qu'ils ne donnent pas l'impression que l'aliment peut aider \u00e0 pr\u00e9venir, \u00e0 traiter ou \u00e0 gu\u00e9rir les maladies du c\u0153ur;</li>\n<li>que la repr\u00e9sentation graphique du nom ou du logo de l'organisme de sant\u00e9 respecte la <a href=\"/etiquetage-des-aliments/etiquetage/industrie/images-vignettes-logos-et-marques-de-commerce-sur-/fra/1388352402139/1388352491636?chap=4#s7c4\">politique sur l'approbation des tiers</a>.</li>\n</ul>\n<p>De plus, les expressions qui contiennent le terme \u00ab\u00a0c\u0153ur\u00a0\u00bb dans le nom d'un programme d'information d'un organisme de sant\u00e9 peuvent \u00eatre acceptables, \u00e0 condition que le programme soit d\u00e9sign\u00e9 comme tel.</p>\n<h4>Symboles en forme de c\u0153ur avec all\u00e9gations sant\u00e9 acceptables</h4>\n<p>On ne s'opposera pas \u00e0 l'utilisation de symboles en forme de c\u0153ur conjointement avec l'all\u00e9gation sant\u00e9 \u00ab\u00a0Une alimentation saine pauvre en graisses satur\u00e9es et en graisses trans peut r\u00e9duire le risque de maladie du c\u0153ur. (Nom de l'aliment) est pauvre en graisses satur\u00e9es et en graisses trans\u00a0\u00bb. Cependant, l'utilisation de ces symboles ne doit pas donner l'impression que l'aliment en soi peut avoir un effet positif sur la sant\u00e9, ou qu'il joue un r\u00f4le sup\u00e9rieur de r\u00e9duction du risque de maladie. Consulter <a href=\"/etiquetage-des-aliments/etiquetage/industrie/allegations-sante/fra/1392834838383/1392834887794\">All\u00e9gations sant\u00e9</a> pour plus d'information.</p>\r\n\r\n</section>\r\n\r\n<section>\r\n\r\n<h2 id=\"c3\">Marques de commerce</h2>\r\n\r\n\r\n<div class=\"hrline\"></div>\r\n    \n\r\n<nav>\r\n<ul class=\"list-unstyled col-md-offset-1 mrgn-tp-md mrgn-bttm-md\">\r\n\r\n<li>\r\n<a href=\"#s4c3\">Utilisation de marques de commerce dans l'\u00e9tiquetage et la publicit\u00e9 concernant les aliments</a>\r\n\r\n</li>\r\n\r\n<li>\r\n<a href=\"#s5c3\">Marques de commerce du gouvernement du Canada</a>\r\n\r\n</li>\r\n\r\n<li>\r\n<a href=\"#s6c3\">Sceaux d'inspection</a>\r\n\r\n</li>\r\n\r\n</ul>\r\n</nav>\r\n\n<p>Une <a href=\"/etiquetage-des-aliments/etiquetage/industrie/images-vignettes-logos-et-marques-de-commerce-sur-/fra/1388352402139/1388352491636?chap=6#s8c6\">marque de commerce (d\u00e9finition)</a> est un mot (ou des mots), un dessin, ou une combinaison de ces \u00e9l\u00e9ments, servant \u00e0 caract\u00e9riser les produits ou les services d'une personne ou d'un organisme. Une marque de commerce peut \u00eatre un nom de marque, un <a href=\"/etiquetage-des-aliments/etiquetage/industrie/images-vignettes-logos-et-marques-de-commerce-sur-/fra/1388352402139/1388352491636?chap=6#s9c6\">nom commercial (d\u00e9finition)</a>, un logo, un slogan ou une marque exclusive d'une tierce partie, entre autres, qui sert \u00e0 promouvoir l'image de marque et \u00e0 faire la publicit\u00e9 d'un produit, conform\u00e9ment \u00e0 la <a href=\"/francais/reg/jredirect2.shtml?trademark\"><i>Loi sur les marques de commerce</i></a>.</p>\n<p>Les marques de commerce peuvent ou non \u00eatre d\u00e9pos\u00e9es; ce processus n'est pas obligatoire. Toutefois, lorsque des  marques de commerce, des noms commerciaux ou des \u00e9tiquettes sont d\u00e9pos\u00e9s, l'enregistrement n'emp\u00eache pas l'Agence canadienne d'inspection des aliments (ACIA) d'appliquer les lois qui rel\u00e8vent de sa comp\u00e9tence lorsque la marque de commerce contrevient \u00e0 des dispositions pertinentes.</p>\n<p>Pour plus d'information sur les marques de commerce ou les autres types de propri\u00e9t\u00e9 intellectuelle, consulter le site <span lang=\"en\">web</span> de l'<a href=\"http://www.opic.ic.gc.ca/eic/site/cipointernet-internetopic.nsf/fra/h_wr00002.html\">Office de la propri\u00e9t\u00e9 intellectuelle du Canada</a>.</p>\n\r\n\r\n\r\n</section>\r\n\r\n<section>\r\n\r\n<h3 id=\"s4c3\">Utilisation de marques de commerce dans l'\u00e9tiquetage et la publicit\u00e9 concernant les aliments</h3>\r\n\r\n<p>L'utilisation de marques de commerce dans l'\u00e9tiquetage et la publicit\u00e9 concernant les aliments vendus au Canada doit \u00eatre conforme aux lois f\u00e9d\u00e9rales applicables relatives aux aliments, dont la LAD et la LSAC.</p>\n<p>Les marques de commerce sont souvent utilis\u00e9es sur des produits alimentaires comme des all\u00e9gations portant sur\u00a0:</p>\n<ul>\n<li>la nature, la qualit\u00e9, la quantit\u00e9 ou la composition de l'aliment;</li>\n<li>la m\u00e9thode de production de l'aliment;</li>\n<li>le lieu d'origine de l'aliment;</li>\n<li>la relation entre la consommation de l'aliment ou d'un ingr\u00e9dient de l'aliment et la sant\u00e9.</li>\n</ul>\n<p>Ces all\u00e9gations, implicites ou explicites, ne doivent pas \u00eatre utilis\u00e9es de mani\u00e8re fausse, trompeuse ou susceptible de cr\u00e9er une fausse impression aupr\u00e8s des consommateurs.</p>\n<p>Par exemple, selon le produit, l'utilisation du terme \u00ab\u00a0frais\u00a0\u00bb dans le nom commercial d'un produit pourrait \u00eatre consid\u00e9r\u00e9e comme trompeuse pour les consommateurs si elle suppose que l'aliment en soi est frais alors qu'il ne l'est pas. G\u00e9n\u00e9ralement, le terme \u00ab\u00a0frais\u00a0\u00bb suppose que l'aliment n'est pas en conserve, trait\u00e9, d\u00e9shydrat\u00e9, congel\u00e9, ou transform\u00e9 ou conserv\u00e9 par une autre m\u00e9thode.</p>\n<p>Les marques de commerce utilis\u00e9es pour faire une all\u00e9gation peuvent \u00e9galement donner lieu \u00e0 des exigences suppl\u00e9mentaires en mati\u00e8re d'\u00e9tiquetage. Par exemple, dans certains cas, lorsqu'une marque de commerce sous-entend une all\u00e9gation relative \u00e0 la teneur nutritive, il faut peut-\u00eatre d\u00e9clarer les renseignements nutritionnels du produit, m\u00eame s'il en avait \u00e9t\u00e9 exempt\u00e9 auparavant. De plus, si une marque de commerce contient ou sous-entend une all\u00e9gation sant\u00e9, elle est assujettie \u00e0 des exigences particuli\u00e8res. Pour plus d'information \u00e0 ce sujet, consulter <a href=\"/etiquetage-des-aliments/etiquetage/industrie/etiquetage-nutritionnel/exemptions/fra/1389198015395/1389198098450?chap=3\">Raisons justifiant la perte de l'exemption</a> et <a href=\"/etiquetage-des-aliments/etiquetage/industrie/allegations-sante/fra/1392834838383/1392834887794\">All\u00e9gations sant\u00e9</a>.</p>\r\n\r\n</section>\r\n\r\n<section>\r\n\r\n<h3 id=\"s5c3\">Marques de commerce du gouvernement du Canada</h3>\r\n\r\n<p>Les symboles officiels du gouvernement, comme le drapeau canadien et l'embl\u00e8me ou l'\u00e9cusson national, le logo de Sant\u00e9 Canada ou de l'ACIA sont des marques de commerce ordinaires qui sont prot\u00e9g\u00e9es contre l'utilisation non autoris\u00e9e au Canada en vertu de l'alin\u00e9a 9(1)n) de la <i>Loi sur les marques de commerce</i> et sont prot\u00e9g\u00e9es \u00e0 l'\u00e9chelle internationale en vertu de l'article 6ter de la Convention de Paris. Ainsi, l'industrie n'est pas permise d'utiliser le nom de la marque commerce de l'ACIA (CFIA.ACIA) ou des termes qui y ressemblent \u00e9troitement (sp\u00e9cifiquement, \u00ab\u00a0ACIA\u00a0\u00bb ou \u00ab\u00a0Agence canadienne d'inspection des aliments\u00a0\u00bb) sur les \u00e9tiquettes de produits ou dans les publicit\u00e9s sans le consentement expr\u00e8s et \u00e9crit de l'ACIA.</p>\n<p>Pour plus d'information \u00e0 ce sujet, consulter la page <a href=\"/fra/1626884467839/1626884529209#s5c5\">Symboles nationaux</a>.</p>\r\n\r\n</section>\r\n\r\n<section>\r\n\r\n<h3 id=\"s6c3\">Sceaux d'inspection</h3>\r\n\r\n<p>Les sceaux d'inspection comprennent toute marque, cachet, estampille, mot, dessin, impression ou combinaison de ceux-ci, y compris les estampilles d'inspection et les estampilles pour les produits biologiques (aussi nomm\u00e9 le <a href=\"/fra/1623967517085/1623967517522#c5\">logo \u00ab\u00a0Biologique Canada\u00a0\u00bb</a>) qui correspondent aux figures dans les annexes 2 et 9 du RSAC et qui sont pr\u00e9vues afin de r\u00e9pondre \u00e0 la d\u00e9finition de sceau d'inspection donn\u00e9e \u00e0 l'article 2 de la LSAC. Il est interdit \u00e0 toute personne d'apposer ou d'utiliser un sceau d'inspection sans autorisation r\u00e8glementaire [2,14, LSAC; 179, 358, RSAC].</p>\n<p>Les estampilles d'inspection sont uniquement pr\u00e9vues pour le <a href=\"/fra/1630326254350/1630326374266#a11_3\">poisson</a>, les <a href=\"/fra/1632494849908/1632495277194#c11\">produits de viande</a>, ainsi que les <a href=\"/fra/1625836871571/1625837136204#c7\">produits d'\u0153ufs transform\u00e9s</a>.</p>\r\n\r\n</section>\r\n\r\n<section>\r\n\r\n<h2 id=\"c4\">Approbations de tiers</h2>\r\n\r\n\r\n<div class=\"hrline\"></div>\r\n    \n\r\n<nav>\r\n<ul class=\"list-unstyled col-md-offset-1 mrgn-tp-md mrgn-bttm-md\">\r\n\r\n<li>\r\n<a href=\"#s7c4\">Politique sur l'approbation des tiers</a>\r\n\r\n</li>\r\n\r\n</ul>\r\n</nav>\r\n\n<p>Pour les besoins de l'\u00e9tiquetage et de la publicit\u00e9 concernant les aliments, l'approbation d'un tiers est synonyme  d'approbation ou de sanction d'un aliment par un professionnel ou un organisme, une personne ou un groupe. L'utilisation du nom, du logo, du symbole, du sceau d'approbation ou d'une autre marque de certification d'un tiers sur l'\u00e9tiquette ou dans l'annonce d'un aliment, peut \u00eatre per\u00e7ue par les consommateurs comme un signe d'approbation de cet aliment par l'organisme tiers.</p>\n<p>Les approbations de tiers peuvent \u00eatre consid\u00e9r\u00e9es comme trompeuses ou mensong\u00e8res, car un aliment qui porte une telle approbation peut \u00eatre per\u00e7u comme \u00e9tant sup\u00e9rieur \u00e0 un aliment qui ne porte pas une telle approbation. Elles peuvent \u00eatre consid\u00e9r\u00e9es comme trompeuses lorsqu'elles sont utilis\u00e9es de fa\u00e7on \u00e0 laisser supposer que la consommation de cet aliment peut conf\u00e9rer des avantages pour la sant\u00e9, pr\u00e9venir, traiter ou gu\u00e9rir une maladie.</p>\n\r\n\r\n\r\n</section>\r\n\r\n<section>\r\n\r\n<h3 id=\"s7c4\">Politique sur l'approbation des tiers</h3>\r\n\r\n<p>Les approbations de tiers et l'utilisation de logos doivent \u00eatre faites avec prudence. Les consommateurs ne doivent pas \u00eatre tromp\u00e9s ou induits en erreur quant aux propri\u00e9t\u00e9s d'un aliment et ils devraient pouvoir \u00e9valuer les intentions de\n</p>\n<ul>\n<li>\u00e9viter de laisser croire qu'un aliment ou une marque d'aliment est \u00ab\u00a0plus sain\u00a0\u00bb ou qu'il a une valeur nutritive sup\u00e9rieure \u00e0 d'autres aliments ne portant pas le nom, la d\u00e9claration, le logo, le symbole, le sceau d'approbation ou\n    toute autre marque d\u00e9pos\u00e9e du tiers. La sant\u00e9 est tributaire du r\u00e9gime alimentaire global d'un individu plut\u00f4t que de la\n</li>\n<li>\u00e9viter de laisser croire que l'aliment constitue un traitement, une mesure pr\u00e9ventive d'une maladie ou un moyen de gu\u00e9rison. Les \u00e9l\u00e9ments tels que le nom, la d\u00e9claration ou le logo d'un tiers ne doivent pas laisser supposer qu'un aliment peut pr\u00e9venir, gu\u00e9rir ou traiter l'une des maladies \u00e9nonc\u00e9es \u00e0 l'annexe A de la LAD. Une telle suggestion est erron\u00e9e et express\u00e9ment interdite par cette loi.</li>\n</ul>\n<p>Par cons\u00e9quent, l'une ou l'autre des indications suivantes doit figurer sur l'\u00e9tiquette\u00a0:</p>\n<ul>\n<li>l'utilisation des \u00e9l\u00e9ments tels que le nom, la d\u00e9claration, le logo d'un tiers, doit \u00eatre clairement expliqu\u00e9e (par exemple, s'agit-il d'un programme \u00e9ducatif conjoint de la soci\u00e9t\u00e9 X et de l'organisme Y? Est-ce que la\n</li>\n<li>indiquer clairement le nom du tiers (avec ou sans son logo, son symbole, ou toute autre marque d\u00e9pos\u00e9e) conjointement avec ses recommandations ou ses lignes directrices en mati\u00e8re de nutrition ou avec celles qu'il approuve. Les recommandations en mati\u00e8re de nutrition de ce tiers doivent \u00eatre conformes \u00e0 celles du <a href=\"http://www.hc-sc.gc.ca/fn-an/food-guide-aliment/index-fra.php\">Guide alimentaire canadien</a> et des <a href=\"https://guide-alimentaire.canada.ca/fr/directrices/\">Lignes directrices canadiennes en mati\u00e8re d\u2019alimentation</a>;</li>\n<li>indiquer clairement que le nom, la d\u00e9claration, le logo, <abbr title=\"et cetera\" lang=\"la\">etc.</abbr>, du tiers ne constituent pas une approbation de l'aliment.</li>\n</ul>\n<div class=\"well well-sm mrgn-bttm-md\">\n<h4 class=\"mrgn-tp-sm h5\">Exemple</h4>\n<p>Il n'est pas acceptable d'utiliser le logo de l'Association dentaire canadienne sur l'\u00e9tiquette d'une gomme sans sucre ni de d\u00e9clarer \u00ab\u00a0reconnue comme \u00e9tant s\u00fbre pour les dents par l'Association dentaire canadienne\u00a0\u00bb.\n</p>\n<p>Toutefois, l'\u00e9nonc\u00e9 \u00ab\u00a0Les gommes sans sucre sont reconnues par l'Association dentaire canadienne comme \u00e9tant s\u00fbres pour les dents\u00a0\u00bb, qui fait r\u00e9f\u00e9rence \u00e0 toutes les gommes de ce type, est acceptable si l'utilisation de\n</p>\n</div>\n<p>Cette politique s'applique aux approbations de tiers par les organismes offrant de l'information sur la sant\u00e9 et la nutrition pour un aliment ou une marque d'aliment en particulier. Elle s'applique notamment lorsque l'approbation figure sur l'\u00e9tiquette de l'aliment ou dans les annonces et lorsque l'aliment est expos\u00e9 dans un point de vente, un restaurant ou tout autre \u00e9tablissement de service alimentaire.</p>\n<p>Cependant, cette politique ne s'applique pas aux approbations de tiers par les organismes offrant de l'information sur la sant\u00e9 et la nutrition pour les groupes et cat\u00e9gories d'aliments. Par exemple, la politique ne s'applique pas dans les cas suivants\u00a0:</p>\n<ul>\n<li>les associations qui fournissent des renseignements nutritionnels pour promouvoir la consommation de ce type d'aliment (par exemple, une association de producteurs laitiers qui fait la promotion de la consommation de produits laitiers);</li>\n<li>le symbole adopt\u00e9 par l'Association canadienne de la maladie c\u0153liaque pour indiquer l'absence de gluten. Ce symbole est connu des consommateurs atteints de la maladie c\u0153liaque, il est donc peu probable que le grand public le per\u00e7oit comme une approbation par un organisme de sant\u00e9;</li>\n<li>d'autres exceptions pourraient \u00eatre \u00e9tudi\u00e9es, au cas par cas.</li>\n</ul>\r\n\r\n</section>\r\n\r\n<section>\r\n\r\n<h2 id=\"c5\">Prix, sceaux et certificats d\u2019approbation</h2>\r\n\r\n\r\n<div class=\"hrline\"></div>\r\n    \n\n<p>Lorsqu'un prix, un sceau ou un certificat d'approbation est mentionn\u00e9, le consommateur devrait \u00eatre avis\u00e9 de la raison pour laquelle le prix a \u00e9t\u00e9 d\u00e9cern\u00e9. Un prix ne devrait pas \u00eatre mentionn\u00e9 \u00e0 moins de d\u00e9voiler \u00e9galement les qualit\u00e9s exceptionnelles qui ont justifi\u00e9 son attribution et de s'assurer qu'elles continuent de s'appliquer au produit. En g\u00e9n\u00e9ral, la date de l'attribution du prix devrait \u00e9galement \u00eatre indiqu\u00e9e. Par ailleurs, il faut \u00e9viter de donner la fausse impression que le produit est sup\u00e9rieur aux autres et que le sceau ou le certificat d'approbation a \u00e9t\u00e9 \u00e9mis pour d'autres motifs que ceux pour lesquels il a \u00e9t\u00e9 attribu\u00e9.</p>\n\r\n\r\n\r\n</section>\r\n\r\n<section>\r\n\r\n<h2 id=\"c6\">D\u00e9finitions</h2>\r\n\r\n\r\n<div class=\"hrline\"></div>\r\n    \n\r\n<nav>\r\n<ul class=\"list-unstyled col-md-offset-1 mrgn-tp-md mrgn-bttm-md\">\r\n\r\n<li>\r\n<a href=\"#s8c6\">Marque de commerce</a>\r\n\r\n</li>\r\n\r\n<li>\r\n<a href=\"#s9c6\">Nom commercial</a>\r\n\r\n</li>\r\n\r\n<li>\r\n<a href=\"#s10c6\">Signe</a>\r\n\r\n</li>\r\n\r\n</ul>\r\n</nav>\r\n\n\n\r\n\r\n\r\n</section>\r\n\r\n<section>\r\n\r\n<h3 id=\"s8c6\">Marque de commerce</h3>\r\n\r\n<ul>\n<li>un <a href=\"/etiquetage-des-aliments/etiquetage/industrie/images-vignettes-logos-et-marques-de-commerce-sur-/fra/1388352402139/1388352491636?chap=6#s10c6\">signe (d\u00e9finition)</a> ou combinaison de signes qui est employ\u00e9 par une personne ou que celle-ci projette d\u2019employer pour distinguer, ou de fa\u00e7on \u00e0 distinguer, ses produits ou services de ceux d\u2019autres personnes;</li>\n<li>une marque de certification [2, <i>Loi sur les marques de commerce</i>].</li>\n</ul>\r\n\r\n</section>\r\n\r\n<section>\r\n\r\n<h3 id=\"s9c6\">Nom commercial</h3>\r\n\r\n<p>Nom sous lequel une entreprise est exerc\u00e9e, qu'il s'agisse ou non d'une personne morale, d'une soci\u00e9t\u00e9 de personnes ou d'un particulier [2, <i>Loi sur les marques de commerce</i>].</p>\r\n\r\n</section>\r\n\r\n<section>\r\n\r\n<h3 id=\"s10c6\">Signe</h3>\r\n\r\n<p>Vise notamment les mots, les noms de personne, les dessins, les lettres, les chiffres, les couleurs, les \u00e9l\u00e9ments figuratifs, les formes tridimensionnelles, les hologrammes, les images en mouvement, les fa\u00e7ons d\u2019emballer les produits, les sons, les odeurs, les go\u00fbts et les textures ainsi que la position de tout signe [2, <i>Loi sur les marques de commerce</i>].</p>\r\n\r\n</section>\r\n\r\n<div class=\"clear\"></div>\r\n\n\n\r\n        \r\n\r\n<div class=\"row\">\r\n \r\n\t\t\t\r\n\t\t\t\r\n\r\n\t\t\r\n\t\r\n</div>"
    },
    "js": {
        "en": "",
        "fr": ""
    },
    "success": true,
    "chat_wizard": false
}