{
    "dcr_id": "1515675882648",
    "lang": "en",
    "type_name": "intra-intra/news-nouv",
    "approvalsadvisor": "ricky.lee@canada.ca",
    "approvalsdirector": "sylvie.landry@agr.gc.ca",
    "submitername": "Jessica Normoyle",
    "submiteremail": "jessica.normoyle@agr.gc.ca",
    "submiterphoneNumber": "613-773-3441",
    "issued": "2018-01-11",
    "translateReqNumber": "null"
}