{
    "dcr_id": "1519948683900",
    "lang": "en",
    "type_name": "intra-intra/news-nouv",
    "approvalsadvisor": "stela.susic@canada.ca",
    "approvalsdirector": "jeff.lamirande@canada.ca",
    "submitername": "Sylvain Côté",
    "submiteremail": "sylvain.cote3@canada.ca",
    "submiterphoneNumber": "514-244-7050",
    "issued": "2018-03-08",
    "translateReqNumber": "null"
}