{
    "dcr_id": "1520358322752",
    "lang": "en",
    "type_name": "intra-intra/news-nouv",
    "approvalsadvisor": "stela.susic@agr.gc.ca",
    "approvalsdirector": "gaea.guruprasad@agr.gc.ca",
    "submitername": "Seana Collins",
    "submiteremail": "seana.collins@agr.gc.ca",
    "submiterphoneNumber": "902-365-8466",
    "issued": "2018-03-08",
    "translateReqNumber": "null"
}