{
    "dcr_id": "1531838097591",
    "lang": "en",
    "type_name": "intra-intra/news-nouv",
    "approvalsadvisor": "natalie.ekholm@canada.ca",
    "approvalsdirector": "Chris.Keith@agr.gc.ca",
    "submitername": "Amanda Benwell",
    "submiteremail": "amanda.benwell@canada.ca",
    "submiterphoneNumber": "613-759-1626",
    "issued": "2018-07-19",
    "translateReqNumber": "180712-22"
}