{
    "dcr_id": "1537365214230",
    "lang": "en",
    "type_name": "intra-intra/news-nouv",
    "approvalsadvisor": "natalie.ekholm@canada.ca",
    "approvalsdirector": "denna.dougan@canada.ca",
    "submitername": "Melanie Russo",
    "submiteremail": "melanie.russo@canada.ca",
    "submiterphoneNumber": "613-773-0447",
    "issued": "2018-09-20",
    "translateReqNumber": "180918-20"
}