{
    "dcr_id": "1539090987599",
    "lang": "en",
    "type_name": "intra-intra/news-nouv",
    "approvalsadvisor": "jeff.wright@canada.ca",
    "approvalsdirector": "genevieve.smith@canada.ca",
    "submitername": "Jessica Livermore",
    "submiteremail": "jessica.livermore@canada.ca",
    "submiterphoneNumber": "613-773-1365",
    "issued": "2018-10-11",
    "translateReqNumber": "181003-28"
}