{
    "dcr_id": "1542741131522",
    "lang": "en",
    "type_name": "intra-intra/news-nouv",
    "approvalsadvisor": "Stela.Susic@canada.ca",
    "approvalsdirector": "anne.lacombe@canada.ca",
    "submitername": "Martin Fournier",
    "submiteremail": "martin.fournier@canada.ca",
    "submiterphoneNumber": "613-792-3420",
    "issued": "2018-11-21",
    "translateReqNumber": "00000"
}