{
    "dcr_id": "1542299248183",
    "lang": "en",
    "type_name": "intra-intra/news-nouv",
    "approvalsadvisor": "Jeff.wright@canada.ca",
    "approvalsdirector": "jill.hull2@canada.ca",
    "submitername": "Donna DoRego Vital",
    "submiteremail": "donna.doregovital@canada.ca",
    "submiterphoneNumber": "819-962-1458",
    "issued": "2018-11-22",
    "translateReqNumber": "AAFC-181106-46M"
}