{
    "dcr_id": "1544012005741",
    "lang": "en",
    "type_name": "intra-intra/news-nouv",
    "approvalsadvisor": "cathy.sleeth@canada.ca",
    "approvalsdirector": "Scott.aughey@canada.ca",
    "submitername": "Lynn Bertrand",
    "submiteremail": "Lynn.bertrand@canada.ca",
    "submiterphoneNumber": "613-773-1281",
    "issued": "2018-12-06",
    "translateReqNumber": "AAFC-181130-27"
}