{
    "dcr_id": "1547817887695",
    "lang": "en",
    "type_name": "intra-intra/news-nouv",
    "approvalsadvisor": "cathy.sleeth@canada.ca",
    "approvalsdirector": "scott.aughey@canada.ca",
    "submitername": "scott aughey",
    "submiteremail": "scott.aughey@canada.ca",
    "submiterphoneNumber": "613-773-2380",
    "issued": "2019-01-24",
    "translateReqNumber": "0000"
}