{
    "dcr_id": "1547649801849",
    "lang": "en",
    "type_name": "intra-intra/news-nouv",
    "approvalsadvisor": "nadine.boyd@canada.ca",
    "approvalsdirector": "alexandra.lozano@canada.ca",
    "submitername": "Nadine Boyd",
    "submiteremail": "nadine.boyd@canada.ca",
    "submiterphoneNumber": "613-773-2478",
    "issued": "2019-01-17",
    "translateReqNumber": "AAFC-190114-22"
}