{
    "dcr_id": "1547151222153",
    "lang": "en",
    "type_name": "intra-intra/news-nouv",
    "approvalsadvisor": "Stela.Susic@canada.ca",
    "approvalsdirector": "Leigh.Bain@canada.ca",
    "submitername": "Lisa Picard",
    "submiteremail": "Lisa.Picard@canada.ca",
    "submiterphoneNumber": "613-773-0395",
    "issued": "2019-01-16",
    "translateReqNumber": "190108-14"
}