{
    "dcr_id": "1551729737612",
    "lang": "en",
    "type_name": "intra-intra/news-nouv",
    "approvalsadvisor": "irina.andritoiu@canada.ca",
    "approvalsdirector": "jill.hull2@canada.ca",
    "submitername": "Irina Andritoiu",
    "submiteremail": "irina.andritoiu@canada.ca",
    "submiterphoneNumber": "613-773-2785",
    "issued": "2019-03-07",
    "translateReqNumber": " AAFC-190225-16"
}