{
    "dcr_id": "1551717820067",
    "lang": "en",
    "type_name": "intra-intra/news-nouv",
    "approvalsadvisor": "andrea.cameron@canada.ca",
    "approvalsdirector": "emily.dipaolo@canada.ca",
    "submitername": "Andrea Cameron",
    "submiteremail": "andrea.cameron@canada.ca",
    "submiterphoneNumber": "613-773-0653",
    "issued": "2019-03-04",
    "translateReqNumber": "n/a"
}