{
    "dcr_id": "1552065470503",
    "lang": "en",
    "type_name": "intra-intra/news-nouv",
    "approvalsadvisor": "andrea.cameron@canada.ca",
    "approvalsdirector": "nina.hamad@canada.ca",
    "submitername": "justine walker",
    "submiteremail": "justine.walker2@canada.ca",
    "submiterphoneNumber": "613-773-0443",
    "issued": "2019-03-08",
    "translateReqNumber": "Don't have access to request number"
}