{
    "dcr_id": "1555430002251",
    "lang": "en",
    "type_name": "intra-intra/news-nouv",
    "approvalsadvisor": "Irina.Andritoiu@canada.ca",
    "approvalsdirector": "Frederic.Seppey@canada.ca",
    "submitername": "Deb O'Neil",
    "submiteremail": "deborah.oneil@canada.ca",
    "submiterphoneNumber": "613-773-2762",
    "issued": "2019-04-18",
    "translateReqNumber": "None - information from the website"
}