{
    "dcr_id": "1556557512925",
    "lang": "en",
    "type_name": "intra-intra/news-nouv",
    "approvalsadvisor": "Stela.susic@canada.ca",
    "approvalsdirector": "jacint.boucher@canada.ca",
    "submitername": "Marc Ouellet",
    "submiteremail": "marc.ouellet3@canada.ca",
    "submiterphoneNumber": "506-777-3744",
    "issued": "2019-04-29",
    "translateReqNumber": "N/A"
}