{
    "dcr_id": "1556628209400",
    "lang": "en",
    "type_name": "intra-intra/news-nouv",
    "approvalsadvisor": "Stela.Susic@canada.ca",
    "approvalsdirector": "kimberly.saunders@canada.ca",
    "submitername": "Nathalie Potvin",
    "submiteremail": "nathalie.potvin2@canada.ca",
    "submiterphoneNumber": "613-773-2011",
    "issued": "2019-05-02",
    "translateReqNumber": "AAFC-190424-51"
}