{
    "dcr_id": "1557234218722",
    "lang": "en",
    "type_name": "intra-intra/news-nouv",
    "approvalsadvisor": "jason.ramey@canada.ca",
    "approvalsdirector": "jason.ramey@canada.ca",
    "submitername": "Justine Walker",
    "submiteremail": "justine.walker2@canada.ca",
    "submiterphoneNumber": "613-773-0443",
    "issued": "2019-05-09",
    "translateReqNumber": "n/a"
}