{
    "dcr_id": "1560871942851",
    "lang": "en",
    "type_name": "intra-intra/news-nouv",
    "approvalsadvisor": "kathryn.hunt@canada.ca",
    "approvalsdirector": "kathryn.hunt@canada.ca",
    "submitername": "Kathryn Hunt",
    "submiteremail": "kathryn.hunt@canada.ca",
    "submiterphoneNumber": "613-773-2262",
    "issued": "2019-06-20",
    "translateReqNumber": "n/a"
}