{
    "dcr_id": "1561399306752",
    "lang": "en",
    "type_name": "intra-intra/news-nouv",
    "approvalsadvisor": "robert.dion@canada.ca",
    "approvalsdirector": "sophie.bedard@canada.ca",
    "submitername": "Dominique Charland",
    "submiteremail": "dominique.charland@canada.ca",
    "submiterphoneNumber": "613-773-1071",
    "issued": "2019-06-27",
    "translateReqNumber": "None"
}