{
    "dcr_id": "1565713704188",
    "lang": "en",
    "type_name": "intra-intra/news-nouv",
    "approvalsadvisor": "justine.walker2@canada.ca",
    "approvalsdirector": "jacint.boucher@canada.ca",
    "submitername": "Louise Pageau",
    "submiteremail": "louise.pageau@canada.ca",
    "submiterphoneNumber": "613-773-0252",
    "issued": "2019-08-15",
    "translateReqNumber": "10110932"
}