{
    "dcr_id": "1566486851076",
    "lang": "en",
    "type_name": "intra-intra/news-nouv",
    "approvalsadvisor": "nina.hamad@canada.ca",
    "approvalsdirector": "sonia.forget@canada.ca",
    "submitername": "Amy Lin",
    "submiteremail": "amy.lin@canada.ca",
    "submiterphoneNumber": "613-773-2785",
    "issued": "2019-08-22",
    "translateReqNumber": "190820-33"
}