{
    "dcr_id": "1566411031739",
    "lang": "en",
    "type_name": "intra-intra/news-nouv",
    "approvalsadvisor": "natalie.ekholm@canada.ca",
    "approvalsdirector": "lesleigh.smith@canada.ca",
    "submitername": "Bruce Radburn",
    "submiteremail": "bruce.radburn@canada.ca",
    "submiterphoneNumber": "613-795-3261",
    "issued": "2019-08-22",
    "translateReqNumber": "AAFC-190809-28"
}