{
    "dcr_id": "1571760602092",
    "lang": "en",
    "type_name": "intra-intra/news-nouv",
    "approvalsadvisor": "stela.susic@canada.ca",
    "approvalsdirector": "jacint.boucher@canada.ca",
    "submitername": "marlo khoury",
    "submiteremail": "marlo.khoury@canada.ca",
    "submiterphoneNumber": "137-731-6358",
    "issued": "2019-10-25",
    "translateReqNumber": "AAFC-191015-28"
}