{
    "dcr_id": "1571678602458",
    "lang": "en",
    "type_name": "intra-intra/news-nouv",
    "approvalsadvisor": "amy.lin@canada.ca",
    "approvalsdirector": "michael.whittaker@canada.ca",
    "submitername": "Lisa Gillies",
    "submiteremail": "lisa.gillies@canada.ca",
    "submiterphoneNumber": "306-523-6503",
    "issued": "2019-10-24",
    "translateReqNumber": "AAFC-191017-29"
}