{
    "dcr_id": "1572286937582",
    "lang": "en",
    "type_name": "intra-intra/news-nouv",
    "approvalsadvisor": "stela.susic@canada.ca",
    "approvalsdirector": "jacint.boucher@canada.ca",
    "submitername": "Marlo Khoury",
    "submiteremail": "marlo.khoury@canada.ca",
    "submiterphoneNumber": "613-773-1638",
    "issued": "2019-10-30",
    "translateReqNumber": "AAFC-191023-3"
}