{
    "dcr_id": "1574793430578",
    "lang": "en",
    "type_name": "intra-intra/news-nouv",
    "approvalsadvisor": "Natalie.ekholm@canada.ca",
    "approvalsdirector": "daryl.nearing@canada.ca",
    "submitername": "Lesleigh Smith",
    "submiteremail": "lesleigh.smith@canada.ca",
    "submiterphoneNumber": "613-773-2885",
    "issued": "2019-11-28",
    "translateReqNumber": "AAFC-191125-39"
}