{
    "dcr_id": "1574181153072",
    "lang": "en",
    "type_name": "intra-intra/news-nouv",
    "approvalsadvisor": "stela.susic@canada.ca",
    "approvalsdirector": "mario.gaulin@canada.ca",
    "submitername": "Nancy Gilbert",
    "submiteremail": "nancy.gilbert@canada.ca",
    "submiterphoneNumber": "613-722-5411",
    "issued": "2019-11-19",
    "translateReqNumber": "AAFC-191115-20 and AAFC-191112-42"
}