{
    "dcr_id": "1575384336922",
    "lang": "en",
    "type_name": "intra-intra/news-nouv",
    "approvalsadvisor": "shelly.donaldson2@canada.ca",
    "approvalsdirector": "daniel.champoux@canada.ca",
    "submitername": "Sharon Hartnell",
    "submiteremail": "sharon.hartnell@canada.ca",
    "submiterphoneNumber": "613-773-3522",
    "issued": "2019-12-05",
    "translateReqNumber": "AAFC-191128-14"
}