{
    "dcr_id": "1575662862953",
    "lang": "en",
    "type_name": "intra-intra/news-nouv",
    "approvalsadvisor": "natalie.ekholm@canada.ca",
    "approvalsdirector": "daryl.nearing@canada.ca",
    "submitername": "Lesleigh Smith",
    "submiteremail": "lesleigh.smith@canada.ca",
    "submiterphoneNumber": "613-773-2885",
    "issued": "2019-12-12",
    "translateReqNumber": "AAFC-191205-28"
}