{
    "dcr_id": "1579722959575",
    "lang": "en",
    "type_name": "intra-intra/news-nouv",
    "approvalsadvisor": "stela.susic@canada.ca",
    "approvalsdirector": "john.wheeler@canada.ca",
    "submitername": "Bonnie Wang",
    "submiteremail": "bonnie.wang@canada.ca",
    "submiterphoneNumber": "613-773-0258",
    "issued": "2020-01-30",
    "translateReqNumber": "AAFC-200121-27"
}