{
    "dcr_id": "1583788069037",
    "lang": "en",
    "type_name": "intra-intra/news-nouv",
    "approvalsadvisor": "natalie.ekholm@canada.ca",
    "approvalsdirector": "Elise.Legendre@canada.ca",
    "submitername": "Shannon Fraser",
    "submiteremail": "shannon.fraser@canada.ca",
    "submiterphoneNumber": "613-773-1574",
    "issued": "2020-03-12",
    "translateReqNumber": "AAFC-200224-1"
}