{
    "dcr_id": "1601999320735",
    "lang": "en",
    "title": {
        "en": "Reminder - Women\u2019s History Month: Celebrate with Two Events",
        "fr": "Rappel - Mois de l'histoire des femmes : C\u00e9l\u00e9brez avec deux \u00e9v\u00e9nements"
    },
    "modified": "2020-10-22 00:00:00.0",
    "issued": "2020-10-07 00:00:00.0",
    "type_name": "intra-intra/news-nouv",
    "node_id": "1279030006975",
    "layout_name": null,
    "dc_date_created": "2020-10-06",
    "breadcrumb_label": "",
    "meta": {
        "issued": {
            "en": "2020-10-07",
            "fr": "2020-10-07"
        },
        "modified": {
            "en": "2020-10-22",
            "fr": "2020-10-22"
        },
        "format": {
            "en": "gcformat",
            "fr": "gcformat"
        },
        "title": {
            "en": "Reminder - Women\u2019s History Month: Celebrate with Two Events",
            "fr": "Rappel - Mois de l'histoire des femmes : C\u00e9l\u00e9brez avec deux \u00e9v\u00e9nements"
        },
        "subject": {
            "en": "communications",
            "fr": "communications"
        },
        "description": {
            "en": "Since 1992, every October, the Government of Canada has commemorated Women's History Month, a time to celebrate the courageous women and girls who have contributed to a better, more inclusive Canada and world.",
            "fr": "Depuis 1992, chaque octobre, le gouvernement du Canada comm\u00e9more le Mois de l'histoire des femmes, une occasion de c\u00e9l\u00e9brer les femmes et les filles courageuses qui ont contribu\u00e9 \u00e0 rendre le Canada et le monde meilleurs et plus inclusifs."
        },
        "language": {
            "en": "eng",
            "fr": "fra"
        },
        "audience": {
            "en": "gcaudience",
            "fr": "gcaudience"
        },
        "creator": {
            "en": "Agriculture and Agri-Food Canada",
            "fr": "Agriculture et Agroalimentaire Canada"
        },
        "spatial": {
            "en": "gcregions",
            "fr": "gcregions"
        },
        "service": {
            "en": "AAFC_AgriSource",
            "fr": "AAC_AgriSource"
        },
        "accessRights": {
            "en": "3",
            "fr": "3"
        }
    },
    "body": {
        "en": "<br>\n<br>\n<p>Since 1992, every October, the Government of Canada has commemorated <a href=\"https://cfc-swc.gc.ca/commemoration/whm-mhf/index-en.html?utm_source=dm_to_dm&amp;utm_medium=email&amp;utm_content=WHM2020&amp;utm_campaign=wage-en\">Women\u2019s History Month</a>, a time to celebrate the courageous women and girls who have contributed to a better, more inclusive Canada and world. During this month, we also celebrate International Day of the Girl Child, on October 11, and Persons Day, on October 18, marking the historic 1929 Supreme Court ruling to include women in the legal definition of persons.</p>\n<p>This year\u2019s theme for the October commemorations is <strong>#BecauseOfYou</strong>, celebrating women and girls in Canada who have made a lasting impact on our country\u2019s history. Join us for two virtual events:</p>\n<h2><b><strong>Event information</strong></b></h2>\n<h3><strong>Seminar: Indigenous Women in Agriculture </strong></h3>\n<p>Facilitated by Claire Thomson, Ph.D. candidate, University of Alberta. As a student recruited by the AAFC Indigenous Student Recruitment Initiative, Claire has been developing and facilitating an Indigenous agricultural history series for AAFC employees. The seminar will explore the roles of Indigenous women agriculturalists, their knowledge and various farming techniques in what is currently Canada from both an early period (sometimes called \u201cprecontact\u201d) and up to the twentieth century.</p>\n<p><strong>Date and Time:</strong> October 27, 2020 | 1:00\u00a0- 2:30 p.m. (ET)<br>Join Zoom Meeting: <a href=\"https://zoom.us/j/98037667678?pwd=RnluVyt2RERlcEM1eWxLMEtpTjhRdz09\">https://zoom.us/j/98037667678?pwd=RnluVyt2RERlcEM1eWxLMEtpTjhRdz09</a>\u00a0<br>Meeting ID: 980 3766 7678<br>Passcode: WiSTEM-INC</p>\n<h3>\n<strong>Virtual Armchair Discussion: Women and Gender Equality </strong></h3>\n<p>Come celebrate the progress we have made in the 50 years since the release of the groundbreaking <a href=\"https://cfc-swc.gc.ca/abu-ans/wwad-cqnf/roycom/index-en.html\">Royal Commission Report on the Status of Women</a>. This armchair discussion will also explore the impacts of COVID-19 on diverse groups of women, and the importance of applying a GBA+ lens in planning our recovery and the safe restart of our economy.</p>\n<p><strong>Date and Time</strong>: October 28 |\u00a01:30 p.m. (ET) <br><strong>Registration</strong>: <a href=\"https://us02web.zoom.us/meeting/register/tZIvc--tqj8iH9Tosm2EX0L9yG3M6odr-Nwh\">https://us02web.zoom.us/meeting/register/tZIvc--tqj8iH9Tosm2EX0L9yG3M6odr-Nwh</a>\u00a0</p>\n<p>Visit <a href=\"https://collab.agr.gc.ca/co/eedi-emedi/SitePages/Home.aspx\">Diversity and Inclusion Knowledge Workspace page</a> to learn more about AAFC\u2019s diversity networks, including the Indigenous Circle Network and the Women in Science Network.</p>\n\n\t\t",
        "fr": "<br>\n<br>\n<p>Depuis 1992, chaque octobre, le gouvernement du Canada comm\u00e9more le <a href=\"https://cfc-swc.gc.ca/commemoration/whm-mhf/index-fr.html?utm_source=dm_to_dm&amp;utm_medium=email&amp;utm_content=WHM2020&amp;utm_campaign=wage-fr\">Mois de l'histoire des femmes</a>, une occasion de c\u00e9l\u00e9brer les femmes et les filles courageuses qui ont contribu\u00e9 \u00e0 rendre le Canada et le monde meilleurs et plus inclusifs. Au cours de ce mois, nous c\u00e9l\u00e9brons \u00e9galement la Journ\u00e9e internationale de la fille, le 11 octobre, et la Journ\u00e9e de l\u2019affaire \u00ab personne \u00bb, le 18 octobre, qui marque la d\u00e9cision historique rendue en 1929 par la Cour supr\u00eame pour que les femmes soient incluses dans la d\u00e9finition juridique des personnes.</p>\n<p>\nLe th\u00e8me retenu cette ann\u00e9e pour les comm\u00e9morations d\u2019octobre est <strong>#Gr\u00e2ce\u00e0vous</strong>, et il rend hommage aux femmes et aux filles du Canada qui ont eu une influence durable sur l\u2019histoire de notre pays. Joignez-vous \u00e0 nous pour deux \u00e9v\u00e9nements virtuels :</p>\n<h2><strong>Renseignements sur l\u2019activit\u00e9</strong></h2>\n<h3><strong>S\u00e9minaire : les femmes autochtones en agriculture</strong></h3>\n<p>\nAnim\u00e9 par Claire Thomson, candidate au doctorat, Universit\u00e9 de l\u2019Alberta. En tant qu\u2019\u00e9tudiante recrut\u00e9e dans le cadre de l\u2019Initiative de recrutement d\u2019\u00e9tudiants autochtones d\u2019AAC, Claire a \u00e9labor\u00e9 et anim\u00e9 une s\u00e9rie sur l\u2019histoire de l\u2019agriculture autochtone pour les employ\u00e9s d\u2019AAC. Le s\u00e9minaire explorera les r\u00f4les des agricultrices autochtones, leurs connaissances et diverses techniques agricoles dans ce qui est actuellement le Canada, \u00e0 partir d\u2019une p\u00e9riode ancienne (parfois appel\u00e9e \u00ab avant l\u2019arriv\u00e9e des Europ\u00e9ens \u00bb) et jusqu\u2019au vingti\u00e8me si\u00e8cle.</p>\n<p>\n<strong>Date et heure :</strong> le 27 octobre 2020 | de 13 h \u00e0 14 h 30 (HE)<br>Se joindre \u00e0 une r\u00e9union Zoom <a href=\"https://zoom.us/j/98037667678?pwd=RnluVyt2RERlcEM1eWxLMEtpTjhRdz09\">https://zoom.us/j/98037667678?pwd=RnluVyt2RERlcEM1eWxLMEtpTjhRdz09</a>\u00a0<br>Code de la r\u00e9union : 980 3766 7678<br>Code d\u2019acc\u00e8s : WiSTEM-INC</p>\n<h3><strong>Discussion informelle virtuelle : Condition f\u00e9minine et \u00e9galit\u00e9 des genres </strong></h3>\n<p>\nVenez c\u00e9l\u00e9brer les progr\u00e8s que nous avons r\u00e9alis\u00e9s au cours des 50 ann\u00e9es qui se sont \u00e9coul\u00e9es depuis la publication du rapport r\u00e9volutionnaire de la <a href=\"https://cfc-swc.gc.ca/abu-ans/wwad-cqnf/roycom/index-fr.html\">Commission royale d\u2019enqu\u00eate sur la situation de la femme</a>. Cette discussion informelle explorera aussi les effets de la COVID-19 sur divers groupes de femmes, et l\u2019importance d\u2019appliquer l\u2019ACS+ \u00e0 la planification de notre relance et au red\u00e9marrage de notre \u00e9conomie en toute s\u00e9curit\u00e9.</p>\n<p>\n<strong>Date et heure\u00a0:</strong> le 28 octobre\u00a0| 13 h 30 (HE) <br><strong>Inscription :</strong> <a href=\"https://us02web.zoom.us/meeting/register/tZIvc--tqj8iH9Tosm2EX0L9yG3M6odr-Nwh\">https://us02web.zoom.us/meeting/register/tZIvc--tqj8iH9Tosm2EX0L9yG3M6odr-Nwh</a></p>\n<p>\nConsultez la <a href=\"https://collab.agr.gc.ca/co/eedi-emedi/SitePages/Home.aspx\">page Diversit\u00e9 et inclusion dans l'Espace de travail du savoir</a> pour en apprendre davantage sur les r\u00e9seaux de la diversit\u00e9 d\u2019AAC, y compris le R\u00e9seau des cercles autochtones et le R\u00e9seau des femmes en sciences.</p>\n\t\t"
    },
    "breadcrumb": {
        "en": "Reminder - Women\u2019s History Month: Celebrate with Two Events",
        "fr": "Rappel - Mois de l'histoire des femmes : C\u00e9l\u00e9brez avec deux \u00e9v\u00e9nements"
    },
    "news": {
        "date_posted": {
            "en": "2020-10-07",
            "fr": "2020-10-07"
        },
        "to": {
            "en": "All staff",
            "fr": "Tous les employ\u00e9s"
        },
        "by": {
            "en": "Indigenous Circle Network and the Women in Science Network",
            "fr": "Le R\u00e9seau des cercles autochtones et le R\u00e9seau des femmes en sciences"
        }
    }
}