{
    "dcr_id": "1307893675481",
    "title": {
        "en": "T-4-<span class=\"wb-invisible\"> </span>113\u00a0\u2013\u00a0Guidelines for safety assessments of fertilizers and supplements and for information to be submitted in demonstrating product safety",
        "fr": "T-4-<span class=\"wb-invisible\"> </span>113\u00a0\u2013\u00a0Directives sur l'\u00e9valuation de l'innocuit\u00e9 des engrais et des suppl\u00e9ments, et sur les renseignements \u00e0 fournir \u00e0 l'appui de leur innocuit\u00e9"
    },
    "html_modified": "2024-03-12 3:55:18 PM",
    "modified": "2023-10-26",
    "issued": "2023-10-26",
    "teamsite_location": {
        "en": "/default/main/inspection/cont-cont/plants-vegetaux/STAGING/templatedata/comn-comn/gene-gene/data/fert_tmemo_4-113_1307893675481_eng",
        "fr": "/default/main/inspection/cont-cont/plants-vegetaux/STAGING/templatedata/comn-comn/gene-gene/data/fert_tmemo_4-113_1307893675481_fra"
    },
    "ia_id": "1307893844341",
    "parent_ia_id": "1299873786929",
    "chronicletopic": {
        "en": "",
        "fr": ""
    },
    "chroniclecontent": {
        "en": "",
        "fr": ""
    },
    "chronicleaudience": {
        "en": "",
        "fr": ""
    },
    "sfcrdocumenttype": {
        "en": "",
        "fr": ""
    },
    "sfcraudience": {
        "en": "",
        "fr": ""
    },
    "sfcrmethodofproduction": {
        "en": "",
        "fr": ""
    },
    "activity": {
        "en": "",
        "fr": ""
    },
    "commodity": {
        "en": "",
        "fr": ""
    },
    "program": {
        "en": "",
        "fr": ""
    },
    "search_type": "other",
    "parent_node_id": "1299873786929",
    "layout_name": "content page 1 column",
    "breadcrumb": {
        "en": "T-4-<span class=\"wb-invisible\"> </span>113\u00a0\u2013\u00a0Guidelines for safety assessments of fertilizers and supplements and for information to be submitted in demonstrating product safety",
        "fr": "T-4-<span class=\"wb-invisible\"> </span>113\u00a0\u2013\u00a0Directives sur l'\u00e9valuation de l'innocuit\u00e9 des engrais et des suppl\u00e9ments, et sur les renseignements \u00e0 fournir \u00e0 l'appui de leur innocuit\u00e9"
    },
    "label": {
        "en": "T-4-<span class=\"wb-invisible\"> </span>113\u00a0\u2013\u00a0Guidelines for safety assessments of fertilizers and supplements and for information to be submitted in demonstrating product safety",
        "fr": "T-4-<span class=\"wb-invisible\"> </span>113\u00a0\u2013\u00a0Directives sur l'\u00e9valuation de l'innocuit\u00e9 des engrais et des suppl\u00e9ments, et sur les renseignements \u00e0 fournir \u00e0 l'appui de leur innocuit\u00e9"
    },
    "templatetype": "content page 1 column",
    "node_id": "1307893844341",
    "managing_branch": "comn",
    "type_name": "sitemapinit",
    "dcr_type": "gene-gene",
    "parent_dcr_id": "1299873703612",
    "orig_type_name": "gene-gene",
    "has_dcr_id": true,
    "lang": "en",
    "could_not_load": 0,
    "refaire": false,
    "interwoven_url": {
        "en": "/plant-health/fertilizers/trade-memoranda/t-4-113/",
        "fr": "/protection-des-vegetaux/engrais/circulaires-a-la-profession/t-4-113/"
    },
    "meta": {
        "viewport": {
            "en": "width=device-width,initial-scale=1",
            "fr": "width=device-width,initial-scale=1"
        },
        "service": {
            "en": "CFIA-ACIA",
            "fr": "CFIA-ACIA"
        },
        "accessRights": {
            "en": "2",
            "fr": "2"
        },
        "title": {
            "en": "T-4- 113\u00a0\u2013\u00a0Guidelines for safety assessments of fertilizers and supplements and for information to be submitted in demonstrating product safety",
            "fr": "T-4- 113\u00a0\u2013\u00a0Directives sur l'\u00e9valuation de l'innocuit\u00e9 des engrais et des suppl\u00e9ments, et sur les renseignements \u00e0 fournir \u00e0 l'appui de leur innocuit\u00e9"
        },
        "description": {
            "en": "The purpose of this document is to provide industry with guidance on safety assessments conducted on products regulated under the Fertilizers Act, on the type of information to be submitted by industry in demonstrating product safety, and on the organization of this information.",
            "fr": "Le pr\u00e9sent document a pour objet d'orienter l'industrie sur l'\u00e9valuation de l'innocuit\u00e9 des produits r\u00e9gis par la Loi sur les engrais, le type de renseignements \u00e0 fournir \u00e0 l'appui de cette innocuit\u00e9 et la pr\u00e9sentation de ces donn\u00e9es."
        },
        "keywords": {
            "en": "Fertilizers Act, Fertilizers Regulations,  fertilizers, supplements, trade memoranda, t-memo, import, labelling, registration, microorganisms, safety assessments",
            "fr": "Loi sur les engrais, R\u00e8glement sur les engrais, engrais, suppl\u00e9ments, circulaire \u00e0 la profession, circulaire,  importation, \u00e9tiquetage, enregistrement, microorganismes, \u00e9valuations"
        },
        "dcterms.subject": {
            "en": "crops,fertilizers,imports,inspection,plants,policy,regulation",
            "fr": "cultures,engrais,importation,inspection,plante,politique,r\u00e9glementation"
        },
        "creator": {
            "en": "Government of Canada,Canadian Food Inspection Agency",
            "fr": "Gouvernement du Canada,Agence canadienne d'inspection des aliments"
        },
        "language": {
            "en": "eng",
            "fr": "fra"
        },
        "issued": {
            "en": "2023-10-26",
            "fr": "2023-10-26"
        },
        "modified": {
            "en": "2023-10-26",
            "fr": "2023-10-26"
        },
        "type": {
            "en": "policy,reference material",
            "fr": "politique,mat\u00e9riel de r\u00e9f\u00e9rence"
        },
        "audience": {
            "en": "business,government",
            "fr": "entreprises,gouvernement"
        },
        "name": {
            "en": "Government of Canada",
            "fr": "Gouvernement du Canada"
        },
        "areaServed": {
            "en": "Canada",
            "fr": "Canada"
        }
    },
    "h1": {
        "en": "T-4- 113\u00a0\u2013\u00a0Guidelines for safety assessments of fertilizers and supplements and for information to be submitted in demonstrating product safety",
        "fr": "T-4- 113\u00a0\u2013\u00a0Directives sur l'\u00e9valuation de l'innocuit\u00e9 des engrais et des suppl\u00e9ments, et sur les renseignements \u00e0 fournir \u00e0 l'appui de leur innocuit\u00e9"
    },
    "js": {
        "en": "",
        "fr": ""
    },
    "body": {
        "en": "        \r\n        \n<div data-ajax-replace=\"navi/eng/1604944506561\"></div>\n\n<p>The purpose of this document is to provide applicants with guidance on safety assessments conducted on products regulated under the <i>Fertilizers Act</i> and on the type of information to be submitted in demonstrating product safety.</p>\n\n<ul>\n<li><a href=\"/plant-health/fertilizers/trade-memoranda/t-4-113/t-4-113-suppl-1-/eng/1307894218475/1320208719567\">T-4-113 (Supplement 1)\u00a0\u2013\u00a0Data requirements for product safety evaluations: explanatory notes</a></li>\n</ul>\n\n<h2>1. Product safety assessments conducted by the Canadian Food Inspection Agency</h2>\n\n<p>The Fertilizer Safety Section of the Canadian Food Inspection Agency (CFIA) conducts safety assessments of fertilizers and supplements under the authority of the <i>Fertilizers Act</i>. These assessments address three main issues which are:</p>\n\n<ul>\n<li>food safety</li>\n<li>user/bystander protection and</li>\n<li>the environment</li>\n</ul>\n\n<p>The specific issues to be addressed during the safety assessment of a particular product depend on the constituents of that product and its recommended pattern of use.</p>\n\n<p>Product safety assessments normally include a preliminary stage and a follow-up stage. The preliminary assessment, based essentially on the identification, constituents, and intended use of a product, identifies which of the three issues (food, user and environment) must be addressed for that product. Also, in the absence of a complete data set (that is, sufficient information pertaining to all items in <a href=\"#ann1\" class=\"nowrap\">Appendix 1</a>, discussed below) this preliminary review also identifies a smaller \"screening level\" package of \"minimum data requirements\". The follow-up assessment is conducted when either a complete information package or a \"screening level\" information package has been received by the CFIA.</p>\n\n<h2>2. Information to be submitted in demonstrating product safety\u00a0\u2013\u00a0responsibility of the applicant</h2>\n\n<h3>2.1 Administrative and technical information</h3>\n\n<p>Attached as <a href=\"#ann1\" class=\"nowrap\">Appendix 1</a> is a list of administrative and technical information which are considered for the purposes of conducting a product safety assessment. All existing information relating to items in this list, for formulated products, ingredients, and significant contaminants, must be submitted.</p>\n\n<p>For compiling the necessary technical information, we recommend that several sources be consulted. These include suppliers and manufacturers of the products or their ingredients, the public literature, databases such as those available through the National Library of Medicine (U.S.), the United States Environmental Protection Agency and the Canadian Centre for Occupational Safety and Health, etc.</p>\n\n<h3>2.2 Technical information summary and references</h3>\n\n<p>A summary of the information compiled according to Section 2.1 is to be submitted to the Plant Production Division. In this summary, the information is presented in the order in which the items appear in <a href=\"#ann1\" class=\"nowrap\">Appendix 1</a>.</p>\n\n<p>All information in the summary must be properly referenced (including document name, date and page numbers, etc.); reference material is to be enclosed in the order in which the item to which it pertains appears in <a href=\"#ann1\" class=\"nowrap\">Appendix 1</a>. A bibliography of the reference documents would be appreciated.</p>\n\n<p>Where necessary and appropriate, in lieu of information pertaining to a particular ingredient, information pertaining to a similar substance may be submitted. This requires that a rationale for similarity between the substances and hence between their characteristics (be they physical, chemical, or toxicological) be provided.</p>\n\n<p>Where technical information is not available, and there are reasonable scientific grounds for believing that it is neither necessary for nor applicable to the safety assessment of a product, a request for waiver of that information may be submitted. This request must be accompanied by a sound scientific rationale, and is incorporated into the summary document in proper sequence (see <a href=\"#ann1\" class=\"nowrap\">Appendix 1</a>).</p>\n\n<p>Please note that for the CFIA to consider technical information which is enclosed in the reference material, this technical information must be addressed in the summary document.</p>\n\n<h3>2.3 Product safety demonstration</h3>\n\n<p>For the purposes of demonstrating the safety of a product, the information provided under Section 2.2 is reviewed and conclusions are drawn in regard to food safety, worker protection, and the environment. Again, the particular issues to be addressed for a product depend on its recommended use patterns. This safety demonstration is provided by the applicant to the CFIA.</p>\n\n<p>Remarks: Where appropriate preventative measures are used to mitigate worker exposure, and in drawing conclusions as to worker protection, the measures must be clearly identified.</p>\n\n<h2>3.0 Notes</h2>\n\n<p>We recommend that the assistance of a toxicologist be sought for compiling and reviewing the data and for preparing the information package to be sent to the CFIA.</p>\n\n<p>Please note that this guideline and these data requirements may apply to formulated products, individual ingredients (for example, actives or formulants), break-down products, contaminants, etc.</p>\n\n<h2 id=\"ann1\">Appendix 1</h2>\n\n<h3>1.0 Identification and use of the product</h3>\n\n<ul>\n<li>Name</li>\n<li>Other names</li>\n<li>Uses and use patterns</li>\n<li>Unit amount</li>\n<li>Product Label</li>\n<li>Material Safety Data Sheet (MSDS)</li>\n</ul>\n\n<h3>2.0 Identification of ingredients including impurities</h3>\n\n<ul>\n<li>Chemical name and synonyms</li>\n<li>Chemical formula (molecular and structural)</li>\n<li>Chemical Abstract Service (CAS) Number</li>\n<li>Specify presence/absence of ingredients on/from Environment Canada's Domestic Substances List</li>\n<li>Material Safety Data Sheet</li>\n<li>Concentrations in the finished product (% or ppm)</li>\n<li>Outline of manufacture of the product</li>\n<li>Mode of action of the components</li>\n<li>For biochemicals and biopolymers: Taxonomic description of production organism and biological impurities in the product, concentrations of these in the final product (CFU/g), methods used to remove the production organism, description of any introduced genetic material, known biological (for example, enzymatic) activity and adverse human or environmental health effects associated with products of the introduced genetic material.</li>\n</ul>\n\n<h3>3. Physico-chemical data</h3>\n\n<ul>\n<li>Molecular weight</li>\n<li>Physical state</li>\n<li>Appearance (for example, granular, gelatinous)</li>\n<li>Particle size</li>\n<li>Colour and odour</li>\n<li>Density/specific gravity</li>\n<li>Melting point</li>\n<li>Boiling point</li>\n<li>Vapour pressure</li>\n<li>pH</li>\n<li>Solubility in water</li>\n<li>Octanol-water partition coefficient</li>\n<li>Olfactory detection limit</li>\n<li>Flash point</li>\n<li>Auto-ignition temperature</li>\n<li>Vapour density</li>\n<li>Solubility in other solvents</li>\n<li>Incompatibility</li>\n<li>Polymerization</li>\n</ul>\n\n<h3>4. Toxicity data</h3>\n\n<ul>\n<li>Acute toxicity:\n<ul>\n<li>acute median lethality,</li>\n<li>skin/eye irritation,</li>\n<li>skin sensitization,</li>\n</ul></li>\n<li>Mutagenicity (for example, point mutation, chromosomal aberrations, DNA repair, with and without activation)</li>\n<li>Short-term repeated dose toxicity (for example, 28-day study, 90-day study)</li>\n<li>Long-term toxicity (for example, 1 and 2 year studies)</li>\n<li>Teratogenicity</li>\n<li>Carcinogenicity</li>\n<li>Delayed neurotoxicity (for all O-P compounds)</li>\n<li>Developmental toxicity</li>\n<li>Reproductive toxicity (multi-generation study)</li>\n<li>Epidemiological studies</li>\n<li>Rate and degree of absorption</li>\n<li>Distribution, metabolism and excretion data</li>\n<li>Chemical interaction</li>\n<li>Special studies</li>\n</ul>\n\n<h3>5. Human exposure data and exposure estimation</h3>\n\n<ul>\n<li>Major routes of exposure depending on the formulation, method of application and uses.</li>\n<li>Amount of product handled by workers and consumers</li>\n<li>Frequency and duration of exposure</li>\n<li>Exposure concentrations (dilution factor for use of the product, if applicable)</li>\n<li>Precautionary clothing or other measures recommended to users</li>\n<li>Exposure studies, if available</li>\n</ul>\n\n<h3>6. Food safety data</h3>\n\n<ul>\n<li>Crops for which the substance is intended</li>\n<li>Application rates, timing, intervals to harvest</li>\n<li>Product, metabolite and/or contaminant residue studies, for each food plant</li>\n<li>Analytical methods for metabolism and residue studies (including recovery and detection limits)</li>\n<li>Environmental fate data relevant to possible food residues (for example, persistence/degradation in soil)</li>\n<li>Plant metabolism data (given detectable residues) specifying levels and identity of metabolites, routes of degradation, etc. (for example, radio-labelled studies, routes and degradation of major metabolites)</li>\n<li>Suggested maximum residue limit or tolerance, based on the toxicity data</li>\n</ul>\n\n<h3>7. Environmental fate</h3>\n\n<ul>\n<li>Vapour pressure and volatilization</li>\n<li>Hydrolysis</li>\n<li>Photodegradation(UV Spectrum)</li>\n<li>Solubility in water</li>\n<li>Octanol-water partition coefficient</li>\n<li>Ready biodegradability (unless more sophisticated tests are available)</li>\n<li>Adsorption-desorption</li>\n<li>Dissociation constant</li>\n<li>Leaching</li>\n<li>Biotransformation in soil (aerobic/anaerobic)</li>\n<li>Biotransformation in aquatic systems (aerobic/anaerobic)</li>\n</ul>\n\n<h3>8. Environmental effects</h3>\n\n<ul>\n<li>Toxicity to aquatic organisms:\n<ul>\n<li>fish LC50</li>\n<li>daphnid LC50</li>\n<li>Algae LC50</li>\n<li>fish and daphnid EC50, NOEL AND LOEL</li>\n</ul></li>\n<li>Toxicity to birds and mammals</li>\n<li>Toxicity to soil organisms</li>\n</ul>\n\n<p>Note: Additional data may be required under certain circumstances.</p>\n\n<h3>9. Contact information</h3>\n\n<p>Fertilizer Safety Section<br>\n<br>\n<br>\n<a href=\"mailto:cfia.paso-bpdpm.acia@inspection.gc.ca\" class=\"nowrap\">cfia.paso-bpdpm.acia@inspection.gc.ca</a></p>\r\n        \r\n\r\n\r\n\r\n<div class=\"row\">\r\n \r\n\t\r\n\t\t\t\r\n\r\n<div class=\"col-xm-12 pagedetails container\">\r\n\t\t\t\t\r\n\r\n</div>\r\n\t\r\n</div>",
        "fr": "\r\n        \r\n        \n<div data-ajax-replace=\"navi/fra/1604944506561\"></div>\n\n<p>L'objectif de ce document est de fournir des conseils sur les \u00e9valuations de innocuit\u00e9 men\u00e9es sur les produits r\u00e9glement\u00e9s en vertu de la <i>Loi sur les engrais</i> et sur le type d'informations \u00e0 soumettre pour d\u00e9montrer l'inocuit\u00e9 des produits.</p>\n\n<ul>\n<li><a href=\"/protection-des-vegetaux/engrais/circulaires-a-la-profession/t-4-113/t-4-113-suppl-1-/fra/1307894218475/1320208719567\">T-4-113 (Suppl\u00e9ment 1)\u00a0\u2013\u00a0Donn\u00e9es exig\u00e9es pour l'\u00e9valuation de l'innocuit\u00e9 des produits\u00a0: Notes explicatives</a></li>\n</ul>\n\n<h2>1. \u00c9valuations de l'innocuit\u00e9 des produits par l'Agence canadienne de l'inspection des aliments (ACIA)</h2>\n\n<p>La Section de l'inocuit\u00e9 des engrais de l'ACIA entreprend des \u00e9valuations de l'innocuit\u00e9 des engrais et des suppl\u00e9ments en vertu de la <i>Loi sur les engrais</i>. Ces \u00e9valuations portent sur les trois aspects essentiels suivants\u00a0:</p>\n\n<ul>\n<li>la salubrit\u00e9 des aliments;</li>\n<li>la protection des utilisateurs et du voisinage;</li>\n<li>l'environnement.</li>\n</ul>\n\n<p>Les questions abord\u00e9es au cours de l'\u00e9valuation de l'innocuit\u00e9 d'un produit donn\u00e9 d\u00e9pendent des composantes de ce produit et de son profil d'emploi recommand\u00e9.</p>\n\n<p>Les \u00e9valuations de l'innocuit\u00e9 comprennent g\u00e9n\u00e9ralement un examen pr\u00e9liminaire et un suivi. L'examen pr\u00e9liminaire, fond\u00e9 essentiellement sur l'identification, la composition et l'usage pr\u00e9vu d'un produit, d\u00e9termine le(s)quel(s) des trois aspects susmentionn\u00e9s (aliments, utilisateurs et environnement) doit(vent) \u00eatre abord\u00e9(s). De m\u00eame, en l'absence d'un dossier complet (c'est-\u00e0-dire, de donn\u00e9es suffisantes sur TOUS les points de l'<a href=\"#ann1\" class=\"nowrap\">annexe 1</a>, examin\u00e9 plus bas), cet examen pr\u00e9liminaire permet \u00e9galement de d\u00e9gager un ensemble plus restreint \u00ab\u00a0d'exigences minimales en mati\u00e8re de donn\u00e9es \u00e0 fournir\u00a0\u00bb. Le suivi est effectu\u00e9 lorsque l'ACIA re\u00e7oit un dossier complet ou contenant les exigences minimales.</p>\n\n<h2>2. Renseignements fournir l'appui de l'innocuit\u00e9 des produits\u00a0\u2013\u00a0Responsabilit\u00e9 du demandeur</h2>\n\n<h3>2.1 Renseignements techniques et administratifs</h3>\n\n<p>L'<a href=\"#ann1\" class=\"nowrap\">annexe 1</a> ci-jointe est une liste de renseignements techniques et administratifs qui sont examin\u00e9s lorsque vient le temps d'\u00e9valuer l'innocuit\u00e9 d'un produit. Les fabricants doivent soumettre toutes les donn\u00e9es existantes relatives aux points figurant sur cette liste, et ce, pour les produits formul\u00e9s, les ingr\u00e9dients et les contaminants.</p>\n\n<p>Pour compiler les renseignements techniques n\u00e9cessaires, nous recommandons de consulter plusieurs sources d'information, tels les fournisseurs et les fabricants des produits en question, les publications et les bases de donn\u00e9es comme celles disponibles par l'entremise de la National Library of Medicine et l'Environmental Protection Agency des \u00c9tats-Unis, du Centre canadien d'hygi\u00e8ne et de s\u00e9curit\u00e9 au travail (CCHST), etc.</p>\n\n<h3>2.2 R\u00e9sum\u00e9 des renseignements techniques et bibliographie</h3>\n\n<p>Les fabricants doivent soumettre \u00e0 la Division de la production des v\u00e9g\u00e9taux un r\u00e9sum\u00e9 des renseignements compil\u00e9s selon la section 2.1 ci-dessus et pr\u00e9sent\u00e9s dans l'ordre o\u00f9 les points apparaissent \u00e0 l'<a href=\"#ann1\" class=\"nowrap\">annexe 1</a>.</p>\n\n<p>Tous les renseignements figurant dans ce r\u00e9sum\u00e9 doivent \u00eatre \u00e9tay\u00e9s par des documents \u00e0 l'appui (nom, date et nombre de page du document, etc.) et le mat\u00e9riel de r\u00e9f\u00e9rence doit \u00eatre inclus dans l'ordre o\u00f9 les points apparaissent \u00e0 l'<a href=\"#ann1\" class=\"nowrap\">annexe 1</a>; en outre, une bibliographie des documents \u00e0 l'appui serait grandement appr\u00e9ci\u00e9e.</p>\n\n<p>Au lieu de renseignements sur un ingr\u00e9dient en particulier, les fabricants peuvent fournir, au besoin et l\u00e0 o\u00f9 c'est propice, des donn\u00e9es sur une substance analogue, mais s'ils choisissent de proc\u00e9der ainsi, ils doivent \u00e9galement justifier la similarit\u00e9 des substances en question, et donc de leurs caract\u00e9ristiques (physiques, chimiques ou toxicologiques).</p>\n\n<p>En l'absence de renseignements techniques et lorsqu'il a des raisons scientifiques valables de croire que de tels renseignements ne sont pas n\u00e9cessaires ni applicables \u00e0 l'\u00e9valuation de l'innocuit\u00e9 d'un produit, le fabricant peut faire une demande d'exemption relative \u00e0 la pr\u00e9sentation de ces renseignements. Cette demande doit s'appuyer sur des motifs scientifiques valables et est int\u00e9gr\u00e9e au r\u00e9sum\u00e9 susmentionn\u00e9 par ordre de pr\u00e9sentation (voir l'<a href=\"#ann1\" class=\"nowrap\">annexe 1</a>).</p>\n\n<p>Pour que l'ACIAexamine les renseignements techniques pr\u00e9sent\u00e9s dans le mat\u00e9riel de r\u00e9f\u00e9rence, il doit en \u00eatre fait mention dans le r\u00e9sum\u00e9.</p>\n\n<h3>2.3 D\u00e9monstration de l'innocuit\u00e9 d'un produit</h3>\n\n<p>Pour d\u00e9montrer l'innocuit\u00e9 d'un produit, les donn\u00e9es fournies conform\u00e9ment \u00e0 la section 2.2 sont examin\u00e9s et des conclusions concernant la salubrit\u00e9 des aliments, la protection des utilisateurs et l'environnement sont tir\u00e9es. Encore une fois, les aspects particuliers d'un produit \u00e0 examiner d\u00e9pendent de son profil d'emploi recommand\u00e9. Cette d\u00e9monstration de l'innocuit\u00e9 du produit rel\u00e8ve de la responsabilit\u00e9 du demandeur.</p>\n\n<p>Remarque\u00a0: Lorsque des mesures pr\u00e9ventives servent \u00e0 r\u00e9duire l'exposition des utilisateurs et \u00e0 tirer des conclusions sur leur protection, ces mesures sont clairement identifi\u00e9es.</p>\n\n<h2>3. Note</h2>\n\n<p>Nous recommandons de faire appel \u00e0 un toxicologue pour compiler et examiner les donn\u00e9es, ainsi que pour pr\u00e9parer la trousse d'information qu'ils feront parvenir \u00e0 l'ACIA.</p>\n\n<p>Veuillez noter que les pr\u00e9sentes lignes directrices et exigences sur les renseignements \u00e0 fournir peuvent s'appliquer aux produits formul\u00e9s, aux ingr\u00e9dients (par example, mati\u00e8res actives ou formulants), aux produits de d\u00e9composition, aux contaminants, etc.</p>\n\n<h2 id=\"ann1\">Annexe 1</h2>\n\n<h3>1. Identification et utilisation du produit</h3>\n\n<ul>\n<li>Nom</li>\n<li>Autres noms</li>\n<li>Usages et profils d'emploi</li>\n<li>Quantit\u00e9 unitaire</li>\n<li>\u00c9tiquette du produit et fiche signal\u00e9tique (FS) du produit et des ingr\u00e9dients</li>\n</ul>\n\n<h3>2. Constituants chimiques et impuret\u00e9s</h3>\n\n<ul>\n<li>Nom chimique et synonyme</li>\n<li>Formule chimique (mol\u00e9culaire et structurale)</li>\n<li>Num\u00e9ro du \u00ab\u00a0<span lang=\"en\">Chemical Abstract Service</span>\u00a0\u00bb (CAS)</li>\n<li>Pr\u00e9ciser la pr\u00e9sence ou l'absence d'ingr\u00e9dients sur (de) la Liste des substances \u00e0 usage domestique d'Environnement Canada</li>\n<li>Concentration dans le produit fini (% ou ppm)</li>\n<li>Aper\u00e7u du proc\u00e9d\u00e9 de fabrication du produit</li>\n<li>Mode d'action des constituants</li>\n<li>Pour les produits biochimiques et les biopolym\u00e8res\u00a0: description taxonomique de l'organisme de production et des impuret\u00e9s biologiques dans le produit, concentrations de ceux-ci dans le produit final (UFC/g), m\u00e9thodes utilis\u00e9es pour \u00e9liminer l'organisme de production, description de tout mat\u00e9riel g\u00e9n\u00e9tique introduit, biologique connu (par exemple, enzymatique) et les effets n\u00e9fastes sur la sant\u00e9 humaine ou environnementale associ\u00e9s aux produits du mat\u00e9riel g\u00e9n\u00e9tique introduit.</li>\n</ul>\n\n<h3>3. Donn\u00e9es physico-chimiques</h3>\n\n<ul>\n<li>Poids mol\u00e9culaire</li>\n<li>\u00c9tat physique</li>\n<li>Apparence (par example, granuleux, g\u00e9latineux)</li>\n<li>Granulom\u00e9trie</li>\n<li>Couleur et odeur</li>\n<li>Densit\u00e9 et poids sp\u00e9cifique</li>\n<li>Point de fusion</li>\n<li>Point d'\u00e9bullition</li>\n<li>Pression de vapeur</li>\n<li>pH</li>\n<li>Solubilit\u00e9 dans l'eau</li>\n<li>Coefficient de partage octanol-eau</li>\n<li>Limite de d\u00e9tection olfactive</li>\n<li>Point d'\u00e9clair</li>\n<li>Temp\u00e9rature d'allumage spontan\u00e9</li>\n<li>Densit\u00e9 de la vapeur</li>\n<li>Solubilit\u00e9 dans d'autres solvants</li>\n<li>Incompatibilit\u00e9</li>\n<li>Polym\u00e9risation</li>\n</ul>\n\n<h3>4. Donn\u00e9es sur la toxicit\u00e9</h3>\n\n<ul>\n<li>Toxicit\u00e9 aigu\u00a0:\n<ul>\n<li>DL50</li>\n<li>irritation cutan\u00e9e et oculaire</li>\n<li>sensibilisation cutan\u00e9e</li>\n</ul></li>\n<li>Mutag\u00e9nicit\u00e9 (par example, mutation ponctuelle, aberrations chromosomiques, r\u00e9paration de l'ADN, avec et sans activation)</li>\n<li>Toxicit\u00e9 \u00e0 court terme \u00e0 doses r\u00e9p\u00e9t\u00e9es (par exemple, \u00e9tudes de 28 et 90 jours)</li>\n<li>Toxicit\u00e9 \u00e0 long terme (par exemple, \u00e9tudes de un et deux ans)</li>\n<li>T\u00e9ratog\u00e9nicit\u00e9</li>\n<li>Canc\u00e9rog\u00e9nicit\u00e9</li>\n<li>Neurotoxicit\u00e9 retard\u00e9e (pour tous les compos\u00e9s organophosphor\u00e9s)</li>\n<li>Effets sur le d\u00e9veloppement</li>\n<li>Effets sur la reproduction (\u00e9tude sur plusieurs g\u00e9n\u00e9rations)</li>\n<li>\u00c9tudes \u00e9pid\u00e9miologiques</li>\n<li>Taux et niveau d'absorption</li>\n<li>Donn\u00e9es sur la distribution, le m\u00e9tabolisme et l'excr\u00e9tion</li>\n<li>Interactions chimiques</li>\n<li>\u00c9tudes sp\u00e9ciales</li>\n</ul>\n\n<h3>5. Donn\u00e9es sur l'exposition et estimation du degr\u00e9 d'exposition des humains</h3>\n\n<ul>\n<li>Principales voies d'exposition selon la formulation, la m\u00e9thode d'application et les usages</li>\n<li>Quantit\u00e9 de produit manipul\u00e9 par les utilisateurs et les consommateurs</li>\n<li>Fr\u00e9quence et dur\u00e9e d'exposition</li>\n<li>Concentrations d'exposition (facteur de dilution du produit, s'il y a lieu)</li>\n<li>V\u00eatements de protection ou autres mesures recommand\u00e9es aux utilisateurs</li>\n<li>\u00c9tudes sur l'exposition, s'il y a lieu</li>\n</ul>\n\n<h3>6. Donn\u00e9es sur la salubrit\u00e9 des aliments</h3>\n\n<ul>\n<li>Cultures auxquelles est destin\u00e9e la substance</li>\n<li>Taux, calendrier et intervalles d'application avant la r\u00e9colte</li>\n<li>\u00c9tudes sur les r\u00e9sidus du produit, ses m\u00e9tabolites et ses contaminants, pour chaque plante comestible</li>\n<li>M\u00e9thodes d'analyse utilis\u00e9es dans les \u00e9tudes sur le m\u00e9tabolisme et les r\u00e9sidus (y compris les limites de r\u00e9cup\u00e9ration et de d\u00e9tection)</li>\n<li>Donn\u00e9es sur le devenir dans l'environnement vis-\u00e0-vis la possibilit\u00e9 de r\u00e9sidus dans les aliments (par exemple, r\u00e9manence et d\u00e9gradation dans le sol)</li>\n<li>Donn\u00e9es sur le m\u00e9tabolisme dans les v\u00e9g\u00e9taux (si les teneurs en r\u00e9sidus sont d\u00e9celables) pr\u00e9cisant les concentrations et la nature des m\u00e9tabolites, les voies de d\u00e9gradation, etc. (par exemple, \u00e9tudes sur les r\u00e9sidus radio-marqu\u00e9s, voies de d\u00e9gradation des principaux m\u00e9tabolites)</li>\n<li>Limite maximale des r\u00e9sidus (LMR) ou tol\u00e9rance sugg\u00e9r\u00e9e d'apr\u00e8s les donn\u00e9es sur la toxicit\u00e9</li>\n</ul>\n\n<h3>7. Devenir dans l'environnement</h3>\n\n<ul>\n<li>Pression de vapeur et volatilisation</li>\n<li>Hydrolyse</li>\n<li>Photod\u00e9gradation (spectre ultraviolet)</li>\n<li>Solubilit\u00e9 dans l'eau</li>\n<li>Coefficient de partage octanol-eau</li>\n<li>Biod\u00e9gradation rapide (\u00e0 moins que des essais plus sp\u00e9cialis\u00e9s ne soient disponibles)</li>\n<li>Adsorption-d\u00e9sorption</li>\n<li>Constante de dissociation</li>\n<li>Lessivage</li>\n<li>Biotransformation dans le sol (a\u00e9robie et ana\u00e9robie)</li>\n<li>Biotransformation dans les syst\u00e8mes aquatiques (a\u00e9robie et ana\u00e9robie)</li>\n</ul>\n\n<h3>8. Effets sur l'environnement</h3>\n\n<ul>\n<li>Toxicit\u00e9 pour les organismes aquatiques\u00a0:\n<ul>\n<li>CL50 pour poissons</li>\n<li>CL50 pour daphnies</li>\n<li>CL50 pour algues</li>\n<li>CE50, CSEO (NOEL) et CPPEO (LOEL) pour poissons et daphnies</li>\n</ul></li>\n<li>Toxicit\u00e9 pour les oiseaux et les mammif\u00e8res</li>\n<li>Toxicit\u00e9 pour les organismes du sol</li>\n</ul>\n\n<p>Note\u00a0: Des donn\u00e9es additionnelles peuvent \u00eatre n\u00e9cessaires \u00e0 l'occasion.</p>\n\n<h3>9. Coordonn\u00e9es</h3>\n\n<p>Section de l'innocuit\u00e9 des engrais<br>\n<br>\n<br>\n<a href=\"mailto:cfia.paso-bpdpm.acia@inspection.gc.ca\" class=\"nowrap\">cfia.paso-bpdpm.acia@inspection.gc.ca</a></p>\r\n        \r\n\r\n<div class=\"row\">\r\n \r\n\t\t\t\r\n\t\t\t\r\n\r\n\t\t\r\n\t\r\n</div>"
    },
    "success": true,
    "chat_wizard": false
}