{
    "dcr_id": "1353808512613",
    "title": {
        "en": "Pandemic H1N1 2009 Pig Farm Outbreak - <abbr title=\"Canadian Food Inspection Agency\">CFIA</abbr> Lessons Learned",
        "fr": "\u00c9closion de la grippe pand\u00e9mique H1N1 de 2009 dans une exploitation porcine - Le\u00e7ons apprises de l'<abbr title=\"Agence canadienne d'inspection des aliments\">ACIA</abbr>"
    },
    "html_modified": "2024-03-12 3:55:52 PM",
    "modified": "2012-11-24",
    "issued": "2012-11-24 20:55:16",
    "teamsite_location": {
        "en": "/default/main/inspection/cont-cont/aboutcfia-sujetacia/STAGING/templatedata/comn-comn/gene-gene/data/acco_audit_h1h1lessons_summary_1353808512613_eng",
        "fr": "/default/main/inspection/cont-cont/aboutcfia-sujetacia/STAGING/templatedata/comn-comn/gene-gene/data/acco_audit_h1h1lessons_summary_1353808512613_fra"
    },
    "ia_id": "1353808609905",
    "parent_ia_id": "1299843588592",
    "chronicletopic": {
        "en": "",
        "fr": ""
    },
    "chroniclecontent": {
        "en": "",
        "fr": ""
    },
    "chronicleaudience": {
        "en": "",
        "fr": ""
    },
    "sfcrdocumenttype": {
        "en": "",
        "fr": ""
    },
    "sfcraudience": {
        "en": "",
        "fr": ""
    },
    "sfcrmethodofproduction": {
        "en": "",
        "fr": ""
    },
    "activity": {
        "en": "",
        "fr": ""
    },
    "commodity": {
        "en": "",
        "fr": ""
    },
    "program": {
        "en": "",
        "fr": ""
    },
    "search_type": "other",
    "parent_node_id": "1299843588592",
    "layout_name": "content page 1 column",
    "breadcrumb": {
        "en": "Pandemic H1N1 2009 Pig Farm Outbreak - <abbr title=\"Canadian Food Inspection Agency\">CFIA</abbr> Lessons Learned",
        "fr": "\u00c9closion de la grippe pand\u00e9mique H1N1 de 2009 dans une exploitation porcine - Le\u00e7ons apprises de l'<abbr title=\"Agence canadienne d'inspection des aliments\">ACIA</abbr>"
    },
    "label": {
        "en": "Pandemic H1N1 2009 Pig Farm Outbreak - <abbr title=\"Canadian Food Inspection Agency\">CFIA</abbr> Lessons Learned",
        "fr": "\u00c9closion de la grippe pand\u00e9mique H1N1 de 2009 dans une exploitation porcine - Le\u00e7ons apprises de l'<abbr title=\"Agence canadienne d'inspection des aliments\">ACIA</abbr>"
    },
    "templatetype": "content page 1 column",
    "node_id": "1353808609905",
    "managing_branch": "comn",
    "type_name": "sitemapinit",
    "dcr_type": "gene-gene",
    "parent_dcr_id": "1299843498252",
    "orig_type_name": "sitemapinit",
    "has_dcr_id": true,
    "lang": "en",
    "could_not_load": 0,
    "refaire": false,
    "interwoven_url": {
        "en": "/about-the-cfia/transparency/corporate-management-reporting/audits-reviews-and-evaluations/pandemic-h1n1/",
        "fr": "/a-propos-de-l-acia/transparence/rapports-de-gestion/verifications-evaluations-et-revues/grippe-pandemique-h1n1/"
    },
    "meta": {
        "viewport": {
            "en": "width=device-width,initial-scale=1",
            "fr": "width=device-width,initial-scale=1"
        },
        "service": {
            "en": "CFIA-ACIA",
            "fr": "CFIA-ACIA"
        },
        "accessRights": {
            "en": "2",
            "fr": "2"
        },
        "title": {
            "en": "Pandemic H1N1 2009 Pig Farm Outbreak - CFIA Lessons Learned",
            "fr": "\u00c9closion de la grippe pand\u00e9mique H1N1 de 2009 dans une exploitation porcine - Le\u00e7ons apprises de l'ACIA"
        },
        "description": {
            "en": "The Canadian Food Inspection Agency (CFIA) conducted an internal review of the pandemic H1N1 outbreak in a pig farm in 2009, and this report summarizes the CFIA's lessons learned from that situation.",
            "fr": "L'ACIA a proc\u00e9d\u00e9 \u00e0 un examen interne de l'\u00e9closion de grippe pand\u00e9mique H1N1 survenue dans une exploitation porcine en 2009; le pr\u00e9sent rapport r\u00e9sume les le\u00e7ons que l'organisation a tir\u00e9es de cette situation."
        },
        "keywords": {
            "en": "Pandemic H1N1, pig farm, Alberta, animal health, lessons learned, evaluation",
            "fr": "grippe pand\u00e9mique H1N1, exploitation porcine, Alberta, sant\u00e9 animale, le\u00e7ons apprises, \u00e9valuation, aper\u00e7u"
        },
        "dcterms.subject": {
            "en": "assessment,inspection,veterinary medicine,best practices,animal health",
            "fr": "\u00e9valuation,inspection,m\u00e9decine v\u00e9t\u00e9rinaire,meilleures pratiques,sant\u00e9 animale"
        },
        "creator": {
            "en": "Government of Canada,Canadian Food Inspection Agency",
            "fr": "Gouvernement du Canada,Agence canadienne d'inspection des aliments"
        },
        "language": {
            "en": "eng",
            "fr": "fra"
        },
        "issued": {
            "en": "2012-11-24 20:55:16",
            "fr": "2012-11-24 20:55:16"
        },
        "modified": {
            "en": "2012-11-24",
            "fr": "2012-11-24"
        },
        "type": {
            "en": "assessment,reference material",
            "fr": "\u00e9valuation,mat\u00e9riel de r\u00e9f\u00e9rence"
        },
        "audience": {
            "en": "business,government",
            "fr": "entreprises,gouvernement"
        },
        "name": {
            "en": "Government of Canada",
            "fr": "Gouvernement du Canada"
        },
        "areaServed": {
            "en": "Canada",
            "fr": "Canada"
        }
    },
    "h1": {
        "en": "Archived - Pandemic H1N1 2009 Pig Farm Outbreak - CFIA Lessons Learned",
        "fr": "Archiv\u00e9e - \u00c9closion de la grippe pand\u00e9mique H1N1 de 2009 dans une exploitation porcine - Le\u00e7ons apprises de l'ACIA"
    },
    "body": {
        "en": "        \r\n        \n<section id=\"archived\" class=\"alert alert-warning wb-inview\" data-inview=\"archived-bnr\">\r\n<h2>This page has been archived</h2>\r\n<p>Information identified as archived is provided for reference, research or record-keeping purposes. It is not subject to the Government of Canada Web Standards and has not been altered or updated since it was archived. Please contact us to request a format other than those available.</p>\r\n</section>\r\n\r\n<section id=\"archived-bnr\" class=\"wb-overlay modal-content overlay-def wb-bar-t\">\r\n<header>\r\n<h2 class=\"wb-inv\">Archived</h2>\r\n</header>\r\n<p><a href=\"#archived\">This page has been archived.</a></p>\r\n</section>\r\n\r\n<div class=\"well-sm brdr-tp brdr-rght brdr-bttm brdr-lft mrgn-bttm-md\">\n<section>\n<p><strong>Review</strong></p>\n<p>The Canadian Food Inspection Agency's (CFIA) Evaluation Directorate is responsible for evaluating the relevance and performance of agency programs, policies and initiatives. This effort supports informed decision-making and enhances performance and accountability.</p>\n<p class=\"mrgn-bttm-sm\">The Evaluation Directorate is accountable to the <abbr title=\"Canadian Food Inspection Agency\">CFIA</abbr>'s Evaluation Committee, chaired by the President. All evaluations must be reported to the Evaluation Committee and must be conducted in accordance with the Treasury Board's <a href=\"https://www.tbs-sct.gc.ca/pol/doc-eng.aspx?id=16484\">2009 Policy on Evaluation</a>. Evaluation projects such as this review are undertaken as part of ongoing efforts for the <abbr title=\"Canadian Food Inspection Agency\">CFIA</abbr> to improve its programs and policies.</p>\n</section></div>\n<h2>Overview</h2>\n<p>The Canadian Food Inspection Agency (CFIA) conducted an internal review of the pandemic H1N1 outbreak in a pig farm in 2009, and this report summarizes the <abbr title=\"Canadian Food Inspection Agency\">CFIA</abbr>'s lessons learned from that situation. The <abbr title=\"Canadian Food Inspection Agency\">CFIA</abbr> routinely conducts lessons learned or post-incident reviews following exceptional situations to</p>\n<ul>\n<li>assess the relevance and effectiveness of policies and procedures; and</li>\n<li>identify what worked well and what needs improvement.</li>\n</ul>\n<p>This review was carried out between June and November 2010, based on analysis of documents and interviews with 36 <abbr title=\"Canadian Food Inspection Agency\">CFIA</abbr> staff members and managers as well as provincial and industry representatives in Alberta, Winnipeg and Ottawa.</p>\n<p>The <abbr title=\"Canadian Food Inspection Agency\">CFIA</abbr> has dealt with a number of animal health emergencies since 2003 when the first case of bovine spongiform encephalopathy (BSE) in an indigenous animal was detected. The Agency has made improvements to its emergency planning and response procedures based on experience.</p>\n<p>However, this report noted that the 2009 H1N1 pandemic presented unique challenges, including the risk of human-to-animal transmission. The potential threat to human health from infected swine was also a concern, as was the impact on the pork industry when countries began imposing trade restrictions on Canadian exports.</p>\n<h2>Key Findings</h2>\n<p>The review found that the <abbr title=\"Canadian Food Inspection Agency\">CFIA</abbr> was mostly well prepared for the outbreak. Roles and responsibilities for <abbr title=\"Canadian Food Inspection Agency\">CFIA</abbr> staff responding to this incident were, for the most part, well understood and followed. Sufficient guidance was provided via animal health and emergency management procedure manuals and plans. The <abbr title=\"Canadian Food Inspection Agency\">CFIA</abbr> reinforced its collaboration with the Public Health Agency of Canada in the assessment of animal health and public health risks associated with zoonotic diseases (diseases that can be transmitted between animals and people).</p>\n<p>The report also noted that the <abbr title=\"Canadian Food Inspection Agency\">CFIA</abbr> needs to ensure that training of front-line staff on the use of personal protective equipment and the shipping of biological samples continues to be a key part of emergency preparedness.</p>\n<h2>Recommendations and response</h2>\n<p>The <abbr title=\"Canadian Food Inspection Agency\">CFIA</abbr> continually improves its programs and protocols. Management's commitment to addressing recommendations made by internal reviews like this one is a critical part of that continual improvement.</p>\n<p>The Agency has developed a management response action plan to address the opportunities for improvement identified by these lessons learned.</p>\n<p><strong>1. The report recommended that the <abbr title=\"Canadian Food Inspection Agency\">CFIA</abbr>'s Operations Branch make sure that its front-line responders to animal health emergencies have the relevant emergency response training.</strong></p>\n<p>The <abbr title=\"Canadian Food Inspection Agency\">CFIA</abbr> is fully committed to providing all front-line responders to animal health emergencies with the relevant emergency response training. Since 2009, the <abbr title=\"Canadian Food Inspection Agency\">CFIA</abbr>'s Western Area has completed training on the proper use of personal protective equipment and protocols for the transportation of dangerous goods. Since 2010, training took place nationally. The <abbr title=\"Canadian Food Inspection Agency\">CFIA</abbr> is also identifying ongoing training needs for animal disease emergency response preparedness.</p>\n<p><strong>2. The report recommended that an occupational health and safety (OHS) advisory position be located at an Incident Command level for all suspected zoonotic outbreaks.</strong></p>\n<p>The <abbr title=\"Canadian Food Inspection Agency\">CFIA</abbr> recognizes that it is imperative at the field and regional levels that the <abbr title=\"occupational health and safety\">OHS</abbr> advisor position be located as an advisor to the incident commander. At the <abbr title=\"Canadian Food Inspection Agency\">CFIA</abbr> national and area levels, the role and responsibilities of the <abbr title=\"occupational health and safety\">OHS</abbr> officer was reviewed and remains reporting to the Logistics Chief in the Incident Command Structure.</p>\n<h2>Complete report:</h2>\n<ul>\n<li><a href=\"/about-the-cfia/transparency/corporate-management-reporting/audits-reviews-and-evaluations/pandemic-h1n1/lessons-learned/eng/1353810575778/1353810747786\">Pandemic H1N1 2009 Pig Farm Outbreak - <abbr title=\"Canadian Food Inspection Agency\">CFIA</abbr> Lessons Learned</a></li>\n<li><a href=\"/about-the-cfia/transparency/corporate-management-reporting/audits-reviews-and-evaluations/pandemic-h1n1/action-plan/eng/1353812586026/1353812984633\">Management response action plan</a></li>\n</ul>\r\n        \r\n\r\n\r\n\r\n<div class=\"row\">\r\n \r\n\t\r\n\t\t\t\r\n\r\n<div class=\"col-xm-12 pagedetails container\">\r\n\t\t\t\t\r\n\r\n</div>\r\n\t\r\n</div>",
        "fr": "\r\n        \r\n        \n<section id=\"archived\" class=\"alert alert-warning wb-inview\" data-inview=\"archived-bnr\">\r\n<h2>Cette page a \u00e9t\u00e9 archiv\u00e9e</h2>\r\n<p>L\u2019information dont il est indiqu\u00e9 qu\u2019elle est archiv\u00e9e est fournie \u00e0 des fins de r\u00e9f\u00e9rence, de recherche ou de tenue de documents. Elle n\u2019est pas assujettie aux normes Web du gouvernement du Canada et elle n\u2019a pas \u00e9t\u00e9 modifi\u00e9e ou mise \u00e0 jour depuis son archivage. Pour obtenir cette information dans un autre format, veuillez communiquer avec nous. </p>\r\n</section>\r\n\r\n<section id=\"archived-bnr\" class=\"wb-overlay modal-content overlay-def wb-bar-t\">\r\n<header>\r\n<h2 class=\"wb-inv\">Archiv\u00e9e</h2>\r\n</header>\r\n<p><a href=\"#archived\">Cette page a \u00e9t\u00e9 archiv\u00e9e.</a></p>\r\n</section>\n<div class=\"well-sm brdr-tp brdr-rght brdr-bttm brdr-lft mrgn-bttm-md\">\n<section>\n<p><strong>Examen</strong></p>\n<p>La Direction de l'\u00e9valuation de l'Agence canadienne d'inspection des aliments (ACIA) est charg\u00e9e d'\u00e9valuer la pertinence et le rendement des programmes, des politiques et des initiatives de l'Agence. Ce processus facilite la prise de d\u00e9cisions \u00e9clair\u00e9es et am\u00e9liore le rendement ainsi que la reddition de comptes.</p>\n<p class=\"mrgn-bttm-sm\">La Direction de l'\u00e9valuation rel\u00e8ve du Comit\u00e9 d'\u00e9valuation de l'<abbr title=\"Agence canadienne d'inspection des aliments\">ACIA</abbr>, qui est pr\u00e9sid\u00e9 par le pr\u00e9sident de l'Agence. Toutes les \u00e9valuations doivent \u00eatre pr\u00e9sent\u00e9es au Comit\u00e9 d'\u00e9valuation et effectu\u00e9es conform\u00e9ment \u00e0 la <a href=\"https://www.tbs-sct.gc.ca/pol/doc-fra.aspx?id=16484\"> Politique sur l'\u00e9valuation de 2009</a> du Conseil du Tr\u00e9sor. Des projets d'\u00e9valuation, comme le pr\u00e9sent examen, sont entrepris dans le cadre des efforts continus que d\u00e9ploie l'<abbr title=\"Agence canadienne d'inspection des aliments\">ACIA</abbr> pour am\u00e9liorer ses programmes et ses politiques.</p>\n</section></div>\n<h2>Aper\u00e7u</h2>\n<p>L'<abbr title=\"Agence canadienne d'inspection des aliments\">ACIA</abbr> a proc\u00e9d\u00e9 \u00e0 un examen interne de l'\u00e9closion de grippe pand\u00e9mique H1N1 survenue dans une exploitation porcine en 2009; le pr\u00e9sent rapport r\u00e9sume les le\u00e7ons que l'organisation a tir\u00e9es de cette situation. \u00c0 la suite de situations exceptionnelles, l'<abbr title=\"Agence canadienne d'inspection des aliments\">ACIA</abbr> proc\u00e8de habituellement \u00e0 une \u00e9tude des le\u00e7ons apprises et \u00e0 un examen apr\u00e8s les incidents pour :</p>\n<ul>\n<li>\u00e9valuer la pertinence et l'efficacit\u00e9 des politiques et des proc\u00e9dures;</li>\n<li>d\u00e9terminer ce qui a fonctionn\u00e9 et ce qui doit \u00eatre am\u00e9lior\u00e9.</li>\n</ul>\n<p>Le pr\u00e9sent examen, qui a \u00e9t\u00e9 r\u00e9alis\u00e9 entre juin et novembre 2010, se fonde sur une analyse des documents et des entrevues r\u00e9alis\u00e9es aupr\u00e8s de 36 employ\u00e9s et gestionnaires de l'<abbr title=\"Agence canadienne d'inspection des aliments\">ACIA</abbr> ainsi que de repr\u00e9sentants des provinces et de l'industrie en Alberta, \u00e0 Winnipeg et \u00e0 Ottawa.</p>\n<p>L'<abbr title=\"Agence canadienne d'inspection des aliments\">ACIA</abbr> a g\u00e9r\u00e9 un certain nombre d'urgences zoosanitaires depuis 2003, lorsque le premier cas d'enc\u00e9phalopathie spongiforme bovine (ESB) a \u00e9t\u00e9 d\u00e9tect\u00e9 chez un animal indig\u00e8ne. L'Agence a depuis am\u00e9lior\u00e9 ses proc\u00e9dures de planification et d'intervention en cas d'urgence en fonction de son exp\u00e9rience.</p>\n<p>Toutefois, le pr\u00e9sent rapport souligne que la grippe pand\u00e9mique H1N1 de 2009 a pos\u00e9 des difficult\u00e9s particuli\u00e8res, y compris le risque de transmission de la maladie des humains aux animaux. La menace que pouvaient constituer les porcs infect\u00e9s pour la sant\u00e9 humaine \u00e9tait aussi une source de pr\u00e9occupation, tout comme l'\u00e9taient les r\u00e9percussions sur l'industrie porcine de la d\u00e9cision des pays d'imposer des restrictions commerciales sur les exportations canadiennes.</p>\n<h2>Principales constatations</h2>\n<p>L'examen a permis de constater que l'<abbr title=\"Agence canadienne d'inspection des aliments\">ACIA</abbr> \u00e9tait g\u00e9n\u00e9ralement bien pr\u00e9par\u00e9e en cas d'\u00e9closion. La plupart des employ\u00e9s de l'<abbr title=\"Agence canadienne d'inspection des aliments\">ACIA</abbr> qui prenaient part \u00e0 l'intervention avaient bien compris et rempli leurs r\u00f4les et responsabilit\u00e9s. Un nombre suffisant de directives avaient \u00e9t\u00e9 fournies par l'entremise des manuels de proc\u00e9dures et des plans relatifs \u00e0 la gestion de la sant\u00e9 animale et des situations d'urgence. L'<abbr title=\"Agence canadienne d'inspection des aliments\">ACIA</abbr> a renforc\u00e9 sa collaboration avec l'Agence de la sant\u00e9 publique du Canada pour ce qui est de l'\u00e9valuation des risques pour la sant\u00e9 des animaux et des humains associ\u00e9s \u00e0 des zoonoses (maladies pouvant \u00eatre transmises entre les animaux et les humains).</p>\n<p>Le rapport souligne \u00e9galement que l'<abbr title=\"Agence canadienne d'inspection des aliments\">ACIA</abbr> doit s'assurer que la formation du personnel de premi\u00e8re ligne sur l'utilisation de l'\u00e9quipement de protection individuelle et l'envoi d'\u00e9chantillons biologiques demeure un volet cl\u00e9 de la pr\u00e9paration en cas d'urgence.</p>\n<h2>Recommandations et mesures d'intervention</h2>\n<p>L'<abbr title=\"Agence canadienne d'inspection des aliments\">ACIA</abbr> am\u00e9liore continuellement ses programmes et ses protocoles. Ce processus d'am\u00e9lioration continue repose en grande partie sur l'engagement de la direction \u00e0 donner suite aux recommandations d\u00e9coulant de ce type d'examen interne.</p>\n<p>L'Agence a mis au point une r\u00e9ponse et un plan d'action de la direction pour donner suite aux possibilit\u00e9s d'am\u00e9lioration relev\u00e9es dans le cadre des le\u00e7ons apprises.</p>\n<p><strong>1. Le rapport recommande que la Direction g\u00e9n\u00e9rale des op\u00e9rations de l'<abbr title=\"Agence canadienne d'inspection des aliments\">ACIA</abbr> veille \u00e0 ce que ses r\u00e9pondants de premi\u00e8re ligne en cas d'urgence zoosanitaire aient re\u00e7u la formation n\u00e9cessaire sur l'intervention en cas d'urgence.</strong></p>\n<p>L'<abbr title=\"Agence canadienne d'inspection des aliments\">ACIA</abbr> est fermement d\u00e9termin\u00e9e \u00e0 offrir \u00e0 tous les r\u00e9pondants de premi\u00e8re ligne en cas d'urgence zoosanitaire la formation n\u00e9cessaire sur l'intervention en cas d'urgence. Depuis 2009, les employ\u00e9s du centre op\u00e9rationnel de l'Ouest de l'<abbr title=\"Agence canadienne d'inspection des aliments\">ACIA</abbr> ont suivi une formation sur l'utilisation ad\u00e9quate de l'\u00e9quipement de protection individuelle et sur les protocoles de transport de marchandises dangereuses. Depuis 2010, des s\u00e9ances de formation sont offertes \u00e0 l'\u00e9chelle nationale. Par ailleurs, l'<abbr title=\"Agence canadienne d'inspection des aliments\">ACIA</abbr> cerne actuellement ses besoins en mati\u00e8re de formation continue pour ce qui est de la pr\u00e9paration en cas d'urgence zoosanitaire.</p>\n<p><strong>2. Le rapport recommande que tout poste de conseiller en sant\u00e9 et s\u00e9curit\u00e9 au travail (SST) rel\u00e8ve du niveau du commandement des interventions pour toutes les \u00e9closions de zoonoses soup\u00e7onn\u00e9es.</strong></p>\n<p>L'<abbr title=\"Agence canadienne d'inspection des aliments\">ACIA</abbr> reconna\u00eet qu'il faut, aux \u00e9chelons local et r\u00e9gional, que le titulaire du poste de conseiller en <abbr title=\"sant\u00e9 et s\u00e9curit\u00e9 au travail\">SST</abbr> appuie directement le commandant des interventions pour toutes les \u00e9closions de zoonoses soup\u00e7onn\u00e9es. Tant \u00e0 l'\u00e9chelle du pays que dans les centres op\u00e9rationnels de l'<abbr title=\"Agence canadienne d'inspection des aliments\">ACIA</abbr>, on a revu le r\u00f4le et les responsabilit\u00e9s des conseillers en <abbr title=\"sant\u00e9 et s\u00e9curit\u00e9 au travail\">SST</abbr>, lesquels continuent de relever du chef de la section Logistique dans la structure de commandement des incidents.</p>\n<h2>Remplir le rapport</h2>\n<ul>\n<li><a href=\"/a-propos-de-l-acia/transparence/rapports-de-gestion/verifications-evaluations-et-revues/grippe-pandemique-h1n1/lecons-apprises/fra/1353810575778/1353810747786\">\u00c9closion de grippe pand\u00e9mique H1N1 dans une exploitation porcine en 2009 - Le\u00e7ons apprises de l'<abbr title=\"Agence canadienne d'inspection des aliments\">ACIA</abbr></a></li>\n<li><a href=\"/a-propos-de-l-acia/transparence/rapports-de-gestion/verifications-evaluations-et-revues/grippe-pandemique-h1n1/plan-d-action/fra/1353812586026/1353812984633\">R\u00e9ponse et plan d'action de la direction</a></li>\n</ul>\r\n        \r\n\r\n<div class=\"row\">\r\n \r\n\t\t\t\r\n\t\t\t\r\n\r\n\t\t\r\n\t\r\n</div>"
    },
    "js": {
        "en": "",
        "fr": ""
    },
    "success": true,
    "chat_wizard": false
}