{
    "dcr_id": "1574449942229",
    "title": {
        "en": "Government of Canada actions in response to the food safety alerts concerning <i lang=\"la\">E. coli O157:H7</i> in romaine lettuce issued by the United States' Centers for Disease Control and Prevention and the  Food and Drug Administration",
        "fr": "Les mesures du gouvernement du Canada relativement aux alertes \u00e0 la li\u00e9es \u00e0 la salubrit\u00e9 des aliments concernant la pr\u00e9sence de la bact\u00e9rie <i lang=\"la\">E.\u00a0coli\u00a0O157:H7</i> dans la laitue romaine \u00e9mise par le <span lang=\"en\">Centers for Disease Control and Prevention et la Food and Drug Administration</span> des \u00c9tats-Unis"
    },
    "html_modified": "2024-03-12 3:58:36 PM",
    "modified": "2019-11-22",
    "issued": "2019-11-22",
    "teamsite_location": {
        "en": "/default/main/inspection/cont-cont/food-aliments/STAGING/templatedata/comn-comn/gene-gene/data/recall_list_ecoli_lettuce2019_1574449942229_eng",
        "fr": "/default/main/inspection/cont-cont/food-aliments/STAGING/templatedata/comn-comn/gene-gene/data/recall_list_ecoli_lettuce2019_1574449942229_fra"
    },
    "ia_id": "1574449986345",
    "parent_ia_id": "1332299812611",
    "chronicletopic": {
        "en": "",
        "fr": ""
    },
    "chroniclecontent": {
        "en": "",
        "fr": ""
    },
    "chronicleaudience": {
        "en": "",
        "fr": ""
    },
    "sfcrdocumenttype": {
        "en": "",
        "fr": ""
    },
    "sfcraudience": {
        "en": "",
        "fr": ""
    },
    "sfcrmethodofproduction": {
        "en": "",
        "fr": ""
    },
    "activity": {
        "en": "",
        "fr": ""
    },
    "commodity": {
        "en": "",
        "fr": ""
    },
    "program": {
        "en": "",
        "fr": ""
    },
    "search_type": "other",
    "parent_node_id": "1332299812611",
    "layout_name": "content page 1 column",
    "breadcrumb": {
        "en": "Government of Canada actions in response to the food safety alerts concerning <i lang=\"la\">E. coli O157:H7</i> in romaine lettuce issued by the United States' Centers for Disease Control and Prevention and the  Food and Drug Administration",
        "fr": "Les mesures du gouvernement du Canada relativement aux alertes \u00e0 la li\u00e9es \u00e0 la salubrit\u00e9 des aliments concernant la pr\u00e9sence de la bact\u00e9rie <i lang=\"la\">E.\u00a0coli\u00a0O157:H7</i> dans la laitue romaine \u00e9mise par le <span lang=\"en\">Centers for Disease Control and Prevention et la Food and Drug Administration</span> des \u00c9tats-Unis"
    },
    "label": {
        "en": "Government of Canada actions in response to the food safety alerts concerning <i lang=\"la\">E. coli O157:H7</i> in romaine lettuce issued by the United States' Centers for Disease Control and Prevention and the  Food and Drug Administration",
        "fr": "Les mesures du gouvernement du Canada relativement aux alertes \u00e0 la li\u00e9es \u00e0 la salubrit\u00e9 des aliments concernant la pr\u00e9sence de la bact\u00e9rie <i lang=\"la\">E.\u00a0coli\u00a0O157:H7</i> dans la laitue romaine \u00e9mise par le <span lang=\"en\">Centers for Disease Control and Prevention et la Food and Drug Administration</span> des \u00c9tats-Unis"
    },
    "templatetype": "content page 1 column",
    "node_id": "1574449986345",
    "managing_branch": "comn",
    "type_name": "sitemapinit",
    "dcr_type": "gene-gene",
    "parent_dcr_id": "1332299626115",
    "orig_type_name": "gene-gene",
    "has_dcr_id": true,
    "lang": "en",
    "could_not_load": 0,
    "refaire": false,
    "interwoven_url": {
        "en": "/about-the-cfia/transparency/regulatory-transparency-and-openness/food-safety-investigations/government-of-canada-romaine-lettuce-e-coli-/",
        "fr": "/a-propos-de-l-acia/transparence/transparence-et-ouverture/enquete-sur-la-salubrite-des-aliments/gouvernement-du-canada-laitue-romaine-e-coli-/"
    },
    "meta": {
        "viewport": {
            "en": "width=device-width,initial-scale=1",
            "fr": "width=device-width,initial-scale=1"
        },
        "service": {
            "en": "CFIA-ACIA",
            "fr": "CFIA-ACIA"
        },
        "accessRights": {
            "en": "2",
            "fr": "2"
        },
        "title": {
            "en": "Government of Canada actions in response to the food safety alerts concerning E. coli O157:H7 in romaine lettuce issued by the United States' Centers for Disease Control and Prevention and the  Food and Drug Administration",
            "fr": "Les mesures du gouvernement du Canada relativement aux alertes \u00e0 la li\u00e9es \u00e0 la salubrit\u00e9 des aliments concernant la pr\u00e9sence de la bact\u00e9rie E.\u00a0coli\u00a0O157:H7 dans la laitue romaine \u00e9mise par le Centers for Disease Control and Prevention et la Food and Drug Administration des \u00c9tats-Unis"
        },
        "description": {
            "en": "The Government of Canada's food safety partners (Canadian Food Inspection Agency [CFIA], Public Health Agency of Canada [PHAC], and Health Canada [HC]) have been monitoring the United States' investigation into the current outbreak of E. coli O157:H7 in romaine lettuce and are aware of the new information shared by the Center for Disease Control (CDC) and the Food and Drug Administration (US FDA) with respect to the investigation.",
            "fr": "Les mesures du gouvernement du Canada relativement aux alertes \u00e0 la li\u00e9es \u00e0 la salubrit\u00e9 des aliments concernant la pr\u00e9sence de la bact\u00e9rie E.\u00a0coli\u00a0O157:H7 dans la laitue romaine \u00e9mise par le Center for Disease Control and Prevention et la Food and Drug Administration des \u00c9tats-Unis"
        },
        "keywords": {
            "en": "food, food health, Government of Canada actions, food safety alerts, E. coli O157:H7 in romaine lettuce, United States, Center for Disease Control and Prevention, Food and Drug Administration",
            "fr": "aliments, sant\u00e9, mesures du gouvernement du Canada, salubrit\u00e9 des aliments, bact\u00e9rie E.\u00a0coli\u00a0O157:H7,  laitue romaine, Center for Disease Control and Prevention,  Food and Drug Administration des \u00c9tats-Unis"
        },
        "dcterms.subject": {
            "en": "food inspection,food labeling,food labelling,food processing,food safety,food security,government communications,information,inspection,investigations",
            "fr": "inspection des aliments,\u00e9tiquetage des aliments,\u00e9tiquetage des aliments, transformation des aliments,salubrit\u00e9 des aliments,s\u00e9curit\u00e9 alimentaire,communications gouvernementales,information,inspection,enqu\u00eate"
        },
        "creator": {
            "en": "Government of Canada,Canadian Food Inspection Agency",
            "fr": "Gouvernement du Canada,Agence canadienne d'inspection des aliments"
        },
        "language": {
            "en": "eng",
            "fr": "fra"
        },
        "issued": {
            "en": "2019-11-22",
            "fr": "2019-11-22"
        },
        "modified": {
            "en": "2019-11-22",
            "fr": "2019-11-22"
        },
        "type": {
            "en": "notice,reference material",
            "fr": "avis,mat\u00e9riel de r\u00e9f\u00e9rence"
        },
        "name": {
            "en": "Government of Canada",
            "fr": "Gouvernement du Canada"
        },
        "areaServed": {
            "en": "Canada",
            "fr": "Canada"
        }
    },
    "h1": {
        "en": "Archived - Government of Canada actions in response to the food safety alerts concerning E. coli O157:H7 in romaine lettuce issued by the United States' Centers for Disease Control and Prevention and the Food and Drug Administration",
        "fr": "Archiv\u00e9e - Les mesures du gouvernement du Canada relativement aux alertes \u00e0 la li\u00e9es \u00e0 la salubrit\u00e9 des aliments concernant la pr\u00e9sence de la bact\u00e9rie E.\u00a0coli\u00a0O157:H7 dans la laitue romaine \u00e9mise par le Centers for Disease Control and Prevention et la Food and Drug Administration des \u00c9tats-Unis"
    },
    "body": {
        "en": "        \r\n        \n<section id=\"archived\" class=\"alert alert-warning wb-inview\" data-inview=\"archived-bnr\">\r\n<h2>This page has been archived</h2>\r\n<p>Information identified as archived is provided for reference, research or record-keeping purposes. It is not subject to the Government of Canada Web Standards and has not been altered or updated since it was archived. Please contact us to request a format other than those available.</p>\r\n</section>\r\n\r\n<section id=\"archived-bnr\" class=\"wb-overlay modal-content overlay-def wb-bar-t\">\r\n<header>\r\n<h2 class=\"wb-inv\">Archived</h2>\r\n</header>\r\n<p><a href=\"#archived\">This page has been archived.</a></p>\r\n</section>\r\n\r\n<p class=\"mrgn-tp-md\">November 22, 2019</p>\n<p>The Government of Canada's food safety partners (Canadian Food Inspection Agency [CFIA], Public Health Agency of Canada [PHAC], and Health Canada [HC]) have been monitoring the United States' investigation into the current outbreak of <i lang=\"la\">E. coli O157:H7 </i> in romaine lettuce and are aware of the new information shared by the Centers for Disease Control (CDC) and the Food and Drug Administration (US FDA) with respect to the investigation.</p>\n<p>The <a href=\"https://www.cdc.gov/ecoli/2019/o157h7-11-19/index.html\">CDC's alert</a> and the <a href=\"https://www.fda.gov/food/outbreaks-foodborne-illness/investigation-e-coli-o157h7-outbreak-linked-romaine-salinas-california-november-2019\">US FDA's recommendation</a>, indicates that preliminary trace back information points to romaine lettuce harvested in the Salinas growing region of California as the potential source of the outbreak of <i lang=\"la\">E. coli O157:H7 </i> that has resulted in multiple illnesses in the United States and one isolated illness in Canada.</p>\n<p>Food safety is our top priority. The Government of Canada, working in collaboration with industry, is taking the following immediate actions to assure Canadians that the produce they buy and consume remains safe:</p>\n<ul>\n<li>CFIA is advising distributors, importers, restaurants, retailers, and institutions not to distribute, import, sell, serve, or use romaine lettuce, and products containing romaine lettuce, harvested in the Salinas growing region of California, as identified in the US FDA's statement due to potential contamination of <i lang=\"la\">E. coli O157:H7</i>, until further notice;</li>\n<li>CFIA is implementing additional control measures to verify that products from the areas identified in the U.S. FDA's investigation are not being imported into Canada;</li>\n<li>Romaine lettuce produced in Canada is safe to eat. Consumers should verify where the product came from before consuming;</li>\n<li>The Public Health Agency of Canada issued a <a href=\"https://www.canada.ca/en/public-health/services/public-health-notices/2019/outbreak-united-states-e-coli-infections-romaine-lettuce.html\">Public Health Notice</a> to Canadians.</li>\n</ul>\n<p>The CFIA continues to sample produce through its enhanced microbiological surveillance programs for imported fresh vegetables and salads. Samples from these programs are analyzed for pathogens, including <i lang=\"la\">E. coli O157:H7 </i>. Romaine lettuce and pre-packaged salads containing romaine lettuce are included within this surveillance program. To date, targeted testing of some 270 samples of leafy greens (including imported romaine lettuce) have been tested and <i lang=\"la\">E. coli O157:H7</i> has not been detected in any of these samples.</p>\n<p>CFIA's food safety investigation into the source of the lettuce consumed by the affected person in Canada is still underway; information on Canadian trace back activities is shared with the investigation's partners, including PHAC, Health Canada, and the US authorities, to assist with their respective follow-up activities.</p>\n<p>As noted by the US FDA, at this time, romaine lettuce that was harvested outside of the Salinas region has not been implicated in this outbreak investigation. Additionally, hydroponically and greenhouse-grown romaine does not appear to be related to the current outbreak and is safe to eat.</p>\n<p>Please follow the advice in the <a href=\"https://www.canada.ca/en/public-health/services/public-health-notices/2019/outbreak-united-states-e-coli-infections-romaine-lettuce.html\">Public Health Notice</a> regarding the consumption of lettuce that is currently in the marketplace or in your home.</p>\n<p>The Government of Canada is committed to keeping Canadians informed as more information becomes available.</p>\n\r\n        \r\n\r\n\r\n\r\n<div class=\"row\">\r\n \r\n\t\r\n\t\t\t\r\n\r\n<div class=\"col-xm-12 pagedetails container\">\r\n\t\t\t\t\r\n\r\n</div>\r\n\t\r\n</div>",
        "fr": "\r\n        \r\n        \n<section id=\"archived\" class=\"alert alert-warning wb-inview\" data-inview=\"archived-bnr\">\r\n<h2>Cette page a \u00e9t\u00e9 archiv\u00e9e</h2>\r\n<p></p>\r\n</section>\r\n\r\n<section id=\"archived-bnr\" class=\"wb-overlay modal-content overlay-def wb-bar-t\">\r\n<header>\r\n<h2 class=\"wb-inv\">Archiv\u00e9e</h2>\r\n</header>\r\n<p><a href=\"#archived\">Cette page a \u00e9t\u00e9 archiv\u00e9e.</a></p>\r\n</section><p class=\"mrgn-tp-md\">Le 22\u00a0novembre\u00a02019</p>\n<p>Les partenaires en mati\u00e8re de salubrit\u00e9 des aliments du gouvernement du Canada (Agence canadienne d'inspection des aliments [ACIA], Agence de sant\u00e9 publique du Canada [ASPC] et Sant\u00e9 Canada [SC]) surveillent l'enqu\u00eate des \u00c9tats-Unis concernant l'\u00e9closion actuelle d'<i lang=\"la\">E.\u00a0coli\u00a0O157:H7</i> dans la laitue romaine et ils sont au courant des nouveaux renseignements communiqu\u00e9s par le <span lang=\"en\">Centers for Disease Control (CDC)</span> et la <span lang=\"en\">Food and Drug Administration</span> des \u00c9tats-Unis (FDA des \u00c9.-U.) concernant l'enqu\u00eate.</p>\n<p> L'<a href=\"https://www.cdc.gov/ecoli/2019/o157h7-11-19/index.html\">alerte du CDC (en anglais seulement)</a> et les <a href=\"https://www.fda.gov/food/outbreaks-foodborne-illness/investigation-e-coli-o157h7-outbreak-linked-romaine-salinas-california-november-2019\">recommandations de la FDA des \u00c9.-U. (en anglais seulement)</a> indiquent que les renseignements pr\u00e9liminaires de retra\u00e7age pointent vers de la laitue romaine r\u00e9colt\u00e9e dans la r\u00e9gion agricole de Salinas, en Californie, comme source potentielle de l'\u00e9closion d'<i lang=\"la\">E.\u00a0coli\u00a0O157:H7</i> qui a caus\u00e9 de nombreuses maladies aux \u00c9tats-Unis et un cas isol\u00e9 de maladie au Canada.</p>\n<p>La salubrit\u00e9 des aliments est une priorit\u00e9 absolue. Le gouvernement du Canada, en collaboration avec l'industrie, prend les mesures imm\u00e9diates suivantes pour garantir \u00e0 la population canadienne que les produits qu'elle ach\u00e8te et consomme demeurent s\u00e9curitaires\u00a0:</p>\n<ul>\n<li>l'ACIA avertit les distributeurs, les importateurs, les restaurants, les d\u00e9taillants et les \u00e9tablissements de ne pas distribuer, importer, vendre ou utiliser de la laitue romaine, ainsi que des produits en contenant, r\u00e9colt\u00e9e dans la r\u00e9gion agricole de Salinas, en Californie, comme indiqu\u00e9 dans la d\u00e9claration de la FDA en raison d'une contamination potentielle \u00e0 <i lang=\"la\">E.\u00a0coli\u00a0O157:H7</i>, et ce, jusqu'\u00e0 nouvel ordre;</li>\n<li>l'ACIA met en place des mesures de contr\u00f4le suppl\u00e9mentaires pour v\u00e9rifier que les produits provenant des r\u00e9gions indiqu\u00e9es dans l'enqu\u00eate de la FDA des \u00c9.-U. ne sont pas import\u00e9s au Canada;</li>\n<li>la laitue romaine produite au Canada est propre \u00e0 la consommation. Les consommateurs devraient v\u00e9rifier la provenance du produit avant de le consommer;</li>\n<li>l'Agence de sant\u00e9 publique du Canada a \u00e9mis un <a href=\"https://www.canada.ca/fr/sante-publique/services/avis-sante-publique/2019/eclosion-etats-unis-infections-e-coli-laitue-romaine.html\">avis de sant\u00e9 publique</a> pour la population canadienne.</li>\n</ul>\n<p>L'ACIA continue de pr\u00e9lever des \u00e9chantillons de produits par l'entremise de ses programmes de surveillance microbiologique pour les salades et les l\u00e9gumes frais import\u00e9s. Les \u00e9chantillons pr\u00e9lev\u00e9s dans le cadre de ces programmes sont analys\u00e9s pour d\u00e9tecter la pr\u00e9sence d'agents pathog\u00e8nes, y compris <i lang=\"la\">E.\u00a0coli\u00a0O157:H7</i>. La laitue romaine et les salades pr\u00e9emball\u00e9es contenant de la laitue romaine sont incluses dans ce programme de surveillance. Jusqu'\u00e0 maintenant, les analyses cibl\u00e9es de pr\u00e8s de 270\u00a0\u00e9chantillons de l\u00e9gumes-feuilles (y compris de la laitue romaine import\u00e9e) ont \u00e9t\u00e9 effectu\u00e9es et <i lang=\"la\">E.\u00a0coli\u00a0O157:H7</i> n'a \u00e9t\u00e9 d\u00e9tect\u00e9 dans aucun de ces \u00e9chantillons.</p>\n<p>L'enqu\u00eate sur la salubrit\u00e9 des aliments de l'ACIA sur la source de la laitue consomm\u00e9e par la personne touch\u00e9e au Canada est toujours en cours; les renseignements sur les activit\u00e9s canadiennes de retra\u00e7age en aval sont communiqu\u00e9s aux partenaires de l'enqu\u00eate, y compris l'ASPC, Sant\u00e9 Canada et les autorit\u00e9s am\u00e9ricaines, afin de les aider dans leurs propres activit\u00e9s de suivi.</p>\n<p>Comme la FDA des \u00c9.-U. l'a fait remarquer, la laitue romaine qui a \u00e9t\u00e9 r\u00e9colt\u00e9e en dehors de la r\u00e9gion de Salinas n'a pas \u00e9t\u00e9 mise en cause dans cette enqu\u00eate sur l'\u00e9closion. De plus, la laitue romaine cultiv\u00e9e de mani\u00e8re hydroponique et en serre ne semble pas \u00eatre li\u00e9e \u00e0 l'\u00e9closion actuelle et est propre \u00e0 la consommation.</p>\n<p>Veuillez suivre les conseils de l'<a href=\"https://www.canada.ca/fr/sante-publique/services/avis-sante-publique/2019/eclosion-etats-unis-infections-e-coli-laitue-romaine.html\">avis de sant\u00e9 publique</a> concernant la consommation de laitue qui se trouve actuellement sur le march\u00e9 ou dans votre domicile.</p>\n<p>Le gouvernement du Canada s'engage \u00e0 tenir la population canadienne inform\u00e9e au fur et \u00e0 mesure que de nouveaux renseignements deviennent disponibles.</p>\n\n\n\r\n        \r\n\r\n<div class=\"row\">\r\n \r\n\t\t\t\r\n\t\t\t\r\n\r\n\t\t\r\n\t\r\n</div>"
    },
    "js": {
        "en": "",
        "fr": ""
    },
    "success": true,
    "chat_wizard": false
}