{
    "dcr_id": "1348258196979",
    "title": {
        "en": "2009-2010 Ochratoxin A and Deoxynivalenol in Selected Foods",
        "fr": "2009-2010 Ochratoxine A et d\u00e9soxynival\u00e9nol dans certaines denr\u00e9es"
    },
    "html_modified": "5-6-2018",
    "modified": "4-9-2018",
    "issued": "21-9-2012",
    "teamsite_location": {
        "en": "/default/main/inspection/cont-cont/food-aliments/WORKAREA/food-aliments/templatedata/comn-comn/forms-formes/data/chem_residue_reports_2009-2010_ochratoxin_1348258196979_eng",
        "fr": "/default/main/inspection/cont-cont/food-aliments/WORKAREA/food-aliments/templatedata/comn-comn/forms-formes/data/chem_residue_reports_2009-2010_ochratoxin_1348258196979_fra"
    },
    "parent_ia_id": "1453327843364",
    "ia_id": "1348258304536",
    "parent_node_id": "1453327843364",
    "layout_name": "content page 1 column",
    "breadcrumb": {
        "en": "2009-2010 Ochratoxin A and Deoxynivalenol in Selected Foods",
        "fr": "2009-2010 Ochratoxine A et d\u00e9soxynival\u00e9nol dans certaines denr\u00e9es"
    },
    "label": {
        "en": "2009-2010 Ochratoxin A and Deoxynivalenol in Selected Foods",
        "fr": "2009-2010 Ochratoxine A et d\u00e9soxynival\u00e9nol dans certaines denr\u00e9es"
    },
    "templatetype": "content page 1 column",
    "node_id": "1348258304536",
    "managing_branch": "comn",
    "type_name": "forms-formes",
    "dcr_type": "forms-formes",
    "parent_dcr_id": "1453324778043",
    "has_dcr_id": true,
    "lang": "en",
    "could_not_load": 0,
    "refaire": false,
    "interwoven_url": {
        "en": "/food-safety-for-industry/food-chemistry-and-microbiology/food-safety-testing-reports-and-journal-articles/ochratoxin-a-and-deoxynivalenol/",
        "fr": "/salubrite-alimentaire-pour-l-industrie/chimie-et-microbiologie-alimentaires/rapports-d-analyse-et-articles-de-revues-sur-la-sa/ochratoxine-a-et-desoxynivalenol/"
    },
    "meta": {
        "viewport": {
            "en": "width=device-width,initial-scale=1",
            "fr": "width=device-width,initial-scale=1"
        },
        "service": {
            "en": "CFIA-ACIA",
            "fr": "CFIA-ACIA"
        },
        "accessRights": {
            "en": "2",
            "fr": "2"
        },
        "title": {
            "en": "2009-2010 Ochratoxin A and Deoxynivalenol in Selected Foods",
            "fr": "2009-2010 Ochratoxine A et d\u00e9soxynival\u00e9nol dans certaines denr\u00e9es"
        },
        "description": {
            "en": "This targeted survey focuses on ochratoxin A (OTA) and deoxynivalenol (DON), which are a class of mycotoxins produced by fungal contamination of foods such as grains and fruit.",
            "fr": "La pr\u00e9sente \u00e9tude cibl\u00e9e met l'accent sur l'ochratoxine A (OTA) et le d\u00e9soxynival\u00e9nol (DON), lesquels forment une classe de mycotoxines produites par la contamination fongique des aliments tels que des grains et des fruits."
        },
        "keywords": {
            "en": "chemical residues, testing, sampling, reporting, ochratoxin A, OTA, deoxynivalenol, DON, mycotoxins, fungal contamination",
            "fr": "R\u00e9sidus chimiques, essai, pr\u00e9l\u00e8vement, \u00a0rapports, ochratoxine A, d\u00e9soxynival\u00e9nol, contamination fongique, mycotoxines"
        },
        "dcterms.subject": {
            "en": "agri-food products,assessment,food inspection,food safety,fruits,grains,inspection,scientific research",
            "fr": "produit agro-alimentaire,\u00e9valuation,inspection des aliments,salubrit\u00e9 des aliments,fruit,grain,inspection,recherche scientifique"
        },
        "creator": {
            "en": "Government of Canada,Canadian Food Inspection Agency,Food Safety Science Directorate",
            "fr": "Gouvernement du Canada,Agence canadienne d'inspection des aliments,Direction des sciences de la salubrit\u00e9 des aliments"
        },
        "language": {
            "en": "eng",
            "fr": "fra"
        },
        "issued": {
            "en": "2018-06-05",
            "fr": "2018-06-05"
        },
        "modified": {
            "en": "2018-09-04",
            "fr": "2018-09-04"
        },
        "type": {
            "en": "reference material,report",
            "fr": "mat\u00e9riel de r\u00e9f\u00e9rence,rapport"
        },
        "audience": {
            "en": "business,general public,government,scientists",
            "fr": "entreprises,grand public,gouvernement,Scientifiques"
        },
        "name": {
            "en": "Government of Canada",
            "fr": "Gouvernement du Canada"
        },
        "areaServed": {
            "en": "Canada",
            "fr": "Canada"
        }
    },
    "h1": {
        "en": "2009-2010 Ochratoxin A and Deoxynivalenol in Selected Foods",
        "fr": "2009-2010 Ochratoxine A et d\u00e9soxynival\u00e9nol dans certaines denr\u00e9es"
    },
    "js": {
        "en": "<script>\n    document.frmPublication.strTitle.value = document.getElementsByTagName(\"title\")[0].innerHTML;\n    document.frmPublication.strUrl.value = document.URL;\n</script>/* --------------------- MORE JAVASCRIPT ------------------- */<script>\n$(document).ready (function(){\n\tif($(\"#strPaper\").checked || $(\"#strBraille\").checked)\n\t{\n\t\tPaperBrailleChecked();\n\t}\n});\n\n$(document).on(\"change\", \"#strBraille\", function(){\n\tif($(\"#strBraille\").is(\":checked\"))\n\t{\n\t\tPaperBrailleChecked();\n\t}\n\telse if(!($(\"#strPaper\").is(\":checked\")))\n\t{\n\t\tPaperBrailleUnChecked();\n\t}\n});\n\n$(document).on(\"change\", \"#strPaper\", function(){\n\tif($(\"#strPaper\").is(\":checked\"))\n\t{\n\t\tPaperBrailleChecked();\n\t}\n\telse if(!($(\"#strBraille\").is(\":checked\")))\n\t{\n\t\tPaperBrailleUnChecked();\n\t}\n});\n\nfunction PaperBrailleChecked()\n{\n\t$(\"#strAddress1\").attr(\"required\", \"true\");\n\t$(\"#strCity\").attr(\"required\", \"true\");\n\t$(\"#strProvince\").attr(\"required\", \"true\");\n\t$(\"#strCountry\").attr(\"required\", \"true\");\n\t$(\"#strPostal\").attr(\"required\", \"true\");\n}\n\nfunction PaperBrailleUnChecked()\n{\n\t$(\"#strAddress1\").removeAttr(\"required\");\n\t$(\"#strCity\").removeAttr(\"required\");\n\t$(\"#strProvince\").removeAttr(\"required\");\n\t$(\"#strCountry\").removeAttr(\"required\");\n\t$(\"#strPostal\").removeAttr(\"required\");\n}\n</script>",
        "fr": "<script>\n    document.frmPublication.strTitle.value = document.getElementsByTagName(\"title\")[0].innerHTML;\n    document.frmPublication.strUrl.value = document.URL;\n</script>/* --------------------- MORE JAVASCRIPT ------------------- */<script>\n$(document).ready (function(){\n\tif($(\"#strPaper\").checked || $(\"#strBraille\").checked)\n\t{\n\t\tPaperBrailleChecked();\n\t}\n});\n\n$(document).on(\"change\", \"#strBraille\", function(){\n\tif($(\"#strBraille\").is(\":checked\"))\n\t{\n\t\tPaperBrailleChecked();\n\t}\n\telse if(!($(\"#strPaper\").is(\":checked\")))\n\t{\n\t\tPaperBrailleUnChecked();\n\t}\n});\n\n$(document).on(\"change\", \"#strPaper\", function(){\n\tif($(\"#strPaper\").is(\":checked\"))\n\t{\n\t\tPaperBrailleChecked();\n\t}\n\telse if(!($(\"#strBraille\").is(\":checked\")))\n\t{\n\t\tPaperBrailleUnChecked();\n\t}\n});\n\nfunction PaperBrailleChecked()\n{\n\t$(\"#strAddress1\").attr(\"required\", \"true\");\n\t$(\"#strCity\").attr(\"required\", \"true\");\n\t$(\"#strProvince\").attr(\"required\", \"true\");\n\t$(\"#strCountry\").attr(\"required\", \"true\");\n\t$(\"#strPostal\").attr(\"required\", \"true\");\n}\n\nfunction PaperBrailleUnChecked()\n{\n\t$(\"#strAddress1\").removeAttr(\"required\");\n\t$(\"#strCity\").removeAttr(\"required\");\n\t$(\"#strProvince\").removeAttr(\"required\");\n\t$(\"#strCountry\").removeAttr(\"required\");\n\t$(\"#strPostal\").removeAttr(\"required\");\n}\n</script>"
    },
    "mode_html": "no_editor_full",
    "body": {
        "en": "        \r\n        \n<h2>Summary</h2>\n<p>The Food Safety Action Plan (FSAP) aims to modernize and enhance Canada's food safety system. As part of the <abbr title=\"Food Safety Action Plan\">FSAP</abbr> enhanced surveillance initiative, targeted surveys are used to test various foods for specific hazards.</p>\n<p>This targeted survey focuses on ochratoxin A (OTA) and deoxynivalenol (DON), which are a class of mycotoxins produced by fungal contamination of foods such as grains and fruit. Fungal contamination may occur in the field or during storage of the raw commodities. Processing of the affected grains/fruit may result in detectable levels of these mycotoxins in finished food products.</p>\n<p>The main objectives of this survey were to:</p>\n<ul>\n<li>Provide baseline surveillance data for <abbr title=\"ochratoxin A\">OTA</abbr> levels in foods that are known to have the potential for <abbr title=\"ochratoxin A\">OTA</abbr> and <abbr title=\"deoxynivalenol\">DON</abbr> contamination. These foods include infant foods (formula, cereal), beverages (grape juice, wine, beer), and grain (wheat, oat and corn) products.</li>\n<li>Obtain a snapshot of the available infant food, beverage and cereal-based commodities and their compliance with Health Canada's proposed guidelines for <abbr title=\"ochratoxin A\">OTA</abbr>.</li>\n<li>Provide baseline surveillance data for <abbr title=\"deoxynivalenol\">DON</abbr> levels in wheat, corn and oat products.</li>\n</ul>\n<p>The compliance rate for <abbr title=\"ochratoxin A\">OTA</abbr> in infant foods, which included infant formula and infant cereals, was 96%. Out of 150 infant food samples (75 formula and 75 cereal), 20 samples contained detectable levels of <abbr title=\"ochratoxin A\">OTA</abbr>. Of the 20 positive samples, six infant cereal samples exceeded the <abbr title=\"ochratoxin A\">OTA</abbr> regulations proposed by Health Canada.</p>\n<p>The compliance rate for <abbr title=\"ochratoxin A\">OTA</abbr> in beverages (grape juice, wine, and beer - 50 samples each) was 100%. There was one wine sample in which <abbr title=\"ochratoxin A\">OTA</abbr> was detected at a level that was compliant with Health Canada's proposed regulatory limits for <abbr title=\"ochratoxin A\">OTA</abbr>.</p>\n<p>In cereal products, the compliance rate for <abbr title=\"ochratoxin A\">OTA</abbr> was 98%. Out of 150 cereal products (75 wheat, 50 corn, 25 oat) sampled, 31 contained detectable levels of <abbr title=\"ochratoxin A\">OTA</abbr>. Of the 31 positive samples, three oat samples exceeded Health Canada's proposed regulations for <abbr title=\"ochratoxin A\">OTA</abbr>.</p>\n<p>The compliance rate for <abbr title=\"deoxynivalenol\">DON</abbr> in cereal products could not be determined as there are no established or proposed regulatory limits for <abbr title=\"deoxynivalenol\">DON</abbr> in the commodities tested in this survey. No detectable levels of <abbr title=\"deoxynivalenol\">DON</abbr> were found in 39% of the wheat products, 32% of the corn products, and 72% of the oat products sampled. The measured <abbr title=\"deoxynivalenol\">DON</abbr> levels ranged from 0.01 <abbr title=\"parts per million\">ppm</abbr> to 6.01 <abbr title=\"parts per million\">ppm</abbr> in wheat products; 0.01 <abbr title=\"parts per million\">ppm</abbr> to 1.38 <abbr title=\"parts per million\">ppm</abbr> in corn products; and 0.02 <abbr title=\"parts per million\">ppm</abbr> to 0.13 <abbr title=\"parts per million\">ppm</abbr> in oat products.</p>\n<p>In summary, 450 total samples were tested for <abbr title=\"ochratoxin A\">OTA</abbr> resulting in an overall compliance rate of 98%. One hundred and fifty of these samples were also tested for <abbr title=\"deoxynivalenol\">DON</abbr>, in which it was detected in 42% of the samples. All samples that exceeded the proposed regulations for <abbr title=\"ochratoxin A\">OTA</abbr> and all positive results for <abbr title=\"deoxynivalenol\">DON</abbr> were referred to the designated <abbr title=\"Canadian Food Inspection Agency\">CFIA</abbr> program for appropriate follow-up actions. These actions may range from notification of the producer or importer, follow-up inspections, additional directed sampling, and product recalls.</p>\n\r\n<style>\n/* required style */\n    .keyValue{\n\tdisplay: none !important;\n        visibility: hidden !important;\n</style>\n<h2>Request of Complete Report</h2>\n<p>The complete text of this report is available upon request.</p>\n\n<div class=\"wb-frmvld\">\n\n<form class=\"form-horizontal\" role=\"form\" method=\"post\" action=\"/active/netapp/comment/publicationposte.aspx#wb-cont\" name=\"frmPublication\">\n<input id=\"emailad0\" name=\"to\" class=\"hidden\" type=\"hidden\" aria-hidden=\"true\" value=\"jWyfB8a+WOfhK+BJ6NjwVcwM0gyTff+WMo5oS2WI+AfefZfcQH8SV4Lzeye/k3V0XhO/lQLtv/oLbhIlqYmMJ3TLsqvgCkqhgiVPWIUcPas=\">\n<input name=\"strLang\" type=\"hidden\" value=\"English\">\n<input name=\"strSubject\" type=\"hidden\" value=\"Chemical Residues / Microbiology Report Request\">\n<input name=\"strTitle\" type=\"hidden\" value=\"title\">\n<input name=\"strUrl\" type=\"hidden\" value=\"url\">\n<script type=\"text/javascript\">\n    document.frmPublication.strTitle.value = document.getElementsByTagName(\"title\")[0].innerHTML;\n    document.frmPublication.strUrl.value = document.URL;\n</script>\n        \n<fieldset class=\"mrgn-tp-md mrgn-bttm-lg\">\t\t\n\n<legend class=\"field-name required\"><span class=\"field-name\">The format in which you would like to receive the report</span> <strong class=\"required\">(required)</strong></legend>\n\n<div class=\"checkbox\">\n<label for=\"strPdf\"><input type=\"checkbox\" name=\"formatsent\" id=\"strPdf\" value=\"pdf\" required=\"required\">PDF (Portable Document Format) electronic file sent to you by email</label>\n</div>\n\n<div class=\"checkbox\">\n<label for=\"strText\"><input type=\"checkbox\" name=\"formatsent\" id=\"strText\" value=\"text\">RTF (Rich Text Format) electronic file sent to you by email</label>\n</div>\n\n<div class=\"checkbox\">\n<label for=\"strBraille\"><input type=\"checkbox\" name=\"formatsent\" id=\"strBraille\" value=\"braille\">Braille copy sent to you by mail</label>\n</div>\n\n<div class=\"checkbox\">\n<label for=\"strPaper\"><input type=\"checkbox\" name=\"formatsent\" id=\"strPaper\" value=\"paper\">Paper copy sent to you by mail</label>\n</div>\n\n</fieldset>\t\n\n<fieldset class=\"mrgn-tp-md mrgn-bttm-lg\">\t\t\n\n<legend class=\"field-name\">Your contact information</legend>\n\n<label class=\"keyValue\" for=\"name\"></label>\n<input class=\"keyValue\" autocomplete=\"off\" type=\"text\" id=\"name\" name=\"name\">\n<label class=\"keyValue\" for=\"email\"></label>\n<input class=\"keyValue\" autocomplete=\"off\" type=\"email\" id=\"email\" name=\"email\"> \n\n<div class=\"form-group\">\n<label for=\"strFirstName\" class=\"required col-md-4 control-label\"><span class=\"field-name\">First name:</span> <strong class=\"required\">(required)</strong></label>\n<div class=\"col-md-8\">\n<input class=\"form-control\" id=\"strFirstName\" name=\"strFirstName\" type=\"text\" required=\"required\" pattern=\".{2,}\" data-rule-minlength=\"2\">\n</div>\n</div>\n            \n<div class=\"form-group\">\n<label for=\"strLastName\" class=\"required col-md-4 control-label\"><span class=\"field-name\">Last name:</span> <strong class=\"required\">(required)</strong></label>\n<div class=\"col-md-8\">\n<input class=\"form-control\" id=\"strLastName\" name=\"strLastName\" type=\"text\" required=\"required\" pattern=\".{2,}\" data-rule-minlength=\"2\">\n</div>\n</div>\n\n<div class=\"form-group\">\n<label for=\"strEmail\" class=\"required col-md-4 control-label\"><span class=\"field-name\">Email address:</span>  <strong class=\"required\">(required)</strong></label>\n<div class=\"col-md-8\">\n<input class=\"form-control\" id=\"strEmail\" name=\"strEmail\" type=\"email\" required=\"required\">\n</div>\n</div>\n\n<div class=\"form-group\">\n<label for=\"strConfirmEmail\" class=\"required col-md-4 control-label\"><span class=\"field-name\">Confirm email address:</span>  <strong class=\"required\">(required)</strong></label>\n<div class=\"col-md-8\">\n<input class=\"form-control\" id=\"strConfirmEmail\" name=\"strConfirmEmail\" type=\"email\" data-rule-equalto=\"#strEmail\" required=\"required\">\n</div>\n</div>\n\n<div class=\"form-group mrgn-tp-md\">\n<label for=\"lstdescribe\" class=\"required col-md-4 control-label\"><span class=\"field-name\">How would you describe yourself?</span> <strong class=\"required\">(required)</strong></label>\n<div class=\"col-md-8\">\n<select class=\"form-control\" id=\"lstdescribe\" name=\"lstdescribe\" required=\"required\">\n<option label=\"Select from this list\"></option>\n<option value=\"Academia\">Academia</option>\n<option value=\"Consumer Association\">Consumer Association</option>\n<option value=\"Consumer/General Public\">Consumer / General Public</option>\n<option value=\"Industry Association\">Industry Association</option>\n<option value=\"Industry/Commercial Sector\">Industry / Commercial Sector</option>\n<option value=\"Other Government Departments\">Other Government Departments</option>\t\t\t\n</select>\n</div>\n</div>\t\n\n<div class=\"form-group\">\n<label for=\"strAddress1\" class=\"col-md-4 control-label\"><span class=\"field-name\">Address 1:</span></label>\n<div class=\"col-md-8\">\n<input class=\"form-control\" id=\"strAddress1\" name=\"strAddress1\" type=\"text\">\n</div>\n</div>\n\n<div class=\"form-group\">\n<label for=\"strAddress2\" class=\"col-md-4 control-label\"><span class=\"field-name\">Address 2:</span></label>\n<div class=\"col-md-8\">\n<input class=\"form-control\" id=\"strAddress2\" name=\"strAddress2\" type=\"text\">\n</div>\n</div>\n\n<div class=\"form-group\">\n<label for=\"strCity\" class=\"col-md-4 control-label\"><span class=\"field-name\">City:</span></label>\n<div class=\"col-md-8\">\n<input class=\"form-control\" id=\"strCity\" name=\"strCity\" type=\"text\">\n</div>\n</div>\n\n<div class=\"form-group\">\n<label for=\"strProvince\" class=\"col-md-4 control-label\"><span class=\"field-name\">Province:</span></label>\n<div class=\"col-md-8\">\n<input class=\"form-control\" id=\"strProvince\" name=\"strProvince\" type=\"text\">\n</div>\n</div>\n\n<div class=\"form-group\">\n<label for=\"strCountry\" class=\"col-md-4 control-label\"><span class=\"field-name\">Country:</span></label>\n<div class=\"col-md-8\">\n<input class=\"form-control\" id=\"strCountry\" name=\"strCountry\" type=\"text\">\n</div>\n</div>\n\n<div class=\"form-group\">\n<label for=\"strPostal\" class=\"col-md-4 control-label\"><span class=\"field-name\">Postal Code:</span></label>\n<div class=\"col-md-8\">\n<input class=\"form-control\" id=\"strPostal\" name=\"strPostal\" type=\"text\">\n</div>\n</div>\n\n</fieldset>\t\n\n<input value=\"Submit Your Request\" id=\"btnSubmit\" name=\"btnSubmit\" class=\"btn btn-primary\" type=\"submit\"> \n<input value=\"Clear All Information\" id=\"btnReset\" name=\"btnReset\" class=\"btn btn-default\" type=\"reset\">\n\n</form>\n</div>\n<script src=\"https://ajax.googleapis.com/ajax/libs/jquery/2.1.1/jquery.min.js\"></script>\n<script type=\"text/javascript\">\n$(document).ready (function(){\n\tif($(\"#strPaper\").checked || $(\"#strBraille\").checked)\n\t{\n\t\tPaperBrailleChecked();\n\t}\n});\n\n$(document).on(\"change\", \"#strBraille\", function(){\n\tif($(\"#strBraille\").is(\":checked\"))\n\t{\n\t\tPaperBrailleChecked();\n\t}\n\telse if(!($(\"#strPaper\").is(\":checked\")))\n\t{\n\t\tPaperBrailleUnChecked();\n\t}\n});\n\n$(document).on(\"change\", \"#strPaper\", function(){\n\tif($(\"#strPaper\").is(\":checked\"))\n\t{\n\t\tPaperBrailleChecked();\n\t}\n\telse if(!($(\"#strBraille\").is(\":checked\")))\n\t{\n\t\tPaperBrailleUnChecked();\n\t}\n});\n\nfunction PaperBrailleChecked()\n{\n\t$(\"#strAddress1\").attr(\"required\", \"true\");\n\t$(\"#strCity\").attr(\"required\", \"true\");\n\t$(\"#strProvince\").attr(\"required\", \"true\");\n\t$(\"#strCountry\").attr(\"required\", \"true\");\n\t$(\"#strPostal\").attr(\"required\", \"true\");\n}\n\nfunction PaperBrailleUnChecked()\n{\n\t$(\"#strAddress1\").removeAttr(\"required\");\n\t$(\"#strCity\").removeAttr(\"required\");\n\t$(\"#strProvince\").removeAttr(\"required\");\n\t$(\"#strCountry\").removeAttr(\"required\");\n\t$(\"#strPostal\").removeAttr(\"required\");\n}\n</script>\r\n\r\n\r\n\r\n<div class=\"row\">\r\n \r\n\t\r\n\t\t\t\r\n\r\n<div class=\"col-xm-12 pagedetails container\">\r\n\t\t\t\t\r\n\r\n</div>\r\n\t\r\n</div>",
        "fr": "\r\n        \r\n        \n<h2>R\u00e9sum\u00e9</h2>\n<p>Le Plan d'action pour assurer la s\u00e9curit\u00e9 des produits alimentaires (PAASPA) vise \u00e0 moderniser et \u00e0 renforcer le syst\u00e8me canadien d'assurance de la salubrit\u00e9 des aliments. Dans le cadre de l'initiative de surveillance accrue du <abbr title=\"Plan d'action pour assurer la s\u00e9curit\u00e9 des produits alimentaires\">PAASPA</abbr>, des \u00e9tudes cibl\u00e9es sont effectu\u00e9es afin d'analyser divers aliments en vue d'y d\u00e9celer des dangers pr\u00e9cis.</p>\n<p>La pr\u00e9sente \u00e9tude cibl\u00e9e met l'accent sur l'ochratoxine\u00a0A (OTA) et le d\u00e9soxynival\u00e9nol (DON), lesquels forment une classe de mycotoxines produites par la contamination fongique des aliments tels que des grains et des fruits. La contamination fongique peut survenir au champ ou durant l'entreposage des denr\u00e9es brutes. La transformation de grains ou de fruits touch\u00e9s peut entra\u00eener une concentration d\u00e9tectable de ces mycotoxines dans les produits alimentaires finis.</p>\n<p>La pr\u00e9sente \u00e9tude avait comme objectifs principaux de\u00a0:</p>\n<ul>\n<li>Procurer des donn\u00e9es initiales de surveillance pour les concentrations d'<abbr title=\"ochratoxine A\">OTA</abbr> dans les aliments connus comme pouvant \u00eatre contamin\u00e9s par l'<abbr title=\"ochratoxine A\">OTA</abbr> et le <abbr title=\"d\u00e9soxynival\u00e9nol\">DON</abbr>. Ces aliments comprennent les aliments pour nourrissons (pr\u00e9parations, c\u00e9r\u00e9ales), les boissons (jus de raisin, vin, bi\u00e8re) et les produits c\u00e9r\u00e9aliers (bl\u00e9, avoine et ma\u00efs).</li>\n<li>Obtenir un portrait instantan\u00e9 des aliments pour nourrissons, des boissons et des denr\u00e9es \u00e0 base de c\u00e9r\u00e9ales qui sont offerts et de leur conformit\u00e9 aux lignes directrices propos\u00e9es par Sant\u00e9 Canada pour l'<abbr title=\"ochratoxine A\">OTA</abbr>.</li>\n<li>Procurer des donn\u00e9es initiales de surveillance pour les concentrations de <abbr title=\"d\u00e9soxynival\u00e9nol\">DON</abbr> dans les produits du bl\u00e9, du ma\u00efs et de l'avoine.</li>\n</ul>\n<p>Le taux de conformit\u00e9 pour l'<abbr title=\"ochratoxine A\">OTA</abbr> dans les aliments pour nourrissons, qui comprenaient les pr\u00e9parations pour nourrissons et les c\u00e9r\u00e9ales pour nourrissons, \u00e9tait de 96\u00a0%. Des 150\u00a0\u00e9chantillons d'aliments pour nourrissons (75\u00a0pr\u00e9parations et 75\u00a0c\u00e9r\u00e9ales), 20\u00a0\u00e9chantillons contenaient des concentrations d\u00e9tectables d'<abbr title=\"ochratoxine A\">OTA</abbr>. Des 20\u00a0\u00e9chantillons positifs, six\u00a0\u00e9chantillons de c\u00e9r\u00e9ales pour nourrissons d\u00e9passaient les normes pour l'<abbr title=\"ochratoxine A\">OTA</abbr> propos\u00e9es par Sant\u00e9 Canada.</p>\n<p>Le taux de conformit\u00e9 pour l'<abbr title=\"ochratoxine A\">OTA</abbr> dans les boissons (jus de raisin, vin et bi\u00e8re\u00a0 - 50\u00a0\u00e9chantillons chacun) \u00e9tait de 100\u00a0%. De l'<abbr title=\"ochratoxine A\">OTA</abbr> a \u00e9t\u00e9 d\u00e9tect\u00e9e dans un \u00e9chantillon de vin, mais la concentration respectait les limites r\u00e9glementaires propos\u00e9es par Sant\u00e9 Canada pour l'<abbr title=\"ochratoxine A\">OTA</abbr>.</p>\n<p>Dans les produits c\u00e9r\u00e9aliers, le taux de conformit\u00e9 pour l'<abbr title=\"ochratoxine A\">OTA</abbr> \u00e9tait de 98\u00a0%. Des 150\u00a0produits c\u00e9r\u00e9aliers \u00e9chantillonn\u00e9s (75\u00a0\u00e9chantillons de produits \u00e0 base de bl\u00e9, 50\u00a0\u00e9chantillons de produits \u00e0 base de ma\u00efs, 25\u00a0\u00e9chantillons de produits \u00e0 base d'avoine), 31\u00a0contenaient une concentration d\u00e9tectable d'<abbr title=\"ochratoxine A\">OTA</abbr>. Des 31\u00a0\u00e9chantillons positifs, trois \u00e9chantillons d'avoine d\u00e9passaient les normes propos\u00e9es par Sant\u00e9 Canada pour l'<abbr title=\"ochratoxine A\">OTA</abbr>.</p>\n<p>Le taux de conformit\u00e9 pour le <abbr title=\"d\u00e9soxynival\u00e9nol\">DON</abbr> dans les produits c\u00e9r\u00e9aliers n'a pas pu \u00eatre d\u00e9termin\u00e9, puisqu'il n'existe aucune limite r\u00e9glementaire \u00e9tablie ou propos\u00e9e pour le <abbr title=\"d\u00e9soxynival\u00e9nol\">DON</abbr> dans les denr\u00e9es analys\u00e9es dans le cadre de cette \u00e9tude. Aucune concentration d\u00e9tectable de <abbr title=\"d\u00e9soxynival\u00e9nol\">DON</abbr> n'a \u00e9t\u00e9 d\u00e9cel\u00e9e dans 39\u00a0% des produits \u00e0 base de bl\u00e9, 32\u00a0% des produits \u00e0 base de ma\u00efs et 72\u00a0% des produits \u00e0 base d'avoine \u00e9chantillonn\u00e9s. Les teneurs en <abbr title=\"d\u00e9soxynival\u00e9nol\">DON</abbr> variaient de 0,01 \u00e0 6,01\u00a0<abbr title=\"partie par million\">ppm</abbr> dans les produits \u00e0 base de bl\u00e9, de 0,01 \u00e0 1,38\u00a0<abbr title=\"partie par million\">ppm</abbr> dans les produits \u00e0 base de ma\u00efs et de 0,02 \u00e0 0,13\u00a0<abbr title=\"partie par million\">ppm</abbr> dans les produits \u00e0 base d'avoine.</p>\n<p>En r\u00e9sum\u00e9, 450\u00a0\u00e9chantillons ont \u00e9t\u00e9 analys\u00e9s quant \u00e0 l'<abbr title=\"ochratoxine A\">OTA</abbr>, et un taux de conformit\u00e9 globale de 98\u00a0% a \u00e9t\u00e9 mesur\u00e9. Cent cinquante de ces \u00e9chantillons ont aussi \u00e9t\u00e9 analys\u00e9s quant au <abbr title=\"d\u00e9soxynival\u00e9nol\">DON</abbr>, et celui-ci a \u00e9t\u00e9 d\u00e9tect\u00e9 dans 42\u00a0% de ces \u00e9chantillons. Tous les \u00e9chantillons qui d\u00e9passaient les normes propos\u00e9es pour l'<abbr title=\"ochratoxine A\">OTA</abbr> et tous les \u00e9chantillons positifs pour le <abbr title=\"d\u00e9soxynival\u00e9nol\">DON</abbr> ont \u00e9t\u00e9 transf\u00e9r\u00e9s au programme de l'Agence canadienne d'inspection des aliments d\u00e9sign\u00e9 pour la prise des mesures de suivi appropri\u00e9es. Ces mesures peuvent comprendre la notification du producteur ou de l'importateur, des inspections de suivi, d'autres \u00e9chantillonnages dirig\u00e9s et le rappel de produits.</p>\n\r\n<style>\n/* required style */\n    .keyValue{\n\tdisplay: none !important;\n        visibility: hidden !important;\n</style>\n<h2>Demande de rapport complet</h2>\n<p>La version int\u00e9grale du pr\u00e9sent rapport est disponible sur demande.</p>\n\n<div class=\"wb-frmvld\">\n\n<form class=\"form-horizontal\" role=\"form\" method=\"post\" action=\"/active/netapp/comment/publicationposte.aspx#wb-cont\" name=\"frmPublication\">\n\n<input id=\"emailad0\" name=\"to\" class=\"hidden\" type=\"hidden\" aria-hidden=\"true\" value=\"ag5dIP3V45ZHMPaMtZfe8kwO1RWnrJwxtYbkhevBeipIOI53GbKymWzNT8rNuBfyXq/nRLeaES2Qtql+rnI6FvMAB+8hxR5IiLhKD8rNeVo=\">\n<input name=\"strLang\" type=\"hidden\" value=\"Francais\">\n<input name=\"strSubject\" type=\"hidden\" value=\"Demande de rapport de r\u00e9sidus chimiques / microbiologie\">\n<input name=\"strTitle\" type=\"hidden\" value=\"title\">\n<input name=\"strUrl\" type=\"hidden\" value=\"url\">\n<script type=\"text/javascript\">\n    document.frmPublication.strTitle.value = document.getElementsByTagName(\"title\")[0].innerHTML;\n    document.frmPublication.strUrl.value = document.URL;\n</script>\n        \n<fieldset class=\"mrgn-tp-md mrgn-bttm-lg\">\t\t\n\n<legend class=\"field-name required\"><span class=\"field-name\">Le format dans lequel vous souhaitez recevoir le rapport</span> <strong class=\"required\">(obligatoire)</strong></legend>\n\n<div class=\"checkbox\">\n<label for=\"strPdf\"><input type=\"checkbox\" name=\"formatsent\" id=\"strPdf\" value=\"pdf\" required=\"required\">Fichier \u00e9lectronique PDF (format de document portable) envoy\u00e9 par courriel</label>\n</div>\n\n<div class=\"checkbox\">\n<label for=\"strText\"><input type=\"checkbox\" name=\"formatsent\" id=\"strText\" value=\"text\">Fichier \u00e9lectronique RTF (<span lang=\"en\">Rich Text Format</span>) envoy\u00e9 par courriel</label>\n</div>\n\n<div class=\"checkbox\">\n<label for=\"strBraille\"><input type=\"checkbox\" name=\"formatsent\" id=\"strBraille\" value=\"braille\">Copie braille envoy\u00e9e par la poste</label>\n</div>\n\n<div class=\"checkbox\">\n<label for=\"strPaper\"><input type=\"checkbox\" name=\"formatsent\" id=\"strPaper\" value=\"paper\">Copie papier envoy\u00e9e par la poste</label>\n</div>\n\n</fieldset>\t\n\n<fieldset class=\"mrgn-tp-md mrgn-bttm-lg\">\t\t\n\n<legend class=\"field-name\">Vos coordonn\u00e9es</legend>\n\n<label class=\"keyValue\" for=\"name\"></label>\n<input class=\"keyValue\" autocomplete=\"off\" type=\"text\" id=\"name\" name=\"name\">\n<label class=\"keyValue\" for=\"email\"></label>\n<input class=\"keyValue\" autocomplete=\"off\" type=\"email\" id=\"email\" name=\"email\"> \n\n<div class=\"form-group\">\n<label for=\"strFirstName\" class=\"required col-md-4 control-label\"><span class=\"field-name\">Pr\u00e9nom :</span> <strong class=\"required\">(obligatoire)</strong></label>\n<div class=\"col-md-8\">\n<input class=\"form-control\" id=\"strFirstName\" name=\"strFirstName\" type=\"text\" required=\"required\" pattern=\".{2,}\" data-rule-minlength=\"2\">\n</div>\n</div>\n            \n<div class=\"form-group\">\n<label for=\"strLastName\" class=\"required col-md-4 control-label\"><span class=\"field-name\">Nom :</span> <strong class=\"required\">(obligatoire)</strong></label>\n<div class=\"col-md-8\">\n<input class=\"form-control\" id=\"strLastName\" name=\"strLastName\" type=\"text\" required=\"required\" pattern=\".{2,}\" data-rule-minlength=\"2\">\n</div>\n</div>\n\n<div class=\"form-group\">\n<label for=\"strEmail\" class=\"required col-md-4 control-label\"><span class=\"field-name\">Adresse de courriel :</span> \u00a0<strong class=\"required\">(obligatoire)</strong></label>\n<div class=\"col-md-8\">\n<input class=\"form-control\" id=\"strEmail\" name=\"strEmail\" type=\"email\" required=\"required\">\n</div>\n</div>\n\n<div class=\"form-group\">\n<label for=\"strConfirmEmail\" class=\"required col-md-4 control-label\"><span class=\"field-name\">Confirmer Adresse de courriel :</span>  <strong class=\"required\">(obligatoire)</strong></label>\n<div class=\"col-md-8\">\n<input class=\"form-control\" id=\"strConfirmEmail\" name=\"strConfirmEmail\" type=\"email\" data-rule-equalto=\"#strEmail\" required=\"required\">\n</div>\n</div>\n\n<div class=\"form-group mrgn-tp-md\">\n<label for=\"lstdescribe\" class=\"required col-md-4 control-label\"><span class=\"field-name\">Comment vous vous d\u00e9criviez?</span> <strong class=\"required\">(obligatoire)</strong></label>\n<div class=\"col-md-8\">\n<select class=\"form-control\" id=\"lstdescribe\" name=\"lstdescribe\" required=\"required\">\n<option label=\"Choisir parmi la liste\"></option>\n<option value=\"Acad\u00e9mie\">Acad\u00e9mie</option>\n<option value=\"Association sectorielle\">Association sectorielle</option>  \n<option value=\"Autres institutions du gouvernement\">Autres institutions du gouvernement</option>\n<option value=\"Consommateur/Grand public\">Consommateur / Grand public</option>\n<option value=\"Groupe de consommateur\">Groupe de consommateur</option>\n<option value=\"Industrie/Secteur commercial\">Industrie / Secteur commercial</option>\n</select>\n</div>\n</div>\t\n\n<div class=\"form-group\">\n<label for=\"strAddress1\" class=\"col-md-4 control-label\"><span class=\"field-name\">Adresse 1 :</span></label>\n<div class=\"col-md-8\">\n<input class=\"form-control\" id=\"strAddress1\" name=\"strAddress1\" type=\"text\">\n</div>\n</div>\n\n<div class=\"form-group\">\n<label for=\"strAddress2\" class=\"col-md-4 control-label\"><span class=\"field-name\">Adresse 2 :</span></label>\n<div class=\"col-md-8\">\n<input class=\"form-control\" id=\"strAddress2\" name=\"strAddress2\" type=\"text\">\n</div>\n</div>\n\n<div class=\"form-group\">\n<label for=\"strCity\" class=\"col-md-4 control-label\"><span class=\"field-name\">Ville :</span></label>\n<div class=\"col-md-8\">\n<input class=\"form-control\" id=\"strCity\" name=\"strCity\" type=\"text\">\n</div>\n</div>\n\n<div class=\"form-group\">\n<label for=\"strProvince\" class=\"col-md-4 control-label\"><span class=\"field-name\">Province :</span></label>\n<div class=\"col-md-8\">\n<input class=\"form-control\" id=\"strProvince\" name=\"strProvince\" type=\"text\">\n</div>\n</div>\n\n<div class=\"form-group\">\n<label for=\"strCountry\" class=\"col-md-4 control-label\"><span class=\"field-name\">Pays : </span></label>\n<div class=\"col-md-8\">\n<input class=\"form-control\" id=\"strCountry\" name=\"strCountry\" type=\"text\">\n</div>\n</div>\n\n<div class=\"form-group\">\n<label for=\"strPostal\" class=\"col-md-4 control-label\"><span class=\"field-name\">Code postal : </span></label>\n<div class=\"col-md-8\">\n<input class=\"form-control\" id=\"strPostal\" name=\"strPostal\" type=\"text\">\n</div>\n</div>\n\n</fieldset>\t\n\n<input value=\"Soumettre votre demande\" id=\"btnSubmit\" name=\"btnSubmit\" class=\"btn btn-primary\" type=\"submit\"> \n<input value=\"Effacez tous les renseignements\" id=\"btnReset\" name=\"btnReset\" class=\"btn btn-default\" type=\"reset\">\n\n</form>\n</div>\n<script src=\"https://ajax.googleapis.com/ajax/libs/jquery/2.1.1/jquery.min.js\"></script>\n<script type=\"text/javascript\">\n$(document).ready (function(){\n\tif($(\"#strPaper\").checked || $(\"#strBraille\").checked)\n\t{\n\t\tPaperBrailleChecked();\n\t}\n});\n\n$(document).on(\"change\", \"#strBraille\", function(){\n\tif($(\"#strBraille\").is(\":checked\"))\n\t{\n\t\tPaperBrailleChecked();\n\t}\n\telse if(!($(\"#strPaper\").is(\":checked\")))\n\t{\n\t\tPaperBrailleUnChecked();\n\t}\n});\n\n$(document).on(\"change\", \"#strPaper\", function(){\n\tif($(\"#strPaper\").is(\":checked\"))\n\t{\n\t\tPaperBrailleChecked();\n\t}\n\telse if(!($(\"#strBraille\").is(\":checked\")))\n\t{\n\t\tPaperBrailleUnChecked();\n\t}\n});\n\nfunction PaperBrailleChecked()\n{\n\t$(\"#strAddress1\").attr(\"required\", \"true\");\n\t$(\"#strCity\").attr(\"required\", \"true\");\n\t$(\"#strProvince\").attr(\"required\", \"true\");\n\t$(\"#strCountry\").attr(\"required\", \"true\");\n\t$(\"#strPostal\").attr(\"required\", \"true\");\n}\n\nfunction PaperBrailleUnChecked()\n{\n\t$(\"#strAddress1\").removeAttr(\"required\");\n\t$(\"#strCity\").removeAttr(\"required\");\n\t$(\"#strProvince\").removeAttr(\"required\");\n\t$(\"#strCountry\").removeAttr(\"required\");\n\t$(\"#strPostal\").removeAttr(\"required\");\n}\n</script>\r\n\r\n<div class=\"row\">\r\n \r\n\t\t\t\r\n\t\t\t\r\n\r\n\t\t\r\n\t\r\n</div>"
    },
    "success": true,
    "chat_wizard": false
}