{
    "dcr_id": "1348592270745",
    "title": {
        "en": "2009-2010 Bacterial Pathogens in Cantaloupes in the Canadian Market",
        "fr": "2009-2010 Bact\u00e9ries pathog\u00e8nes dans les cantaloups vendus sur le march\u00e9 canadien"
    },
    "html_modified": "5-6-2018",
    "modified": "4-9-2018",
    "issued": "25-9-2012",
    "teamsite_location": {
        "en": "/default/main/inspection/cont-cont/food-aliments/WORKAREA/food-aliments/templatedata/comn-comn/forms-formes/data/chem_micro_reports_2009-2010_cantaloupes_1348592270745_eng",
        "fr": "/default/main/inspection/cont-cont/food-aliments/WORKAREA/food-aliments/templatedata/comn-comn/forms-formes/data/chem_micro_reports_2009-2010_cantaloupes_1348592270745_fra"
    },
    "parent_ia_id": "1453327843364",
    "ia_id": "1348592434455",
    "parent_node_id": "1453327843364",
    "layout_name": "content page 1 column",
    "breadcrumb": {
        "en": "2009-2010 Bacterial Pathogens in Cantaloupes in the Canadian Market",
        "fr": "2009-2010 Bact\u00e9ries pathog\u00e8nes dans les cantaloups vendus sur le march\u00e9 canadien"
    },
    "label": {
        "en": "2009-2010 Bacterial Pathogens in Cantaloupes in the Canadian Market",
        "fr": "2009-2010 Bact\u00e9ries pathog\u00e8nes dans les cantaloups vendus sur le march\u00e9 canadien"
    },
    "templatetype": "content page 1 column",
    "node_id": "1348592434455",
    "managing_branch": "comn",
    "type_name": "forms-formes",
    "dcr_type": "forms-formes",
    "parent_dcr_id": "1453324778043",
    "has_dcr_id": true,
    "lang": "en",
    "could_not_load": 0,
    "refaire": false,
    "interwoven_url": {
        "en": "/food-safety-for-industry/food-chemistry-and-microbiology/food-safety-testing-reports-and-journal-articles/cantaloupes/",
        "fr": "/salubrite-alimentaire-pour-l-industrie/chimie-et-microbiologie-alimentaires/rapports-d-analyse-et-articles-de-revues-sur-la-sa/cantaloups/"
    },
    "meta": {
        "viewport": {
            "en": "width=device-width,initial-scale=1",
            "fr": "width=device-width,initial-scale=1"
        },
        "service": {
            "en": "CFIA-ACIA",
            "fr": "CFIA-ACIA"
        },
        "accessRights": {
            "en": "2",
            "fr": "2"
        },
        "title": {
            "en": "2009-2010 Bacterial Pathogens in Cantaloupes in the Canadian Market",
            "fr": "2009-2010 Bact\u00e9ries pathog\u00e8nes dans les cantaloups vendus sur le march\u00e9 canadien"
        },
        "description": {
            "en": "In this survey a total of 1207 retail samples of cantaloupes were analysed, including 593 imported and 302 domestic whole cantaloupe samples, as well as 312 imported fresh-cut cantaloupe samples.",
            "fr": "Au cours de l'\u00e9tude, 1 207 \u00e9chantillons de cantaloups, dont 593 \u00e9chantillons de cantaloup entier import\u00e9 et 302 \u00e9chantillons de cantaloup entier du Canada, ainsi que 312 \u00e9chantillons de cantaloup import\u00e9 frais coup\u00e9 ont \u00e9t\u00e9 recueillis chez les d\u00e9taillants."
        },
        "keywords": {
            "en": "chemical residues, testing, sampling, reporting, microbiology, bacterial pathogens, cantaloupes",
            "fr": "R\u00e9sidus chimiques, essai, pr\u00e9l\u00e8vement, \u00a0rapports, bact\u00e9ries pathog\u00e8nes, microbiologie, cantaloup"
        },
        "dcterms.subject": {
            "en": "agri-food products,assessment,food inspection,food safety,fruits,inspection,scientific research",
            "fr": "produit agro-alimentaire,\u00e9valuation,inspection des aliments,salubrit\u00e9 des aliments,fruit,inspection,recherche scientifique"
        },
        "creator": {
            "en": "Government of Canada,Canadian Food Inspection Agency,Food Safety Science Directorate",
            "fr": "Gouvernement du Canada,Agence canadienne d'inspection des aliments,Direction des sciences de la salubrit\u00e9 des aliments"
        },
        "language": {
            "en": "eng",
            "fr": "fra"
        },
        "issued": {
            "en": "2018-06-05",
            "fr": "2018-06-05"
        },
        "modified": {
            "en": "2018-09-04",
            "fr": "2018-09-04"
        },
        "type": {
            "en": "reference material,report",
            "fr": "mat\u00e9riel de r\u00e9f\u00e9rence,rapport"
        },
        "audience": {
            "en": "business,general public,government,scientists",
            "fr": "entreprises,grand public,gouvernement,Scientifiques"
        },
        "name": {
            "en": "Government of Canada",
            "fr": "Gouvernement du Canada"
        },
        "areaServed": {
            "en": "Canada",
            "fr": "Canada"
        }
    },
    "h1": {
        "en": "2009-2010 Bacterial Pathogens in Cantaloupes in the Canadian Market",
        "fr": "2009-2010 Bact\u00e9ries pathog\u00e8nes dans les cantaloups vendus sur le march\u00e9 canadien"
    },
    "js": {
        "en": "<script>\n    document.frmPublication.strTitle.value = document.getElementsByTagName(\"title\")[0].innerHTML;\n    document.frmPublication.strUrl.value = document.URL;\n</script>/* --------------------- MORE JAVASCRIPT ------------------- */<script>\n$(document).ready (function(){\n\tif($(\"#strPaper\").checked || $(\"#strBraille\").checked)\n\t{\n\t\tPaperBrailleChecked();\n\t}\n});\n\n$(document).on(\"change\", \"#strBraille\", function(){\n\tif($(\"#strBraille\").is(\":checked\"))\n\t{\n\t\tPaperBrailleChecked();\n\t}\n\telse if(!($(\"#strPaper\").is(\":checked\")))\n\t{\n\t\tPaperBrailleUnChecked();\n\t}\n});\n\n$(document).on(\"change\", \"#strPaper\", function(){\n\tif($(\"#strPaper\").is(\":checked\"))\n\t{\n\t\tPaperBrailleChecked();\n\t}\n\telse if(!($(\"#strBraille\").is(\":checked\")))\n\t{\n\t\tPaperBrailleUnChecked();\n\t}\n});\n\nfunction PaperBrailleChecked()\n{\n\t$(\"#strAddress1\").attr(\"required\", \"true\");\n\t$(\"#strCity\").attr(\"required\", \"true\");\n\t$(\"#strProvince\").attr(\"required\", \"true\");\n\t$(\"#strCountry\").attr(\"required\", \"true\");\n\t$(\"#strPostal\").attr(\"required\", \"true\");\n}\n\nfunction PaperBrailleUnChecked()\n{\n\t$(\"#strAddress1\").removeAttr(\"required\");\n\t$(\"#strCity\").removeAttr(\"required\");\n\t$(\"#strProvince\").removeAttr(\"required\");\n\t$(\"#strCountry\").removeAttr(\"required\");\n\t$(\"#strPostal\").removeAttr(\"required\");\n}\n</script>",
        "fr": "<script>\n    document.frmPublication.strTitle.value = document.getElementsByTagName(\"title\")[0].innerHTML;\n    document.frmPublication.strUrl.value = document.URL;\n</script>/* --------------------- MORE JAVASCRIPT ------------------- */<script>\n$(document).ready (function(){\n\tif($(\"#strPaper\").checked || $(\"#strBraille\").checked)\n\t{\n\t\tPaperBrailleChecked();\n\t}\n});\n\n$(document).on(\"change\", \"#strBraille\", function(){\n\tif($(\"#strBraille\").is(\":checked\"))\n\t{\n\t\tPaperBrailleChecked();\n\t}\n\telse if(!($(\"#strPaper\").is(\":checked\")))\n\t{\n\t\tPaperBrailleUnChecked();\n\t}\n});\n\n$(document).on(\"change\", \"#strPaper\", function(){\n\tif($(\"#strPaper\").is(\":checked\"))\n\t{\n\t\tPaperBrailleChecked();\n\t}\n\telse if(!($(\"#strBraille\").is(\":checked\")))\n\t{\n\t\tPaperBrailleUnChecked();\n\t}\n});\n\nfunction PaperBrailleChecked()\n{\n\t$(\"#strAddress1\").attr(\"required\", \"true\");\n\t$(\"#strCity\").attr(\"required\", \"true\");\n\t$(\"#strProvince\").attr(\"required\", \"true\");\n\t$(\"#strCountry\").attr(\"required\", \"true\");\n\t$(\"#strPostal\").attr(\"required\", \"true\");\n}\n\nfunction PaperBrailleUnChecked()\n{\n\t$(\"#strAddress1\").removeAttr(\"required\");\n\t$(\"#strCity\").removeAttr(\"required\");\n\t$(\"#strProvince\").removeAttr(\"required\");\n\t$(\"#strCountry\").removeAttr(\"required\");\n\t$(\"#strPostal\").removeAttr(\"required\");\n}\n</script>"
    },
    "mode_html": "no_editor_full",
    "body": {
        "en": "        \r\n        \n<h2>Summary</h2>\n<p>The Food Safety Action Plan (FSAP) aims to modernize and strengthen Canada's food safety system to better protect Canadians from unsafe food and ultimately reduce the burden of foodborne illness. As part of the <abbr title=\"Food Safety Action Plan\">FSAP</abbr> enhanced surveillance initiative, targeted surveys have been implemented to test priority hazards in various foods.</p>\n<p>An increased number of foodborne disease outbreaks associated with fresh produce have been reported and recognized. The increase in outbreaks may be the result of several trends, including: improved disease surveillance, better detection methods for micro-organisms, increased fresh produce consumption and international trade. The complex nature of the micro-organisms identified in contaminated produce, combined with the fact that fresh produce is often consumed raw and not subjected to a kill step during processing further highlights the challenges associated with, and the need to improve, the microbial safety of fresh produce. For this reason, microbial contamination of fresh produce was one of the priorities identified by the Food Safety Science Committee in 2008. Cantaloupes continue to be a priority as one of the fresh produce commodities for the 2009-2010 <abbr title=\"Food Safety Action Plan\">FSAP</abbr> targeted survey.</p>\n<p>Cantaloupes have been identified as one of the five commodities which have contributed to increased produce-associated foodborne disease outbreaks from 1998-2006. Cantaloupes can be contaminated during their growth, harvesting, processing, transportation and/or preparation, if not handled properly. Once contaminated, cantaloupes are difficult to clean because of the rough netted surface of the melon which provides areas for bacterial attachment and protection from sanitization. In addition, fresh-cut Ready-to-Eat (RTE) cantaloupes are more perishable than intact cantaloupes, thus providing more optimal conditions for bacteria growth, if contaminated.</p>\n<p>Taking into account these factors, cantaloupes have been selected for enhanced surveillance under <abbr title=\"Food Safety Action Plan\">FSAP</abbr> with an overall objective to gather baseline information on the occurrence of bacterial pathogens of concern in cantaloupes available to Canadians at retail. This targeted survey was designed to gather information on the presence and distribution of:</p>\n<ol class=\"lst-lwr-rmn\">\n<li><span lang=\"la\">Salmonella</span> <abbr title=\"species\">spp.</abbr> and <span lang=\"la\">Shigella</span> <abbr title=\"species\">spp.</abbr> in imported and domestic whole cantaloupes; and</li>\n<li><span lang=\"la\">Salmonella</span> <abbr title=\"species\">spp.</abbr> and <span lang=\"la\">Shigella</span> <abbr title=\"species\">spp.</abbr> in imported fresh-cut <abbr title=\"Ready-to-Eat\">RTE</abbr> cantaloupes.</li>\n</ol>\n<p>In this survey a total of 1207 retail samples of cantaloupes were analysed, including 593 imported and 302 domestic whole cantaloupe samples, as well as 312 imported fresh-cut cantaloupe samples. These samples were analysed for the presence of bacterial pathogens <span lang=\"la\">Salmonella</span> <abbr title=\"species\">spp.</abbr> and <span lang=\"la\">Shigella</span> <abbr title=\"species\">spp.</abbr> Bacterial pathogens <span lang=\"la\">Salmonella</span> <abbr title=\"species\">spp.</abbr> and <span lang=\"la\">Shigella</span> <abbr title=\"species\">spp.</abbr> were not detected in any of the samples in this survey.</p>\n<p>The sample size employed in this survey allows us to conclude that the prevalence of these pathogens in cantaloupes during this study was below 0.33% in whole cantaloupes (895 samples), and less than 0.95% in fresh-cut Ready-to-Eat cantaloupes (312 samples).</p>\r\n<style>\n/* required style */\n    .keyValue{\n\tdisplay: none !important;\n        visibility: hidden !important;\n</style>\n<h2>Request of Complete Report</h2>\n<p>The complete text of this report is available upon request.</p>\n\n<div class=\"wb-frmvld\">\n\n<form class=\"form-horizontal\" role=\"form\" method=\"post\" action=\"/active/netapp/comment/publicationposte.aspx#wb-cont\" name=\"frmPublication\">\n<input id=\"emailad0\" name=\"to\" class=\"hidden\" type=\"hidden\" aria-hidden=\"true\" value=\"RzN+488GIJiVae4v5F0dLMdXTcb6K4WhBZx9F2v5Q6vV4fPAA8tg+NGatF4d0TFKqbOcBz1fGUx7/O6uJLGu069Q+TfwJjWE0eTAC0ZK680=\">\n<input name=\"strLang\" type=\"hidden\" value=\"English\">\n<input name=\"strSubject\" type=\"hidden\" value=\"Chemical Residues / Microbiology Report Request\">\n<input name=\"strTitle\" type=\"hidden\" value=\"title\">\n<input name=\"strUrl\" type=\"hidden\" value=\"url\">\n<script type=\"text/javascript\">\n    document.frmPublication.strTitle.value = document.getElementsByTagName(\"title\")[0].innerHTML;\n    document.frmPublication.strUrl.value = document.URL;\n</script>\n        \n<fieldset class=\"mrgn-tp-md mrgn-bttm-lg\">\t\t\n\n<legend class=\"field-name required\"><span class=\"field-name\">The format in which you would like to receive the report</span> <strong class=\"required\">(required)</strong></legend>\n\n<div class=\"checkbox\">\n<label for=\"strPdf\"><input type=\"checkbox\" name=\"formatsent\" id=\"strPdf\" value=\"pdf\" required=\"required\">PDF (Portable Document Format) electronic file sent to you by email</label>\n</div>\n\n<div class=\"checkbox\">\n<label for=\"strText\"><input type=\"checkbox\" name=\"formatsent\" id=\"strText\" value=\"text\">RTF (Rich Text Format) electronic file sent to you by email</label>\n</div>\n\n<div class=\"checkbox\">\n<label for=\"strBraille\"><input type=\"checkbox\" name=\"formatsent\" id=\"strBraille\" value=\"braille\">Braille copy sent to you by mail</label>\n</div>\n\n<div class=\"checkbox\">\n<label for=\"strPaper\"><input type=\"checkbox\" name=\"formatsent\" id=\"strPaper\" value=\"paper\">Paper copy sent to you by mail</label>\n</div>\n\n</fieldset>\t\n\n<fieldset class=\"mrgn-tp-md mrgn-bttm-lg\">\t\t\n\n<legend class=\"field-name\">Your contact information</legend>\n\n<label class=\"keyValue\" for=\"name\"></label>\n<input class=\"keyValue\" autocomplete=\"off\" type=\"text\" id=\"name\" name=\"name\">\n<label class=\"keyValue\" for=\"email\"></label>\n<input class=\"keyValue\" autocomplete=\"off\" type=\"email\" id=\"email\" name=\"email\"> \n\n<div class=\"form-group\">\n<label for=\"strFirstName\" class=\"required col-md-4 control-label\"><span class=\"field-name\">First name:</span> <strong class=\"required\">(required)</strong></label>\n<div class=\"col-md-8\">\n<input class=\"form-control\" id=\"strFirstName\" name=\"strFirstName\" type=\"text\" required=\"required\" pattern=\".{2,}\" data-rule-minlength=\"2\">\n</div>\n</div>\n            \n<div class=\"form-group\">\n<label for=\"strLastName\" class=\"required col-md-4 control-label\"><span class=\"field-name\">Last name:</span> <strong class=\"required\">(required)</strong></label>\n<div class=\"col-md-8\">\n<input class=\"form-control\" id=\"strLastName\" name=\"strLastName\" type=\"text\" required=\"required\" pattern=\".{2,}\" data-rule-minlength=\"2\">\n</div>\n</div>\n\n<div class=\"form-group\">\n<label for=\"strEmail\" class=\"required col-md-4 control-label\"><span class=\"field-name\">Email address:</span>  <strong class=\"required\">(required)</strong></label>\n<div class=\"col-md-8\">\n<input class=\"form-control\" id=\"strEmail\" name=\"strEmail\" type=\"email\" required=\"required\">\n</div>\n</div>\n\n<div class=\"form-group\">\n<label for=\"strConfirmEmail\" class=\"required col-md-4 control-label\"><span class=\"field-name\">Confirm email address:</span>  <strong class=\"required\">(required)</strong></label>\n<div class=\"col-md-8\">\n<input class=\"form-control\" id=\"strConfirmEmail\" name=\"strConfirmEmail\" type=\"email\" data-rule-equalto=\"#strEmail\" required=\"required\">\n</div>\n</div>\n\n<div class=\"form-group mrgn-tp-md\">\n<label for=\"lstdescribe\" class=\"required col-md-4 control-label\"><span class=\"field-name\">How would you describe yourself?</span> <strong class=\"required\">(required)</strong></label>\n<div class=\"col-md-8\">\n<select class=\"form-control\" id=\"lstdescribe\" name=\"lstdescribe\" required=\"required\">\n<option label=\"Select from this list\"></option>\n<option value=\"Academia\">Academia</option>\n<option value=\"Consumer Association\">Consumer Association</option>\n<option value=\"Consumer/General Public\">Consumer / General Public</option>\n<option value=\"Industry Association\">Industry Association</option>\n<option value=\"Industry/Commercial Sector\">Industry / Commercial Sector</option>\n<option value=\"Other Government Departments\">Other Government Departments</option>\t\t\t\n</select>\n</div>\n</div>\t\n\n<div class=\"form-group\">\n<label for=\"strAddress1\" class=\"col-md-4 control-label\"><span class=\"field-name\">Address 1:</span></label>\n<div class=\"col-md-8\">\n<input class=\"form-control\" id=\"strAddress1\" name=\"strAddress1\" type=\"text\">\n</div>\n</div>\n\n<div class=\"form-group\">\n<label for=\"strAddress2\" class=\"col-md-4 control-label\"><span class=\"field-name\">Address 2:</span></label>\n<div class=\"col-md-8\">\n<input class=\"form-control\" id=\"strAddress2\" name=\"strAddress2\" type=\"text\">\n</div>\n</div>\n\n<div class=\"form-group\">\n<label for=\"strCity\" class=\"col-md-4 control-label\"><span class=\"field-name\">City:</span></label>\n<div class=\"col-md-8\">\n<input class=\"form-control\" id=\"strCity\" name=\"strCity\" type=\"text\">\n</div>\n</div>\n\n<div class=\"form-group\">\n<label for=\"strProvince\" class=\"col-md-4 control-label\"><span class=\"field-name\">Province:</span></label>\n<div class=\"col-md-8\">\n<input class=\"form-control\" id=\"strProvince\" name=\"strProvince\" type=\"text\">\n</div>\n</div>\n\n<div class=\"form-group\">\n<label for=\"strCountry\" class=\"col-md-4 control-label\"><span class=\"field-name\">Country:</span></label>\n<div class=\"col-md-8\">\n<input class=\"form-control\" id=\"strCountry\" name=\"strCountry\" type=\"text\">\n</div>\n</div>\n\n<div class=\"form-group\">\n<label for=\"strPostal\" class=\"col-md-4 control-label\"><span class=\"field-name\">Postal Code:</span></label>\n<div class=\"col-md-8\">\n<input class=\"form-control\" id=\"strPostal\" name=\"strPostal\" type=\"text\">\n</div>\n</div>\n\n</fieldset>\t\n\n<input value=\"Submit Your Request\" id=\"btnSubmit\" name=\"btnSubmit\" class=\"btn btn-primary\" type=\"submit\"> \n<input value=\"Clear All Information\" id=\"btnReset\" name=\"btnReset\" class=\"btn btn-default\" type=\"reset\">\n\n</form>\n</div>\n<script src=\"https://ajax.googleapis.com/ajax/libs/jquery/2.1.1/jquery.min.js\"></script>\n<script type=\"text/javascript\">\n$(document).ready (function(){\n\tif($(\"#strPaper\").checked || $(\"#strBraille\").checked)\n\t{\n\t\tPaperBrailleChecked();\n\t}\n});\n\n$(document).on(\"change\", \"#strBraille\", function(){\n\tif($(\"#strBraille\").is(\":checked\"))\n\t{\n\t\tPaperBrailleChecked();\n\t}\n\telse if(!($(\"#strPaper\").is(\":checked\")))\n\t{\n\t\tPaperBrailleUnChecked();\n\t}\n});\n\n$(document).on(\"change\", \"#strPaper\", function(){\n\tif($(\"#strPaper\").is(\":checked\"))\n\t{\n\t\tPaperBrailleChecked();\n\t}\n\telse if(!($(\"#strBraille\").is(\":checked\")))\n\t{\n\t\tPaperBrailleUnChecked();\n\t}\n});\n\nfunction PaperBrailleChecked()\n{\n\t$(\"#strAddress1\").attr(\"required\", \"true\");\n\t$(\"#strCity\").attr(\"required\", \"true\");\n\t$(\"#strProvince\").attr(\"required\", \"true\");\n\t$(\"#strCountry\").attr(\"required\", \"true\");\n\t$(\"#strPostal\").attr(\"required\", \"true\");\n}\n\nfunction PaperBrailleUnChecked()\n{\n\t$(\"#strAddress1\").removeAttr(\"required\");\n\t$(\"#strCity\").removeAttr(\"required\");\n\t$(\"#strProvince\").removeAttr(\"required\");\n\t$(\"#strCountry\").removeAttr(\"required\");\n\t$(\"#strPostal\").removeAttr(\"required\");\n}\n</script>\r\n\r\n\r\n\r\n<div class=\"row\">\r\n \r\n\t\r\n\t\t\t\r\n\r\n<div class=\"col-xm-12 pagedetails container\">\r\n\t\t\t\t\r\n\r\n</div>\r\n\t\r\n</div>",
        "fr": "\r\n        \r\n        \n<h2>R\u00e9sum\u00e9</h2>\n<p>Le Plan d'action pour assurer la s\u00e9curit\u00e9 des produits alimentaires (PAASPA) vise \u00e0 moderniser et \u00e0 renforcer le syst\u00e8me r\u00e9glementaire canadien de salubrit\u00e9 des aliments pour mieux prot\u00e9ger les Canadiens contre les produits alimentaires insalubres et, en d\u00e9finitive, r\u00e9duire le fardeau des maladies d'origine alimentaire. Dans le cadre de l'initiative de surveillance accrue du <abbr title=\"Plan d'action pour assurer la s\u00e9curit\u00e9 des produits alimentaires\">PAASPA</abbr>, des \u00e9tudes cibl\u00e9es ont \u00e9t\u00e9 mises en \u0153uvre afin d'analyser divers aliments \u00e0 l'\u00e9gard de risques prioritaires.</p>\n<p>Un nombre croissant d'\u00e9closions de maladies d'origine alimentaires associ\u00e9es \u00e0 des aliments frais ont \u00e9t\u00e9 signal\u00e9es et identifi\u00e9es. La hausse du nombre d'\u00e9closions pourrait \u00eatre attribuable \u00e0 plusieurs tendances, notamment une surveillance am\u00e9lior\u00e9e des maladies, de meilleures m\u00e9thodes de d\u00e9tection des microorganimes, une de la consommation des produits frais et la croissance du commerce international. La nature complexe des microorganismes d\u00e9tect\u00e9s dans les produits frais contamin\u00e9s, jumel\u00e9e au fait que les produits frais sont souvent consomm\u00e9s crus et ne sont pas soumis \u00e0 une \u00e9tape de destruction au cours de la transformation, met davantage en relief les d\u00e9fis li\u00e9s \u00e0 l'innocuit\u00e9 microbienne des produits frais et \u00e0 la n\u00e9cessit\u00e9 d'am\u00e9liorer la salubrit\u00e9 de ces derniers. Pour cette raison, la contamination microbienne des produits de fruits et l\u00e9gumes frais constituait une des priorit\u00e9s d\u00e9finies par le Comit\u00e9 scientifique de la salubrit\u00e9 des aliments en 2008. Parmi les produits de fruits et l\u00e9gumes frais, les cantaloups demeurent une priorit\u00e9 des enqu\u00eates cibl\u00e9es du <abbr title=\"Plan d'action pour assurer la s\u00e9curit\u00e9 des produits alimentaires\">PAASPA</abbr> 2009-2010.</p>\n<p>Les cantaloups ont \u00e9t\u00e9 cern\u00e9s comme l'un des cinq groupes de produits responsables l'augmentation des \u00e9closions des maladies d'origine alimentaire associ\u00e9es aux fruits et l\u00e9gumes frais survenues entre 1998 et 2006. Les cantaloups peuvent \u00eatre contamin\u00e9s par divers agents pathog\u00e8nes pendant leur croissance, leur r\u00e9colte, leur transformation, leur transport et/ou leur pr\u00e9paration s'ils ne sont pas manipul\u00e9s ad\u00e9quatement. Il est difficile de nettoyer les cantaloups une fois qu'ils sont contamin\u00e9s \u00e0 cause de leur peau rugueuse et r\u00e9ticul\u00e9e qui constitue des zones d'attache pour les bact\u00e9ries et nuit \u00e0 la d\u00e9sinfection. De plus, les cantaloups coup\u00e9s pr\u00eats \u00e0 manger sont plus p\u00e9rissables que les cantaloups intacts, offrant ainsi des conditions optimales pour la croissance des bact\u00e9ries lorsqu'ils sont contamin\u00e9s.</p>\n<p>Tenant compte de ces facteurs, on a d\u00e9cid\u00e9 d'inclure le cantaloup dans les activit\u00e9s de surveillance accrue dans le cadre du <abbr title=\"Plan d'action pour assurer la s\u00e9curit\u00e9 des produits alimentaires\">PAASPA</abbr>, en ayant comme objectif de recueillir de des renseignements de base sur la pr\u00e9sence de bact\u00e9ries pathog\u00e8nes dans les cantaloups vendus aux Canadiens chez les d\u00e9taillants. La pr\u00e9sente \u00e9tude cibl\u00e9e visait \u00e0 recueillir des donn\u00e9es sur la pr\u00e9sence et la r\u00e9partition des agents pathog\u00e8nes suivants\u00a0:</p>\n<ol class=\"lst-lwr-rmn\">\n<li><span lang=\"la\">Salmonella</span> <abbr title=\"esp\u00e8ce\">spp.</abbr> et <span lang=\"la\">Shigella</span> <abbr title=\"esp\u00e8ce\">spp.</abbr> dans les cantaloups entiers import\u00e9s et canadiens;</li>\n\n<li><span lang=\"la\">Salmonella</span> <abbr title=\"esp\u00e8ce\">spp.</abbr> et <span lang=\"la\">Shigella</span> <abbr title=\"esp\u00e8ce\">spp.</abbr> dans les cantaloups import\u00e9s pr\u00eats \u00e0 manger fra\u00eechement coup\u00e9s.</li>\n</ol>\n<p>Au cours de l'\u00e9tude, 1 207 \u00e9chantillons de cantaloups, dont 593 \u00e9chantillons de cantaloup entier import\u00e9 et 302\u00a0\u00e9chantillons de cantaloup entier du Canada, ainsi que 312\u00a0\u00e9chantillons de cantaloup import\u00e9 frais coup\u00e9 ont \u00e9t\u00e9 recueillis chez les d\u00e9taillants. Ces \u00e9chantillons ont \u00e9t\u00e9 analys\u00e9s pour le d\u00e9pistage des bact\u00e9ries pathog\u00e8nes <span lang=\"la\">Salmonella</span> <abbr title=\"esp\u00e8ce\">spp.</abbr> et <span lang=\"la\">Shigella</span> <abbr title=\"esp\u00e8ce\">spp.</abbr>. Tous les \u00e9chantillons pr\u00e9lev\u00e9s dans le cadre de cette \u00e9tude ont \u00e9t\u00e9 d\u00e9clar\u00e9s exempt des bact\u00e9ries pathog\u00e8nes <span lang=\"la\">Salmonella</span> <abbr title=\"esp\u00e8ce\">spp.</abbr> et <span lang=\"la\">Shigella</span> <abbr title=\"esp\u00e8ce\">spp.</abbr></p>\n<p>La taille de l'\u00e9chantillon employ\u00e9 dans le cadre de l'\u00e9tude nous permet de conclure que la pr\u00e9valence de ces agents pathog\u00e8nes dans les cantaloups s'\u00e9tablissait \u00e0 moins de 0,33\u00a0% chez les cantaloups entiers (895\u00a0\u00e9chantillons), et \u00e0 moins de 0,95\u00a0% chez les cantaloups frais coup\u00e9s, pr\u00eats \u00e0 manger (312\u00a0\u00e9chantillons).</p>\r\n<style>\n/* required style */\n    .keyValue{\n\tdisplay: none !important;\n        visibility: hidden !important;\n</style>\n<h2>Demande de rapport complet</h2>\n<p>La version int\u00e9grale du pr\u00e9sent rapport est disponible sur demande.</p>\n\n<div class=\"wb-frmvld\">\n\n<form class=\"form-horizontal\" role=\"form\" method=\"post\" action=\"/active/netapp/comment/publicationposte.aspx#wb-cont\" name=\"frmPublication\">\n\n<input id=\"emailad0\" name=\"to\" class=\"hidden\" type=\"hidden\" aria-hidden=\"true\" value=\"0wpzOS2shttZZ35hT5A76XnKShaZgAXwD+gIlkomULvV0W36XV0/R4KJ2R7wx69CtUFfavHckx9RxqwQPMwKVT01IXiYIWCQFaafP/1sdco=\">\n<input name=\"strLang\" type=\"hidden\" value=\"Francais\">\n<input name=\"strSubject\" type=\"hidden\" value=\"Demande de rapport de r\u00e9sidus chimiques / microbiologie\">\n<input name=\"strTitle\" type=\"hidden\" value=\"title\">\n<input name=\"strUrl\" type=\"hidden\" value=\"url\">\n<script type=\"text/javascript\">\n    document.frmPublication.strTitle.value = document.getElementsByTagName(\"title\")[0].innerHTML;\n    document.frmPublication.strUrl.value = document.URL;\n</script>\n        \n<fieldset class=\"mrgn-tp-md mrgn-bttm-lg\">\t\t\n\n<legend class=\"field-name required\"><span class=\"field-name\">Le format dans lequel vous souhaitez recevoir le rapport</span> <strong class=\"required\">(obligatoire)</strong></legend>\n\n<div class=\"checkbox\">\n<label for=\"strPdf\"><input type=\"checkbox\" name=\"formatsent\" id=\"strPdf\" value=\"pdf\" required=\"required\">Fichier \u00e9lectronique PDF (format de document portable) envoy\u00e9 par courriel</label>\n</div>\n\n<div class=\"checkbox\">\n<label for=\"strText\"><input type=\"checkbox\" name=\"formatsent\" id=\"strText\" value=\"text\">Fichier \u00e9lectronique RTF (<span lang=\"en\">Rich Text Format</span>) envoy\u00e9 par courriel</label>\n</div>\n\n<div class=\"checkbox\">\n<label for=\"strBraille\"><input type=\"checkbox\" name=\"formatsent\" id=\"strBraille\" value=\"braille\">Copie braille envoy\u00e9e par la poste</label>\n</div>\n\n<div class=\"checkbox\">\n<label for=\"strPaper\"><input type=\"checkbox\" name=\"formatsent\" id=\"strPaper\" value=\"paper\">Copie papier envoy\u00e9e par la poste</label>\n</div>\n\n</fieldset>\t\n\n<fieldset class=\"mrgn-tp-md mrgn-bttm-lg\">\t\t\n\n<legend class=\"field-name\">Vos coordonn\u00e9es</legend>\n\n<label class=\"keyValue\" for=\"name\"></label>\n<input class=\"keyValue\" autocomplete=\"off\" type=\"text\" id=\"name\" name=\"name\">\n<label class=\"keyValue\" for=\"email\"></label>\n<input class=\"keyValue\" autocomplete=\"off\" type=\"email\" id=\"email\" name=\"email\"> \n\n<div class=\"form-group\">\n<label for=\"strFirstName\" class=\"required col-md-4 control-label\"><span class=\"field-name\">Pr\u00e9nom :</span> <strong class=\"required\">(obligatoire)</strong></label>\n<div class=\"col-md-8\">\n<input class=\"form-control\" id=\"strFirstName\" name=\"strFirstName\" type=\"text\" required=\"required\" pattern=\".{2,}\" data-rule-minlength=\"2\">\n</div>\n</div>\n            \n<div class=\"form-group\">\n<label for=\"strLastName\" class=\"required col-md-4 control-label\"><span class=\"field-name\">Nom :</span> <strong class=\"required\">(obligatoire)</strong></label>\n<div class=\"col-md-8\">\n<input class=\"form-control\" id=\"strLastName\" name=\"strLastName\" type=\"text\" required=\"required\" pattern=\".{2,}\" data-rule-minlength=\"2\">\n</div>\n</div>\n\n<div class=\"form-group\">\n<label for=\"strEmail\" class=\"required col-md-4 control-label\"><span class=\"field-name\">Adresse de courriel :</span> \u00a0<strong class=\"required\">(obligatoire)</strong></label>\n<div class=\"col-md-8\">\n<input class=\"form-control\" id=\"strEmail\" name=\"strEmail\" type=\"email\" required=\"required\">\n</div>\n</div>\n\n<div class=\"form-group\">\n<label for=\"strConfirmEmail\" class=\"required col-md-4 control-label\"><span class=\"field-name\">Confirmer Adresse de courriel :</span>  <strong class=\"required\">(obligatoire)</strong></label>\n<div class=\"col-md-8\">\n<input class=\"form-control\" id=\"strConfirmEmail\" name=\"strConfirmEmail\" type=\"email\" data-rule-equalto=\"#strEmail\" required=\"required\">\n</div>\n</div>\n\n<div class=\"form-group mrgn-tp-md\">\n<label for=\"lstdescribe\" class=\"required col-md-4 control-label\"><span class=\"field-name\">Comment vous vous d\u00e9criviez?</span> <strong class=\"required\">(obligatoire)</strong></label>\n<div class=\"col-md-8\">\n<select class=\"form-control\" id=\"lstdescribe\" name=\"lstdescribe\" required=\"required\">\n<option label=\"Choisir parmi la liste\"></option>\n<option value=\"Acad\u00e9mie\">Acad\u00e9mie</option>\n<option value=\"Association sectorielle\">Association sectorielle</option>  \n<option value=\"Autres institutions du gouvernement\">Autres institutions du gouvernement</option>\n<option value=\"Consommateur/Grand public\">Consommateur / Grand public</option>\n<option value=\"Groupe de consommateur\">Groupe de consommateur</option>\n<option value=\"Industrie/Secteur commercial\">Industrie / Secteur commercial</option>\n</select>\n</div>\n</div>\t\n\n<div class=\"form-group\">\n<label for=\"strAddress1\" class=\"col-md-4 control-label\"><span class=\"field-name\">Adresse 1 :</span></label>\n<div class=\"col-md-8\">\n<input class=\"form-control\" id=\"strAddress1\" name=\"strAddress1\" type=\"text\">\n</div>\n</div>\n\n<div class=\"form-group\">\n<label for=\"strAddress2\" class=\"col-md-4 control-label\"><span class=\"field-name\">Adresse 2 :</span></label>\n<div class=\"col-md-8\">\n<input class=\"form-control\" id=\"strAddress2\" name=\"strAddress2\" type=\"text\">\n</div>\n</div>\n\n<div class=\"form-group\">\n<label for=\"strCity\" class=\"col-md-4 control-label\"><span class=\"field-name\">Ville :</span></label>\n<div class=\"col-md-8\">\n<input class=\"form-control\" id=\"strCity\" name=\"strCity\" type=\"text\">\n</div>\n</div>\n\n<div class=\"form-group\">\n<label for=\"strProvince\" class=\"col-md-4 control-label\"><span class=\"field-name\">Province :</span></label>\n<div class=\"col-md-8\">\n<input class=\"form-control\" id=\"strProvince\" name=\"strProvince\" type=\"text\">\n</div>\n</div>\n\n<div class=\"form-group\">\n<label for=\"strCountry\" class=\"col-md-4 control-label\"><span class=\"field-name\">Pays : </span></label>\n<div class=\"col-md-8\">\n<input class=\"form-control\" id=\"strCountry\" name=\"strCountry\" type=\"text\">\n</div>\n</div>\n\n<div class=\"form-group\">\n<label for=\"strPostal\" class=\"col-md-4 control-label\"><span class=\"field-name\">Code postal : </span></label>\n<div class=\"col-md-8\">\n<input class=\"form-control\" id=\"strPostal\" name=\"strPostal\" type=\"text\">\n</div>\n</div>\n\n</fieldset>\t\n\n<input value=\"Soumettre votre demande\" id=\"btnSubmit\" name=\"btnSubmit\" class=\"btn btn-primary\" type=\"submit\"> \n<input value=\"Effacez tous les renseignements\" id=\"btnReset\" name=\"btnReset\" class=\"btn btn-default\" type=\"reset\">\n\n</form>\n</div>\n<script src=\"https://ajax.googleapis.com/ajax/libs/jquery/2.1.1/jquery.min.js\"></script>\n<script type=\"text/javascript\">\n$(document).ready (function(){\n\tif($(\"#strPaper\").checked || $(\"#strBraille\").checked)\n\t{\n\t\tPaperBrailleChecked();\n\t}\n});\n\n$(document).on(\"change\", \"#strBraille\", function(){\n\tif($(\"#strBraille\").is(\":checked\"))\n\t{\n\t\tPaperBrailleChecked();\n\t}\n\telse if(!($(\"#strPaper\").is(\":checked\")))\n\t{\n\t\tPaperBrailleUnChecked();\n\t}\n});\n\n$(document).on(\"change\", \"#strPaper\", function(){\n\tif($(\"#strPaper\").is(\":checked\"))\n\t{\n\t\tPaperBrailleChecked();\n\t}\n\telse if(!($(\"#strBraille\").is(\":checked\")))\n\t{\n\t\tPaperBrailleUnChecked();\n\t}\n});\n\nfunction PaperBrailleChecked()\n{\n\t$(\"#strAddress1\").attr(\"required\", \"true\");\n\t$(\"#strCity\").attr(\"required\", \"true\");\n\t$(\"#strProvince\").attr(\"required\", \"true\");\n\t$(\"#strCountry\").attr(\"required\", \"true\");\n\t$(\"#strPostal\").attr(\"required\", \"true\");\n}\n\nfunction PaperBrailleUnChecked()\n{\n\t$(\"#strAddress1\").removeAttr(\"required\");\n\t$(\"#strCity\").removeAttr(\"required\");\n\t$(\"#strProvince\").removeAttr(\"required\");\n\t$(\"#strCountry\").removeAttr(\"required\");\n\t$(\"#strPostal\").removeAttr(\"required\");\n}\n</script>\r\n\r\n<div class=\"row\">\r\n \r\n\t\t\t\r\n\t\t\t\r\n\r\n\t\t\r\n\t\r\n</div>"
    },
    "success": true,
    "chat_wizard": false
}