{
    "dcr_id": "1397089237909",
    "title": {
        "en": "2009-2010 Bacterial Pathogens and Generic <i lang=\"la\">E. coli</i> in Fresh Leafy Green Vegetables",
        "fr": "2009-2010 Bact\u00e9ries pathog\u00e8nes et <i lang=\"la\">E. coli</i> de type g\u00e9n\u00e9rique dans les l\u00e9gumes-feuilles frais"
    },
    "html_modified": "5-6-2018",
    "modified": "4-9-2018",
    "issued": "9-4-2014",
    "teamsite_location": {
        "en": "/default/main/inspection/cont-cont/food-aliments/WORKAREA/food-aliments/templatedata/comn-comn/forms-formes/data/chem_micro_reports_2009-2010_leafygreen_1397089237909_eng",
        "fr": "/default/main/inspection/cont-cont/food-aliments/WORKAREA/food-aliments/templatedata/comn-comn/forms-formes/data/chem_micro_reports_2009-2010_leafygreen_1397089237909_fra"
    },
    "parent_ia_id": "1453327843364",
    "ia_id": "1397089239191",
    "parent_node_id": "1453327843364",
    "layout_name": "content page 1 column",
    "breadcrumb": {
        "en": "2009-2010 Bacterial Pathogens and Generic <i lang=\"la\">E. coli</i> in Fresh Leafy Green Vegetables",
        "fr": "2009-2010 Bact\u00e9ries pathog\u00e8nes et <i lang=\"la\">E. coli</i> de type g\u00e9n\u00e9rique dans les l\u00e9gumes-feuilles frais"
    },
    "label": {
        "en": "2009-2010 Bacterial Pathogens and Generic <i lang=\"la\">E. coli</i> in Fresh Leafy Green Vegetables",
        "fr": "2009-2010 Bact\u00e9ries pathog\u00e8nes et <i lang=\"la\">E. coli</i> de type g\u00e9n\u00e9rique dans les l\u00e9gumes-feuilles frais"
    },
    "templatetype": "content page 1 column",
    "node_id": "1397089239191",
    "managing_branch": "comn",
    "type_name": "forms-formes",
    "dcr_type": "forms-formes",
    "parent_dcr_id": "1453324778043",
    "has_dcr_id": true,
    "lang": "en",
    "could_not_load": 0,
    "refaire": false,
    "interwoven_url": {
        "en": "/food-safety-for-industry/food-chemistry-and-microbiology/food-safety-testing-reports-and-journal-articles/bacterial-pathogens-and-generic-e-coli-in-fresh-le/",
        "fr": "/salubrite-alimentaire-pour-l-industrie/chimie-et-microbiologie-alimentaires/rapports-d-analyse-et-articles-de-revues-sur-la-sa/bacteries-pathogenes-et-e-coli-de-type-generique-d/"
    },
    "meta": {
        "viewport": {
            "en": "width=device-width,initial-scale=1",
            "fr": "width=device-width,initial-scale=1"
        },
        "service": {
            "en": "CFIA-ACIA",
            "fr": "CFIA-ACIA"
        },
        "accessRights": {
            "en": "2",
            "fr": "2"
        },
        "title": {
            "en": "2009-2010 Bacterial Pathogens and Generic E. coli in Fresh Leafy Green Vegetables",
            "fr": "2009-2010 Bact\u00e9ries pathog\u00e8nes et E. coli de type g\u00e9n\u00e9rique dans les l\u00e9gumes-feuilles frais"
        },
        "description": {
            "en": "The Food Safety Action Plan (FSAP) aims to modernize and strengthen Canada's food safety system in order to better protect Canadians from unsafe food and ultimately reduce the occurrence of foodborne illness.",
            "fr": "Le Plan d?action pour assurer la s\u00e9curit\u00e9 des produits alimentaires (PAASPA) vise \u00e0 moderniser et \u00e0 renforcer le syst\u00e8me canadien de salubrit\u00e9 des aliments, \u00e0 mieux prot\u00e9ger les Canadiens des effets des produits alimentaires insalubres et \u00e0 r\u00e9duire les cas de maladies d?origine alimentaire."
        },
        "keywords": {
            "en": "chemical residues, testing, sampling, reporting, microbiology, bacterial pathogens, e. coli, vegetables, leafy green, Salmonella, Listeria monocytogenes, E. coli",
            "fr": "R\u00e9sidus chimiques, essai, pr\u00e9l\u00e8vement, \u00a0rapports, bact\u00e9ries pathog\u00e8nes, microbiologie, e. coli, Salmonella, Listeria monocytogenes, E. coli, l\u00e9gumes-feuilles"
        },
        "dcterms.subject": {
            "en": "agri-food products,assessment,food inspection,food safety,inspection,scientific research,vegetables",
            "fr": "produit agro-alimentaire,\u00e9valuation,inspection des aliments,salubrit\u00e9 des aliments,inspection,recherche scientifique,l\u00e9gume"
        },
        "creator": {
            "en": "Government of Canada,Canadian Food Inspection Agency,Food Safety Science Directorate",
            "fr": "Gouvernement du Canada,Agence canadienne d'inspection des aliments,Direction des sciences de la salubrit\u00e9 des aliments"
        },
        "language": {
            "en": "eng",
            "fr": "fra"
        },
        "issued": {
            "en": "2018-06-05",
            "fr": "2018-06-05"
        },
        "modified": {
            "en": "2018-09-04",
            "fr": "2018-09-04"
        },
        "type": {
            "en": "reference material,report",
            "fr": "mat\u00e9riel de r\u00e9f\u00e9rence,rapport"
        },
        "audience": {
            "en": "business,general public,government,scientists",
            "fr": "entreprises,grand public,gouvernement,Scientifiques"
        },
        "name": {
            "en": "Government of Canada",
            "fr": "Gouvernement du Canada"
        },
        "areaServed": {
            "en": "Canada",
            "fr": "Canada"
        }
    },
    "h1": {
        "en": "2009-2010 Bacterial Pathogens and Generic E. coli in Fresh Leafy Green Vegetables",
        "fr": "2009-2010 Bact\u00e9ries pathog\u00e8nes et E. coli de type g\u00e9n\u00e9rique dans les l\u00e9gumes-feuilles frais"
    },
    "js": {
        "en": "<script>\n    document.frmPublication.strTitle.value = document.getElementsByTagName(\"title\")[0].innerHTML;\n    document.frmPublication.strUrl.value = document.URL;\n</script>/* --------------------- MORE JAVASCRIPT ------------------- */<script>\n$(document).ready (function(){\n\tif($(\"#strPaper\").checked || $(\"#strBraille\").checked)\n\t{\n\t\tPaperBrailleChecked();\n\t}\n});\n\n$(document).on(\"change\", \"#strBraille\", function(){\n\tif($(\"#strBraille\").is(\":checked\"))\n\t{\n\t\tPaperBrailleChecked();\n\t}\n\telse if(!($(\"#strPaper\").is(\":checked\")))\n\t{\n\t\tPaperBrailleUnChecked();\n\t}\n});\n\n$(document).on(\"change\", \"#strPaper\", function(){\n\tif($(\"#strPaper\").is(\":checked\"))\n\t{\n\t\tPaperBrailleChecked();\n\t}\n\telse if(!($(\"#strBraille\").is(\":checked\")))\n\t{\n\t\tPaperBrailleUnChecked();\n\t}\n});\n\nfunction PaperBrailleChecked()\n{\n\t$(\"#strAddress1\").attr(\"required\", \"true\");\n\t$(\"#strCity\").attr(\"required\", \"true\");\n\t$(\"#strProvince\").attr(\"required\", \"true\");\n\t$(\"#strCountry\").attr(\"required\", \"true\");\n\t$(\"#strPostal\").attr(\"required\", \"true\");\n}\n\nfunction PaperBrailleUnChecked()\n{\n\t$(\"#strAddress1\").removeAttr(\"required\");\n\t$(\"#strCity\").removeAttr(\"required\");\n\t$(\"#strProvince\").removeAttr(\"required\");\n\t$(\"#strCountry\").removeAttr(\"required\");\n\t$(\"#strPostal\").removeAttr(\"required\");\n}\n</script>",
        "fr": "<script>\n    document.frmPublication.strTitle.value = document.getElementsByTagName(\"title\")[0].innerHTML;\n    document.frmPublication.strUrl.value = document.URL;\n</script>/* --------------------- MORE JAVASCRIPT ------------------- */<script>\n$(document).ready (function(){\n\tif($(\"#strPaper\").checked || $(\"#strBraille\").checked)\n\t{\n\t\tPaperBrailleChecked();\n\t}\n});\n\n$(document).on(\"change\", \"#strBraille\", function(){\n\tif($(\"#strBraille\").is(\":checked\"))\n\t{\n\t\tPaperBrailleChecked();\n\t}\n\telse if(!($(\"#strPaper\").is(\":checked\")))\n\t{\n\t\tPaperBrailleUnChecked();\n\t}\n});\n\n$(document).on(\"change\", \"#strPaper\", function(){\n\tif($(\"#strPaper\").is(\":checked\"))\n\t{\n\t\tPaperBrailleChecked();\n\t}\n\telse if(!($(\"#strBraille\").is(\":checked\")))\n\t{\n\t\tPaperBrailleUnChecked();\n\t}\n});\n\nfunction PaperBrailleChecked()\n{\n\t$(\"#strAddress1\").attr(\"required\", \"true\");\n\t$(\"#strCity\").attr(\"required\", \"true\");\n\t$(\"#strProvince\").attr(\"required\", \"true\");\n\t$(\"#strCountry\").attr(\"required\", \"true\");\n\t$(\"#strPostal\").attr(\"required\", \"true\");\n}\n\nfunction PaperBrailleUnChecked()\n{\n\t$(\"#strAddress1\").removeAttr(\"required\");\n\t$(\"#strCity\").removeAttr(\"required\");\n\t$(\"#strProvince\").removeAttr(\"required\");\n\t$(\"#strCountry\").removeAttr(\"required\");\n\t$(\"#strPostal\").removeAttr(\"required\");\n}\n</script>"
    },
    "mode_html": "no_editor_full",
    "body": {
        "en": "        \r\n        \n<h2>Summary</h2>\n\n<p>The Food Safety Action Plan (FSAP) aims to modernize and strengthen Canada's food safety system in order to better protect Canadians from unsafe food and ultimately reduce the occurrence of foodborne illness.</p>\n\n<p>Leafy green vegetables have been reported to be responsible for numerous outbreaks of foodborne illness worldwide. The Food and Agriculture Organization of the United Nations/World Health Organization (FAO/WHO) has ranked leafy green vegetables as the highest priority among fresh fruits and vegetables in terms of microbiological hazards. After harvest, leafy vegetables are only subject to minimal processing (trimming, cutting, sanitizing, washing and packaging) and are often consumed raw. As such, pathogens introduced during any step of production may not only survive but also multiply. The bacterial pathogens <i lang=\"la\">Salmonella</i> and <i lang=\"la\">Escherichia coli (E.\u00a0coli)</i> O157:H7 have been related to the majority of the global outbreaks of foodborne illness associated with leafy vegetables. In addition, the bacterial pathogen <i lang=\"la\">Listeria monocytogenes (L.\u00a0monocytogenes)</i> has been identified as the primary pathogen of concern in ready-to-eat (RTE) foods including fresh-cut <abbr title=\"ready-to-eat\">RTE</abbr> leafy vegetables due to its wide distribution in the environment and its ability to grow under refrigeration temperatures.</p>\n\n<p>Considering these factors and their relevance to Canadians, leafy vegetables have been selected as one of the priority commodity groups of fresh fruits and vegetables for enhanced surveillance under the <abbr title=\"Food Safety Action Plan\">FSAP</abbr>. During five annual microbiological targeted surveys (2008/09 - 2012/13), over 10,000 leafy vegetable samples will be collected from retail locations and tested for the presence of various pathogens of concern.</p>\n\n<p>This targeted survey (2009/10) focussed on bacterial pathogens of concern and generic <i lang=\"la\"><abbr title=\"Escherichia\">E.</abbr>\u00a0coli</i> (as an indicator of fecal contamination). The main objectives of this survey were to generate baseline surveillance data on:</p>\n<ul>\n<li>the presence and distribution of bacterial pathogens of concern: <i lang=\"la\"><abbr title=\"Escherichia\">E.</abbr>\u00a0coli</i> O157:H7/NM (non-motile) and <i lang=\"la\">Salmonella</i> species (spp.) in whole leafy vegetables and in pre-packaged, fresh-cut, <abbr title=\"ready-to-eat\">RTE</abbr> leafy vegetables (hereafter referred to as \"fresh-cut leafy vegetables\");</li>\n<li>the presence, distribution, and levels of generic <i lang=\"la\"><abbr title=\"Escherichia\">E.</abbr>\u00a0coli</i> in whole and fresh-cut leafy vegetables; and</li>\n<li>the presence, distribution, and levels of the bacterial pathogen <i lang=\"la\"><abbr title=\"Listeria\">L.</abbr> monocytogenes</i> in fresh-cut leafy vegetables.</li>\n</ul>\n\n<p>In this survey, a total of 4250 samples including imported and domestic, conventional and organically grown, whole and fresh-cut leafy vegetables were collected and tested for the bacterial pathogens <i lang=\"la\"><abbr title=\"Escherichia\">E.</abbr>\u00a0coli</i> O157:H7/<abbr title=\"non-motile\">NM</abbr>, <i lang=\"la\">Salmonella</i> <abbr title=\"species\">spp.</abbr> as well as generic <i lang=\"la\"><abbr title=\"Escherichia\">E.</abbr>\u00a0coli</i>. <i lang=\"la\"><abbr title=\"Escherichia\">E.</abbr>\u00a0coli</i> O157:H7 and <i lang=\"la\"><abbr title=\"Escherichia\">E.</abbr>\u00a0coli</i> O157:<abbr title=\"non-motile\">NM</abbr> were not detected in any of the samples. <i lang=\"la\">Salmonella</i> <abbr title=\"species\">spp.</abbr> and generic <i lang=\"la\"><abbr title=\"Escherichia\">E.</abbr>\u00a0coli</i> (&gt;100 colony forming units (CFU)/g) were not detected in 99.9% of the samples. A total of five samples (0.1%) were found to be unsatisfactory: two samples (0.05%) due to the presence of <i lang=\"la\">Salmonella</i> with the other three samples showing high levels of generic <i lang=\"la\"><abbr title=\"Escherichia\">E.</abbr>\u00a0coli</i> (<span class=\"nowrap\">&gt; 1000 <abbr title=\"colony forming units per gram\">CFU/g</abbr></span>). In addition, an elevated level of generic <i lang=\"la\"><abbr title=\"Escherichia\">E.</abbr>\u00a0coli</i> was found in another sample (0.02%). This sample was assessed as investigative and requiring further evaluation, as the <i lang=\"la\"><abbr title=\"Escherichia\">E.</abbr>\u00a0coli</i> counts were elevated but below the unsatisfactory threshold of 1000\u00a0<abbr title=\"colony forming units per gram\">CFU/g</abbr>.</p>\n\n<p>All fresh-cut leafy vegetable samples (1850) were also tested for <i lang=\"la\"><abbr title=\"Listeria\">L.</abbr>\u00a0monocytogenes. <abbr title=\"Listeria\">L.</abbr>\u00a0monocytogenes</i> was not detected in 99.6% of the samples. A total of seven samples (0.4%) were found to be unsatisfactory due to the detection of the pathogen. However, the levels of contamination were below 100\u00a0<abbr title=\"colony forming units per gram\">CFU/g</abbr> when enumeration was performed, a low level generally considered to pose very little risk in this type of food.</p>\n\n<p>To assist in the food safety investigations, pulsed field gel electrophoresis (PFGE) patterns (<abbr title=\"that is to say\">i.e.</abbr>, <abbr title=\"Deoxyribonucleic acid\">DNA</abbr> typing) of <i lang=\"la\"><abbr title=\"Listeria\">L.</abbr>\u00a0monocytogenes</i> and <i lang=\"la\">Salmonella</i>, as well as serotypes of <i lang=\"la\">Salmonella</i>, were identified from the respective isolates of the positive samples.</p>\n\n<p>All unsatisfactory samples were subject to food safety investigations and appropriate follow-up activities were conducted by the Canadian Food Inspection Agency (CFIA). Two product recalls resulted from the referral of the unsatisfactory samples and subsequent investigations. It is important to note that there were no reported illnesses associated with consumption of any of the products in this survey.</p>\n\n<p>Results of the 2009-10 survey indicate that bacterial pathogens were not detected in the majority of the leafy vegetable samples, including fresh-cut <abbr title=\"ready-to-eat\">RTE</abbr> leafy vegetable samples, tested in this survey. A very small fraction of the leafy vegetable samples was found to be contaminated with bacterial pathogens or high levels of generic <i lang=\"la\"><abbr title=\"Escherichia\">E.</abbr>\u00a0coli</i>. The results suggest that not all leafy vegetables in the Canadian market were produced under Good Agricultural Practices (GAPs) and/or Good Manufacturing Practices (GMPs), processed and maintained under sanitary conditions during production and processing, and/or stored at appropriate refrigeration temperatures. The preliminary findings also could be indicative that contamination of leafy vegetables with pathogenic micro-organisms does occur and may be a potential source of foodborne illness in Canada. Results of the three remaining microbiological targeted surveys on leafy vegetables will be released annually upon completion.</p>\r\n<style>\n/* required style */\n    .keyValue{\n\tdisplay: none !important;\n        visibility: hidden !important;\n</style>\n<h2>Request of Complete Report</h2>\n<p>The complete text of this report is available upon request.</p>\n\n<div class=\"wb-frmvld\">\n\n<form class=\"form-horizontal\" role=\"form\" method=\"post\" action=\"/active/netapp/comment/publicationposte.aspx#wb-cont\" name=\"frmPublication\">\n<input id=\"emailad0\" name=\"to\" class=\"hidden\" type=\"hidden\" aria-hidden=\"true\" value=\"8QMk32MjbbXY0nhvr5LBnjvSVteehNxs5wfSDqs2aI7TR70EISoFeKln6yRkw+9Wfc3EgPnqcb6BbpKOxLKVOVppj5d3iHvoe/gnKJWZdo4=\">\n<input name=\"strLang\" type=\"hidden\" value=\"English\">\n<input name=\"strSubject\" type=\"hidden\" value=\"Chemical Residues / Microbiology Report Request\">\n<input name=\"strTitle\" type=\"hidden\" value=\"title\">\n<input name=\"strUrl\" type=\"hidden\" value=\"url\">\n<script type=\"text/javascript\">\n    document.frmPublication.strTitle.value = document.getElementsByTagName(\"title\")[0].innerHTML;\n    document.frmPublication.strUrl.value = document.URL;\n</script>\n        \n<fieldset class=\"mrgn-tp-md mrgn-bttm-lg\">\t\t\n\n<legend class=\"field-name required\"><span class=\"field-name\">The format in which you would like to receive the report</span> <strong class=\"required\">(required)</strong></legend>\n\n<div class=\"checkbox\">\n<label for=\"strPdf\"><input type=\"checkbox\" name=\"formatsent\" id=\"strPdf\" value=\"pdf\" required=\"required\">PDF (Portable Document Format) electronic file sent to you by email</label>\n</div>\n\n<div class=\"checkbox\">\n<label for=\"strText\"><input type=\"checkbox\" name=\"formatsent\" id=\"strText\" value=\"text\">RTF (Rich Text Format) electronic file sent to you by email</label>\n</div>\n\n<div class=\"checkbox\">\n<label for=\"strBraille\"><input type=\"checkbox\" name=\"formatsent\" id=\"strBraille\" value=\"braille\">Braille copy sent to you by mail</label>\n</div>\n\n<div class=\"checkbox\">\n<label for=\"strPaper\"><input type=\"checkbox\" name=\"formatsent\" id=\"strPaper\" value=\"paper\">Paper copy sent to you by mail</label>\n</div>\n\n</fieldset>\t\n\n<fieldset class=\"mrgn-tp-md mrgn-bttm-lg\">\t\t\n\n<legend class=\"field-name\">Your contact information</legend>\n\n<label class=\"keyValue\" for=\"name\"></label>\n<input class=\"keyValue\" autocomplete=\"off\" type=\"text\" id=\"name\" name=\"name\">\n<label class=\"keyValue\" for=\"email\"></label>\n<input class=\"keyValue\" autocomplete=\"off\" type=\"email\" id=\"email\" name=\"email\"> \n\n<div class=\"form-group\">\n<label for=\"strFirstName\" class=\"required col-md-4 control-label\"><span class=\"field-name\">First name:</span> <strong class=\"required\">(required)</strong></label>\n<div class=\"col-md-8\">\n<input class=\"form-control\" id=\"strFirstName\" name=\"strFirstName\" type=\"text\" required=\"required\" pattern=\".{2,}\" data-rule-minlength=\"2\">\n</div>\n</div>\n            \n<div class=\"form-group\">\n<label for=\"strLastName\" class=\"required col-md-4 control-label\"><span class=\"field-name\">Last name:</span> <strong class=\"required\">(required)</strong></label>\n<div class=\"col-md-8\">\n<input class=\"form-control\" id=\"strLastName\" name=\"strLastName\" type=\"text\" required=\"required\" pattern=\".{2,}\" data-rule-minlength=\"2\">\n</div>\n</div>\n\n<div class=\"form-group\">\n<label for=\"strEmail\" class=\"required col-md-4 control-label\"><span class=\"field-name\">Email address:</span>  <strong class=\"required\">(required)</strong></label>\n<div class=\"col-md-8\">\n<input class=\"form-control\" id=\"strEmail\" name=\"strEmail\" type=\"email\" required=\"required\">\n</div>\n</div>\n\n<div class=\"form-group\">\n<label for=\"strConfirmEmail\" class=\"required col-md-4 control-label\"><span class=\"field-name\">Confirm email address:</span>  <strong class=\"required\">(required)</strong></label>\n<div class=\"col-md-8\">\n<input class=\"form-control\" id=\"strConfirmEmail\" name=\"strConfirmEmail\" type=\"email\" data-rule-equalto=\"#strEmail\" required=\"required\">\n</div>\n</div>\n\n<div class=\"form-group mrgn-tp-md\">\n<label for=\"lstdescribe\" class=\"required col-md-4 control-label\"><span class=\"field-name\">How would you describe yourself?</span> <strong class=\"required\">(required)</strong></label>\n<div class=\"col-md-8\">\n<select class=\"form-control\" id=\"lstdescribe\" name=\"lstdescribe\" required=\"required\">\n<option label=\"Select from this list\"></option>\n<option value=\"Academia\">Academia</option>\n<option value=\"Consumer Association\">Consumer Association</option>\n<option value=\"Consumer/General Public\">Consumer / General Public</option>\n<option value=\"Industry Association\">Industry Association</option>\n<option value=\"Industry/Commercial Sector\">Industry / Commercial Sector</option>\n<option value=\"Other Government Departments\">Other Government Departments</option>\t\t\t\n</select>\n</div>\n</div>\t\n\n<div class=\"form-group\">\n<label for=\"strAddress1\" class=\"col-md-4 control-label\"><span class=\"field-name\">Address 1:</span></label>\n<div class=\"col-md-8\">\n<input class=\"form-control\" id=\"strAddress1\" name=\"strAddress1\" type=\"text\">\n</div>\n</div>\n\n<div class=\"form-group\">\n<label for=\"strAddress2\" class=\"col-md-4 control-label\"><span class=\"field-name\">Address 2:</span></label>\n<div class=\"col-md-8\">\n<input class=\"form-control\" id=\"strAddress2\" name=\"strAddress2\" type=\"text\">\n</div>\n</div>\n\n<div class=\"form-group\">\n<label for=\"strCity\" class=\"col-md-4 control-label\"><span class=\"field-name\">City:</span></label>\n<div class=\"col-md-8\">\n<input class=\"form-control\" id=\"strCity\" name=\"strCity\" type=\"text\">\n</div>\n</div>\n\n<div class=\"form-group\">\n<label for=\"strProvince\" class=\"col-md-4 control-label\"><span class=\"field-name\">Province:</span></label>\n<div class=\"col-md-8\">\n<input class=\"form-control\" id=\"strProvince\" name=\"strProvince\" type=\"text\">\n</div>\n</div>\n\n<div class=\"form-group\">\n<label for=\"strCountry\" class=\"col-md-4 control-label\"><span class=\"field-name\">Country:</span></label>\n<div class=\"col-md-8\">\n<input class=\"form-control\" id=\"strCountry\" name=\"strCountry\" type=\"text\">\n</div>\n</div>\n\n<div class=\"form-group\">\n<label for=\"strPostal\" class=\"col-md-4 control-label\"><span class=\"field-name\">Postal Code:</span></label>\n<div class=\"col-md-8\">\n<input class=\"form-control\" id=\"strPostal\" name=\"strPostal\" type=\"text\">\n</div>\n</div>\n\n</fieldset>\t\n\n<input value=\"Submit Your Request\" id=\"btnSubmit\" name=\"btnSubmit\" class=\"btn btn-primary\" type=\"submit\"> \n<input value=\"Clear All Information\" id=\"btnReset\" name=\"btnReset\" class=\"btn btn-default\" type=\"reset\">\n\n</form>\n</div>\n<script src=\"https://ajax.googleapis.com/ajax/libs/jquery/2.1.1/jquery.min.js\"></script>\n<script type=\"text/javascript\">\n$(document).ready (function(){\n\tif($(\"#strPaper\").checked || $(\"#strBraille\").checked)\n\t{\n\t\tPaperBrailleChecked();\n\t}\n});\n\n$(document).on(\"change\", \"#strBraille\", function(){\n\tif($(\"#strBraille\").is(\":checked\"))\n\t{\n\t\tPaperBrailleChecked();\n\t}\n\telse if(!($(\"#strPaper\").is(\":checked\")))\n\t{\n\t\tPaperBrailleUnChecked();\n\t}\n});\n\n$(document).on(\"change\", \"#strPaper\", function(){\n\tif($(\"#strPaper\").is(\":checked\"))\n\t{\n\t\tPaperBrailleChecked();\n\t}\n\telse if(!($(\"#strBraille\").is(\":checked\")))\n\t{\n\t\tPaperBrailleUnChecked();\n\t}\n});\n\nfunction PaperBrailleChecked()\n{\n\t$(\"#strAddress1\").attr(\"required\", \"true\");\n\t$(\"#strCity\").attr(\"required\", \"true\");\n\t$(\"#strProvince\").attr(\"required\", \"true\");\n\t$(\"#strCountry\").attr(\"required\", \"true\");\n\t$(\"#strPostal\").attr(\"required\", \"true\");\n}\n\nfunction PaperBrailleUnChecked()\n{\n\t$(\"#strAddress1\").removeAttr(\"required\");\n\t$(\"#strCity\").removeAttr(\"required\");\n\t$(\"#strProvince\").removeAttr(\"required\");\n\t$(\"#strCountry\").removeAttr(\"required\");\n\t$(\"#strPostal\").removeAttr(\"required\");\n}\n</script>\r\n\r\n\r\n\r\n<div class=\"row\">\r\n \r\n\t\r\n\t\t\t\r\n\r\n<div class=\"col-xm-12 pagedetails container\">\r\n\t\t\t\t\r\n\r\n</div>\r\n\t\r\n</div>",
        "fr": "\r\n        \r\n        \n<h2>R\u00e9sum\u00e9</h2>\n\n<p>Le Plan d'action pour assurer la s\u00e9curit\u00e9 des produits alimentaires (PAASPA) vise \u00e0 moderniser et \u00e0 renforcer le syst\u00e8me canadien de salubrit\u00e9 des aliments, \u00e0 mieux prot\u00e9ger les Canadiens des effets des produits alimentaires insalubres et \u00e0 r\u00e9duire les cas de maladies d'origine alimentaire.</p>\n\n<p>De nombreuses \u00e9closions de maladies d'origine alimentaire caus\u00e9es par la consommation de l\u00e9gumes-feuilles ont \u00e9t\u00e9 signal\u00e9es partout dans le monde. L'Organisation des Nations unies pour l'alimentation et l'agriculture et l'Organisation mondiale de la sant\u00e9 (FAO/OMS) ont accord\u00e9 la priorit\u00e9 la plus \u00e9lev\u00e9e aux l\u00e9gumes-feuilles parmi tous les fruits et l\u00e9gumes frais en raison des dangers microbiologiques qu'ils peuvent pr\u00e9senter. Apr\u00e8s la r\u00e9colte, les l\u00e9gumes-feuilles font l'objet d'une transformation minime seulement (parage, d\u00e9coupage, assainissement, lavage et emballage) et sont souvent consomm\u00e9s crus. Ainsi, les agents pathog\u00e8nes introduits durant l'une ou l'autre des \u00e9tapes de production peuvent non seulement survivre, mais \u00e9galement se multiplier. Les bact\u00e9ries pathog\u00e8nes <i lang=\"la\">Salmonella</i> et <i lang=\"la\">Escherichia coli (E.\u00a0coli)</i> O157:H7 ont \u00e9t\u00e9 li\u00e9es \u00e0 la majorit\u00e9 des \u00e9closions de maladies d'origine alimentaire associ\u00e9es aux l\u00e9gumes-feuilles. De plus, <i lang=\"la\">Listeria monocytogenes (L.\u00a0monocytogenes)</i> a \u00e9t\u00e9 identifi\u00e9e comme la principale bact\u00e9rie pathog\u00e8ne pr\u00e9occupante dans les aliments pr\u00eats \u00e0 manger (PAM), dont les l\u00e9gumes feuilles frais coup\u00e9s <abbr title=\"pr\u00eats \u00e0 manger\">PAM</abbr>, \u00e0 cause de sa vaste r\u00e9partition dans l'environnement et de sa capacit\u00e9 de prolif\u00e9ration \u00e0 des temp\u00e9ratures de r\u00e9frig\u00e9ration.</p>\n\n<p>En tenant compte de ces facteurs et de leur pertinence pour la sant\u00e9 des Canadiens, les l\u00e9gumes-feuilles ont donc \u00e9t\u00e9 s\u00e9lectionn\u00e9s comme un des groupes de produits prioritaires parmi les fruits et l\u00e9gumes frais pour une surveillance accrue dans le cadre du <abbr title=\"Plan d'action pour assurer la s\u00e9curit\u00e9 des produits alimentaires\">PAASPA</abbr>. Dans le cadre de cinq \u00e9tudes microbiologiques annuelles cibl\u00e9es (2009-2010 \u00e0 2012 2013), plus de 10\u00a0000\u00a0\u00e9chantillons de l\u00e9gumes-feuilles seront pr\u00e9lev\u00e9s dans des magasins de d\u00e9tail et analys\u00e9s aux fins du d\u00e9pistage de divers agents pathog\u00e8nes pr\u00e9occupants.</p>\n\n<p>La pr\u00e9sente \u00e9tude cibl\u00e9e (2009-2010) est ax\u00e9e sur les bact\u00e9ries pathog\u00e8nes pr\u00e9occupantes et sur <i lang=\"la\"><abbr title=\"Escherichia\">E.</abbr>\u00a0coli</i> g\u00e9n\u00e9rique (bact\u00e9rie indicatrice de contamination d'origine f\u00e9cale). Les principaux objectifs \u00e9taient de recueillir des donn\u00e9es de surveillance de base sur\u00a0:</p>\n<ul>\n<li>la pr\u00e9sence de bact\u00e9ries pathog\u00e8nes pr\u00e9occupantes et leur r\u00e9partition\u00a0: <i lang=\"la\"><abbr title=\"Escherichia\">E.</abbr>\u00a0coli</i> O157:H7/NM (non motile) et les esp\u00e8ces de <i lang=\"la\">Salmonella</i> (spp.) dans les l\u00e9gumes-feuilles entiers et les l\u00e9gumes-feuilles frais coup\u00e9s <abbr title=\"pr\u00eats \u00e0 manger\">PAM</abbr> et pr\u00e9emball\u00e9s (ci-apr\u00e8s appel\u00e9s \u00ab\u00a0l\u00e9gumes-feuilles frais coup\u00e9s\u00a0\u00bb);</li>\n<li>la pr\u00e9sence, la r\u00e9partition et les concentrations de <i lang=\"la\"><abbr title=\"Escherichia\">E.</abbr>\u00a0coli</i> g\u00e9n\u00e9rique dans les l\u00e9gumes-feuilles entiers et frais coup\u00e9s;</li>\n<li>la pr\u00e9sence, la r\u00e9partition et les concentrations de la bact\u00e9rie pathog\u00e8ne <i lang=\"la\"><abbr title=\"Listeria\">L.</abbr>\u00a0monocytogenes</i> dans les l\u00e9gumes-feuilles frais coup\u00e9s.</li>\n</ul>\n\n<p>Dans le cadre de la pr\u00e9sente \u00e9tude, un total de 4\u00a0250 \u00e9chantillons de l\u00e9gumes-feuilles entiers et frais coup\u00e9s, de provenance canadienne et import\u00e9s, et issus de pratiques de production classique et biologique ont \u00e9t\u00e9 pr\u00e9lev\u00e9s et analys\u00e9s aux fins du d\u00e9pistage des bact\u00e9ries pathog\u00e8nes <i lang=\"la\"><abbr title=\"Escherichia\">E.</abbr>\u00a0coli</i> O157:H7/<abbr title=\"non motile\">NM</abbr>, <i lang=\"la\">Salmonella</i> <abbr title=\"esp\u00e8ces\">spp.</abbr> et <i lang=\"la\"><abbr title=\"Escherichia\">E.</abbr>\u00a0coli</i> g\u00e9n\u00e9rique. <i lang=\"la\"><abbr title=\"Escherichia\">E.</abbr>\u00a0coli</i> O157:H7 et <i lang=\"la\"><abbr title=\"Escherichia\">E.</abbr>\u00a0coli</i> O157:<abbr title=\"non motile\">NM</abbr> n'ont \u00e9t\u00e9 d\u00e9tect\u00e9es dans aucun \u00e9chantillon. <i lang=\"la\">Salmonella</i> <abbr title=\"esp\u00e8ces\">spp.</abbr> et <i lang=\"la\"><abbr title=\"Escherichia\">E.</abbr>\u00a0coli</i> g\u00e9n\u00e9rique (<span class=\"nowrap\">&gt; 100 unit\u00e9s</span> formant des colonies [UFC]/g) n'ont pas \u00e9t\u00e9 d\u00e9tect\u00e9es dans 99,9\u00a0% des \u00e9chantillons. Au total, 5 \u00e9chantillons (0,1\u00a0%) se sont av\u00e9r\u00e9s insatisfaisants\u00a0: 2 \u00e9chantillons (0,05\u00a0%) \u00e9taient li\u00e9s \u00e0 la pr\u00e9sence de <i lang=\"la\">Salmonella</i> et les 3 autres, \u00e0 une concentration \u00e9lev\u00e9e d'<i lang=\"la\"><abbr title=\"Escherichia\">E.</abbr>\u00a0coli</i> g\u00e9n\u00e9rique (&gt;\u00a01\u00a0000\u00a0<abbr title=\"unit\u00e9s formant des colonies par gramme\">UFC/g</abbr>). De plus, une concentration \u00e9lev\u00e9e de <i lang=\"la\"><abbr title=\"Escherichia\">E.</abbr>\u00a0coli</i> g\u00e9n\u00e9rique a \u00e9t\u00e9 d\u00e9tect\u00e9e dans un autre \u00e9chantillon (0,02\u00a0%). Cet \u00e9chantillon a \u00e9t\u00e9 \u00e9valu\u00e9 comme \u00ab\u00a0sujet \u00e0 enqu\u00eate\u00a0\u00bb et a fait l'objet d'autres \u00e9valuations, car le d\u00e9nombrement de <i lang=\"la\"><abbr title=\"Escherichia\">E.</abbr>\u00a0coli</i> \u00e9tait \u00e9lev\u00e9, mais inf\u00e9rieur au seuil d'insatisfaction de 1\u00a0000 <abbr title=\"unit\u00e9s formant des colonies par gramme\">UFC/g</abbr>.</p>\n\n<p>Tous les \u00e9chantillons de l\u00e9gumes-feuilles frais coup\u00e9s (1\u00a0850) ont \u00e9galement \u00e9t\u00e9 analys\u00e9s \u00e0 l'\u00e9gard de <i lang=\"la\"><abbr title=\"Listeria\">L.</abbr>\u00a0monocytogenes</i>. <i lang=\"la\"><abbr title=\"Listeria\">L.</abbr>\u00a0monocytogenes</i> n'a pas \u00e9t\u00e9 d\u00e9tect\u00e9e dans 99,6\u00a0% des \u00e9chantillons. Au total, 7 \u00e9chantillons (0,4\u00a0%) se sont av\u00e9r\u00e9s insatisfaisants \u00e0 cause de la pr\u00e9sence de cet agent pathog\u00e8ne. Toutefois, un d\u00e9nombrement nous a permis de d\u00e9terminer que les niveaux de contamination \u00e9taient faibles (inf\u00e9rieurs \u00e0 100\u00a0<abbr title=\"unit\u00e9s formant des colonies par gramme\">UFC/g</abbr>), ce qui pose g\u00e9n\u00e9ralement tr\u00e8s peu de risques dans ce type d'aliment.</p>\n\n<p>Pour faciliter l'enqu\u00eate sur la salubrit\u00e9 des aliments, les profils d'\u00e9lectrophor\u00e8se en champ puls\u00e9 (ECP) (<abbr title=\"c'est-\u00e0-dire\">c.-\u00e0-d.</abbr> par empreinte g\u00e9n\u00e9tique) de <i lang=\"la\"><abbr title=\"Listeria\">L.</abbr> monocytogenes</i> et de <i lang=\"la\">Salmonella</i> ainsi que les s\u00e9rotypes de <i lang=\"la\">Salmonella</i> ont \u00e9t\u00e9 d\u00e9termin\u00e9s pour les isolats respectifs provenant des \u00e9chantillons positifs.</p>\n\n<p>Tous les \u00e9chantillons insatisfaisants ont fait l'objet d'enqu\u00eates sur la salubrit\u00e9 des aliments et des mesures de suivi appropri\u00e9es ont \u00e9t\u00e9 prises par l'Agence canadienne d'inspection des aliments (ACIA). L'analyse plus pouss\u00e9e des \u00e9chantillons insatisfaisants ainsi que les enqu\u00eates qui s'en sont suivies ont donn\u00e9 lieu \u00e0 deux rappels de produits et \u00e0 des enqu\u00eates subs\u00e9quentes. Il est important de noter qu'aucun cas de maladie li\u00e9 \u00e0 la consommation des aliments vis\u00e9s par la pr\u00e9sente \u00e9tude n'a \u00e9t\u00e9 signal\u00e9.</p>\n\n<p>Les r\u00e9sultats de l'enqu\u00eate de 2009-2010 montrent que les bact\u00e9ries pathog\u00e8nes n'ont pas \u00e9t\u00e9 d\u00e9tect\u00e9es dans la plupart des \u00e9chantillons de l\u00e9gumes-feuilles, y compris les \u00e9chantillons de l\u00e9gumes-feuilles frais coup\u00e9s <abbr title=\"pr\u00eats \u00e0 manger\">PAM</abbr>, analys\u00e9s dans le cadre de la pr\u00e9sente \u00e9tude. Une tr\u00e8s petite fraction des \u00e9chantillons de l\u00e9gumes-feuilles \u00e9taient contamin\u00e9s par des bact\u00e9ries pathog\u00e8nes ou contenaient des concentrations \u00e9lev\u00e9es de <i lang=\"la\"><abbr title=\"Escherichia\">E.</abbr>\u00a0coli</i> g\u00e9n\u00e9rique. Les r\u00e9sultats sugg\u00e8rent que les l\u00e9gumes-feuilles vendus sur le march\u00e9 canadien n'\u00e9taient pas tous produits conform\u00e9ment aux bonnes pratiques agricoles (BPA) et/ou aux bonnes pratiques de fabrication (BPF), transform\u00e9s et conserv\u00e9s dans des conditions sanitaires ad\u00e9quates durant la production et la transformation et/ou entrepos\u00e9s \u00e0 des temp\u00e9ratures de r\u00e9frig\u00e9ration appropri\u00e9es. Les r\u00e9sultats pr\u00e9liminaires indiquent \u00e9galement que les l\u00e9gumes-feuilles peuvent \u00eatre contamin\u00e9s par des microorganismes pathog\u00e8nes et que ceux-ci peuvent \u00eatre une source de maladies d'origine alimentaire au Canada. Les r\u00e9sultats des trois autres \u00e9tudes microbiologiques ciblant les l\u00e9gumes-feuilles seront communiqu\u00e9s annuellement une fois les analyses termin\u00e9es.</p>\r\n<style>\n/* required style */\n    .keyValue{\n\tdisplay: none !important;\n        visibility: hidden !important;\n</style>\n<h2>Demande de rapport complet</h2>\n<p>La version int\u00e9grale du pr\u00e9sent rapport est disponible sur demande.</p>\n\n<div class=\"wb-frmvld\">\n\n<form class=\"form-horizontal\" role=\"form\" method=\"post\" action=\"/active/netapp/comment/publicationposte.aspx#wb-cont\" name=\"frmPublication\">\n\n<input id=\"emailad0\" name=\"to\" class=\"hidden\" type=\"hidden\" aria-hidden=\"true\" value=\"s/iS4K+1VXjzGY4kfm6Dh3SmvfQbj363ejZOp49GnyupxfYeF/xjfJoyAu935mfbrgB+yt1QNY97grfBArBlH24aGmw3j1o8WA8Ge7T9cCs=\">\n<input name=\"strLang\" type=\"hidden\" value=\"Francais\">\n<input name=\"strSubject\" type=\"hidden\" value=\"Demande de rapport de r\u00e9sidus chimiques / microbiologie\">\n<input name=\"strTitle\" type=\"hidden\" value=\"title\">\n<input name=\"strUrl\" type=\"hidden\" value=\"url\">\n<script type=\"text/javascript\">\n    document.frmPublication.strTitle.value = document.getElementsByTagName(\"title\")[0].innerHTML;\n    document.frmPublication.strUrl.value = document.URL;\n</script>\n        \n<fieldset class=\"mrgn-tp-md mrgn-bttm-lg\">\t\t\n\n<legend class=\"field-name required\"><span class=\"field-name\">Le format dans lequel vous souhaitez recevoir le rapport</span> <strong class=\"required\">(obligatoire)</strong></legend>\n\n<div class=\"checkbox\">\n<label for=\"strPdf\"><input type=\"checkbox\" name=\"formatsent\" id=\"strPdf\" value=\"pdf\" required=\"required\">Fichier \u00e9lectronique PDF (format de document portable) envoy\u00e9 par courriel</label>\n</div>\n\n<div class=\"checkbox\">\n<label for=\"strText\"><input type=\"checkbox\" name=\"formatsent\" id=\"strText\" value=\"text\">Fichier \u00e9lectronique RTF (<span lang=\"en\">Rich Text Format</span>) envoy\u00e9 par courriel</label>\n</div>\n\n<div class=\"checkbox\">\n<label for=\"strBraille\"><input type=\"checkbox\" name=\"formatsent\" id=\"strBraille\" value=\"braille\">Copie braille envoy\u00e9e par la poste</label>\n</div>\n\n<div class=\"checkbox\">\n<label for=\"strPaper\"><input type=\"checkbox\" name=\"formatsent\" id=\"strPaper\" value=\"paper\">Copie papier envoy\u00e9e par la poste</label>\n</div>\n\n</fieldset>\t\n\n<fieldset class=\"mrgn-tp-md mrgn-bttm-lg\">\t\t\n\n<legend class=\"field-name\">Vos coordonn\u00e9es</legend>\n\n<label class=\"keyValue\" for=\"name\"></label>\n<input class=\"keyValue\" autocomplete=\"off\" type=\"text\" id=\"name\" name=\"name\">\n<label class=\"keyValue\" for=\"email\"></label>\n<input class=\"keyValue\" autocomplete=\"off\" type=\"email\" id=\"email\" name=\"email\"> \n\n<div class=\"form-group\">\n<label for=\"strFirstName\" class=\"required col-md-4 control-label\"><span class=\"field-name\">Pr\u00e9nom :</span> <strong class=\"required\">(obligatoire)</strong></label>\n<div class=\"col-md-8\">\n<input class=\"form-control\" id=\"strFirstName\" name=\"strFirstName\" type=\"text\" required=\"required\" pattern=\".{2,}\" data-rule-minlength=\"2\">\n</div>\n</div>\n            \n<div class=\"form-group\">\n<label for=\"strLastName\" class=\"required col-md-4 control-label\"><span class=\"field-name\">Nom :</span> <strong class=\"required\">(obligatoire)</strong></label>\n<div class=\"col-md-8\">\n<input class=\"form-control\" id=\"strLastName\" name=\"strLastName\" type=\"text\" required=\"required\" pattern=\".{2,}\" data-rule-minlength=\"2\">\n</div>\n</div>\n\n<div class=\"form-group\">\n<label for=\"strEmail\" class=\"required col-md-4 control-label\"><span class=\"field-name\">Adresse de courriel :</span> \u00a0<strong class=\"required\">(obligatoire)</strong></label>\n<div class=\"col-md-8\">\n<input class=\"form-control\" id=\"strEmail\" name=\"strEmail\" type=\"email\" required=\"required\">\n</div>\n</div>\n\n<div class=\"form-group\">\n<label for=\"strConfirmEmail\" class=\"required col-md-4 control-label\"><span class=\"field-name\">Confirmer Adresse de courriel :</span>  <strong class=\"required\">(obligatoire)</strong></label>\n<div class=\"col-md-8\">\n<input class=\"form-control\" id=\"strConfirmEmail\" name=\"strConfirmEmail\" type=\"email\" data-rule-equalto=\"#strEmail\" required=\"required\">\n</div>\n</div>\n\n<div class=\"form-group mrgn-tp-md\">\n<label for=\"lstdescribe\" class=\"required col-md-4 control-label\"><span class=\"field-name\">Comment vous vous d\u00e9criviez?</span> <strong class=\"required\">(obligatoire)</strong></label>\n<div class=\"col-md-8\">\n<select class=\"form-control\" id=\"lstdescribe\" name=\"lstdescribe\" required=\"required\">\n<option label=\"Choisir parmi la liste\"></option>\n<option value=\"Acad\u00e9mie\">Acad\u00e9mie</option>\n<option value=\"Association sectorielle\">Association sectorielle</option>  \n<option value=\"Autres institutions du gouvernement\">Autres institutions du gouvernement</option>\n<option value=\"Consommateur/Grand public\">Consommateur / Grand public</option>\n<option value=\"Groupe de consommateur\">Groupe de consommateur</option>\n<option value=\"Industrie/Secteur commercial\">Industrie / Secteur commercial</option>\n</select>\n</div>\n</div>\t\n\n<div class=\"form-group\">\n<label for=\"strAddress1\" class=\"col-md-4 control-label\"><span class=\"field-name\">Adresse 1 :</span></label>\n<div class=\"col-md-8\">\n<input class=\"form-control\" id=\"strAddress1\" name=\"strAddress1\" type=\"text\">\n</div>\n</div>\n\n<div class=\"form-group\">\n<label for=\"strAddress2\" class=\"col-md-4 control-label\"><span class=\"field-name\">Adresse 2 :</span></label>\n<div class=\"col-md-8\">\n<input class=\"form-control\" id=\"strAddress2\" name=\"strAddress2\" type=\"text\">\n</div>\n</div>\n\n<div class=\"form-group\">\n<label for=\"strCity\" class=\"col-md-4 control-label\"><span class=\"field-name\">Ville :</span></label>\n<div class=\"col-md-8\">\n<input class=\"form-control\" id=\"strCity\" name=\"strCity\" type=\"text\">\n</div>\n</div>\n\n<div class=\"form-group\">\n<label for=\"strProvince\" class=\"col-md-4 control-label\"><span class=\"field-name\">Province :</span></label>\n<div class=\"col-md-8\">\n<input class=\"form-control\" id=\"strProvince\" name=\"strProvince\" type=\"text\">\n</div>\n</div>\n\n<div class=\"form-group\">\n<label for=\"strCountry\" class=\"col-md-4 control-label\"><span class=\"field-name\">Pays : </span></label>\n<div class=\"col-md-8\">\n<input class=\"form-control\" id=\"strCountry\" name=\"strCountry\" type=\"text\">\n</div>\n</div>\n\n<div class=\"form-group\">\n<label for=\"strPostal\" class=\"col-md-4 control-label\"><span class=\"field-name\">Code postal : </span></label>\n<div class=\"col-md-8\">\n<input class=\"form-control\" id=\"strPostal\" name=\"strPostal\" type=\"text\">\n</div>\n</div>\n\n</fieldset>\t\n\n<input value=\"Soumettre votre demande\" id=\"btnSubmit\" name=\"btnSubmit\" class=\"btn btn-primary\" type=\"submit\"> \n<input value=\"Effacez tous les renseignements\" id=\"btnReset\" name=\"btnReset\" class=\"btn btn-default\" type=\"reset\">\n\n</form>\n</div>\n<script src=\"https://ajax.googleapis.com/ajax/libs/jquery/2.1.1/jquery.min.js\"></script>\n<script type=\"text/javascript\">\n$(document).ready (function(){\n\tif($(\"#strPaper\").checked || $(\"#strBraille\").checked)\n\t{\n\t\tPaperBrailleChecked();\n\t}\n});\n\n$(document).on(\"change\", \"#strBraille\", function(){\n\tif($(\"#strBraille\").is(\":checked\"))\n\t{\n\t\tPaperBrailleChecked();\n\t}\n\telse if(!($(\"#strPaper\").is(\":checked\")))\n\t{\n\t\tPaperBrailleUnChecked();\n\t}\n});\n\n$(document).on(\"change\", \"#strPaper\", function(){\n\tif($(\"#strPaper\").is(\":checked\"))\n\t{\n\t\tPaperBrailleChecked();\n\t}\n\telse if(!($(\"#strBraille\").is(\":checked\")))\n\t{\n\t\tPaperBrailleUnChecked();\n\t}\n});\n\nfunction PaperBrailleChecked()\n{\n\t$(\"#strAddress1\").attr(\"required\", \"true\");\n\t$(\"#strCity\").attr(\"required\", \"true\");\n\t$(\"#strProvince\").attr(\"required\", \"true\");\n\t$(\"#strCountry\").attr(\"required\", \"true\");\n\t$(\"#strPostal\").attr(\"required\", \"true\");\n}\n\nfunction PaperBrailleUnChecked()\n{\n\t$(\"#strAddress1\").removeAttr(\"required\");\n\t$(\"#strCity\").removeAttr(\"required\");\n\t$(\"#strProvince\").removeAttr(\"required\");\n\t$(\"#strCountry\").removeAttr(\"required\");\n\t$(\"#strPostal\").removeAttr(\"required\");\n}\n</script>\r\n\r\n<div class=\"row\">\r\n \r\n\t\t\t\r\n\t\t\t\r\n\r\n\t\t\r\n\t\r\n</div>"
    },
    "success": true,
    "chat_wizard": false
}