{
    "dcr_id": "1459485095733",
    "title": {
        "en": "2011-2013 Mercury in Selected Foods",
        "fr": "2011-2013 Pr\u00e9sence de mercure dans des aliments s\u00e9lectionn\u00e9s"
    },
    "html_modified": "5-6-2018",
    "modified": "4-9-2018",
    "issued": "1-4-2016",
    "teamsite_location": {
        "en": "/default/main/inspection/cont-cont/food-aliments/WORKAREA/food-aliments/templatedata/comn-comn/forms-formes/data/chem_testing_report_2011-2013_mercury_selected_1459485095733_eng",
        "fr": "/default/main/inspection/cont-cont/food-aliments/WORKAREA/food-aliments/templatedata/comn-comn/forms-formes/data/chem_testing_report_2011-2013_mercury_selected_1459485095733_fra"
    },
    "parent_ia_id": "1453327843364",
    "ia_id": "1459486910159",
    "parent_node_id": "1453327843364",
    "layout_name": "content page 1 column",
    "breadcrumb": {
        "en": "2011-2013 Mercury in Selected Foods",
        "fr": "2011-2013 Pr\u00e9sence de mercure dans des aliments s\u00e9lectionn\u00e9s"
    },
    "label": {
        "en": "2011-2013 Mercury in Selected Foods",
        "fr": "2011-2013 Pr\u00e9sence de mercure dans des aliments s\u00e9lectionn\u00e9s"
    },
    "templatetype": "content page 1 column",
    "node_id": "1459486910159",
    "managing_branch": "comn",
    "type_name": "forms-formes",
    "dcr_type": "forms-formes",
    "parent_dcr_id": "1453324778043",
    "has_dcr_id": true,
    "lang": "en",
    "could_not_load": 0,
    "refaire": false,
    "interwoven_url": {
        "en": "/food-safety-for-industry/food-chemistry-and-microbiology/food-safety-testing-reports-and-journal-articles/mercury-in-selected-foods/",
        "fr": "/salubrite-alimentaire-pour-l-industrie/chimie-et-microbiologie-alimentaires/rapports-d-analyse-et-articles-de-revues-sur-la-sa/presence-de-mercure-dans-des-aliments-selectionnes/"
    },
    "meta": {
        "viewport": {
            "en": "width=device-width,initial-scale=1",
            "fr": "width=device-width,initial-scale=1"
        },
        "service": {
            "en": "CFIA-ACIA",
            "fr": "CFIA-ACIA"
        },
        "accessRights": {
            "en": "2",
            "fr": "2"
        },
        "title": {
            "en": "2011-2013 Mercury in Selected Foods",
            "fr": "2011-2013 Pr\u00e9sence de mercure dans des aliments s\u00e9lectionn\u00e9s"
        },
        "description": {
            "en": "The Food Safety Action Plan (FSAP) aims to modernize and enhance Canada's food safety system. As part of the FSAP enhanced surveillance initiative, targeted surveys are used to generate data in order to evaluate various foods for specific hazards.",
            "fr": "Le Plan d'action pour assurer la s\u00e9curit\u00e9 des produits alimentaires (PAASPA) vise \u00e0 moderniser et \u00e0 am\u00e9liorer le syst\u00e8me canadien de salubrit\u00e9 des aliments. Dans le cadre de l\u2019initiative visant \u00e0 am\u00e9liorer la surveillance pr\u00e9vue dans le PAASPA, des \u00e9tudes cibl\u00e9es sont effectu\u00e9es afin de recueillir des donn\u00e9es permettant de d\u00e9celer des dangers pr\u00e9cis dans divers aliments."
        },
        "keywords": {
            "en": "food, food safety, food safety requirements, sampling, testing, food safety risks, Mercury",
            "fr": "aliments, salubrit&#233; des aliments, exigences f&#233;d&#233;rales en mati&#232;re de salubrit&#233; des aliments, &#233;chantillonnage, analyse, risques pour la salubrit&#233; des aliments, mercure"
        },
        "dcterms.subject": {
            "en": "food,samples,food inspection,consumer protection,regulation,food safety,safety,testing",
            "fr": "aliment,\u00e9chantillon,inspection des aliments,protection du consommateur,r\u00e9glementation,salubrit\u00e9 des aliments,s\u00e9curit\u00e9,test"
        },
        "creator": {
            "en": "Government of Canada,Canadian Food Inspection Agency",
            "fr": "Gouvernement du Canada,Agence canadienne d'inspection des aliments"
        },
        "language": {
            "en": "eng",
            "fr": "fra"
        },
        "issued": {
            "en": "2018-06-05",
            "fr": "2018-06-05"
        },
        "modified": {
            "en": "2018-09-04",
            "fr": "2018-09-04"
        },
        "type": {
            "en": "reference material",
            "fr": "mat\u00e9riel de r\u00e9f\u00e9rence"
        },
        "audience": {
            "en": "business,government,general public",
            "fr": "entreprises,gouvernement,grand public"
        },
        "name": {
            "en": "Government of Canada",
            "fr": "Gouvernement du Canada"
        },
        "areaServed": {
            "en": "Canada",
            "fr": "Canada"
        }
    },
    "h1": {
        "en": "2011-2013 Mercury in Selected Foods",
        "fr": "2011-2013 Pr\u00e9sence de mercure dans des aliments s\u00e9lectionn\u00e9s"
    },
    "js": {
        "en": "<script>\n    document.frmPublication.strTitle.value = document.getElementsByTagName(\"title\")[0].innerHTML;\n    document.frmPublication.strUrl.value = document.URL;\n</script>/* --------------------- MORE JAVASCRIPT ------------------- */<script>\n$(document).ready (function(){\n\tif($(\"#strPaper\").checked || $(\"#strBraille\").checked)\n\t{\n\t\tPaperBrailleChecked();\n\t}\n});\n\n$(document).on(\"change\", \"#strBraille\", function(){\n\tif($(\"#strBraille\").is(\":checked\"))\n\t{\n\t\tPaperBrailleChecked();\n\t}\n\telse if(!($(\"#strPaper\").is(\":checked\")))\n\t{\n\t\tPaperBrailleUnChecked();\n\t}\n});\n\n$(document).on(\"change\", \"#strPaper\", function(){\n\tif($(\"#strPaper\").is(\":checked\"))\n\t{\n\t\tPaperBrailleChecked();\n\t}\n\telse if(!($(\"#strBraille\").is(\":checked\")))\n\t{\n\t\tPaperBrailleUnChecked();\n\t}\n});\n\nfunction PaperBrailleChecked()\n{\n\t$(\"#strAddress1\").attr(\"required\", \"true\");\n\t$(\"#strCity\").attr(\"required\", \"true\");\n\t$(\"#strProvince\").attr(\"required\", \"true\");\n\t$(\"#strCountry\").attr(\"required\", \"true\");\n\t$(\"#strPostal\").attr(\"required\", \"true\");\n}\n\nfunction PaperBrailleUnChecked()\n{\n\t$(\"#strAddress1\").removeAttr(\"required\");\n\t$(\"#strCity\").removeAttr(\"required\");\n\t$(\"#strProvince\").removeAttr(\"required\");\n\t$(\"#strCountry\").removeAttr(\"required\");\n\t$(\"#strPostal\").removeAttr(\"required\");\n}\n</script>",
        "fr": "<script>\n    document.frmPublication.strTitle.value = document.getElementsByTagName(\"title\")[0].innerHTML;\n    document.frmPublication.strUrl.value = document.URL;\n</script>/* --------------------- MORE JAVASCRIPT ------------------- */<script>\n$(document).ready (function(){\n\tif($(\"#strPaper\").checked || $(\"#strBraille\").checked)\n\t{\n\t\tPaperBrailleChecked();\n\t}\n});\n\n$(document).on(\"change\", \"#strBraille\", function(){\n\tif($(\"#strBraille\").is(\":checked\"))\n\t{\n\t\tPaperBrailleChecked();\n\t}\n\telse if(!($(\"#strPaper\").is(\":checked\")))\n\t{\n\t\tPaperBrailleUnChecked();\n\t}\n});\n\n$(document).on(\"change\", \"#strPaper\", function(){\n\tif($(\"#strPaper\").is(\":checked\"))\n\t{\n\t\tPaperBrailleChecked();\n\t}\n\telse if(!($(\"#strBraille\").is(\":checked\")))\n\t{\n\t\tPaperBrailleUnChecked();\n\t}\n});\n\nfunction PaperBrailleChecked()\n{\n\t$(\"#strAddress1\").attr(\"required\", \"true\");\n\t$(\"#strCity\").attr(\"required\", \"true\");\n\t$(\"#strProvince\").attr(\"required\", \"true\");\n\t$(\"#strCountry\").attr(\"required\", \"true\");\n\t$(\"#strPostal\").attr(\"required\", \"true\");\n}\n\nfunction PaperBrailleUnChecked()\n{\n\t$(\"#strAddress1\").removeAttr(\"required\");\n\t$(\"#strCity\").removeAttr(\"required\");\n\t$(\"#strProvince\").removeAttr(\"required\");\n\t$(\"#strCountry\").removeAttr(\"required\");\n\t$(\"#strPostal\").removeAttr(\"required\");\n}\n</script>"
    },
    "mode_html": "no_editor_full",
    "body": {
        "en": "        \r\n        \n<h2>Summary</h2>\n\n<p>The Food Safety Action Plan (FSAP) aims to modernize and enhance Canada's food safety system. As part of the <abbr title=\"Food Safety Action Plan\">FSAP</abbr> enhanced surveillance initiative, targeted surveys are used to generate data in order to evaluate various foods for specific hazards.</p>\n<p>Mercury is a naturally occurring metal that can be present in the environment through natural sources such as volcanoes, soils, undersea vents, and mercury-rich geological zones. It can also be released through human activities like combustion and industrial processes (such as coal-fired power generation, mining, smelting, and waste incineration). The use of mercury in batteries, fluorescent tube lighting, thermometers, and other manufactured items is also a source of mercury release into the environment.</p>\n<p>Mercury is considered a global contaminant due to its toxicity, its ability to persist in the environment, and its ability to be transported long distances within the atmosphere.</p>\n<p>The main objectives of the 2011-2013 Mercury in Selected Foods Targeted Survey were to:</p>\n\n<ul>\n<li class=\"mrgn-bttm-md\">establish baseline information on mercury levels in specific commodities, namely beverages/juices, dried tea, and other products containing sugar, high fructose corn syrup, and other sweeteners.</li>\n\n<li class=\"mrgn-bttm-md\">compare current survey results with those obtained in the 2009-10 and 2010-11 <abbr title=\"Canadian Food Inspection Agency\">CFIA</abbr> Mercury Surveys to assess year-to-year variability, when commodity types have been repeated.</li>\n</ul>\n\n<p>A total of 958 samples were collected from 11 cities across Canada between April 2011 and March 2013. Samples consisted of beverages/juices, dried teas, syrups/toppings, and other products that contained sweeteners.</p>\n<p>Overall, 58% of the samples tested did not contain any detectable level of mercury. Of the remaining 42% of samples containing measurable levels of mercury, dried teas had the highest prevalence of mercury (96% of dried tea samples contained a detectable level of mercury), and also exhibited the highest concentration of mercury observed in any of the samples tested (0.0565 parts per million). Syrups/toppings and the \"other sweetened products\" categories exhibited 25% and 12% detection rates, respectively. With the exception of one topping sample, there appeared to be consistently low levels of mercury detected in syrups/toppings and in other sweetened products. Beverages/juices contained the lowest prevalence of detectable mercury, with only 2% of samples containing detectable levels.</p>\n<p>Comparison of samples common to the current and previous <abbr title=\"Canadian Food Inspection Agency\">CFIA</abbr> Mercury Surveys showed that when the analytical parameters were similar, both the prevalence and levels of mercury detected in dried tea, corn syrup and soft drinks were relatively consistent.</p>\n<p>There are currently no mercury guidelines or tolerances established in Canada for the commodities tested in this survey. Health Canada's Bureau of Chemical Safety assessed the data collected for this targeted survey and found that the mercury concentrations reported are not expected to pose an unacceptable health risk. No product recalls were warranted given the lack of a health concern.</p>\r\n<style>\n/* required style */\n    .keyValue{\n\tdisplay: none !important;\n        visibility: hidden !important;\n</style>\n<h2>Request of Complete Report</h2>\n<p>The complete text of this report is available upon request.</p>\n\n<div class=\"wb-frmvld\">\n\n<form class=\"form-horizontal\" role=\"form\" method=\"post\" action=\"/active/netapp/comment/publicationposte.aspx#wb-cont\" name=\"frmPublication\">\n<input id=\"emailad0\" name=\"to\" class=\"hidden\" type=\"hidden\" aria-hidden=\"true\" value=\"7nlRF85R35pPKx+5XFSTd3pCi/2tgZZE7oh9nKPITa4RajnXWqf4eS/avuNMhmgzYh0SxmIaxVqtNgM0aNSdg+0bK4ZacGMMTnI3yQh+KVo=\">\n<input name=\"strLang\" type=\"hidden\" value=\"English\">\n<input name=\"strSubject\" type=\"hidden\" value=\"Chemical Residues / Microbiology Report Request\">\n<input name=\"strTitle\" type=\"hidden\" value=\"title\">\n<input name=\"strUrl\" type=\"hidden\" value=\"url\">\n<script type=\"text/javascript\">\n    document.frmPublication.strTitle.value = document.getElementsByTagName(\"title\")[0].innerHTML;\n    document.frmPublication.strUrl.value = document.URL;\n</script>\n        \n<fieldset class=\"mrgn-tp-md mrgn-bttm-lg\">\t\t\n\n<legend class=\"field-name required\"><span class=\"field-name\">The format in which you would like to receive the report</span> <strong class=\"required\">(required)</strong></legend>\n\n<div class=\"checkbox\">\n<label for=\"strPdf\"><input type=\"checkbox\" name=\"formatsent\" id=\"strPdf\" value=\"pdf\" required=\"required\">PDF (Portable Document Format) electronic file sent to you by email</label>\n</div>\n\n<div class=\"checkbox\">\n<label for=\"strText\"><input type=\"checkbox\" name=\"formatsent\" id=\"strText\" value=\"text\">RTF (Rich Text Format) electronic file sent to you by email</label>\n</div>\n\n<div class=\"checkbox\">\n<label for=\"strBraille\"><input type=\"checkbox\" name=\"formatsent\" id=\"strBraille\" value=\"braille\">Braille copy sent to you by mail</label>\n</div>\n\n<div class=\"checkbox\">\n<label for=\"strPaper\"><input type=\"checkbox\" name=\"formatsent\" id=\"strPaper\" value=\"paper\">Paper copy sent to you by mail</label>\n</div>\n\n</fieldset>\t\n\n<fieldset class=\"mrgn-tp-md mrgn-bttm-lg\">\t\t\n\n<legend class=\"field-name\">Your contact information</legend>\n\n<label class=\"keyValue\" for=\"name\"></label>\n<input class=\"keyValue\" autocomplete=\"off\" type=\"text\" id=\"name\" name=\"name\">\n<label class=\"keyValue\" for=\"email\"></label>\n<input class=\"keyValue\" autocomplete=\"off\" type=\"email\" id=\"email\" name=\"email\"> \n\n<div class=\"form-group\">\n<label for=\"strFirstName\" class=\"required col-md-4 control-label\"><span class=\"field-name\">First name:</span> <strong class=\"required\">(required)</strong></label>\n<div class=\"col-md-8\">\n<input class=\"form-control\" id=\"strFirstName\" name=\"strFirstName\" type=\"text\" required=\"required\" pattern=\".{2,}\" data-rule-minlength=\"2\">\n</div>\n</div>\n            \n<div class=\"form-group\">\n<label for=\"strLastName\" class=\"required col-md-4 control-label\"><span class=\"field-name\">Last name:</span> <strong class=\"required\">(required)</strong></label>\n<div class=\"col-md-8\">\n<input class=\"form-control\" id=\"strLastName\" name=\"strLastName\" type=\"text\" required=\"required\" pattern=\".{2,}\" data-rule-minlength=\"2\">\n</div>\n</div>\n\n<div class=\"form-group\">\n<label for=\"strEmail\" class=\"required col-md-4 control-label\"><span class=\"field-name\">Email address:</span>  <strong class=\"required\">(required)</strong></label>\n<div class=\"col-md-8\">\n<input class=\"form-control\" id=\"strEmail\" name=\"strEmail\" type=\"email\" required=\"required\">\n</div>\n</div>\n\n<div class=\"form-group\">\n<label for=\"strConfirmEmail\" class=\"required col-md-4 control-label\"><span class=\"field-name\">Confirm email address:</span>  <strong class=\"required\">(required)</strong></label>\n<div class=\"col-md-8\">\n<input class=\"form-control\" id=\"strConfirmEmail\" name=\"strConfirmEmail\" type=\"email\" data-rule-equalto=\"#strEmail\" required=\"required\">\n</div>\n</div>\n\n<div class=\"form-group mrgn-tp-md\">\n<label for=\"lstdescribe\" class=\"required col-md-4 control-label\"><span class=\"field-name\">How would you describe yourself?</span> <strong class=\"required\">(required)</strong></label>\n<div class=\"col-md-8\">\n<select class=\"form-control\" id=\"lstdescribe\" name=\"lstdescribe\" required=\"required\">\n<option label=\"Select from this list\"></option>\n<option value=\"Academia\">Academia</option>\n<option value=\"Consumer Association\">Consumer Association</option>\n<option value=\"Consumer/General Public\">Consumer / General Public</option>\n<option value=\"Industry Association\">Industry Association</option>\n<option value=\"Industry/Commercial Sector\">Industry / Commercial Sector</option>\n<option value=\"Other Government Departments\">Other Government Departments</option>\t\t\t\n</select>\n</div>\n</div>\t\n\n<div class=\"form-group\">\n<label for=\"strAddress1\" class=\"col-md-4 control-label\"><span class=\"field-name\">Address 1:</span></label>\n<div class=\"col-md-8\">\n<input class=\"form-control\" id=\"strAddress1\" name=\"strAddress1\" type=\"text\">\n</div>\n</div>\n\n<div class=\"form-group\">\n<label for=\"strAddress2\" class=\"col-md-4 control-label\"><span class=\"field-name\">Address 2:</span></label>\n<div class=\"col-md-8\">\n<input class=\"form-control\" id=\"strAddress2\" name=\"strAddress2\" type=\"text\">\n</div>\n</div>\n\n<div class=\"form-group\">\n<label for=\"strCity\" class=\"col-md-4 control-label\"><span class=\"field-name\">City:</span></label>\n<div class=\"col-md-8\">\n<input class=\"form-control\" id=\"strCity\" name=\"strCity\" type=\"text\">\n</div>\n</div>\n\n<div class=\"form-group\">\n<label for=\"strProvince\" class=\"col-md-4 control-label\"><span class=\"field-name\">Province:</span></label>\n<div class=\"col-md-8\">\n<input class=\"form-control\" id=\"strProvince\" name=\"strProvince\" type=\"text\">\n</div>\n</div>\n\n<div class=\"form-group\">\n<label for=\"strCountry\" class=\"col-md-4 control-label\"><span class=\"field-name\">Country:</span></label>\n<div class=\"col-md-8\">\n<input class=\"form-control\" id=\"strCountry\" name=\"strCountry\" type=\"text\">\n</div>\n</div>\n\n<div class=\"form-group\">\n<label for=\"strPostal\" class=\"col-md-4 control-label\"><span class=\"field-name\">Postal Code:</span></label>\n<div class=\"col-md-8\">\n<input class=\"form-control\" id=\"strPostal\" name=\"strPostal\" type=\"text\">\n</div>\n</div>\n\n</fieldset>\t\n\n<input value=\"Submit Your Request\" id=\"btnSubmit\" name=\"btnSubmit\" class=\"btn btn-primary\" type=\"submit\"> \n<input value=\"Clear All Information\" id=\"btnReset\" name=\"btnReset\" class=\"btn btn-default\" type=\"reset\">\n\n</form>\n</div>\n<script src=\"https://ajax.googleapis.com/ajax/libs/jquery/2.1.1/jquery.min.js\"></script>\n<script type=\"text/javascript\">\n$(document).ready (function(){\n\tif($(\"#strPaper\").checked || $(\"#strBraille\").checked)\n\t{\n\t\tPaperBrailleChecked();\n\t}\n});\n\n$(document).on(\"change\", \"#strBraille\", function(){\n\tif($(\"#strBraille\").is(\":checked\"))\n\t{\n\t\tPaperBrailleChecked();\n\t}\n\telse if(!($(\"#strPaper\").is(\":checked\")))\n\t{\n\t\tPaperBrailleUnChecked();\n\t}\n});\n\n$(document).on(\"change\", \"#strPaper\", function(){\n\tif($(\"#strPaper\").is(\":checked\"))\n\t{\n\t\tPaperBrailleChecked();\n\t}\n\telse if(!($(\"#strBraille\").is(\":checked\")))\n\t{\n\t\tPaperBrailleUnChecked();\n\t}\n});\n\nfunction PaperBrailleChecked()\n{\n\t$(\"#strAddress1\").attr(\"required\", \"true\");\n\t$(\"#strCity\").attr(\"required\", \"true\");\n\t$(\"#strProvince\").attr(\"required\", \"true\");\n\t$(\"#strCountry\").attr(\"required\", \"true\");\n\t$(\"#strPostal\").attr(\"required\", \"true\");\n}\n\nfunction PaperBrailleUnChecked()\n{\n\t$(\"#strAddress1\").removeAttr(\"required\");\n\t$(\"#strCity\").removeAttr(\"required\");\n\t$(\"#strProvince\").removeAttr(\"required\");\n\t$(\"#strCountry\").removeAttr(\"required\");\n\t$(\"#strPostal\").removeAttr(\"required\");\n}\n</script>\r\n\r\n\r\n\r\n<div class=\"row\">\r\n \r\n\t\r\n\t\t\t\r\n\r\n<div class=\"col-xm-12 pagedetails container\">\r\n\t\t\t\t\r\n\r\n</div>\r\n\t\r\n</div>",
        "fr": "\r\n        \r\n        \n<h2>R\u00e9sum\u00e9</h2>\n\n<p>Le Plan d'action pour assurer la s\u00e9curit\u00e9 des produits alimentaires (PAASPA) vise \u00e0 moderniser et \u00e0 am\u00e9liorer le syst\u00e8me canadien de salubrit\u00e9 des aliments. Dans le cadre de l'initiative visant \u00e0 am\u00e9liorer la surveillance pr\u00e9vue dans le <abbr title=\"Plan d'action pour assurer la s\u00e9curit\u00e9 des produits alimentaires\">PAASPA</abbr>, des \u00e9tudes cibl\u00e9es sont effectu\u00e9es afin de recueillir des donn\u00e9es permettant de d\u00e9celer des dangers pr\u00e9cis dans divers aliments. </p>\n<p>Le mercure est un m\u00e9tal naturellement pr\u00e9sent dans l'environnement et provient de sources naturelles, comme les volcans, les sols, les \u00e9vents sous-marins et les zones g\u00e9ologiques riches en mercure. Les rejets de mercure dans l'environnement peuvent \u00e9galement r\u00e9sulter d'activit\u00e9s humaines (comme les centrales thermiques au charbon, les mines, les fonderies et les incin\u00e9rateurs de d\u00e9chets). L'utilisation de mercure dans les piles, les tubes fluorescents, les thermom\u00e8tres et d'autres produits manufactur\u00e9s constitue \u00e9galement une source de rejet de mercure dans l'environnement. </p>\n<p>Le mercure est consid\u00e9r\u00e9 comme une source de contamination mondiale \u00e0 cause de sa toxicit\u00e9, de sa persistance dans l'environnement et parce qu'il peut \u00eatre transport\u00e9 sur de longues distances dans l'atmosph\u00e8re. </p>\n<p>Les principaux objectifs de l'\u00e9tude cibl\u00e9e de 2011-2013 sur la pr\u00e9sence de mercure dans des aliments s\u00e9lectionn\u00e9s \u00e9taient les suivants\u00a0:</p>\n<ul>\n<li>recueillir des donn\u00e9es de base sur les concentrations de mercure dans des produits pr\u00e9cis, notamment les boissons/jus, le th\u00e9 s\u00e9ch\u00e9 ainsi que d'autres produits contenant du sucre, du sirop de ma\u00efs \u00e0 haute teneur en fructose et d'autres \u00e9dulcorants</li>\n<li>comparer les r\u00e9sultats de la pr\u00e9sente \u00e9tude avec ceux obtenus dans le cadre des \u00e9tudes de 2009-2010 et de 2010-2011 de l'<abbr title=\"Agence canadienne d'inspection des aliments\">ACIA</abbr> sur le mercure afin d'\u00e9valuer la variabilit\u00e9 d'une ann\u00e9e \u00e0 l'autre lorsque les types de produits \u00e9chantillonn\u00e9s \u00e9taient les m\u00eames.</li>\n</ul>\n<p>Au total, 958\u00a0\u00e9chantillons ont \u00e9t\u00e9 pr\u00e9lev\u00e9s dans 11\u00a0villes du Canada entre avril 2011\u00a0et mars\u00a02013. Les produits \u00e9chantillonn\u00e9s comprenaient des boissons/jus, des th\u00e9s s\u00e9ch\u00e9s, des sirops/garnitures ainsi que d'autres produits contenant des \u00e9dulcorants.</p>\n<p>Dans l'ensemble, 58\u00a0% des \u00e9chantillons analys\u00e9s ne contenaient aucune concentration mesurable de mercure. Parmi les autres 42\u00a0% qui contenaient des concentrations mesurables, la pr\u00e9sence de mercure a \u00e9t\u00e9 le plus souvent observ\u00e9e dans des th\u00e9s s\u00e9ch\u00e9s (96\u00a0% des \u00e9chantillons de th\u00e9 s\u00e9ch\u00e9 contenaient une concentration mesurable) et ceux-ci en contenaient aussi les plus fortes concentrations parmi tous les \u00e9chantillons analys\u00e9s (0,0565 partie par million). Les taux de d\u00e9tection pour les cat\u00e9gories \u00ab\u00a0sirops/garnitures\u00a0\u00bb et \u00ab\u00a0autres produits sucr\u00e9s\u00a0\u00bb \u00e9taient de 25\u00a0% et 12\u00a0% respectivement. \u00c0 l'exception d'un \u00e9chantillon de garniture, les concentrations de mercure mesur\u00e9es dans les sirops/garnitures et les autres produits sucr\u00e9s semblaient g\u00e9n\u00e9ralement faibles. La pr\u00e9sence de concentrations mesurables de mercure \u00e9tait la plus faible dans les boissons/jus; seulement 2\u00a0% des \u00e9chantillons contenaient des concentrations mesurables.</p>\n<p>Une comparaison des \u00e9chantillons communs \u00e0 la pr\u00e9sente \u00e9tude et aux \u00e9tudes pr\u00e9c\u00e9dentes de l'<abbr title=\"Agence canadienne d'inspection des aliments\">ACIA</abbr> sur le mercure a r\u00e9v\u00e9l\u00e9 que lorsque les param\u00e8tres d'analyse \u00e9taient similaires, la pr\u00e9sence et les concentrations de mercure observ\u00e9es dans le th\u00e9 s\u00e9ch\u00e9, le sirop de ma\u00efs et les boissons gazeuses \u00e9taient relativement semblables.</p>\n<p>\u00c0 l'heure actuelle, aucune ligne directrice ou tol\u00e9rance \u00e0 l'\u00e9gard du mercure n'a \u00e9t\u00e9 \u00e9tablie au Canada pour les produits analys\u00e9s dans le cadre de la pr\u00e9sente \u00e9tude. Le Bureau de l'innocuit\u00e9 des produits chimiques de Sant\u00e9 Canada a \u00e9valu\u00e9 les donn\u00e9es recueillies dans le cadre de la pr\u00e9sente \u00e9tude cibl\u00e9e et a d\u00e9termin\u00e9 que les concentrations de mercure observ\u00e9es ne posent aucun risque inacceptable pour la sant\u00e9. Aucun rappel d'aliments n'a \u00e9t\u00e9 n\u00e9cessaire compte tenu de l'absence de pr\u00e9occupation pour la sant\u00e9.</p>\r\n<style>\n/* required style */\n    .keyValue{\n\tdisplay: none !important;\n        visibility: hidden !important;\n</style>\n<h2>Demande de rapport complet</h2>\n<p>La version int\u00e9grale du pr\u00e9sent rapport est disponible sur demande.</p>\n\n<div class=\"wb-frmvld\">\n\n<form class=\"form-horizontal\" role=\"form\" method=\"post\" action=\"/active/netapp/comment/publicationposte.aspx#wb-cont\" name=\"frmPublication\">\n\n<input id=\"emailad0\" name=\"to\" class=\"hidden\" type=\"hidden\" aria-hidden=\"true\" value=\"Wv4vNzz7v6qxzJKTfDNNilD6x9BEo3dfGkZ9HLM86ONCWQ2JYFpaeeeVCyW1sIIwUg+M0Whzf0EqkGiNY/q3dgjxsIoXWfNNKBjEBya6g9U=\">\n<input name=\"strLang\" type=\"hidden\" value=\"Francais\">\n<input name=\"strSubject\" type=\"hidden\" value=\"Demande de rapport de r\u00e9sidus chimiques / microbiologie\">\n<input name=\"strTitle\" type=\"hidden\" value=\"title\">\n<input name=\"strUrl\" type=\"hidden\" value=\"url\">\n<script type=\"text/javascript\">\n    document.frmPublication.strTitle.value = document.getElementsByTagName(\"title\")[0].innerHTML;\n    document.frmPublication.strUrl.value = document.URL;\n</script>\n        \n<fieldset class=\"mrgn-tp-md mrgn-bttm-lg\">\t\t\n\n<legend class=\"field-name required\"><span class=\"field-name\">Le format dans lequel vous souhaitez recevoir le rapport</span> <strong class=\"required\">(obligatoire)</strong></legend>\n\n<div class=\"checkbox\">\n<label for=\"strPdf\"><input type=\"checkbox\" name=\"formatsent\" id=\"strPdf\" value=\"pdf\" required=\"required\">Fichier \u00e9lectronique PDF (format de document portable) envoy\u00e9 par courriel</label>\n</div>\n\n<div class=\"checkbox\">\n<label for=\"strText\"><input type=\"checkbox\" name=\"formatsent\" id=\"strText\" value=\"text\">Fichier \u00e9lectronique RTF (<span lang=\"en\">Rich Text Format</span>) envoy\u00e9 par courriel</label>\n</div>\n\n<div class=\"checkbox\">\n<label for=\"strBraille\"><input type=\"checkbox\" name=\"formatsent\" id=\"strBraille\" value=\"braille\">Copie braille envoy\u00e9e par la poste</label>\n</div>\n\n<div class=\"checkbox\">\n<label for=\"strPaper\"><input type=\"checkbox\" name=\"formatsent\" id=\"strPaper\" value=\"paper\">Copie papier envoy\u00e9e par la poste</label>\n</div>\n\n</fieldset>\t\n\n<fieldset class=\"mrgn-tp-md mrgn-bttm-lg\">\t\t\n\n<legend class=\"field-name\">Vos coordonn\u00e9es</legend>\n\n<label class=\"keyValue\" for=\"name\"></label>\n<input class=\"keyValue\" autocomplete=\"off\" type=\"text\" id=\"name\" name=\"name\">\n<label class=\"keyValue\" for=\"email\"></label>\n<input class=\"keyValue\" autocomplete=\"off\" type=\"email\" id=\"email\" name=\"email\"> \n\n<div class=\"form-group\">\n<label for=\"strFirstName\" class=\"required col-md-4 control-label\"><span class=\"field-name\">Pr\u00e9nom :</span> <strong class=\"required\">(obligatoire)</strong></label>\n<div class=\"col-md-8\">\n<input class=\"form-control\" id=\"strFirstName\" name=\"strFirstName\" type=\"text\" required=\"required\" pattern=\".{2,}\" data-rule-minlength=\"2\">\n</div>\n</div>\n            \n<div class=\"form-group\">\n<label for=\"strLastName\" class=\"required col-md-4 control-label\"><span class=\"field-name\">Nom :</span> <strong class=\"required\">(obligatoire)</strong></label>\n<div class=\"col-md-8\">\n<input class=\"form-control\" id=\"strLastName\" name=\"strLastName\" type=\"text\" required=\"required\" pattern=\".{2,}\" data-rule-minlength=\"2\">\n</div>\n</div>\n\n<div class=\"form-group\">\n<label for=\"strEmail\" class=\"required col-md-4 control-label\"><span class=\"field-name\">Adresse de courriel :</span> \u00a0<strong class=\"required\">(obligatoire)</strong></label>\n<div class=\"col-md-8\">\n<input class=\"form-control\" id=\"strEmail\" name=\"strEmail\" type=\"email\" required=\"required\">\n</div>\n</div>\n\n<div class=\"form-group\">\n<label for=\"strConfirmEmail\" class=\"required col-md-4 control-label\"><span class=\"field-name\">Confirmer Adresse de courriel :</span>  <strong class=\"required\">(obligatoire)</strong></label>\n<div class=\"col-md-8\">\n<input class=\"form-control\" id=\"strConfirmEmail\" name=\"strConfirmEmail\" type=\"email\" data-rule-equalto=\"#strEmail\" required=\"required\">\n</div>\n</div>\n\n<div class=\"form-group mrgn-tp-md\">\n<label for=\"lstdescribe\" class=\"required col-md-4 control-label\"><span class=\"field-name\">Comment vous vous d\u00e9criviez?</span> <strong class=\"required\">(obligatoire)</strong></label>\n<div class=\"col-md-8\">\n<select class=\"form-control\" id=\"lstdescribe\" name=\"lstdescribe\" required=\"required\">\n<option label=\"Choisir parmi la liste\"></option>\n<option value=\"Acad\u00e9mie\">Acad\u00e9mie</option>\n<option value=\"Association sectorielle\">Association sectorielle</option>  \n<option value=\"Autres institutions du gouvernement\">Autres institutions du gouvernement</option>\n<option value=\"Consommateur/Grand public\">Consommateur / Grand public</option>\n<option value=\"Groupe de consommateur\">Groupe de consommateur</option>\n<option value=\"Industrie/Secteur commercial\">Industrie / Secteur commercial</option>\n</select>\n</div>\n</div>\t\n\n<div class=\"form-group\">\n<label for=\"strAddress1\" class=\"col-md-4 control-label\"><span class=\"field-name\">Adresse 1 :</span></label>\n<div class=\"col-md-8\">\n<input class=\"form-control\" id=\"strAddress1\" name=\"strAddress1\" type=\"text\">\n</div>\n</div>\n\n<div class=\"form-group\">\n<label for=\"strAddress2\" class=\"col-md-4 control-label\"><span class=\"field-name\">Adresse 2 :</span></label>\n<div class=\"col-md-8\">\n<input class=\"form-control\" id=\"strAddress2\" name=\"strAddress2\" type=\"text\">\n</div>\n</div>\n\n<div class=\"form-group\">\n<label for=\"strCity\" class=\"col-md-4 control-label\"><span class=\"field-name\">Ville :</span></label>\n<div class=\"col-md-8\">\n<input class=\"form-control\" id=\"strCity\" name=\"strCity\" type=\"text\">\n</div>\n</div>\n\n<div class=\"form-group\">\n<label for=\"strProvince\" class=\"col-md-4 control-label\"><span class=\"field-name\">Province :</span></label>\n<div class=\"col-md-8\">\n<input class=\"form-control\" id=\"strProvince\" name=\"strProvince\" type=\"text\">\n</div>\n</div>\n\n<div class=\"form-group\">\n<label for=\"strCountry\" class=\"col-md-4 control-label\"><span class=\"field-name\">Pays : </span></label>\n<div class=\"col-md-8\">\n<input class=\"form-control\" id=\"strCountry\" name=\"strCountry\" type=\"text\">\n</div>\n</div>\n\n<div class=\"form-group\">\n<label for=\"strPostal\" class=\"col-md-4 control-label\"><span class=\"field-name\">Code postal : </span></label>\n<div class=\"col-md-8\">\n<input class=\"form-control\" id=\"strPostal\" name=\"strPostal\" type=\"text\">\n</div>\n</div>\n\n</fieldset>\t\n\n<input value=\"Soumettre votre demande\" id=\"btnSubmit\" name=\"btnSubmit\" class=\"btn btn-primary\" type=\"submit\"> \n<input value=\"Effacez tous les renseignements\" id=\"btnReset\" name=\"btnReset\" class=\"btn btn-default\" type=\"reset\">\n\n</form>\n</div>\n<script src=\"https://ajax.googleapis.com/ajax/libs/jquery/2.1.1/jquery.min.js\"></script>\n<script type=\"text/javascript\">\n$(document).ready (function(){\n\tif($(\"#strPaper\").checked || $(\"#strBraille\").checked)\n\t{\n\t\tPaperBrailleChecked();\n\t}\n});\n\n$(document).on(\"change\", \"#strBraille\", function(){\n\tif($(\"#strBraille\").is(\":checked\"))\n\t{\n\t\tPaperBrailleChecked();\n\t}\n\telse if(!($(\"#strPaper\").is(\":checked\")))\n\t{\n\t\tPaperBrailleUnChecked();\n\t}\n});\n\n$(document).on(\"change\", \"#strPaper\", function(){\n\tif($(\"#strPaper\").is(\":checked\"))\n\t{\n\t\tPaperBrailleChecked();\n\t}\n\telse if(!($(\"#strBraille\").is(\":checked\")))\n\t{\n\t\tPaperBrailleUnChecked();\n\t}\n});\n\nfunction PaperBrailleChecked()\n{\n\t$(\"#strAddress1\").attr(\"required\", \"true\");\n\t$(\"#strCity\").attr(\"required\", \"true\");\n\t$(\"#strProvince\").attr(\"required\", \"true\");\n\t$(\"#strCountry\").attr(\"required\", \"true\");\n\t$(\"#strPostal\").attr(\"required\", \"true\");\n}\n\nfunction PaperBrailleUnChecked()\n{\n\t$(\"#strAddress1\").removeAttr(\"required\");\n\t$(\"#strCity\").removeAttr(\"required\");\n\t$(\"#strProvince\").removeAttr(\"required\");\n\t$(\"#strCountry\").removeAttr(\"required\");\n\t$(\"#strPostal\").removeAttr(\"required\");\n}\n</script>\r\n\r\n<div class=\"row\">\r\n \r\n\t\t\t\r\n\t\t\t\r\n\r\n\t\t\r\n\t\r\n</div>"
    },
    "success": true,
    "chat_wizard": false
}