{
    "dcr_id": "1462210009876",
    "title": {
        "en": "2011-2013 <i lang=\"la\">Cyclospora cayetanensis</i> and <i lang=\"la\">Cryptosporidium</i> spp. in Fresh Produce",
        "fr": "2011-2013 <i lang=\"la\">Cyclospora cayetanensis</i> et <i lang=\"la\">Cryptosporidium</i> spp. dans les fruits et l\u00e9gumes frais"
    },
    "html_modified": "5-6-2018",
    "modified": "4-9-2018",
    "issued": "2-5-2016",
    "teamsite_location": {
        "en": "/default/main/inspection/cont-cont/food-aliments/WORKAREA/food-aliments/templatedata/comn-comn/forms-formes/data/chem_testing_report_2012-2013_cyclo_crpto_1462210009876_eng",
        "fr": "/default/main/inspection/cont-cont/food-aliments/WORKAREA/food-aliments/templatedata/comn-comn/forms-formes/data/chem_testing_report_2012-2013_cyclo_crpto_1462210009876_fra"
    },
    "parent_ia_id": "1453327843364",
    "ia_id": "1462210070521",
    "parent_node_id": "1453327843364",
    "layout_name": "content page 1 column",
    "breadcrumb": {
        "en": "2011-2013 <i lang=\"la\">Cyclospora cayetanensis</i> and <i lang=\"la\">Cryptosporidium</i> spp. in Fresh Produce",
        "fr": "2011-2013 <i lang=\"la\">Cyclospora cayetanensis</i> et <i lang=\"la\">Cryptosporidium</i> spp. dans les fruits et l\u00e9gumes frais"
    },
    "label": {
        "en": "2011-2013 <i lang=\"la\">Cyclospora cayetanensis</i> and <i lang=\"la\">Cryptosporidium</i> spp. in Fresh Produce",
        "fr": "2011-2013 <i lang=\"la\">Cyclospora cayetanensis</i> et <i lang=\"la\">Cryptosporidium</i> spp. dans les fruits et l\u00e9gumes frais"
    },
    "templatetype": "content page 1 column",
    "node_id": "1462210070521",
    "managing_branch": "comn",
    "type_name": "forms-formes",
    "dcr_type": "forms-formes",
    "parent_dcr_id": "1453324778043",
    "has_dcr_id": true,
    "lang": "en",
    "could_not_load": 0,
    "refaire": false,
    "interwoven_url": {
        "en": "/food-safety-for-industry/food-chemistry-and-microbiology/food-safety-testing-reports-and-journal-articles/cyclospora-cayetanensis-and-cryptosporidium-spp-in/",
        "fr": "/salubrite-alimentaire-pour-l-industrie/chimie-et-microbiologie-alimentaires/rapports-d-analyse-et-articles-de-revues-sur-la-sa/cyclospora-cayetanensis-et-cryptosporidium-spp-dan/"
    },
    "meta": {
        "viewport": {
            "en": "width=device-width,initial-scale=1",
            "fr": "width=device-width,initial-scale=1"
        },
        "service": {
            "en": "CFIA-ACIA",
            "fr": "CFIA-ACIA"
        },
        "accessRights": {
            "en": "2",
            "fr": "2"
        },
        "title": {
            "en": "2011-2013 Cyclospora cayetanensis and Cryptosporidium spp. in Fresh Produce",
            "fr": "2011-2013 Cyclospora cayetanensis et Cryptosporidium spp. dans les fruits et l\u00e9gumes frais"
        },
        "description": {
            "en": "The objective of this survey was to determine the occurrence and distribution of Cyclospora and Cryptosporidium contamination in fresh produce such as herbs, berries, mushrooms and green onions.",
            "fr": "L'objectif de la pr\u00e9sente \u00e9tude \u00e9tait de d\u00e9terminer l'occurrence et la r\u00e9partition des cas de contamination des fruits et l\u00e9gumes frais comme les fines herbes, les petits fruits, les champignons et les oignons verts, par les parasites Cyclospora et Cryptosporidium."
        },
        "keywords": {
            "en": "food, food safety, food safety requirements, sampling, testing, food safety risks, allergens, Cyclospora cayetanensis, Cryptosporidium spp., Fresh Produce",
            "fr": "aliment, \u00e9chantillon, inspection des aliments, protection du consommateur, r\u00e8glements, salubrit\u00e9 des aliments, s\u00e9curit\u00e9, v\u00e9rification, Cyclospora cayetanensis, Cryptosporidium spp., fruits et l\u00e9gumes frais"
        },
        "dcterms.subject": {
            "en": "food,samples,food inspection,consumer protection,regulation,food safety,testing",
            "fr": "aliment,\u00e9chantillon,inspection des aliments,protection du consommateur,r\u00e9glementation,salubrit\u00e9 des aliments,test"
        },
        "creator": {
            "en": "Government of Canada,Canadian Food Inspection Agency",
            "fr": "Gouvernement du Canada,Agence canadienne d'inspection des aliments"
        },
        "language": {
            "en": "eng",
            "fr": "fra"
        },
        "issued": {
            "en": "2018-06-05",
            "fr": "2018-06-05"
        },
        "modified": {
            "en": "2018-09-04",
            "fr": "2018-09-04"
        },
        "type": {
            "en": "reference material",
            "fr": "mat\u00e9riel de r\u00e9f\u00e9rence"
        },
        "audience": {
            "en": "business,government,general public",
            "fr": "entreprises,gouvernement,grand public"
        },
        "name": {
            "en": "Government of Canada",
            "fr": "Gouvernement du Canada"
        },
        "areaServed": {
            "en": "Canada",
            "fr": "Canada"
        }
    },
    "h1": {
        "en": "2011-2013 Cyclospora cayetanensis and Cryptosporidium spp. in Fresh Produce",
        "fr": "2011-2013 Cyclospora cayetanensis et Cryptosporidium spp. dans les fruits et l\u00e9gumes frais"
    },
    "js": {
        "en": "<script>\n    document.frmPublication.strTitle.value = document.getElementsByTagName(\"title\")[0].innerHTML;\n    document.frmPublication.strUrl.value = document.URL;\n</script>/* --------------------- MORE JAVASCRIPT ------------------- */<script>\n$(document).ready (function(){\n\tif($(\"#strPaper\").checked || $(\"#strBraille\").checked)\n\t{\n\t\tPaperBrailleChecked();\n\t}\n});\n\n$(document).on(\"change\", \"#strBraille\", function(){\n\tif($(\"#strBraille\").is(\":checked\"))\n\t{\n\t\tPaperBrailleChecked();\n\t}\n\telse if(!($(\"#strPaper\").is(\":checked\")))\n\t{\n\t\tPaperBrailleUnChecked();\n\t}\n});\n\n$(document).on(\"change\", \"#strPaper\", function(){\n\tif($(\"#strPaper\").is(\":checked\"))\n\t{\n\t\tPaperBrailleChecked();\n\t}\n\telse if(!($(\"#strBraille\").is(\":checked\")))\n\t{\n\t\tPaperBrailleUnChecked();\n\t}\n});\n\nfunction PaperBrailleChecked()\n{\n\t$(\"#strAddress1\").attr(\"required\", \"true\");\n\t$(\"#strCity\").attr(\"required\", \"true\");\n\t$(\"#strProvince\").attr(\"required\", \"true\");\n\t$(\"#strCountry\").attr(\"required\", \"true\");\n\t$(\"#strPostal\").attr(\"required\", \"true\");\n}\n\nfunction PaperBrailleUnChecked()\n{\n\t$(\"#strAddress1\").removeAttr(\"required\");\n\t$(\"#strCity\").removeAttr(\"required\");\n\t$(\"#strProvince\").removeAttr(\"required\");\n\t$(\"#strCountry\").removeAttr(\"required\");\n\t$(\"#strPostal\").removeAttr(\"required\");\n}\n</script>",
        "fr": "<script>\n    document.frmPublication.strTitle.value = document.getElementsByTagName(\"title\")[0].innerHTML;\n    document.frmPublication.strUrl.value = document.URL;\n</script>/* --------------------- MORE JAVASCRIPT ------------------- */<script>\n$(document).ready (function(){\n\tif($(\"#strPaper\").checked || $(\"#strBraille\").checked)\n\t{\n\t\tPaperBrailleChecked();\n\t}\n});\n\n$(document).on(\"change\", \"#strBraille\", function(){\n\tif($(\"#strBraille\").is(\":checked\"))\n\t{\n\t\tPaperBrailleChecked();\n\t}\n\telse if(!($(\"#strPaper\").is(\":checked\")))\n\t{\n\t\tPaperBrailleUnChecked();\n\t}\n});\n\n$(document).on(\"change\", \"#strPaper\", function(){\n\tif($(\"#strPaper\").is(\":checked\"))\n\t{\n\t\tPaperBrailleChecked();\n\t}\n\telse if(!($(\"#strBraille\").is(\":checked\")))\n\t{\n\t\tPaperBrailleUnChecked();\n\t}\n});\n\nfunction PaperBrailleChecked()\n{\n\t$(\"#strAddress1\").attr(\"required\", \"true\");\n\t$(\"#strCity\").attr(\"required\", \"true\");\n\t$(\"#strProvince\").attr(\"required\", \"true\");\n\t$(\"#strCountry\").attr(\"required\", \"true\");\n\t$(\"#strPostal\").attr(\"required\", \"true\");\n}\n\nfunction PaperBrailleUnChecked()\n{\n\t$(\"#strAddress1\").removeAttr(\"required\");\n\t$(\"#strCity\").removeAttr(\"required\");\n\t$(\"#strProvince\").removeAttr(\"required\");\n\t$(\"#strCountry\").removeAttr(\"required\");\n\t$(\"#strPostal\").removeAttr(\"required\");\n}\n</script>"
    },
    "mode_html": "no_editor_full",
    "body": {
        "en": "        \r\n        \n<h2>Summary</h2>\n\n<p>The Food Safety Action Plan aims to modernize and enhance Canada's food safety system in order to better protect Canadians from unsafe food and ultimately reduce the occurrence of foodborne illness.</p> \n\n<p><i lang=\"la\">Cyclospora</i> and <i lang=\"la\">Cryptosporidium</i> are protozoan parasites which infect humans, primarily through contaminated food and water.  <i lang=\"la\">Cyclospora</i> is endemic in a number of subtropical and tropical countries.  <i lang=\"la\">Cryptosporidium</i> infection can be found in people worldwide.  <i lang=\"la\">Cyclospora</i> and <i lang=\"la\">Cryptosporidium</i> infections can cause mild to severe gastrointestinal (GI) symptoms including, but not limited to, diarrhoea, weight loss, cramping, flatulence, nausea, fatigue and low grade fever.</p>\n\n<p><i lang=\"la\">Cyclospora</i> and <i lang=\"la\">Cryptosporidium</i> were ranked 13th and 5th, respectively, out of 24 parasites in overall global ranking for their public health importance by a Food and Agriculture Organization of the United Nations/World Health Organization (FAO/WHO) expert committee (September 3 to 7, 2012).  Produce such as fresh herbs and berries have been identified in the past as sources of <i lang=\"la\">Cyclospora</i> and <i lang=\"la\">Cryptosporidium</i> contamination in Canada. This survey focussed on fresh herbs, berries, green onions and mushrooms.</p> \n\n<p>The objective of this survey was to determine the occurrence and distribution of <i lang=\"la\">Cyclospora</i> and <i lang=\"la\">Cryptosporidium</i> contamination in fresh produce such as herbs, berries, mushrooms and green onions.  A total of 1590 samples were analyzed for the presence of <i lang=\"la\">Cyclospora</i> and 1788 samples were analyzed for <i lang=\"la\">Cryptosporidium</i>.  Samples were collected at retail from various regions across Canada between May 2011 and March 2013.</p>  \n\n<p>Of the samples analyzed for <i lang=\"la\">Cyclospora</i>, none were positive for the parasite.  Of the samples analyzed for <i lang=\"la\">Cryptosporidium</i>, six samples of green onions, one sample of parsley, and one sample of mushroom were positive, however, the analytical method used to detect the parasites in the samples cannot determine if the parasite is viable and potentially infectious.  It is important to note that there were no reported illnesses associated with the consumption of the products found to be positive for <i lang=\"la\">Cryptosporidium</i>.  Positive results are followed up by the Canadian Food Inspection Agency (CFIA).  In this case, because of the perishable nature of the products and the time elapsed between sample pick up and the completion of analysis, the fresh product was no longer available on the market when the parasite was detected.  As such, no direct follow up was possible.  This information was used to inform <abbr title=\"Canadian Food Inspection Agency\">CFIA</abbr>'s programs and inspection activities.</p>  \n\n<p>The Canadian Food Inspection Agency regulates and provides oversight to the industry, works with provinces and territories, and promotes safe handling of foods throughout the food production chain.  However, it is important to note that the food industry and retail sectors in Canada are ultimately responsible for the food they produce and sell, while individual consumers are responsible for the safe handling of the food they have in their possession.  Moreover, general advice for the consumer on the safe handling of foods is widely available.  The <abbr title=\"Canadian Food Inspection Agency\">CFIA</abbr> will continue its surveillance activities and inform stakeholders of its findings.</p>\r\n<style>\n/* required style */\n    .keyValue{\n\tdisplay: none !important;\n        visibility: hidden !important;\n</style>\n<h2>Request of Complete Report</h2>\n<p>The complete text of this report is available upon request.</p>\n\n<div class=\"wb-frmvld\">\n\n<form class=\"form-horizontal\" role=\"form\" method=\"post\" action=\"/active/netapp/comment/publicationposte.aspx#wb-cont\" name=\"frmPublication\">\n<input id=\"emailad0\" name=\"to\" class=\"hidden\" type=\"hidden\" aria-hidden=\"true\" value=\"9ABf9ObRpU0Q93XIcdVMUmgxClVnBnTxzYJdawJH1YXDVYZlb0F9eZC3iKjXGEYNYhoSJLIQYVO5OaJZjGzbmKsNPYQW3HA62/4XsMwA78Y=\">\n<input name=\"strLang\" type=\"hidden\" value=\"English\">\n<input name=\"strSubject\" type=\"hidden\" value=\"Chemical Residues / Microbiology Report Request\">\n<input name=\"strTitle\" type=\"hidden\" value=\"title\">\n<input name=\"strUrl\" type=\"hidden\" value=\"url\">\n<script type=\"text/javascript\">\n    document.frmPublication.strTitle.value = document.getElementsByTagName(\"title\")[0].innerHTML;\n    document.frmPublication.strUrl.value = document.URL;\n</script>\n        \n<fieldset class=\"mrgn-tp-md mrgn-bttm-lg\">\t\t\n\n<legend class=\"field-name required\"><span class=\"field-name\">The format in which you would like to receive the report</span> <strong class=\"required\">(required)</strong></legend>\n\n<div class=\"checkbox\">\n<label for=\"strPdf\"><input type=\"checkbox\" name=\"formatsent\" id=\"strPdf\" value=\"pdf\" required=\"required\">PDF (Portable Document Format) electronic file sent to you by email</label>\n</div>\n\n<div class=\"checkbox\">\n<label for=\"strText\"><input type=\"checkbox\" name=\"formatsent\" id=\"strText\" value=\"text\">RTF (Rich Text Format) electronic file sent to you by email</label>\n</div>\n\n<div class=\"checkbox\">\n<label for=\"strBraille\"><input type=\"checkbox\" name=\"formatsent\" id=\"strBraille\" value=\"braille\">Braille copy sent to you by mail</label>\n</div>\n\n<div class=\"checkbox\">\n<label for=\"strPaper\"><input type=\"checkbox\" name=\"formatsent\" id=\"strPaper\" value=\"paper\">Paper copy sent to you by mail</label>\n</div>\n\n</fieldset>\t\n\n<fieldset class=\"mrgn-tp-md mrgn-bttm-lg\">\t\t\n\n<legend class=\"field-name\">Your contact information</legend>\n\n<label class=\"keyValue\" for=\"name\"></label>\n<input class=\"keyValue\" autocomplete=\"off\" type=\"text\" id=\"name\" name=\"name\">\n<label class=\"keyValue\" for=\"email\"></label>\n<input class=\"keyValue\" autocomplete=\"off\" type=\"email\" id=\"email\" name=\"email\"> \n\n<div class=\"form-group\">\n<label for=\"strFirstName\" class=\"required col-md-4 control-label\"><span class=\"field-name\">First name:</span> <strong class=\"required\">(required)</strong></label>\n<div class=\"col-md-8\">\n<input class=\"form-control\" id=\"strFirstName\" name=\"strFirstName\" type=\"text\" required=\"required\" pattern=\".{2,}\" data-rule-minlength=\"2\">\n</div>\n</div>\n            \n<div class=\"form-group\">\n<label for=\"strLastName\" class=\"required col-md-4 control-label\"><span class=\"field-name\">Last name:</span> <strong class=\"required\">(required)</strong></label>\n<div class=\"col-md-8\">\n<input class=\"form-control\" id=\"strLastName\" name=\"strLastName\" type=\"text\" required=\"required\" pattern=\".{2,}\" data-rule-minlength=\"2\">\n</div>\n</div>\n\n<div class=\"form-group\">\n<label for=\"strEmail\" class=\"required col-md-4 control-label\"><span class=\"field-name\">Email address:</span>  <strong class=\"required\">(required)</strong></label>\n<div class=\"col-md-8\">\n<input class=\"form-control\" id=\"strEmail\" name=\"strEmail\" type=\"email\" required=\"required\">\n</div>\n</div>\n\n<div class=\"form-group\">\n<label for=\"strConfirmEmail\" class=\"required col-md-4 control-label\"><span class=\"field-name\">Confirm email address:</span>  <strong class=\"required\">(required)</strong></label>\n<div class=\"col-md-8\">\n<input class=\"form-control\" id=\"strConfirmEmail\" name=\"strConfirmEmail\" type=\"email\" data-rule-equalto=\"#strEmail\" required=\"required\">\n</div>\n</div>\n\n<div class=\"form-group mrgn-tp-md\">\n<label for=\"lstdescribe\" class=\"required col-md-4 control-label\"><span class=\"field-name\">How would you describe yourself?</span> <strong class=\"required\">(required)</strong></label>\n<div class=\"col-md-8\">\n<select class=\"form-control\" id=\"lstdescribe\" name=\"lstdescribe\" required=\"required\">\n<option label=\"Select from this list\"></option>\n<option value=\"Academia\">Academia</option>\n<option value=\"Consumer Association\">Consumer Association</option>\n<option value=\"Consumer/General Public\">Consumer / General Public</option>\n<option value=\"Industry Association\">Industry Association</option>\n<option value=\"Industry/Commercial Sector\">Industry / Commercial Sector</option>\n<option value=\"Other Government Departments\">Other Government Departments</option>\t\t\t\n</select>\n</div>\n</div>\t\n\n<div class=\"form-group\">\n<label for=\"strAddress1\" class=\"col-md-4 control-label\"><span class=\"field-name\">Address 1:</span></label>\n<div class=\"col-md-8\">\n<input class=\"form-control\" id=\"strAddress1\" name=\"strAddress1\" type=\"text\">\n</div>\n</div>\n\n<div class=\"form-group\">\n<label for=\"strAddress2\" class=\"col-md-4 control-label\"><span class=\"field-name\">Address 2:</span></label>\n<div class=\"col-md-8\">\n<input class=\"form-control\" id=\"strAddress2\" name=\"strAddress2\" type=\"text\">\n</div>\n</div>\n\n<div class=\"form-group\">\n<label for=\"strCity\" class=\"col-md-4 control-label\"><span class=\"field-name\">City:</span></label>\n<div class=\"col-md-8\">\n<input class=\"form-control\" id=\"strCity\" name=\"strCity\" type=\"text\">\n</div>\n</div>\n\n<div class=\"form-group\">\n<label for=\"strProvince\" class=\"col-md-4 control-label\"><span class=\"field-name\">Province:</span></label>\n<div class=\"col-md-8\">\n<input class=\"form-control\" id=\"strProvince\" name=\"strProvince\" type=\"text\">\n</div>\n</div>\n\n<div class=\"form-group\">\n<label for=\"strCountry\" class=\"col-md-4 control-label\"><span class=\"field-name\">Country:</span></label>\n<div class=\"col-md-8\">\n<input class=\"form-control\" id=\"strCountry\" name=\"strCountry\" type=\"text\">\n</div>\n</div>\n\n<div class=\"form-group\">\n<label for=\"strPostal\" class=\"col-md-4 control-label\"><span class=\"field-name\">Postal Code:</span></label>\n<div class=\"col-md-8\">\n<input class=\"form-control\" id=\"strPostal\" name=\"strPostal\" type=\"text\">\n</div>\n</div>\n\n</fieldset>\t\n\n<input value=\"Submit Your Request\" id=\"btnSubmit\" name=\"btnSubmit\" class=\"btn btn-primary\" type=\"submit\"> \n<input value=\"Clear All Information\" id=\"btnReset\" name=\"btnReset\" class=\"btn btn-default\" type=\"reset\">\n\n</form>\n</div>\n<script src=\"https://ajax.googleapis.com/ajax/libs/jquery/2.1.1/jquery.min.js\"></script>\n<script type=\"text/javascript\">\n$(document).ready (function(){\n\tif($(\"#strPaper\").checked || $(\"#strBraille\").checked)\n\t{\n\t\tPaperBrailleChecked();\n\t}\n});\n\n$(document).on(\"change\", \"#strBraille\", function(){\n\tif($(\"#strBraille\").is(\":checked\"))\n\t{\n\t\tPaperBrailleChecked();\n\t}\n\telse if(!($(\"#strPaper\").is(\":checked\")))\n\t{\n\t\tPaperBrailleUnChecked();\n\t}\n});\n\n$(document).on(\"change\", \"#strPaper\", function(){\n\tif($(\"#strPaper\").is(\":checked\"))\n\t{\n\t\tPaperBrailleChecked();\n\t}\n\telse if(!($(\"#strBraille\").is(\":checked\")))\n\t{\n\t\tPaperBrailleUnChecked();\n\t}\n});\n\nfunction PaperBrailleChecked()\n{\n\t$(\"#strAddress1\").attr(\"required\", \"true\");\n\t$(\"#strCity\").attr(\"required\", \"true\");\n\t$(\"#strProvince\").attr(\"required\", \"true\");\n\t$(\"#strCountry\").attr(\"required\", \"true\");\n\t$(\"#strPostal\").attr(\"required\", \"true\");\n}\n\nfunction PaperBrailleUnChecked()\n{\n\t$(\"#strAddress1\").removeAttr(\"required\");\n\t$(\"#strCity\").removeAttr(\"required\");\n\t$(\"#strProvince\").removeAttr(\"required\");\n\t$(\"#strCountry\").removeAttr(\"required\");\n\t$(\"#strPostal\").removeAttr(\"required\");\n}\n</script>\r\n\r\n\r\n\r\n<div class=\"row\">\r\n \r\n\t\r\n\t\t\t\r\n\r\n<div class=\"col-xm-12 pagedetails container\">\r\n\t\t\t\t\r\n\r\n</div>\r\n\t\r\n</div>",
        "fr": "\r\n        \r\n        \n<h2>R\u00e9sum\u00e9</h2>\n\n<p>Le Plan d'action pour assurer la s\u00e9curit\u00e9 des produits alimentaires (PAASPA) vise \u00e0 moderniser et \u00e0 renforcer le syst\u00e8me canadien de salubrit\u00e9 des aliments afin que l'on puisse parvenir \u00e0 mieux prot\u00e9ger les Canadiens contre les aliments insalubres et, en fin de compte, \u00e0 r\u00e9duire la fr\u00e9quence des maladies d'origine alimentaire.</p> \n\n<p>Les parasites <i lang=\"la\">Cyclospora</i> et <i lang=\"la\">Cryptosporidium</i> sont des protozoaires qui infectent les humains, principalement par l'interm\u00e9diaire de l'eau et des aliments contamin\u00e9s. <i lang=\"la\">Cyclospora</i> est end\u00e9mique dans un certain nombre de pays tropicaux et sous-tropicaux. Des humains contractent des infections \u00e0 <i lang=\"la\">Cryptosporidium</i> partout dans le monde. Les infections \u00e0 <i lang=\"la\">Cyclospora</i> et \u00e0 <i lang=\"la\">Cryptosporidium</i> peuvent causer des sympt\u00f4mes gastro-intestinaux l\u00e9gers \u00e0 graves incluant, entre autres, la diarrh\u00e9e, une perte de poids, des crampes, des flatulences, la naus\u00e9e, la fatigue et une fi\u00e8vre l\u00e9g\u00e8re.</p>\n\n<p>En septembre 2012, un comit\u00e9 d'experts de l'Organisation des Nations Unies pour l'alimentation et l'agriculture (FAO) et de l'Organisation mondiale de la Sant\u00e9 (OMS) ont plac\u00e9 <i lang=\"la\">Cyclospora</i> et <i lang=\"la\">Cryptosporidium</i> aux 13<sup>e</sup> et 5<sup>e</sup> rangs, respectivement, parmi 24 parasites dans le classement g\u00e9n\u00e9ral des parasites mondiaux en raison de leur importance pour la sant\u00e9 publique. Les fruits et l\u00e9gumes, comme les fines herbes et les petits fruits frais, ont d\u00e9j\u00e0 \u00e9t\u00e9 identifi\u00e9s par le pass\u00e9 comme sources de <i lang=\"la\">Cyclospora</i> et de <i lang=\"la\">Cryptosporidium</i> au Canada. La pr\u00e9sente \u00e9tude se penche sur les fines herbes, les petits fruits, les oignons verts et les champignons frais.</p> \n\n<p>L'objectif de la pr\u00e9sente \u00e9tude \u00e9tait de d\u00e9terminer l'occurrence et la r\u00e9partition des cas de contamination des fruits et l\u00e9gumes frais comme les fines herbes, les petits fruits, les champignons et les oignons verts, par les parasites <i lang=\"la\">Cyclospora</i> et <i lang=\"la\">Cryptosporidium</i>. Un total de 1590 \u00e9chantillons ont \u00e9t\u00e9 analys\u00e9s pour la pr\u00e9sence de <i lang=\"la\">Cyclospora</i> et de 1788 \u00e9chantillons pour y d\u00e9celer la pr\u00e9sence de <i lang=\"la\">Cryptosporidium</i>. Les \u00e9chantillons ont \u00e9t\u00e9 pr\u00e9lev\u00e9s dans des commerces de d\u00e9tail de diverses r\u00e9gions dans tout le Canada entre mai 2011 et mars 2013.</p> \n\n<p>Parmi les \u00e9chantillons soumis \u00e0 un d\u00e9pistage de <i lang=\"la\">Cyclospora</i>, aucun n'a donn\u00e9 de r\u00e9sultat positif pour ce parasite. Parmi les \u00e9chantillons soumis \u00e0 un d\u00e9pistage de <i lang=\"la\">Cryptosporidium</i>, six \u00e9chantillons d'oignon vert, un \u00e9chantillon de persil et un \u00e9chantillon de champignon se sont r\u00e9v\u00e9l\u00e9s positifs. Cependant, la m\u00e9thode d'analyse utilis\u00e9e pour d\u00e9tecter les parasites ne peut indiquer si le parasite est viable et s'il peut transmettre une infection. Il est important de noter qu'aucun cas de maladie li\u00e9 \u00e0 la consommation des produits dans lesquels <i lang=\"la\">Cryptosporidium</i> a \u00e9t\u00e9 d\u00e9cel\u00e9 lors de cette \u00e9tude n'a \u00e9t\u00e9 signal\u00e9. Les r\u00e9sultats positifs donnent lieu \u00e0 un suivi de la part de l'Agence canadienne d'inspection des aliments (ACIA). Toutefois, dans le cas qui nous occupe, \u00e0 cause de la nature p\u00e9rissable des produits et du temps \u00e9coul\u00e9 entre le pr\u00e9l\u00e8vement de l'\u00e9chantillon et la fin de l'analyse, les produits n'\u00e9taient plus sur le march\u00e9 lorsque le parasite a \u00e9t\u00e9 d\u00e9tect\u00e9. Aucune mesure de suivi directe n'a donc \u00e9t\u00e9 possible. L'information recueillie a contribu\u00e9 \u00e0 informer et guider les programmes et les activit\u00e9s d'inspection de l'<abbr title=\"Agence canadienne d'inspection des aliments\">ACIA</abbr>.</p> \n\n<p>L'Agence canadienne d'inspection des aliments r\u00e9glemente et supervise l'industrie. Elle collabore \u00e9galement avec les provinces et les territoires et fait la promotion d'une manipulation s\u00e9curitaire des aliments tout au long de la cha\u00eene de production alimentaire. Toutefois, il est important de noter que les secteurs de l'alimentation et du d\u00e9tail au Canada sont en d\u00e9finitive responsables des aliments qu'ils produisent et vendent, tandis que les consommateurs sont responsables de la manipulation s\u00e9curitaire des aliments qu'ils ont en leur possession. Par ailleurs, les consommateurs peuvent facilement trouver de l'information g\u00e9n\u00e9rale sur la manipulation s\u00e9curitaire des aliments. L'<abbr title=\"Agence canadienne d'inspection des aliments\">ACIA</abbr> poursuivra ses activit\u00e9s de surveillance et fera part de ses constatations aux intervenants.</p>\r\n<style>\n/* required style */\n    .keyValue{\n\tdisplay: none !important;\n        visibility: hidden !important;\n</style>\n<h2>Demande de rapport complet</h2>\n<p>La version int\u00e9grale du pr\u00e9sent rapport est disponible sur demande.</p>\n\n<div class=\"wb-frmvld\">\n\n<form class=\"form-horizontal\" role=\"form\" method=\"post\" action=\"/active/netapp/comment/publicationposte.aspx#wb-cont\" name=\"frmPublication\">\n\n<input id=\"emailad0\" name=\"to\" class=\"hidden\" type=\"hidden\" aria-hidden=\"true\" value=\"8u/Fx+lGrQLG8cEmkp5qghO9cLaHYIvtnduPlSqfeTZkcu5/+61jgVx0Szg/hqElwS0q6e3cCPnBL3uiU2PCp6NxvKmi6Np1JoLjjspZmgo=\">\n<input name=\"strLang\" type=\"hidden\" value=\"Francais\">\n<input name=\"strSubject\" type=\"hidden\" value=\"Demande de rapport de r\u00e9sidus chimiques / microbiologie\">\n<input name=\"strTitle\" type=\"hidden\" value=\"title\">\n<input name=\"strUrl\" type=\"hidden\" value=\"url\">\n<script type=\"text/javascript\">\n    document.frmPublication.strTitle.value = document.getElementsByTagName(\"title\")[0].innerHTML;\n    document.frmPublication.strUrl.value = document.URL;\n</script>\n        \n<fieldset class=\"mrgn-tp-md mrgn-bttm-lg\">\t\t\n\n<legend class=\"field-name required\"><span class=\"field-name\">Le format dans lequel vous souhaitez recevoir le rapport</span> <strong class=\"required\">(obligatoire)</strong></legend>\n\n<div class=\"checkbox\">\n<label for=\"strPdf\"><input type=\"checkbox\" name=\"formatsent\" id=\"strPdf\" value=\"pdf\" required=\"required\">Fichier \u00e9lectronique PDF (format de document portable) envoy\u00e9 par courriel</label>\n</div>\n\n<div class=\"checkbox\">\n<label for=\"strText\"><input type=\"checkbox\" name=\"formatsent\" id=\"strText\" value=\"text\">Fichier \u00e9lectronique RTF (<span lang=\"en\">Rich Text Format</span>) envoy\u00e9 par courriel</label>\n</div>\n\n<div class=\"checkbox\">\n<label for=\"strBraille\"><input type=\"checkbox\" name=\"formatsent\" id=\"strBraille\" value=\"braille\">Copie braille envoy\u00e9e par la poste</label>\n</div>\n\n<div class=\"checkbox\">\n<label for=\"strPaper\"><input type=\"checkbox\" name=\"formatsent\" id=\"strPaper\" value=\"paper\">Copie papier envoy\u00e9e par la poste</label>\n</div>\n\n</fieldset>\t\n\n<fieldset class=\"mrgn-tp-md mrgn-bttm-lg\">\t\t\n\n<legend class=\"field-name\">Vos coordonn\u00e9es</legend>\n\n<label class=\"keyValue\" for=\"name\"></label>\n<input class=\"keyValue\" autocomplete=\"off\" type=\"text\" id=\"name\" name=\"name\">\n<label class=\"keyValue\" for=\"email\"></label>\n<input class=\"keyValue\" autocomplete=\"off\" type=\"email\" id=\"email\" name=\"email\"> \n\n<div class=\"form-group\">\n<label for=\"strFirstName\" class=\"required col-md-4 control-label\"><span class=\"field-name\">Pr\u00e9nom :</span> <strong class=\"required\">(obligatoire)</strong></label>\n<div class=\"col-md-8\">\n<input class=\"form-control\" id=\"strFirstName\" name=\"strFirstName\" type=\"text\" required=\"required\" pattern=\".{2,}\" data-rule-minlength=\"2\">\n</div>\n</div>\n            \n<div class=\"form-group\">\n<label for=\"strLastName\" class=\"required col-md-4 control-label\"><span class=\"field-name\">Nom :</span> <strong class=\"required\">(obligatoire)</strong></label>\n<div class=\"col-md-8\">\n<input class=\"form-control\" id=\"strLastName\" name=\"strLastName\" type=\"text\" required=\"required\" pattern=\".{2,}\" data-rule-minlength=\"2\">\n</div>\n</div>\n\n<div class=\"form-group\">\n<label for=\"strEmail\" class=\"required col-md-4 control-label\"><span class=\"field-name\">Adresse de courriel :</span> \u00a0<strong class=\"required\">(obligatoire)</strong></label>\n<div class=\"col-md-8\">\n<input class=\"form-control\" id=\"strEmail\" name=\"strEmail\" type=\"email\" required=\"required\">\n</div>\n</div>\n\n<div class=\"form-group\">\n<label for=\"strConfirmEmail\" class=\"required col-md-4 control-label\"><span class=\"field-name\">Confirmer Adresse de courriel :</span>  <strong class=\"required\">(obligatoire)</strong></label>\n<div class=\"col-md-8\">\n<input class=\"form-control\" id=\"strConfirmEmail\" name=\"strConfirmEmail\" type=\"email\" data-rule-equalto=\"#strEmail\" required=\"required\">\n</div>\n</div>\n\n<div class=\"form-group mrgn-tp-md\">\n<label for=\"lstdescribe\" class=\"required col-md-4 control-label\"><span class=\"field-name\">Comment vous vous d\u00e9criviez?</span> <strong class=\"required\">(obligatoire)</strong></label>\n<div class=\"col-md-8\">\n<select class=\"form-control\" id=\"lstdescribe\" name=\"lstdescribe\" required=\"required\">\n<option label=\"Choisir parmi la liste\"></option>\n<option value=\"Acad\u00e9mie\">Acad\u00e9mie</option>\n<option value=\"Association sectorielle\">Association sectorielle</option>  \n<option value=\"Autres institutions du gouvernement\">Autres institutions du gouvernement</option>\n<option value=\"Consommateur/Grand public\">Consommateur / Grand public</option>\n<option value=\"Groupe de consommateur\">Groupe de consommateur</option>\n<option value=\"Industrie/Secteur commercial\">Industrie / Secteur commercial</option>\n</select>\n</div>\n</div>\t\n\n<div class=\"form-group\">\n<label for=\"strAddress1\" class=\"col-md-4 control-label\"><span class=\"field-name\">Adresse 1 :</span></label>\n<div class=\"col-md-8\">\n<input class=\"form-control\" id=\"strAddress1\" name=\"strAddress1\" type=\"text\">\n</div>\n</div>\n\n<div class=\"form-group\">\n<label for=\"strAddress2\" class=\"col-md-4 control-label\"><span class=\"field-name\">Adresse 2 :</span></label>\n<div class=\"col-md-8\">\n<input class=\"form-control\" id=\"strAddress2\" name=\"strAddress2\" type=\"text\">\n</div>\n</div>\n\n<div class=\"form-group\">\n<label for=\"strCity\" class=\"col-md-4 control-label\"><span class=\"field-name\">Ville :</span></label>\n<div class=\"col-md-8\">\n<input class=\"form-control\" id=\"strCity\" name=\"strCity\" type=\"text\">\n</div>\n</div>\n\n<div class=\"form-group\">\n<label for=\"strProvince\" class=\"col-md-4 control-label\"><span class=\"field-name\">Province :</span></label>\n<div class=\"col-md-8\">\n<input class=\"form-control\" id=\"strProvince\" name=\"strProvince\" type=\"text\">\n</div>\n</div>\n\n<div class=\"form-group\">\n<label for=\"strCountry\" class=\"col-md-4 control-label\"><span class=\"field-name\">Pays : </span></label>\n<div class=\"col-md-8\">\n<input class=\"form-control\" id=\"strCountry\" name=\"strCountry\" type=\"text\">\n</div>\n</div>\n\n<div class=\"form-group\">\n<label for=\"strPostal\" class=\"col-md-4 control-label\"><span class=\"field-name\">Code postal : </span></label>\n<div class=\"col-md-8\">\n<input class=\"form-control\" id=\"strPostal\" name=\"strPostal\" type=\"text\">\n</div>\n</div>\n\n</fieldset>\t\n\n<input value=\"Soumettre votre demande\" id=\"btnSubmit\" name=\"btnSubmit\" class=\"btn btn-primary\" type=\"submit\"> \n<input value=\"Effacez tous les renseignements\" id=\"btnReset\" name=\"btnReset\" class=\"btn btn-default\" type=\"reset\">\n\n</form>\n</div>\n<script src=\"https://ajax.googleapis.com/ajax/libs/jquery/2.1.1/jquery.min.js\"></script>\n<script type=\"text/javascript\">\n$(document).ready (function(){\n\tif($(\"#strPaper\").checked || $(\"#strBraille\").checked)\n\t{\n\t\tPaperBrailleChecked();\n\t}\n});\n\n$(document).on(\"change\", \"#strBraille\", function(){\n\tif($(\"#strBraille\").is(\":checked\"))\n\t{\n\t\tPaperBrailleChecked();\n\t}\n\telse if(!($(\"#strPaper\").is(\":checked\")))\n\t{\n\t\tPaperBrailleUnChecked();\n\t}\n});\n\n$(document).on(\"change\", \"#strPaper\", function(){\n\tif($(\"#strPaper\").is(\":checked\"))\n\t{\n\t\tPaperBrailleChecked();\n\t}\n\telse if(!($(\"#strBraille\").is(\":checked\")))\n\t{\n\t\tPaperBrailleUnChecked();\n\t}\n});\n\nfunction PaperBrailleChecked()\n{\n\t$(\"#strAddress1\").attr(\"required\", \"true\");\n\t$(\"#strCity\").attr(\"required\", \"true\");\n\t$(\"#strProvince\").attr(\"required\", \"true\");\n\t$(\"#strCountry\").attr(\"required\", \"true\");\n\t$(\"#strPostal\").attr(\"required\", \"true\");\n}\n\nfunction PaperBrailleUnChecked()\n{\n\t$(\"#strAddress1\").removeAttr(\"required\");\n\t$(\"#strCity\").removeAttr(\"required\");\n\t$(\"#strProvince\").removeAttr(\"required\");\n\t$(\"#strCountry\").removeAttr(\"required\");\n\t$(\"#strPostal\").removeAttr(\"required\");\n}\n</script>\r\n\r\n<div class=\"row\">\r\n \r\n\t\t\t\r\n\t\t\t\r\n\r\n\t\t\r\n\t\r\n</div>"
    },
    "success": true,
    "chat_wizard": false
}