{
    "dcr_id": "1478624024123",
    "title": {
        "en": "2013-2015 Aluminum in Baking Powders, Baking Mixes, Baked Goods, and Breads",
        "fr": "2013-2015 Aluminium dans la poudre \u00e0 p\u00e2te, les m\u00e9langes \u00e0 p\u00e2te, les produits de boulangerie-p\u00e2tisserie et le pain"
    },
    "html_modified": "5-6-2018",
    "modified": "4-9-2018",
    "issued": "8-11-2016",
    "teamsite_location": {
        "en": "/default/main/inspection/cont-cont/food-aliments/WORKAREA/food-aliments/templatedata/comn-comn/forms-formes/data/chem_testing_report_aluminum_in_baking_powders_baking_mixes_baked_goods_and_breads_1478624024123_eng",
        "fr": "/default/main/inspection/cont-cont/food-aliments/WORKAREA/food-aliments/templatedata/comn-comn/forms-formes/data/chem_testing_report_aluminum_in_baking_powders_baking_mixes_baked_goods_and_breads_1478624024123_fra"
    },
    "parent_ia_id": "1453327843364",
    "ia_id": "1478624064460",
    "parent_node_id": "1453327843364",
    "layout_name": "content page 1 column",
    "breadcrumb": {
        "en": "2013-2015 Aluminum in Baking Powders, Baking Mixes, Baked Goods, and Breads",
        "fr": "2013-2015 Aluminium dans la poudre \u00e0 p\u00e2te, les m\u00e9langes \u00e0 p\u00e2te, les produits de boulangerie-p\u00e2tisserie et le pain"
    },
    "label": {
        "en": "2013-2015 Aluminum in Baking Powders, Baking Mixes, Baked Goods, and Breads",
        "fr": "2013-2015 Aluminium dans la poudre \u00e0 p\u00e2te, les m\u00e9langes \u00e0 p\u00e2te, les produits de boulangerie-p\u00e2tisserie et le pain"
    },
    "templatetype": "content page 1 column",
    "node_id": "1478624064460",
    "managing_branch": "comn",
    "type_name": "forms-formes",
    "dcr_type": "forms-formes",
    "parent_dcr_id": "1453324778043",
    "has_dcr_id": true,
    "lang": "en",
    "could_not_load": 0,
    "refaire": false,
    "interwoven_url": {
        "en": "/food-safety-for-industry/food-chemistry-and-microbiology/food-safety-testing-reports-and-journal-articles/aluminum-in-baking-powders-baking-mixes-baked-good/",
        "fr": "/salubrite-alimentaire-pour-l-industrie/chimie-et-microbiologie-alimentaires/rapports-d-analyse-et-articles-de-revues-sur-la-sa/aluminium-dans-la-poudre-a-pate-les-melanges-a-pat/"
    },
    "meta": {
        "viewport": {
            "en": "width=device-width,initial-scale=1",
            "fr": "width=device-width,initial-scale=1"
        },
        "service": {
            "en": "CFIA-ACIA",
            "fr": "CFIA-ACIA"
        },
        "accessRights": {
            "en": "2",
            "fr": "2"
        },
        "title": {
            "en": "2013-2015 Aluminum in Baking Powders, Baking Mixes, Baked Goods, and Breads",
            "fr": "2013-2015 Aluminium dans la poudre \u00e0 p\u00e2te, les m\u00e9langes \u00e0 p\u00e2te, les produits de boulangerie-p\u00e2tisserie et le pain"
        },
        "description": {
            "en": "Targeted surveys are used by the Canadian Food Inspection Agency (CFIA) to provide support for the prioritization of the Agency's activities to areas of greater concern and scientific evidence to address areas of lesser concern.",
            "fr": "L'Agence canadienne d'inspection des aliments (ACIA) se sert d'\u00e9tudes cibl\u00e9es pour \u00e9tablir ses priorit\u00e9s en mati\u00e8re d'activit\u00e9s et d'identifier les domaines qui suscitent les plus grandes pr\u00e9occupations; les \u00e9tudes cibl\u00e9es fournissent en outre des preuves scientifiques permettant de r\u00e9soudre des questions moins pr\u00e9occupantes."
        },
        "keywords": {
            "en": "food, food safety, food safety requirements, sampling, testing, food safety risks, Aluminum, Baking Powders, Baking Mixes, Baked Goods, Breads",
            "fr": "aliments, salubrit&#233; des aliments, exigences f&#233;d&#233;rales en mati&#232;re de salubrit&#233; des aliments, &#233;chantillonnage, analyse, risques pour la salubrit&#233; des aliments, Aluminium, poudre \u00e0 p\u00e2te, m\u00e9langes \u00e0 p\u00e2te, produits de boulangerie-p\u00e2tisserie"
        },
        "dcterms.subject": {
            "en": "food,food inspection,agri-food products,regulation,food safety,safety,testing",
            "fr": "aliment,inspection des aliments,produit agro-alimentaire,r\u00e9glementation,salubrit\u00e9 des aliments,s\u00e9curit\u00e9,test"
        },
        "creator": {
            "en": "Government of Canada,Canadian Food Inspection Agency",
            "fr": "Gouvernement du Canada,Agence canadienne d'inspection des aliments"
        },
        "language": {
            "en": "eng",
            "fr": "fra"
        },
        "issued": {
            "en": "2018-06-05",
            "fr": "2018-06-05"
        },
        "modified": {
            "en": "2018-09-04",
            "fr": "2018-09-04"
        },
        "type": {
            "en": "reference material",
            "fr": "mat\u00e9riel de r\u00e9f\u00e9rence"
        },
        "audience": {
            "en": "business,government,general public",
            "fr": "entreprises,gouvernement,grand public"
        },
        "name": {
            "en": "Government of Canada",
            "fr": "Gouvernement du Canada"
        },
        "areaServed": {
            "en": "Canada",
            "fr": "Canada"
        }
    },
    "h1": {
        "en": "2013-2015 Aluminum in Baking Powders, Baking Mixes, Baked Goods, and Breads",
        "fr": "2013-2015 Aluminium dans la poudre \u00e0 p\u00e2te, les m\u00e9langes \u00e0 p\u00e2te, les produits de boulangerie-p\u00e2tisserie et le pain"
    },
    "js": {
        "en": "<script>\n    document.frmPublication.strTitle.value = document.getElementsByTagName(\"title\")[0].innerHTML;\n    document.frmPublication.strUrl.value = document.URL;\n</script>/* --------------------- MORE JAVASCRIPT ------------------- */<script>\n$(document).ready (function(){\n\tif($(\"#strPaper\").checked || $(\"#strBraille\").checked)\n\t{\n\t\tPaperBrailleChecked();\n\t}\n});\n\n$(document).on(\"change\", \"#strBraille\", function(){\n\tif($(\"#strBraille\").is(\":checked\"))\n\t{\n\t\tPaperBrailleChecked();\n\t}\n\telse if(!($(\"#strPaper\").is(\":checked\")))\n\t{\n\t\tPaperBrailleUnChecked();\n\t}\n});\n\n$(document).on(\"change\", \"#strPaper\", function(){\n\tif($(\"#strPaper\").is(\":checked\"))\n\t{\n\t\tPaperBrailleChecked();\n\t}\n\telse if(!($(\"#strBraille\").is(\":checked\")))\n\t{\n\t\tPaperBrailleUnChecked();\n\t}\n});\n\nfunction PaperBrailleChecked()\n{\n\t$(\"#strAddress1\").attr(\"required\", \"true\");\n\t$(\"#strCity\").attr(\"required\", \"true\");\n\t$(\"#strProvince\").attr(\"required\", \"true\");\n\t$(\"#strCountry\").attr(\"required\", \"true\");\n\t$(\"#strPostal\").attr(\"required\", \"true\");\n}\n\nfunction PaperBrailleUnChecked()\n{\n\t$(\"#strAddress1\").removeAttr(\"required\");\n\t$(\"#strCity\").removeAttr(\"required\");\n\t$(\"#strProvince\").removeAttr(\"required\");\n\t$(\"#strCountry\").removeAttr(\"required\");\n\t$(\"#strPostal\").removeAttr(\"required\");\n}\n</script>",
        "fr": "<script>\n    document.frmPublication.strTitle.value = document.getElementsByTagName(\"title\")[0].innerHTML;\n    document.frmPublication.strUrl.value = document.URL;\n</script>/* --------------------- MORE JAVASCRIPT ------------------- */<script>\n$(document).ready (function(){\n\tif($(\"#strPaper\").checked || $(\"#strBraille\").checked)\n\t{\n\t\tPaperBrailleChecked();\n\t}\n});\n\n$(document).on(\"change\", \"#strBraille\", function(){\n\tif($(\"#strBraille\").is(\":checked\"))\n\t{\n\t\tPaperBrailleChecked();\n\t}\n\telse if(!($(\"#strPaper\").is(\":checked\")))\n\t{\n\t\tPaperBrailleUnChecked();\n\t}\n});\n\n$(document).on(\"change\", \"#strPaper\", function(){\n\tif($(\"#strPaper\").is(\":checked\"))\n\t{\n\t\tPaperBrailleChecked();\n\t}\n\telse if(!($(\"#strBraille\").is(\":checked\")))\n\t{\n\t\tPaperBrailleUnChecked();\n\t}\n});\n\nfunction PaperBrailleChecked()\n{\n\t$(\"#strAddress1\").attr(\"required\", \"true\");\n\t$(\"#strCity\").attr(\"required\", \"true\");\n\t$(\"#strProvince\").attr(\"required\", \"true\");\n\t$(\"#strCountry\").attr(\"required\", \"true\");\n\t$(\"#strPostal\").attr(\"required\", \"true\");\n}\n\nfunction PaperBrailleUnChecked()\n{\n\t$(\"#strAddress1\").removeAttr(\"required\");\n\t$(\"#strCity\").removeAttr(\"required\");\n\t$(\"#strProvince\").removeAttr(\"required\");\n\t$(\"#strCountry\").removeAttr(\"required\");\n\t$(\"#strPostal\").removeAttr(\"required\");\n}\n</script>"
    },
    "mode_html": "no_editor_full",
    "body": {
        "en": "        \r\n        \n<h2>Summary</h2>\n<p>Targeted surveys are used by the Canadian Food Inspection Agency (CFIA) to provide support for the prioritization of the Agency's activities to areas of greater concern and scientific evidence to address areas of lesser concern. Originally started under the Food Safety Action Plan (FSAP), targeted surveys have been incorporated into the <abbr title=\"Canadian Food Inspection Agency\">CFIA</abbr>'s regular surveillance activities as a valuable tool for generating essential information on certain hazards in foods, identifying/characterizing new and emerging hazards, informing trend analysis, prompting/refining human health risk assessments, assessing compliance with Canadian regulations, highlighting potential contamination issues, and promoting compliance.</p>\n<p>The main objectives of this targeted survey were to:</p>\n<ul>\n<li>generate baseline surveillance data on the levels of aluminum in selected domestic and imported baked goods, baking mixes, baking powders and breads available on the Canadian retail market, and </li>\n<li>compare the prevalence and levels of aluminum in foods targeted in this survey to Health Canada's Total Diet Study and to scientific literature, where feasible.</li>\n</ul>\n<p>Aluminum occurs naturally in the environment and is the most abundant metallic element in the Earth's crust. The main route of aluminum exposure for humans is from its use in food additives as aluminum-containing food additives. For example sodium aluminum sulphate and potassium aluminum sulphate are each permitted for use as pH adjusters in baking powder and as carriers of benzoyl peroxide which can be used as a bleaching agent in flour production. Other aluminum compounds may be used as emulsifying agents, firming agents, anti-caking agents, and colouring agents.</p>\n<p>There are currently no Canadian regulatory limits for aluminum in the commodities targeted with this survey although there are conditions of use set out in Health Canada's Lists of Permitted Food Additives for aluminum and aluminum-containing food additives that may be used in baking powder, flour, and whole wheat flour.</p>\n<p>The 2013-2015 <abbr title=\"Canadian Food Inspection Agency\">CFIA</abbr> Aluminum survey targeted domestic and imported baking powders, baking mixes, baked goods, and breads. A total of 940 samples were collected from retail stores in 6 Canadian cities between May 2013 and March 2015. The samples collected included 386 baking mixes, 256 breads, 203 baked goods and 95 baking powders. As the samples were picked up at retail, there is no information readily available on the conditions (<abbr title=\"for example\">e.g.</abbr> temperature, duration) during processing or storage. It is not possible to definitively determine the causes of differences in aluminum levels between product types or within a product type.</p>\n<p>Aluminum was detected in 99% of the survey samples. The 934 positive samples had aluminum levels ranging from 0.190 parts per million (ppm) to 34943 <abbr title=\"parts per million\">ppm</abbr>. All foods included in the survey are permitted to contain certain aluminum-containing food additives in accordance with Health Canada's Lists of Permitted Food Additives<sup id=\"fn1-rf\"><a class=\"fn-lnk\" href=\"#fn1\"><span class=\"wb-inv\">Footnote\u00a0</span>1</a></sup>. In addition, aluminum occurs naturally in the environment and is expected to be present at low levels in foods. The method of analysis report total aluminum levels but cannot be used to determine the source of the aluminum.</p>\n<p>The prevalence and levels of aluminum were comparable with those reported in the scientific literature as well as Health Canada's Total Diet Study.</p>\n<p>All aluminum levels were assessed by Health Canada's Bureau of Chemical Safety (BCS). The <abbr title=\"Bureau of Chemical Safety\">BCS</abbr> concluded that the levels detected in this survey were not expected to pose a human health concern. No product recalls were warranted given the lack of a human health concern.</p>\n<aside class=\"wb-fnote\" role=\"note\"> \n<h2 id=\"fn\">Footnotes</h2> \n<dl>\n<dt>Footnote 1</dt>\n<dd id=\"fn1\">\n<p>Health Canada, 2013. <a href=\"https://www.canada.ca/en/health-canada/services/food-nutrition/food-safety/food-additives/lists-permitted.html\">List of Permitted Food Additives</a> [online]. Accessed May 7, 2015. https://www.canada.ca/en/health-canada/services/food-nutrition/food-safety/food-additives/lists-permitted.html</p>\n<p class=\"fn-rtn\"><a href=\"#fn1-rf\"><span class=\"wb-inv\">Return to footnote\u00a0</span>1<span class=\"wb-inv\">\u00a0referrer</span></a></p> \n</dd>\n</dl>\n</aside>\r\n<style>\n/* required style */\n    .keyValue{\n\tdisplay: none !important;\n        visibility: hidden !important;\n</style>\n<h2>Request of Complete Report</h2>\n<p>The complete text of this report is available upon request.</p>\n\n<div class=\"wb-frmvld\">\n\n<form class=\"form-horizontal\" role=\"form\" method=\"post\" action=\"/active/netapp/comment/publicationposte.aspx#wb-cont\" name=\"frmPublication\">\n<input id=\"emailad0\" name=\"to\" class=\"hidden\" type=\"hidden\" aria-hidden=\"true\" value=\"a9FbBHC03U9C9cO4KYP44PPtyBLhOGFthgSv6Xfgtkk5a9KW6ULFfaB93QuOKgVikf36cTXOBnXziJ2umQDV/dvqLzE3+SXvoGw6FgOryCU=\">\n<input name=\"strLang\" type=\"hidden\" value=\"English\">\n<input name=\"strSubject\" type=\"hidden\" value=\"Chemical Residues / Microbiology Report Request\">\n<input name=\"strTitle\" type=\"hidden\" value=\"title\">\n<input name=\"strUrl\" type=\"hidden\" value=\"url\">\n<script type=\"text/javascript\">\n    document.frmPublication.strTitle.value = document.getElementsByTagName(\"title\")[0].innerHTML;\n    document.frmPublication.strUrl.value = document.URL;\n</script>\n        \n<fieldset class=\"mrgn-tp-md mrgn-bttm-lg\">\t\t\n\n<legend class=\"field-name required\"><span class=\"field-name\">The format in which you would like to receive the report</span> <strong class=\"required\">(required)</strong></legend>\n\n<div class=\"checkbox\">\n<label for=\"strPdf\"><input type=\"checkbox\" name=\"formatsent\" id=\"strPdf\" value=\"pdf\" required=\"required\">PDF (Portable Document Format) electronic file sent to you by email</label>\n</div>\n\n<div class=\"checkbox\">\n<label for=\"strText\"><input type=\"checkbox\" name=\"formatsent\" id=\"strText\" value=\"text\">RTF (Rich Text Format) electronic file sent to you by email</label>\n</div>\n\n<div class=\"checkbox\">\n<label for=\"strBraille\"><input type=\"checkbox\" name=\"formatsent\" id=\"strBraille\" value=\"braille\">Braille copy sent to you by mail</label>\n</div>\n\n<div class=\"checkbox\">\n<label for=\"strPaper\"><input type=\"checkbox\" name=\"formatsent\" id=\"strPaper\" value=\"paper\">Paper copy sent to you by mail</label>\n</div>\n\n</fieldset>\t\n\n<fieldset class=\"mrgn-tp-md mrgn-bttm-lg\">\t\t\n\n<legend class=\"field-name\">Your contact information</legend>\n\n<label class=\"keyValue\" for=\"name\"></label>\n<input class=\"keyValue\" autocomplete=\"off\" type=\"text\" id=\"name\" name=\"name\">\n<label class=\"keyValue\" for=\"email\"></label>\n<input class=\"keyValue\" autocomplete=\"off\" type=\"email\" id=\"email\" name=\"email\"> \n\n<div class=\"form-group\">\n<label for=\"strFirstName\" class=\"required col-md-4 control-label\"><span class=\"field-name\">First name:</span> <strong class=\"required\">(required)</strong></label>\n<div class=\"col-md-8\">\n<input class=\"form-control\" id=\"strFirstName\" name=\"strFirstName\" type=\"text\" required=\"required\" pattern=\".{2,}\" data-rule-minlength=\"2\">\n</div>\n</div>\n            \n<div class=\"form-group\">\n<label for=\"strLastName\" class=\"required col-md-4 control-label\"><span class=\"field-name\">Last name:</span> <strong class=\"required\">(required)</strong></label>\n<div class=\"col-md-8\">\n<input class=\"form-control\" id=\"strLastName\" name=\"strLastName\" type=\"text\" required=\"required\" pattern=\".{2,}\" data-rule-minlength=\"2\">\n</div>\n</div>\n\n<div class=\"form-group\">\n<label for=\"strEmail\" class=\"required col-md-4 control-label\"><span class=\"field-name\">Email address:</span>  <strong class=\"required\">(required)</strong></label>\n<div class=\"col-md-8\">\n<input class=\"form-control\" id=\"strEmail\" name=\"strEmail\" type=\"email\" required=\"required\">\n</div>\n</div>\n\n<div class=\"form-group\">\n<label for=\"strConfirmEmail\" class=\"required col-md-4 control-label\"><span class=\"field-name\">Confirm email address:</span>  <strong class=\"required\">(required)</strong></label>\n<div class=\"col-md-8\">\n<input class=\"form-control\" id=\"strConfirmEmail\" name=\"strConfirmEmail\" type=\"email\" data-rule-equalto=\"#strEmail\" required=\"required\">\n</div>\n</div>\n\n<div class=\"form-group mrgn-tp-md\">\n<label for=\"lstdescribe\" class=\"required col-md-4 control-label\"><span class=\"field-name\">How would you describe yourself?</span> <strong class=\"required\">(required)</strong></label>\n<div class=\"col-md-8\">\n<select class=\"form-control\" id=\"lstdescribe\" name=\"lstdescribe\" required=\"required\">\n<option label=\"Select from this list\"></option>\n<option value=\"Academia\">Academia</option>\n<option value=\"Consumer Association\">Consumer Association</option>\n<option value=\"Consumer/General Public\">Consumer / General Public</option>\n<option value=\"Industry Association\">Industry Association</option>\n<option value=\"Industry/Commercial Sector\">Industry / Commercial Sector</option>\n<option value=\"Other Government Departments\">Other Government Departments</option>\t\t\t\n</select>\n</div>\n</div>\t\n\n<div class=\"form-group\">\n<label for=\"strAddress1\" class=\"col-md-4 control-label\"><span class=\"field-name\">Address 1:</span></label>\n<div class=\"col-md-8\">\n<input class=\"form-control\" id=\"strAddress1\" name=\"strAddress1\" type=\"text\">\n</div>\n</div>\n\n<div class=\"form-group\">\n<label for=\"strAddress2\" class=\"col-md-4 control-label\"><span class=\"field-name\">Address 2:</span></label>\n<div class=\"col-md-8\">\n<input class=\"form-control\" id=\"strAddress2\" name=\"strAddress2\" type=\"text\">\n</div>\n</div>\n\n<div class=\"form-group\">\n<label for=\"strCity\" class=\"col-md-4 control-label\"><span class=\"field-name\">City:</span></label>\n<div class=\"col-md-8\">\n<input class=\"form-control\" id=\"strCity\" name=\"strCity\" type=\"text\">\n</div>\n</div>\n\n<div class=\"form-group\">\n<label for=\"strProvince\" class=\"col-md-4 control-label\"><span class=\"field-name\">Province:</span></label>\n<div class=\"col-md-8\">\n<input class=\"form-control\" id=\"strProvince\" name=\"strProvince\" type=\"text\">\n</div>\n</div>\n\n<div class=\"form-group\">\n<label for=\"strCountry\" class=\"col-md-4 control-label\"><span class=\"field-name\">Country:</span></label>\n<div class=\"col-md-8\">\n<input class=\"form-control\" id=\"strCountry\" name=\"strCountry\" type=\"text\">\n</div>\n</div>\n\n<div class=\"form-group\">\n<label for=\"strPostal\" class=\"col-md-4 control-label\"><span class=\"field-name\">Postal Code:</span></label>\n<div class=\"col-md-8\">\n<input class=\"form-control\" id=\"strPostal\" name=\"strPostal\" type=\"text\">\n</div>\n</div>\n\n</fieldset>\t\n\n<input value=\"Submit Your Request\" id=\"btnSubmit\" name=\"btnSubmit\" class=\"btn btn-primary\" type=\"submit\"> \n<input value=\"Clear All Information\" id=\"btnReset\" name=\"btnReset\" class=\"btn btn-default\" type=\"reset\">\n\n</form>\n</div>\n<script src=\"https://ajax.googleapis.com/ajax/libs/jquery/2.1.1/jquery.min.js\"></script>\n<script type=\"text/javascript\">\n$(document).ready (function(){\n\tif($(\"#strPaper\").checked || $(\"#strBraille\").checked)\n\t{\n\t\tPaperBrailleChecked();\n\t}\n});\n\n$(document).on(\"change\", \"#strBraille\", function(){\n\tif($(\"#strBraille\").is(\":checked\"))\n\t{\n\t\tPaperBrailleChecked();\n\t}\n\telse if(!($(\"#strPaper\").is(\":checked\")))\n\t{\n\t\tPaperBrailleUnChecked();\n\t}\n});\n\n$(document).on(\"change\", \"#strPaper\", function(){\n\tif($(\"#strPaper\").is(\":checked\"))\n\t{\n\t\tPaperBrailleChecked();\n\t}\n\telse if(!($(\"#strBraille\").is(\":checked\")))\n\t{\n\t\tPaperBrailleUnChecked();\n\t}\n});\n\nfunction PaperBrailleChecked()\n{\n\t$(\"#strAddress1\").attr(\"required\", \"true\");\n\t$(\"#strCity\").attr(\"required\", \"true\");\n\t$(\"#strProvince\").attr(\"required\", \"true\");\n\t$(\"#strCountry\").attr(\"required\", \"true\");\n\t$(\"#strPostal\").attr(\"required\", \"true\");\n}\n\nfunction PaperBrailleUnChecked()\n{\n\t$(\"#strAddress1\").removeAttr(\"required\");\n\t$(\"#strCity\").removeAttr(\"required\");\n\t$(\"#strProvince\").removeAttr(\"required\");\n\t$(\"#strCountry\").removeAttr(\"required\");\n\t$(\"#strPostal\").removeAttr(\"required\");\n}\n</script>\r\n\r\n\r\n\r\n<div class=\"row\">\r\n \r\n\t\r\n\t\t\t\r\n\r\n<div class=\"col-xm-12 pagedetails container\">\r\n\t\t\t\t\r\n\r\n</div>\r\n\t\r\n</div>",
        "fr": "\r\n        \r\n        \n<h2>R\u00e9sum\u00e9</h2>\n<p>L'Agence canadienne d'inspection des aliments (ACIA) se sert d'\u00e9tudes cibl\u00e9es pour \u00e9tablir ses priorit\u00e9s en mati\u00e8re d'activit\u00e9s et d'identifier les domaines qui suscitent les plus grandes pr\u00e9occupations; les \u00e9tudes cibl\u00e9es fournissent en outre des preuves scientifiques permettant de r\u00e9soudre des questions moins pr\u00e9occupantes. Ces enqu\u00eates cibl\u00e9es, men\u00e9es \u00e0 l'origine dans le cadre du Plan d'action pour assurer la s\u00e9curit\u00e9 des produits alimentaires (PAASPA), font partie des activit\u00e9s de surveillance r\u00e9guli\u00e8res de l'<abbr title=\"Agence canadienne d'inspection des aliments\">ACIA</abbr> et constituent un outil pr\u00e9cieux gr\u00e2ce auquel il est possible de recueillir des donn\u00e9es essentielles sur certains risques d'origine alimentaire, d'identifier / de caract\u00e9riser les risques nouveaux et \u00e9mergents, de guider l'analyse des tendances, de susciter / de raffiner les \u00e9valuations du risque sur la sant\u00e9 humaine, d'\u00e9valuer la conformit\u00e9 aux r\u00e8glements canadiens, de mettre en lumi\u00e8re des probl\u00e8mes potentiels de contamination et de promouvoir la conformit\u00e9.</p>\n<p>Les principaux objectifs de la pr\u00e9sente \u00e9tude cibl\u00e9e \u00e9taient les suivants\u00a0:</p>\n<ul>\n<li>produire des donn\u00e9es de surveillance de base sur les concentrations d'aluminium dans les produits de boulangerie-p\u00e2tisserie, m\u00e9langes \u00e0 p\u00e2te, poudres \u00e0 p\u00e2te et pains s\u00e9lectionn\u00e9s, produits au Canada et import\u00e9s, vendus sur le march\u00e9 de d\u00e9tail canadien;</li>\n<li>comparer la pr\u00e9valence et les concentrations d'aluminium dans les aliments cibl\u00e9s par la pr\u00e9sente \u00e9tude aux donn\u00e9es de l'\u00c9tude canadienne sur l'alimentation totale (ECAT) de Sant\u00e9 Canada (SC) et de la litt\u00e9rature scientifique, lorsque c'\u00e9tait possible.</li>\n</ul>\n<p>L'aluminium est naturellement pr\u00e9sent dans l'environnement et il est l'\u00e9l\u00e9ment m\u00e9tallique le plus abondant dans l'\u00e9corce terrestre. La principale voie d'exposition \u00e0 l'aluminium, pour les humains, est celle des additifs alimentaires contenant de l'aluminium. Par exemple, l'utilisation de sulfate double de sodium et d'aluminium, et de sulfate double de potassium et d'aluminium est permise pour corriger l'acidit\u00e9 dans la poudre \u00e0 p\u00e2te et comme v\u00e9hicule du peroxyde de benzoyle, qui peut \u00eatre utilis\u00e9 comme agent de blanchiment dans la production de la farine. D'autres compos\u00e9s d'aluminium peuvent servir d'\u00e9mulsifiant, de raffermissant, d'antiagglom\u00e9rant et de colorant.</p>\n<p>Il n'existe actuellement au Canada aucune limite au Canada r\u00e9gissant les concentrations d'aluminium dans les denr\u00e9es cibl\u00e9es par la pr\u00e9sente \u00e9tude, bien que des conditions d'utilisation soient \u00e9tablies dans les Listes des additifs alimentaires autoris\u00e9s de Sant\u00e9 Canada pour ce qui est de l'aluminium et des additifs alimentaires contenant de l'aluminium pouvant \u00eatre utilis\u00e9s dans la poudre \u00e0 p\u00e2te, la farine et la farine de bl\u00e9 entier.</p>\n<p>L'\u00e9tude sur l'aluminium de 2013-2015 de l'<abbr title=\"Agence canadienne d'inspection des aliments\">ACIA</abbr> ciblait la poudre \u00e0 p\u00e2te, les m\u00e9langes \u00e0 p\u00e2te, les produits de boulangerie-p\u00e2tisserie et le pain, d'origine canadienne et import\u00e9s. Au total, 940 \u00e9chantillons ont \u00e9t\u00e9 recueillis dans les magasins de d\u00e9tail de six villes canadiennes entre mai 2013 et mars 2015. Les \u00e9chantillons pr\u00e9lev\u00e9s comprenaient 386 \u00e9chantillons de m\u00e9lange \u00e0 p\u00e2te, 256 \u00e9chantillons de pain, 203 \u00e9chantillons de produits de boulangerie-p\u00e2tisserie et 95 \u00e9chantillons de poudre \u00e0 p\u00e2te. Comme ces \u00e9chantillons avaient \u00e9t\u00e9 pr\u00e9lev\u00e9s dans des commerces de d\u00e9tail, les renseignements sur leurs conditions de transformation ou d'entreposage (<abbr title=\"par exemple\">p. ex.</abbr> temp\u00e9rature, dur\u00e9e) ne sont pas disponibles. Il n'est pas possible d'expliquer dans l'absolu les \u00e9carts de concentration d'aluminium entre les diff\u00e9rents types de produits ou entre diff\u00e9rents produits d'un m\u00eame type.</p>\n<p>La pr\u00e9sence d'aluminium a \u00e9t\u00e9 d\u00e9cel\u00e9e dans 99\u00a0% des \u00e9chantillons analys\u00e9s pour l'\u00e9tude. Les 934 \u00e9chantillons positifs avaient des concentrations d'aluminium allant de 0,190 partie par million (ppm) \u00e0 34943 <abbr title=\"partie par million\">ppm</abbr>. Pour tous les aliments inclus dans l'\u00e9tude, certains additifs alimentaires contenant de l'aluminium sont autoris\u00e9s, conform\u00e9ment aux Listes des additifs alimentaires autoris\u00e9s de Sant\u00e9 Canada<sup id=\"fn1-rf\"><a class=\"fn-lnk\" href=\"#fn1\"><span class=\"wb-inv\">Note de bas de page\u00a0</span>1</a></sup>. En outre, l'aluminium est pr\u00e9sent naturellement dans l'environnement et il est pr\u00e9vu que les aliments en contiennent de faibles quantit\u00e9s. La m\u00e9thode d'analyse nous indique les concentrations d'aluminium totales, mais elle ne peut servir \u00e0 d\u00e9terminer la source de cet aluminium.</p>\n<p>La pr\u00e9valence et les concentrations d'aluminium \u00e9taient semblables \u00e0 celles rapport\u00e9es dans la litt\u00e9rature scientifique, ainsi que dans l'\u00c9tude canadienne sur l'alimentation totale de Sant\u00e9 Canada.</p>\n<p>Toutes les concentrations d'aluminium ont \u00e9t\u00e9 \u00e9valu\u00e9es par le Bureau d'innocuit\u00e9 des produits chimiques (BIPC) de Sant\u00e9 Canada. Le <abbr title=\"Bureau d'innocuit\u00e9 des produits chimiques\">BIPC</abbr> a conclu qu'il ne s'attendait pas \u00e0 ce que les concentrations d\u00e9tect\u00e9es dans la pr\u00e9sente \u00e9tude pr\u00e9sentent une pr\u00e9occupation pour la sant\u00e9 humaine. Aucun rappel d'aliments n'a \u00e9t\u00e9 justifi\u00e9, compte tenu de l'absence de pr\u00e9occupation pour la sant\u00e9 humaine.</p>\n\n<aside class=\"wb-fnote\" role=\"note\"> \n<h2 id=\"fn\">Notes de bas de page</h2> \n<dl>\n<dt>Note de bas de page 1</dt>\n<dd id=\"fn1\">\n<p>Sant\u00e9 Canada, 2013. <a href=\"https://www.canada.ca/fr/sante-canada/services/aliments-nutrition/salubrite-aliments/additifs-alimentaires/listes-autorises.html\">Listes des additifs alimentaires autoris\u00e9s</a> [en ligne]. Consult\u00e9 le 7 mai 2015. https://www.canada.ca/fr/sante-canada/services/aliments-nutrition/salubrite-aliments/additifs-alimentaires/listes-autorises.html</p>\n<p class=\"fn-rtn\"><a href=\"#fn1-rf\"><span class=\"wb-inv\">Retour \u00e0 la r\u00e9f\u00e9rence de la note de bas de page\u00a0</span>1</a></p> \n</dd>\n</dl>\n</aside>\r\n<style>\n/* required style */\n    .keyValue{\n\tdisplay: none !important;\n        visibility: hidden !important;\n</style>\n<h2>Demande de rapport complet</h2>\n<p>La version int\u00e9grale du pr\u00e9sent rapport est disponible sur demande.</p>\n\n<div class=\"wb-frmvld\">\n\n<form class=\"form-horizontal\" role=\"form\" method=\"post\" action=\"/active/netapp/comment/publicationposte.aspx#wb-cont\" name=\"frmPublication\">\n\n<input id=\"emailad0\" name=\"to\" class=\"hidden\" type=\"hidden\" aria-hidden=\"true\" value=\"B1ZcdtUgaLmPAqcvyCUaKd+XroYKTsBWKs/XvDwPhAT0k5WrzCaFZcN3KOi+oms6nNvuTwnFLc8UAAG0tcb1z9AcO8+GSEHV9YnCG2nfVTQ=\">\n<input name=\"strLang\" type=\"hidden\" value=\"Francais\">\n<input name=\"strSubject\" type=\"hidden\" value=\"Demande de rapport de r\u00e9sidus chimiques / microbiologie\">\n<input name=\"strTitle\" type=\"hidden\" value=\"title\">\n<input name=\"strUrl\" type=\"hidden\" value=\"url\">\n<script type=\"text/javascript\">\n    document.frmPublication.strTitle.value = document.getElementsByTagName(\"title\")[0].innerHTML;\n    document.frmPublication.strUrl.value = document.URL;\n</script>\n        \n<fieldset class=\"mrgn-tp-md mrgn-bttm-lg\">\t\t\n\n<legend class=\"field-name required\"><span class=\"field-name\">Le format dans lequel vous souhaitez recevoir le rapport</span> <strong class=\"required\">(obligatoire)</strong></legend>\n\n<div class=\"checkbox\">\n<label for=\"strPdf\"><input type=\"checkbox\" name=\"formatsent\" id=\"strPdf\" value=\"pdf\" required=\"required\">Fichier \u00e9lectronique PDF (format de document portable) envoy\u00e9 par courriel</label>\n</div>\n\n<div class=\"checkbox\">\n<label for=\"strText\"><input type=\"checkbox\" name=\"formatsent\" id=\"strText\" value=\"text\">Fichier \u00e9lectronique RTF (<span lang=\"en\">Rich Text Format</span>) envoy\u00e9 par courriel</label>\n</div>\n\n<div class=\"checkbox\">\n<label for=\"strBraille\"><input type=\"checkbox\" name=\"formatsent\" id=\"strBraille\" value=\"braille\">Copie braille envoy\u00e9e par la poste</label>\n</div>\n\n<div class=\"checkbox\">\n<label for=\"strPaper\"><input type=\"checkbox\" name=\"formatsent\" id=\"strPaper\" value=\"paper\">Copie papier envoy\u00e9e par la poste</label>\n</div>\n\n</fieldset>\t\n\n<fieldset class=\"mrgn-tp-md mrgn-bttm-lg\">\t\t\n\n<legend class=\"field-name\">Vos coordonn\u00e9es</legend>\n\n<label class=\"keyValue\" for=\"name\"></label>\n<input class=\"keyValue\" autocomplete=\"off\" type=\"text\" id=\"name\" name=\"name\">\n<label class=\"keyValue\" for=\"email\"></label>\n<input class=\"keyValue\" autocomplete=\"off\" type=\"email\" id=\"email\" name=\"email\"> \n\n<div class=\"form-group\">\n<label for=\"strFirstName\" class=\"required col-md-4 control-label\"><span class=\"field-name\">Pr\u00e9nom :</span> <strong class=\"required\">(obligatoire)</strong></label>\n<div class=\"col-md-8\">\n<input class=\"form-control\" id=\"strFirstName\" name=\"strFirstName\" type=\"text\" required=\"required\" pattern=\".{2,}\" data-rule-minlength=\"2\">\n</div>\n</div>\n            \n<div class=\"form-group\">\n<label for=\"strLastName\" class=\"required col-md-4 control-label\"><span class=\"field-name\">Nom :</span> <strong class=\"required\">(obligatoire)</strong></label>\n<div class=\"col-md-8\">\n<input class=\"form-control\" id=\"strLastName\" name=\"strLastName\" type=\"text\" required=\"required\" pattern=\".{2,}\" data-rule-minlength=\"2\">\n</div>\n</div>\n\n<div class=\"form-group\">\n<label for=\"strEmail\" class=\"required col-md-4 control-label\"><span class=\"field-name\">Adresse de courriel :</span> \u00a0<strong class=\"required\">(obligatoire)</strong></label>\n<div class=\"col-md-8\">\n<input class=\"form-control\" id=\"strEmail\" name=\"strEmail\" type=\"email\" required=\"required\">\n</div>\n</div>\n\n<div class=\"form-group\">\n<label for=\"strConfirmEmail\" class=\"required col-md-4 control-label\"><span class=\"field-name\">Confirmer Adresse de courriel :</span>  <strong class=\"required\">(obligatoire)</strong></label>\n<div class=\"col-md-8\">\n<input class=\"form-control\" id=\"strConfirmEmail\" name=\"strConfirmEmail\" type=\"email\" data-rule-equalto=\"#strEmail\" required=\"required\">\n</div>\n</div>\n\n<div class=\"form-group mrgn-tp-md\">\n<label for=\"lstdescribe\" class=\"required col-md-4 control-label\"><span class=\"field-name\">Comment vous vous d\u00e9criviez?</span> <strong class=\"required\">(obligatoire)</strong></label>\n<div class=\"col-md-8\">\n<select class=\"form-control\" id=\"lstdescribe\" name=\"lstdescribe\" required=\"required\">\n<option label=\"Choisir parmi la liste\"></option>\n<option value=\"Acad\u00e9mie\">Acad\u00e9mie</option>\n<option value=\"Association sectorielle\">Association sectorielle</option>  \n<option value=\"Autres institutions du gouvernement\">Autres institutions du gouvernement</option>\n<option value=\"Consommateur/Grand public\">Consommateur / Grand public</option>\n<option value=\"Groupe de consommateur\">Groupe de consommateur</option>\n<option value=\"Industrie/Secteur commercial\">Industrie / Secteur commercial</option>\n</select>\n</div>\n</div>\t\n\n<div class=\"form-group\">\n<label for=\"strAddress1\" class=\"col-md-4 control-label\"><span class=\"field-name\">Adresse 1 :</span></label>\n<div class=\"col-md-8\">\n<input class=\"form-control\" id=\"strAddress1\" name=\"strAddress1\" type=\"text\">\n</div>\n</div>\n\n<div class=\"form-group\">\n<label for=\"strAddress2\" class=\"col-md-4 control-label\"><span class=\"field-name\">Adresse 2 :</span></label>\n<div class=\"col-md-8\">\n<input class=\"form-control\" id=\"strAddress2\" name=\"strAddress2\" type=\"text\">\n</div>\n</div>\n\n<div class=\"form-group\">\n<label for=\"strCity\" class=\"col-md-4 control-label\"><span class=\"field-name\">Ville :</span></label>\n<div class=\"col-md-8\">\n<input class=\"form-control\" id=\"strCity\" name=\"strCity\" type=\"text\">\n</div>\n</div>\n\n<div class=\"form-group\">\n<label for=\"strProvince\" class=\"col-md-4 control-label\"><span class=\"field-name\">Province :</span></label>\n<div class=\"col-md-8\">\n<input class=\"form-control\" id=\"strProvince\" name=\"strProvince\" type=\"text\">\n</div>\n</div>\n\n<div class=\"form-group\">\n<label for=\"strCountry\" class=\"col-md-4 control-label\"><span class=\"field-name\">Pays : </span></label>\n<div class=\"col-md-8\">\n<input class=\"form-control\" id=\"strCountry\" name=\"strCountry\" type=\"text\">\n</div>\n</div>\n\n<div class=\"form-group\">\n<label for=\"strPostal\" class=\"col-md-4 control-label\"><span class=\"field-name\">Code postal : </span></label>\n<div class=\"col-md-8\">\n<input class=\"form-control\" id=\"strPostal\" name=\"strPostal\" type=\"text\">\n</div>\n</div>\n\n</fieldset>\t\n\n<input value=\"Soumettre votre demande\" id=\"btnSubmit\" name=\"btnSubmit\" class=\"btn btn-primary\" type=\"submit\"> \n<input value=\"Effacez tous les renseignements\" id=\"btnReset\" name=\"btnReset\" class=\"btn btn-default\" type=\"reset\">\n\n</form>\n</div>\n<script src=\"https://ajax.googleapis.com/ajax/libs/jquery/2.1.1/jquery.min.js\"></script>\n<script type=\"text/javascript\">\n$(document).ready (function(){\n\tif($(\"#strPaper\").checked || $(\"#strBraille\").checked)\n\t{\n\t\tPaperBrailleChecked();\n\t}\n});\n\n$(document).on(\"change\", \"#strBraille\", function(){\n\tif($(\"#strBraille\").is(\":checked\"))\n\t{\n\t\tPaperBrailleChecked();\n\t}\n\telse if(!($(\"#strPaper\").is(\":checked\")))\n\t{\n\t\tPaperBrailleUnChecked();\n\t}\n});\n\n$(document).on(\"change\", \"#strPaper\", function(){\n\tif($(\"#strPaper\").is(\":checked\"))\n\t{\n\t\tPaperBrailleChecked();\n\t}\n\telse if(!($(\"#strBraille\").is(\":checked\")))\n\t{\n\t\tPaperBrailleUnChecked();\n\t}\n});\n\nfunction PaperBrailleChecked()\n{\n\t$(\"#strAddress1\").attr(\"required\", \"true\");\n\t$(\"#strCity\").attr(\"required\", \"true\");\n\t$(\"#strProvince\").attr(\"required\", \"true\");\n\t$(\"#strCountry\").attr(\"required\", \"true\");\n\t$(\"#strPostal\").attr(\"required\", \"true\");\n}\n\nfunction PaperBrailleUnChecked()\n{\n\t$(\"#strAddress1\").removeAttr(\"required\");\n\t$(\"#strCity\").removeAttr(\"required\");\n\t$(\"#strProvince\").removeAttr(\"required\");\n\t$(\"#strCountry\").removeAttr(\"required\");\n\t$(\"#strPostal\").removeAttr(\"required\");\n}\n</script>\r\n\r\n<div class=\"row\">\r\n \r\n\t\t\t\r\n\t\t\t\r\n\r\n\t\t\r\n\t\r\n</div>"
    },
    "success": true,
    "chat_wizard": false
}