{
    "dcr_id": "1499783170733",
    "title": {
        "en": "National Microbiological Monitoring Program Annual Report 2013-2014",
        "fr": "Rapport annuel du Programme national de surveillance microbiologique 2013-2014"
    },
    "html_modified": "5-6-2018",
    "modified": "4-9-2018",
    "issued": "11-7-2017",
    "teamsite_location": {
        "en": "/default/main/inspection/cont-cont/food-aliments/WORKAREA/food-aliments/templatedata/comn-comn/forms-formes/data/national_microbiological_monitoring_program_2013-2014_1499783170733_eng",
        "fr": "/default/main/inspection/cont-cont/food-aliments/WORKAREA/food-aliments/templatedata/comn-comn/forms-formes/data/national_microbiological_monitoring_program_2013-2014_1499783170733_fra"
    },
    "parent_ia_id": "1453327843364",
    "ia_id": "1499783171383",
    "parent_node_id": "1453327843364",
    "layout_name": "content page 1 column",
    "breadcrumb": {
        "en": "National Microbiological Monitoring Program Annual Report 2013-2014",
        "fr": "Rapport annuel du Programme national de surveillance microbiologique 2013-2014"
    },
    "label": {
        "en": "National Microbiological Monitoring Program Annual Report 2013-2014",
        "fr": "Rapport annuel du Programme national de surveillance microbiologique 2013-2014"
    },
    "templatetype": "content page 1 column",
    "node_id": "1499783171383",
    "managing_branch": "comn",
    "type_name": "forms-formes",
    "dcr_type": "forms-formes",
    "parent_dcr_id": "1453324778043",
    "has_dcr_id": true,
    "lang": "en",
    "could_not_load": 0,
    "refaire": false,
    "interwoven_url": {
        "en": "/food-safety-for-industry/food-chemistry-and-microbiology/food-safety-testing-reports-and-journal-articles/national-microbiological-monitoring-program/",
        "fr": "/salubrite-alimentaire-pour-l-industrie/chimie-et-microbiologie-alimentaires/rapports-d-analyse-et-articles-de-revues-sur-la-sa/programme-national-de-surveillance-microbiologique/"
    },
    "meta": {
        "viewport": {
            "en": "width=device-width,initial-scale=1",
            "fr": "width=device-width,initial-scale=1"
        },
        "service": {
            "en": "CFIA-ACIA",
            "fr": "CFIA-ACIA"
        },
        "accessRights": {
            "en": "2",
            "fr": "2"
        },
        "title": {
            "en": "National Microbiological Monitoring Program Annual Report 2013-2014",
            "fr": "Rapport annuel du Programme national de surveillance microbiologique 2013-2014"
        },
        "description": {
            "en": "The Government of Canada verifies that food produced and/or sold in Canada is safe and meets federal food safety standards.",
            "fr": "L'Agence canadienne d'inspection des aliments (ACIA) surveille la pr\u00e9sence de r\u00e9sidus chimiques et de contaminants dans l'approvisionnement alimentaire et d\u00e9termine la conformit\u00e9 des produits aux limites maximales de r\u00e9sidus (LMR) et aux concentrations maximales \u00e9tablies par Sant\u00e9 Canada"
        },
        "keywords": {
            "en": "food, food safety, food products, Food and Drugs Act, Food and Drug Regulations, National Microbiological Monitoring Program, NMMP",
            "fr": "aliment, \u00e9chantillon, inspection des aliments, protection du consommateur, r\u00e8glements, salubrit\u00e9 des aliments, s\u00e9curit\u00e9, v\u00e9rification, limites maximales de r\u00e9sidus, LMR, programme national de surveillance des r\u00e9sidus chimiques"
        },
        "dcterms.subject": {
            "en": "agri-food products,bacteria,consumer protection,consumers,government information,government publication,imports,inspection,samples,testing",
            "fr": "produit agro-alimentaire,bact\u00e9rie,protection du consommateur,consommateur,information gouvernementale,publication gouvernementale,importation,inspection,\u00e9chantillon,test"
        },
        "creator": {
            "en": "Government of Canada,Canadian Food Inspection Agency,Food Safety Science Directorate",
            "fr": "Gouvernement du Canada,Agence canadienne d'inspection des aliments,Food Safety Science Directorate"
        },
        "language": {
            "en": "eng",
            "fr": "fra"
        },
        "issued": {
            "en": "2018-06-05",
            "fr": "2018-06-05"
        },
        "modified": {
            "en": "2018-09-04",
            "fr": "2018-09-04"
        },
        "type": {
            "en": "reference material",
            "fr": "mat\u00e9riel de r\u00e9f\u00e9rence"
        },
        "audience": {
            "en": "business,general public,government",
            "fr": "entreprises,grand public,gouvernement"
        },
        "name": {
            "en": "Government of Canada",
            "fr": "Gouvernement du Canada"
        },
        "areaServed": {
            "en": "Canada",
            "fr": "Canada"
        }
    },
    "h1": {
        "en": "National Microbiological Monitoring Program Annual Report 2013-2014",
        "fr": "Rapport annuel du Programme national de surveillance microbiologique 2013-2014"
    },
    "js": {
        "en": "<script>\n    document.frmPublication.strTitle.value = document.getElementsByTagName(\"title\")[0].innerHTML;\n    document.frmPublication.strUrl.value = document.URL;\n</script>/* --------------------- MORE JAVASCRIPT ------------------- */<script>\n$(document).ready (function(){\n\tif($(\"#strPaper\").checked || $(\"#strBraille\").checked)\n\t{\n\t\tPaperBrailleChecked();\n\t}\n});\n\n$(document).on(\"change\", \"#strBraille\", function(){\n\tif($(\"#strBraille\").is(\":checked\"))\n\t{\n\t\tPaperBrailleChecked();\n\t}\n\telse if(!($(\"#strPaper\").is(\":checked\")))\n\t{\n\t\tPaperBrailleUnChecked();\n\t}\n});\n\n$(document).on(\"change\", \"#strPaper\", function(){\n\tif($(\"#strPaper\").is(\":checked\"))\n\t{\n\t\tPaperBrailleChecked();\n\t}\n\telse if(!($(\"#strBraille\").is(\":checked\")))\n\t{\n\t\tPaperBrailleUnChecked();\n\t}\n});\n\nfunction PaperBrailleChecked()\n{\n\t$(\"#strAddress1\").attr(\"required\", \"true\");\n\t$(\"#strCity\").attr(\"required\", \"true\");\n\t$(\"#strProvince\").attr(\"required\", \"true\");\n\t$(\"#strCountry\").attr(\"required\", \"true\");\n\t$(\"#strPostal\").attr(\"required\", \"true\");\n}\n\nfunction PaperBrailleUnChecked()\n{\n\t$(\"#strAddress1\").removeAttr(\"required\");\n\t$(\"#strCity\").removeAttr(\"required\");\n\t$(\"#strProvince\").removeAttr(\"required\");\n\t$(\"#strCountry\").removeAttr(\"required\");\n\t$(\"#strPostal\").removeAttr(\"required\");\n}\n</script>",
        "fr": "<script>\n    document.frmPublication.strTitle.value = document.getElementsByTagName(\"title\")[0].innerHTML;\n    document.frmPublication.strUrl.value = document.URL;\n</script>/* --------------------- MORE JAVASCRIPT ------------------- */<script>\n$(document).ready (function(){\n\tif($(\"#strPaper\").checked || $(\"#strBraille\").checked)\n\t{\n\t\tPaperBrailleChecked();\n\t}\n});\n\n$(document).on(\"change\", \"#strBraille\", function(){\n\tif($(\"#strBraille\").is(\":checked\"))\n\t{\n\t\tPaperBrailleChecked();\n\t}\n\telse if(!($(\"#strPaper\").is(\":checked\")))\n\t{\n\t\tPaperBrailleUnChecked();\n\t}\n});\n\n$(document).on(\"change\", \"#strPaper\", function(){\n\tif($(\"#strPaper\").is(\":checked\"))\n\t{\n\t\tPaperBrailleChecked();\n\t}\n\telse if(!($(\"#strBraille\").is(\":checked\")))\n\t{\n\t\tPaperBrailleUnChecked();\n\t}\n});\n\nfunction PaperBrailleChecked()\n{\n\t$(\"#strAddress1\").attr(\"required\", \"true\");\n\t$(\"#strCity\").attr(\"required\", \"true\");\n\t$(\"#strProvince\").attr(\"required\", \"true\");\n\t$(\"#strCountry\").attr(\"required\", \"true\");\n\t$(\"#strPostal\").attr(\"required\", \"true\");\n}\n\nfunction PaperBrailleUnChecked()\n{\n\t$(\"#strAddress1\").removeAttr(\"required\");\n\t$(\"#strCity\").removeAttr(\"required\");\n\t$(\"#strProvince\").removeAttr(\"required\");\n\t$(\"#strCountry\").removeAttr(\"required\");\n\t$(\"#strPostal\").removeAttr(\"required\");\n}\n</script>"
    },
    "mode_html": "no_editor_full",
    "body": {
        "en": "        \r\n        \n<h2 id=\"ex\">Summary</h2>\n\n<p>The Government of Canada verifies that food produced and/or sold in Canada is safe and meets federal food safety standards. This provides Canadians with confidence in the foods they buy. The Canadian Food Inspection Agency (CFIA) monitors and regulates food products that are produced domestically and moved inter-provincially, or are imported. Within Canada, all food products must comply with the Food and Drugs Act and Regulations, which set out criteria for safe food and clearly prescribe restrictions on the production, importation, sale, composition and content of food.</p>\n\n<p>The National Microbiological Monitoring Program (NMMP) is one of many tools utilized by the <abbr title=\"Canadian Food Inspection Agency\">CFIA</abbr> to meet its objectives. Its monitoring activities focus on specific foods and their related hazards that are most likely to impair the health and safety of Canadians, and are designed to sample and test a broad range of imported and domestic commodities for microbial hazards of concern. The testing carried out under the <abbr title=\"National Microbiological Monitoring Program\">NMMP</abbr> covers red meat and poultry products, shell eggs and egg products, dairy products, fresh fruits and vegetables and processed fruit and vegetable products, as well as environmental testing within the manufacturing environments.</p>\n\n<p>It is generally accepted that, when foods are prepared by the consumers, proper precautions are taken in the home to destroy any bacteria that may be present. However, there are ready-to-eat foods that are not further processed by the consumer as well as raw foods that, if not properly cooked, can lead to illness. Most testing under the <abbr title=\"National Microbiological Monitoring Program\">NMMP</abbr> is done on these types of foods as the risk of foodborne illness from them is anticipated to be greater.</p>\n\n<p>The results of the 2013/14 <abbr title=\"National Microbiological Monitoring Program\">NMMP</abbr> sampling activities demonstrate that the majority of food products available in the Canadian marketplace were safe and compliant with national standards.</p>\n\n<p>During the 2013/14 fiscal year, the overall compliance rate for combined domestic and imported products was 99.3% where domestic products were 99.6% compliant and imported products were 98.4% compliant. These compliance rates were calculated from 13801 tests performed on 5510 domestic and imported products. Specifically, 8982 tests were performed on 3991 domestic products and 4819 tests were performed on 1519 imported products.</p>\n\n<p>Environmental sampling is performed in domestic establishments to verify the operator systems' ability to control the presence of pathogens within the processing environment. The sampling helps the food producer and the <abbr title=\"Canadian Food Inspection Agency\">CFIA</abbr> to identify microbial hazards in the processing environment allowing the food producer to intervene prior to possible product contamination. The results of sampling are also used to verify that food products are produced under sanitary conditions. The food production environment includes not only the surfaces that come into direct contact with the food, such as tools and water that is recirculated during processing but also areas of the production environment that do not come in direct contact with the food like drains and air ducts. Contaminants in these non-food contact areas may be carried to food contact surfaces by various vectors such as humans, dust and water droplets. Thus, in addition to testing food products, wash water samples and surface swabs are taken within the food production environment to monitor the use of sanitary practices. During 2013/14, there were 1986 tests performed on 1895 environmental samples which were assessed as 97.6% compliant.</p>\r\n<style>\n/* required style */\n    .keyValue{\n\tdisplay: none !important;\n        visibility: hidden !important;\n</style>\n<h2>Request of Complete Report</h2>\n<p>The complete text of this report is available upon request.</p>\n\n<div class=\"wb-frmvld\">\n\n<form class=\"form-horizontal\" role=\"form\" method=\"post\" action=\"/active/netapp/comment/publicationposte.aspx#wb-cont\" name=\"frmPublication\">\n<input id=\"emailad0\" name=\"to\" class=\"hidden\" type=\"hidden\" aria-hidden=\"true\" value=\"sIFTDUWkgTwjFCr5DVuQdv1N/pY2AmY9wAKcHOAd0jlHpsJpzwLcJMWCmBVGsDDlsWFC47OOrZavWgsGIh5CyCZSMSVtmCK1Wf/nSRdFHhc=\">\n<input name=\"strLang\" type=\"hidden\" value=\"English\">\n<input name=\"strSubject\" type=\"hidden\" value=\"Chemical Residues / Microbiology Report Request\">\n<input name=\"strTitle\" type=\"hidden\" value=\"title\">\n<input name=\"strUrl\" type=\"hidden\" value=\"url\">\n<script type=\"text/javascript\">\n    document.frmPublication.strTitle.value = document.getElementsByTagName(\"title\")[0].innerHTML;\n    document.frmPublication.strUrl.value = document.URL;\n</script>\n        \n<fieldset class=\"mrgn-tp-md mrgn-bttm-lg\">\t\t\n\n<legend class=\"field-name required\"><span class=\"field-name\">The format in which you would like to receive the report</span> <strong class=\"required\">(required)</strong></legend>\n\n<div class=\"checkbox\">\n<label for=\"strPdf\"><input type=\"checkbox\" name=\"formatsent\" id=\"strPdf\" value=\"pdf\" required=\"required\">PDF (Portable Document Format) electronic file sent to you by email</label>\n</div>\n\n<div class=\"checkbox\">\n<label for=\"strText\"><input type=\"checkbox\" name=\"formatsent\" id=\"strText\" value=\"text\">RTF (Rich Text Format) electronic file sent to you by email</label>\n</div>\n\n<div class=\"checkbox\">\n<label for=\"strBraille\"><input type=\"checkbox\" name=\"formatsent\" id=\"strBraille\" value=\"braille\">Braille copy sent to you by mail</label>\n</div>\n\n<div class=\"checkbox\">\n<label for=\"strPaper\"><input type=\"checkbox\" name=\"formatsent\" id=\"strPaper\" value=\"paper\">Paper copy sent to you by mail</label>\n</div>\n\n</fieldset>\t\n\n<fieldset class=\"mrgn-tp-md mrgn-bttm-lg\">\t\t\n\n<legend class=\"field-name\">Your contact information</legend>\n\n<label class=\"keyValue\" for=\"name\"></label>\n<input class=\"keyValue\" autocomplete=\"off\" type=\"text\" id=\"name\" name=\"name\">\n<label class=\"keyValue\" for=\"email\"></label>\n<input class=\"keyValue\" autocomplete=\"off\" type=\"email\" id=\"email\" name=\"email\"> \n\n<div class=\"form-group\">\n<label for=\"strFirstName\" class=\"required col-md-4 control-label\"><span class=\"field-name\">First name:</span> <strong class=\"required\">(required)</strong></label>\n<div class=\"col-md-8\">\n<input class=\"form-control\" id=\"strFirstName\" name=\"strFirstName\" type=\"text\" required=\"required\" pattern=\".{2,}\" data-rule-minlength=\"2\">\n</div>\n</div>\n            \n<div class=\"form-group\">\n<label for=\"strLastName\" class=\"required col-md-4 control-label\"><span class=\"field-name\">Last name:</span> <strong class=\"required\">(required)</strong></label>\n<div class=\"col-md-8\">\n<input class=\"form-control\" id=\"strLastName\" name=\"strLastName\" type=\"text\" required=\"required\" pattern=\".{2,}\" data-rule-minlength=\"2\">\n</div>\n</div>\n\n<div class=\"form-group\">\n<label for=\"strEmail\" class=\"required col-md-4 control-label\"><span class=\"field-name\">Email address:</span>  <strong class=\"required\">(required)</strong></label>\n<div class=\"col-md-8\">\n<input class=\"form-control\" id=\"strEmail\" name=\"strEmail\" type=\"email\" required=\"required\">\n</div>\n</div>\n\n<div class=\"form-group\">\n<label for=\"strConfirmEmail\" class=\"required col-md-4 control-label\"><span class=\"field-name\">Confirm email address:</span>  <strong class=\"required\">(required)</strong></label>\n<div class=\"col-md-8\">\n<input class=\"form-control\" id=\"strConfirmEmail\" name=\"strConfirmEmail\" type=\"email\" data-rule-equalto=\"#strEmail\" required=\"required\">\n</div>\n</div>\n\n<div class=\"form-group mrgn-tp-md\">\n<label for=\"lstdescribe\" class=\"required col-md-4 control-label\"><span class=\"field-name\">How would you describe yourself?</span> <strong class=\"required\">(required)</strong></label>\n<div class=\"col-md-8\">\n<select class=\"form-control\" id=\"lstdescribe\" name=\"lstdescribe\" required=\"required\">\n<option label=\"Select from this list\"></option>\n<option value=\"Academia\">Academia</option>\n<option value=\"Consumer Association\">Consumer Association</option>\n<option value=\"Consumer/General Public\">Consumer / General Public</option>\n<option value=\"Industry Association\">Industry Association</option>\n<option value=\"Industry/Commercial Sector\">Industry / Commercial Sector</option>\n<option value=\"Other Government Departments\">Other Government Departments</option>\t\t\t\n</select>\n</div>\n</div>\t\n\n<div class=\"form-group\">\n<label for=\"strAddress1\" class=\"col-md-4 control-label\"><span class=\"field-name\">Address 1:</span></label>\n<div class=\"col-md-8\">\n<input class=\"form-control\" id=\"strAddress1\" name=\"strAddress1\" type=\"text\">\n</div>\n</div>\n\n<div class=\"form-group\">\n<label for=\"strAddress2\" class=\"col-md-4 control-label\"><span class=\"field-name\">Address 2:</span></label>\n<div class=\"col-md-8\">\n<input class=\"form-control\" id=\"strAddress2\" name=\"strAddress2\" type=\"text\">\n</div>\n</div>\n\n<div class=\"form-group\">\n<label for=\"strCity\" class=\"col-md-4 control-label\"><span class=\"field-name\">City:</span></label>\n<div class=\"col-md-8\">\n<input class=\"form-control\" id=\"strCity\" name=\"strCity\" type=\"text\">\n</div>\n</div>\n\n<div class=\"form-group\">\n<label for=\"strProvince\" class=\"col-md-4 control-label\"><span class=\"field-name\">Province:</span></label>\n<div class=\"col-md-8\">\n<input class=\"form-control\" id=\"strProvince\" name=\"strProvince\" type=\"text\">\n</div>\n</div>\n\n<div class=\"form-group\">\n<label for=\"strCountry\" class=\"col-md-4 control-label\"><span class=\"field-name\">Country:</span></label>\n<div class=\"col-md-8\">\n<input class=\"form-control\" id=\"strCountry\" name=\"strCountry\" type=\"text\">\n</div>\n</div>\n\n<div class=\"form-group\">\n<label for=\"strPostal\" class=\"col-md-4 control-label\"><span class=\"field-name\">Postal Code:</span></label>\n<div class=\"col-md-8\">\n<input class=\"form-control\" id=\"strPostal\" name=\"strPostal\" type=\"text\">\n</div>\n</div>\n\n</fieldset>\t\n\n<input value=\"Submit Your Request\" id=\"btnSubmit\" name=\"btnSubmit\" class=\"btn btn-primary\" type=\"submit\"> \n<input value=\"Clear All Information\" id=\"btnReset\" name=\"btnReset\" class=\"btn btn-default\" type=\"reset\">\n\n</form>\n</div>\n<script src=\"https://ajax.googleapis.com/ajax/libs/jquery/2.1.1/jquery.min.js\"></script>\n<script type=\"text/javascript\">\n$(document).ready (function(){\n\tif($(\"#strPaper\").checked || $(\"#strBraille\").checked)\n\t{\n\t\tPaperBrailleChecked();\n\t}\n});\n\n$(document).on(\"change\", \"#strBraille\", function(){\n\tif($(\"#strBraille\").is(\":checked\"))\n\t{\n\t\tPaperBrailleChecked();\n\t}\n\telse if(!($(\"#strPaper\").is(\":checked\")))\n\t{\n\t\tPaperBrailleUnChecked();\n\t}\n});\n\n$(document).on(\"change\", \"#strPaper\", function(){\n\tif($(\"#strPaper\").is(\":checked\"))\n\t{\n\t\tPaperBrailleChecked();\n\t}\n\telse if(!($(\"#strBraille\").is(\":checked\")))\n\t{\n\t\tPaperBrailleUnChecked();\n\t}\n});\n\nfunction PaperBrailleChecked()\n{\n\t$(\"#strAddress1\").attr(\"required\", \"true\");\n\t$(\"#strCity\").attr(\"required\", \"true\");\n\t$(\"#strProvince\").attr(\"required\", \"true\");\n\t$(\"#strCountry\").attr(\"required\", \"true\");\n\t$(\"#strPostal\").attr(\"required\", \"true\");\n}\n\nfunction PaperBrailleUnChecked()\n{\n\t$(\"#strAddress1\").removeAttr(\"required\");\n\t$(\"#strCity\").removeAttr(\"required\");\n\t$(\"#strProvince\").removeAttr(\"required\");\n\t$(\"#strCountry\").removeAttr(\"required\");\n\t$(\"#strPostal\").removeAttr(\"required\");\n}\n</script>\r\n\r\n\r\n\r\n<div class=\"row\">\r\n \r\n\t\r\n\t\t\t\r\n\r\n<div class=\"col-xm-12 pagedetails container\">\r\n\t\t\t\t\r\n\r\n</div>\r\n\t\r\n</div>",
        "fr": "\r\n        \r\n        \n<h2 id=\"ex\">R\u00e9sum\u00e9</h2>\n\n<p>Le gouvernement du Canada s'assure que les aliments produits ou vendus au Canada sont salubres et qu'ils respectent les normes f\u00e9d\u00e9rales en mati\u00e8re de salubrit\u00e9 des aliments pour que les Canadiens aient confiance dans les produits qu'ils ach\u00e8tent. L'Agence canadienne d'inspection des aliments (ACIA) surveille et r\u00e9glemente les produits alimentaires qui sont fabriqu\u00e9s au pays et transport\u00e9s entre les provinces, ou import\u00e9s. Au Canada, tous les produits alimentaires doivent \u00eatre conformes \u00e0 la Loi sur les aliments et drogues et \u00e0 son r\u00e8glement d'application, qui \u00e9noncent les crit\u00e8res en mati\u00e8re de salubrit\u00e9 des aliments et pr\u00e9voient certaines restrictions quant \u00e0 la production, \u00e0 l'importation, \u00e0 la vente, \u00e0 la composition et \u00e0 la teneur des aliments.</p>\n\n<p>Le Programme national de surveillance microbiologique (PNSM) est l'un des nombreux outils que l'<abbr title=\"Agence canadienne d'inspection des aliments\">ACIA</abbr> utilise pour atteindre ses objectifs, notamment en concentrant ses activit\u00e9s de surveillance sur certains dangers li\u00e9s aux aliments pouvant nuire \u00e0 la sant\u00e9 et \u00e0 la s\u00e9curit\u00e9 des Canadiens. Ce programme vise \u00e0 \u00e9chantillonner un large \u00e9ventail de produits canadiens et import\u00e9s et \u00e0 les analyser \u00e0 l'\u00e9gard des dangers microbiens pr\u00e9occupants. Les analyses effectu\u00e9es dans le cadre du <abbr title=\"Programme national de surveillance microbiologique\">PNSM</abbr> visent les produits de viande rouge et de volaille, les \u0153ufs en coquille et les ovoproduits, les produits laitiers, les fruits et l\u00e9gumes frais, ainsi que les fruits et l\u00e9gumes transform\u00e9s. Des analyses environnementales sont \u00e9galement r\u00e9alis\u00e9es dans des environnements de fabrication.</p>\n\n<p>Lorsque les consommateurs pr\u00e9parent des aliments, il est g\u00e9n\u00e9ralement admis que la prise de pr\u00e9cautions ad\u00e9quates \u00e0 la maison permettra de d\u00e9truire toute bact\u00e9rie pr\u00e9sente. Toutefois, il existe des produits pr\u00eats \u00e0 manger qui ne sont pas trait\u00e9s ult\u00e9rieurement par le consommateur et aussi des aliments crus qui, s'ils ne sont pas bien cuits, risquent de causer une maladie. La plupart des analyses effectu\u00e9es dans le cadre du <abbr title=\"Programme national de surveillance microbiologique\">PNSM</abbr> visent ces types de produits, car le risque de maladie d'origine alimentaire qui en d\u00e9coule devrait \u00eatre plus important.</p>\n\n<p>Les r\u00e9sultats des activit\u00e9s d'\u00e9chantillonnage men\u00e9es dans le cadre du <abbr title=\"Programme national de surveillance microbiologique\">PNSM</abbr> en 2013-2014 montrent que les produits offerts sur le march\u00e9 canadien sont, pour la plupart, salubres et conformes aux normes nationales.</p>\n\n<p>Au cours de l'exercice 2013-2014, le taux de conformit\u00e9 global observ\u00e9 pour les produits canadiens et les produits import\u00e9s \u00e9tait de 99,3\u00a0%, alors que les r\u00e9sultats indiquent que 99,6\u00a0% des produits canadiens sont conformes et que 98,4\u00a0% des produits import\u00e9s le sont. Ce taux de conformit\u00e9 a \u00e9t\u00e9 \u00e9tabli en fonction des <span class=\"nowrap\">13 801 analyses</span> effectu\u00e9es sur 5510 produits canadiens et produits import\u00e9s. Plus pr\u00e9cis\u00e9ment, 8982 analyses ont \u00e9t\u00e9 r\u00e9alis\u00e9es sur 3991 produits canadiens, et 4819 analyses ont \u00e9t\u00e9 effectu\u00e9es sur 1519 produits import\u00e9s.</p>\n\n<p>Des activit\u00e9s d'\u00e9chantillonnage environnemental sont men\u00e9es dans des \u00e9tablissements canadiens afin de v\u00e9rifier la capacit\u00e9 des syst\u00e8mes d'un exploitant \u00e0 contr\u00f4ler la pr\u00e9sence d'organismes pathog\u00e8nes dans l'environnement de transformation. L'\u00e9chantillonnage aide le fabricant d'aliments et l'<abbr title=\"Agence canadienne d'inspection des aliments\">ACIA</abbr> \u00e0 d\u00e9celer les dangers microbiens dans l'environnement de transformation, ce qui permet au fabricant d'aliments d'intervenir avant une \u00e9ventuelle contamination du produit. Les r\u00e9sultats de l'\u00e9chantillonnage servent \u00e9galement \u00e0 s'assurer que les produits sont fabriqu\u00e9s dans des conditions hygi\u00e9niques. L'environnement de production alimentaire ne d\u00e9signe pas seulement les surfaces qui entrent en contact direct avec les aliments, comme les outils et l'eau recycl\u00e9e pendant la transformation; il d\u00e9signe aussi les surfaces de l'environnement de production qui n'entrent pas en contact direct avec les aliments, comme les drains et les conduits d'air. Les contaminants pr\u00e9sents sur ces surfaces sans contact avec les aliments peuvent se retrouver sur des surfaces en contact les aliments \u00e0 cause de divers vecteurs, comme les humains, la poussi\u00e8re ou les gouttelettes d'eau. Outre l'analyse des produits alimentaires, l'<abbr title=\"Agence canadienne d'inspection des aliments\">ACIA</abbr> pr\u00e9l\u00e8ve des \u00e9chantillons d'eau de lavage et des \u00e9couvillons de surface dans l'environnement de production alimentaire pour contr\u00f4ler l'application des pratiques hygi\u00e9niques. En 2013-2014, 1986 analyses ont \u00e9t\u00e9 r\u00e9alis\u00e9es sur 1895 \u00e9chantillons environnementaux, dont le taux de conformit\u00e9 a \u00e9t\u00e9 \u00e9valu\u00e9 \u00e0 97,6\u00a0%.</p>\r\n<style>\n/* required style */\n    .keyValue{\n\tdisplay: none !important;\n        visibility: hidden !important;\n</style>\n<h2>Demande de rapport complet</h2>\n<p>La version int\u00e9grale du pr\u00e9sent rapport est disponible sur demande.</p>\n\n<div class=\"wb-frmvld\">\n\n<form class=\"form-horizontal\" role=\"form\" method=\"post\" action=\"/active/netapp/comment/publicationposte.aspx#wb-cont\" name=\"frmPublication\">\n\n<input id=\"emailad0\" name=\"to\" class=\"hidden\" type=\"hidden\" aria-hidden=\"true\" value=\"sfM+XV2KsMrXtvLH7zqXBFEoFHKoKeNgCpOOXBQeluaZBKLu57nkjIyp+9o/o2khHQ8UicOG/vClJ/d0QX680KukmG/5AFjHsK6my+XO+HI=\">\n<input name=\"strLang\" type=\"hidden\" value=\"Francais\">\n<input name=\"strSubject\" type=\"hidden\" value=\"Demande de rapport de r\u00e9sidus chimiques / microbiologie\">\n<input name=\"strTitle\" type=\"hidden\" value=\"title\">\n<input name=\"strUrl\" type=\"hidden\" value=\"url\">\n<script type=\"text/javascript\">\n    document.frmPublication.strTitle.value = document.getElementsByTagName(\"title\")[0].innerHTML;\n    document.frmPublication.strUrl.value = document.URL;\n</script>\n        \n<fieldset class=\"mrgn-tp-md mrgn-bttm-lg\">\t\t\n\n<legend class=\"field-name required\"><span class=\"field-name\">Le format dans lequel vous souhaitez recevoir le rapport</span> <strong class=\"required\">(obligatoire)</strong></legend>\n\n<div class=\"checkbox\">\n<label for=\"strPdf\"><input type=\"checkbox\" name=\"formatsent\" id=\"strPdf\" value=\"pdf\" required=\"required\">Fichier \u00e9lectronique PDF (format de document portable) envoy\u00e9 par courriel</label>\n</div>\n\n<div class=\"checkbox\">\n<label for=\"strText\"><input type=\"checkbox\" name=\"formatsent\" id=\"strText\" value=\"text\">Fichier \u00e9lectronique RTF (<span lang=\"en\">Rich Text Format</span>) envoy\u00e9 par courriel</label>\n</div>\n\n<div class=\"checkbox\">\n<label for=\"strBraille\"><input type=\"checkbox\" name=\"formatsent\" id=\"strBraille\" value=\"braille\">Copie braille envoy\u00e9e par la poste</label>\n</div>\n\n<div class=\"checkbox\">\n<label for=\"strPaper\"><input type=\"checkbox\" name=\"formatsent\" id=\"strPaper\" value=\"paper\">Copie papier envoy\u00e9e par la poste</label>\n</div>\n\n</fieldset>\t\n\n<fieldset class=\"mrgn-tp-md mrgn-bttm-lg\">\t\t\n\n<legend class=\"field-name\">Vos coordonn\u00e9es</legend>\n\n<label class=\"keyValue\" for=\"name\"></label>\n<input class=\"keyValue\" autocomplete=\"off\" type=\"text\" id=\"name\" name=\"name\">\n<label class=\"keyValue\" for=\"email\"></label>\n<input class=\"keyValue\" autocomplete=\"off\" type=\"email\" id=\"email\" name=\"email\"> \n\n<div class=\"form-group\">\n<label for=\"strFirstName\" class=\"required col-md-4 control-label\"><span class=\"field-name\">Pr\u00e9nom :</span> <strong class=\"required\">(obligatoire)</strong></label>\n<div class=\"col-md-8\">\n<input class=\"form-control\" id=\"strFirstName\" name=\"strFirstName\" type=\"text\" required=\"required\" pattern=\".{2,}\" data-rule-minlength=\"2\">\n</div>\n</div>\n            \n<div class=\"form-group\">\n<label for=\"strLastName\" class=\"required col-md-4 control-label\"><span class=\"field-name\">Nom :</span> <strong class=\"required\">(obligatoire)</strong></label>\n<div class=\"col-md-8\">\n<input class=\"form-control\" id=\"strLastName\" name=\"strLastName\" type=\"text\" required=\"required\" pattern=\".{2,}\" data-rule-minlength=\"2\">\n</div>\n</div>\n\n<div class=\"form-group\">\n<label for=\"strEmail\" class=\"required col-md-4 control-label\"><span class=\"field-name\">Adresse de courriel :</span> \u00a0<strong class=\"required\">(obligatoire)</strong></label>\n<div class=\"col-md-8\">\n<input class=\"form-control\" id=\"strEmail\" name=\"strEmail\" type=\"email\" required=\"required\">\n</div>\n</div>\n\n<div class=\"form-group\">\n<label for=\"strConfirmEmail\" class=\"required col-md-4 control-label\"><span class=\"field-name\">Confirmer Adresse de courriel :</span>  <strong class=\"required\">(obligatoire)</strong></label>\n<div class=\"col-md-8\">\n<input class=\"form-control\" id=\"strConfirmEmail\" name=\"strConfirmEmail\" type=\"email\" data-rule-equalto=\"#strEmail\" required=\"required\">\n</div>\n</div>\n\n<div class=\"form-group mrgn-tp-md\">\n<label for=\"lstdescribe\" class=\"required col-md-4 control-label\"><span class=\"field-name\">Comment vous vous d\u00e9criviez?</span> <strong class=\"required\">(obligatoire)</strong></label>\n<div class=\"col-md-8\">\n<select class=\"form-control\" id=\"lstdescribe\" name=\"lstdescribe\" required=\"required\">\n<option label=\"Choisir parmi la liste\"></option>\n<option value=\"Acad\u00e9mie\">Acad\u00e9mie</option>\n<option value=\"Association sectorielle\">Association sectorielle</option>  \n<option value=\"Autres institutions du gouvernement\">Autres institutions du gouvernement</option>\n<option value=\"Consommateur/Grand public\">Consommateur / Grand public</option>\n<option value=\"Groupe de consommateur\">Groupe de consommateur</option>\n<option value=\"Industrie/Secteur commercial\">Industrie / Secteur commercial</option>\n</select>\n</div>\n</div>\t\n\n<div class=\"form-group\">\n<label for=\"strAddress1\" class=\"col-md-4 control-label\"><span class=\"field-name\">Adresse 1 :</span></label>\n<div class=\"col-md-8\">\n<input class=\"form-control\" id=\"strAddress1\" name=\"strAddress1\" type=\"text\">\n</div>\n</div>\n\n<div class=\"form-group\">\n<label for=\"strAddress2\" class=\"col-md-4 control-label\"><span class=\"field-name\">Adresse 2 :</span></label>\n<div class=\"col-md-8\">\n<input class=\"form-control\" id=\"strAddress2\" name=\"strAddress2\" type=\"text\">\n</div>\n</div>\n\n<div class=\"form-group\">\n<label for=\"strCity\" class=\"col-md-4 control-label\"><span class=\"field-name\">Ville :</span></label>\n<div class=\"col-md-8\">\n<input class=\"form-control\" id=\"strCity\" name=\"strCity\" type=\"text\">\n</div>\n</div>\n\n<div class=\"form-group\">\n<label for=\"strProvince\" class=\"col-md-4 control-label\"><span class=\"field-name\">Province :</span></label>\n<div class=\"col-md-8\">\n<input class=\"form-control\" id=\"strProvince\" name=\"strProvince\" type=\"text\">\n</div>\n</div>\n\n<div class=\"form-group\">\n<label for=\"strCountry\" class=\"col-md-4 control-label\"><span class=\"field-name\">Pays : </span></label>\n<div class=\"col-md-8\">\n<input class=\"form-control\" id=\"strCountry\" name=\"strCountry\" type=\"text\">\n</div>\n</div>\n\n<div class=\"form-group\">\n<label for=\"strPostal\" class=\"col-md-4 control-label\"><span class=\"field-name\">Code postal : </span></label>\n<div class=\"col-md-8\">\n<input class=\"form-control\" id=\"strPostal\" name=\"strPostal\" type=\"text\">\n</div>\n</div>\n\n</fieldset>\t\n\n<input value=\"Soumettre votre demande\" id=\"btnSubmit\" name=\"btnSubmit\" class=\"btn btn-primary\" type=\"submit\"> \n<input value=\"Effacez tous les renseignements\" id=\"btnReset\" name=\"btnReset\" class=\"btn btn-default\" type=\"reset\">\n\n</form>\n</div>\n<script src=\"https://ajax.googleapis.com/ajax/libs/jquery/2.1.1/jquery.min.js\"></script>\n<script type=\"text/javascript\">\n$(document).ready (function(){\n\tif($(\"#strPaper\").checked || $(\"#strBraille\").checked)\n\t{\n\t\tPaperBrailleChecked();\n\t}\n});\n\n$(document).on(\"change\", \"#strBraille\", function(){\n\tif($(\"#strBraille\").is(\":checked\"))\n\t{\n\t\tPaperBrailleChecked();\n\t}\n\telse if(!($(\"#strPaper\").is(\":checked\")))\n\t{\n\t\tPaperBrailleUnChecked();\n\t}\n});\n\n$(document).on(\"change\", \"#strPaper\", function(){\n\tif($(\"#strPaper\").is(\":checked\"))\n\t{\n\t\tPaperBrailleChecked();\n\t}\n\telse if(!($(\"#strBraille\").is(\":checked\")))\n\t{\n\t\tPaperBrailleUnChecked();\n\t}\n});\n\nfunction PaperBrailleChecked()\n{\n\t$(\"#strAddress1\").attr(\"required\", \"true\");\n\t$(\"#strCity\").attr(\"required\", \"true\");\n\t$(\"#strProvince\").attr(\"required\", \"true\");\n\t$(\"#strCountry\").attr(\"required\", \"true\");\n\t$(\"#strPostal\").attr(\"required\", \"true\");\n}\n\nfunction PaperBrailleUnChecked()\n{\n\t$(\"#strAddress1\").removeAttr(\"required\");\n\t$(\"#strCity\").removeAttr(\"required\");\n\t$(\"#strProvince\").removeAttr(\"required\");\n\t$(\"#strCountry\").removeAttr(\"required\");\n\t$(\"#strPostal\").removeAttr(\"required\");\n}\n</script>\r\n\r\n<div class=\"row\">\r\n \r\n\t\t\t\r\n\t\t\t\r\n\r\n\t\t\r\n\t\r\n</div>"
    },
    "success": true,
    "chat_wizard": false
}