{
    "dcr_id": "1630532389022",
    "title": {
        "en": "National Chemical Residue Monitoring Program and Chemistry Food Safety Oversight Program annual <span class=\"nowrap\">report 2020 to 2021</span>",
        "fr": "Rapport annuel du Programme national de surveillance des r\u00e9sidus chimiques et Programme de surveillance de la salubrit\u00e9 <span class=\"nowrap\">des aliments 2020 au 2021</span>"
    },
    "html_modified": "6-10-2021",
    "modified": "11-1-2024",
    "issued": "1-9-2021",
    "teamsite_location": {
        "en": "/default/main/inspection/cont-cont/food-aliments/WORKAREA/food-aliments/templatedata/comn-comn/forms-formes/data/chem_residue_reports_2017_2018_1630532389022_eng",
        "fr": "/default/main/inspection/cont-cont/food-aliments/WORKAREA/food-aliments/templatedata/comn-comn/forms-formes/data/chem_residue_reports_2017_2018_1630532389022_fra"
    },
    "parent_ia_id": "1453327843364",
    "ia_id": "1630532834276",
    "parent_node_id": "1453327843364",
    "layout_name": "content page 1 column",
    "breadcrumb": {
        "en": "National Chemical Residue Monitoring Program and Chemistry Food Safety Oversight Program annual <span class=\"nowrap\">report 2020 to 2021</span>",
        "fr": "Rapport annuel du Programme national de surveillance des r\u00e9sidus chimiques et Programme de surveillance de la salubrit\u00e9 <span class=\"nowrap\">des aliments 2020 au 2021</span>"
    },
    "label": {
        "en": "National Chemical Residue Monitoring Program and Chemistry Food Safety Oversight Program annual <span class=\"nowrap\">report 2020 to 2021</span>",
        "fr": "Rapport annuel du Programme national de surveillance des r\u00e9sidus chimiques et Programme de surveillance de la salubrit\u00e9 <span class=\"nowrap\">des aliments 2020 au 2021</span>"
    },
    "templatetype": "content page 1 column",
    "node_id": "1630532834276",
    "managing_branch": "comn",
    "type_name": "forms-formes",
    "dcr_type": "forms-formes",
    "parent_dcr_id": "1453324778043",
    "has_dcr_id": true,
    "lang": "en",
    "could_not_load": 0,
    "refaire": false,
    "interwoven_url": {
        "en": "/food-safety-for-industry/food-chemistry-and-microbiology/food-safety-testing-reports-and-journal-articles/national-chemical-residue-monitoring-program-and-c/",
        "fr": "/salubrite-alimentaire-pour-l-industrie/chimie-et-microbiologie-alimentaires/rapports-d-analyse-et-articles-de-revues-sur-la-sa/rapport-annuel-du-programme-national-de-surveillan/"
    },
    "meta": {
        "viewport": {
            "en": "width=device-width,initial-scale=1",
            "fr": "width=device-width,initial-scale=1"
        },
        "service": {
            "en": "CFIA-ACIA",
            "fr": "CFIA-ACIA"
        },
        "accessRights": {
            "en": "2",
            "fr": "2"
        },
        "title": {
            "en": "National Chemical Residue Monitoring Program and Chemistry Food Safety Oversight Program annual report 2020 to 2021",
            "fr": "Rapport annuel du Programme national de surveillance des r\u00e9sidus chimiques et Programme de surveillance de la salubrit\u00e9 des aliments 2020 au 2021"
        },
        "description": {
            "en": "The Canadian Food Inspection Agency (CFIA) is dedicated to safeguarding food, animals and plants, which enhances the health and well-being of Canada's people, environment and economy.",
            "fr": "L'Agence canadienne d'inspection des aliments assure la salubrit\u00e9 des aliments, la sant\u00e9 des animaux et la protection des v\u00e9g\u00e9taux dans l'int\u00e9r\u00eat de la sant\u00e9 et du bien-\u00eatre des Canadiens, de l'environnement et de l'\u00e9conomie."
        },
        "keywords": {
            "en": "chemical residues, testing, sampling, reporting, annual report, monitoring program, contaminants, maximum residue limits, executive summary",
            "fr": "R\u00e9sidus chimiques, essai, pr\u00e9l\u00e8vement, rapports, rapport annuel, programme national de surveillance, contaminants, limites maximales de r\u00e9sidus, sommaire"
        },
        "dcterms.subject": {
            "en": "agri-food products,assessment,food inspection,food safety,inspection,scientific research,veterinary medicine",
            "fr": "produit agro-alimentaire,\u00e9valuation,inspection des aliments,salubrit\u00e9 des aliments,inspection,recherche scientifique,m\u00e9decine v\u00e9t\u00e9rinaire"
        },
        "creator": {
            "en": "Government of Canada,Canadian Food Inspection Agency",
            "fr": "Gouvernement du Canada,Agence canadienne d'inspection des aliments"
        },
        "language": {
            "en": "eng",
            "fr": "fra"
        },
        "issued": {
            "en": "2021-10-06",
            "fr": "2021-10-06"
        },
        "modified": {
            "en": "2024-01-11",
            "fr": "2024-01-11"
        },
        "type": {
            "en": "reference material",
            "fr": "mat\u00e9riel de r\u00e9f\u00e9rence"
        },
        "audience": {
            "en": "business,general public,government,scientists",
            "fr": "entreprises,grand public,gouvernement,Scientifiques"
        },
        "name": {
            "en": "Government of Canada",
            "fr": "Gouvernement du Canada"
        },
        "areaServed": {
            "en": "Canada",
            "fr": "Canada"
        }
    },
    "h1": {
        "en": "National Chemical Residue Monitoring Program and Chemistry Food Safety Oversight Program annual report 2020 to 2021",
        "fr": "Rapport annuel du Programme national de surveillance des r\u00e9sidus chimiques et Programme de surveillance de la salubrit\u00e9 des aliments 2020 au 2021"
    },
    "js": {
        "en": "<script>\n    document.frmPublication.strTitle.value = document.getElementsByTagName(\"title\")[0].innerHTML;\n    document.frmPublication.strUrl.value = document.URL;\n</script>/* --------------------- MORE JAVASCRIPT ------------------- */<script>\n$(document).ready (function(){\n\tif($(\"#strPaper\").checked || $(\"#strBraille\").checked)\n\t{\n\t\tPaperBrailleChecked();\n\t}\n});\n\n$(document).on(\"change\", \"#strBraille\", function(){\n\tif($(\"#strBraille\").is(\":checked\"))\n\t{\n\t\tPaperBrailleChecked();\n\t}\n\telse if(!($(\"#strPaper\").is(\":checked\")))\n\t{\n\t\tPaperBrailleUnChecked();\n\t}\n});\n\n$(document).on(\"change\", \"#strPaper\", function(){\n\tif($(\"#strPaper\").is(\":checked\"))\n\t{\n\t\tPaperBrailleChecked();\n\t}\n\telse if(!($(\"#strBraille\").is(\":checked\")))\n\t{\n\t\tPaperBrailleUnChecked();\n\t}\n});\n\nfunction PaperBrailleChecked()\n{\n\t$(\"#strAddress1\").attr(\"required\", \"true\");\n\t$(\"#strCity\").attr(\"required\", \"true\");\n\t$(\"#strProvince\").attr(\"required\", \"true\");\n\t$(\"#strCountry\").attr(\"required\", \"true\");\n\t$(\"#strPostal\").attr(\"required\", \"true\");\n}\n\nfunction PaperBrailleUnChecked()\n{\n\t$(\"#strAddress1\").removeAttr(\"required\");\n\t$(\"#strCity\").removeAttr(\"required\");\n\t$(\"#strProvince\").removeAttr(\"required\");\n\t$(\"#strCountry\").removeAttr(\"required\");\n\t$(\"#strPostal\").removeAttr(\"required\");\n}\n</script>",
        "fr": "<script>\n    document.frmPublication.strTitle.value = document.getElementsByTagName(\"title\")[0].innerHTML;\n    document.frmPublication.strUrl.value = document.URL;\n</script>/* --------------------- MORE JAVASCRIPT ------------------- */<script>\n$(document).ready (function(){\n\tif($(\"#strPaper\").checked || $(\"#strBraille\").checked)\n\t{\n\t\tPaperBrailleChecked();\n\t}\n});\n\n$(document).on(\"change\", \"#strBraille\", function(){\n\tif($(\"#strBraille\").is(\":checked\"))\n\t{\n\t\tPaperBrailleChecked();\n\t}\n\telse if(!($(\"#strPaper\").is(\":checked\")))\n\t{\n\t\tPaperBrailleUnChecked();\n\t}\n});\n\n$(document).on(\"change\", \"#strPaper\", function(){\n\tif($(\"#strPaper\").is(\":checked\"))\n\t{\n\t\tPaperBrailleChecked();\n\t}\n\telse if(!($(\"#strBraille\").is(\":checked\")))\n\t{\n\t\tPaperBrailleUnChecked();\n\t}\n});\n\nfunction PaperBrailleChecked()\n{\n\t$(\"#strAddress1\").attr(\"required\", \"true\");\n\t$(\"#strCity\").attr(\"required\", \"true\");\n\t$(\"#strProvince\").attr(\"required\", \"true\");\n\t$(\"#strCountry\").attr(\"required\", \"true\");\n\t$(\"#strPostal\").attr(\"required\", \"true\");\n}\n\nfunction PaperBrailleUnChecked()\n{\n\t$(\"#strAddress1\").removeAttr(\"required\");\n\t$(\"#strCity\").removeAttr(\"required\");\n\t$(\"#strProvince\").removeAttr(\"required\");\n\t$(\"#strCountry\").removeAttr(\"required\");\n\t$(\"#strPostal\").removeAttr(\"required\");\n}\n</script>"
    },
    "mode_html": "no_editor_full",
    "body": {
        "en": "        \r\n        \n<h2>Summary</h2>\n\n<p>The Canadian Food Inspection Agency (CFIA) is dedicated to safeguarding food, animals and plants, which enhances the health and well-being of Canada's people, environment and economy. The National Chemical Residue Monitoring Program (NCRMP) is an annual CFIA regulatory surveillance program which verifies compliance in foods to Canadian standards and guidelines for chemical residues and contaminants. The data collected from the NCRMP along with other surveillance activities enables the CFIA to identify trends that may warrant additional control strategies to maintain or improve compliance.</p>\n\n<p>The NCRMP is one of several valuable surveillance tools that the CFIA uses to help ensure the very high compliance of foods to Canadian standards year after year. The NCRMP is carried out in accordance with Codex Alimentarius principles and guidelines and is an important part of the CFIA food safety framework that monitors Canadian food for potential chemical hazards. This program provides data to support the Canadian food production system and the integrity of Canada's chemical residue control system. These systems are equivalent to those of our main trading partners like the United States and the European Union.</p>\n\n<p>In\u00a02014 an initiative known as the Food Safety Oversight (FSO) Program was introduced to complement the NCRMP and to increase CFIA's oversight in the non-meat food sectors. In\u00a02016 the CFIA increased sampling and testing of certain fresh fruit and vegetables that were not typically monitored within the program. The increased level of sampling and testing was continued in\u00a02017. Some of these additional FSO program samples were collected at federally registered establishments or importers by inspectors in the same manner as the NCRMP samples. The majority of the FSO samples, however, were collected at retail locations by third party samplers under contract to the CFIA. Sampling of foods at both federally registered establishments and at retail locations offers additional information on the levels of residues and contaminants present in foods in the Canadian market place.</p>\n\n<p>The CFIA communicates non-compliant results from surveillance activities like the NCRMP and the FSO Program to farmers, growers/producers, importers, and retailers to identify areas of concern and to promote the safe use of agricultural chemicals and practices. This ongoing effort ensures that safe and healthy food is continuously available to Canadians.</p>\n\n<p>This report summarizes testing results from both the NCRMP and the fresh fruit and vegetable portion of the FSO Program in food samples collected between April\u00a01,\u00a02017 and March\u00a031,\u00a02018 (hereafter referred to as\u00a02017/18). Nearly\u00a0120,000 tests for residues of veterinary drugs, pesticides, metals, and contaminants were performed on approximately\u00a016,000 NCRMP and FSO monitoring samples and generated millions of results, which are summarized in Annex B of this report. Test results from samples taken as part of the NCRMP and FSO Program showed that the overwhelming majority of food on the market meets Canadian standards for chemical residues. The overall compliance rate was determined to be\u00a096.6% which is consistent with past years.</p>\n\n<p>Detailed test results are available on the <a href=\"https://open.canada.ca/data/en/dataset/a5cb7c3c-0371-4a20-ac9a-98fc4c3536bb\">Open Government Portal</a>.</p>\r\n<style>\n/* required style */\n    .keyValue{\n\tdisplay: none !important;\n        visibility: hidden !important;\n</style>\n<h2>Request of Complete Report</h2>\n<p>The complete text of this report is available upon request.</p>\n\n<div class=\"wb-frmvld\">\n\n<form class=\"form-horizontal\" role=\"form\" method=\"post\" action=\"/active/netapp/comment/publicationposte.aspx#wb-cont\" name=\"frmPublication\">\n<input id=\"emailad0\" name=\"to\" class=\"hidden\" type=\"hidden\" aria-hidden=\"true\" value=\"TJuyFjexwJCZvpBq5YPrkB62mClSIdFZ62+SZdodl+915LOkvFdGHkApGYFfEzVE\">\n<input name=\"strLang\" type=\"hidden\" value=\"English\">\n<input name=\"strSubject\" type=\"hidden\" value=\"Chemical Residues / Microbiology Report Request\">\n<input name=\"strTitle\" type=\"hidden\" value=\"title\">\n<input name=\"strUrl\" type=\"hidden\" value=\"url\">\n<script type=\"text/javascript\">\n    document.frmPublication.strTitle.value = document.getElementsByTagName(\"title\")[0].innerHTML;\n    document.frmPublication.strUrl.value = document.URL;\n</script>\n        \n<fieldset class=\"mrgn-tp-md mrgn-bttm-lg\">\t\t\n\n<legend class=\"field-name required\"><span class=\"field-name\">The format in which you would like to receive the report</span> <strong class=\"required\">(required)</strong></legend>\n\n<div class=\"checkbox\">\n<label for=\"strPdf\"><input type=\"checkbox\" name=\"formatsent\" id=\"strPdf\" value=\"pdf\" required=\"required\">PDF (Portable Document Format) electronic file sent to you by email</label>\n</div>\n\n<div class=\"checkbox\">\n<label for=\"strText\"><input type=\"checkbox\" name=\"formatsent\" id=\"strText\" value=\"text\">RTF (Rich Text Format) electronic file sent to you by email</label>\n</div>\n\n<div class=\"checkbox\">\n<label for=\"strBraille\"><input type=\"checkbox\" name=\"formatsent\" id=\"strBraille\" value=\"braille\">Braille copy sent to you by mail</label>\n</div>\n\n<div class=\"checkbox\">\n<label for=\"strPaper\"><input type=\"checkbox\" name=\"formatsent\" id=\"strPaper\" value=\"paper\">Paper copy sent to you by mail</label>\n</div>\n\n</fieldset>\t\n\n<fieldset class=\"mrgn-tp-md mrgn-bttm-lg\">\t\t\n\n<legend class=\"field-name\">Your contact information</legend>\n\n<label class=\"keyValue\" for=\"name\"></label>\n<input class=\"keyValue\" autocomplete=\"off\" type=\"text\" id=\"name\" name=\"name\">\n<label class=\"keyValue\" for=\"email\"></label>\n<input class=\"keyValue\" autocomplete=\"off\" type=\"email\" id=\"email\" name=\"email\"> \n\n<div class=\"form-group\">\n<label for=\"strFirstName\" class=\"required col-md-4 control-label\"><span class=\"field-name\">First name:</span> <strong class=\"required\">(required)</strong></label>\n<div class=\"col-md-8\">\n<input class=\"form-control\" id=\"strFirstName\" name=\"strFirstName\" type=\"text\" required=\"required\" pattern=\".{2,}\" data-rule-minlength=\"2\">\n</div>\n</div>\n            \n<div class=\"form-group\">\n<label for=\"strLastName\" class=\"required col-md-4 control-label\"><span class=\"field-name\">Last name:</span> <strong class=\"required\">(required)</strong></label>\n<div class=\"col-md-8\">\n<input class=\"form-control\" id=\"strLastName\" name=\"strLastName\" type=\"text\" required=\"required\" pattern=\".{2,}\" data-rule-minlength=\"2\">\n</div>\n</div>\n\n<div class=\"form-group\">\n<label for=\"strEmail\" class=\"required col-md-4 control-label\"><span class=\"field-name\">Email address:</span>  <strong class=\"required\">(required)</strong></label>\n<div class=\"col-md-8\">\n<input class=\"form-control\" id=\"strEmail\" name=\"strEmail\" type=\"email\" required=\"required\">\n</div>\n</div>\n\n<div class=\"form-group\">\n<label for=\"strConfirmEmail\" class=\"required col-md-4 control-label\"><span class=\"field-name\">Confirm email address:</span>  <strong class=\"required\">(required)</strong></label>\n<div class=\"col-md-8\">\n<input class=\"form-control\" id=\"strConfirmEmail\" name=\"strConfirmEmail\" type=\"email\" data-rule-equalto=\"#strEmail\" required=\"required\">\n</div>\n</div>\n\n<div class=\"form-group mrgn-tp-md\">\n<label for=\"lstdescribe\" class=\"required col-md-4 control-label\"><span class=\"field-name\">How would you describe yourself?</span> <strong class=\"required\">(required)</strong></label>\n<div class=\"col-md-8\">\n<select class=\"form-control\" id=\"lstdescribe\" name=\"lstdescribe\" required=\"required\">\n<option label=\"Select from this list\"></option>\n<option value=\"Academia\">Academia</option>\n<option value=\"Consumer Association\">Consumer Association</option>\n<option value=\"Consumer/General Public\">Consumer / General Public</option>\n<option value=\"Industry Association\">Industry Association</option>\n<option value=\"Industry/Commercial Sector\">Industry / Commercial Sector</option>\n<option value=\"Other Government Departments\">Other Government Departments</option>\t\t\t\n</select>\n</div>\n</div>\t\n\n<div class=\"form-group\">\n<label for=\"strAddress1\" class=\"col-md-4 control-label\"><span class=\"field-name\">Address 1:</span></label>\n<div class=\"col-md-8\">\n<input class=\"form-control\" id=\"strAddress1\" name=\"strAddress1\" type=\"text\">\n</div>\n</div>\n\n<div class=\"form-group\">\n<label for=\"strAddress2\" class=\"col-md-4 control-label\"><span class=\"field-name\">Address 2:</span></label>\n<div class=\"col-md-8\">\n<input class=\"form-control\" id=\"strAddress2\" name=\"strAddress2\" type=\"text\">\n</div>\n</div>\n\n<div class=\"form-group\">\n<label for=\"strCity\" class=\"col-md-4 control-label\"><span class=\"field-name\">City:</span></label>\n<div class=\"col-md-8\">\n<input class=\"form-control\" id=\"strCity\" name=\"strCity\" type=\"text\">\n</div>\n</div>\n\n<div class=\"form-group\">\n<label for=\"strProvince\" class=\"col-md-4 control-label\"><span class=\"field-name\">Province:</span></label>\n<div class=\"col-md-8\">\n<input class=\"form-control\" id=\"strProvince\" name=\"strProvince\" type=\"text\">\n</div>\n</div>\n\n<div class=\"form-group\">\n<label for=\"strCountry\" class=\"col-md-4 control-label\"><span class=\"field-name\">Country:</span></label>\n<div class=\"col-md-8\">\n<input class=\"form-control\" id=\"strCountry\" name=\"strCountry\" type=\"text\">\n</div>\n</div>\n\n<div class=\"form-group\">\n<label for=\"strPostal\" class=\"col-md-4 control-label\"><span class=\"field-name\">Postal Code:</span></label>\n<div class=\"col-md-8\">\n<input class=\"form-control\" id=\"strPostal\" name=\"strPostal\" type=\"text\">\n</div>\n</div>\n\n</fieldset>\t\n\n<input value=\"Submit Your Request\" id=\"btnSubmit\" name=\"btnSubmit\" class=\"btn btn-primary\" type=\"submit\"> \n<input value=\"Clear All Information\" id=\"btnReset\" name=\"btnReset\" class=\"btn btn-default\" type=\"reset\">\n\n</form>\n</div>\n<script src=\"https://ajax.googleapis.com/ajax/libs/jquery/2.1.1/jquery.min.js\"></script>\n<script type=\"text/javascript\">\n$(document).ready (function(){\n\tif($(\"#strPaper\").checked || $(\"#strBraille\").checked)\n\t{\n\t\tPaperBrailleChecked();\n\t}\n});\n\n$(document).on(\"change\", \"#strBraille\", function(){\n\tif($(\"#strBraille\").is(\":checked\"))\n\t{\n\t\tPaperBrailleChecked();\n\t}\n\telse if(!($(\"#strPaper\").is(\":checked\")))\n\t{\n\t\tPaperBrailleUnChecked();\n\t}\n});\n\n$(document).on(\"change\", \"#strPaper\", function(){\n\tif($(\"#strPaper\").is(\":checked\"))\n\t{\n\t\tPaperBrailleChecked();\n\t}\n\telse if(!($(\"#strBraille\").is(\":checked\")))\n\t{\n\t\tPaperBrailleUnChecked();\n\t}\n});\n\nfunction PaperBrailleChecked()\n{\n\t$(\"#strAddress1\").attr(\"required\", \"true\");\n\t$(\"#strCity\").attr(\"required\", \"true\");\n\t$(\"#strProvince\").attr(\"required\", \"true\");\n\t$(\"#strCountry\").attr(\"required\", \"true\");\n\t$(\"#strPostal\").attr(\"required\", \"true\");\n}\n\nfunction PaperBrailleUnChecked()\n{\n\t$(\"#strAddress1\").removeAttr(\"required\");\n\t$(\"#strCity\").removeAttr(\"required\");\n\t$(\"#strProvince\").removeAttr(\"required\");\n\t$(\"#strCountry\").removeAttr(\"required\");\n\t$(\"#strPostal\").removeAttr(\"required\");\n}\n</script>\r\n\r\n\r\n\r\n<div class=\"row\">\r\n \r\n\t\r\n\t\t\t\r\n\r\n<div class=\"col-xm-12 pagedetails container\">\r\n\t\t\t\t\r\n\r\n</div>\r\n\t\r\n</div>",
        "fr": "\r\n        \r\n        \n<h2>R\u00e9sum\u00e9</h2>\n\n<p>L'Agence canadienne d'inspection des aliments assure la salubrit\u00e9 des aliments, la sant\u00e9 des animaux et la protection des v\u00e9g\u00e9taux dans l'int\u00e9r\u00eat de la sant\u00e9 et du bien-\u00eatre des Canadiens, de l'environnement et de l'\u00e9conomie. Le Programme national de surveillance des r\u00e9sidus chimiques (PNSRC) est un programme de surveillance annuelle de l'ACIA qui v\u00e9rifie la conformit\u00e9 des aliments aux normes et lignes directrices canadiennes concernant les r\u00e9sidus chimiques et les contaminants. Les donn\u00e9es recueillies dans le cadre du PNSRC, ainsi que d'autres activit\u00e9s de surveillance, permettent \u00e0 l'ACIA de d\u00e9finir les tendances pouvant justifier des strat\u00e9gies de contr\u00f4le additionnelles pour maintenir ou am\u00e9liorer la conformit\u00e9.</p>\n\n<p>Le PNSRC est l'un de plusieurs outils de surveillance utiles que l'ACIA utilise pour aider \u00e0 assurer le niveau de conformit\u00e9 tr\u00e8s \u00e9lev\u00e9 des aliments par rapport aux normes canadiennes d'ann\u00e9e en ann\u00e9e. Le programme respecte les principes et les lignes directrices du Codex Alimentarius et il constitue une partie importante du cadre de salubrit\u00e9 des aliments de l'ACIA, qui effectue une v\u00e9rification pour que les aliments canadiens ne pr\u00e9sentent pas de risque chimique potentiel. Il fournit des donn\u00e9es pour soutenir le syst\u00e8me de production alimentaire canadien et l'int\u00e9grit\u00e9 du syst\u00e8me de contr\u00f4le des r\u00e9sidus chimiques du Canada. Ces syst\u00e8mes \u00e9quivalent \u00e0 ceux de nos principaux partenaires commerciaux, comme les \u00c9tats-Unis et l'Union europ\u00e9enne.</p>\n\n<p>Au cours de l'exercice\u00a02014, une initiative connue sous le nom de Programme de surveillance de la salubrit\u00e9 des aliments (PSSA) a \u00e9t\u00e9 lanc\u00e9e pour compl\u00e9menter le PNSRC et pour accro\u00eetre la surveillance de l'ACIA dans les secteurs alimentaires autres que ceux des viandes. En\u00a02016, l'ACIA a augment\u00e9 l'\u00e9chantillonnage et l'analyse de certains fruits et l\u00e9gumes frais qui, habituellement, ne faisaient pas l'objet d'une surveillance dans le cadre du programme. Le niveau accru d'\u00e9chantillonnage et d'analyse s'est poursuivi en\u00a02017. Certains de ces \u00e9chantillons suppl\u00e9mentaires du PSSA ont \u00e9t\u00e9 pr\u00e9lev\u00e9s par les inspecteurs de l'ACIA chez des importateurs ou dans des \u00e9tablissements agr\u00e9\u00e9s par le gouvernement f\u00e9d\u00e9ral de la m\u00eame mani\u00e8re que les \u00e9chantillons du PNSRC. Toutefois, la majorit\u00e9 des \u00e9chantillons du PSSA ont \u00e9t\u00e9 pr\u00e9lev\u00e9s au d\u00e9tail par des \u00e9chantillonneurs de tierces parties offrant des services contractuels \u00e0 l'ACIA. L'\u00e9chantillonnage des aliments dans les \u00e9tablissements agr\u00e9\u00e9s par le gouvernement f\u00e9d\u00e9ral et dans les commerces de d\u00e9tail offre des renseignements suppl\u00e9mentaires sur les concentrations de r\u00e9sidus et de contaminants pr\u00e9sents dans les aliments sur le march\u00e9 canadien.</p>\n\n<p>L'ACIA communique les r\u00e9sultats non conformes de ses activit\u00e9s de surveillance telles que le PNSRC et le PSSA aux producteurs agricoles, aux importateurs et aux d\u00e9taillants pour d\u00e9finir les domaines pr\u00e9occupants et promouvoir une utilisation s\u00e9curitaire des produits chimiques et des pratiques agricoles. Ces efforts continus font en sorte que les Canadiens ont toujours acc\u00e8s \u00e0 des aliments salubres et sains.</p>\n\n<p>Le pr\u00e9sent rapport r\u00e9sume les r\u00e9sultats d'analyse du PNSRC et volet des fruits et des l\u00e9gumes frais du PSSA dans les \u00e9chantillons d'aliments pr\u00e9lev\u00e9s entre le\u00a01er avril\u00a02017 et le\u00a031 mars\u00a02018 (ci-apr\u00e8s abr\u00e9g\u00e9\u00a02017-2018). Pr\u00e8s de\u00a0120\u00a0000 analyses de d\u00e9pistage de r\u00e9sidus de m\u00e9dicaments v\u00e9t\u00e9rinaires, de pesticides, de m\u00e9taux et de contaminants ont \u00e9t\u00e9 effectu\u00e9es sur plus de\u00a016\u00a0000 \u00e9chantillons de surveillance pr\u00e9lev\u00e9s dans le cadre du PNSRC et du PSSA pour produire des millions de r\u00e9sultats, qui sont r\u00e9sum\u00e9s \u00e0 l'annexe B du pr\u00e9sent rapport. Les r\u00e9sultats d'analyse des \u00e9chantillons pr\u00e9lev\u00e9s dans le cadre du PNSRC et du PSSA ont montr\u00e9 que l'immense majorit\u00e9 des aliments sur le march\u00e9 respectaient les normes canadiennes concernant les r\u00e9sidus chimiques. Le taux global de conformit\u00e9 d\u00e9termin\u00e9 est de\u00a096,6\u00a0%, ce qui est semblable au taux des ann\u00e9es ant\u00e9rieures.</p>\n\n<p>Les r\u00e9sultats d\u00e9taill\u00e9s des analyses peuvent \u00eatre consult\u00e9s dans le <a href=\"https://ouvert.canada.ca/data/fr/dataset/a5cb7c3c-0371-4a20-ac9a-98fc4c3536bb\">Portail du gouvernement ouvert</a>. </p>\n\r\n<style>\n/* required style */\n    .keyValue{\n\tdisplay: none !important;\n        visibility: hidden !important;\n</style>\n<h2>Demande de rapport complet</h2>\n<p>La version int\u00e9grale du pr\u00e9sent rapport est disponible sur demande.</p>\n\n<div class=\"wb-frmvld\">\n\n<form class=\"form-horizontal\" role=\"form\" method=\"post\" action=\"/active/netapp/comment/publicationposte.aspx#wb-cont\" name=\"frmPublication\">\n\n<input id=\"emailad0\" name=\"to\" class=\"hidden\" type=\"hidden\" aria-hidden=\"true\" value=\"/wzA/kBk6/KvxWgbcTqkhcFVzQ/AjqEfYSLLPCcTEo3XIDhRGRZy7SCf5+zVDDcy\">\n<input name=\"strLang\" type=\"hidden\" value=\"Francais\">\n<input name=\"strSubject\" type=\"hidden\" value=\"Demande de rapport de r\u00e9sidus chimiques / microbiologie\">\n<input name=\"strTitle\" type=\"hidden\" value=\"title\">\n<input name=\"strUrl\" type=\"hidden\" value=\"url\">\n<script type=\"text/javascript\">\n    document.frmPublication.strTitle.value = document.getElementsByTagName(\"title\")[0].innerHTML;\n    document.frmPublication.strUrl.value = document.URL;\n</script>\n        \n<fieldset class=\"mrgn-tp-md mrgn-bttm-lg\">\t\t\n\n<legend class=\"field-name required\"><span class=\"field-name\">Le format dans lequel vous souhaitez recevoir le rapport</span> <strong class=\"required\">(obligatoire)</strong></legend>\n\n<div class=\"checkbox\">\n<label for=\"strPdf\"><input type=\"checkbox\" name=\"formatsent\" id=\"strPdf\" value=\"pdf\" required=\"required\">Fichier \u00e9lectronique PDF (format de document portable) envoy\u00e9 par courriel</label>\n</div>\n\n<div class=\"checkbox\">\n<label for=\"strText\"><input type=\"checkbox\" name=\"formatsent\" id=\"strText\" value=\"text\">Fichier \u00e9lectronique RTF (<span lang=\"en\">Rich Text Format</span>) envoy\u00e9 par courriel</label>\n</div>\n\n<div class=\"checkbox\">\n<label for=\"strBraille\"><input type=\"checkbox\" name=\"formatsent\" id=\"strBraille\" value=\"braille\">Copie braille envoy\u00e9e par la poste</label>\n</div>\n\n<div class=\"checkbox\">\n<label for=\"strPaper\"><input type=\"checkbox\" name=\"formatsent\" id=\"strPaper\" value=\"paper\">Copie papier envoy\u00e9e par la poste</label>\n</div>\n\n</fieldset>\t\n\n<fieldset class=\"mrgn-tp-md mrgn-bttm-lg\">\t\t\n\n<legend class=\"field-name\">Vos coordonn\u00e9es</legend>\n\n<label class=\"keyValue\" for=\"name\"></label>\n<input class=\"keyValue\" autocomplete=\"off\" type=\"text\" id=\"name\" name=\"name\">\n<label class=\"keyValue\" for=\"email\"></label>\n<input class=\"keyValue\" autocomplete=\"off\" type=\"email\" id=\"email\" name=\"email\"> \n\n<div class=\"form-group\">\n<label for=\"strFirstName\" class=\"required col-md-4 control-label\"><span class=\"field-name\">Pr\u00e9nom :</span> <strong class=\"required\">(obligatoire)</strong></label>\n<div class=\"col-md-8\">\n<input class=\"form-control\" id=\"strFirstName\" name=\"strFirstName\" type=\"text\" required=\"required\" pattern=\".{2,}\" data-rule-minlength=\"2\">\n</div>\n</div>\n            \n<div class=\"form-group\">\n<label for=\"strLastName\" class=\"required col-md-4 control-label\"><span class=\"field-name\">Nom :</span> <strong class=\"required\">(obligatoire)</strong></label>\n<div class=\"col-md-8\">\n<input class=\"form-control\" id=\"strLastName\" name=\"strLastName\" type=\"text\" required=\"required\" pattern=\".{2,}\" data-rule-minlength=\"2\">\n</div>\n</div>\n\n<div class=\"form-group\">\n<label for=\"strEmail\" class=\"required col-md-4 control-label\"><span class=\"field-name\">Adresse de courriel :</span> \u00a0<strong class=\"required\">(obligatoire)</strong></label>\n<div class=\"col-md-8\">\n<input class=\"form-control\" id=\"strEmail\" name=\"strEmail\" type=\"email\" required=\"required\">\n</div>\n</div>\n\n<div class=\"form-group\">\n<label for=\"strConfirmEmail\" class=\"required col-md-4 control-label\"><span class=\"field-name\">Confirmer Adresse de courriel :</span>  <strong class=\"required\">(obligatoire)</strong></label>\n<div class=\"col-md-8\">\n<input class=\"form-control\" id=\"strConfirmEmail\" name=\"strConfirmEmail\" type=\"email\" data-rule-equalto=\"#strEmail\" required=\"required\">\n</div>\n</div>\n\n<div class=\"form-group mrgn-tp-md\">\n<label for=\"lstdescribe\" class=\"required col-md-4 control-label\"><span class=\"field-name\">Comment vous vous d\u00e9criviez?</span> <strong class=\"required\">(obligatoire)</strong></label>\n<div class=\"col-md-8\">\n<select class=\"form-control\" id=\"lstdescribe\" name=\"lstdescribe\" required=\"required\">\n<option label=\"Choisir parmi la liste\"></option>\n<option value=\"Acad\u00e9mie\">Acad\u00e9mie</option>\n<option value=\"Association sectorielle\">Association sectorielle</option>  \n<option value=\"Autres institutions du gouvernement\">Autres institutions du gouvernement</option>\n<option value=\"Consommateur/Grand public\">Consommateur / Grand public</option>\n<option value=\"Groupe de consommateur\">Groupe de consommateur</option>\n<option value=\"Industrie/Secteur commercial\">Industrie / Secteur commercial</option>\n</select>\n</div>\n</div>\t\n\n<div class=\"form-group\">\n<label for=\"strAddress1\" class=\"col-md-4 control-label\"><span class=\"field-name\">Adresse 1 :</span></label>\n<div class=\"col-md-8\">\n<input class=\"form-control\" id=\"strAddress1\" name=\"strAddress1\" type=\"text\">\n</div>\n</div>\n\n<div class=\"form-group\">\n<label for=\"strAddress2\" class=\"col-md-4 control-label\"><span class=\"field-name\">Adresse 2 :</span></label>\n<div class=\"col-md-8\">\n<input class=\"form-control\" id=\"strAddress2\" name=\"strAddress2\" type=\"text\">\n</div>\n</div>\n\n<div class=\"form-group\">\n<label for=\"strCity\" class=\"col-md-4 control-label\"><span class=\"field-name\">Ville :</span></label>\n<div class=\"col-md-8\">\n<input class=\"form-control\" id=\"strCity\" name=\"strCity\" type=\"text\">\n</div>\n</div>\n\n<div class=\"form-group\">\n<label for=\"strProvince\" class=\"col-md-4 control-label\"><span class=\"field-name\">Province :</span></label>\n<div class=\"col-md-8\">\n<input class=\"form-control\" id=\"strProvince\" name=\"strProvince\" type=\"text\">\n</div>\n</div>\n\n<div class=\"form-group\">\n<label for=\"strCountry\" class=\"col-md-4 control-label\"><span class=\"field-name\">Pays : </span></label>\n<div class=\"col-md-8\">\n<input class=\"form-control\" id=\"strCountry\" name=\"strCountry\" type=\"text\">\n</div>\n</div>\n\n<div class=\"form-group\">\n<label for=\"strPostal\" class=\"col-md-4 control-label\"><span class=\"field-name\">Code postal : </span></label>\n<div class=\"col-md-8\">\n<input class=\"form-control\" id=\"strPostal\" name=\"strPostal\" type=\"text\">\n</div>\n</div>\n\n</fieldset>\t\n\n<input value=\"Soumettre votre demande\" id=\"btnSubmit\" name=\"btnSubmit\" class=\"btn btn-primary\" type=\"submit\"> \n<input value=\"Effacez tous les renseignements\" id=\"btnReset\" name=\"btnReset\" class=\"btn btn-default\" type=\"reset\">\n\n</form>\n</div>\n<script src=\"https://ajax.googleapis.com/ajax/libs/jquery/2.1.1/jquery.min.js\"></script>\n<script type=\"text/javascript\">\n$(document).ready (function(){\n\tif($(\"#strPaper\").checked || $(\"#strBraille\").checked)\n\t{\n\t\tPaperBrailleChecked();\n\t}\n});\n\n$(document).on(\"change\", \"#strBraille\", function(){\n\tif($(\"#strBraille\").is(\":checked\"))\n\t{\n\t\tPaperBrailleChecked();\n\t}\n\telse if(!($(\"#strPaper\").is(\":checked\")))\n\t{\n\t\tPaperBrailleUnChecked();\n\t}\n});\n\n$(document).on(\"change\", \"#strPaper\", function(){\n\tif($(\"#strPaper\").is(\":checked\"))\n\t{\n\t\tPaperBrailleChecked();\n\t}\n\telse if(!($(\"#strBraille\").is(\":checked\")))\n\t{\n\t\tPaperBrailleUnChecked();\n\t}\n});\n\nfunction PaperBrailleChecked()\n{\n\t$(\"#strAddress1\").attr(\"required\", \"true\");\n\t$(\"#strCity\").attr(\"required\", \"true\");\n\t$(\"#strProvince\").attr(\"required\", \"true\");\n\t$(\"#strCountry\").attr(\"required\", \"true\");\n\t$(\"#strPostal\").attr(\"required\", \"true\");\n}\n\nfunction PaperBrailleUnChecked()\n{\n\t$(\"#strAddress1\").removeAttr(\"required\");\n\t$(\"#strCity\").removeAttr(\"required\");\n\t$(\"#strProvince\").removeAttr(\"required\");\n\t$(\"#strCountry\").removeAttr(\"required\");\n\t$(\"#strPostal\").removeAttr(\"required\");\n}\n</script>\r\n\r\n<div class=\"row\">\r\n \r\n\t\t\t\r\n\t\t\t\r\n\r\n\t\t\r\n\t\r\n</div>"
    },
    "success": true,
    "chat_wizard": false
}