{
    "dcr_id": "1645623998494",
    "title": {
        "en": "2013-2014 Aflatoxins in Corn Products, Nuts and Nut Butters, Dried Fruits, Cocoa Powder, Breads, Breakfast and Infant Cereals, and Spice Powders",
        "fr": "2013-2014 Aflatoxines dans les produits de ma\u00efs, les noix et les beurres de noix, les fruits s\u00e9ch\u00e9s, la poudre de cacao, le pain, les c\u00e9r\u00e9ales de petit-d\u00e9jeuner et pour nourrissons, et les \u00e9pices en poudre"
    },
    "html_modified": "23-2-2022",
    "modified": "8-9-2016",
    "issued": "1-9-2021",
    "teamsite_location": {
        "en": "/default/main/inspection/cont-cont/food-aliments/WORKAREA/food-aliments/templatedata/comn-comn/forms-formes/data/chem_testing_report_2013-2014_aflatoxin_1645623998494_eng",
        "fr": "/default/main/inspection/cont-cont/food-aliments/WORKAREA/food-aliments/templatedata/comn-comn/forms-formes/data/chem_testing_report_2013-2014_aflatoxin_1645623998494_fra"
    },
    "parent_ia_id": "1453327843364",
    "ia_id": "1645623998962",
    "parent_node_id": "1453327843364",
    "layout_name": "content page 1 column",
    "breadcrumb": {
        "en": "2013-2014 Aflatoxins in Corn Products, Nuts and Nut Butters, Dried Fruits, Cocoa Powder, Breads, Breakfast and Infant Cereals, and Spice Powders",
        "fr": "2013-2014 Aflatoxines dans les produits de ma\u00efs, les noix et les beurres de noix, les fruits s\u00e9ch\u00e9s, la poudre de cacao, le pain, les c\u00e9r\u00e9ales de petit-d\u00e9jeuner et pour nourrissons, et les \u00e9pices en poudre"
    },
    "label": {
        "en": "2013-2014 Aflatoxins in Corn Products, Nuts and Nut Butters, Dried Fruits, Cocoa Powder, Breads, Breakfast and Infant Cereals, and Spice Powders",
        "fr": "2013-2014 Aflatoxines dans les produits de ma\u00efs, les noix et les beurres de noix, les fruits s\u00e9ch\u00e9s, la poudre de cacao, le pain, les c\u00e9r\u00e9ales de petit-d\u00e9jeuner et pour nourrissons, et les \u00e9pices en poudre"
    },
    "templatetype": "content page 1 column",
    "node_id": "1645623998962",
    "managing_branch": "comn",
    "type_name": "forms-formes",
    "dcr_type": "forms-formes",
    "parent_dcr_id": "1453324778043",
    "has_dcr_id": true,
    "lang": "en",
    "could_not_load": 0,
    "refaire": false,
    "interwoven_url": {
        "en": "/food-safety-for-industry/food-chemistry-and-microbiology/food-safety-testing-reports-and-journal-articles/aflatoxins/",
        "fr": "/salubrite-alimentaire-pour-l-industrie/chimie-et-microbiologie-alimentaires/rapports-d-analyse-et-articles-de-revues-sur-la-sa/aflatoxines/"
    },
    "meta": {
        "viewport": {
            "en": "width=device-width,initial-scale=1",
            "fr": "width=device-width,initial-scale=1"
        },
        "service": {
            "en": "CFIA-ACIA",
            "fr": "CFIA-ACIA"
        },
        "accessRights": {
            "en": "2",
            "fr": "2"
        },
        "title": {
            "en": "2013-2014 Aflatoxins in Corn Products, Nuts and Nut Butters, Dried Fruits, Cocoa Powder, Breads, Breakfast and Infant Cereals, and Spice Powders",
            "fr": "2013-2014 Aflatoxines dans les produits de ma\u00efs, les noix et les beurres de noix, les fruits s\u00e9ch\u00e9s, la poudre de cacao, le pain, les c\u00e9r\u00e9ales de petit-d\u00e9jeuner et pour nourrissons, et les \u00e9pices en poudre"
        },
        "description": {
            "en": "The Canadian Food Inspection Agency (CFIA) is dedicated to safeguarding food, animals and plants, which enhances the health and well-being of Canada's people, environment and economy.",
            "fr": "L'agence canadienne d'inspection des aliments (ACIA) se sert d'enqu\u00eates cibl\u00e9es afin de concentrer ses activit\u00e9s de surveillance dans les domaines pr\u00e9sentant les risques les plus \u00e9lev\u00e9s"
        },
        "keywords": {
            "en": "chemical residues, testing, sampling, reporting, annual report, monitoring program, contaminants, maximum residue limits, executive summary",
            "fr": "aliment, \u00e9chantillon, inspection des aliments, protection du consommateur, r\u00e8glements, salubrit\u00e9 des aliments, s\u00e9curit\u00e9, v\u00e9rification, aflatoxines, produits de ma\u00efs, noix, beurres de noix, fruits s\u00e9ch\u00e9s, poudre de cacao, pain, c\u00e9r\u00e9ales de petit-d\u00e9jeuner, c\u00e9r\u00e9ales de pour nourrissons, \u00e9pices en poudre"
        },
        "dcterms.subject": {
            "en": "assessment,inspection,food inspection,veterinary medicine,agri-food products,scientific research,food safety",
            "fr": "\u00e9valuation,inspection,inspection des aliments,m\u00e9decine v\u00e9t\u00e9rinaire,produit agro-alimentaire,recherche scientifique,salubrit\u00e9 des aliments"
        },
        "creator": {
            "en": "Government of Canada,Canadian Food Inspection Agency",
            "fr": "Gouvernement du Canada,Agence canadienne d'inspection des aliments"
        },
        "language": {
            "en": "eng",
            "fr": "fra"
        },
        "issued": {
            "en": "2022-02-23",
            "fr": "2022-02-23"
        },
        "modified": {
            "en": "2016-09-08",
            "fr": "2016-09-08"
        },
        "type": {
            "en": "reference material",
            "fr": "mat\u00e9riel de r\u00e9f\u00e9rence"
        },
        "audience": {
            "en": "business,government,general public,scientists",
            "fr": "entreprises,gouvernement,grand public,Scientifiques"
        },
        "name": {
            "en": "Government of Canada",
            "fr": "Gouvernement du Canada"
        },
        "areaServed": {
            "en": "Canada",
            "fr": "Canada"
        }
    },
    "h1": {
        "en": "2013-2014 Aflatoxins in Corn Products, Nuts and Nut Butters, Dried Fruits, Cocoa Powder, Breads, Breakfast and Infant Cereals, and Spice Powders",
        "fr": "2013-2014 Aflatoxines dans les produits de ma\u00efs, les noix et les beurres de noix, les fruits s\u00e9ch\u00e9s, la poudre de cacao, le pain, les c\u00e9r\u00e9ales de petit-d\u00e9jeuner et pour nourrissons, et les \u00e9pices en poudre"
    },
    "js": {
        "en": "<script>\n    document.frmPublication.strTitle.value = document.getElementsByTagName(\"title\")[0].innerHTML;\n    document.frmPublication.strUrl.value = document.URL;\n</script>/* --------------------- MORE JAVASCRIPT ------------------- */<script>\n$(document).ready (function(){\n\tif($(\"#strPaper\").checked || $(\"#strBraille\").checked)\n\t{\n\t\tPaperBrailleChecked();\n\t}\n});\n\n$(document).on(\"change\", \"#strBraille\", function(){\n\tif($(\"#strBraille\").is(\":checked\"))\n\t{\n\t\tPaperBrailleChecked();\n\t}\n\telse if(!($(\"#strPaper\").is(\":checked\")))\n\t{\n\t\tPaperBrailleUnChecked();\n\t}\n});\n\n$(document).on(\"change\", \"#strPaper\", function(){\n\tif($(\"#strPaper\").is(\":checked\"))\n\t{\n\t\tPaperBrailleChecked();\n\t}\n\telse if(!($(\"#strBraille\").is(\":checked\")))\n\t{\n\t\tPaperBrailleUnChecked();\n\t}\n});\n\nfunction PaperBrailleChecked()\n{\n\t$(\"#strAddress1\").attr(\"required\", \"true\");\n\t$(\"#strCity\").attr(\"required\", \"true\");\n\t$(\"#strProvince\").attr(\"required\", \"true\");\n\t$(\"#strCountry\").attr(\"required\", \"true\");\n\t$(\"#strPostal\").attr(\"required\", \"true\");\n}\n\nfunction PaperBrailleUnChecked()\n{\n\t$(\"#strAddress1\").removeAttr(\"required\");\n\t$(\"#strCity\").removeAttr(\"required\");\n\t$(\"#strProvince\").removeAttr(\"required\");\n\t$(\"#strCountry\").removeAttr(\"required\");\n\t$(\"#strPostal\").removeAttr(\"required\");\n}\n</script>",
        "fr": "<script>\n    document.frmPublication.strTitle.value = document.getElementsByTagName(\"title\")[0].innerHTML;\n    document.frmPublication.strUrl.value = document.URL;\n</script>/* --------------------- MORE JAVASCRIPT ------------------- */<script>\n$(document).ready (function(){\n\tif($(\"#strPaper\").checked || $(\"#strBraille\").checked)\n\t{\n\t\tPaperBrailleChecked();\n\t}\n});\n\n$(document).on(\"change\", \"#strBraille\", function(){\n\tif($(\"#strBraille\").is(\":checked\"))\n\t{\n\t\tPaperBrailleChecked();\n\t}\n\telse if(!($(\"#strPaper\").is(\":checked\")))\n\t{\n\t\tPaperBrailleUnChecked();\n\t}\n});\n\n$(document).on(\"change\", \"#strPaper\", function(){\n\tif($(\"#strPaper\").is(\":checked\"))\n\t{\n\t\tPaperBrailleChecked();\n\t}\n\telse if(!($(\"#strBraille\").is(\":checked\")))\n\t{\n\t\tPaperBrailleUnChecked();\n\t}\n});\n\nfunction PaperBrailleChecked()\n{\n\t$(\"#strAddress1\").attr(\"required\", \"true\");\n\t$(\"#strCity\").attr(\"required\", \"true\");\n\t$(\"#strProvince\").attr(\"required\", \"true\");\n\t$(\"#strCountry\").attr(\"required\", \"true\");\n\t$(\"#strPostal\").attr(\"required\", \"true\");\n}\n\nfunction PaperBrailleUnChecked()\n{\n\t$(\"#strAddress1\").removeAttr(\"required\");\n\t$(\"#strCity\").removeAttr(\"required\");\n\t$(\"#strProvince\").removeAttr(\"required\");\n\t$(\"#strCountry\").removeAttr(\"required\");\n\t$(\"#strPostal\").removeAttr(\"required\");\n}\n</script>"
    },
    "mode_html": "no_editor_full",
    "body": {
        "en": "        \r\n        \n<h2>Summary</h2>\n\n<p>Targeted surveys are used by the Canadian Food Inspection Agency (CFIA) to focus its surveillance activities on areas of highest risk. The information gained from these surveys provides both support for the prioritization of the Agency's activities to areas of greater concern and scientific evidence to address areas of lesser concern. Originally started under the Food Safety Action Plan (FSAP), targeted surveys have been incorporated into the <abbr title=\"Canadian Food Inspection Agency\">CFIA</abbr>'s regular surveillance activities as a valuable tool for generating essential information on certain hazards in foods, identifying/characterizing new and emerging hazards, informing trend analysis, prompting/refining human health risk assessments, assessing compliance with Canadian regulations, highlighting potential contamination issues, and promoting compliance.</p>\n\n<p>The main objectives of this targeted survey were to</p>\n\n<ul>\n<li>generate baseline surveillance data on the levels of aflatoxins in selected domestic and imported corn products, nuts and nut butters, dried fruits, cocoa powder, breads, breakfast and infant cereals, and spice powders available on the Canadian retail market,</li>\n\n<li>compare the aflatoxin levels in these results to other Canadian and international data on aflatoxins, where possible.</li>\n</ul>\n\n<p>Aflatoxins are a family of mycotoxins (naturally-occurring, and toxic secondary metabolites) produced by <i lang=\"la\">Aspergillus</i> fungi. Hot, humid conditions and pest damage during plant growth or storage can favour the growth of aflatoxin-producing fungi, leading to the presence of aflatoxins in foods. Aflatoxins are known to occur in corn and corn products, nuts and nut products, dried fruit, grains, and spices. Short-term exposure to high levels of aflatoxins can cause illness in humans which is characterized by vomiting, abdominal pain, convulsions, coma, and death. The illness is very rare in the developed world. Chronic or long-term exposure to higher levels of aflatoxins has been linked to a number of human health effects, including increasing the risk of developing liver cancer.</p>\n\n<p>The 2013-2014 <abbr title=\"Canadian Food Inspection Agency\">CFIA</abbr> Aflatoxins survey targeted domestic and imported corn products, nuts and nut butters, cocoa powder, spice powders, breads, breakfast and infant cereals, and dried fruits. A total of 969 samples were collected from retail stores in 6 Canadian cities between July\u00a02013 and March\u00a02014. The samples collected included 238 nuts and nut butters, 228 corn products (<abbr title=\"for example\">e.g.</abbr> corn tacos, corn/tortilla chips), 148 breakfast/infant cereals, 115 breads, 97 dried fruits, 94 spice powders, and 49 cocoa powders. Samples were analysed using a multi-analyte method that detects aflatoxin forms B1, B2, G1 and G2. Most of the samples (94.7%) did not contain a detectable level of aflatoxins. The total aflatoxin levels in the remaining samples ranged from 1.0 parts per billion (ppb) to 72.2 <abbr title=\"parts per billion\">ppb</abbr>.</p>\n\n<p>In general, aflatoxin levels reported in the current targeted survey were consistent with the results obtained from the analysis of similar products from previous <abbr title=\"Canadian Food Inspection Agency\">CFIA</abbr> surveys. While a <abbr title=\"United Kingdom\">U.K.</abbr> study detected lower average and maximum aflatoxin levels in paprika compared to the current <abbr title=\"Canadian Food Inspection Agency\">CFIA</abbr> survey, the data is still somewhat comparable, as is the data for raisins. In <abbr title=\"Canadian Food Inspection Agency\">CFIA</abbr> studies, 0-1% of raisin samples tested had detectable levels of aflatoxins while a study conducted in Iran showed 8% of the samples tested positive.</p>\n\n<p>The Canadian <i>Food and Drug Regulations</i> specify a tolerance of 15 <abbr title=\"micrograms per kilogram\">\u00b5g/kg</abbr> (<abbr title=\"parts per billion\">ppb</abbr>) total aflatoxins in nut and nut products. All but one sample of nuts and nut butters (99.6%) were compliant with these regulations. Currently there are no regulations established in Canada for aflatoxin levels any of the remaining products tested so compliance with a numerical standard could not be evaluated. Health Canada reviewed all the data and has determined that none of the samples, including the nut product sample exceeding the tolerance, posed a concern to human health. No product recalls were warranted given the lack of a health concern.</p>\n\n<p>The <abbr title=\"Canadian Food Inspection Agency\">CFIA</abbr> will continue its surveillance activities and inform the Canadian public and stakeholders of its findings.</p>\r\n<style>\n/* required style */\n    .keyValue{\n\tdisplay: none !important;\n        visibility: hidden !important;\n</style>\n<h2>Request of Complete Report</h2>\n<p>The complete text of this report is available upon request.</p>\n\n<div class=\"wb-frmvld\">\n\n<form class=\"form-horizontal\" role=\"form\" method=\"post\" action=\"/active/netapp/comment/publicationposte.aspx#wb-cont\" name=\"frmPublication\">\n<input id=\"emailad0\" name=\"to\" class=\"hidden\" type=\"hidden\" aria-hidden=\"true\" value=\"p4vJQ6gg+viYoGg53u0OQz+csMHbvr6UJdOm2gIFlLus1T5ns/qM+it8xzSJj+Eo\">\n<input name=\"strLang\" type=\"hidden\" value=\"English\">\n<input name=\"strSubject\" type=\"hidden\" value=\"Chemical Residues / Microbiology Report Request\">\n<input name=\"strTitle\" type=\"hidden\" value=\"title\">\n<input name=\"strUrl\" type=\"hidden\" value=\"url\">\n<script type=\"text/javascript\">\n    document.frmPublication.strTitle.value = document.getElementsByTagName(\"title\")[0].innerHTML;\n    document.frmPublication.strUrl.value = document.URL;\n</script>\n        \n<fieldset class=\"mrgn-tp-md mrgn-bttm-lg\">\t\t\n\n<legend class=\"field-name required\"><span class=\"field-name\">The format in which you would like to receive the report</span> <strong class=\"required\">(required)</strong></legend>\n\n<div class=\"checkbox\">\n<label for=\"strPdf\"><input type=\"checkbox\" name=\"formatsent\" id=\"strPdf\" value=\"pdf\" required=\"required\">PDF (Portable Document Format) electronic file sent to you by email</label>\n</div>\n\n<div class=\"checkbox\">\n<label for=\"strText\"><input type=\"checkbox\" name=\"formatsent\" id=\"strText\" value=\"text\">RTF (Rich Text Format) electronic file sent to you by email</label>\n</div>\n\n<div class=\"checkbox\">\n<label for=\"strBraille\"><input type=\"checkbox\" name=\"formatsent\" id=\"strBraille\" value=\"braille\">Braille copy sent to you by mail</label>\n</div>\n\n<div class=\"checkbox\">\n<label for=\"strPaper\"><input type=\"checkbox\" name=\"formatsent\" id=\"strPaper\" value=\"paper\">Paper copy sent to you by mail</label>\n</div>\n\n</fieldset>\t\n\n<fieldset class=\"mrgn-tp-md mrgn-bttm-lg\">\t\t\n\n<legend class=\"field-name\">Your contact information</legend>\n\n<label class=\"keyValue\" for=\"name\"></label>\n<input class=\"keyValue\" autocomplete=\"off\" type=\"text\" id=\"name\" name=\"name\">\n<label class=\"keyValue\" for=\"email\"></label>\n<input class=\"keyValue\" autocomplete=\"off\" type=\"email\" id=\"email\" name=\"email\"> \n\n<div class=\"form-group\">\n<label for=\"strFirstName\" class=\"required col-md-4 control-label\"><span class=\"field-name\">First name:</span> <strong class=\"required\">(required)</strong></label>\n<div class=\"col-md-8\">\n<input class=\"form-control\" id=\"strFirstName\" name=\"strFirstName\" type=\"text\" required=\"required\" pattern=\".{2,}\" data-rule-minlength=\"2\">\n</div>\n</div>\n            \n<div class=\"form-group\">\n<label for=\"strLastName\" class=\"required col-md-4 control-label\"><span class=\"field-name\">Last name:</span> <strong class=\"required\">(required)</strong></label>\n<div class=\"col-md-8\">\n<input class=\"form-control\" id=\"strLastName\" name=\"strLastName\" type=\"text\" required=\"required\" pattern=\".{2,}\" data-rule-minlength=\"2\">\n</div>\n</div>\n\n<div class=\"form-group\">\n<label for=\"strEmail\" class=\"required col-md-4 control-label\"><span class=\"field-name\">Email address:</span>  <strong class=\"required\">(required)</strong></label>\n<div class=\"col-md-8\">\n<input class=\"form-control\" id=\"strEmail\" name=\"strEmail\" type=\"email\" required=\"required\">\n</div>\n</div>\n\n<div class=\"form-group\">\n<label for=\"strConfirmEmail\" class=\"required col-md-4 control-label\"><span class=\"field-name\">Confirm email address:</span>  <strong class=\"required\">(required)</strong></label>\n<div class=\"col-md-8\">\n<input class=\"form-control\" id=\"strConfirmEmail\" name=\"strConfirmEmail\" type=\"email\" data-rule-equalto=\"#strEmail\" required=\"required\">\n</div>\n</div>\n\n<div class=\"form-group mrgn-tp-md\">\n<label for=\"lstdescribe\" class=\"required col-md-4 control-label\"><span class=\"field-name\">How would you describe yourself?</span> <strong class=\"required\">(required)</strong></label>\n<div class=\"col-md-8\">\n<select class=\"form-control\" id=\"lstdescribe\" name=\"lstdescribe\" required=\"required\">\n<option label=\"Select from this list\"></option>\n<option value=\"Academia\">Academia</option>\n<option value=\"Consumer Association\">Consumer Association</option>\n<option value=\"Consumer/General Public\">Consumer / General Public</option>\n<option value=\"Industry Association\">Industry Association</option>\n<option value=\"Industry/Commercial Sector\">Industry / Commercial Sector</option>\n<option value=\"Other Government Departments\">Other Government Departments</option>\t\t\t\n</select>\n</div>\n</div>\t\n\n<div class=\"form-group\">\n<label for=\"strAddress1\" class=\"col-md-4 control-label\"><span class=\"field-name\">Address 1:</span></label>\n<div class=\"col-md-8\">\n<input class=\"form-control\" id=\"strAddress1\" name=\"strAddress1\" type=\"text\">\n</div>\n</div>\n\n<div class=\"form-group\">\n<label for=\"strAddress2\" class=\"col-md-4 control-label\"><span class=\"field-name\">Address 2:</span></label>\n<div class=\"col-md-8\">\n<input class=\"form-control\" id=\"strAddress2\" name=\"strAddress2\" type=\"text\">\n</div>\n</div>\n\n<div class=\"form-group\">\n<label for=\"strCity\" class=\"col-md-4 control-label\"><span class=\"field-name\">City:</span></label>\n<div class=\"col-md-8\">\n<input class=\"form-control\" id=\"strCity\" name=\"strCity\" type=\"text\">\n</div>\n</div>\n\n<div class=\"form-group\">\n<label for=\"strProvince\" class=\"col-md-4 control-label\"><span class=\"field-name\">Province:</span></label>\n<div class=\"col-md-8\">\n<input class=\"form-control\" id=\"strProvince\" name=\"strProvince\" type=\"text\">\n</div>\n</div>\n\n<div class=\"form-group\">\n<label for=\"strCountry\" class=\"col-md-4 control-label\"><span class=\"field-name\">Country:</span></label>\n<div class=\"col-md-8\">\n<input class=\"form-control\" id=\"strCountry\" name=\"strCountry\" type=\"text\">\n</div>\n</div>\n\n<div class=\"form-group\">\n<label for=\"strPostal\" class=\"col-md-4 control-label\"><span class=\"field-name\">Postal Code:</span></label>\n<div class=\"col-md-8\">\n<input class=\"form-control\" id=\"strPostal\" name=\"strPostal\" type=\"text\">\n</div>\n</div>\n\n</fieldset>\t\n\n<input value=\"Submit Your Request\" id=\"btnSubmit\" name=\"btnSubmit\" class=\"btn btn-primary\" type=\"submit\"> \n<input value=\"Clear All Information\" id=\"btnReset\" name=\"btnReset\" class=\"btn btn-default\" type=\"reset\">\n\n</form>\n</div>\n<script src=\"https://ajax.googleapis.com/ajax/libs/jquery/2.1.1/jquery.min.js\"></script>\n<script type=\"text/javascript\">\n$(document).ready (function(){\n\tif($(\"#strPaper\").checked || $(\"#strBraille\").checked)\n\t{\n\t\tPaperBrailleChecked();\n\t}\n});\n\n$(document).on(\"change\", \"#strBraille\", function(){\n\tif($(\"#strBraille\").is(\":checked\"))\n\t{\n\t\tPaperBrailleChecked();\n\t}\n\telse if(!($(\"#strPaper\").is(\":checked\")))\n\t{\n\t\tPaperBrailleUnChecked();\n\t}\n});\n\n$(document).on(\"change\", \"#strPaper\", function(){\n\tif($(\"#strPaper\").is(\":checked\"))\n\t{\n\t\tPaperBrailleChecked();\n\t}\n\telse if(!($(\"#strBraille\").is(\":checked\")))\n\t{\n\t\tPaperBrailleUnChecked();\n\t}\n});\n\nfunction PaperBrailleChecked()\n{\n\t$(\"#strAddress1\").attr(\"required\", \"true\");\n\t$(\"#strCity\").attr(\"required\", \"true\");\n\t$(\"#strProvince\").attr(\"required\", \"true\");\n\t$(\"#strCountry\").attr(\"required\", \"true\");\n\t$(\"#strPostal\").attr(\"required\", \"true\");\n}\n\nfunction PaperBrailleUnChecked()\n{\n\t$(\"#strAddress1\").removeAttr(\"required\");\n\t$(\"#strCity\").removeAttr(\"required\");\n\t$(\"#strProvince\").removeAttr(\"required\");\n\t$(\"#strCountry\").removeAttr(\"required\");\n\t$(\"#strPostal\").removeAttr(\"required\");\n}\n</script>\r\n\r\n\r\n\r\n<div class=\"row\">\r\n \r\n\t\r\n\t\t\t\r\n\r\n<div class=\"col-xm-12 pagedetails container\">\r\n\t\t\t\t\r\n\r\n</div>\r\n\t\r\n</div>",
        "fr": "\r\n        \r\n        \n<h2>R\u00e9sum\u00e9</h2>\n\n<p>L'agence canadienne d'inspection des aliments (ACIA) se sert d'enqu\u00eates cibl\u00e9es afin de concentrer ses activit\u00e9s de surveillance dans les domaines pr\u00e9sentant les risques les plus \u00e9lev\u00e9s. Les donn\u00e9es recueillies gr\u00e2ce \u00e0 ces enqu\u00eates permettent \u00e0 l'Agence d'\u00e9tablir ses priorit\u00e9s en mati\u00e8re d'activit\u00e9s afin de cibler les domaines qui suscitent le plus de pr\u00e9occupations et d'avoir des preuves scientifiques pour r\u00e9soudre des questions moins pr\u00e9occupantes. Ces enqu\u00eates cibl\u00e9es, men\u00e9es \u00e0 l'origine dans le cadre du Plan d'action pour assurer la s\u00e9curit\u00e9 des produits alimentaires (PAASPA), font partie des activit\u00e9s de surveillance r\u00e9guli\u00e8res de l'<abbr title=\"Agence canadienne d'inspection des aliments\">ACIA</abbr> et constituent un outil pr\u00e9cieux gr\u00e2ce auquel il est possible de recueillir des donn\u00e9es essentielles sur certains risques d'origine alimentaire, d'identifier / de caract\u00e9riser les risques nouveaux et \u00e9mergents, de guider l'analyse des tendances, de susciter / de raffiner les \u00e9valuations du risque sur la sant\u00e9 humaine, d'\u00e9valuer la conformit\u00e9 aux r\u00e8glements canadiens, de mettre en lumi\u00e8re des probl\u00e8mes potentiels de contamination et de promouvoir la conformit\u00e9.</p>\n\n<p>Les principaux objectifs de cette enqu\u00eate cibl\u00e9e \u00e9taient les suivants\u00a0:</p>\n\n<ul>\n<li>g\u00e9n\u00e9rer des donn\u00e9es de surveillance de base sur les concentrations d'aflatoxines dans des produits choisis nationaux et import\u00e9s, c'est-\u00e0-dire les produits de ma\u00efs, les noix et les beurres de noix, les fruits s\u00e9ch\u00e9s, la poudre de cacao, le pain, les c\u00e9r\u00e9ales de petit-d\u00e9jeuner et pour nourrissons ainsi que les \u00e9pices en poudre vendus sur le march\u00e9 de d\u00e9tail au Canada;</li>\n\n<li>comparer les niveaux d'aflatoxines indiqu\u00e9s par ces r\u00e9sultats avec d'autres donn\u00e9es canadiennes et \u00e9trang\u00e8res sur les aflatoxines, lorsque cela est possible.</li>\n</ul>\n\n<p>Les aflatoxines appartiennent \u00e0 une famille de mycotoxines (m\u00e9tabolites secondaires toxiques d'origine naturelle) produites par les champignons <i lang=\"la\">Aspergillus</i>. Les conditions chaudes et humides de m\u00eame que les dommages caus\u00e9s par les parasites pendant la croissance ou la conservation de la plante peuvent favoriser la formation de champignons qui produisent des aflatoxines, et donc la pr\u00e9sence d'aflatoxines dans les aliments. Il est reconnu que les aflatoxines peuvent \u00eatre pr\u00e9sentes dans le ma\u00efs et les produits du ma\u00efs, les noix et les produits de noix, les fruits s\u00e9ch\u00e9s, les grains et les \u00e9pices. L'exposition \u00e0 court terme \u00e0 une concentration importante d'aflatoxines peut causer, chez les humains, l'aflatoxicose, une maladie qui peut entra\u00eener des vomissements, des douleurs abdominales, des convulsions, un coma et m\u00eame la mort. L'aflatoxicose est tr\u00e8s rare dans les pays industrialis\u00e9s. L'exposition chronique ou \u00e0 long terme \u00e0 une concentration importante d'aflatoxines a \u00e9t\u00e9 associ\u00e9e \u00e0 de nombreux effets sur la sant\u00e9 humaine, y compris l'augmentation du risque de d\u00e9velopper le cancer du foie.</p>\n\n<p>L'enqu\u00eate sur les aflatoxines r\u00e9alis\u00e9e par l'<abbr title=\"Agence canadienne d'inspection des aliments\">ACIA</abbr> en 2013-2014 visait des produits nationaux et import\u00e9s, et plus pr\u00e9cis\u00e9ment les produits de ma\u00efs, les noix et les beurres de noix, la poudre de cacao, les \u00e9pices en poudre, le pain et les c\u00e9r\u00e9ales de petit-d\u00e9jeuner et pour nourrissons, et les fruits s\u00e9ch\u00e9s. Au total, 969 \u00e9chantillons ont \u00e9t\u00e9 pr\u00e9lev\u00e9s dans des magasins de d\u00e9tail de 6 villes canadiennes entre juillet\u00a02013 et mars\u00a02014. Les \u00e9chantillons recueillis comprenaient 238 noix et beurres de noix, 228 produits de ma\u00efs (<abbr title=\"par example\" class=\"nowrap\">p. ex.</abbr> les tacos de ma\u00efs et les croustilles de ma\u00efs), 148 c\u00e9r\u00e9ales de petit-d\u00e9jeuner et pour nourrissons, 115 pains, 97 fruits s\u00e9ch\u00e9s, 94 \u00e9pices en poudre et 49 poudres de cacao. Les \u00e9chantillons ont \u00e9t\u00e9 analys\u00e9s au moyen d'une m\u00e9thode multianalytes permettant de d\u00e9tecter les formes B1, B2, G1 et G2 de l'aflatoxine. La plupart des \u00e9chantillons (94,7\u00a0%) ne contenaient pas de concentration d\u00e9tectable d'aflatoxines. Les concentrations totales d'aflatoxines dans les \u00e9chantillons restants allaient de 1,0 partie par milliard (ppb) \u00e0 <span class=\"nowrap\">72,2 <abbr title=\"parties par milliard\">ppb</abbr></span>.</p>\n\n<p>De fa\u00e7on g\u00e9n\u00e9rale, les concentrations d'aflatoxines signal\u00e9es dans l'actuelle enqu\u00eate cibl\u00e9e concordaient avec les r\u00e9sultats des analyses de produits similaires r\u00e9alis\u00e9es lors d'enqu\u00eates pr\u00e9c\u00e9dentes de l'<abbr title=\"Agence canadienne d'inspection des aliments\">ACIA</abbr>. Bien qu'une \u00e9tude r\u00e9alis\u00e9e au Royaume-Uni ait d\u00e9tect\u00e9 dans le paprika des concentrations moyennes et maximales d'aflatoxines inf\u00e9rieures par rapport \u00e0 l'\u00e9tude actuelle de l'<abbr title=\"Agence canadienne d'inspection des aliments\">ACIA</abbr>, les donn\u00e9es demeurent n\u00e9anmoins quelque peu comparables, tout comme les donn\u00e9es relatives aux raisins secs. Dans les \u00e9tudes de l'<abbr title=\"Agence canadienne d'inspection des aliments\">ACIA</abbr>, 0-1\u00a0% des \u00e9chantillons de raisins secs analys\u00e9s ne pr\u00e9sentait des concentrations d\u00e9tectables d'aflatoxines, tandis qu'une \u00e9tude men\u00e9e en Iran a montr\u00e9 que 8\u00a0% des \u00e9chantillons \u00e9taient positifs aux aflatoxines.</p>\n\n<p>Le <i>R\u00e8glement sur les aliments et drogues</i> du Canada sp\u00e9cifie une tol\u00e9rance de 15 <abbr title=\"microgrammes par kilogramme\">\u00b5g/kg</abbr> (<abbr title=\"parties par milliard\">ppb</abbr>) comme concentration totale d'aflatoxines dans les noix et les produits de noix. Tous les \u00e9chantillons de noix et de beurres de noix sauf un (99,6\u00a0%) \u00e9taient conformes \u00e0 ce r\u00e8glement. Actuellement, il n'y a au Canada aucun r\u00e8glement r\u00e9gissant les concentrations d'aflatoxines dans les autres produits analys\u00e9s, de sorte qu'il n'a pas \u00e9t\u00e9 possible d'\u00e9valuer la conformit\u00e9 \u00e0 une norme num\u00e9rique. Sant\u00e9 Canada a examin\u00e9 toutes les donn\u00e9es et d\u00e9termin\u00e9 qu'aucun des \u00e9chantillons, y compris l'\u00e9chantillon de produits de noix d\u00e9passant la tol\u00e9rance, ne pr\u00e9sentaient une pr\u00e9occupation pour la sant\u00e9 humaine. Aucun rappel de produit n'a \u00e9t\u00e9 justifi\u00e9 compte tenu de l'absence de pr\u00e9occupation pour la sant\u00e9.</p>\n\n<p>L'<abbr title=\"Agence canadienne d'inspection des aliments\">ACIA</abbr> poursuivra ses activit\u00e9s de surveillance et communiquera ses observations aux Canadiens et aux intervenants.</p>\r\n<style>\n/* required style */\n    .keyValue{\n\tdisplay: none !important;\n        visibility: hidden !important;\n</style>\n<h2>Demande de rapport complet</h2>\n<p>La version int\u00e9grale du pr\u00e9sent rapport est disponible sur demande.</p>\n\n<div class=\"wb-frmvld\">\n\n<form class=\"form-horizontal\" role=\"form\" method=\"post\" action=\"/active/netapp/comment/publicationposte.aspx#wb-cont\" name=\"frmPublication\">\n\n<input id=\"emailad0\" name=\"to\" class=\"hidden\" type=\"hidden\" aria-hidden=\"true\" value=\"hCDsiP0+zuT0obP15EEwT89071BR77lwy8lUnTDKk8eF//fFXlBWEuwasNltmXlk\">\n<input name=\"strLang\" type=\"hidden\" value=\"Francais\">\n<input name=\"strSubject\" type=\"hidden\" value=\"Demande de rapport de r\u00e9sidus chimiques / microbiologie\">\n<input name=\"strTitle\" type=\"hidden\" value=\"title\">\n<input name=\"strUrl\" type=\"hidden\" value=\"url\">\n<script type=\"text/javascript\">\n    document.frmPublication.strTitle.value = document.getElementsByTagName(\"title\")[0].innerHTML;\n    document.frmPublication.strUrl.value = document.URL;\n</script>\n        \n<fieldset class=\"mrgn-tp-md mrgn-bttm-lg\">\t\t\n\n<legend class=\"field-name required\"><span class=\"field-name\">Le format dans lequel vous souhaitez recevoir le rapport</span> <strong class=\"required\">(obligatoire)</strong></legend>\n\n<div class=\"checkbox\">\n<label for=\"strPdf\"><input type=\"checkbox\" name=\"formatsent\" id=\"strPdf\" value=\"pdf\" required=\"required\">Fichier \u00e9lectronique PDF (format de document portable) envoy\u00e9 par courriel</label>\n</div>\n\n<div class=\"checkbox\">\n<label for=\"strText\"><input type=\"checkbox\" name=\"formatsent\" id=\"strText\" value=\"text\">Fichier \u00e9lectronique RTF (<span lang=\"en\">Rich Text Format</span>) envoy\u00e9 par courriel</label>\n</div>\n\n<div class=\"checkbox\">\n<label for=\"strBraille\"><input type=\"checkbox\" name=\"formatsent\" id=\"strBraille\" value=\"braille\">Copie braille envoy\u00e9e par la poste</label>\n</div>\n\n<div class=\"checkbox\">\n<label for=\"strPaper\"><input type=\"checkbox\" name=\"formatsent\" id=\"strPaper\" value=\"paper\">Copie papier envoy\u00e9e par la poste</label>\n</div>\n\n</fieldset>\t\n\n<fieldset class=\"mrgn-tp-md mrgn-bttm-lg\">\t\t\n\n<legend class=\"field-name\">Vos coordonn\u00e9es</legend>\n\n<label class=\"keyValue\" for=\"name\"></label>\n<input class=\"keyValue\" autocomplete=\"off\" type=\"text\" id=\"name\" name=\"name\">\n<label class=\"keyValue\" for=\"email\"></label>\n<input class=\"keyValue\" autocomplete=\"off\" type=\"email\" id=\"email\" name=\"email\"> \n\n<div class=\"form-group\">\n<label for=\"strFirstName\" class=\"required col-md-4 control-label\"><span class=\"field-name\">Pr\u00e9nom :</span> <strong class=\"required\">(obligatoire)</strong></label>\n<div class=\"col-md-8\">\n<input class=\"form-control\" id=\"strFirstName\" name=\"strFirstName\" type=\"text\" required=\"required\" pattern=\".{2,}\" data-rule-minlength=\"2\">\n</div>\n</div>\n            \n<div class=\"form-group\">\n<label for=\"strLastName\" class=\"required col-md-4 control-label\"><span class=\"field-name\">Nom :</span> <strong class=\"required\">(obligatoire)</strong></label>\n<div class=\"col-md-8\">\n<input class=\"form-control\" id=\"strLastName\" name=\"strLastName\" type=\"text\" required=\"required\" pattern=\".{2,}\" data-rule-minlength=\"2\">\n</div>\n</div>\n\n<div class=\"form-group\">\n<label for=\"strEmail\" class=\"required col-md-4 control-label\"><span class=\"field-name\">Adresse de courriel :</span> \u00a0<strong class=\"required\">(obligatoire)</strong></label>\n<div class=\"col-md-8\">\n<input class=\"form-control\" id=\"strEmail\" name=\"strEmail\" type=\"email\" required=\"required\">\n</div>\n</div>\n\n<div class=\"form-group\">\n<label for=\"strConfirmEmail\" class=\"required col-md-4 control-label\"><span class=\"field-name\">Confirmer Adresse de courriel :</span>  <strong class=\"required\">(obligatoire)</strong></label>\n<div class=\"col-md-8\">\n<input class=\"form-control\" id=\"strConfirmEmail\" name=\"strConfirmEmail\" type=\"email\" data-rule-equalto=\"#strEmail\" required=\"required\">\n</div>\n</div>\n\n<div class=\"form-group mrgn-tp-md\">\n<label for=\"lstdescribe\" class=\"required col-md-4 control-label\"><span class=\"field-name\">Comment vous vous d\u00e9criviez?</span> <strong class=\"required\">(obligatoire)</strong></label>\n<div class=\"col-md-8\">\n<select class=\"form-control\" id=\"lstdescribe\" name=\"lstdescribe\" required=\"required\">\n<option label=\"Choisir parmi la liste\"></option>\n<option value=\"Acad\u00e9mie\">Acad\u00e9mie</option>\n<option value=\"Association sectorielle\">Association sectorielle</option>  \n<option value=\"Autres institutions du gouvernement\">Autres institutions du gouvernement</option>\n<option value=\"Consommateur/Grand public\">Consommateur / Grand public</option>\n<option value=\"Groupe de consommateur\">Groupe de consommateur</option>\n<option value=\"Industrie/Secteur commercial\">Industrie / Secteur commercial</option>\n</select>\n</div>\n</div>\t\n\n<div class=\"form-group\">\n<label for=\"strAddress1\" class=\"col-md-4 control-label\"><span class=\"field-name\">Adresse 1 :</span></label>\n<div class=\"col-md-8\">\n<input class=\"form-control\" id=\"strAddress1\" name=\"strAddress1\" type=\"text\">\n</div>\n</div>\n\n<div class=\"form-group\">\n<label for=\"strAddress2\" class=\"col-md-4 control-label\"><span class=\"field-name\">Adresse 2 :</span></label>\n<div class=\"col-md-8\">\n<input class=\"form-control\" id=\"strAddress2\" name=\"strAddress2\" type=\"text\">\n</div>\n</div>\n\n<div class=\"form-group\">\n<label for=\"strCity\" class=\"col-md-4 control-label\"><span class=\"field-name\">Ville :</span></label>\n<div class=\"col-md-8\">\n<input class=\"form-control\" id=\"strCity\" name=\"strCity\" type=\"text\">\n</div>\n</div>\n\n<div class=\"form-group\">\n<label for=\"strProvince\" class=\"col-md-4 control-label\"><span class=\"field-name\">Province :</span></label>\n<div class=\"col-md-8\">\n<input class=\"form-control\" id=\"strProvince\" name=\"strProvince\" type=\"text\">\n</div>\n</div>\n\n<div class=\"form-group\">\n<label for=\"strCountry\" class=\"col-md-4 control-label\"><span class=\"field-name\">Pays : </span></label>\n<div class=\"col-md-8\">\n<input class=\"form-control\" id=\"strCountry\" name=\"strCountry\" type=\"text\">\n</div>\n</div>\n\n<div class=\"form-group\">\n<label for=\"strPostal\" class=\"col-md-4 control-label\"><span class=\"field-name\">Code postal : </span></label>\n<div class=\"col-md-8\">\n<input class=\"form-control\" id=\"strPostal\" name=\"strPostal\" type=\"text\">\n</div>\n</div>\n\n</fieldset>\t\n\n<input value=\"Soumettre votre demande\" id=\"btnSubmit\" name=\"btnSubmit\" class=\"btn btn-primary\" type=\"submit\"> \n<input value=\"Effacez tous les renseignements\" id=\"btnReset\" name=\"btnReset\" class=\"btn btn-default\" type=\"reset\">\n\n</form>\n</div>\n<script src=\"https://ajax.googleapis.com/ajax/libs/jquery/2.1.1/jquery.min.js\"></script>\n<script type=\"text/javascript\">\n$(document).ready (function(){\n\tif($(\"#strPaper\").checked || $(\"#strBraille\").checked)\n\t{\n\t\tPaperBrailleChecked();\n\t}\n});\n\n$(document).on(\"change\", \"#strBraille\", function(){\n\tif($(\"#strBraille\").is(\":checked\"))\n\t{\n\t\tPaperBrailleChecked();\n\t}\n\telse if(!($(\"#strPaper\").is(\":checked\")))\n\t{\n\t\tPaperBrailleUnChecked();\n\t}\n});\n\n$(document).on(\"change\", \"#strPaper\", function(){\n\tif($(\"#strPaper\").is(\":checked\"))\n\t{\n\t\tPaperBrailleChecked();\n\t}\n\telse if(!($(\"#strBraille\").is(\":checked\")))\n\t{\n\t\tPaperBrailleUnChecked();\n\t}\n});\n\nfunction PaperBrailleChecked()\n{\n\t$(\"#strAddress1\").attr(\"required\", \"true\");\n\t$(\"#strCity\").attr(\"required\", \"true\");\n\t$(\"#strProvince\").attr(\"required\", \"true\");\n\t$(\"#strCountry\").attr(\"required\", \"true\");\n\t$(\"#strPostal\").attr(\"required\", \"true\");\n}\n\nfunction PaperBrailleUnChecked()\n{\n\t$(\"#strAddress1\").removeAttr(\"required\");\n\t$(\"#strCity\").removeAttr(\"required\");\n\t$(\"#strProvince\").removeAttr(\"required\");\n\t$(\"#strCountry\").removeAttr(\"required\");\n\t$(\"#strPostal\").removeAttr(\"required\");\n}\n</script>\r\n\r\n<div class=\"row\">\r\n \r\n\t\t\t\r\n\t\t\t\r\n\r\n\t\t\r\n\t\r\n</div>"
    },
    "success": true,
    "chat_wizard": false
}