{
    "dcr_id": "1515506841473",
    "lang": "en",
    "type_name": "intra-intra/news-nouv",
    "created": "2018-01-11 00:00:00.0",
    "expirydate": "2018-01-18 00:00:00.0",
    "news_category_type_id": "1308334182981"
}