{
    "dcr_id": "1515596622149",
    "lang": "en",
    "type_name": "intra-intra/news-nouv",
    "created": "2018-01-10 00:00:00.0",
    "expirydate": "2018-01-18 00:00:00.0",
    "news_category_type_id": "1508942999196"
}