{
    "dcr_id": "1518622039490",
    "lang": "en",
    "type_name": "intra-intra/news-nouv",
    "created": "2018-02-14 00:00:00.0",
    "expirydate": "2018-02-22 00:00:00.0",
    "news_category_type_id": "1308334182983"
}