{
    "dcr_id": "1538680279070",
    "lang": "en",
    "type_name": "intra-intra/news-nouv",
    "created": "2018-10-11 00:00:00.0",
    "expirydate": "2018-10-20 00:00:00.0",
    "news_category_type_id": "1379951494338"
}