{
    "dcr_id": "1545145499662",
    "lang": "en",
    "type_name": "intra-intra/news-nouv",
    "created": "2018-12-17 00:00:00.0",
    "expirydate": "2018-12-27 00:00:00.0",
    "news_category_type_id": "1308325693175"
}