{
    "dcr_id": "1553177517343",
    "lang": "en",
    "type_name": "intra-intra/news-nouv",
    "created": "2019-03-21 00:00:00.0",
    "expirydate": "2019-03-28 00:00:00.0",
    "news_category_type_id": "1308334182983"
}