{
    "dcr_id": "1554307929260",
    "lang": "en",
    "type_name": "intra-intra/news-nouv",
    "created": "2019-04-04 00:00:00.0",
    "expirydate": "2019-04-08 00:00:00.0",
    "news_category_type_id": "1308334182982"
}