{
    "dcr_id": "1559674417119",
    "lang": "en",
    "type_name": "intra-intra/news-nouv",
    "created": "2019-06-05 00:00:00.0",
    "expirydate": "2019-06-13 00:00:00.0",
    "news_category_type_id": "1308334182983"
}