{
    "dcr_id": "1563373564163",
    "lang": "en",
    "type_name": "intra-intra/news-nouv",
    "created": "2019-07-18 00:00:00.0",
    "expirydate": "2019-08-01 00:00:00.0",
    "news_category_type_id": "1308334182981"
}