{
    "dcr_id": "1574707802085",
    "lang": "en",
    "type_name": "intra-intra/news-nouv",
    "created": "2019-11-27 00:00:00.0",
    "expirydate": "2019-12-05 00:00:00.0",
    "news_category_type_id": "1308325693175"
}