{
    "dcr_id": "1583265983791",
    "lang": "en",
    "type_name": "intra-intra/news-nouv",
    "created": "2020-03-03 00:00:00.0",
    "expirydate": "2020-03-12 00:00:00.0",
    "news_category_type_id": "1308325693175"
}