{
    "dcr_id": "1588355207186",
    "lang": "en",
    "type_name": "intra-intra/news-nouv",
    "created": "2020-05-01 00:00:00.0",
    "expirydate": "2020-05-08 00:00:00.0",
    "news_category_type_id": "1308334182983"
}