{
    "dcr_id": "1348073248340",
    "title": {
        "en": "2010-2011 Ochratoxin A and Deoxynivalenol in Selected Foods",
        "fr": "2010-2011 Ochratoxine A et d\u00e9soxynival\u00e9nol dans les aliments s\u00e9lectionn\u00e9s"
    },
    "html_modified": "5-6-2018",
    "modified": "4-9-2018",
    "issued": "19-9-2012",
    "teamsite_location": {
        "en": "/default/main/inspection/cont-cont/food-aliments/WORKAREA/food-aliments/templatedata/comn-comn/forms-formes/data/chem_residue_reports_2010-2011_ochratoxin_1348073248340_eng",
        "fr": "/default/main/inspection/cont-cont/food-aliments/WORKAREA/food-aliments/templatedata/comn-comn/forms-formes/data/chem_residue_reports_2010-2011_ochratoxin_1348073248340_fra"
    },
    "parent_ia_id": "1453327843364",
    "ia_id": "1348074414907",
    "parent_node_id": null,
    "layout_name": "content page 1 column",
    "breadcrumb": {
        "en": "2010-2011 Ochratoxin A and Deoxynivalenol in Selected Foods",
        "fr": "2010-2011 Ochratoxine A et d\u00e9soxynival\u00e9nol dans les aliments s\u00e9lectionn\u00e9s"
    },
    "label": {
        "en": "2010-2011 Ochratoxin A and Deoxynivalenol in Selected Foods",
        "fr": "2010-2011 Ochratoxine A et d\u00e9soxynival\u00e9nol dans les aliments s\u00e9lectionn\u00e9s"
    },
    "templatetype": "content page 1 column",
    "node_id": "1348074414907",
    "managing_branch": "comn",
    "type_name": "forms-formes",
    "parent_dcr_id": "1453324778043",
    "has_dcr_id": true,
    "lang": "en",
    "could_not_load": 0,
    "refaire": false,
    "interwoven_url": {
        "en": "/food-safety-for-industry/food-chemistry-and-microbiology/food-safety-testing-reports-and-journal-articles/2010-2011-ochratoxin-a-and-deoxynivalenol/",
        "fr": "/salubrite-alimentaire-pour-l-industrie/chimie-et-microbiologie-alimentaires/rapports-d-analyse-et-articles-de-revues-sur-la-sa/2010-2011-ochratoxine-a-et-desoxynivalenol/"
    },
    "meta": {
        "viewport": {
            "en": "width=device-width,initial-scale=1",
            "fr": "width=device-width,initial-scale=1"
        },
        "service": {
            "en": "CFIA-ACIA",
            "fr": "CFIA-ACIA"
        },
        "accessRights": {
            "en": "2",
            "fr": "2"
        },
        "title": {
            "en": "2010-2011 Ochratoxin A and Deoxynivalenol in Selected Foods",
            "fr": "2010-2011 Ochratoxine A et d\u00e9soxynival\u00e9nol dans les aliments s\u00e9lectionn\u00e9s"
        },
        "description": {
            "en": "Contamination of foods (such as grains and fruit) with these toxins may occur in the field (DON) or during storage of the raw commodities (OTA). As OTA and DON are resistant to heat, processing the affected grains/fruit may not completely remove these toxins, which could result in detectable levels in finished or manufactured food products.",
            "fr": "La contamination des aliments (comme les c\u00e9r\u00e9ales et les fruits) par ces toxines peut avoir lieu dans le champ (DON) ou durant l'entreposage des produits crus (OTA). Comme l'OTA et le DON r\u00e9sistent \u00e0 la chaleur, le traitement des c\u00e9r\u00e9ales ou des fruits touch\u00e9s peut ne pas \u00e9liminer compl\u00e8tement ces toxines, qui se retrouvent alors \u00e0 des concentrations d\u00e9tectables dans les produits alimentaires finis ou manufactur\u00e9s"
        },
        "keywords": {
            "en": "chemical residues, testing, sampling, reporting, ochratoxin A, deoxynivalenol, wheat products, corn products, oat products, infant cereals",
            "fr": "R\u00e9sidus chimiques, essai, pr\u00e9l\u00e8vement, \u00a0rapports, ochratoxine A, d\u00e9soxynival\u00e9nol, produits du bl\u00e9, c\u00e9r\u00e9ales pour nourrissons, produits du ma\u00efs, produits de l?avoine"
        },
        "dcterms.subject": {
            "en": "crops,assessment,fruits,grains,inspection,food inspection,agri-food products,scientific research,food safety",
            "fr": "cultures,\u00e9valuation,fruit,grain,inspection,inspection des aliments,produit agro-alimentaire,recherche scientifique,salubrit\u00e9 des aliments"
        },
        "creator": {
            "en": "Government of Canada,Canadian Food Inspection Agency",
            "fr": "Gouvernement du Canada,Agence canadienne d'inspection des aliments"
        },
        "language": {
            "en": "eng",
            "fr": "fra"
        },
        "issued": {
            "en": "2018-06-05",
            "fr": "2018-06-05"
        },
        "modified": {
            "en": "2018-09-04",
            "fr": "2018-09-04"
        },
        "type": {
            "en": "reference material,report",
            "fr": "mat\u00e9riel de r\u00e9f\u00e9rence,rapport"
        },
        "audience": {
            "en": "business,government,general public,scientists",
            "fr": "entreprises,gouvernement,grand public,Scientifiques"
        },
        "name": {
            "en": "Government of Canada",
            "fr": "Gouvernement du Canada"
        },
        "areaServed": {
            "en": "Canada",
            "fr": "Canada"
        }
    },
    "h1": {
        "en": "2010-2011 Ochratoxin A and Deoxynivalenol in Selected Foods",
        "fr": "2010-2011 Ochratoxine A et d\u00e9soxynival\u00e9nol dans les aliments s\u00e9lectionn\u00e9s"
    },
    "js": {
        "en": "<script>\n    document.frmPublication.strTitle.value = document.getElementsByTagName(\"title\")[0].innerHTML;\n    document.frmPublication.strUrl.value = document.URL;\n</script>/* --------------------- MORE JAVASCRIPT ------------------- */<script>\n$(document).ready (function(){\n\tif($(\"#strPaper\").checked || $(\"#strBraille\").checked)\n\t{\n\t\tPaperBrailleChecked();\n\t}\n});\n\n$(document).on(\"change\", \"#strBraille\", function(){\n\tif($(\"#strBraille\").is(\":checked\"))\n\t{\n\t\tPaperBrailleChecked();\n\t}\n\telse if(!($(\"#strPaper\").is(\":checked\")))\n\t{\n\t\tPaperBrailleUnChecked();\n\t}\n});\n\n$(document).on(\"change\", \"#strPaper\", function(){\n\tif($(\"#strPaper\").is(\":checked\"))\n\t{\n\t\tPaperBrailleChecked();\n\t}\n\telse if(!($(\"#strBraille\").is(\":checked\")))\n\t{\n\t\tPaperBrailleUnChecked();\n\t}\n});\n\nfunction PaperBrailleChecked()\n{\n\t$(\"#strAddress1\").attr(\"required\", \"true\");\n\t$(\"#strCity\").attr(\"required\", \"true\");\n\t$(\"#strProvince\").attr(\"required\", \"true\");\n\t$(\"#strCountry\").attr(\"required\", \"true\");\n\t$(\"#strPostal\").attr(\"required\", \"true\");\n}\n\nfunction PaperBrailleUnChecked()\n{\n\t$(\"#strAddress1\").removeAttr(\"required\");\n\t$(\"#strCity\").removeAttr(\"required\");\n\t$(\"#strProvince\").removeAttr(\"required\");\n\t$(\"#strCountry\").removeAttr(\"required\");\n\t$(\"#strPostal\").removeAttr(\"required\");\n}\n</script>",
        "fr": "<script>\n    document.frmPublication.strTitle.value = document.getElementsByTagName(\"title\")[0].innerHTML;\n    document.frmPublication.strUrl.value = document.URL;\n</script>/* --------------------- MORE JAVASCRIPT ------------------- */<script>\n$(document).ready (function(){\n\tif($(\"#strPaper\").checked || $(\"#strBraille\").checked)\n\t{\n\t\tPaperBrailleChecked();\n\t}\n});\n\n$(document).on(\"change\", \"#strBraille\", function(){\n\tif($(\"#strBraille\").is(\":checked\"))\n\t{\n\t\tPaperBrailleChecked();\n\t}\n\telse if(!($(\"#strPaper\").is(\":checked\")))\n\t{\n\t\tPaperBrailleUnChecked();\n\t}\n});\n\n$(document).on(\"change\", \"#strPaper\", function(){\n\tif($(\"#strPaper\").is(\":checked\"))\n\t{\n\t\tPaperBrailleChecked();\n\t}\n\telse if(!($(\"#strBraille\").is(\":checked\")))\n\t{\n\t\tPaperBrailleUnChecked();\n\t}\n});\n\nfunction PaperBrailleChecked()\n{\n\t$(\"#strAddress1\").attr(\"required\", \"true\");\n\t$(\"#strCity\").attr(\"required\", \"true\");\n\t$(\"#strProvince\").attr(\"required\", \"true\");\n\t$(\"#strCountry\").attr(\"required\", \"true\");\n\t$(\"#strPostal\").attr(\"required\", \"true\");\n}\n\nfunction PaperBrailleUnChecked()\n{\n\t$(\"#strAddress1\").removeAttr(\"required\");\n\t$(\"#strCity\").removeAttr(\"required\");\n\t$(\"#strProvince\").removeAttr(\"required\");\n\t$(\"#strCountry\").removeAttr(\"required\");\n\t$(\"#strPostal\").removeAttr(\"required\");\n}\n</script>"
    },
    "mode_html": "no_editor_full",
    "body": {
        "en": "        \r\n        \n<h2>Summary</h2>\n<p>The Food Safety Action Plan (FSAP) aims to modernize and enhance Canada's food safety system. As part of the <abbr title=\"Food Safety Action Plan\">FSAP</abbr> enhanced surveillance initiative, targeted surveys are used to test various foods for specific hazards.</p>\n<p>This targeted survey focussed on two natural toxins, ochratoxin A (OTA) and deoxynivalenol (DON). Contamination of foods (such as grains and fruit) with these toxins may occur in the field (<abbr title=\"deoxynivalenol\">DON</abbr>) or during storage of the raw commodities (<abbr title=\"ochratoxin A\">OTA</abbr>). As <abbr title=\"ochratoxin A\">OTA</abbr> and <abbr title=\"deoxynivalenol\">DON</abbr> are resistant to heat, processing the affected grains/fruit may not completely remove these toxins, which could result in detectable levels in finished or manufactured food products. <abbr title=\"ochratoxin A\">OTA</abbr> has been classified as a possible human carcinogen by the International Agency for Research on Cancer. <abbr title=\"deoxynivalenol\">DON</abbr> is not carcinogenic but exposure to very high levels may cause immunosuppressive and gastrointestinal effects.</p>\n<p>The main objectives of this survey were to:</p>\n<ul>\n<li>Establish baseline surveillance data for <abbr title=\"ochratoxin A\">OTA</abbr> and <abbr title=\"deoxynivalenol\">DON</abbr> levels in infant formula, beverages (wine, beer), dried fruit, and grain products (wheat products, corn products, oat products, infant cereals, breakfast cereals)</li>\n<li>Obtain a snapshot of the <abbr title=\"ochratoxin A\">OTA</abbr> levels in these specific commodities relative to Health Canada's proposed maximum levels for <abbr title=\"ochratoxin A\">OTA</abbr></li>\n<li>Compare the prevalence of <abbr title=\"ochratoxin A\">OTA</abbr> and <abbr title=\"deoxynivalenol\">DON</abbr> in infant foods, beverages, and wheat, corn, and oat products found in 2009-2010 with that in 2010-2011</li>\n</ul>\n<p>A total of 943 samples were analyzed for the presence of <abbr title=\"ochratoxin A\">OTA</abbr> and <abbr title=\"deoxynivalenol\">DON</abbr>. These samples included 197\u00a0breakfast cereals, 139\u00a0wines, 130 beer, 98\u00a0infant formulae, 97\u00a0dried fruits, 96\u00a0wheat products (flour, bran, germ, cream of wheat), 93\u00a0infant cereals, 76\u00a0corn products (corn/tortilla chips, cornmeal, semolina), and 17\u00a0oat products (whole oats, oatmeal).</p>\n<p>Sixty-seven percent of the samples (628/943) did not contain detectable levels of <abbr title=\"ochratoxin A\">OTA</abbr>. The 315\u00a0remaining samples that were found to have detectable levels of <abbr title=\"ochratoxin A\">OTA</abbr> were from all classes of products included in this survey. <abbr title=\"ochratoxin A\">OTA</abbr> levels ranged from 0.040 ppb (parts per billion) to 6.773\u00a0<abbr title=\"parts per billion\">ppb</abbr>. Overall, 99.2% of the samples tested for <abbr title=\"ochratoxin A\">OTA</abbr> were below the Canadian maximum levels proposed for <abbr title=\"ochratoxin A\">OTA</abbr> by Health Canada. Five samples of infant cereal, one sample of breakfast cereal, one sample of wheat flour, and one sample of wheat germ exceeded the proposed maximum levels for <abbr title=\"ochratoxin A\">OTA</abbr>. The <abbr title=\"ochratoxin A\">OTA</abbr> levels in these eight samples were assessed and appropriate follow-up actions were initiated that reflected the magnitude of the human health concern.</p>\n<p>Less than half of the samples (388/943 or 41%) did not contain detectable levels of <abbr title=\"deoxynivalenol\">DON</abbr>. <abbr title=\"deoxynivalenol\">DON</abbr> was not detected in any of the wine or dried fruit samples. <abbr title=\"deoxynivalenol\">DON</abbr> levels ranged from 1\u00a0<abbr title=\"part per billion\">ppb</abbr> to 2060\u00a0<abbr title=\"parts per billion\">ppb</abbr>. There are no Canadian maximum levels established for <abbr title=\"deoxynivalenol\">DON</abbr> in finished products so compliance could not be evaluated. However, the levels of <abbr title=\"deoxynivalenol\">DON</abbr> considered elevated were reviewed, and appropriate follow-up actions were initiated that reflected the magnitude of the human health concern.</p>\r\n<style>\n/* required style */\n    .keyValue{\n\tdisplay: none !important;\n        visibility: hidden !important;\n</style>\n<h2>Request of Complete Report</h2>\n<p>The complete text of this report is available upon request.</p>\n\n<div class=\"wb-frmvld\">\n\n<form class=\"form-horizontal\" role=\"form\" method=\"post\" action=\"/active/netapp/comment/publicationposte.aspx#wb-cont\" name=\"frmPublication\">\n<input id=\"emailad0\" name=\"to\" class=\"hidden\" type=\"hidden\" aria-hidden=\"true\" value=\"KnAz7eZS6Oe9je9eJXtZEUrurRUCp5y/hgSb4gY0rC3QipnRhf2K8d8IOGEAD9EWDtutxQ+OVmQ8uKSNMAGfvzrBhlthCmMH3hqA8Ty9zVs=\">\n<input name=\"strLang\" type=\"hidden\" value=\"English\">\n<input name=\"strSubject\" type=\"hidden\" value=\"Chemical Residues / Microbiology Report Request\">\n<input name=\"strTitle\" type=\"hidden\" value=\"title\">\n<input name=\"strUrl\" type=\"hidden\" value=\"url\">\n<script type=\"text/javascript\">\n    document.frmPublication.strTitle.value = document.getElementsByTagName(\"title\")[0].innerHTML;\n    document.frmPublication.strUrl.value = document.URL;\n</script>\n        \n<fieldset class=\"mrgn-tp-md mrgn-bttm-lg\">\t\t\n\n<legend class=\"field-name required\"><span class=\"field-name\">The format in which you would like to receive the report</span> <strong class=\"required\">(required)</strong></legend>\n\n<div class=\"checkbox\">\n<label for=\"strPdf\"><input type=\"checkbox\" name=\"formatsent\" id=\"strPdf\" value=\"pdf\" required=\"required\">PDF (Portable Document Format) electronic file sent to you by email</label>\n</div>\n\n<div class=\"checkbox\">\n<label for=\"strText\"><input type=\"checkbox\" name=\"formatsent\" id=\"strText\" value=\"text\">RTF (Rich Text Format) electronic file sent to you by email</label>\n</div>\n\n<div class=\"checkbox\">\n<label for=\"strBraille\"><input type=\"checkbox\" name=\"formatsent\" id=\"strBraille\" value=\"braille\">Braille copy sent to you by mail</label>\n</div>\n\n<div class=\"checkbox\">\n<label for=\"strPaper\"><input type=\"checkbox\" name=\"formatsent\" id=\"strPaper\" value=\"paper\">Paper copy sent to you by mail</label>\n</div>\n\n</fieldset>\t\n\n<fieldset class=\"mrgn-tp-md mrgn-bttm-lg\">\t\t\n\n<legend class=\"field-name\">Your contact information</legend>\n\n<label class=\"keyValue\" for=\"name\"></label>\n<input class=\"keyValue\" autocomplete=\"off\" type=\"text\" id=\"name\" name=\"name\">\n<label class=\"keyValue\" for=\"email\"></label>\n<input class=\"keyValue\" autocomplete=\"off\" type=\"email\" id=\"email\" name=\"email\"> \n\n<div class=\"form-group\">\n<label for=\"strFirstName\" class=\"required col-md-4 control-label\"><span class=\"field-name\">First name:</span> <strong class=\"required\">(required)</strong></label>\n<div class=\"col-md-8\">\n<input class=\"form-control\" id=\"strFirstName\" name=\"strFirstName\" type=\"text\" required=\"required\" pattern=\".{2,}\" data-rule-minlength=\"2\">\n</div>\n</div>\n            \n<div class=\"form-group\">\n<label for=\"strLastName\" class=\"required col-md-4 control-label\"><span class=\"field-name\">Last name:</span> <strong class=\"required\">(required)</strong></label>\n<div class=\"col-md-8\">\n<input class=\"form-control\" id=\"strLastName\" name=\"strLastName\" type=\"text\" required=\"required\" pattern=\".{2,}\" data-rule-minlength=\"2\">\n</div>\n</div>\n\n<div class=\"form-group\">\n<label for=\"strEmail\" class=\"required col-md-4 control-label\"><span class=\"field-name\">Email address:</span>  <strong class=\"required\">(required)</strong></label>\n<div class=\"col-md-8\">\n<input class=\"form-control\" id=\"strEmail\" name=\"strEmail\" type=\"email\" required=\"required\">\n</div>\n</div>\n\n<div class=\"form-group\">\n<label for=\"strConfirmEmail\" class=\"required col-md-4 control-label\"><span class=\"field-name\">Confirm email address:</span>  <strong class=\"required\">(required)</strong></label>\n<div class=\"col-md-8\">\n<input class=\"form-control\" id=\"strConfirmEmail\" name=\"strConfirmEmail\" type=\"email\" data-rule-equalto=\"#strEmail\" required=\"required\">\n</div>\n</div>\n\n<div class=\"form-group mrgn-tp-md\">\n<label for=\"lstdescribe\" class=\"required col-md-4 control-label\"><span class=\"field-name\">How would you describe yourself?</span> <strong class=\"required\">(required)</strong></label>\n<div class=\"col-md-8\">\n<select class=\"form-control\" id=\"lstdescribe\" name=\"lstdescribe\" required=\"required\">\n<option label=\"Select from this list\"></option>\n<option value=\"Academia\">Academia</option>\n<option value=\"Consumer Association\">Consumer Association</option>\n<option value=\"Consumer/General Public\">Consumer / General Public</option>\n<option value=\"Industry Association\">Industry Association</option>\n<option value=\"Industry/Commercial Sector\">Industry / Commercial Sector</option>\n<option value=\"Other Government Departments\">Other Government Departments</option>\t\t\t\n</select>\n</div>\n</div>\t\n\n<div class=\"form-group\">\n<label for=\"strAddress1\" class=\"col-md-4 control-label\"><span class=\"field-name\">Address 1:</span></label>\n<div class=\"col-md-8\">\n<input class=\"form-control\" id=\"strAddress1\" name=\"strAddress1\" type=\"text\">\n</div>\n</div>\n\n<div class=\"form-group\">\n<label for=\"strAddress2\" class=\"col-md-4 control-label\"><span class=\"field-name\">Address 2:</span></label>\n<div class=\"col-md-8\">\n<input class=\"form-control\" id=\"strAddress2\" name=\"strAddress2\" type=\"text\">\n</div>\n</div>\n\n<div class=\"form-group\">\n<label for=\"strCity\" class=\"col-md-4 control-label\"><span class=\"field-name\">City:</span></label>\n<div class=\"col-md-8\">\n<input class=\"form-control\" id=\"strCity\" name=\"strCity\" type=\"text\">\n</div>\n</div>\n\n<div class=\"form-group\">\n<label for=\"strProvince\" class=\"col-md-4 control-label\"><span class=\"field-name\">Province:</span></label>\n<div class=\"col-md-8\">\n<input class=\"form-control\" id=\"strProvince\" name=\"strProvince\" type=\"text\">\n</div>\n</div>\n\n<div class=\"form-group\">\n<label for=\"strCountry\" class=\"col-md-4 control-label\"><span class=\"field-name\">Country:</span></label>\n<div class=\"col-md-8\">\n<input class=\"form-control\" id=\"strCountry\" name=\"strCountry\" type=\"text\">\n</div>\n</div>\n\n<div class=\"form-group\">\n<label for=\"strPostal\" class=\"col-md-4 control-label\"><span class=\"field-name\">Postal Code:</span></label>\n<div class=\"col-md-8\">\n<input class=\"form-control\" id=\"strPostal\" name=\"strPostal\" type=\"text\">\n</div>\n</div>\n\n</fieldset>\t\n\n<input value=\"Submit Your Request\" id=\"btnSubmit\" name=\"btnSubmit\" class=\"btn btn-primary\" type=\"submit\"> \n<input value=\"Clear All Information\" id=\"btnReset\" name=\"btnReset\" class=\"btn btn-default\" type=\"reset\">\n\n</form>\n</div>\n<script src=\"https://ajax.googleapis.com/ajax/libs/jquery/2.1.1/jquery.min.js\"></script>\n<script type=\"text/javascript\">\n$(document).ready (function(){\n\tif($(\"#strPaper\").checked || $(\"#strBraille\").checked)\n\t{\n\t\tPaperBrailleChecked();\n\t}\n});\n\n$(document).on(\"change\", \"#strBraille\", function(){\n\tif($(\"#strBraille\").is(\":checked\"))\n\t{\n\t\tPaperBrailleChecked();\n\t}\n\telse if(!($(\"#strPaper\").is(\":checked\")))\n\t{\n\t\tPaperBrailleUnChecked();\n\t}\n});\n\n$(document).on(\"change\", \"#strPaper\", function(){\n\tif($(\"#strPaper\").is(\":checked\"))\n\t{\n\t\tPaperBrailleChecked();\n\t}\n\telse if(!($(\"#strBraille\").is(\":checked\")))\n\t{\n\t\tPaperBrailleUnChecked();\n\t}\n});\n\nfunction PaperBrailleChecked()\n{\n\t$(\"#strAddress1\").attr(\"required\", \"true\");\n\t$(\"#strCity\").attr(\"required\", \"true\");\n\t$(\"#strProvince\").attr(\"required\", \"true\");\n\t$(\"#strCountry\").attr(\"required\", \"true\");\n\t$(\"#strPostal\").attr(\"required\", \"true\");\n}\n\nfunction PaperBrailleUnChecked()\n{\n\t$(\"#strAddress1\").removeAttr(\"required\");\n\t$(\"#strCity\").removeAttr(\"required\");\n\t$(\"#strProvince\").removeAttr(\"required\");\n\t$(\"#strCountry\").removeAttr(\"required\");\n\t$(\"#strPostal\").removeAttr(\"required\");\n}\n</script>\r\n\r\n\r\n\r\n<div class=\"row\">\r\n \r\n\t\r\n\t\t\t\r\n\r\n<div class=\"col-xm-12 pagedetails container\">\r\n\t\t\t\t\r\n\r\n</div>\r\n\t\r\n</div>",
        "fr": "\r\n        \r\n        \n<h2>R\u00e9sum\u00e9</h2>\n<p>Le Plan d'action pour assurer la s\u00e9curit\u00e9 des produits alimentaires (PAASPA) vise \u00e0 moderniser et \u00e0 renforcer le syst\u00e8me r\u00e9glementaire canadien de salubrit\u00e9 des aliments. Dans le cadre de l'initiative de surveillance accrue du <abbr title=\"Plan d'action pour assurer la s\u00e9curit\u00e9 des produits alimentaires\">PAASPA</abbr>, des \u00e9tudes cibl\u00e9es servent \u00e0 d\u00e9celer des dangers pr\u00e9cis dans divers aliments.</p>\n<p>La principale \u00e9tude cibl\u00e9e porte sur deux toxines naturelles\u00a0: l'ochratoxine A (OTA) et le d\u00e9soxynival\u00e9nol (DON). La contamination des aliments (comme les c\u00e9r\u00e9ales et les fruits) par ces toxines peut avoir lieu dans le champ (<abbr title=\"d\u00e9soxynival\u00e9nol\">DON</abbr>) ou durant l'entreposage des produits crus (<abbr title=\"ochratoxine A\">OTA</abbr>). Comme l'<abbr title=\"ochratoxine A\">OTA</abbr> et le <abbr title=\"d\u00e9soxynival\u00e9nol\">DON</abbr> r\u00e9sistent \u00e0 la chaleur, le traitement des c\u00e9r\u00e9ales ou des fruits touch\u00e9s peut ne pas \u00e9liminer compl\u00e8tement ces toxines, qui se retrouvent alors \u00e0 des concentrations d\u00e9tectables dans les produits alimentaires finis ou manufactur\u00e9s. Le Centre international de recherche sur le cancer (CRIC) a class\u00e9 l'<abbr title=\"ochratoxine A\">OTA</abbr> parmi les substances possiblement canc\u00e9rog\u00e8nes pour les humains. Le <abbr title=\"d\u00e9soxynival\u00e9nol\">DON</abbr> n'est pas canc\u00e9rog\u00e8ne, mais une exposition \u00e0 de tr\u00e8s fortes concentrations peut causer des effets immunod\u00e9pressifs et gastrointestinaux.</p>\n<p>Les principaux objectifs de la pr\u00e9sente \u00e9tude \u00e9taient les suivants\u00a0:</p>\n<ul>\n<li>Fournir des donn\u00e9es de surveillance de base sur les concentrations d'<abbr title=\"ochratoxine A\">OTA</abbr> et de <abbr title=\"d\u00e9soxynival\u00e9nol\">DON</abbr> dans les pr\u00e9parations pour nourrissons, les boissons alcoolis\u00e9es (vin, bi\u00e8re), les fruits s\u00e9ch\u00e9s et les produits c\u00e9r\u00e9aliers (produits du bl\u00e9, produits du ma\u00efs, produits de l'avoine, c\u00e9r\u00e9ales pour nourrissons et c\u00e9r\u00e9ales pour d\u00e9jeuner).</li>\n<li>Obtenir un portrait comparatif des concentrations d'<abbr title=\"ochratoxine A\">OTA</abbr> dans ces produits en particulier et des seuils maximaux propos\u00e9s par Sant\u00e9 Canada pour l'<abbr title=\"ochratoxine A\">OTA</abbr>.</li>\n<li>Comparer la pr\u00e9valence de l'<abbr title=\"ochratoxine A\">OTA</abbr> et du <abbr title=\"d\u00e9soxynival\u00e9nol\">DON</abbr> observ\u00e9e en 2009-2010 dans les aliments pour nourrissons, les boissons alcoolis\u00e9es, et les produits du bl\u00e9, du ma\u00efs et de l'avoine avec celle de l'\u00e9tude de 2010-2011.</li>\n</ul>\n<p>Au total,\u00a0943\u00a0\u00e9chantillons ont \u00e9t\u00e9 analys\u00e9s aux fins de d\u00e9tection de l'<abbr title=\"ochratoxine A\">OTA</abbr> et du <abbr title=\"d\u00e9soxynival\u00e9nol\">DON</abbr>. Sur ce total, il y avait 197\u00a0\u00e9chantillons de c\u00e9r\u00e9ales pour d\u00e9jeuner; 139, de vin; 130, de bi\u00e8re; 98, de pr\u00e9parations pour nourrissons; 97, de fruits s\u00e9ch\u00e9s; 96, de produits du bl\u00e9 (farine, son, germe et cr\u00e8me de bl\u00e9); 93, de c\u00e9r\u00e9ales pour nourrissons; 76, de produits du ma\u00efs (croustilles, semoule et gruau de ma\u00efs); 17, de produits de l'avoine (avoine enti\u00e8re, gruau).</p>\n<p>Soixante-sept pour cent des \u00e9chantillons (628/943) ne contenaient aucune concentration d\u00e9tectable d'<abbr title=\"ochratoxine A\">OTA</abbr>. Les 315\u00a0autres \u00e9chantillons qui contenaient des concentrations d\u00e9tectables d'<abbr title=\"ochratoxine A\">OTA</abbr> provenaient de toutes les cat\u00e9gories de produits vis\u00e9es par la pr\u00e9sente \u00e9tude. Les concentrations d'<abbr title=\"ochratoxine A\">OTA</abbr> variaient de 0,040\u00a0ppb (partie par milliard) \u00e0 6,773\u00a0<abbr title=\"parties par milliard\">ppb</abbr>. Dans l'ensemble, 99,2\u00a0% des \u00e9chantillons analys\u00e9s aux fins de d\u00e9tection de l'<abbr title=\"ochratoxine A\">OTA</abbr> contenaient des concentrations inf\u00e9rieures aux seuils maximaux propos\u00e9s pour cette toxine par Sant\u00e9 Canada. Cinq \u00e9chantillons de c\u00e9r\u00e9ales pour nourrissons; 1, de c\u00e9r\u00e9ales pour d\u00e9jeuner; 1, de farine de bl\u00e9; 1, de germe de bl\u00e9 contenaient des concentrations sup\u00e9rieures aux seuils maximaux propos\u00e9s pour l'<abbr title=\"ochratoxine A\">OTA</abbr>. Les concentrations d'<abbr title=\"ochratoxine A\">OTA</abbr> dans ces huit \u00e9chantillons ont \u00e9t\u00e9 \u00e9valu\u00e9es, et des mesures de suivi refl\u00e9tant l'ampleur des pr\u00e9occupations pour la sant\u00e9 humaine ont \u00e9t\u00e9 appliqu\u00e9es.</p>\n<p>Moins de la moiti\u00e9 des \u00e9chantillons (388/943, soit 41\u00a0%) ne contenait aucune concentration d\u00e9tectable de <abbr title=\"d\u00e9soxynival\u00e9nol\">DON</abbr>. Le <abbr title=\"d\u00e9soxynival\u00e9nol\">DON</abbr> n'a \u00e9t\u00e9 d\u00e9tect\u00e9 dans aucun \u00e9chantillon de vin ou de fruits s\u00e9ch\u00e9s. Les concentrations de <abbr title=\"d\u00e9soxynival\u00e9nol\">DON</abbr> variaient de 1\u00a0<abbr title=\"parties par milliard\">ppb</abbr> \u00e0 2\u00a0060\u00a0<abbr title=\"parties par milliard\">ppb</abbr>. \u00c9tant donn\u00e9 qu'aucun seuil maximal de <abbr title=\"d\u00e9soxynival\u00e9nol\">DON</abbr> n'a \u00e9t\u00e9 \u00e9tabli au Canada pour les produits finis, la conformit\u00e9 de ces derniers n'a pu \u00eatre \u00e9valu\u00e9e. Toutefois, les concentrations de <abbr title=\"d\u00e9soxynival\u00e9nol\">DON</abbr> que l'on jugeait \u00e9lev\u00e9es ont \u00e9t\u00e9 examin\u00e9es, et des mesures de suivi appropri\u00e9es refl\u00e9tant l'ampleur des risques pour la sant\u00e9 humaine ont \u00e9t\u00e9 appliqu\u00e9es.</p>\n\r\n<style>\n/* required style */\n    .keyValue{\n\tdisplay: none !important;\n        visibility: hidden !important;\n</style>\n<h2>Demande de rapport complet</h2>\n<p>La version int\u00e9grale du pr\u00e9sent rapport est disponible sur demande.</p>\n\n<div class=\"wb-frmvld\">\n\n<form class=\"form-horizontal\" role=\"form\" method=\"post\" action=\"/active/netapp/comment/publicationposte.aspx#wb-cont\" name=\"frmPublication\">\n\n<input id=\"emailad0\" name=\"to\" class=\"hidden\" type=\"hidden\" aria-hidden=\"true\" value=\"CtF9uwyhXdsnWnNXl/p16YGuPHCokGV2ghZz00cFcvQjjv3XB49boLG3wH7XNZHG6LgOwaGJGn4nBsGnT3uvt04dGWEd6bHv5/EtBTOWJ2Q=\">\n<input name=\"strLang\" type=\"hidden\" value=\"Francais\">\n<input name=\"strSubject\" type=\"hidden\" value=\"Demande de rapport de r\u00e9sidus chimiques / microbiologie\">\n<input name=\"strTitle\" type=\"hidden\" value=\"title\">\n<input name=\"strUrl\" type=\"hidden\" value=\"url\">\n<script type=\"text/javascript\">\n    document.frmPublication.strTitle.value = document.getElementsByTagName(\"title\")[0].innerHTML;\n    document.frmPublication.strUrl.value = document.URL;\n</script>\n        \n<fieldset class=\"mrgn-tp-md mrgn-bttm-lg\">\t\t\n\n<legend class=\"field-name required\"><span class=\"field-name\">Le format dans lequel vous souhaitez recevoir le rapport</span> <strong class=\"required\">(obligatoire)</strong></legend>\n\n<div class=\"checkbox\">\n<label for=\"strPdf\"><input type=\"checkbox\" name=\"formatsent\" id=\"strPdf\" value=\"pdf\" required=\"required\">Fichier \u00e9lectronique PDF (format de document portable) envoy\u00e9 par courriel</label>\n</div>\n\n<div class=\"checkbox\">\n<label for=\"strText\"><input type=\"checkbox\" name=\"formatsent\" id=\"strText\" value=\"text\">Fichier \u00e9lectronique RTF (<span lang=\"en\">Rich Text Format</span>) envoy\u00e9 par courriel</label>\n</div>\n\n<div class=\"checkbox\">\n<label for=\"strBraille\"><input type=\"checkbox\" name=\"formatsent\" id=\"strBraille\" value=\"braille\">Copie braille envoy\u00e9e par la poste</label>\n</div>\n\n<div class=\"checkbox\">\n<label for=\"strPaper\"><input type=\"checkbox\" name=\"formatsent\" id=\"strPaper\" value=\"paper\">Copie papier envoy\u00e9e par la poste</label>\n</div>\n\n</fieldset>\t\n\n<fieldset class=\"mrgn-tp-md mrgn-bttm-lg\">\t\t\n\n<legend class=\"field-name\">Vos coordonn\u00e9es</legend>\n\n<label class=\"keyValue\" for=\"name\"></label>\n<input class=\"keyValue\" autocomplete=\"off\" type=\"text\" id=\"name\" name=\"name\">\n<label class=\"keyValue\" for=\"email\"></label>\n<input class=\"keyValue\" autocomplete=\"off\" type=\"email\" id=\"email\" name=\"email\"> \n\n<div class=\"form-group\">\n<label for=\"strFirstName\" class=\"required col-md-4 control-label\"><span class=\"field-name\">Pr\u00e9nom :</span> <strong class=\"required\">(obligatoire)</strong></label>\n<div class=\"col-md-8\">\n<input class=\"form-control\" id=\"strFirstName\" name=\"strFirstName\" type=\"text\" required=\"required\" pattern=\".{2,}\" data-rule-minlength=\"2\">\n</div>\n</div>\n            \n<div class=\"form-group\">\n<label for=\"strLastName\" class=\"required col-md-4 control-label\"><span class=\"field-name\">Nom :</span> <strong class=\"required\">(obligatoire)</strong></label>\n<div class=\"col-md-8\">\n<input class=\"form-control\" id=\"strLastName\" name=\"strLastName\" type=\"text\" required=\"required\" pattern=\".{2,}\" data-rule-minlength=\"2\">\n</div>\n</div>\n\n<div class=\"form-group\">\n<label for=\"strEmail\" class=\"required col-md-4 control-label\"><span class=\"field-name\">Adresse de courriel :</span> \u00a0<strong class=\"required\">(obligatoire)</strong></label>\n<div class=\"col-md-8\">\n<input class=\"form-control\" id=\"strEmail\" name=\"strEmail\" type=\"email\" required=\"required\">\n</div>\n</div>\n\n<div class=\"form-group\">\n<label for=\"strConfirmEmail\" class=\"required col-md-4 control-label\"><span class=\"field-name\">Confirmer Adresse de courriel :</span>  <strong class=\"required\">(obligatoire)</strong></label>\n<div class=\"col-md-8\">\n<input class=\"form-control\" id=\"strConfirmEmail\" name=\"strConfirmEmail\" type=\"email\" data-rule-equalto=\"#strEmail\" required=\"required\">\n</div>\n</div>\n\n<div class=\"form-group mrgn-tp-md\">\n<label for=\"lstdescribe\" class=\"required col-md-4 control-label\"><span class=\"field-name\">Comment vous vous d\u00e9criviez?</span> <strong class=\"required\">(obligatoire)</strong></label>\n<div class=\"col-md-8\">\n<select class=\"form-control\" id=\"lstdescribe\" name=\"lstdescribe\" required=\"required\">\n<option label=\"Choisir parmi la liste\"></option>\n<option value=\"Acad\u00e9mie\">Acad\u00e9mie</option>\n<option value=\"Association sectorielle\">Association sectorielle</option>  \n<option value=\"Autres institutions du gouvernement\">Autres institutions du gouvernement</option>\n<option value=\"Consommateur/Grand public\">Consommateur / Grand public</option>\n<option value=\"Groupe de consommateur\">Groupe de consommateur</option>\n<option value=\"Industrie/Secteur commercial\">Industrie / Secteur commercial</option>\n</select>\n</div>\n</div>\t\n\n<div class=\"form-group\">\n<label for=\"strAddress1\" class=\"col-md-4 control-label\"><span class=\"field-name\">Adresse 1 :</span></label>\n<div class=\"col-md-8\">\n<input class=\"form-control\" id=\"strAddress1\" name=\"strAddress1\" type=\"text\">\n</div>\n</div>\n\n<div class=\"form-group\">\n<label for=\"strAddress2\" class=\"col-md-4 control-label\"><span class=\"field-name\">Adresse 2 :</span></label>\n<div class=\"col-md-8\">\n<input class=\"form-control\" id=\"strAddress2\" name=\"strAddress2\" type=\"text\">\n</div>\n</div>\n\n<div class=\"form-group\">\n<label for=\"strCity\" class=\"col-md-4 control-label\"><span class=\"field-name\">Ville :</span></label>\n<div class=\"col-md-8\">\n<input class=\"form-control\" id=\"strCity\" name=\"strCity\" type=\"text\">\n</div>\n</div>\n\n<div class=\"form-group\">\n<label for=\"strProvince\" class=\"col-md-4 control-label\"><span class=\"field-name\">Province :</span></label>\n<div class=\"col-md-8\">\n<input class=\"form-control\" id=\"strProvince\" name=\"strProvince\" type=\"text\">\n</div>\n</div>\n\n<div class=\"form-group\">\n<label for=\"strCountry\" class=\"col-md-4 control-label\"><span class=\"field-name\">Pays : </span></label>\n<div class=\"col-md-8\">\n<input class=\"form-control\" id=\"strCountry\" name=\"strCountry\" type=\"text\">\n</div>\n</div>\n\n<div class=\"form-group\">\n<label for=\"strPostal\" class=\"col-md-4 control-label\"><span class=\"field-name\">Code postal : </span></label>\n<div class=\"col-md-8\">\n<input class=\"form-control\" id=\"strPostal\" name=\"strPostal\" type=\"text\">\n</div>\n</div>\n\n</fieldset>\t\n\n<input value=\"Soumettre votre demande\" id=\"btnSubmit\" name=\"btnSubmit\" class=\"btn btn-primary\" type=\"submit\"> \n<input value=\"Effacez tous les renseignements\" id=\"btnReset\" name=\"btnReset\" class=\"btn btn-default\" type=\"reset\">\n\n</form>\n</div>\n<script src=\"https://ajax.googleapis.com/ajax/libs/jquery/2.1.1/jquery.min.js\"></script>\n<script type=\"text/javascript\">\n$(document).ready (function(){\n\tif($(\"#strPaper\").checked || $(\"#strBraille\").checked)\n\t{\n\t\tPaperBrailleChecked();\n\t}\n});\n\n$(document).on(\"change\", \"#strBraille\", function(){\n\tif($(\"#strBraille\").is(\":checked\"))\n\t{\n\t\tPaperBrailleChecked();\n\t}\n\telse if(!($(\"#strPaper\").is(\":checked\")))\n\t{\n\t\tPaperBrailleUnChecked();\n\t}\n});\n\n$(document).on(\"change\", \"#strPaper\", function(){\n\tif($(\"#strPaper\").is(\":checked\"))\n\t{\n\t\tPaperBrailleChecked();\n\t}\n\telse if(!($(\"#strBraille\").is(\":checked\")))\n\t{\n\t\tPaperBrailleUnChecked();\n\t}\n});\n\nfunction PaperBrailleChecked()\n{\n\t$(\"#strAddress1\").attr(\"required\", \"true\");\n\t$(\"#strCity\").attr(\"required\", \"true\");\n\t$(\"#strProvince\").attr(\"required\", \"true\");\n\t$(\"#strCountry\").attr(\"required\", \"true\");\n\t$(\"#strPostal\").attr(\"required\", \"true\");\n}\n\nfunction PaperBrailleUnChecked()\n{\n\t$(\"#strAddress1\").removeAttr(\"required\");\n\t$(\"#strCity\").removeAttr(\"required\");\n\t$(\"#strProvince\").removeAttr(\"required\");\n\t$(\"#strCountry\").removeAttr(\"required\");\n\t$(\"#strPostal\").removeAttr(\"required\");\n}\n</script>\r\n\r\n<div class=\"row\">\r\n \r\n\t\t\t\r\n\t\t\t\r\n\r\n\t\t\r\n\t\r\n</div>"
    },
    "success": true,
    "chat_wizard": false
}