{
    "dcr_id": "1478624666677",
    "title": {
        "en": "2013-2014 Bisphenol A in Canned Foods",
        "fr": "2013-2014 Bisph\u00e9nol A dans les aliments en conserve"
    },
    "html_modified": "5-6-2018",
    "modified": "4-9-2018",
    "issued": "8-11-2016",
    "teamsite_location": {
        "en": "/default/main/inspection/cont-cont/food-aliments/WORKAREA/food-aliments/templatedata/comn-comn/forms-formes/data/chem_testing_report_2013-2014_bisphenol_a_in_canned_foods_1478624666677_eng",
        "fr": "/default/main/inspection/cont-cont/food-aliments/WORKAREA/food-aliments/templatedata/comn-comn/forms-formes/data/chem_testing_report_2013-2014_bisphenol_a_in_canned_foods_1478624666677_fra"
    },
    "parent_ia_id": "1453327843364",
    "ia_id": "1478624721121",
    "parent_node_id": null,
    "layout_name": "content page 1 column",
    "breadcrumb": {
        "en": "2013-2014 Bisphenol A in Canned Foods",
        "fr": "2013-2014 Bisph\u00e9nol A dans les aliments en conserve"
    },
    "label": {
        "en": "2013-2014 Bisphenol A in Canned Foods",
        "fr": "2013-2014 Bisph\u00e9nol A dans les aliments en conserve"
    },
    "templatetype": "content page 1 column",
    "node_id": "1478624721121",
    "managing_branch": "comn",
    "type_name": "forms-formes",
    "parent_dcr_id": "1453324778043",
    "has_dcr_id": true,
    "lang": "en",
    "could_not_load": 0,
    "refaire": false,
    "interwoven_url": {
        "en": "/food-safety-for-industry/food-chemistry-and-microbiology/food-safety-testing-reports-and-journal-articles/bisphenol-a-in-canned-foods/",
        "fr": "/salubrite-alimentaire-pour-l-industrie/chimie-et-microbiologie-alimentaires/rapports-d-analyse-et-articles-de-revues-sur-la-sa/bisphenol-a-dans-les-aliments-en-conserve/"
    },
    "meta": {
        "viewport": {
            "en": "width=device-width,initial-scale=1",
            "fr": "width=device-width,initial-scale=1"
        },
        "service": {
            "en": "CFIA-ACIA",
            "fr": "CFIA-ACIA"
        },
        "accessRights": {
            "en": "2",
            "fr": "2"
        },
        "title": {
            "en": "2013-2014 Bisphenol A in Canned Foods",
            "fr": "2013-2014 Bisph\u00e9nol A dans les aliments en conserve"
        },
        "description": {
            "en": "Targeted surveys are used by the Canadian Food Inspection Agency (CFIA) to focus its surveillance activities on areas of highest risk.",
            "fr": "L'agence canadienne d'inspection des aliments (ACIA) se sert d'enqu\u00eates cibl\u00e9es afin de concentrer ses activit\u00e9s de surveillance dans les domaines pr\u00e9sentant les risques les plus \u00e9lev\u00e9s."
        },
        "keywords": {
            "en": "food, food safety, food safety requirements, sampling, testing, food safety risks, Bisphenol A, BPA, Canned Foods",
            "fr": "aliments, salubrit&#233; des aliments, exigences f&#233;d&#233;rales en mati&#232;re de salubrit&#233; des aliments, &#233;chantillonnage, analyse, risques pour la salubrit&#233; des aliments, Bisph\u00e9nol A, BPA, aliments en conserve"
        },
        "dcterms.subject": {
            "en": "agri-food products,food,food inspection,food safety,safety,testing",
            "fr": "produit agro-alimentaire,aliment,inspection des aliments,salubrit\u00e9 des aliments,s\u00e9curit\u00e9,test"
        },
        "creator": {
            "en": "Government of Canada,Canadian Food Inspection Agency,Food Safety Science Directorate",
            "fr": "Gouvernement du Canada,Agence canadienne d'inspection des aliments,Direction des sciences de la salubrit\u00e9 des aliments"
        },
        "language": {
            "en": "eng",
            "fr": "fra"
        },
        "issued": {
            "en": "2018-06-05",
            "fr": "2018-06-05"
        },
        "modified": {
            "en": "2018-09-04",
            "fr": "2018-09-04"
        },
        "type": {
            "en": "reference material",
            "fr": "mat\u00e9riel de r\u00e9f\u00e9rence"
        },
        "audience": {
            "en": "business,general public,government",
            "fr": "entreprises,grand public,gouvernement"
        },
        "name": {
            "en": "Government of Canada",
            "fr": "Gouvernement du Canada"
        },
        "areaServed": {
            "en": "Canada",
            "fr": "Canada"
        }
    },
    "h1": {
        "en": "2013-2014 Bisphenol A in Canned Foods",
        "fr": "2013-2014 Bisph\u00e9nol A dans les aliments en conserve"
    },
    "js": {
        "en": "<script>\n    document.frmPublication.strTitle.value = document.getElementsByTagName(\"title\")[0].innerHTML;\n    document.frmPublication.strUrl.value = document.URL;\n</script>/* --------------------- MORE JAVASCRIPT ------------------- */<script>\n$(document).ready (function(){\n\tif($(\"#strPaper\").checked || $(\"#strBraille\").checked)\n\t{\n\t\tPaperBrailleChecked();\n\t}\n});\n\n$(document).on(\"change\", \"#strBraille\", function(){\n\tif($(\"#strBraille\").is(\":checked\"))\n\t{\n\t\tPaperBrailleChecked();\n\t}\n\telse if(!($(\"#strPaper\").is(\":checked\")))\n\t{\n\t\tPaperBrailleUnChecked();\n\t}\n});\n\n$(document).on(\"change\", \"#strPaper\", function(){\n\tif($(\"#strPaper\").is(\":checked\"))\n\t{\n\t\tPaperBrailleChecked();\n\t}\n\telse if(!($(\"#strBraille\").is(\":checked\")))\n\t{\n\t\tPaperBrailleUnChecked();\n\t}\n});\n\nfunction PaperBrailleChecked()\n{\n\t$(\"#strAddress1\").attr(\"required\", \"true\");\n\t$(\"#strCity\").attr(\"required\", \"true\");\n\t$(\"#strProvince\").attr(\"required\", \"true\");\n\t$(\"#strCountry\").attr(\"required\", \"true\");\n\t$(\"#strPostal\").attr(\"required\", \"true\");\n}\n\nfunction PaperBrailleUnChecked()\n{\n\t$(\"#strAddress1\").removeAttr(\"required\");\n\t$(\"#strCity\").removeAttr(\"required\");\n\t$(\"#strProvince\").removeAttr(\"required\");\n\t$(\"#strCountry\").removeAttr(\"required\");\n\t$(\"#strPostal\").removeAttr(\"required\");\n}\n</script>",
        "fr": "<script>\n    document.frmPublication.strTitle.value = document.getElementsByTagName(\"title\")[0].innerHTML;\n    document.frmPublication.strUrl.value = document.URL;\n</script>/* --------------------- MORE JAVASCRIPT ------------------- */<script>\n$(document).ready (function(){\n\tif($(\"#strPaper\").checked || $(\"#strBraille\").checked)\n\t{\n\t\tPaperBrailleChecked();\n\t}\n});\n\n$(document).on(\"change\", \"#strBraille\", function(){\n\tif($(\"#strBraille\").is(\":checked\"))\n\t{\n\t\tPaperBrailleChecked();\n\t}\n\telse if(!($(\"#strPaper\").is(\":checked\")))\n\t{\n\t\tPaperBrailleUnChecked();\n\t}\n});\n\n$(document).on(\"change\", \"#strPaper\", function(){\n\tif($(\"#strPaper\").is(\":checked\"))\n\t{\n\t\tPaperBrailleChecked();\n\t}\n\telse if(!($(\"#strBraille\").is(\":checked\")))\n\t{\n\t\tPaperBrailleUnChecked();\n\t}\n});\n\nfunction PaperBrailleChecked()\n{\n\t$(\"#strAddress1\").attr(\"required\", \"true\");\n\t$(\"#strCity\").attr(\"required\", \"true\");\n\t$(\"#strProvince\").attr(\"required\", \"true\");\n\t$(\"#strCountry\").attr(\"required\", \"true\");\n\t$(\"#strPostal\").attr(\"required\", \"true\");\n}\n\nfunction PaperBrailleUnChecked()\n{\n\t$(\"#strAddress1\").removeAttr(\"required\");\n\t$(\"#strCity\").removeAttr(\"required\");\n\t$(\"#strProvince\").removeAttr(\"required\");\n\t$(\"#strCountry\").removeAttr(\"required\");\n\t$(\"#strPostal\").removeAttr(\"required\");\n}\n</script>"
    },
    "mode_html": "no_editor_full",
    "body": {
        "en": "        \r\n        \n<h2>Summary</h2>\n<p>Targeted surveys are used by the Canadian Food Inspection Agency (CFIA) to focus its surveillance activities on areas of highest risk. The information gained from these surveys provides both support for the prioritization of the Agency's activities to areas of greater concern and scientific evidence to address areas of lesser concern. Originally started under the Food Safety Action Plan (FSAP), targeted surveys have been incorporated into the <abbr title=\"Canadian Food Inspection Agency\">CFIA</abbr>'s regular surveillance activities as a valuable tool for generating essential information on certain hazards in foods, identifying/characterizing new and emerging hazards, informing trend analysis, prompting/refining human health risk assessments, assessing compliance with Canadian regulations, highlighting potential contamination issues, and promoting compliance.</p>\n<p>The main objectives of this targeted survey were:</p>\n<ul>\n<li>to provide baseline data on the presence and levels of bisphenol A (BPA) in canned vegetables, fruits, juices/beverages, soft/energy/sports drinks, infant formula, pastas, soups, pie fillings, coconut milks, and curry sauces/products available on the Canadian retail market; and</li>\n<li>to compare the prevalence of the levels of <abbr title=\"bisphenol A\">BPA</abbr> found in this survey with other Canadian and international data, where feasible.</li>\n</ul>\n<p>Bisphenol A (BPA) is a chemical used in the production of polycarbonate and epoxy resins. Food and beverage packaging, particularly metal cans, may be internally coated with epoxy resins to protect food from direct contact with metal. <abbr title=\"bisphenol A\">BPA</abbr> can migrate from the epoxy coatings into food, particularly at elevated temperatures (<abbr title=\"for example\">e.g.</abbr>, in hot-filled or heat-processed canned foods). Elevated <abbr title=\"bisphenol A\">BPA</abbr> concentrations have been associated with food products contained in syrups, sauces (<abbr title=\"that is to say\">i.e.</abbr>, tomato sauce), and salted water.</p>\n<p>Health Canada's Food Directorate has concluded that the current dietary exposure to <abbr title=\"bisphenol A\">BPA</abbr> through food packaging is not expected to pose a health risk to the general population, including newborns and young children. This conclusion has been re-affirmed by other international food regulatory agencies, including those of Canada's major trading partners. As a result, the use of <abbr title=\"bisphenol A\">BPA</abbr> in food packaging materials has not been prohibited in Canada. Health Canada has recommended that the general principle of ALARA (as low as reasonably achievable) be applied by food packaging manufacturers and food processors to limit dietary <abbr title=\"bisphenol A\">BPA</abbr> exposure from food packaging, particularly for products consumed by infants and newborns. In this regard, Health Canada's Food Directorate found that <abbr title=\"bisphenol A\">BPA</abbr> is generally not detectable in canned powdered infant formula products available for sale in Canada and in December 2014 (subsequent to collection of the samples analyzed for the current survey), Health Canada confirmed that major manufacturers of infant formula had phased out the use of <abbr title=\"bisphenol A\">BPA</abbr>-containing packaging for liquid infant formula.</p>\n<p>A total of 391 domestic and imported samples were collected and analyzed in the 2013-2014 <abbr title=\"bisphenol A\">BPA</abbr> targeted survey. Samples included 93 pastas/soups, 70 vegetables, 55 infant formula samples, 54 juices/beverages, 43 ready-to-consume energy/sports/soft drinks, 38 fruit products, 20 pie fillings, 13 coconut milks, and 5 curry products. Only canned products were sampled, as these products are likely to have epoxy coatings. Bisphenol A was not detected in 35.5% of the survey samples. The level of detection for all samples ranged from 0.001 <abbr title=\"parts per million\">ppm</abbr> (found in a tropical fruit salad sample) to 0.565 <abbr title=\"parts per million\">ppm</abbr> (detected in a single corn sample).</p>\n<p>The current <abbr title=\"Food Safety Action Plan\">FSAP</abbr> survey had similar detection rates of <abbr title=\"bisphenol A\">BPA</abbr> in the commodities sampled in comparison to the previous <abbr title=\"Food Safety Action Plan\">FSAP</abbr> surveys, international studies, and the <abbr title=\"National Chemical Residue Monitoring Program\">NCRMP</abbr> data. Overall, the results of the current targeted survey are similar to previous <abbr title=\"Food Safety Action Plan\">FSAP</abbr> surveys, other Canadian studies, and international data.</p>\n<p>There are no Canadian regulations or maximum levels (tolerances or standards) for <abbr title=\"bisphenol A\">BPA</abbr> in foods sold in Canada, so compliance to a numerical standard could not be assessed. Health Canada's Bureau of Chemical Safety determined that none of the samples analyzed for <abbr title=\"bisphenol A\">BPA</abbr> in this survey posed a concern to human health and therefore no product recalls were warranted.</p>\n<p>The <abbr title=\"Canadian Food Inspection Agency\">CFIA</abbr> will continue its surveillance activities and inform the Canadian public and stakeholders of its findings.</p>\r\n<style>\n/* required style */\n    .keyValue{\n\tdisplay: none !important;\n        visibility: hidden !important;\n</style>\n<h2>Request of Complete Report</h2>\n<p>The complete text of this report is available upon request.</p>\n\n<div class=\"wb-frmvld\">\n\n<form class=\"form-horizontal\" role=\"form\" method=\"post\" action=\"/active/netapp/comment/publicationposte.aspx#wb-cont\" name=\"frmPublication\">\n<input id=\"emailad0\" name=\"to\" class=\"hidden\" type=\"hidden\" aria-hidden=\"true\" value=\"jTnbtXSra8ewHs6yRMJyO39kbhl9a0rEtKXLL7Bia35+Dqoef8/lz3O3Had2f1W0S7JJJI5c0ZhYyV4CIW6UCAQG3Y2JbeiR38x3HgF0lVo=\">\n<input name=\"strLang\" type=\"hidden\" value=\"English\">\n<input name=\"strSubject\" type=\"hidden\" value=\"Chemical Residues / Microbiology Report Request\">\n<input name=\"strTitle\" type=\"hidden\" value=\"title\">\n<input name=\"strUrl\" type=\"hidden\" value=\"url\">\n<script type=\"text/javascript\">\n    document.frmPublication.strTitle.value = document.getElementsByTagName(\"title\")[0].innerHTML;\n    document.frmPublication.strUrl.value = document.URL;\n</script>\n        \n<fieldset class=\"mrgn-tp-md mrgn-bttm-lg\">\t\t\n\n<legend class=\"field-name required\"><span class=\"field-name\">The format in which you would like to receive the report</span> <strong class=\"required\">(required)</strong></legend>\n\n<div class=\"checkbox\">\n<label for=\"strPdf\"><input type=\"checkbox\" name=\"formatsent\" id=\"strPdf\" value=\"pdf\" required=\"required\">PDF (Portable Document Format) electronic file sent to you by email</label>\n</div>\n\n<div class=\"checkbox\">\n<label for=\"strText\"><input type=\"checkbox\" name=\"formatsent\" id=\"strText\" value=\"text\">RTF (Rich Text Format) electronic file sent to you by email</label>\n</div>\n\n<div class=\"checkbox\">\n<label for=\"strBraille\"><input type=\"checkbox\" name=\"formatsent\" id=\"strBraille\" value=\"braille\">Braille copy sent to you by mail</label>\n</div>\n\n<div class=\"checkbox\">\n<label for=\"strPaper\"><input type=\"checkbox\" name=\"formatsent\" id=\"strPaper\" value=\"paper\">Paper copy sent to you by mail</label>\n</div>\n\n</fieldset>\t\n\n<fieldset class=\"mrgn-tp-md mrgn-bttm-lg\">\t\t\n\n<legend class=\"field-name\">Your contact information</legend>\n\n<label class=\"keyValue\" for=\"name\"></label>\n<input class=\"keyValue\" autocomplete=\"off\" type=\"text\" id=\"name\" name=\"name\">\n<label class=\"keyValue\" for=\"email\"></label>\n<input class=\"keyValue\" autocomplete=\"off\" type=\"email\" id=\"email\" name=\"email\"> \n\n<div class=\"form-group\">\n<label for=\"strFirstName\" class=\"required col-md-4 control-label\"><span class=\"field-name\">First name:</span> <strong class=\"required\">(required)</strong></label>\n<div class=\"col-md-8\">\n<input class=\"form-control\" id=\"strFirstName\" name=\"strFirstName\" type=\"text\" required=\"required\" pattern=\".{2,}\" data-rule-minlength=\"2\">\n</div>\n</div>\n            \n<div class=\"form-group\">\n<label for=\"strLastName\" class=\"required col-md-4 control-label\"><span class=\"field-name\">Last name:</span> <strong class=\"required\">(required)</strong></label>\n<div class=\"col-md-8\">\n<input class=\"form-control\" id=\"strLastName\" name=\"strLastName\" type=\"text\" required=\"required\" pattern=\".{2,}\" data-rule-minlength=\"2\">\n</div>\n</div>\n\n<div class=\"form-group\">\n<label for=\"strEmail\" class=\"required col-md-4 control-label\"><span class=\"field-name\">Email address:</span>  <strong class=\"required\">(required)</strong></label>\n<div class=\"col-md-8\">\n<input class=\"form-control\" id=\"strEmail\" name=\"strEmail\" type=\"email\" required=\"required\">\n</div>\n</div>\n\n<div class=\"form-group\">\n<label for=\"strConfirmEmail\" class=\"required col-md-4 control-label\"><span class=\"field-name\">Confirm email address:</span>  <strong class=\"required\">(required)</strong></label>\n<div class=\"col-md-8\">\n<input class=\"form-control\" id=\"strConfirmEmail\" name=\"strConfirmEmail\" type=\"email\" data-rule-equalto=\"#strEmail\" required=\"required\">\n</div>\n</div>\n\n<div class=\"form-group mrgn-tp-md\">\n<label for=\"lstdescribe\" class=\"required col-md-4 control-label\"><span class=\"field-name\">How would you describe yourself?</span> <strong class=\"required\">(required)</strong></label>\n<div class=\"col-md-8\">\n<select class=\"form-control\" id=\"lstdescribe\" name=\"lstdescribe\" required=\"required\">\n<option label=\"Select from this list\"></option>\n<option value=\"Academia\">Academia</option>\n<option value=\"Consumer Association\">Consumer Association</option>\n<option value=\"Consumer/General Public\">Consumer / General Public</option>\n<option value=\"Industry Association\">Industry Association</option>\n<option value=\"Industry/Commercial Sector\">Industry / Commercial Sector</option>\n<option value=\"Other Government Departments\">Other Government Departments</option>\t\t\t\n</select>\n</div>\n</div>\t\n\n<div class=\"form-group\">\n<label for=\"strAddress1\" class=\"col-md-4 control-label\"><span class=\"field-name\">Address 1:</span></label>\n<div class=\"col-md-8\">\n<input class=\"form-control\" id=\"strAddress1\" name=\"strAddress1\" type=\"text\">\n</div>\n</div>\n\n<div class=\"form-group\">\n<label for=\"strAddress2\" class=\"col-md-4 control-label\"><span class=\"field-name\">Address 2:</span></label>\n<div class=\"col-md-8\">\n<input class=\"form-control\" id=\"strAddress2\" name=\"strAddress2\" type=\"text\">\n</div>\n</div>\n\n<div class=\"form-group\">\n<label for=\"strCity\" class=\"col-md-4 control-label\"><span class=\"field-name\">City:</span></label>\n<div class=\"col-md-8\">\n<input class=\"form-control\" id=\"strCity\" name=\"strCity\" type=\"text\">\n</div>\n</div>\n\n<div class=\"form-group\">\n<label for=\"strProvince\" class=\"col-md-4 control-label\"><span class=\"field-name\">Province:</span></label>\n<div class=\"col-md-8\">\n<input class=\"form-control\" id=\"strProvince\" name=\"strProvince\" type=\"text\">\n</div>\n</div>\n\n<div class=\"form-group\">\n<label for=\"strCountry\" class=\"col-md-4 control-label\"><span class=\"field-name\">Country:</span></label>\n<div class=\"col-md-8\">\n<input class=\"form-control\" id=\"strCountry\" name=\"strCountry\" type=\"text\">\n</div>\n</div>\n\n<div class=\"form-group\">\n<label for=\"strPostal\" class=\"col-md-4 control-label\"><span class=\"field-name\">Postal Code:</span></label>\n<div class=\"col-md-8\">\n<input class=\"form-control\" id=\"strPostal\" name=\"strPostal\" type=\"text\">\n</div>\n</div>\n\n</fieldset>\t\n\n<input value=\"Submit Your Request\" id=\"btnSubmit\" name=\"btnSubmit\" class=\"btn btn-primary\" type=\"submit\"> \n<input value=\"Clear All Information\" id=\"btnReset\" name=\"btnReset\" class=\"btn btn-default\" type=\"reset\">\n\n</form>\n</div>\n<script src=\"https://ajax.googleapis.com/ajax/libs/jquery/2.1.1/jquery.min.js\"></script>\n<script type=\"text/javascript\">\n$(document).ready (function(){\n\tif($(\"#strPaper\").checked || $(\"#strBraille\").checked)\n\t{\n\t\tPaperBrailleChecked();\n\t}\n});\n\n$(document).on(\"change\", \"#strBraille\", function(){\n\tif($(\"#strBraille\").is(\":checked\"))\n\t{\n\t\tPaperBrailleChecked();\n\t}\n\telse if(!($(\"#strPaper\").is(\":checked\")))\n\t{\n\t\tPaperBrailleUnChecked();\n\t}\n});\n\n$(document).on(\"change\", \"#strPaper\", function(){\n\tif($(\"#strPaper\").is(\":checked\"))\n\t{\n\t\tPaperBrailleChecked();\n\t}\n\telse if(!($(\"#strBraille\").is(\":checked\")))\n\t{\n\t\tPaperBrailleUnChecked();\n\t}\n});\n\nfunction PaperBrailleChecked()\n{\n\t$(\"#strAddress1\").attr(\"required\", \"true\");\n\t$(\"#strCity\").attr(\"required\", \"true\");\n\t$(\"#strProvince\").attr(\"required\", \"true\");\n\t$(\"#strCountry\").attr(\"required\", \"true\");\n\t$(\"#strPostal\").attr(\"required\", \"true\");\n}\n\nfunction PaperBrailleUnChecked()\n{\n\t$(\"#strAddress1\").removeAttr(\"required\");\n\t$(\"#strCity\").removeAttr(\"required\");\n\t$(\"#strProvince\").removeAttr(\"required\");\n\t$(\"#strCountry\").removeAttr(\"required\");\n\t$(\"#strPostal\").removeAttr(\"required\");\n}\n</script>\r\n\r\n\r\n\r\n<div class=\"row\">\r\n \r\n\t\r\n\t\t\t\r\n\r\n<div class=\"col-xm-12 pagedetails container\">\r\n\t\t\t\t\r\n\r\n</div>\r\n\t\r\n</div>",
        "fr": "\r\n        \r\n        \n<h2>R\u00e9sum\u00e9</h2>\n<p>L'agence canadienne d'inspection des aliments (ACIA) se sert d'enqu\u00eates cibl\u00e9es afin de concentrer ses activit\u00e9s de surveillance dans les domaines pr\u00e9sentant les risques les plus \u00e9lev\u00e9s. Les donn\u00e9es recueillies gr\u00e2ce \u00e0 ces enqu\u00eates permettent \u00e0 l'Agence d'\u00e9tablir ses priorit\u00e9s en mati\u00e8re d'activit\u00e9s afin de cibler les domaines qui suscitent le plus de pr\u00e9occupations et d'avoir des preuves scientifiques pour r\u00e9soudre des questions moins pr\u00e9occupantes. Ces enqu\u00eates cibl\u00e9es, men\u00e9es \u00e0 l'origine dans le cadre du Plan d'action pour assurer la s\u00e9curit\u00e9 des produits alimentaires (PAASPA), font partie des activit\u00e9s de surveillance r\u00e9guli\u00e8res de l'<abbr title=\"agence canadienne d'inspection des aliments\">ACIA</abbr> et constituent un outil pr\u00e9cieux gr\u00e2ce auquel il est possible de recueillir des donn\u00e9es essentielles sur certains risques d'origine alimentaire, d'identifier / de caract\u00e9riser les risques nouveaux et \u00e9mergents, de guider l'analyse des tendances, de susciter / de raffiner les \u00e9valuations du risque sur la sant\u00e9 humaine, d'\u00e9valuer la conformit\u00e9 aux r\u00e8glements canadiens, de mettre en lumi\u00e8re des probl\u00e8mes potentiels de contamination et de promouvoir la conformit\u00e9.</p>\n<p>Les principaux objectifs de la pr\u00e9sente \u00e9tude cibl\u00e9e \u00e9taient les suivants\u00a0:</p>\n<ul>\n<li>fournir des donn\u00e9es de surveilaance de base sur la pr\u00e9sence et les concentrations de bisph\u00e9nol A (BPA) dans les l\u00e9gumes, les fruits, les jus/boissons, les boissons gazeuses/\u00e9nergisantes/pour sportifs, les pr\u00e9parations pour nourrissons, les p\u00e2tes, les soupes, les garnitures pour tartes, les laits de coco et les sauces/produits de cari en conserve vendus sur le march\u00e9 de d\u00e9tail au Canada; et</li>\n<li>comparer la pr\u00e9valence des concentrations de <abbr title=\"bisph\u00e9nol A\">BPA</abbr> \u00e9tablies dans le cadre de la pr\u00e9sente \u00e9tude \u00e0 d'autres donn\u00e9es canadiennes et internationales, le cas \u00e9ch\u00e9ant.</li>\n</ul>\n<p>Le bisph\u00e9nol A (BPA) est un produit chimique utilis\u00e9 dans la production de r\u00e9sines de polycarbonate et d'\u00e9poxy. Les r\u00e9sines d'\u00e9poxy peuvent servir d'enduit protecteur \u00e0 l'int\u00e9rieur des emballages d'aliments et de boissons, notamment des bo\u00eetes de conserve, pour emp\u00eacher les aliments d'entrer en contact direct avec le m\u00e9tal. Le <abbr title=\"bisph\u00e9nol A\">BPA</abbr> peut migrer de cet enduit vers les aliments, surtout \u00e0 des temp\u00e9ratures \u00e9lev\u00e9es (<abbr title=\"par exemple\">p.\u00a0ex.</abbr> dans les aliments mis en conserve par remplissage \u00e0 chaud ou soumis \u00e0 un traitement thermique). Des concentrations \u00e9lev\u00e9es de <abbr title=\"bisph\u00e9nol A\">BPA</abbr> ont \u00e9t\u00e9 associ\u00e9es aux produits alimentaires conserv\u00e9s dans le sirop, la sauce (en l'occurrence la sauce tomate) et l'eau sal\u00e9e.</p>\n<p>La Direction des aliments de Sant\u00e9 Canada a conclu que l'exposition actuelle au <abbr title=\"bisph\u00e9nol A\">BPA</abbr> de source alimentaire par l'interm\u00e9diaire des emballages n'est pas de nature \u00e0 constituer un risque pour la sant\u00e9 de la population g\u00e9n\u00e9rale, notamment les nouveau-n\u00e9s et les jeunes enfants. Cette conclusion a \u00e9t\u00e9 appuy\u00e9e par d'autres organismes internationaux charg\u00e9s de la r\u00e9glementation des aliments, y compris ceux des principaux partenaires commerciaux du Canada. L'utilisation du <abbr title=\"bisph\u00e9nol A\">BPA</abbr> dans les mat\u00e9riaux d'emballage des aliments n'est donc pas interdite au Canada. Sant\u00e9 Canada a recommand\u00e9 que le principe g\u00e9n\u00e9ral ALARA (\u00ab\u00a0<span lang=\"en\">as low as reasonably achievable</span>\u00a0\u00bb, ou \u00ab\u00a0le niveau le plus faible qu'il soit raisonnablement possible d'atteindre\u00a0\u00bb) soit appliqu\u00e9 par les fabricants d'emballages alimentaires et les \u00e9tablissements de transformation des aliments afin de limiter l'exposition des aliments au <abbr title=\"bisph\u00e9nol A\">BPA</abbr> contenu dans les emballages alimentaires, en particulier dans le cas des produits destin\u00e9s aux nourrissons et aux nouveau-n\u00e9s. \u00c0 cet \u00e9gard, la Direction des aliments de Sant\u00e9 Canada a conclu que le <abbr title=\"bisph\u00e9nol A\">BPA</abbr> n'est g\u00e9n\u00e9ralement pas d\u00e9tectable dans les pr\u00e9parations pour nourrissons en poudre en conserve offertes \u00e0 la vente au Canada, et en d\u00e9cembre 2014 (apr\u00e8s le pr\u00e9l\u00e8vement des \u00e9chantillons analys\u00e9s pour la pr\u00e9sente \u00e9tude), Sant\u00e9 Canada a confirm\u00e9 que les principaux fabricants de pr\u00e9parations pour nourrissons avaient graduellement abandonn\u00e9 l'utilisation d'emballages contenant du <abbr title=\"bisph\u00e9nol A\">BPA</abbr> pour le conditionnement des pr\u00e9parations liquides pour nourrissons.</p>\n<p>Au total, 391 \u00e9chantillons de produits canadiens et import\u00e9s ont \u00e9t\u00e9 pr\u00e9lev\u00e9s et analys\u00e9s dans le cadre de l'\u00e9tude cibl\u00e9e de 2013-2014 sur le <abbr title=\"bisph\u00e9nol A\">BPA</abbr>. Ces \u00e9chantillons incluaient 93 \u00e9chantillons de p\u00e2tes/soupes, 70 \u00e9chantillons de l\u00e9gumes en conserve, 55 \u00e9chantillons de pr\u00e9parations pour nourrissons, 54 \u00e9chantillons de jus/breuvage, 43 \u00e9chantillons de boissons gazeuses/\u00e9nergisantes/pour sportifs pr\u00eates \u00e0 consommer, 38 \u00e9chantillons de produits de fruits, 20 \u00e9chantillons de garniture pour tartes, 13 \u00e9chantillons de lait de coco et 5 \u00e9chantillons de produits de cari. Seuls des produits en conserve ont \u00e9t\u00e9 \u00e9chantillonn\u00e9s, car leur contenant est souvent enduit d'\u00e9poxy. Aucun <abbr title=\"bisph\u00e9nol A\">BPA</abbr> n'a \u00e9t\u00e9 d\u00e9tect\u00e9 dans 35,5\u00a0% des \u00e9chantillons \u00e9tudi\u00e9s. Le niveau de d\u00e9tection pour tous les \u00e9chantillons allait de 0,001 ppm (trouv\u00e9 dans un \u00e9chantillon de salade de fruits tropicaux) \u00e0 0,565 ppm (d\u00e9tect\u00e9 dans un seul \u00e9chantillon de ma\u00efs).</p>\n<p>Dans la pr\u00e9sente \u00e9tude du <abbr title=\"Plan d'action pour assurer la s\u00e9curit\u00e9 des produits alimentaires\">PAASPA</abbr>, les taux de d\u00e9tection du <abbr title=\"bisph\u00e9nol A\">BPA</abbr> pour les diverses denr\u00e9es \u00e9chantillonn\u00e9es \u00e9taient similaires, par rapport aux pr\u00e9c\u00e9dentes \u00e9tudes du <abbr title=\"Plan d'action pour assurer la s\u00e9curit\u00e9 des produits alimentaires\">PAASPA</abbr>, aux \u00e9tudes internationales et aux donn\u00e9es du Programme national de surveillance des r\u00e9sidus chimiques (PNSRC). Dans l'ensemble, les r\u00e9sultats de la pr\u00e9sente \u00e9tude cibl\u00e9e sont semblables aux r\u00e9sultats des \u00e9tudes pr\u00e9c\u00e9dentes du <abbr title=\"Plan d'action pour assurer la s\u00e9curit\u00e9 des produits alimentaires\">PAASPA</abbr>, et des autres \u00e9tudes canadiennes, et aux donn\u00e9es internationales.</p>\n<p>Comme la pr\u00e9sence de <abbr title=\"bisph\u00e9nol A\">BPA</abbr> dans les aliments vendus au Canada n'est pas r\u00e9glement\u00e9e et qu'aucune limite maximale (seuil de tol\u00e9rance ou norme) en la mati\u00e8re n'a \u00e9t\u00e9 fix\u00e9, il \u00e9tait impossible d'\u00e9valuer la conformit\u00e9 \u00e0 une norme quantitative. Le Bureau d'innocuit\u00e9 des produits chimiques de Sant\u00e9 Canada a d\u00e9termin\u00e9 qu'aucun des \u00e9chantillons analys\u00e9s dans le cadre de la pr\u00e9sente \u00e9tude n'\u00e9tait pr\u00e9occupant pour la sant\u00e9 humaine, et donc qu'aucun rappel de produit n'\u00e9tait n\u00e9cessaire.</p>\n<p>L'<abbr title=\"agence canadienne d'inspection des aliments\">ACIA</abbr> poursuira ses activit\u00e9s de surveillance et communiquera ses observations au public canadien et aux parties prenantes.</p>\r\n<style>\n/* required style */\n    .keyValue{\n\tdisplay: none !important;\n        visibility: hidden !important;\n</style>\n<h2>Demande de rapport complet</h2>\n<p>La version int\u00e9grale du pr\u00e9sent rapport est disponible sur demande.</p>\n\n<div class=\"wb-frmvld\">\n\n<form class=\"form-horizontal\" role=\"form\" method=\"post\" action=\"/active/netapp/comment/publicationposte.aspx#wb-cont\" name=\"frmPublication\">\n\n<input id=\"emailad0\" name=\"to\" class=\"hidden\" type=\"hidden\" aria-hidden=\"true\" value=\"THf2vzUcq9zP+P2sofXJJ/LofyiqeuGttrC71YESWcnB57FskxIq6bFeQsy9yUIbp7wyHWmjyc8mihjbFD17hXQI7EEjR/D+EKHqBQBJ2VA=\">\n<input name=\"strLang\" type=\"hidden\" value=\"Francais\">\n<input name=\"strSubject\" type=\"hidden\" value=\"Demande de rapport de r\u00e9sidus chimiques / microbiologie\">\n<input name=\"strTitle\" type=\"hidden\" value=\"title\">\n<input name=\"strUrl\" type=\"hidden\" value=\"url\">\n<script type=\"text/javascript\">\n    document.frmPublication.strTitle.value = document.getElementsByTagName(\"title\")[0].innerHTML;\n    document.frmPublication.strUrl.value = document.URL;\n</script>\n        \n<fieldset class=\"mrgn-tp-md mrgn-bttm-lg\">\t\t\n\n<legend class=\"field-name required\"><span class=\"field-name\">Le format dans lequel vous souhaitez recevoir le rapport</span> <strong class=\"required\">(obligatoire)</strong></legend>\n\n<div class=\"checkbox\">\n<label for=\"strPdf\"><input type=\"checkbox\" name=\"formatsent\" id=\"strPdf\" value=\"pdf\" required=\"required\">Fichier \u00e9lectronique PDF (format de document portable) envoy\u00e9 par courriel</label>\n</div>\n\n<div class=\"checkbox\">\n<label for=\"strText\"><input type=\"checkbox\" name=\"formatsent\" id=\"strText\" value=\"text\">Fichier \u00e9lectronique RTF (<span lang=\"en\">Rich Text Format</span>) envoy\u00e9 par courriel</label>\n</div>\n\n<div class=\"checkbox\">\n<label for=\"strBraille\"><input type=\"checkbox\" name=\"formatsent\" id=\"strBraille\" value=\"braille\">Copie braille envoy\u00e9e par la poste</label>\n</div>\n\n<div class=\"checkbox\">\n<label for=\"strPaper\"><input type=\"checkbox\" name=\"formatsent\" id=\"strPaper\" value=\"paper\">Copie papier envoy\u00e9e par la poste</label>\n</div>\n\n</fieldset>\t\n\n<fieldset class=\"mrgn-tp-md mrgn-bttm-lg\">\t\t\n\n<legend class=\"field-name\">Vos coordonn\u00e9es</legend>\n\n<label class=\"keyValue\" for=\"name\"></label>\n<input class=\"keyValue\" autocomplete=\"off\" type=\"text\" id=\"name\" name=\"name\">\n<label class=\"keyValue\" for=\"email\"></label>\n<input class=\"keyValue\" autocomplete=\"off\" type=\"email\" id=\"email\" name=\"email\"> \n\n<div class=\"form-group\">\n<label for=\"strFirstName\" class=\"required col-md-4 control-label\"><span class=\"field-name\">Pr\u00e9nom :</span> <strong class=\"required\">(obligatoire)</strong></label>\n<div class=\"col-md-8\">\n<input class=\"form-control\" id=\"strFirstName\" name=\"strFirstName\" type=\"text\" required=\"required\" pattern=\".{2,}\" data-rule-minlength=\"2\">\n</div>\n</div>\n            \n<div class=\"form-group\">\n<label for=\"strLastName\" class=\"required col-md-4 control-label\"><span class=\"field-name\">Nom :</span> <strong class=\"required\">(obligatoire)</strong></label>\n<div class=\"col-md-8\">\n<input class=\"form-control\" id=\"strLastName\" name=\"strLastName\" type=\"text\" required=\"required\" pattern=\".{2,}\" data-rule-minlength=\"2\">\n</div>\n</div>\n\n<div class=\"form-group\">\n<label for=\"strEmail\" class=\"required col-md-4 control-label\"><span class=\"field-name\">Adresse de courriel :</span> \u00a0<strong class=\"required\">(obligatoire)</strong></label>\n<div class=\"col-md-8\">\n<input class=\"form-control\" id=\"strEmail\" name=\"strEmail\" type=\"email\" required=\"required\">\n</div>\n</div>\n\n<div class=\"form-group\">\n<label for=\"strConfirmEmail\" class=\"required col-md-4 control-label\"><span class=\"field-name\">Confirmer Adresse de courriel :</span>  <strong class=\"required\">(obligatoire)</strong></label>\n<div class=\"col-md-8\">\n<input class=\"form-control\" id=\"strConfirmEmail\" name=\"strConfirmEmail\" type=\"email\" data-rule-equalto=\"#strEmail\" required=\"required\">\n</div>\n</div>\n\n<div class=\"form-group mrgn-tp-md\">\n<label for=\"lstdescribe\" class=\"required col-md-4 control-label\"><span class=\"field-name\">Comment vous vous d\u00e9criviez?</span> <strong class=\"required\">(obligatoire)</strong></label>\n<div class=\"col-md-8\">\n<select class=\"form-control\" id=\"lstdescribe\" name=\"lstdescribe\" required=\"required\">\n<option label=\"Choisir parmi la liste\"></option>\n<option value=\"Acad\u00e9mie\">Acad\u00e9mie</option>\n<option value=\"Association sectorielle\">Association sectorielle</option>  \n<option value=\"Autres institutions du gouvernement\">Autres institutions du gouvernement</option>\n<option value=\"Consommateur/Grand public\">Consommateur / Grand public</option>\n<option value=\"Groupe de consommateur\">Groupe de consommateur</option>\n<option value=\"Industrie/Secteur commercial\">Industrie / Secteur commercial</option>\n</select>\n</div>\n</div>\t\n\n<div class=\"form-group\">\n<label for=\"strAddress1\" class=\"col-md-4 control-label\"><span class=\"field-name\">Adresse 1 :</span></label>\n<div class=\"col-md-8\">\n<input class=\"form-control\" id=\"strAddress1\" name=\"strAddress1\" type=\"text\">\n</div>\n</div>\n\n<div class=\"form-group\">\n<label for=\"strAddress2\" class=\"col-md-4 control-label\"><span class=\"field-name\">Adresse 2 :</span></label>\n<div class=\"col-md-8\">\n<input class=\"form-control\" id=\"strAddress2\" name=\"strAddress2\" type=\"text\">\n</div>\n</div>\n\n<div class=\"form-group\">\n<label for=\"strCity\" class=\"col-md-4 control-label\"><span class=\"field-name\">Ville :</span></label>\n<div class=\"col-md-8\">\n<input class=\"form-control\" id=\"strCity\" name=\"strCity\" type=\"text\">\n</div>\n</div>\n\n<div class=\"form-group\">\n<label for=\"strProvince\" class=\"col-md-4 control-label\"><span class=\"field-name\">Province :</span></label>\n<div class=\"col-md-8\">\n<input class=\"form-control\" id=\"strProvince\" name=\"strProvince\" type=\"text\">\n</div>\n</div>\n\n<div class=\"form-group\">\n<label for=\"strCountry\" class=\"col-md-4 control-label\"><span class=\"field-name\">Pays : </span></label>\n<div class=\"col-md-8\">\n<input class=\"form-control\" id=\"strCountry\" name=\"strCountry\" type=\"text\">\n</div>\n</div>\n\n<div class=\"form-group\">\n<label for=\"strPostal\" class=\"col-md-4 control-label\"><span class=\"field-name\">Code postal : </span></label>\n<div class=\"col-md-8\">\n<input class=\"form-control\" id=\"strPostal\" name=\"strPostal\" type=\"text\">\n</div>\n</div>\n\n</fieldset>\t\n\n<input value=\"Soumettre votre demande\" id=\"btnSubmit\" name=\"btnSubmit\" class=\"btn btn-primary\" type=\"submit\"> \n<input value=\"Effacez tous les renseignements\" id=\"btnReset\" name=\"btnReset\" class=\"btn btn-default\" type=\"reset\">\n\n</form>\n</div>\n<script src=\"https://ajax.googleapis.com/ajax/libs/jquery/2.1.1/jquery.min.js\"></script>\n<script type=\"text/javascript\">\n$(document).ready (function(){\n\tif($(\"#strPaper\").checked || $(\"#strBraille\").checked)\n\t{\n\t\tPaperBrailleChecked();\n\t}\n});\n\n$(document).on(\"change\", \"#strBraille\", function(){\n\tif($(\"#strBraille\").is(\":checked\"))\n\t{\n\t\tPaperBrailleChecked();\n\t}\n\telse if(!($(\"#strPaper\").is(\":checked\")))\n\t{\n\t\tPaperBrailleUnChecked();\n\t}\n});\n\n$(document).on(\"change\", \"#strPaper\", function(){\n\tif($(\"#strPaper\").is(\":checked\"))\n\t{\n\t\tPaperBrailleChecked();\n\t}\n\telse if(!($(\"#strBraille\").is(\":checked\")))\n\t{\n\t\tPaperBrailleUnChecked();\n\t}\n});\n\nfunction PaperBrailleChecked()\n{\n\t$(\"#strAddress1\").attr(\"required\", \"true\");\n\t$(\"#strCity\").attr(\"required\", \"true\");\n\t$(\"#strProvince\").attr(\"required\", \"true\");\n\t$(\"#strCountry\").attr(\"required\", \"true\");\n\t$(\"#strPostal\").attr(\"required\", \"true\");\n}\n\nfunction PaperBrailleUnChecked()\n{\n\t$(\"#strAddress1\").removeAttr(\"required\");\n\t$(\"#strCity\").removeAttr(\"required\");\n\t$(\"#strProvince\").removeAttr(\"required\");\n\t$(\"#strCountry\").removeAttr(\"required\");\n\t$(\"#strPostal\").removeAttr(\"required\");\n}\n</script>\r\n\r\n<div class=\"row\">\r\n \r\n\t\t\t\r\n\t\t\t\r\n\r\n\t\t\r\n\t\r\n</div>"
    },
    "success": true,
    "chat_wizard": false
}