{
    "dcr_id": "1547665474171",
    "title": {
        "en": "Executive Summary for System Performance <i lang=\"la\">Listeria</i> Report",
        "fr": "R\u00e9sum\u00e9 du rapport sur le rendement du syst\u00e8me <i lang=\"la\">Listeria</i>"
    },
    "html_modified": "28-1-2019",
    "modified": "28-1-2019",
    "issued": "16-1-2019",
    "teamsite_location": {
        "en": "/default/main/inspection/cont-cont/food-aliments/WORKAREA/food-aliments/templatedata/comn-comn/forms-formes/data/mcrblgy_exec_summry_listra_1547665474171_eng",
        "fr": "/default/main/inspection/cont-cont/food-aliments/WORKAREA/food-aliments/templatedata/comn-comn/forms-formes/data/mcrblgy_exec_summry_listra_1547665474171_fra"
    },
    "parent_ia_id": "1331962151945",
    "ia_id": "1547665474452",
    "parent_node_id": null,
    "layout_name": "content page 1 column",
    "breadcrumb": {
        "en": "Executive Summary for System Performance <i lang=\"la\">Listeria</i> Report",
        "fr": "R\u00e9sum\u00e9 du rapport sur le rendement du syst\u00e8me <i lang=\"la\">Listeria</i>"
    },
    "label": {
        "en": "Executive Summary for System Performance <i lang=\"la\">Listeria</i> Report",
        "fr": "R\u00e9sum\u00e9 du rapport sur le rendement du syst\u00e8me <i lang=\"la\">Listeria</i>"
    },
    "templatetype": "content page 1 column",
    "node_id": "1547665474452",
    "managing_branch": "comn",
    "type_name": "forms-formes",
    "parent_dcr_id": "1331960432334",
    "has_dcr_id": true,
    "lang": "en",
    "could_not_load": 0,
    "refaire": false,
    "interwoven_url": {
        "en": "/food-safety-for-industry/food-chemistry-and-microbiology/executive-summary-for-system-performance-listeria-/",
        "fr": "/salubrite-alimentaire-pour-l-industrie/chimie-et-microbiologie-alimentaires/resume-du-rapport-sur-le-rendement-du-systeme-list/"
    },
    "meta": {
        "viewport": {
            "en": "width=device-width,initial-scale=1",
            "fr": "width=device-width,initial-scale=1"
        },
        "service": {
            "en": "CFIA-ACIA",
            "fr": "CFIA-ACIA"
        },
        "accessRights": {
            "en": "2",
            "fr": "2"
        },
        "title": {
            "en": "Executive Summary for System Performance Listeria Report",
            "fr": "R\u00e9sum\u00e9 du rapport sur le rendement du syst\u00e8me Listeria"
        },
        "description": {
            "en": "In the summer of 2008, the presence of Listeria monocytogenes (Lm) in ready-to-eat (RTE) meat caused a listeriosis outbreak, resulting in 23 deaths.",
            "fr": "Au cours de l'\u00e9t\u00e9 2008, la pr\u00e9sence de Listeria monocytogenes dans la viande pr\u00eate-\u00e0-manger a caus\u00e9 une \u00e9closion de list\u00e9riose qui a fait 23 morts."
        },
        "keywords": {
            "en": "food, food safety, food safety requirements, sampling, testing, food safety risks, listeriosis, Listeria monocytogenes, Listeria",
            "fr": "aliments, salubrit\u00e9 des aliments, exigences en mati\u00e8re de salubrit\u00e9 alimentaire, \u00e9chantillonnage, analyse, risques pour la salubrit\u00e9 des aliments, list\u00e9riose, Listeria monocytogenes, Listeria"
        },
        "dcterms.subject": {
            "en": "food,food inspection,agri-food products,regulation,food safety,safety,testing",
            "fr": "aliment,inspection des aliments,produit agro-alimentaire,r\u00e9glementation,salubrit\u00e9 des aliments,s\u00e9curit\u00e9,test"
        },
        "creator": {
            "en": "Government of Canada,Canadian Food Inspection Agency,Vice President, Communications and Public Affairs",
            "fr": "Gouvernement du Canada,Agence canadienne d'inspection des aliments,Vice pr\u00e9sidente, Communications et affaires publiques"
        },
        "language": {
            "en": "eng",
            "fr": "fra"
        },
        "issued": {
            "en": "2019-01-28",
            "fr": "2019-01-28"
        },
        "modified": {
            "en": "2019-01-28",
            "fr": "2019-01-28"
        },
        "type": {
            "en": "reference material",
            "fr": "mat\u00e9riel de r\u00e9f\u00e9rence"
        },
        "audience": {
            "en": "business,government,general public",
            "fr": "entreprises,gouvernement,grand public"
        },
        "name": {
            "en": "Government of Canada",
            "fr": "Gouvernement du Canada"
        },
        "areaServed": {
            "en": "Canada",
            "fr": "Canada"
        }
    },
    "h1": {
        "en": "Executive Summary for System Performance Listeria Report",
        "fr": "R\u00e9sum\u00e9 du rapport sur le rendement du syst\u00e8me Listeria"
    },
    "js": {
        "en": "<script>\n    document.frmPublication.strTitle.value = document.getElementsByTagName(\"title\")[0].innerHTML;\n    document.frmPublication.strUrl.value = document.URL;\n</script>/* --------------------- MORE JAVASCRIPT ------------------- */<script>\n$(document).ready (function(){\n\tif($(\"#strPaper\").checked || $(\"#strBraille\").checked)\n\t{\n\t\tPaperBrailleChecked();\n\t}\n});\n\n$(document).on(\"change\", \"#strBraille\", function(){\n\tif($(\"#strBraille\").is(\":checked\"))\n\t{\n\t\tPaperBrailleChecked();\n\t}\n\telse if(!($(\"#strPaper\").is(\":checked\")))\n\t{\n\t\tPaperBrailleUnChecked();\n\t}\n});\n\n$(document).on(\"change\", \"#strPaper\", function(){\n\tif($(\"#strPaper\").is(\":checked\"))\n\t{\n\t\tPaperBrailleChecked();\n\t}\n\telse if(!($(\"#strBraille\").is(\":checked\")))\n\t{\n\t\tPaperBrailleUnChecked();\n\t}\n});\n\nfunction PaperBrailleChecked()\n{\n\t$(\"#strAddress1\").attr(\"required\", \"true\");\n\t$(\"#strCity\").attr(\"required\", \"true\");\n\t$(\"#strProvince\").attr(\"required\", \"true\");\n\t$(\"#strCountry\").attr(\"required\", \"true\");\n\t$(\"#strPostal\").attr(\"required\", \"true\");\n}\n\nfunction PaperBrailleUnChecked()\n{\n\t$(\"#strAddress1\").removeAttr(\"required\");\n\t$(\"#strCity\").removeAttr(\"required\");\n\t$(\"#strProvince\").removeAttr(\"required\");\n\t$(\"#strCountry\").removeAttr(\"required\");\n\t$(\"#strPostal\").removeAttr(\"required\");\n}\n</script>",
        "fr": "<script>\n    document.frmPublication.strTitle.value = document.getElementsByTagName(\"title\")[0].innerHTML;\n    document.frmPublication.strUrl.value = document.URL;\n</script>/* --------------------- MORE JAVASCRIPT ------------------- */<script>\n$(document).ready (function(){\n\tif($(\"#strPaper\").checked || $(\"#strBraille\").checked)\n\t{\n\t\tPaperBrailleChecked();\n\t}\n});\n\n$(document).on(\"change\", \"#strBraille\", function(){\n\tif($(\"#strBraille\").is(\":checked\"))\n\t{\n\t\tPaperBrailleChecked();\n\t}\n\telse if(!($(\"#strPaper\").is(\":checked\")))\n\t{\n\t\tPaperBrailleUnChecked();\n\t}\n});\n\n$(document).on(\"change\", \"#strPaper\", function(){\n\tif($(\"#strPaper\").is(\":checked\"))\n\t{\n\t\tPaperBrailleChecked();\n\t}\n\telse if(!($(\"#strBraille\").is(\":checked\")))\n\t{\n\t\tPaperBrailleUnChecked();\n\t}\n});\n\nfunction PaperBrailleChecked()\n{\n\t$(\"#strAddress1\").attr(\"required\", \"true\");\n\t$(\"#strCity\").attr(\"required\", \"true\");\n\t$(\"#strProvince\").attr(\"required\", \"true\");\n\t$(\"#strCountry\").attr(\"required\", \"true\");\n\t$(\"#strPostal\").attr(\"required\", \"true\");\n}\n\nfunction PaperBrailleUnChecked()\n{\n\t$(\"#strAddress1\").removeAttr(\"required\");\n\t$(\"#strCity\").removeAttr(\"required\");\n\t$(\"#strProvince\").removeAttr(\"required\");\n\t$(\"#strCountry\").removeAttr(\"required\");\n\t$(\"#strPostal\").removeAttr(\"required\");\n}\n</script>"
    },
    "mode_html": "no_editor_full",
    "body": {
        "en": "        \r\n        \n<p>In the summer of 2008, the presence of <i lang=\"la\">Listeria monocytogenes</i> (Lm) in ready-to-eat (RTE) meat caused a listeriosis outbreak, resulting in 23 deaths. Following an independent investigation, the Weatherill report spurred changes to the government's <i lang=\"la\">Listeria</i> policy, development of new Canadian Food Inspection Agency (CFIA) monitoring plans, and increased sampling and risk based targeted monitoring efforts by the CFIA and industry.</p>\n\n<p>The CFIA used a new approach, system performance, to determine how the <i lang=\"la\">Listeria</i> system controls are working. System performance acknowledges that multiple players contribute to food safety and looks not only at the actions of the CFIA but also considers the actions of other players in the food system (for example, other government departments, industry and consumers) that is integral to achieving shared outcomes.</p>\n\n<p>System performance builds on the more traditional performance measurement approach by combining CFIA's performance measurement data with information from external sources to</p>\n\n<ul class=\"list-unstyled mrgn-lft-md\">\n<li>i) identify how key risks are addressed</li>\n<li>ii) to tell an overall performance story and</li>\n<li>iii) identify gaps and potential areas for future action</li>\n</ul>\n\n<p>In this assessment, the timeframe examined was fiscal year 2009 to 2010 , to fiscal year 2015 to 2016, and inspection and sampling data for RTE meat products and RTE non-meat products from the following commodities was used: fresh and processed fruit and vegetables, dairy, egg and fish and fish products was considered. Data was collected using three approaches:</p>\n\n<ul>\n<li>qualitative data obtained from discussions with CFIA, Health Canada (HC), Public Health Agency of Canada, and industry</li>\n<li>quantitative data from the CFIA and meat industry</li>\n<li>review of relevant publications/documents</li>\n</ul>\n\n<p>The overall picture is one in which the objectives of the HC <i lang=\"la\">Listeria</i> policy, in terms of the implementation of enhanced system controls, are being met:</p>\n\n<ul class=\"lst-spcd\">\n<li>The qualitative data show that current industry and federal government systems are complimentary, and that both have appropriate controls in place to manage Lm risk\n<ul>\n<li>The system is working; activities are appropriate and are being delivered by federal government departments and industry.</li>\n<li>The policy is widely accepted and there are no factors or conflicting initiatives which impede the success of the policy.</li>\n</ul></li>\n<li>The quantitative data show high industry compliance rates, with consistency between meat industry and CFIA datasets.</li>\n<li>The low occurrence of Lm in RTE-products at the retail level seems to corroborate high industry compliance rates.</li>\n</ul>\n\n<p>Although the incidence rate of listeriosis in Canada has been relatively consistent over the time period in which the HC <i lang=\"la\">Listeria</i> policy has been in place, it is difficult to link the actions of the various players to the incidence rate of listeriosis in Canadians.</p>\n\n<p>While the system for controls for <i lang=\"la\">Listeria</i> is working well, there are opportunities for improvement. Observations were made pertaining to federal government and industry actions in regards to: sampling, data collection, training, communication opportunities, how to better engage consumers and potential further investigations into the roots of imported and domestic product recalls.</p>\r\n<style>\n/* required style */\n    .keyValue{\n\tdisplay: none !important;\n        visibility: hidden !important;\n</style>\n<h2>Request of Complete Report</h2>\n<p>The complete text of this report is available upon request.</p>\n\n<div class=\"wb-frmvld\">\n\n<form class=\"form-horizontal\" role=\"form\" method=\"post\" action=\"/active/netapp/comment/publicationposte.aspx#wb-cont\" name=\"frmPublication\">\n<input id=\"emailad0\" name=\"to\" class=\"hidden\" type=\"hidden\" aria-hidden=\"true\" value=\"C1WbnEl2IA53alp11XsVO3btUVWtBkfe3JTja2YWDmQQOUPCt3RomyAEK8ZBi2NX\"><input id=\"emailad1\" name=\"to\" class=\"hidden\" type=\"hidden\" aria-hidden=\"true\" value=\"flUMhSs4PphEgBxx8TKFsXRWEbD38t3k4rUdxtcpi+KqNX6AvZ2lTLGOVemh3FKB\">\n<input name=\"strLang\" type=\"hidden\" value=\"English\">\n<input name=\"strSubject\" type=\"hidden\" value=\"Chemical Residues / Microbiology Report Request\">\n<input name=\"strTitle\" type=\"hidden\" value=\"title\">\n<input name=\"strUrl\" type=\"hidden\" value=\"url\">\n<script type=\"text/javascript\">\n    document.frmPublication.strTitle.value = document.getElementsByTagName(\"title\")[0].innerHTML;\n    document.frmPublication.strUrl.value = document.URL;\n</script>\n        \n<fieldset class=\"mrgn-tp-md mrgn-bttm-lg\">\t\t\n\n<legend class=\"field-name required\"><span class=\"field-name\">The format in which you would like to receive the report</span> <strong class=\"required\">(required)</strong></legend>\n\n<div class=\"checkbox\">\n<label for=\"strPdf\"><input type=\"checkbox\" name=\"formatsent\" id=\"strPdf\" value=\"pdf\" required=\"required\">PDF (Portable Document Format) electronic file sent to you by email</label>\n</div>\n\n<div class=\"checkbox\">\n<label for=\"strText\"><input type=\"checkbox\" name=\"formatsent\" id=\"strText\" value=\"text\">RTF (Rich Text Format) electronic file sent to you by email</label>\n</div>\n\n<div class=\"checkbox\">\n<label for=\"strBraille\"><input type=\"checkbox\" name=\"formatsent\" id=\"strBraille\" value=\"braille\">Braille copy sent to you by mail</label>\n</div>\n\n<div class=\"checkbox\">\n<label for=\"strPaper\"><input type=\"checkbox\" name=\"formatsent\" id=\"strPaper\" value=\"paper\">Paper copy sent to you by mail</label>\n</div>\n\n</fieldset>\t\n\n<fieldset class=\"mrgn-tp-md mrgn-bttm-lg\">\t\t\n\n<legend class=\"field-name\">Your contact information</legend>\n\n<label class=\"keyValue\" for=\"name\"></label>\n<input class=\"keyValue\" autocomplete=\"off\" type=\"text\" id=\"name\" name=\"name\">\n<label class=\"keyValue\" for=\"email\"></label>\n<input class=\"keyValue\" autocomplete=\"off\" type=\"email\" id=\"email\" name=\"email\"> \n\n<div class=\"form-group\">\n<label for=\"strFirstName\" class=\"required col-md-4 control-label\"><span class=\"field-name\">First name:</span> <strong class=\"required\">(required)</strong></label>\n<div class=\"col-md-8\">\n<input class=\"form-control\" id=\"strFirstName\" name=\"strFirstName\" type=\"text\" required=\"required\" pattern=\".{2,}\" data-rule-minlength=\"2\">\n</div>\n</div>\n            \n<div class=\"form-group\">\n<label for=\"strLastName\" class=\"required col-md-4 control-label\"><span class=\"field-name\">Last name:</span> <strong class=\"required\">(required)</strong></label>\n<div class=\"col-md-8\">\n<input class=\"form-control\" id=\"strLastName\" name=\"strLastName\" type=\"text\" required=\"required\" pattern=\".{2,}\" data-rule-minlength=\"2\">\n</div>\n</div>\n\n<div class=\"form-group\">\n<label for=\"strEmail\" class=\"required col-md-4 control-label\"><span class=\"field-name\">Email address:</span>  <strong class=\"required\">(required)</strong></label>\n<div class=\"col-md-8\">\n<input class=\"form-control\" id=\"strEmail\" name=\"strEmail\" type=\"email\" required=\"required\">\n</div>\n</div>\n\n<div class=\"form-group\">\n<label for=\"strConfirmEmail\" class=\"required col-md-4 control-label\"><span class=\"field-name\">Confirm email address:</span>  <strong class=\"required\">(required)</strong></label>\n<div class=\"col-md-8\">\n<input class=\"form-control\" id=\"strConfirmEmail\" name=\"strConfirmEmail\" type=\"email\" data-rule-equalto=\"#strEmail\" required=\"required\">\n</div>\n</div>\n\n<div class=\"form-group mrgn-tp-md\">\n<label for=\"lstdescribe\" class=\"required col-md-4 control-label\"><span class=\"field-name\">How would you describe yourself?</span> <strong class=\"required\">(required)</strong></label>\n<div class=\"col-md-8\">\n<select class=\"form-control\" id=\"lstdescribe\" name=\"lstdescribe\" required=\"required\">\n<option label=\"Select from this list\"></option>\n<option value=\"Academia\">Academia</option>\n<option value=\"Consumer Association\">Consumer Association</option>\n<option value=\"Consumer/General Public\">Consumer / General Public</option>\n<option value=\"Industry Association\">Industry Association</option>\n<option value=\"Industry/Commercial Sector\">Industry / Commercial Sector</option>\n<option value=\"Other Government Departments\">Other Government Departments</option>\t\t\t\n</select>\n</div>\n</div>\t\n\n<div class=\"form-group\">\n<label for=\"strAddress1\" class=\"col-md-4 control-label\"><span class=\"field-name\">Address 1:</span></label>\n<div class=\"col-md-8\">\n<input class=\"form-control\" id=\"strAddress1\" name=\"strAddress1\" type=\"text\">\n</div>\n</div>\n\n<div class=\"form-group\">\n<label for=\"strAddress2\" class=\"col-md-4 control-label\"><span class=\"field-name\">Address 2:</span></label>\n<div class=\"col-md-8\">\n<input class=\"form-control\" id=\"strAddress2\" name=\"strAddress2\" type=\"text\">\n</div>\n</div>\n\n<div class=\"form-group\">\n<label for=\"strCity\" class=\"col-md-4 control-label\"><span class=\"field-name\">City:</span></label>\n<div class=\"col-md-8\">\n<input class=\"form-control\" id=\"strCity\" name=\"strCity\" type=\"text\">\n</div>\n</div>\n\n<div class=\"form-group\">\n<label for=\"strProvince\" class=\"col-md-4 control-label\"><span class=\"field-name\">Province:</span></label>\n<div class=\"col-md-8\">\n<input class=\"form-control\" id=\"strProvince\" name=\"strProvince\" type=\"text\">\n</div>\n</div>\n\n<div class=\"form-group\">\n<label for=\"strCountry\" class=\"col-md-4 control-label\"><span class=\"field-name\">Country:</span></label>\n<div class=\"col-md-8\">\n<input class=\"form-control\" id=\"strCountry\" name=\"strCountry\" type=\"text\">\n</div>\n</div>\n\n<div class=\"form-group\">\n<label for=\"strPostal\" class=\"col-md-4 control-label\"><span class=\"field-name\">Postal Code:</span></label>\n<div class=\"col-md-8\">\n<input class=\"form-control\" id=\"strPostal\" name=\"strPostal\" type=\"text\">\n</div>\n</div>\n\n</fieldset>\t\n\n<input value=\"Submit Your Request\" id=\"btnSubmit\" name=\"btnSubmit\" class=\"btn btn-primary\" type=\"submit\"> \n<input value=\"Clear All Information\" id=\"btnReset\" name=\"btnReset\" class=\"btn btn-default\" type=\"reset\">\n\n</form>\n</div>\n<script src=\"https://ajax.googleapis.com/ajax/libs/jquery/2.1.1/jquery.min.js\"></script>\n<script type=\"text/javascript\">\n$(document).ready (function(){\n\tif($(\"#strPaper\").checked || $(\"#strBraille\").checked)\n\t{\n\t\tPaperBrailleChecked();\n\t}\n});\n\n$(document).on(\"change\", \"#strBraille\", function(){\n\tif($(\"#strBraille\").is(\":checked\"))\n\t{\n\t\tPaperBrailleChecked();\n\t}\n\telse if(!($(\"#strPaper\").is(\":checked\")))\n\t{\n\t\tPaperBrailleUnChecked();\n\t}\n});\n\n$(document).on(\"change\", \"#strPaper\", function(){\n\tif($(\"#strPaper\").is(\":checked\"))\n\t{\n\t\tPaperBrailleChecked();\n\t}\n\telse if(!($(\"#strBraille\").is(\":checked\")))\n\t{\n\t\tPaperBrailleUnChecked();\n\t}\n});\n\nfunction PaperBrailleChecked()\n{\n\t$(\"#strAddress1\").attr(\"required\", \"true\");\n\t$(\"#strCity\").attr(\"required\", \"true\");\n\t$(\"#strProvince\").attr(\"required\", \"true\");\n\t$(\"#strCountry\").attr(\"required\", \"true\");\n\t$(\"#strPostal\").attr(\"required\", \"true\");\n}\n\nfunction PaperBrailleUnChecked()\n{\n\t$(\"#strAddress1\").removeAttr(\"required\");\n\t$(\"#strCity\").removeAttr(\"required\");\n\t$(\"#strProvince\").removeAttr(\"required\");\n\t$(\"#strCountry\").removeAttr(\"required\");\n\t$(\"#strPostal\").removeAttr(\"required\");\n}\n</script>\r\n\r\n\r\n\r\n<div class=\"row\">\r\n \r\n\t\r\n\t\t\t\r\n\r\n<div class=\"col-xm-12 pagedetails container\">\r\n\t\t\t\t\r\n\r\n</div>\r\n\t\r\n</div>",
        "fr": "\r\n        \r\n        \n<p>Au cours de l'\u00e9t\u00e9 2008, la pr\u00e9sence de <i lang=\"la\">Listeria monocytogenes</i> dans la viande pr\u00eate-\u00e0-manger a caus\u00e9 une \u00e9closion de list\u00e9riose qui a fait 23 morts. Apr\u00e8s une enqu\u00eate ind\u00e9pendante, le rapport Weatherill a entra\u00een\u00e9 des modifications \u00e0 la politique sur la pr\u00e9sence de <i lang=\"la\">Listeria</i> du gouvernement, l'\u00e9laboration de nouveaux plans de surveillance de l'Agence canadienne d'inspection des aliments (ACIA) et l'augmentation des efforts de surveillance cibl\u00e9e fond\u00e9e sur l'\u00e9chantillonnage et le risque par l'ACIA et l'industrie.</p>\n\n<p>L'ACIA a adopt\u00e9 une nouvelle approche nomm\u00e9e \u00ab rendement du syst\u00e8me \u00bb qui vise \u00e0 d\u00e9terminer \u00e0 quel point les contr\u00f4les du syst\u00e8me sur la <i lang=\"la\">Listeria</i> sont efficaces. Le rendement du syst\u00e8me reconna\u00eet que plusieurs intervenants contribuent \u00e0 la salubrit\u00e9 des aliments et prend en compte non seulement les actions de l'ACIA, mais \u00e9galement celles d'autres intervenants du syst\u00e8me alimentaire (p. ex., les autres minist\u00e8res, l'industrie et les consommateurs) qui sont indispensables \u00e0 la r\u00e9alisation des r\u00e9sultats communs.</p>\n\n<p>Le rendement du syst\u00e8me s'appuie sur l'approche de mesure du rendement plus traditionnelle en alliant les donn\u00e9es de mesure du rendement de l'ACIA \u00e0 des renseignements provenant de sources externes pour</p>\n\n<ul class=\"list-unstyled mrgn-lft-md\">\n<li>i) d\u00e9terminer la fa\u00e7on dont les risques sont g\u00e9r\u00e9s,</li>\n<li>ii) dresser le portrait du rendement global et</li>\n<li>iii) icibler les lacunes et les champs d'action potentiels pour l'avenir.</li>\n</ul>\n\n<p>Pour cette \u00e9valuation, on a examin\u00e9 la p\u00e9riode de l'ann\u00e9e financi\u00e8re 2009 \u00e0 2010 et l'ann\u00e9e financi\u00e8re 2015 \u00e0 2016, et on a utilis\u00e9 des donn\u00e9es d'inspection et d'\u00e9chantillonnage de produits carn\u00e9s pr\u00eats-\u00e0-manger ainsi que de produits pr\u00eats-\u00e0-manger sans viande d\u00e9riv\u00e9s de fruits et de l\u00e9gumes frais ou transform\u00e9s, de produits laitiers, d'\u0153ufs, de poissons et de produits du poisson. On a recueilli les donn\u00e9es selon trois approches\u00a0:</p>\n\n<ul>\n<li>des donn\u00e9es qualitatives obtenues dans le cadre de discussions avec l'ACIA, Sant\u00e9 Canada, l'Agence de la sant\u00e9 publique du Canada et l'industrie;</li>\n<li>des donn\u00e9es quantitatives provenant de l'ACIA et de l'industrie de la viande;</li>\n<li>l'examen de publications et de documents pertinents.</li>\n</ul>\n\n<p>Dans l'ensemble, on peut constater le respect des objectifs de la politique sur la pr\u00e9sence de <i lang=\"la\">Listeria</i> de Sant\u00e9 Canada visant \u00e0 mettre en \u0153uvre de meilleurs contr\u00f4les de syst\u00e8me.</p>\n\n<ul class=\"lst-spcd\">\n<li>Les donn\u00e9es qualitatives montrent que les syst\u00e8mes actuels de l'industrie et du gouvernement f\u00e9d\u00e9ral se compl\u00e8tent et que les deux offrent des contr\u00f4les ad\u00e9quats pour g\u00e9rer les risques li\u00e9s \u00e0 la bact\u00e9rie <i lang=\"la\">Listeria monocytogenes</i>.\n<ul>\n<li>Le syst\u00e8me fonctionne. Les activit\u00e9s sont pertinentes et sont men\u00e9es par les minist\u00e8res du gouvernement f\u00e9d\u00e9ral et l'industrie.</li>\n<li>La politique est largement accept\u00e9e et aucun facteur ni initiative incompatible ne vient nuire au succ\u00e8s de la politique.</li>\n</ul></li>\n<li>Les donn\u00e9es quantitatives pr\u00e9sentent des taux \u00e9lev\u00e9s de conformit\u00e9 de la part de l'industrie et une coh\u00e9rence entre les ensembles de donn\u00e9es de l'industrie de la viande et de l'ACIA.</li>\n<li>La faible pr\u00e9sence de la bact\u00e9rie <i lang=\"la\">Listeria monocytogenes</i> dans les produits pr\u00eats-\u00e0-manger vendus au d\u00e9tail semble confirmer les taux \u00e9lev\u00e9s de conformit\u00e9 de l'industrie.</li>\n</ul>\n\n<p>M\u00eame si le taux d'incidence de la list\u00e9riose au Canada est demeur\u00e9 constant depuis que la politique sur la pr\u00e9sence de <i lang=\"la\">Listeria</i> de Sant\u00e9 Canada est en vigueur, il est difficile d'\u00e9tablir un lien entre les actions des divers acteurs et le taux d'incidence de la list\u00e9riose chez les Canadiens.</p>\n\n<p>M\u00eame si le syst\u00e8me de contr\u00f4le de <i lang=\"la\">Listeria</i> fonctionne bien, il existe des possibilit\u00e9s d'am\u00e9lioration. On a fait des observations \u00e0 propos des actions prises par le gouvernement f\u00e9d\u00e9ral et l'industrie concernant l'\u00e9chantillonnage, la collecte de donn\u00e9es, la formation, les occasions de communication, la fa\u00e7on de mieux mobiliser les clients et d'autres enqu\u00eates potentielles sur les origines des rappels de produits import\u00e9s et nationaux.</p>\r\n<style>\n/* required style */\n    .keyValue{\n\tdisplay: none !important;\n        visibility: hidden !important;\n</style>\n<h2>Demande de rapport complet</h2>\n<p>La version int\u00e9grale du pr\u00e9sent rapport est disponible sur demande.</p>\n\n<div class=\"wb-frmvld\">\n\n<form class=\"form-horizontal\" role=\"form\" method=\"post\" action=\"/active/netapp/comment/publicationposte.aspx#wb-cont\" name=\"frmPublication\">\n\n<input id=\"emailad0\" name=\"to\" class=\"hidden\" type=\"hidden\" aria-hidden=\"true\" value=\"lvm01ZmOxf3nKiPqLE9uH9meBohAbCdWswbUsR3ukfgPLhC6u7KMSmOx+R2r0/vn\"><input id=\"emailad1\" name=\"to\" class=\"hidden\" type=\"hidden\" aria-hidden=\"true\" value=\"41fc9O21LgAcxWfn4vG4RDPa1ypAJdT27MJT6Qjy/JGpdUS6o8g4sJaA0gypuas4\">\n<input name=\"strLang\" type=\"hidden\" value=\"Francais\">\n<input name=\"strSubject\" type=\"hidden\" value=\"Demande de rapport de r\u00e9sidus chimiques / microbiologie\">\n<input name=\"strTitle\" type=\"hidden\" value=\"title\">\n<input name=\"strUrl\" type=\"hidden\" value=\"url\">\n<script type=\"text/javascript\">\n    document.frmPublication.strTitle.value = document.getElementsByTagName(\"title\")[0].innerHTML;\n    document.frmPublication.strUrl.value = document.URL;\n</script>\n        \n<fieldset class=\"mrgn-tp-md mrgn-bttm-lg\">\t\t\n\n<legend class=\"field-name required\"><span class=\"field-name\">Le format dans lequel vous souhaitez recevoir le rapport</span> <strong class=\"required\">(obligatoire)</strong></legend>\n\n<div class=\"checkbox\">\n<label for=\"strPdf\"><input type=\"checkbox\" name=\"formatsent\" id=\"strPdf\" value=\"pdf\" required=\"required\">Fichier \u00e9lectronique PDF (format de document portable) envoy\u00e9 par courriel</label>\n</div>\n\n<div class=\"checkbox\">\n<label for=\"strText\"><input type=\"checkbox\" name=\"formatsent\" id=\"strText\" value=\"text\">Fichier \u00e9lectronique RTF (<span lang=\"en\">Rich Text Format</span>) envoy\u00e9 par courriel</label>\n</div>\n\n<div class=\"checkbox\">\n<label for=\"strBraille\"><input type=\"checkbox\" name=\"formatsent\" id=\"strBraille\" value=\"braille\">Copie braille envoy\u00e9e par la poste</label>\n</div>\n\n<div class=\"checkbox\">\n<label for=\"strPaper\"><input type=\"checkbox\" name=\"formatsent\" id=\"strPaper\" value=\"paper\">Copie papier envoy\u00e9e par la poste</label>\n</div>\n\n</fieldset>\t\n\n<fieldset class=\"mrgn-tp-md mrgn-bttm-lg\">\t\t\n\n<legend class=\"field-name\">Vos coordonn\u00e9es</legend>\n\n<label class=\"keyValue\" for=\"name\"></label>\n<input class=\"keyValue\" autocomplete=\"off\" type=\"text\" id=\"name\" name=\"name\">\n<label class=\"keyValue\" for=\"email\"></label>\n<input class=\"keyValue\" autocomplete=\"off\" type=\"email\" id=\"email\" name=\"email\"> \n\n<div class=\"form-group\">\n<label for=\"strFirstName\" class=\"required col-md-4 control-label\"><span class=\"field-name\">Pr\u00e9nom :</span> <strong class=\"required\">(obligatoire)</strong></label>\n<div class=\"col-md-8\">\n<input class=\"form-control\" id=\"strFirstName\" name=\"strFirstName\" type=\"text\" required=\"required\" pattern=\".{2,}\" data-rule-minlength=\"2\">\n</div>\n</div>\n            \n<div class=\"form-group\">\n<label for=\"strLastName\" class=\"required col-md-4 control-label\"><span class=\"field-name\">Nom :</span> <strong class=\"required\">(obligatoire)</strong></label>\n<div class=\"col-md-8\">\n<input class=\"form-control\" id=\"strLastName\" name=\"strLastName\" type=\"text\" required=\"required\" pattern=\".{2,}\" data-rule-minlength=\"2\">\n</div>\n</div>\n\n<div class=\"form-group\">\n<label for=\"strEmail\" class=\"required col-md-4 control-label\"><span class=\"field-name\">Adresse de courriel :</span> \u00a0<strong class=\"required\">(obligatoire)</strong></label>\n<div class=\"col-md-8\">\n<input class=\"form-control\" id=\"strEmail\" name=\"strEmail\" type=\"email\" required=\"required\">\n</div>\n</div>\n\n<div class=\"form-group\">\n<label for=\"strConfirmEmail\" class=\"required col-md-4 control-label\"><span class=\"field-name\">Confirmer Adresse de courriel :</span>  <strong class=\"required\">(obligatoire)</strong></label>\n<div class=\"col-md-8\">\n<input class=\"form-control\" id=\"strConfirmEmail\" name=\"strConfirmEmail\" type=\"email\" data-rule-equalto=\"#strEmail\" required=\"required\">\n</div>\n</div>\n\n<div class=\"form-group mrgn-tp-md\">\n<label for=\"lstdescribe\" class=\"required col-md-4 control-label\"><span class=\"field-name\">Comment vous vous d\u00e9criviez?</span> <strong class=\"required\">(obligatoire)</strong></label>\n<div class=\"col-md-8\">\n<select class=\"form-control\" id=\"lstdescribe\" name=\"lstdescribe\" required=\"required\">\n<option label=\"Choisir parmi la liste\"></option>\n<option value=\"Acad\u00e9mie\">Acad\u00e9mie</option>\n<option value=\"Association sectorielle\">Association sectorielle</option>  \n<option value=\"Autres institutions du gouvernement\">Autres institutions du gouvernement</option>\n<option value=\"Consommateur/Grand public\">Consommateur / Grand public</option>\n<option value=\"Groupe de consommateur\">Groupe de consommateur</option>\n<option value=\"Industrie/Secteur commercial\">Industrie / Secteur commercial</option>\n</select>\n</div>\n</div>\t\n\n<div class=\"form-group\">\n<label for=\"strAddress1\" class=\"col-md-4 control-label\"><span class=\"field-name\">Adresse 1 :</span></label>\n<div class=\"col-md-8\">\n<input class=\"form-control\" id=\"strAddress1\" name=\"strAddress1\" type=\"text\">\n</div>\n</div>\n\n<div class=\"form-group\">\n<label for=\"strAddress2\" class=\"col-md-4 control-label\"><span class=\"field-name\">Adresse 2 :</span></label>\n<div class=\"col-md-8\">\n<input class=\"form-control\" id=\"strAddress2\" name=\"strAddress2\" type=\"text\">\n</div>\n</div>\n\n<div class=\"form-group\">\n<label for=\"strCity\" class=\"col-md-4 control-label\"><span class=\"field-name\">Ville :</span></label>\n<div class=\"col-md-8\">\n<input class=\"form-control\" id=\"strCity\" name=\"strCity\" type=\"text\">\n</div>\n</div>\n\n<div class=\"form-group\">\n<label for=\"strProvince\" class=\"col-md-4 control-label\"><span class=\"field-name\">Province :</span></label>\n<div class=\"col-md-8\">\n<input class=\"form-control\" id=\"strProvince\" name=\"strProvince\" type=\"text\">\n</div>\n</div>\n\n<div class=\"form-group\">\n<label for=\"strCountry\" class=\"col-md-4 control-label\"><span class=\"field-name\">Pays : </span></label>\n<div class=\"col-md-8\">\n<input class=\"form-control\" id=\"strCountry\" name=\"strCountry\" type=\"text\">\n</div>\n</div>\n\n<div class=\"form-group\">\n<label for=\"strPostal\" class=\"col-md-4 control-label\"><span class=\"field-name\">Code postal : </span></label>\n<div class=\"col-md-8\">\n<input class=\"form-control\" id=\"strPostal\" name=\"strPostal\" type=\"text\">\n</div>\n</div>\n\n</fieldset>\t\n\n<input value=\"Soumettre votre demande\" id=\"btnSubmit\" name=\"btnSubmit\" class=\"btn btn-primary\" type=\"submit\"> \n<input value=\"Effacez tous les renseignements\" id=\"btnReset\" name=\"btnReset\" class=\"btn btn-default\" type=\"reset\">\n\n</form>\n</div>\n<script src=\"https://ajax.googleapis.com/ajax/libs/jquery/2.1.1/jquery.min.js\"></script>\n<script type=\"text/javascript\">\n$(document).ready (function(){\n\tif($(\"#strPaper\").checked || $(\"#strBraille\").checked)\n\t{\n\t\tPaperBrailleChecked();\n\t}\n});\n\n$(document).on(\"change\", \"#strBraille\", function(){\n\tif($(\"#strBraille\").is(\":checked\"))\n\t{\n\t\tPaperBrailleChecked();\n\t}\n\telse if(!($(\"#strPaper\").is(\":checked\")))\n\t{\n\t\tPaperBrailleUnChecked();\n\t}\n});\n\n$(document).on(\"change\", \"#strPaper\", function(){\n\tif($(\"#strPaper\").is(\":checked\"))\n\t{\n\t\tPaperBrailleChecked();\n\t}\n\telse if(!($(\"#strBraille\").is(\":checked\")))\n\t{\n\t\tPaperBrailleUnChecked();\n\t}\n});\n\nfunction PaperBrailleChecked()\n{\n\t$(\"#strAddress1\").attr(\"required\", \"true\");\n\t$(\"#strCity\").attr(\"required\", \"true\");\n\t$(\"#strProvince\").attr(\"required\", \"true\");\n\t$(\"#strCountry\").attr(\"required\", \"true\");\n\t$(\"#strPostal\").attr(\"required\", \"true\");\n}\n\nfunction PaperBrailleUnChecked()\n{\n\t$(\"#strAddress1\").removeAttr(\"required\");\n\t$(\"#strCity\").removeAttr(\"required\");\n\t$(\"#strProvince\").removeAttr(\"required\");\n\t$(\"#strCountry\").removeAttr(\"required\");\n\t$(\"#strPostal\").removeAttr(\"required\");\n}\n</script>\r\n\r\n<div class=\"row\">\r\n \r\n\t\t\t\r\n\t\t\t\r\n\r\n\t\t\r\n\t\r\n</div>"
    },
    "success": true,
    "chat_wizard": false
}