{
    "dcr_id": "1649082709385",
    "title": {
        "en": "National Microbiological Monitoring Program 2020-2021",
        "fr": "Rapport annuel du Programme national de surveillance microbiologique 2020-2021"
    },
    "html_modified": "6-4-2022",
    "modified": "2-5-2022",
    "issued": "4-4-2022",
    "teamsite_location": {
        "en": "/default/main/inspection/cont-cont/food-aliments/WORKAREA/food-aliments/templatedata/comn-comn/forms-formes/data/nat_microbio_mon_2020-2021_1649082709385_eng",
        "fr": "/default/main/inspection/cont-cont/food-aliments/WORKAREA/food-aliments/templatedata/comn-comn/forms-formes/data/nat_microbio_mon_2020-2021_1649082709385_fra"
    },
    "parent_ia_id": "1453327843364",
    "ia_id": "1649082710088",
    "parent_node_id": null,
    "layout_name": "content page 1 column",
    "breadcrumb": {
        "en": "National Microbiological Monitoring Program 2020-2021",
        "fr": "Rapport annuel du Programme national de surveillance microbiologique 2020-2021"
    },
    "label": {
        "en": "National Microbiological Monitoring Program 2020-2021",
        "fr": "Rapport annuel du Programme national de surveillance microbiologique 2020-2021"
    },
    "templatetype": "content page 1 column",
    "node_id": "1649082710088",
    "managing_branch": "comn",
    "type_name": "forms-formes",
    "parent_dcr_id": "1453324778043",
    "has_dcr_id": true,
    "lang": "en",
    "could_not_load": 0,
    "refaire": false,
    "interwoven_url": {
        "en": "/food-safety-for-industry/food-chemistry-and-microbiology/food-safety-testing-reports-and-journal-articles/national-microbiological-monitoring-program/",
        "fr": "/salubrite-alimentaire-pour-l-industrie/chimie-et-microbiologie-alimentaires/rapports-d-analyse-et-articles-de-revues-sur-la-sa/rapport-annuel-du-programme-national-de-surveillan/"
    },
    "meta": {
        "viewport": {
            "en": "width=device-width,initial-scale=1",
            "fr": "width=device-width,initial-scale=1"
        },
        "service": {
            "en": "CFIA-ACIA",
            "fr": "CFIA-ACIA"
        },
        "accessRights": {
            "en": "2",
            "fr": "2"
        },
        "title": {
            "en": "National Microbiological Monitoring Program 2020-2021",
            "fr": "Rapport annuel du Programme national de surveillance microbiologique 2020-2021"
        },
        "description": {
            "en": "The Canadian Food Inspection Agency (CFIA) develops and delivers programs and services designed to protect Canadians from preventable food safety hazards.",
            "fr": "L\u2019Agence canadienne d\u2019inspection des aliments (ACIA) \u00e9labore et administre des programmes et des services visant \u00e0 prot\u00e9ger les Canadiens des dangers \u00e9vitables qui ont trait \u00e0 la salubrit\u00e9 des aliments."
        },
        "keywords": {
            "en": "Canadian Food Inspection Agency, National Microbiological Monitoring Program, Food Safety Oversight Program, Annual Report",
            "fr": "Rapport annuel, Programme national de surveillance microbiologique, Programme de surveillance de la salubrit\u00e9 des aliments"
        },
        "dcterms.subject": {
            "en": "food,assessment,inspection,food inspection,agri-food products,food safety",
            "fr": "aliment,\u00e9valuation,inspection,inspection des aliments,produit agro-alimentaire,salubrit\u00e9 des aliments"
        },
        "creator": {
            "en": "Government of Canada,Canadian Food Inspection Agency",
            "fr": "Gouvernement du Canada,Agence canadienne d'inspection des aliments"
        },
        "language": {
            "en": "eng",
            "fr": "fra"
        },
        "issued": {
            "en": "2022-04-06",
            "fr": "2022-04-06"
        },
        "modified": {
            "en": "2022-05-02",
            "fr": "2022-05-02"
        },
        "audience": {
            "en": "business,government,general public",
            "fr": "entreprises,gouvernement,grand public"
        },
        "name": {
            "en": "Government of Canada",
            "fr": "Gouvernement du Canada"
        },
        "areaServed": {
            "en": "Canada",
            "fr": "Canada"
        }
    },
    "h1": {
        "en": "National Microbiological Monitoring Program 2020-2021",
        "fr": "Rapport annuel du Programme national de surveillance microbiologique 2020-2021"
    },
    "js": {
        "en": "<script>\n    document.frmPublication.strTitle.value = document.getElementsByTagName(\"title\")[0].innerHTML;\n    document.frmPublication.strUrl.value = document.URL;\n</script>/* --------------------- MORE JAVASCRIPT ------------------- */<script>\n$(document).ready (function(){\n\tif($(\"#strPaper\").checked || $(\"#strBraille\").checked)\n\t{\n\t\tPaperBrailleChecked();\n\t}\n});\n\n$(document).on(\"change\", \"#strBraille\", function(){\n\tif($(\"#strBraille\").is(\":checked\"))\n\t{\n\t\tPaperBrailleChecked();\n\t}\n\telse if(!($(\"#strPaper\").is(\":checked\")))\n\t{\n\t\tPaperBrailleUnChecked();\n\t}\n});\n\n$(document).on(\"change\", \"#strPaper\", function(){\n\tif($(\"#strPaper\").is(\":checked\"))\n\t{\n\t\tPaperBrailleChecked();\n\t}\n\telse if(!($(\"#strBraille\").is(\":checked\")))\n\t{\n\t\tPaperBrailleUnChecked();\n\t}\n});\n\nfunction PaperBrailleChecked()\n{\n\t$(\"#strAddress1\").attr(\"required\", \"true\");\n\t$(\"#strCity\").attr(\"required\", \"true\");\n\t$(\"#strProvince\").attr(\"required\", \"true\");\n\t$(\"#strCountry\").attr(\"required\", \"true\");\n\t$(\"#strPostal\").attr(\"required\", \"true\");\n}\n\nfunction PaperBrailleUnChecked()\n{\n\t$(\"#strAddress1\").removeAttr(\"required\");\n\t$(\"#strCity\").removeAttr(\"required\");\n\t$(\"#strProvince\").removeAttr(\"required\");\n\t$(\"#strCountry\").removeAttr(\"required\");\n\t$(\"#strPostal\").removeAttr(\"required\");\n}\n</script>",
        "fr": "<script>\n    document.frmPublication.strTitle.value = document.getElementsByTagName(\"title\")[0].innerHTML;\n    document.frmPublication.strUrl.value = document.URL;\n</script>/* --------------------- MORE JAVASCRIPT ------------------- */<script>\n$(document).ready (function(){\n\tif($(\"#strPaper\").checked || $(\"#strBraille\").checked)\n\t{\n\t\tPaperBrailleChecked();\n\t}\n});\n\n$(document).on(\"change\", \"#strBraille\", function(){\n\tif($(\"#strBraille\").is(\":checked\"))\n\t{\n\t\tPaperBrailleChecked();\n\t}\n\telse if(!($(\"#strPaper\").is(\":checked\")))\n\t{\n\t\tPaperBrailleUnChecked();\n\t}\n});\n\n$(document).on(\"change\", \"#strPaper\", function(){\n\tif($(\"#strPaper\").is(\":checked\"))\n\t{\n\t\tPaperBrailleChecked();\n\t}\n\telse if(!($(\"#strBraille\").is(\":checked\")))\n\t{\n\t\tPaperBrailleUnChecked();\n\t}\n});\n\nfunction PaperBrailleChecked()\n{\n\t$(\"#strAddress1\").attr(\"required\", \"true\");\n\t$(\"#strCity\").attr(\"required\", \"true\");\n\t$(\"#strProvince\").attr(\"required\", \"true\");\n\t$(\"#strCountry\").attr(\"required\", \"true\");\n\t$(\"#strPostal\").attr(\"required\", \"true\");\n}\n\nfunction PaperBrailleUnChecked()\n{\n\t$(\"#strAddress1\").removeAttr(\"required\");\n\t$(\"#strCity\").removeAttr(\"required\");\n\t$(\"#strProvince\").removeAttr(\"required\");\n\t$(\"#strCountry\").removeAttr(\"required\");\n\t$(\"#strPostal\").removeAttr(\"required\");\n}\n</script>"
    },
    "mode_html": "no_editor_full",
    "body": {
        "en": "        \r\n        \n<h2>Summary</h2>\n\n<p>The Canadian Food Inspection Agency (CFIA) develops and delivers programs and services designed to protect Canadians from preventable food safety hazards. The CFIA works to ensure that food safety emergencies are effectively managed, that the public is aware of and contributes to food safety, and that consumers and the marketplace are protected from unfair practices. Canada's food safety requirements apply equally to the domestic and imported food sectors.</p>\n\n<p>The National Microbiological Monitoring Program (NMMP) is a food surveillance program managed by the CFIA to verify industry compliance with microbial standards, facilitate access of Canadian food products to international markets, provide information on the effectiveness of food safety control measures and interventions, and maintain consumer confidence in the safety of the food supply. Under the NMMP, a broad range of imported and domestic food products are sampled by CFIA inspectors. These food products are frequently sampled at federal licence holding establishments (i.e., those that produce food products that are exported or traded inter-provincially), which are inspected by CFIA inspectors, but samples may also be collected at other establishment types, such as warehouses, distribution centres, and wholesalers.</p>\n\n<p>Food products of the following commodities were tested under the NMMP in the 2020/21 sampling year (April 1, 2020 and March 31, 2021): red meat and poultry products, egg products, dairy products, fresh fruits and vegetables, processed fruit and vegetable products and fish and seafood. Food-hazard combinations, i.e. specific microorganisms in specific foods that are recognized to occur and whose presence indicates a food safety concern, deemed to pose the greatest potential health risks, recent outbreaks of foodborne illnesses, emerging food-hazard combinations and historical levels of compliance are taken into consideration when selecting foods for testing under NMMP monitoring sampling plans. Under the NMMP, environmental sampling was also performed at federal licence holding establishments to verify the producer's ability to control the presence of pathogens within the processing environment and confirm that food products are produced under sanitary conditions.</p>\n\n<p>All product and environmental samples collected under the NMMP were tested at CFIA laboratories to verify industry compliance with food microbiological safety and quality standards. All samples were subject to follow-up actions by both industry and the CFIA. Such follow-up actions could include follow-up inspections, additional sampling, product disposal, corrective action requests, food safety investigations, product recalls, etc.</p>\n\n<p>In the 2020/21 sampling year, 8,081 tests were performed on 3,678 domestic and imported food products collected from under the NMMP to verify compliance with food safety standards. Specifically, 6,205\u00a0 tests were performed on 3,052 domestic products and 1,876 tests were performed on 626 imported products. Results indicated that domestic products were 98.9 % satisfactory whereas imported products were 98.4 % satisfactory. Overall, a 98.8 % satisfactory rate was observed for combined domestic and imported products. In addition, there were 1,203 tests performed on 1,101 environmental samples, which were assessed as 98.7 % satisfactory.</p>\n\n<p>The results of the 2020/21 NMMP sampling activities indicated that the vast majority of food products available in Canada during the 2020/21 sampling year (April 1, 2020 and March 31, 2021) were compliant with food safety standards. The few non-compliant samples that were detected resulted in follow-up actions by the CFIA and industry. These actions allowed the CFIA to continue to safeguard Canada's food system and the health and well-being of Canadians.</p>\n\n<p>On March 23, 2020, the CFIA activated its business continuity plan in order to prioritize critically important services during the COVID-19 pandemic. The temporary suspension of low-risk activities, allowed the CFIA to continue to safeguard the health and safety of its staff while refocusing efforts in areas of higher risk and towards activities that are critical to the safety of food, as well as animal and plant health. In early June of 2020, the CFIA gradually resumed some inspection services that were temporarily suspended because of the COVID-19 pandemic. The resumption of activities was guided by a risk-based approach and took into consideration the provincial and national public health guidance that were in effect. As such, this prioritization and resumption of activities may have led to the adjustment of the overall number of samples taken for some NMMP plans during the 2020/21 sampling year. While the CFIA's business continuity plan was in place and during the gradual resumption of activities, industry continued to comply with requirements pertaining to food and remained responsible for the safety and quality of the food it produced, imports and exports (CFIA, 2020a; CFIA, 2020b).</p>\n\n<p>Food safety is a collective responsibility of government, industry and consumers. All food producers/importers are responsible under Canadian law for the safety of the food they produce and distribute. In 2020/21, under the NMMP, the CFIA tested food and environmental samples to verify that they met their obligations. Follow-up actions taken by both industry and the CFIA acted to improve Canadian manufacturing processes and identify imported products that did not meet Canadian standards.</p>\n<p>Detailed test results are available on the\u00a0<a href=\"https://open.canada.ca/data/en/dataset/2669732a-eea8-4360-b81e-e5b27c4c207d\">Open Government Portal</a>. </p>\r\n<style>\n/* required style */\n    .keyValue{\n\tdisplay: none !important;\n        visibility: hidden !important;\n</style>\n<h2>Request of Complete Report</h2>\n<p>The complete text of this report is available upon request.</p>\n\n<div class=\"wb-frmvld\">\n\n<form class=\"form-horizontal\" role=\"form\" method=\"post\" action=\"/active/netapp/comment/publicationposte.aspx#wb-cont\" name=\"frmPublication\">\n<input id=\"emailad0\" name=\"to\" class=\"hidden\" type=\"hidden\" aria-hidden=\"true\" value=\"c8eQSpL6+BmiCgqHsBfLV+Q65PVOhSHcenBt4UX+qvr1SlO4YfrbWHeP7OYAKBQo\">\n<input name=\"strLang\" type=\"hidden\" value=\"English\">\n<input name=\"strSubject\" type=\"hidden\" value=\"Chemical Residues / Microbiology Report Request\">\n<input name=\"strTitle\" type=\"hidden\" value=\"title\">\n<input name=\"strUrl\" type=\"hidden\" value=\"url\">\n<script type=\"text/javascript\">\n    document.frmPublication.strTitle.value = document.getElementsByTagName(\"title\")[0].innerHTML;\n    document.frmPublication.strUrl.value = document.URL;\n</script>\n        \n<fieldset class=\"mrgn-tp-md mrgn-bttm-lg\">\t\t\n\n<legend class=\"field-name required\"><span class=\"field-name\">The format in which you would like to receive the report</span> <strong class=\"required\">(required)</strong></legend>\n\n<div class=\"checkbox\">\n<label for=\"strPdf\"><input type=\"checkbox\" name=\"formatsent\" id=\"strPdf\" value=\"pdf\" required=\"required\">PDF (Portable Document Format) electronic file sent to you by email</label>\n</div>\n\n<div class=\"checkbox\">\n<label for=\"strText\"><input type=\"checkbox\" name=\"formatsent\" id=\"strText\" value=\"text\">RTF (Rich Text Format) electronic file sent to you by email</label>\n</div>\n\n<div class=\"checkbox\">\n<label for=\"strBraille\"><input type=\"checkbox\" name=\"formatsent\" id=\"strBraille\" value=\"braille\">Braille copy sent to you by mail</label>\n</div>\n\n<div class=\"checkbox\">\n<label for=\"strPaper\"><input type=\"checkbox\" name=\"formatsent\" id=\"strPaper\" value=\"paper\">Paper copy sent to you by mail</label>\n</div>\n\n</fieldset>\t\n\n<fieldset class=\"mrgn-tp-md mrgn-bttm-lg\">\t\t\n\n<legend class=\"field-name\">Your contact information</legend>\n\n<label class=\"keyValue\" for=\"name\"></label>\n<input class=\"keyValue\" autocomplete=\"off\" type=\"text\" id=\"name\" name=\"name\">\n<label class=\"keyValue\" for=\"email\"></label>\n<input class=\"keyValue\" autocomplete=\"off\" type=\"email\" id=\"email\" name=\"email\"> \n\n<div class=\"form-group\">\n<label for=\"strFirstName\" class=\"required col-md-4 control-label\"><span class=\"field-name\">First name:</span> <strong class=\"required\">(required)</strong></label>\n<div class=\"col-md-8\">\n<input class=\"form-control\" id=\"strFirstName\" name=\"strFirstName\" type=\"text\" required=\"required\" pattern=\".{2,}\" data-rule-minlength=\"2\">\n</div>\n</div>\n            \n<div class=\"form-group\">\n<label for=\"strLastName\" class=\"required col-md-4 control-label\"><span class=\"field-name\">Last name:</span> <strong class=\"required\">(required)</strong></label>\n<div class=\"col-md-8\">\n<input class=\"form-control\" id=\"strLastName\" name=\"strLastName\" type=\"text\" required=\"required\" pattern=\".{2,}\" data-rule-minlength=\"2\">\n</div>\n</div>\n\n<div class=\"form-group\">\n<label for=\"strEmail\" class=\"required col-md-4 control-label\"><span class=\"field-name\">Email address:</span>  <strong class=\"required\">(required)</strong></label>\n<div class=\"col-md-8\">\n<input class=\"form-control\" id=\"strEmail\" name=\"strEmail\" type=\"email\" required=\"required\">\n</div>\n</div>\n\n<div class=\"form-group\">\n<label for=\"strConfirmEmail\" class=\"required col-md-4 control-label\"><span class=\"field-name\">Confirm email address:</span>  <strong class=\"required\">(required)</strong></label>\n<div class=\"col-md-8\">\n<input class=\"form-control\" id=\"strConfirmEmail\" name=\"strConfirmEmail\" type=\"email\" data-rule-equalto=\"#strEmail\" required=\"required\">\n</div>\n</div>\n\n<div class=\"form-group mrgn-tp-md\">\n<label for=\"lstdescribe\" class=\"required col-md-4 control-label\"><span class=\"field-name\">How would you describe yourself?</span> <strong class=\"required\">(required)</strong></label>\n<div class=\"col-md-8\">\n<select class=\"form-control\" id=\"lstdescribe\" name=\"lstdescribe\" required=\"required\">\n<option label=\"Select from this list\"></option>\n<option value=\"Academia\">Academia</option>\n<option value=\"Consumer Association\">Consumer Association</option>\n<option value=\"Consumer/General Public\">Consumer / General Public</option>\n<option value=\"Industry Association\">Industry Association</option>\n<option value=\"Industry/Commercial Sector\">Industry / Commercial Sector</option>\n<option value=\"Other Government Departments\">Other Government Departments</option>\t\t\t\n</select>\n</div>\n</div>\t\n\n<div class=\"form-group\">\n<label for=\"strAddress1\" class=\"col-md-4 control-label\"><span class=\"field-name\">Address 1:</span></label>\n<div class=\"col-md-8\">\n<input class=\"form-control\" id=\"strAddress1\" name=\"strAddress1\" type=\"text\">\n</div>\n</div>\n\n<div class=\"form-group\">\n<label for=\"strAddress2\" class=\"col-md-4 control-label\"><span class=\"field-name\">Address 2:</span></label>\n<div class=\"col-md-8\">\n<input class=\"form-control\" id=\"strAddress2\" name=\"strAddress2\" type=\"text\">\n</div>\n</div>\n\n<div class=\"form-group\">\n<label for=\"strCity\" class=\"col-md-4 control-label\"><span class=\"field-name\">City:</span></label>\n<div class=\"col-md-8\">\n<input class=\"form-control\" id=\"strCity\" name=\"strCity\" type=\"text\">\n</div>\n</div>\n\n<div class=\"form-group\">\n<label for=\"strProvince\" class=\"col-md-4 control-label\"><span class=\"field-name\">Province:</span></label>\n<div class=\"col-md-8\">\n<input class=\"form-control\" id=\"strProvince\" name=\"strProvince\" type=\"text\">\n</div>\n</div>\n\n<div class=\"form-group\">\n<label for=\"strCountry\" class=\"col-md-4 control-label\"><span class=\"field-name\">Country:</span></label>\n<div class=\"col-md-8\">\n<input class=\"form-control\" id=\"strCountry\" name=\"strCountry\" type=\"text\">\n</div>\n</div>\n\n<div class=\"form-group\">\n<label for=\"strPostal\" class=\"col-md-4 control-label\"><span class=\"field-name\">Postal Code:</span></label>\n<div class=\"col-md-8\">\n<input class=\"form-control\" id=\"strPostal\" name=\"strPostal\" type=\"text\">\n</div>\n</div>\n\n</fieldset>\t\n\n<input value=\"Submit Your Request\" id=\"btnSubmit\" name=\"btnSubmit\" class=\"btn btn-primary\" type=\"submit\"> \n<input value=\"Clear All Information\" id=\"btnReset\" name=\"btnReset\" class=\"btn btn-default\" type=\"reset\">\n\n</form>\n</div>\n<script src=\"https://ajax.googleapis.com/ajax/libs/jquery/2.1.1/jquery.min.js\"></script>\n<script type=\"text/javascript\">\n$(document).ready (function(){\n\tif($(\"#strPaper\").checked || $(\"#strBraille\").checked)\n\t{\n\t\tPaperBrailleChecked();\n\t}\n});\n\n$(document).on(\"change\", \"#strBraille\", function(){\n\tif($(\"#strBraille\").is(\":checked\"))\n\t{\n\t\tPaperBrailleChecked();\n\t}\n\telse if(!($(\"#strPaper\").is(\":checked\")))\n\t{\n\t\tPaperBrailleUnChecked();\n\t}\n});\n\n$(document).on(\"change\", \"#strPaper\", function(){\n\tif($(\"#strPaper\").is(\":checked\"))\n\t{\n\t\tPaperBrailleChecked();\n\t}\n\telse if(!($(\"#strBraille\").is(\":checked\")))\n\t{\n\t\tPaperBrailleUnChecked();\n\t}\n});\n\nfunction PaperBrailleChecked()\n{\n\t$(\"#strAddress1\").attr(\"required\", \"true\");\n\t$(\"#strCity\").attr(\"required\", \"true\");\n\t$(\"#strProvince\").attr(\"required\", \"true\");\n\t$(\"#strCountry\").attr(\"required\", \"true\");\n\t$(\"#strPostal\").attr(\"required\", \"true\");\n}\n\nfunction PaperBrailleUnChecked()\n{\n\t$(\"#strAddress1\").removeAttr(\"required\");\n\t$(\"#strCity\").removeAttr(\"required\");\n\t$(\"#strProvince\").removeAttr(\"required\");\n\t$(\"#strCountry\").removeAttr(\"required\");\n\t$(\"#strPostal\").removeAttr(\"required\");\n}\n</script>\r\n\r\n\r\n\r\n<div class=\"row\">\r\n \r\n\t\r\n\t\t\t\r\n\r\n<div class=\"col-xm-12 pagedetails container\">\r\n\t\t\t\t\r\n\r\n</div>\r\n\t\r\n</div>",
        "fr": "\r\n        \r\n        \n<h2>R\u00e9sum\u00e9</h2>\n\n<p>L'Agence canadienne d'inspection des aliments (ACIA) \u00e9labore et administre des programmes et des services visant \u00e0 prot\u00e9ger les Canadiens des dangers \u00e9vitables qui ont trait \u00e0 la salubrit\u00e9 des aliments. L'ACIA s'assure que les urgences li\u00e9es \u00e0 la salubrit\u00e9 des aliments sont bien g\u00e9r\u00e9es, que la population est sensibilis\u00e9e \u00e0 la salubrit\u00e9 des aliments et y contribue, et que les consommateurs et le march\u00e9 sont \u00e0 l'abri de pratiques d\u00e9loyales. Les exigences canadiennes relatives \u00e0 la salubrit\u00e9 des aliments s'appliquent tout autant aux aliments canadiens qu'aux aliments import\u00e9s.</p>\n\n<p>Le Programme national de surveillance microbiologique (PNSM) est un programme de surveillance des aliments g\u00e9r\u00e9 par l'ACIA et con\u00e7u pour d\u00e9terminer si l'industrie se conforme aux normes microbiologiques; faciliter l'acc\u00e8s aux march\u00e9s internationaux pour les produits alimentaires canadiens; fournir de l'information sur l'efficacit\u00e9 des mesures de contr\u00f4le de la salubrit\u00e9 des aliments et des interventions en la mati\u00e8re; et faire en sorte que les consommateurs gardent confiance en la salubrit\u00e9 de l'approvisionnement alimentaire. Dans le cadre du PNSM, un vaste \u00e9ventail de produits alimentaires import\u00e9s et canadiens sont pr\u00e9lev\u00e9s par les inspecteurs de l'ACIA. Ces produits alimentaires sont fr\u00e9quemment \u00e9chantillonn\u00e9s dans les \u00e9tablissements titulaires d'une licence f\u00e9d\u00e9rale (c.-\u00e0-d. les \u00e9tablissements qui fabriquent des produits alimentaires destin\u00e9s \u00e0 l'exportation ou au commerce interprovincial), qui sont inspect\u00e9s par les inspecteurs de l'ACIA, mais des \u00e9chantillons sont \u00e9galement pr\u00e9lev\u00e9s dans d'autres types d'\u00e9tablissements, par exemple des entrep\u00f4ts, des centres de distribution et des commerces de gros.</p>\n\n<p>Des produits alimentaires dans les cat\u00e9gories suivantes ont \u00e9t\u00e9 analys\u00e9s dans le cadre du PNSM au cours de l'ann\u00e9e d'\u00e9chantillonnage 2020/21 : produits de viande rouge et de volaille, produits d'\u0153ufs, produits laitiers, fruits et l\u00e9gumes frais, produits de fruits et l\u00e9gumes transform\u00e9s et poisson et produits de la mer. Lorsqu'elle choisit des aliments \u00e0 tester selon les plans d'\u00e9chantillonnage de surveillance du PNSM, l'Agence tient compte des combinaisons aliment-danger, c.-\u00e0-d. des microorganismes sp\u00e9cifiques qui se d\u00e9veloppent dans certains aliments particuliers et dont la pr\u00e9sence r\u00e9v\u00e8le un probl\u00e8me de salubrit\u00e9 des aliments, qui semblent poser les plus grands risques potentiels pour la sant\u00e9, des \u00e9closions r\u00e9centes de maladie d'origine alimentaire, des combinaisons aliment-danger \u00e9mergentes et des taux de conformit\u00e9 ant\u00e9rieurs. Des \u00e9chantillons environnementaux ont \u00e9galement \u00e9t\u00e9 pr\u00e9lev\u00e9s dans les \u00e9tablissements titulaires d'une licence f\u00e9d\u00e9rale afin de s'assurer que le producteur pouvait contr\u00f4ler la pr\u00e9sence d'agents pathog\u00e8nes dans l'environnement de transformation et pour confirmer que les produits alimentaires \u00e9taient fabriqu\u00e9s dans des conditions sanitaires.</p>\n\n<p>Les \u00e9chantillons de produits et les \u00e9chantillons environnementaux pr\u00e9lev\u00e9s dans le cadre du PNSM ont \u00e9t\u00e9 envoy\u00e9s aux laboratoires de l'ACIA, qui les ont analys\u00e9s pour v\u00e9rifier la conformit\u00e9 de l'industrie aux normes relatives \u00e0 la salubrit\u00e9 microbiologique et \u00e0 la qualit\u00e9 des aliments. L'industrie et l'ACIA ont pris les mesures de suivi pour chaque \u00e9chantillon concern\u00e9. Ces mesures pouvaient notamment inclure des inspections de suivi, le pr\u00e9l\u00e8vement d'\u00e9chantillons suppl\u00e9mentaires, l'\u00e9limination de produits, la demande d'application de mesures correctives, des enqu\u00eates sur la salubrit\u00e9 des aliments et des rappels de produit.</p>\n\n<p>Au cours de l'ann\u00e9e d'\u00e9chantillonnage 2020/21, 8 081 analyses ont port\u00e9 sur 3 678 produits alimentaires canadiens et import\u00e9s \u00e9chantillonn\u00e9s dans le cadre du PNSM afin de v\u00e9rifier leur conformit\u00e9 aux normes de salubrit\u00e9 alimentaire. Plus pr\u00e9cis\u00e9ment, 6 205 analyses ont port\u00e9 sur 3 052 produits canadiens et 1 876 analyses, sur 626 produits import\u00e9s. Les r\u00e9sultats ont indiqu\u00e9 que le taux de satisfaction relatif aux produits canadiens \u00e9tait de 98,9 % et le taux de satisfaction relatif aux produits import\u00e9s \u00e9tait de 98,4 %. Le taux de satisfaction relatif aux produits canadiens et import\u00e9s combin\u00e9s \u00e9tait de 98,8 %. En outre, 1203 analyses ont port\u00e9 sur 1 101 \u00e9chantillons environnementaux, dont le taux de satisfaction \u00e9tait de 98,7 %.</p>\n\n<p>Les r\u00e9sultats des activit\u00e9s d'\u00e9chantillonnage du PNSM de 2020/21 indiquent que les produits alimentaires disponibles au Canada au cours de l'ann\u00e9e d'\u00e9chantillonnage 2020/21 (le 1er avril 2020 et le 31 mars 2021) \u00e9taient en grande majorit\u00e9 conformes aux normes de salubrit\u00e9 alimentaire. Les quelques \u00e9chantillons trouv\u00e9s non conformes ont donn\u00e9 lieu aux mesures de suivi de la part de l'ACIA et de l'industrie. Ces mesures ont permis \u00e0 l'ACIA de continuer de prot\u00e9ger le syst\u00e8me alimentaire du Canada, ainsi que la sant\u00e9 et le bien-\u00eatre de la population canadienne.</p>\n\n<p>Le 23 mars 2020, l'ACIA a activ\u00e9 son plan de continuit\u00e9 des activit\u00e9s, visant \u00e0 accorder la priorit\u00e9 aux services essentiels pendant la pand\u00e9mie de COVID-19. La suspension temporaire des activit\u00e9s \u00e0 faible risque a permis \u00e0 l'ACIA de continuer \u00e0 prot\u00e9ger la sant\u00e9 et la s\u00e9curit\u00e9 de son personnel tout en r\u00e9orientant ses efforts dans les domaines \u00e0 risque \u00e9lev\u00e9 et vers les activit\u00e9s essentielles \u00e0 la salubrit\u00e9 des aliments ainsi qu'\u00e0 la sant\u00e9 des animaux et des v\u00e9g\u00e9taux. Au d\u00e9but juin 2020, l'ACIA a graduellement repris certains services d'inspection qui avaient \u00e9t\u00e9 suspendus temporairement \u00e0 cause de la pand\u00e9mie de COVID 19. La reprise des activit\u00e9s reposait sur une approche ax\u00e9e sur les risques et tenait compte des directives nationales et provinciales en mati\u00e8re de sant\u00e9 publique qui \u00e9taient en vigueur. Par cons\u00e9quent, la hi\u00e9rarchisation et la reprise des activit\u00e9s pourraient avoir men\u00e9 \u00e0 un rajustement du nombre total d'\u00e9chantillons pr\u00e9lev\u00e9s dans le cadre de certains plans du PNSM au cours de l'ann\u00e9e d'\u00e9chantillonnage 2020 2021. Tout au long de l'application du plan de continuit\u00e9 des activit\u00e9s de l'ACIA et de la reprise graduelle des activit\u00e9s, l'industrie a continu\u00e9 de se conformer aux exigences li\u00e9es aux aliments et est demeur\u00e9e responsable de la salubrit\u00e9 et de la qualit\u00e9 des aliments qu'elle produit, importe et exporte (ACIA, 2020a; ACIA, 2020b).</p>\n\n<p>La salubrit\u00e9 alimentaire constitue une responsabilit\u00e9 collective du gouvernement, de l'industrie et des consommateurs. La loi canadienne oblige tous les producteurs et tous les importateurs d'aliments \u00e0 garantir la salubrit\u00e9 des aliments qu'ils produisent et distribuent. En 2020/21, dans le cadre du PNSM, l'ACIA a analys\u00e9 des \u00e9chantillons d'aliments et des \u00e9chantillons environnementaux pour s'assurer qu'ils respectaient leurs obligations. Les mesures de suivi prises \u00e0 la fois par l'industrie et par l'ACIA ont permis d'am\u00e9liorer les proc\u00e9d\u00e9s de fabrication canadiens et elles ont permis d'identifier les produits import\u00e9s ne r\u00e9pondant pas aux normes canadiennes.</p>\n<p>Les r\u00e9sultats d\u00e9taill\u00e9s des analyses peuvent \u00eatre  consult\u00e9s dans le\u00a0<a href=\"https://open.canada.ca/data/fr/dataset/2669732a-eea8-4360-b81e-e5b27c4c207d\">Portail du gouvernement ouvert</a>. </p>\r\n<style>\n/* required style */\n    .keyValue{\n\tdisplay: none !important;\n        visibility: hidden !important;\n</style>\n<h2>Demande de rapport complet</h2>\n<p>La version int\u00e9grale du pr\u00e9sent rapport est disponible sur demande.</p>\n\n<div class=\"wb-frmvld\">\n\n<form class=\"form-horizontal\" role=\"form\" method=\"post\" action=\"/active/netapp/comment/publicationposte.aspx#wb-cont\" name=\"frmPublication\">\n\n<input id=\"emailad0\" name=\"to\" class=\"hidden\" type=\"hidden\" aria-hidden=\"true\" value=\"6l50UP7NlJ04FxKK+JB1haOeHcJP5wSMwdNtzItUxkT/ElnNpUfjghRc+XoPuBq0\">\n<input name=\"strLang\" type=\"hidden\" value=\"Francais\">\n<input name=\"strSubject\" type=\"hidden\" value=\"Demande de rapport de r\u00e9sidus chimiques / microbiologie\">\n<input name=\"strTitle\" type=\"hidden\" value=\"title\">\n<input name=\"strUrl\" type=\"hidden\" value=\"url\">\n<script type=\"text/javascript\">\n    document.frmPublication.strTitle.value = document.getElementsByTagName(\"title\")[0].innerHTML;\n    document.frmPublication.strUrl.value = document.URL;\n</script>\n        \n<fieldset class=\"mrgn-tp-md mrgn-bttm-lg\">\t\t\n\n<legend class=\"field-name required\"><span class=\"field-name\">Le format dans lequel vous souhaitez recevoir le rapport</span> <strong class=\"required\">(obligatoire)</strong></legend>\n\n<div class=\"checkbox\">\n<label for=\"strPdf\"><input type=\"checkbox\" name=\"formatsent\" id=\"strPdf\" value=\"pdf\" required=\"required\">Fichier \u00e9lectronique PDF (format de document portable) envoy\u00e9 par courriel</label>\n</div>\n\n<div class=\"checkbox\">\n<label for=\"strText\"><input type=\"checkbox\" name=\"formatsent\" id=\"strText\" value=\"text\">Fichier \u00e9lectronique RTF (<span lang=\"en\">Rich Text Format</span>) envoy\u00e9 par courriel</label>\n</div>\n\n<div class=\"checkbox\">\n<label for=\"strBraille\"><input type=\"checkbox\" name=\"formatsent\" id=\"strBraille\" value=\"braille\">Copie braille envoy\u00e9e par la poste</label>\n</div>\n\n<div class=\"checkbox\">\n<label for=\"strPaper\"><input type=\"checkbox\" name=\"formatsent\" id=\"strPaper\" value=\"paper\">Copie papier envoy\u00e9e par la poste</label>\n</div>\n\n</fieldset>\t\n\n<fieldset class=\"mrgn-tp-md mrgn-bttm-lg\">\t\t\n\n<legend class=\"field-name\">Vos coordonn\u00e9es</legend>\n\n<label class=\"keyValue\" for=\"name\"></label>\n<input class=\"keyValue\" autocomplete=\"off\" type=\"text\" id=\"name\" name=\"name\">\n<label class=\"keyValue\" for=\"email\"></label>\n<input class=\"keyValue\" autocomplete=\"off\" type=\"email\" id=\"email\" name=\"email\"> \n\n<div class=\"form-group\">\n<label for=\"strFirstName\" class=\"required col-md-4 control-label\"><span class=\"field-name\">Pr\u00e9nom :</span> <strong class=\"required\">(obligatoire)</strong></label>\n<div class=\"col-md-8\">\n<input class=\"form-control\" id=\"strFirstName\" name=\"strFirstName\" type=\"text\" required=\"required\" pattern=\".{2,}\" data-rule-minlength=\"2\">\n</div>\n</div>\n            \n<div class=\"form-group\">\n<label for=\"strLastName\" class=\"required col-md-4 control-label\"><span class=\"field-name\">Nom :</span> <strong class=\"required\">(obligatoire)</strong></label>\n<div class=\"col-md-8\">\n<input class=\"form-control\" id=\"strLastName\" name=\"strLastName\" type=\"text\" required=\"required\" pattern=\".{2,}\" data-rule-minlength=\"2\">\n</div>\n</div>\n\n<div class=\"form-group\">\n<label for=\"strEmail\" class=\"required col-md-4 control-label\"><span class=\"field-name\">Adresse de courriel :</span> \u00a0<strong class=\"required\">(obligatoire)</strong></label>\n<div class=\"col-md-8\">\n<input class=\"form-control\" id=\"strEmail\" name=\"strEmail\" type=\"email\" required=\"required\">\n</div>\n</div>\n\n<div class=\"form-group\">\n<label for=\"strConfirmEmail\" class=\"required col-md-4 control-label\"><span class=\"field-name\">Confirmer Adresse de courriel :</span>  <strong class=\"required\">(obligatoire)</strong></label>\n<div class=\"col-md-8\">\n<input class=\"form-control\" id=\"strConfirmEmail\" name=\"strConfirmEmail\" type=\"email\" data-rule-equalto=\"#strEmail\" required=\"required\">\n</div>\n</div>\n\n<div class=\"form-group mrgn-tp-md\">\n<label for=\"lstdescribe\" class=\"required col-md-4 control-label\"><span class=\"field-name\">Comment vous vous d\u00e9criviez?</span> <strong class=\"required\">(obligatoire)</strong></label>\n<div class=\"col-md-8\">\n<select class=\"form-control\" id=\"lstdescribe\" name=\"lstdescribe\" required=\"required\">\n<option label=\"Choisir parmi la liste\"></option>\n<option value=\"Acad\u00e9mie\">Acad\u00e9mie</option>\n<option value=\"Association sectorielle\">Association sectorielle</option>  \n<option value=\"Autres institutions du gouvernement\">Autres institutions du gouvernement</option>\n<option value=\"Consommateur/Grand public\">Consommateur / Grand public</option>\n<option value=\"Groupe de consommateur\">Groupe de consommateur</option>\n<option value=\"Industrie/Secteur commercial\">Industrie / Secteur commercial</option>\n</select>\n</div>\n</div>\t\n\n<div class=\"form-group\">\n<label for=\"strAddress1\" class=\"col-md-4 control-label\"><span class=\"field-name\">Adresse 1 :</span></label>\n<div class=\"col-md-8\">\n<input class=\"form-control\" id=\"strAddress1\" name=\"strAddress1\" type=\"text\">\n</div>\n</div>\n\n<div class=\"form-group\">\n<label for=\"strAddress2\" class=\"col-md-4 control-label\"><span class=\"field-name\">Adresse 2 :</span></label>\n<div class=\"col-md-8\">\n<input class=\"form-control\" id=\"strAddress2\" name=\"strAddress2\" type=\"text\">\n</div>\n</div>\n\n<div class=\"form-group\">\n<label for=\"strCity\" class=\"col-md-4 control-label\"><span class=\"field-name\">Ville :</span></label>\n<div class=\"col-md-8\">\n<input class=\"form-control\" id=\"strCity\" name=\"strCity\" type=\"text\">\n</div>\n</div>\n\n<div class=\"form-group\">\n<label for=\"strProvince\" class=\"col-md-4 control-label\"><span class=\"field-name\">Province :</span></label>\n<div class=\"col-md-8\">\n<input class=\"form-control\" id=\"strProvince\" name=\"strProvince\" type=\"text\">\n</div>\n</div>\n\n<div class=\"form-group\">\n<label for=\"strCountry\" class=\"col-md-4 control-label\"><span class=\"field-name\">Pays : </span></label>\n<div class=\"col-md-8\">\n<input class=\"form-control\" id=\"strCountry\" name=\"strCountry\" type=\"text\">\n</div>\n</div>\n\n<div class=\"form-group\">\n<label for=\"strPostal\" class=\"col-md-4 control-label\"><span class=\"field-name\">Code postal : </span></label>\n<div class=\"col-md-8\">\n<input class=\"form-control\" id=\"strPostal\" name=\"strPostal\" type=\"text\">\n</div>\n</div>\n\n</fieldset>\t\n\n<input value=\"Soumettre votre demande\" id=\"btnSubmit\" name=\"btnSubmit\" class=\"btn btn-primary\" type=\"submit\"> \n<input value=\"Effacez tous les renseignements\" id=\"btnReset\" name=\"btnReset\" class=\"btn btn-default\" type=\"reset\">\n\n</form>\n</div>\n<script src=\"https://ajax.googleapis.com/ajax/libs/jquery/2.1.1/jquery.min.js\"></script>\n<script type=\"text/javascript\">\n$(document).ready (function(){\n\tif($(\"#strPaper\").checked || $(\"#strBraille\").checked)\n\t{\n\t\tPaperBrailleChecked();\n\t}\n});\n\n$(document).on(\"change\", \"#strBraille\", function(){\n\tif($(\"#strBraille\").is(\":checked\"))\n\t{\n\t\tPaperBrailleChecked();\n\t}\n\telse if(!($(\"#strPaper\").is(\":checked\")))\n\t{\n\t\tPaperBrailleUnChecked();\n\t}\n});\n\n$(document).on(\"change\", \"#strPaper\", function(){\n\tif($(\"#strPaper\").is(\":checked\"))\n\t{\n\t\tPaperBrailleChecked();\n\t}\n\telse if(!($(\"#strBraille\").is(\":checked\")))\n\t{\n\t\tPaperBrailleUnChecked();\n\t}\n});\n\nfunction PaperBrailleChecked()\n{\n\t$(\"#strAddress1\").attr(\"required\", \"true\");\n\t$(\"#strCity\").attr(\"required\", \"true\");\n\t$(\"#strProvince\").attr(\"required\", \"true\");\n\t$(\"#strCountry\").attr(\"required\", \"true\");\n\t$(\"#strPostal\").attr(\"required\", \"true\");\n}\n\nfunction PaperBrailleUnChecked()\n{\n\t$(\"#strAddress1\").removeAttr(\"required\");\n\t$(\"#strCity\").removeAttr(\"required\");\n\t$(\"#strProvince\").removeAttr(\"required\");\n\t$(\"#strCountry\").removeAttr(\"required\");\n\t$(\"#strPostal\").removeAttr(\"required\");\n}\n</script>\r\n\r\n<div class=\"row\">\r\n \r\n\t\t\t\r\n\t\t\t\r\n\r\n\t\t\r\n\t\r\n</div>"
    },
    "success": true,
    "chat_wizard": false
}