{
    "dcr_id": "1671724946678",
    "title": {
        "en": "April 1, 2021 to March 31, 2022 Plant Health Survey Report",
        "fr": "Rapport d'enqu\u00eates de la protection des v\u00e9g\u00e9taux du 1 avril 2021 au 31 mars 2022"
    },
    "html_modified": "4-1-2023",
    "modified": "28-12-2022",
    "issued": "22-12-2022",
    "teamsite_location": {
        "en": "/default/main/inspection/cont-cont/plants-vegetaux/WORKAREA/plants-vegetaux/templatedata/comn-comn/forms-formes/data/protect_surveillance_2021surveyrep_1671724946678_eng",
        "fr": "/default/main/inspection/cont-cont/plants-vegetaux/WORKAREA/plants-vegetaux/templatedata/comn-comn/forms-formes/data/protect_surveillance_2021surveyrep_1671724946678_fra"
    },
    "parent_ia_id": "1344466638872",
    "ia_id": "1671724947286",
    "parent_node_id": null,
    "layout_name": "content page 1 column",
    "breadcrumb": {
        "en": "April 1, 2021 to March 31, 2022 Plant Health Survey Report",
        "fr": "Rapport d'enqu\u00eates de la protection des v\u00e9g\u00e9taux du 1 avril 2021 au 31 mars 2022"
    },
    "label": {
        "en": "April 1, 2021 to March 31, 2022 Plant Health Survey Report",
        "fr": "Rapport d'enqu\u00eates de la protection des v\u00e9g\u00e9taux du 1 avril 2021 au 31 mars 2022"
    },
    "templatetype": "content page 1 column",
    "node_id": "1671724947286",
    "managing_branch": "comn",
    "type_name": "forms-formes",
    "parent_dcr_id": null,
    "has_dcr_id": true,
    "lang": "en",
    "could_not_load": 0,
    "refaire": false,
    "interwoven_url": {
        "en": "/plant-health/invasive-species/plant-pest-surveillance/2021-2022-survey-report/",
        "fr": "/protection-des-vegetaux/especes-envahissantes/surveillance-phytosanitaire/rapport-d-enquetes-2021-2022/"
    },
    "meta": {
        "viewport": {
            "en": "width=device-width,initial-scale=1",
            "fr": "width=device-width,initial-scale=1"
        },
        "service": {
            "en": "CFIA-ACIA",
            "fr": "CFIA-ACIA"
        },
        "accessRights": {
            "en": "2",
            "fr": "2"
        },
        "title": {
            "en": "April 1, 2021 to March 31, 2022 Plant Health Survey Report",
            "fr": "Rapport d'enqu\u00eates de la protection des v\u00e9g\u00e9taux du 1 avril 2021 au 31 mars 2022"
        },
        "description": {
            "en": "The objectives of the Plant Protection Program within the Canadian Food Inspection Agency (CFIA) are to prevent the introduction and spread within Canada of plant pests of quarantine significance, to detect and control or eradicate designated plant pests in Canada, and to certify plants and plant products for domestic and export trade.",
            "fr": "Le Programme de Protection des V\u00e9g\u00e9taux de l'Agence canadienne d'inspection des aliments (ACIA) a pour objet d'emp\u00eacher l'introduction et la propagation au Canada de phytoravageurs justiciables de quarantaine, de d\u00e9tecter et de combattre ou d'\u00e9radiquer les phytoravageurs d\u00e9sign\u00e9s et de certifier les plantes et produits v\u00e9g\u00e9taux destin\u00e9s aux march\u00e9s nationaux et \u00e9trangers."
        },
        "keywords": {
            "en": "plants, plant health, Plant Protection, Survey Report, 2021-2022",
            "fr": "v\u00e9g\u00e9taux, la sant\u00e9 des v\u00e9g\u00e9taux, protection des v\u00e9g\u00e9taux, rapport d'enqu\u00eates, 2021-2022"
        },
        "dcterms.subject": {
            "en": "insects,inspection,plants",
            "fr": "insecte,inspection,plante"
        },
        "creator": {
            "en": "Government of Canada,Canadian Food Inspection Agency",
            "fr": "Gouvernement du Canada,Agence canadienne d'inspection des aliments"
        },
        "language": {
            "en": "eng",
            "fr": "fra"
        },
        "issued": {
            "en": "2023-01-04",
            "fr": "2023-01-04"
        },
        "modified": {
            "en": "2022-12-28",
            "fr": "2022-12-28"
        },
        "type": {
            "en": "reference material",
            "fr": "mat\u00e9riel de r\u00e9f\u00e9rence"
        },
        "audience": {
            "en": "business,general public,government",
            "fr": "entreprises,grand public,gouvernement"
        },
        "name": {
            "en": "Government of Canada",
            "fr": "Gouvernement du Canada"
        },
        "areaServed": {
            "en": "Canada",
            "fr": "Canada"
        }
    },
    "h1": {
        "en": "April 1, 2021 to March 31, 2022 Plant Health Survey Report",
        "fr": "Rapport d'enqu\u00eates de la protection des v\u00e9g\u00e9taux du 1 avril 2021 au 31 mars 2022"
    },
    "js": {
        "en": "",
        "fr": ""
    },
    "body": {
        "en": "        \r\n        \n<p>The objectives of the Plant Protection program within the Canadian Food Inspection Agency (CFIA) are to prevent the introduction and spread within Canada of plant pests of quarantine significance, to detect and control or eradicate designated plant pests in Canada, and to certify plants and plant products for domestic and export trade.</p>\n \n<p>Plant health surveys support the Plant Protection Program in a number of ways. They help to detect new populations of quarantine pests or potential quarantine pests being considered for regulation. Delimitation surveys are also conducted to determine the range of pest populations with limited distributions in Canada (ISPM\u00a0no\u00a008). Surveillance data allows Canada to maintain claims of Pest Free Area (ISPM\u00a0no\u00a004), Pest Free Place of Production &amp; Pest Free Production Site (ISPM\u00a0no\u00a010) status, and supports our ability to meet a number of international phytosanitary standards under the International Plant Protection Convention. Surveys provide information in support of import, export and domestic regulatory programs. They are a key contribution to policy development and trade negotiations. In all cases, reliable and accurate pest distribution data provides the basis for sound regulatory decisions. The information may be used for a variety of purposes, including reasons for removing, altering, or even not establishing a quarantine regulation. Plant pest surveys are also an integral part of control and eradication programs (ISPM\u00a0no\u00a009).<br>\n \n</p><p>In the 2021-2022 fiscal year (April 1, 2021\u00a0to\u00a0March 31, 2022), the\u00a0CFIA\u00a0conducted surveys for the plant pests listed below.</p>\n\n<h2>Survey Results for Forest Pests (April\u00a01, 2021 to March\u00a031, 2022)</h2>\n\n<h3>Asian longhorned beetle (<i lang=\"la\">Anoplophora glabripennis</i>)</h3>\n\n<p><strong>Background:</strong> The Asian longhorned beetle (ALHB) is an invasive insect that attacks and kills a wide variety of deciduous tree species. This beetle was detected for the first time in Canada in September of\u00a02003. An eradication program was implemented and in\u00a02020, the pest was declared eradicated from Canada based on 5\u00a0years of negative survey data in accordance with international phytosanitary standards. Given the constant threat this pest poses to Canada, ongoing National surveillance activities are designed to ensure a high probability of detection in high risk areas.</p>\n\n<div class=\"table-responsive\">\n<table class=\"table table-bordered\">\n<colgroup><col class=\"col-sm-2\"><col class=\"col-sm-2\"><col class=\"col-sm-4\"><col class=\"col-sm-4\"></colgroup>\n<thead>\n<tr class=\"active\">\n<th scope=\"col\">Provinces surveyed (number of sites)</th>\n<th scope=\"col\">Type of Survey</th>\n<th scope=\"col\">Results</th>\n<th scope=\"col\">Notes</th>\n</tr>\n</thead>\n<tbody>\n<tr>\n<td>BC\u00a0(369)<br>\n<br>\n<br>\n<br>\n<br>\n<br>\n<br>\n<br>\n<br>\n</td>\n<td>Visual inspection</td>\n<td>No detections</td>\n<td>Canada is considered free from Asian longhorned beetle.</td>\n</tr>\n</tbody>\n</table>\n</div>\n\n<h3>Emerald ash borer (<i lang=\"la\">Agrilus planipennis</i>)</h3>\n\n<p><strong>Background:</strong> The emerald ash borer (EAB) was first detected in Canada in Windsor, Ontario in July\u00a02002. Since the initial detection, this species has been found in Winnipeg, Manitoba, and parts of Ontario, Qu\u00e9bec, New Brunswick and Nova Scotia. The primary goal of this survey is to determine whether EAB is present in areas where it is not known to occur in order to provide information in support of regulatory decisions.</p>\n\n<div class=\"table-responsive\">\n<table class=\"table table-bordered\">\n<colgroup><col class=\"col-sm-2\"><col class=\"col-sm-2\"><col class=\"col-sm-4\"><col class=\"col-sm-4\"></colgroup>\n<thead>\n<tr class=\"active\">\n<th scope=\"col\">Provinces surveyed (number of sites)</th>\n<th scope=\"col\">Type of Survey</th>\n<th scope=\"col\">Results</th>\n<th scope=\"col\">Notes</th>\n</tr>\n</thead>\n<tbody>\n<tr>\n<td>BC\u00a0(27)<br>\n<br>\n<br>\n<br>\n<br>\n<br>\n<br>\n<br>\n<br>\n</td>\n<td>Visual inspection and traps</td>\n<td>No detections outside the current infested areas.</td>\n<td>Regulated areas remain unchanged. The emerald ash borer is present in Winnipeg (MB), and in parts of Ontario, Quebec, New Brunswick and Nova Scotia.</td>\n</tr>\n</tbody>\n</table>\n</div>\n\n<h3>Invasive Alien Forest Insects</h3>\n\n<p><strong>Background:</strong> The invasive alien species (IAS) surveys of forest insects are pathway-based surveys designed to detect a broad range of wood borers and bark beetles using semiochemical-baited black, multiple funnel traps. Since 2015, traps have been baited with either the general longhorn lure (fuscumol, fuscumol acetate, ultra-high release ethanol) or the pine sawyer lure (monochamol, ipsenol, alpha-pinene and ethanol). In\u00a02018, regional offices in province of Quebec participated in a pilot project whereby green multiple funnel traps are set in tree canopies to target wood boring insects that preferentially attack the upper portions of a tree. In\u00a02021, all areas in Canada are implementing canopy traps as well as standard ground-level traps. The surveys focus on urban areas where the risk of invasive alien insects moved with international wood packaging and dunnage is greatest. The primary goal of these surveys is to detect new introductions of non-indigenous species not known to be present in Canada. The IAS forest pest trapping survey, in addition to providing an early warning of the presence of potentially invasive pests in Canada, also provides valuable information on the diversity of Canada's insect fauna.</p>\n\n<div class=\"table-responsive\">\n<table class=\"table table-bordered\">\n<colgroup><col class=\"col-sm-2\"><col class=\"col-sm-2\"><col class=\"col-sm-4\"><col class=\"col-sm-4\"></colgroup>\n<thead>\n<tr class=\"active\">\n<th scope=\"col\">Provinces surveyed (number of sites)</th>\n<th scope=\"col\">Type of Survey</th>\n<th scope=\"col\">Results</th>\n<th scope=\"col\">Notes</th>\n</tr>\n</thead>\n<tbody>\n<tr>\n<td>BC\u00a0(20)<br>\n<br>\n<br>\n<br>\n<br>\n<br>\n</td>\n<td>Traps</td>\n<td>No regulated pests or pests of quarantine significance were detected outside of their known range.</td>\n<td>From\u00a02016 to\u00a02020, this survey detected at least one new provincial or Canadian record, none of which were of quarantine significance. 2021\u00a0represents the 1st\u00a0time in 6\u00a0years this survey has not produced a new record.</td>\n</tr>\n</tbody>\n</table>\n</div>\n\n<h3>Spongy Moth (<i lang=\"la\">Lymantria dispar dispar</i>) and AGM (<i lang=\"la\">Lymantria dispar asiatica</i> or <i lang=\"la\">Lymantria dispar japonica</i>)</h3>\n\n<p><strong>Background:</strong> The Spongy moth, formerly known as the European gypsy moth, is established in Ontario, Qu\u00e9bec, New Brunswick, Nova Scotia, and in Prince Edward Island. Pheromone-based monitoring surveys are conducted annually in non-regulated areas of Canada. Surveys are also conducted to verify eradication of the insect in areas where eradication programs have been undertaken.</p>\n\n<p>AGM, formerly known as Asian Gypsy Moth, has been introduced into North America on several occasions, but eradication programs have prevented populations from establishing. This survey is being conducted in support of CFIA policy directive D-95-03: \"Plant protection policy for marine vessels arriving in Canada from areas regulated for AGM (<i lang=\"la\">Lymantria dispar</i>, <i lang=\"la\">Lymantria albescens</i>, <i lang=\"la\">Lymantria postalba</i>, <i lang=\"la\">Lymantria umbrosa</i>)\". AGM is defined for regulatory purposes as those subspecies of <i lang=\"la\">Lymantria dispar</i> in which the females are capable of sustained directed flight, whereas the Spongy moth (<i lang=\"la\">Lymantria dispar dispar</i>) females are not capable of flight</p>\n\n<div class=\"table-responsive\">\n<table class=\"table table-bordered\">\n<colgroup><col class=\"col-sm-2\"><col class=\"col-sm-2\"><col class=\"col-sm-4\"><col class=\"col-sm-4\"></colgroup>\n<thead>\n<tr class=\"active\">\n<th scope=\"col\">Provinces surveyed (number of sites)</th>\n<th scope=\"col\">Type of Survey</th>\n<th scope=\"col\">Results (adults caught in traps)</th>\n<th scope=\"col\">Notes</th>\n</tr>\n</thead>\n<tbody>\n<tr>\n<td>BC\u00a0(4839)<br>\n<br>\n<br>\n<br>\n<br>\n<br>\n<br>\n<br>\n<br>\n</td>\n<td>Traps</td>\n<td>\n<p><strong>BC</strong>: Abbotsford\u00a0(1), Barkerville\u00a0(5), Bowser\u00a0(4), Burnaby\u00a0(19), Canoe\u00a0(1), Chilliwack\u00a0(9), Colwood\u00a0(2), Comox\u00a0(1), Coquitlam\u00a0(10), Courtenay\u00a0(12), Delta\u00a0(2), Denman Island\u00a0(1), Duncan\u00a0(1), Esquimalt\u00a0(2), Gabriola Island\u00a0(1), Harrison Mills\u00a0(1), Lake Cowichan\u00a0(10), Langley\u00a0(4), Langley (AMG)\u00a0(2) Lantzville\u00a0(7), Madeira Park\u00a0(3), Maple Ridge\u00a0(1), Mission\u00a0(8), Nanaimo\u00a0(2), Nanoose Bay\u00a0(13), North Vancouver\u00a0(1), Oak Bay\u00a0(1), Parksville\u00a0(1), Penticton\u00a0(1), Port Alberni\u00a0(4), Prince George\u00a0(1), Qualicum Beach\u00a0(2), Quesnel\u00a0(2), Revelstoke\u00a0(1), Saanich\u00a0(1), Saltspring Island\u00a0(6), Sechelt\u00a0(1), Sicamous\u00a0(2), Sproat Lake\u00a0(1), Squamish\u00a0(1), Surrey\u00a0(11), Victoria\u00a0(15), West Vancouver\u00a0(2), Youbou\u00a0(7)</p>\n<p><strong>AB</strong>: Calgary\u00a0(11), Calmar\u00a0(3), Edmonton\u00a0(2), Jasper National Park\u00a0(2)</p>\n<p><strong>SK</strong>: Grenfell\u00a0(1), Meadow Lake\u00a0(1), Regina\u00a0(1), Saskatoon\u00a0(1), Wolseley\u00a0(1) </p>\n<p><strong>MB</strong>: Falcon Lake\u00a0(1), Portage La Prairie\u00a0(1), Sunnyside\u00a0(1), Winnipeg\u00a0(4)</p>\n<p><strong>ON</strong>: Cochrane District\u00a0(137), Dubreuilville\u00a0(10), Marathon\u00a0(2), Neebing\u00a0(74), Nipigon\u00a0(2), Red Rock\u00a0(6), Rossport\u00a0(9), Schreiber\u00a0(3), Shuniah\u00a0(2), Slate River Valley\u00a0(2), Thunder Bay\u00a0(154), Thunder Bay District\u00a0(219), Wawa\u00a0(12), White River\u00a0(7)</p>\n<p><strong>NL</strong>: Glenwood\u00a0(1), Grand Falls-windsor\u00a0(9), Salmonier Line\u00a0(1), St. John's\u00a0(3)</p>\n</td>\n<td>\n<p>Spongy moth was detected in\u00a0BC at a record number of sites. The high numbers are believed to be the result of vehicle movement from Eastern Canada where this pest is currently at outbreak levels. Eradication is planned for sites that appear to be established. Two moths of the flight capable AGM were found in Langley and eradication aerial sprays were conducted after this detection. All other traps were negative for AGM including traps set in Spongy regulated areas of\u00a0ON, QC,\u00a0NB, PE,\u00a0&amp;\u00a0NS.</p>\n<p>AB\u00a0had a significant number of moth detections in the city of Calgary.</p></td>\n</tr>\n</tbody>\n</table>\n</div>\n\n<h3>Brown spruce longhorn beetle (<i lang=\"la\">Tetropium fuscum</i>)</h3>\n\n<p><strong>Background:</strong> The brown spruce longhorn beetle (BSLB), Tetropium fuscum, an introduced wood boring pest, is native to north and central Europe and Japan, where it uses stressed and dying conifers as hosts, most notably Norway spruce (<i lang=\"la\">Picea abies</i>). All species of spruce in Canada are at risk. In\u00a01999, the beetle was detected in Point Pleasant Park, Halifax, Nova Scotia, and confirmed to have been present since at least\u00a01990. BSLB is considered to be a pest of quarantine significance in Canada and is regulated under the Plant Protection Act by the CFIA. The entire province of Nova Scotia is regulated for this pest.</p>\n\n<div class=\"table-responsive\">\n<table class=\"table table-bordered\">\n<colgroup><col class=\"col-sm-2\"><col class=\"col-sm-2\"><col class=\"col-sm-4\"><col class=\"col-sm-4\"></colgroup>\n<thead>\n<tr class=\"active\">\n<th scope=\"col\">Provinces surveyed (number of sites)</th>\n<th scope=\"col\">Type of Survey</th>\n<th scope=\"col\">Results</th>\n<th scope=\"col\">Notes</th>\n</tr>\n</thead>\n<tbody>\n<tr>\n<td>QC\u00a0(33)<br>\n<br>\n<br>\n</td>\n<td>Traps</td>\n<td>No detections outside the current infested area</td>\n<td>The infested area for BSLB remains unchanged</td>\n</tr>\n</tbody>\n</table>\n</div>\n\n<h3>Hemlock woolly adelgid (<i lang=\"la\">Adelges tsugae</i>)</h3>\n\n<p><strong>Background:</strong> Hemlock woolly adelgid (HWA) is a destructive pest of susceptible species of hemlock (<i lang=\"la\">Tsuga</i> spp.) that is native to India, Japan, Taiwan, China and western North America. HWA was first reported in North America in British Columbia in 1919, and can now be found in Alaska, Washington, Oregon, and California. HWA was first identified in the eastern United States in 1951. Since this time it has steadily spread and is now reported from 21\u00a0eastern states. In the eastern U.S., HWA has resulted in significant mortality of both eastern hemlock, (<i lang=\"la\">T. canadensis</i>) and Carolina hemlock, (<i lang=\"la\">T. caroliniana</i>). HWA threatens the existence of these two species in many locations</p>\n\n<div class=\"table-responsive\">\n<table class=\"table table-bordered\">\n<colgroup><col class=\"col-sm-2\"><col class=\"col-sm-2\"><col class=\"col-sm-4\"><col class=\"col-sm-4\"></colgroup>\n<thead>\n<tr class=\"active\">\n<th scope=\"col\">Provinces surveyed (number of sites)</th>\n<th scope=\"col\">Type of Survey</th>\n<th scope=\"col\">Results</th>\n<th scope=\"col\">Notes</th>\n</tr>\n</thead>\n<tbody>\n<tr>\n<td>ON\u00a0(84)<br>\n<br>\n<br>\n<br>\n</td>\n<td>Visual inspection</td>\n<td><p><strong>ON:</strong> the pest was detected in Fort Erie.</p>\n<p><strong>NS:</strong> HWA was detected in Kings and Lunenburg counties</p></td>\n<td>Infested Places Order amended to reflect new detections.</td>\n</tr>\n</tbody>\n</table>\n</div>\n\n<h3>Oak wilt (<i lang=\"la\">Bretziella fagacearum</i>)</h3>\n\n<p><strong>Background:</strong> Oak wilt (<i lang=\"la\">Bretziella fagacearum</i>) is a vascular wilt disease that is capable of killing trees in a single season. It was first recognized as an important forest pest in\u00a01944 in Wisconsin and is now known to occur in 23\u00a0states within the U.S. In 2016, oak wilt was confirmed on Belle Isle (Michigan), in the middle of the Detroit River, less than 600\u00a0meters from Windsor, Ontario. This disease is not known to occur in Canada. Oak wilt is spread from diseased to healthy trees through root grafting, and by oak bark beetles and sap beetles. All oak species are susceptible to oak wilt, but red oaks are more frequently infected and can die quite quickly. The primary goal of this visual survey is early detection of the pest in areas where it is not known to occur.</p>\n\n<div class=\"table-responsive\">\n<table class=\"table table-bordered\">\n<colgroup><col class=\"col-sm-2\"><col class=\"col-sm-2\"><col class=\"col-sm-4\"><col class=\"col-sm-4\"></colgroup>\n<thead>\n<tr class=\"active\">\n<th scope=\"col\">Provinces surveyed (number of sites)</th>\n<th scope=\"col\">Type of Survey</th>\n<th scope=\"col\">Results</th>\n<th scope=\"col\">Notes</th>\n</tr>\n</thead>\n<tbody>\n<tr>\n<td>ON\u00a0(57)<br>\n<br>\n<br>\n</td>\n<td>Visual inspection</td>\n<td>Oak wilt was not detected</td>\n<td>Canada is considered to be free from Oak wilt.</td>\n</tr>\n</tbody>\n</table>\n</div>\n\n<h2>Survey Results for Horticultural Pests (April\u00a01, 2021 to March\u00a031, 2022)</h2>\n\n<h3>Ramorum blight (<i lang=\"la\">Phytophthora ramorum</i>)</h3>\n\n<p><strong>Background:</strong> Since\u00a02003, Ramorum blight has been detected in a number of retail/wholesale nurseries in the southern coastal area of British Columbia. The primary goal of this survey is to provide information on the national status of ramorum blight in Canadian nurseries. More specifically, monitoring of ramorum blight is required to support eradication programs and detect new infestations.</p>\n\n<div class=\"table-responsive\">\n<table class=\"table table-bordered\">\n<colgroup><col class=\"col-sm-2\"><col class=\"col-sm-2\"><col class=\"col-sm-4\"><col class=\"col-sm-4\"></colgroup>\n<thead>\n<tr class=\"active\">\n<th scope=\"col\">Provinces surveyed (number of sites)</th>\n<th scope=\"col\">Type of Survey</th>\n<th scope=\"col\">Results</th>\n<th scope=\"col\">Notes</th>\n</tr>\n</thead>\n<tbody>\n<tr>\n<td>BC\u00a0(28)<br>\n<br>\n</td>\n<td>Visual inspection</td>\n<td><strong>BC:</strong> Ramorum blight was detected at one nursery</td>\n<td>Regulatory measures have been implemented at the infested nursery and eradication protocols were initiated.</td>\n</tr>\n</tbody>\n</table>\n</div>\n\n<h3>Oriental fruit moth (<i lang=\"la\">Grapholita molesta</i>)</h3>\n\n<p><strong>Background:</strong> The oriental fruit moth (OFM) is native to China and Korea. It was first detected in Ontario in\u00a01925. It was intercepted and eradicated in\u00a01957 in British Columbia and annual surveys since that time have been negative for this pest. The oriental fruit moth likely spreads to other countries in cocoons on dormant trees or in infested fruit. The principal host is <i lang=\"la\">Prunus</i> spp. This survey is done to confirm the pest-free status of British Columbia for export purposes.</p>\n\n<div class=\"table-responsive\">\n<table class=\"table table-bordered\">\n<colgroup><col class=\"col-sm-2\"><col class=\"col-sm-2\"><col class=\"col-sm-4\"><col class=\"col-sm-4\"></colgroup>\n<thead>\n<tr class=\"active\">\n<th scope=\"col\">Provinces surveyed (number of sites)</th>\n<th scope=\"col\">Type of Survey</th>\n<th scope=\"col\">Results</th>\n<th scope=\"col\">Notes</th>\n</tr>\n</thead>\n<tbody>\n<tr>\n<td>BC\u00a0(163)</td>\n<td>Traps</td>\n<td>No detections of OFM</td>\n<td>BC is considered to be free from OFM</td>\n</tr>\n</tbody>\n</table>\n</div>\n\n<h3>Japanese beetle (<i lang=\"la\">Popillia japonica</i>)</h3>\n\n<p><strong>Background:</strong> The Japanese beetle has been present in Canada since 1939. This species of beetle affects more than 300\u00a0plant species, including many economically important plants such as fruit trees, ornamental shrubs and roses, field crops, turf grasses, and sod. In\u00a02017, Japanese beetle was detected in Vancouver and a multi-collaborator eradication program has been ongoing since\u00a02018. The trapping efforts in 2018 resulted in 8,276\u00a0beetles being caught. This number went down to 1,157\u00a0beetles in\u00a02019 and\u00a0214 beetles in\u00a02020. In\u00a02021, only\u00a079 beetles were caught but more than half of these detections occurred outside the regulated area.</p>\n\n<div class=\"table-responsive\">\n<table class=\"table table-bordered\">\n<colgroup><col class=\"col-sm-2\"><col class=\"col-sm-2\"><col class=\"col-sm-4\"><col class=\"col-sm-4\"></colgroup>\n<thead>\n<tr class=\"active\">\n<th scope=\"col\">Provinces surveyed (number of sites)</th>\n<th scope=\"col\">Type of Survey</th>\n<th scope=\"col\">Results (adults caught in traps)</th>\n<th scope=\"col\">Notes</th>\n</tr>\n</thead>\n<tbody>\n<tr>\n<td>BC\u00a0(2790)<br>\n</td>\n<td>Traps</td>\n<td><strong>BC:</strong> Japanese beetle was detected in Vancouver\u00a0(73), Burnaby\u00a0(5) and Port Coquitlam\u00a0(1)</td>\n<td>We continue to support our collaborators in their effort to eradicate the pest. Trapping efforts will be increased in Vancouver and around new satellite infestations.</td>\n</tr>\n</tbody>\n</table>\n</div>\n\n<h3>Blueberry maggot (<i lang=\"la\">Rhagoletis mendax</i>)</h3>\n\n<p><strong>Background:</strong> The blueberry maggot is an indigenous pest of commercially grown lowbush and highbush blueberries in the Canadian Maritime Provinces. It is currently found in Nova Scotia, New Brunswick, Prince Edward Island and parts of Ontario and Quebec. It is not found in Newfoundland &amp; Labrador or in western Canada.</p>\n\n<div class=\"table-responsive\">\n<table class=\"table table-bordered\">\n<colgroup><col class=\"col-sm-2\"><col class=\"col-sm-2\"><col class=\"col-sm-4\"><col class=\"col-sm-4\"></colgroup>\n<thead>\n<tr class=\"active\">\n<th scope=\"col\">Provinces surveyed (number of sites)</th>\n<th scope=\"col\">Type of Survey</th>\n<th scope=\"col\">Results</th>\n<th scope=\"col\">Notes</th>\n</tr>\n</thead>\n<tbody>\n<tr>\n<td>BC\u00a0(23)<br>\n<br>\n<br>\n</td>\n<td>Traps</td>\n<td>No new detections outside the known infested areas.</td>\n<td>Regulated areas remain unchanged.</td>\n</tr>\n</tbody>\n</table>\n</div>\n\n<h3>Apple maggot (<i lang=\"la\">Rhagoletis pomonella</i>)</h3>\n\n<p><strong>Background:</strong> Apple maggot (AM) is an indigenous pest of apples in Canada. The BC Interior is the last major apple growing area of North America free from this pest. The objective of this survey is the early detection of apple maggot in the pest-free area of the BC Interior. This survey is being conducted in support of policies and programs related to CFIA Policy Directive D-00-07: \"Import and domestic phytosanitary requirements to prevent the introduction and spread of apple maggot (<i lang=\"la\">Rhagoletis pomonella</i> (Walsh))\". In 2015, a single female AM was detected in West Kelowna and in 2016 another single female was detected in the city of Kelowna. Despite increased surveillance from 2016 to 2019 apple maggot has not been detected since 2016.</p>\n\n<div class=\"table-responsive\">\n<table class=\"table table-bordered\">\n<colgroup><col class=\"col-sm-2\"><col class=\"col-sm-2\"><col class=\"col-sm-4\"><col class=\"col-sm-4\"></colgroup>\n<thead>\n<tr class=\"active\">\n<th scope=\"col\">Provinces surveyed (number of sites)</th>\n<th scope=\"col\">Type of Survey</th>\n<th scope=\"col\">Results</th>\n<th scope=\"col\">Notes</th>\n</tr>\n</thead>\n<tbody>\n<tr>\n<td>BC\u00a0(435)</td>\n<td>Traps</td>\n<td>No detections</td>\n<td>The BC Pest Free Area in the interior of British Columbia is considered free from apple maggot</td>\n</tr>\n</tbody>\n</table>\n</div>\n\n<h3>Tobacco blue mold (<i lang=\"la\">Peronospora hyoscyami</i> f.sp. <i lang=\"la\">tabacina</i>)</h3>\n\n<p><strong>Background:</strong> Tobacco blue mold (TBM) is a serious disease of solanaceous plants including tobacco, peppers, tomato and eggplant. TBM is only reported from Eastern Canada, although there was one report of the disease in Washington State in the 1950's. This pathogen is not known to overwinter in Canada but may be blown in as spores from the South Eastern US</p>\n\n<div class=\"table-responsive\">\n<table class=\"table table-bordered\">\n<colgroup><col class=\"col-sm-2\"><col class=\"col-sm-2\"><col class=\"col-sm-4\"><col class=\"col-sm-4\"></colgroup>\n<thead>\n<tr class=\"active\">\n<th scope=\"col\">Provinces surveyed (number of sites)</th>\n<th scope=\"col\">Type of Survey</th>\n<th scope=\"col\">Results</th>\n<th scope=\"col\">Notes</th>\n</tr>\n</thead>\n<tbody>\n<tr>\n<td>BC (3)</td>\n<td>Visual inspection</td>\n<td>No detections</td>\n<td>\u00a0</td>\n</tr>\n</tbody>\n</table>\n</div>\n\n<h3>Plum pox virus</h3>\n\n<p><strong>Background:</strong> Plum pox virus (PPV) is a serious plant disease that affects many stone fruit species within the genus <i lang=\"la\">Prunus</i>, including peaches, nectarines, plums, apricots, almonds and some ornamental varieties. Although PPV does not kill trees, it reduces the marketability of the fruit, causes early fruit drop in infected trees and drastically reduces fruit yields. Plum Pox Virus is present in the Niagara area.</p>\n\n<div class=\"table-responsive\">\n<table class=\"table table-bordered\">\n<colgroup><col class=\"col-sm-2\"><col class=\"col-sm-2\"><col class=\"col-sm-4\"><col class=\"col-sm-4\"></colgroup>\n<thead>\n<tr class=\"active\">\n<th scope=\"col\">Provinces surveyed (number of sites)</th>\n<th scope=\"col\">Type of Survey</th>\n<th scope=\"col\">Results</th>\n<th scope=\"col\">Notes</th>\n</tr>\n</thead>\n<tbody>\n<tr>\n<td>ON\u00a0(168)</td>\n<td>Leaf sampling</td>\n<td>No detections</td>\n<td>A total of 150\u00a0residential properties and 18\u00a0orchard properties were visited.</td>\n</tr>\n</tbody>\n</table>\n</div>\n\n<h2>Survey Results for Potato Pests (April\u00a01, 2021 to March\u00a031, 2022)</h2>\n\n<h3>Potato wart (<i lang=\"la\">Synchytrium endobioticum</i>)</h3>\n\n<p><strong>Background:</strong> Potato wart disease, also known as potato canker, is caused by <i lang=\"la\">Synchytrium endobioticum</i>, a soil-borne fungus. Potato (<i lang=\"la\">Solanum tuberosum</i>) is the only cultivated host. <i lang=\"la\">Synchytrium endobioticum</i> attacks the growing points on the potato plant, such as eyes, buds and stolon tips. The fungus can remain dormant in the soil for several years or more as resting spores. In Canada, potato wart is present in Prince Edward Island and in Newfoundland and Labrador. Soil sampling activities are conducted to detect PW outside its known distribution.</p>\n\n<div class=\"table-responsive\">\n<table class=\"table table-bordered\">\n<colgroup><col class=\"col-sm-2\"><col class=\"col-sm-2\"><col class=\"col-sm-4\"><col class=\"col-sm-4\"></colgroup>\n<thead>\n<tr class=\"active\">\n<th scope=\"col\">Provinces surveyed (number of sites)</th>\n<th scope=\"col\">Type of Survey</th>\n<th scope=\"col\">Results</th>\n<th scope=\"col\">Notes</th>\n</tr>\n</thead>\n<tbody>\n<tr>\n<td>BC\u00a0(30)<br>\n<br>\n<br>\n<br>\n<br>\n<br>\n<br>\n<br>\n<br>\n</td>\n<td>Soil testing</td>\n<td><strong>PEI:</strong> As part of an ongoing investigation, PW presence was confirmed in 2\u00a0fields in PEI.</td>\n<td>CFIA implemented regulatory measures to prevent potential spread.</td>\n</tr>\n</tbody>\n</table>\n</div>\n\n<h2>Survey Results for the Invasive Alien Species Domestic Plant Health Program (IASDP) (April\u00a01, 2021 to March\u00a031, 2022)</h2>\n\n<h3>Invasive plant survey: Seed and grain handling facilities</h3>\n\n<p><strong>Background:</strong> The introduction of the Invasive Alien Species program within CFIA has increased efforts to regulate many plants as pests in the same way that insects and diseases are regulated. A number of additional plants have been added to the Federal Noxious Weeds list under the <i>Seeds Act</i> that are now being considered for inclusion in the list of pests regulated under the Plant Protection Act. One of the major pathways of introduction of these invasive alien plants into Canada is through contaminated lots of imported seed and grain. The main objectives of this survey are to detect new populations of the target plant species and to provide information in support of the development of regulatory policies on invasive alien plants.</p>\n\n<div class=\"table-responsive\">\n<table class=\"table table-bordered\">\n<colgroup><col class=\"col-sm-2\"><col class=\"col-sm-2\"><col class=\"col-sm-4\"><col class=\"col-sm-4\"></colgroup>\n<thead>\n<tr class=\"active\">\n<th scope=\"col\">Provinces surveyed (number of sites)</th>\n<th scope=\"col\">Type of Survey</th>\n<th scope=\"col\">Results</th>\n<th scope=\"col\">Notes</th>\n</tr>\n</thead>\n<tbody>\n<tr>\n<td>BC\u00a0(5)<br>\n<br>\n<br>\n<br>\n<br>\n<br>\n<br>\n<br>\n</td>\n<td>Visual inspection</td>\n<td><strong>QC</strong>: Woolly cupgrass Eriochloa villosa was detected in Varennes and in Mirabel.</td>\n<td>The regulatory approach for Woolly cupgrass is currently under review.</td>\n</tr>\n</tbody>\n</table>\n</div>\n\n<h3>Kudzu (<i lang=\"la\">Pueraria montana</i>)</h3>\n\n<p><strong>Background:</strong> Kudzu is a climbing, semi-woody, perennial vine. It is a serious weed that can dominate landscapes, altering nutrient cycling and biodiversity as well as impacting the productivity of various industries (agriculture and forestry). Furthermore, the considerable tuberous root system makes control and eradication of this species very difficult. A 0.5\u00a0hectare population was observed in 2009 in Essex County, Ontario on the north shore of Lake Erie between Kingsville and Leamington (Waldron and Larson 2012). Eradication measures are in place and the population is being monitored on an ongoing basis. The main objective of this survey is early detection of kudzu in areas where it is not known to occur, focusing primarily on areas surrounding the only known population located in southern Ontario.</p>\n\n<div class=\"table-responsive\">\n<table class=\"table table-bordered\">\n<colgroup><col class=\"col-sm-2\"><col class=\"col-sm-2\"><col class=\"col-sm-4\"><col class=\"col-sm-4\"></colgroup>\n<thead>\n<tr class=\"active\">\n<th scope=\"col\">Provinces surveyed (number of sites)</th>\n<th scope=\"col\">Type of Survey</th>\n<th scope=\"col\">Results</th>\n<th scope=\"col\">Notes</th>\n</tr>\n</thead>\n<tbody>\n<tr>\n<td>ON\u00a0(4)</td>\n<td>Visual inspection</td>\n<td>No new detections</td>\n<td>Eradication efforts are ongoing.</td>\n</tr>\n</tbody>\n</table>\n</div>\n\n<h3>Invasive plant survey: Japanese stiltgrass (<i lang=\"la\">Microstegium vimineum</i>)</h3>\n\n<p><strong>Background:</strong> Japanese stiltgrass is an invasive plant found in a variety of habitats, including forests, wetlands and disturbed areas. This plant's prolific seed production and rapid growth helps it dominate entire habitats, edging out native vegetation. As it spreads, Japanese stiltgrass displaces nesting sites for birds and other wildlife. Economically, Japanese stiltgrass may also cost producers due to control costs and productivity losses. Native to Asia, this plant has been introduced into the United States and is found in Ohio, Pennsylvania and along the US Atlantic coast. It was detected at three locations in Ontario: in the Niagara Peninsula and Elgin County in\u00a02020 and in southwest Middlesex County in 2021. It has not been found in any other locations in Canada.</p>\n\n<div class=\"table-responsive\">\n<table class=\"table table-bordered\">\n<colgroup><col class=\"col-sm-2\"><col class=\"col-sm-2\"><col class=\"col-sm-4\"><col class=\"col-sm-4\"></colgroup>\n<thead>\n<tr class=\"active\">\n<th scope=\"col\">Provinces surveyed (number of sites)</th>\n<th scope=\"col\">Type of Survey</th>\n<th scope=\"col\">Results</th>\n<th scope=\"col\">Notes</th>\n</tr>\n</thead>\n<tbody>\n<tr>\n<td>ON (10)</td>\n<td>Visual inspection</td>\n<td>Detected at one site in southwest Middlesex County</td>\n<td>The CFIA is working with collaborators on the management of Japanese stiltgrass in Ontario.</td>\n</tr>\n</tbody>\n</table>\n</div>\n\n<h2>Other pests of concern</h2>\n\n<h3>Box tree moth (<i lang=\"la\">Cydalima perspectalis</i>)</h3>\n  \n<p>The  CFIA has been leading monitoring efforts to determine the distribution of box  tree moth (BTM), working with community scientists and collaborators to deploy  traps across Canada. A total of 663 traps were placed in 2021 under the  collaborative surveillance program, confirming an expansion of the distribution  of BTM to areas neighbouring the infested zones adjacent to Lake Ontario, with  isolated populations confirmed in Cookstown, Georgetown, Waterloo region,  Milton, Mississauga, Burlington, Hamilton, Grimsby, Vineland, and North Pelham.</p>\n\n<h3>Carnation tortrix (<i lang=\"la\">Cacoecimorpha pronubana</i>)</h3>\n  \n<p>This  pest is native to Northern Africa and widely distributed across Western Europe  to Asia Minor. It was introduced into North America, where it is present in the  Pacific Northwest. In May 2018 it was detected flying  in Port Coquitlam, BC, the 1st record in British Columbia. In 2021 it was  reported from a nursery from the Fraser Valley and confirmed in follow-up pheromone  based survey. It is a highly polyphagous pest feeding on strawberries,  grapevines, pears, stone fruits, roses and many more. This insect is currently  regulated in Canada but is undergoing a review of its regulatory status due to  no reports of significant impacts.</p>\n\n<h3>Northern giant hornet (<i lang=\"la\">Vespa mandarinia</i>)</h3>\n\n<p>In  October 2021, an adult specimen of the Northern giant hornet was found inside a  Japanese beetle trap in Langley, British Columbia. The site where the detection  occurred is located close to the USA-Canada border and in proximity to the area  where multiple detections of the hornet were made in previous years. This is  the only detection of the hornet in Canada in 2021 and the first since 2019.</p>\n\n<h3>Public inquiries</h3>\n  \n<p>Every  year we follow up on observations submitted by members of the public\u00a0 who are concerned about\u00a0 potential invasive alien species in April 1,  2021 to March 31, 2022 we received 42 such requests, including some significant  reports that helped inform regulatory decisions for the Hemlock woolly adelgid  (<i lang=\"la\">Adelges tsugae</i>) and Box tree moth (<i lang=\"la\">Cydalima pespectalis</i>) in Ontario.</p>\n  \n<p>These  observations highlight the important role the public can play in the early  detection of pests of potential significance to Canada.</p>\n\n<h3>Research projects and collaboration</h3>\n  \n<p>The  CFIA's Plant Health Surveillance Unit is also dedicated to preventative science  and research that supports risk mitigation and early detection. Research  projects supported by the PHSU in April\u00a01, 2021 to March\u00a031, 2022 include:</p>\n\n<ul>\n<li>Plant  health diagnostic project with the Biodiversity Institute of Ontario,  University of Guelph to assess potential for eDNA metabarcoding for detecting  species of regulatory concern.</li>\n<li>Assessing  the efficacy of a community science monitoring program for box tree moth.</li>\n<li>Collaborating  with Natural Resources Canada-Canadian Forest Service to improve detection  survey methodology of wood boring insects by conducting field research in  Europe, Asia and North America.</li>\n<li>Searching  for hemlock woolly adelgid biocontrol agents and developing tools to detect and  quantify predatory fly populations (<i lang=\"la\">Leucotaraxis</i> spp.).</li>\n<li>Determining  Spotted lanternfly cold tolerance strategies and temperature limitations to  highlight Canadian areas at risk.</li>\n<li>Assessing  the placement of Japanese beetle traps in canopy to improve detection.</li>\n<li>Evaluation  of an LED-based light trap for surveillance in high-risk areas.</li>\n</ul>\n\n<p>Finally,  the unit is committed to building and maintaining collaboration and networks  through innovative education, outreach and awareness strategies that strengthen  networks and build surveillance capacity.</p>\n\n<p>The  CFIA has worked closely with its collaborators, including provinces and  municipalities to expand the reach of surveillance efforts for spongy moth,  brown spruce longhorn beetle and emerald ash borer. There were a total of 530  survey sites delivered by collaborators. Furthermore, provincial efforts in  Ontario have supported discussions on European cherry fruit fly with traps  deployed at 13 locations in southwestern Ontario with no new detections.\u00a0 Collaboration with the Invasive Species  Centre, Ontario, Parks Canada Agency and the Canadian Council on Invasive  Species have continued and several Memorandums of Understanding for data  sharing with provinces have been established. The unit regularly holds training  and outreach events with the public and stakeholders, in addition to providing  internal training for CFIA inspectors. Please contact the Plant Health Surveillance Unit if you or your organization would like to receive support for  training or public outreach events.</p>\n\n<p>For any questions regarding CFIA's plant health surveys, please contact the Plant Health Surveillance Unit at <a href=\"mailto:cfia.surveillance-surveillance.acia@inspection.gc.ca\" class=\"nowrap\">cfia.surveillance-surveillance.acia@inspection.gc.ca</a></p>\r\n        \r\n\r\n\r\n\r\n<div class=\"row\">\r\n \r\n\t\r\n\t\t\t\r\n\r\n<div class=\"col-xm-12 pagedetails container\">\r\n\t\t\t\t\r\n\r\n</div>\r\n\t\r\n</div>",
        "fr": "\r\n        \r\n        \n<p>Le Programme de protection des v\u00e9g\u00e9taux de l'Agence canadienne d'inspection des aliments (ACIA) a pour objet d'emp\u00eacher l'introduction et la propagation au Canada de phytoravageurs justiciables de quarantaine, de d\u00e9tecter et de combattre ou d'\u00e9radiquer les phytoravageurs d\u00e9sign\u00e9s et de certifier les plantes et produits v\u00e9g\u00e9taux destin\u00e9s aux march\u00e9s nationaux et \u00e9trangers.</p>\n\n<p>Les enqu\u00eates phytosanitaires soutiennent le Programme de protection des v\u00e9g\u00e9taux de plusieurs fa\u00e7ons. Elles aident \u00e0 d\u00e9tecter de nouvelles populations de ravageurs justiciables ou potentiellement justiciables de quarantaine qui pourraient \u00eatre soumis \u00e0 la r\u00e9glementation. Des enqu\u00eates de d\u00e9limitation sont aussi men\u00e9es pour d\u00e9terminer l'\u00e9tendue des populations de ravageurs dont l'aire de r\u00e9partition est restreinte au Canada (NIMP no\u00a008). Les donn\u00e9es de surveillance permettent au Canada de maintenir le statut de zone exempte (NIMP no\u00a004) et de lieu ou site de production exempt d'organismes nuisibles (NIMP no\u00a010), et de soutenir sa capacit\u00e9 de respecter certaines normes phytosanitaires de la Convention internationale pour la protection des v\u00e9g\u00e9taux. Les enqu\u00eates fournissent des renseignements utiles aux programmes d'importation, d'exportation et de r\u00e9glementation nationale. Elles sont un \u00e9l\u00e9ment cl\u00e9 de l'\u00e9laboration des politiques et des n\u00e9gociations commerciales. Dans tous les cas, des donn\u00e9es fiables et exactes sur la r\u00e9partition des phytoravageurs permettent de prendre des d\u00e9cisions r\u00e9glementaires \u00e9clair\u00e9es. L'information peut \u00eatre utilis\u00e9e \u00e0 de multiples fins, y compris comme motif pour l'annulation, la modification ou m\u00eame l'abstention d'\u00e9tablir une r\u00e9glementation. Les enqu\u00eates phytosanitaires font aussi partie int\u00e9grante des programmes de lutte et d'\u00e9radication (NIMP no\u00a009).</p>\n \n<p>Au cours de l'ann\u00e9e financi\u00e8re 2021-2022 (du 1er\u00a0avril 2021 au 31\u00a0mars 2022), l'ACIA a r\u00e9alis\u00e9 des enqu\u00eates sur les phytoravageurs ci-dessous.</p>\n\n<h2>R\u00e9sultats des enqu\u00eates sur les ravageurs forestiers du 1\u00a0avril 2021 au 31\u00a0mars 2022</h2>\n\n<h3>Longicorne asiatique (<i lang=\"la\">Anoplophora glabripennis</i>)</h3>\n\n<p><strong>Contexte:</strong> Le longicorne asiatique (ou longicorne \u00e9toil\u00e9) est un insecte envahissant qui s'attaque \u00e0 une grande vari\u00e9t\u00e9 de feuillus et provoque leur mort. Il a \u00e9t\u00e9 d\u00e9tect\u00e9 pour la premi\u00e8re fois au Canada en septembre\u00a02003. Un programme d'\u00e9radication a \u00e9t\u00e9 mis en place et, en\u00a02020, l'\u00e9radication du ravageur a \u00e9t\u00e9 prononc\u00e9 conform\u00e9ment aux normes phytosanitaires internationales. \u00c0 cause du risque constant que ce ravageur pose pour le Canada, des enqu\u00eates nationales ont \u00e9t\u00e9 d\u00e9velopp\u00e9es pour assurer sa d\u00e9tection dans les zones \u00e0 haut risque.</p>\n\n<div class=\"table-responsive\">\n<table class=\"table table-bordered\">\n<colgroup><col class=\"col-sm-2\"><col class=\"col-sm-2\"><col class=\"col-sm-4\"><col class=\"col-sm-4\"></colgroup>\n<thead>\n<tr class=\"active\">\n<th scope=\"col\">Provinces surveill\u00e9es (nombres de sites)</th>\n<th scope=\"col\">Type d'enqu\u00eate</th>\n<th scope=\"col\">R\u00e9sultats</th>\n<th scope=\"col\">Notes</th>\n</tr>\n</thead>\n<tbody>\n<tr>\n<td>C.-B. (369)<br>\n<br>\n<br>\n<br>\n<br>\n<br>\n<br>\n<br>\n<br>\n</td>\n<td>Enqu\u00eate visuelle</td>\n<td>Aucune d\u00e9tection</td>\n<td>Le Canada est consid\u00e9r\u00e9 exempt du longicorne asiatique</td>\n</tr>\n</tbody>\n</table>\n</div>\n\n<h3>Agrile du fr\u00eane (<i lang=\"la\">Agrilus planipennis</i>)</h3>\n\n<p><strong>Contexte:</strong> L'agrile du fr\u00eane a \u00e9t\u00e9 d\u00e9tect\u00e9 pour la premi\u00e8re fois au Canada \u00e0 Windsor, en Ontario, en juillet 2002. Depuis cette d\u00e9tection, l'esp\u00e8ce a \u00e9t\u00e9 d\u00e9couverte \u00e0 Winnipeg, au Manitoba, et \u00e0 certains endroits de l'Ontario, du Qu\u00e9bec, du Nouveau-Brunswick et de la Nouvelle-\u00c9cosse. L'objectif premier de cette enqu\u00eate est de d\u00e9terminer si l'agrile du fr\u00eane est pr\u00e9sent dans des r\u00e9gions o\u00f9 il n'est pas consid\u00e9r\u00e9 comme tel dans le but d'obtenir des informations permettant d'\u00e9clairer les d\u00e9cisions r\u00e9glementaires.</p>\n\n<div class=\"table-responsive\">\n<table class=\"table table-bordered\">\n<colgroup><col class=\"col-sm-2\"><col class=\"col-sm-2\"><col class=\"col-sm-4\"><col class=\"col-sm-4\"></colgroup>\n<thead>\n<tr class=\"active\">\n<th scope=\"col\">Provinces surveill\u00e9es (nombres de sites)</th>\n<th scope=\"col\">Type d'enqu\u00eate</th>\n<th scope=\"col\">R\u00e9sultats</th>\n<th scope=\"col\">Notes</th>\n</tr>\n</thead>\n<tbody>\n<tr>\n<td>C.-B.\u00a0(27)<br>\n<br>\n<br>\n<br>\n<br>\n<br>\n<br>\n<br>\n<br>\n</td>\n<td>Enqu\u00eate visuelle et pi\u00e8ges</td>\n<td>Aucune d\u00e9tection en dehors des zones infest\u00e9s actuelles</td>\n<td>Les zones r\u00e9glement\u00e9es demeurent inchang\u00e9es. L'agrile du fr\u00eane est pr\u00e9sent \u00e0 Winnipeg (MB) et \u00e0 certains endroits de l'Ontario, du Qu\u00e9bec, du Nouveau-Brunswick et de la Nouvelle-\u00c9cosse.</td>\n</tr>\n</tbody>\n</table>\n</div>\n\n<h3>Esp\u00e8ces exotiques envahissantes des for\u00eats</h3>\n\n<p><strong>Contexte:</strong> Les enqu\u00eates sur les esp\u00e8ces exotiques envahissantes (EEE) des for\u00eats visent \u00e0 d\u00e9terminer les voies d'introduction d'un large \u00e9ventail de col\u00e9opt\u00e8res perceurs du bois et de scolytes par l'utilisation de pi\u00e8ges noirs \u00e0 entonnoirs et d'attractifs semiochimiques. Depuis 2015, des attractifs g\u00e9n\u00e9raux pour les longicornes (fuscumol, fuscumol acetate, et \u00e9thanol \u00e0 lib\u00e9ration ultrarapide) ou des attractifs pour <i lang=\"la\">Monochamus</i> (alpha-pinene, ethanol, ipsenol, et monochamol) sont utilis\u00e9s. En\u00a02018 des bureaux r\u00e9gionaux au Qu\u00e9bec ont particip\u00e9 \u00e0 un projet-pilote consistant \u00e0 accrocher dans la cime des arbres des pi\u00e8ges \u00e0 entonnoirs verts afin de cibler les insectes xylophages qui pr\u00e9f\u00e8rent attaquer la portion sup\u00e9rieur de l'arbre. En\u00a02021 toutes les r\u00e9gions au Canada ont install\u00e9 des pi\u00e8ges dans la cime des arbres, en plus des pi\u00e8ges plac\u00e9s au niveau du sol.</p>\n\n<p>Cette enqu\u00eate des secteurs urbains o\u00f9 le risque d'introduction de ravageurs exotiques envahissants dans des mat\u00e9riaux d'emballage ou d'arrimage en bois infest\u00e9s provenant de l'ext\u00e9rieur est le plus grand. Cette enqu\u00eate a surtout pour but de d\u00e9tecter les nouveaux cas d'introduction d'esp\u00e8ces non indig\u00e8nes jusqu'ici inconnues au Canada. En plus d'agir comme un syst\u00e8me d'avertissement pr\u00e9coce pour les ravageurs potentiellement envahissants, cette enqu\u00eate fournie des donn\u00e9es utiles sur la diversit\u00e9 canadienne des populations d'insectes.</p>\n\n<div class=\"table-responsive\">\n<table class=\"table table-bordered\">\n<colgroup><col class=\"col-sm-2\"><col class=\"col-sm-2\"><col class=\"col-sm-4\"><col class=\"col-sm-4\"></colgroup>\n<thead>\n<tr class=\"active\">\n<th scope=\"col\">Provinces surveill\u00e9es (nombres de sites)</th>\n<th scope=\"col\">Type d'enqu\u00eate</th>\n<th scope=\"col\">R\u00e9sultats</th>\n<th scope=\"col\">Notes</th>\n</tr>\n</thead>\n<tbody>\n<tr>\n<td>C.-B. (20)<br>\n<br>\n<br>\n<br>\n<br>\n<br>\n</td>\n<td>Pi\u00e8ges</td>\n<td>Aucune d\u00e9tection de ravageurs r\u00e9glement\u00e9s ou de ravageur potentiellement justiciables de quarantaine en dehors de leur aire de distribution connue.</td>\n<td>De\u00a02016 \u00e0\u00a02020, cette enqu\u00eate a donn\u00e9 lieu \u00e0 au moins une premi\u00e8re mention au niveau provincial ou canadien \u00e0 chaque ann\u00e9e, bien qu'aucun de ces ravageurs ne f\u00fbt consid\u00e9r\u00e9 comme \u00e9tant justiciable de quarantaine. Il s'agit de la premi\u00e8re ann\u00e9e en 6 ans o\u00f9 cette enqu\u00eate ne donne pas lieu \u00e0 une nouvelle mention.</td>\n</tr>\n</tbody>\n</table>\n</div>\n\n<h3>Spongieuse europ\u00e9enne (<i lang=\"la\">Lymantria dispar dispar</i>) et spongieuse asiatique (<i lang=\"la\">Lymantria dispar asiatica</i> or <i lang=\"la\">Lymantria dispar japonica</i>)</h3>\n\n<p><strong>Contexte:</strong> La spongieuse est \u00e9tablie en Ontario, Qu\u00e9bec, Nouveau-Brunswick, Nouvelle-\u00c9cosse et \u00e0 l'\u00cele-du-Prince-\u00c9douard. Des enqu\u00eates annuelles de d\u00e9pistage sont men\u00e9es dans les zones non r\u00e9glement\u00e9es du Canada \u00e0 l'aide de pi\u00e8ges attractifs aux ph\u00e9romones. Des enqu\u00eates sont \u00e9galement effectu\u00e9es afin de v\u00e9rifier si l'insecte est encore pr\u00e9sent dans les r\u00e9gions o\u00f9 des programmes d'\u00e9radication ont \u00e9t\u00e9 entrepris.</p>\n\n<p>La spongieuse asiatique a, quant \u00e0 elle, \u00e9t\u00e9 introduite \u00e0 plusieurs reprises en Am\u00e9rique du Nord, mais la mise en place de mesures d'\u00e9radication y a chaque fois emp\u00each\u00e9 son \u00e9tablissement. La pr\u00e9sente enqu\u00eate est men\u00e9e conform\u00e9ment aux dispositions de la directive D-95-03 de l'ACIA, intitul\u00e9e \u00ab\u00a0Politique phytosanitaire visant les navires marins arrivant au Canada en provenance de r\u00e9gions r\u00e9glement\u00e9es \u00e0 l'\u00e9gard de la spongieuse asiatique (<i lang=\"la\">Lymantria dispar</i>, <i lang=\"la\">Lymantria albescens</i>, <i lang=\"la\">Lymantria postalba</i>, <i lang=\"la\">Lymantria umbrosa</i>)\u00a0\u00bb. Aux fins de l'application de la loi, sont consid\u00e9r\u00e9es comme des spongieuses asiatiques les sous-esp\u00e8ces du <i lang=\"la\">Lymantria dispar</i> chez qui les femelles sont capables de soutenir un vol dirig\u00e9 soutenu. Chez la spongieuse europ\u00e9enne, les femelles sont incapables de voler</p>\n\n<div class=\"table-responsive\">\n<table class=\"table table-bordered\">\n<colgroup><col class=\"col-sm-2\"><col class=\"col-sm-2\"><col class=\"col-sm-4\"><col class=\"col-sm-4\"></colgroup>\n<thead>\n<tr class=\"active\">\n<th scope=\"col\">Provinces surveill\u00e9es (nombres de sites)</th>\n<th scope=\"col\">Type d'enqu\u00eate</th>\n<th scope=\"col\">R\u00e9sultats (adultes captur\u00e9s dans les pi\u00e8ges)</th>\n<th scope=\"col\">Notes</th>\n</tr>\n</thead>\n<tbody>\n<tr>\n<td>C.-B.\u00a0(4839)<br>\n<br>\n<br>\n<br>\n<br>\n<br>\n<br>\n<br>\n<br>\n</td>\n<td>Pi\u00e8ges</td>\n<td>\n<p><strong>C.-B.</strong>\u00a0: Abbotsford\u00a0(1), Barkerville\u00a0(5), Bowser\u00a0(4), Burnaby\u00a0(19), Canoe\u00a0(1), Chilliwack\u00a0(9), Colwood\u00a0(2), Comox\u00a0(1), Coquitlam\u00a0(10), Courtenay\u00a0(12), Delta\u00a0(2), Denman Island\u00a0(1), Duncan\u00a0(1), Esquimalt\u00a0(2),  Gabriola Island\u00a0(1), Harrison Mills (1), Lake Cowichan (10), Langley (4), Langley (AMG)\u00a0(2)  Lantzville\u00a0(7), Madeira Park\u00a0(3), Maple Ridge\u00a0(1), Mission\u00a0(8), Nanaimo\u00a0(2), Nanoose Bay\u00a0(13), North Vancouver\u00a0(1), Oak Bay (1), Parksville (1), Penticton (1), Port Alberni\u00a0(4), Prince George\u00a0(1), Qualicum Beach\u00a0(2), Quesnel\u00a0(2),  Revelstoke\u00a0(1), Saanich\u00a0(1), Saltspring Island\u00a0(6), Sechelt\u00a0(1), Sicamous\u00a0(2), Sproat Lake\u00a0(1), Squamish\u00a0(1), Surrey\u00a0(11), Victoria\u00a0(15), West Vancouver\u00a0(2), Youbou\u00a0(7)</p>\n<p><strong>Alb.</strong>\u00a0: Calgary\u00a0(11), Calmar\u00a0(3), Edmonton\u00a0(2), Parc national de Jasper\u00a0(2)</p>\n<p><strong>Sask.</strong>\u00a0: Grenfell\u00a0(1), Meadow Lake\u00a0(1), Regina\u00a0(1), Saskatoon\u00a0(1), Wolseley\u00a0(1) </p>\n<p><strong>Man.</strong>\u00a0: Falcon Lake\u00a0(1), Portage La Prairie\u00a0(1), Sunnyside\u00a0(1), Winnipeg\u00a0(4), </p>\n<p><strong>Ont.</strong>\u00a0: District de Cochrane\u00a0(137), Dubreuilville (10), Marathon\u00a0(2), Neebing\u00a0(74), Nipigon\u00a0(2), Red Rock\u00a0(6), Rossport\u00a0(9), Schreiber\u00a0(3), Shuniah\u00a0(2), Slate River Valley\u00a0(2), Thunder\u00a0Bay (154), District de Thunder Bay\u00a0(219), Wawa\u00a0(12), White River\u00a0(7).</p>\n<p><strong>T.-N.-L.</strong>\u00a0:  Glenwood \u00a0(1), Grand Falls-Windsor\u00a0(9), Salmonier Line\u00a0(1), St. John's\u00a0(3)</p>\n</td>\n<td>\n<p><strong>C.-B.</strong>\u00a0: La spongieuse a \u00e9t\u00e9 d\u00e9tect\u00e9s \u00e0 un nombre record d'endroit en Colombie-Britannique. Ce grand nombre de d\u00e9tections est possiblement d\u00fb au nombre de v\u00e9hicules en provenance de l'est du Canada, o\u00f9 le ravageur est pr\u00e9sent \u00e0 un niveau \u00e9pid\u00e9mique. Des efforts d'\u00e9radication sont pr\u00e9vus pour les endroits o\u00f9 la spongieuse semble \u00e9tablie.</p>\n<p>Deux papillons de la spongieuse asiatique, dont les femelles peuvent voler, ont \u00e9t\u00e9 d\u00e9tect\u00e9s \u00e0 Langley et des \u00e9pandages a\u00e9riens d'\u00e9radication ont \u00e9t\u00e9 effectu\u00e9s \u00e0 cet endroit. Aucun autre pi\u00e8ge n'a d\u00e9tect\u00e9 la spongieuse asiatique, y compris dans les zones r\u00e9glement\u00e9es pour la spongieuse (Ont., Qc., N.-B., N.-\u00c9., et \u00ce.-P.-\u00c9.)</p>\n<p><strong>Alb.</strong>\u00a0: Un nombre important de d\u00e9tections ont \u00e9t\u00e9 observ\u00e9es dans la ville de Calgary.</p></td>\n</tr>\n</tbody>\n</table>\n</div>\n\n<h3>Longicorne brun de l'\u00e9pinette (<i lang=\"la\">Tetropium fuscum</i>)</h3>\n\n<p><strong>Contexte:</strong> Le longicorne brun de l'\u00e9pinette (LBE) est un insecte xylophage introduit originaire du nord et du centre de l'Europe et du Japon qui, dans son aire d'origine, attaque les conif\u00e8res stress\u00e9s ou moribonds, en particulier l'\u00e9pinette de Norv\u00e8ge (<i lang=\"la\">Picea abies</i>). En 1999, le ravageur a \u00e9t\u00e9 d\u00e9tect\u00e9 dans le parc Point Pleasant, \u00e0 Halifax, en Nouvelle-\u00c9cosse. Des enqu\u00eates effectu\u00e9es ult\u00e9rieurement ont confirm\u00e9 que les individus r\u00e9colt\u00e9s dans le parc d\u00e8s 1990 \u00e9taient en r\u00e9alit\u00e9 des LBE. Le LBE est consid\u00e9r\u00e9 comme un ravageur justiciable de quarantaine au Canada et est r\u00e9glement\u00e9 en vertu de la Loi sur la protection des v\u00e9g\u00e9taux par l'ACIA. La province de la Nouvelle-\u00c9cosse au complet est r\u00e9glement\u00e9e pour ce ravageur.</p>\n\n<div class=\"table-responsive\">\n<table class=\"table table-bordered\">\n<colgroup><col class=\"col-sm-2\"><col class=\"col-sm-2\"><col class=\"col-sm-4\"><col class=\"col-sm-4\"></colgroup>\n<thead>\n<tr class=\"active\">\n<th scope=\"col\">Provinces surveill\u00e9es (nombres de sites)</th>\n<th scope=\"col\">Type d'enqu\u00eate</th>\n<th scope=\"col\">R\u00e9sultats</th>\n<th scope=\"col\">Notes</th>\n</tr>\n</thead>\n<tbody>\n<tr>\n<td>Qc.\u00a0(33)<br>\n<br>\n<br>\n</td>\n<td>Pi\u00e8ges</td>\n<td>Aucune d\u00e9tection en dehors de la zone r\u00e9glement\u00e9e actuelle</td>\n<td>La zone infest\u00e9e par le LBE demeure inchang\u00e9e</td>\n</tr>\n</tbody>\n</table>\n</div>\n\n<h3>Puceron lanig\u00e8re de la pruche (<i lang=\"la\">Adelges tsugae</i>)</h3>\n\n<p><strong>Contexte:</strong> Le puceron lanig\u00e8re de la pruche est un ravageur indig\u00e8ne de l'Inde, du Japon, de Ta\u00efwan et de la Chine qui s'attaque aux esp\u00e8ces de pruches (<i lang=\"la\">Tsuga</i> spp.) sensibles. Sa pr\u00e9sence en Am\u00e9rique du Nord a \u00e9t\u00e9 signal\u00e9e pour la premi\u00e8re fois en\u00a01919, en Colombie-Britannique. Le ravageur se trouve maintenant dans les \u00c9tats de l'Alaska, de Washington, de l'Oregon et de la Californie. Il \u00e9t\u00e9 observ\u00e9 pour la premi\u00e8re fois dans l'est des \u00c9tats-Unis en\u00a01951. Depuis ce temps, il s'est dispers\u00e9 et est maintenant pr\u00e9sent dans 21\u00a0\u00c9tats o\u00f9 il a provoqu\u00e9 une important mortalit\u00e9 aux pruches du Canada (<i lang=\"la\">T. canadensis</i>) et aux pruches de la Caroline (<i lang=\"la\">T. caroliniana</i>). Le puceron lanig\u00e8re de la pruche menace la survie de ces deux esp\u00e8ces \u00e0 plusieurs endroits. Au Canada, il a \u00e9t\u00e9 d\u00e9tect\u00e9 dans la portion ouest de la Nouvelle-\u00c9cosse et dans la p\u00e9ninsule du Niagara en Ontario.</p>\n\n<div class=\"table-responsive\">\n<table class=\"table table-bordered\">\n<colgroup><col class=\"col-sm-2\"><col class=\"col-sm-2\"><col class=\"col-sm-4\"><col class=\"col-sm-4\"></colgroup>\n<thead>\n<tr class=\"active\">\n<th scope=\"col\">Provinces surveill\u00e9es (nombres de sites)</th>\n<th scope=\"col\">Type d'enqu\u00eate</th>\n<th scope=\"col\">R\u00e9sultats</th>\n<th scope=\"col\">Notes</th>\n</tr>\n</thead>\n<tbody>\n<tr>\n<td>Ont.\u00a0(84)<br>\n<br>\n<br>\n<br>\n<br>\n</td>\n<td>Enqu\u00eate visuelle</td>\n<td><p><strong>Ont.:</strong> le ravageur a \u00e9t\u00e9 d\u00e9tect\u00e9 \u00e0 Fort Erie.</p>\n<p><strong>N.-\u00c9.:</strong> le puceron a \u00e9t\u00e9 d\u00e9tect\u00e9 dans les comt\u00e9s de Kings et Lunenburg.</p></td>\n<td>L'Arr\u00eat\u00e9 sur les lieux infest\u00e9s a \u00e9t\u00e9 modifi\u00e9 pour refl\u00e9ter ces nouvelles d\u00e9tections.</td>\n</tr>\n</tbody>\n</table>\n</div>\n\n<h3>Fl\u00e9trissement du ch\u00eane (<i lang=\"la\">Bretziella fagacearum</i>)</h3>\n\n<p><strong>Contexte:</strong> Le fl\u00e9trissement du ch\u00eane est une infection vasculaire caus\u00e9e par le champignon <i lang=\"la\">Bretziella fagacearum</i> et qui peut tuer les arbres infect\u00e9s en une seule saison. Reconnu pour la premi\u00e8re fois comme une importante maladie foresti\u00e8re en\u00a01944, au Wisconsin, le fl\u00e9trissement du ch\u00eane s\u00e9vit aujourd'hui dans 23\u00a0\u00c9tats am\u00e9ricains. En\u00a02016, on a confirm\u00e9 la pr\u00e9sence de fl\u00e9trissement du ch\u00eane \u00e0 Belle Isle (Michigan), au milieu de la rivi\u00e8re Detroit, soit \u00e0 moins de\u00a0600 m\u00e8tres de Windsor, Ontario. Aucun cas n'a toutefois \u00e9t\u00e9 signal\u00e9 au Canada \u00e0 ce jour. La maladie se propage d'arbres infect\u00e9s \u00e0 des arbres sains par greffage des racines et par des scolytes du ch\u00eane et des nitidules. Toutes les esp\u00e8ces de ch\u00eanes sont vuln\u00e9rables, mais les ch\u00eanes rouges sont plus souvent infect\u00e9s et peuvent mourir assez rapidement. L'objectif principal de cette enqu\u00eate fond\u00e9e sur une inspection visuelle est de d\u00e9tecter de fa\u00e7on pr\u00e9coce cet agent phytopathog\u00e8ne dans les r\u00e9gions o\u00f9 il n'est pas tenu pour pr\u00e9sent.</p>\n\n<div class=\"table-responsive\">\n<table class=\"table table-bordered\">\n<colgroup><col class=\"col-sm-2\"><col class=\"col-sm-2\"><col class=\"col-sm-4\"><col class=\"col-sm-4\"></colgroup>\n<thead>\n<tr class=\"active\">\n<th scope=\"col\">Provinces surveill\u00e9es (nombres de sites)</th>\n<th scope=\"col\">Type d'enqu\u00eate</th>\n<th scope=\"col\">R\u00e9sultats</th>\n<th scope=\"col\">Notes</th>\n</tr>\n</thead>\n<tbody>\n<tr>\n<td>Ont.\u00a0(57)<br>\n<br>\n<br>\n</td>\n<td>Enqu\u00eate visuelle </td>\n<td>Aucune d\u00e9tection du fl\u00e9trissement du ch\u00eane</td>\n<td>Cette maladie est toujours consid\u00e9r\u00e9 comme \u00e9tant absente du Canada.</td>\n</tr>\n</tbody>\n</table>\n</div>\n\n<h2>R\u00e9sultats des enqu\u00eates sur les ravageurs en horticulture du 1\u00a0avril 2021 au 31\u00a0mars 2022</h2>\n\n<h3>Encre des ch\u00eanes rouges (<i lang=\"la\">Phytophthora ramorum</i>)</h3>\n\n<p><strong>Contexte:</strong> Depuis\u00a02003, la maladie de l'encre des ch\u00eanes rouges a \u00e9t\u00e9 d\u00e9tect\u00e9e dans plusieurs p\u00e9pini\u00e8res de gros et de d\u00e9tail de la c\u00f4te sud de la Colombie-Britannique. L'objectif premier de cette enqu\u00eate est de fournir de l'information sur le statut national du <i lang=\"la\">Phytophthora ramorum</i> dans les p\u00e9pini\u00e8res canadiennes. Plus pr\u00e9cis\u00e9ment, des activit\u00e9s de surveillance de la maladie sont n\u00e9cessaires pour cibler les programmes d'\u00e9radication et d\u00e9tecter les nouvelles populations.</p>\n\n<div class=\"table-responsive\">\n<table class=\"table table-bordered\">\n<colgroup><col class=\"col-sm-2\"><col class=\"col-sm-2\"><col class=\"col-sm-4\"><col class=\"col-sm-4\"></colgroup>\n<thead>\n<tr class=\"active\">\n<th scope=\"col\">Provinces surveill\u00e9es (nombres de sites)</th>\n<th scope=\"col\">Type d'enqu\u00eate</th>\n<th scope=\"col\">R\u00e9sultats</th>\n<th scope=\"col\">Notes</th>\n</tr>\n</thead>\n<tbody>\n<tr>\n<td>C.-B.\u00a0(28)<br>\n<br>\n</td>\n<td>Enqu\u00eate visuelle </td>\n<td><strong>C.-B.:</strong> L'encre des ch\u00eanes rouges a \u00e9t\u00e9 d\u00e9tect\u00e9 \u00e0 une p\u00e9pini\u00e8re</td>\n<td>Des mesures r\u00e9glementaires ont \u00e9t\u00e9 appliqu\u00e9es \u00e0 la p\u00e9pini\u00e8re infest\u00e9e</td>\n</tr>\n</tbody>\n</table>\n</div>\n\n<h3>Tordeuse orientale du p\u00eacher (<i lang=\"la\">Grapholita molesta</i>)</h3>\n\n<p><strong>Contexte:</strong> La tordeuse orientale du p\u00eacher est indig\u00e8ne de la Chine et de la Cor\u00e9e. Elle a \u00e9t\u00e9 d\u00e9tect\u00e9e pour la premi\u00e8re fois au Canada en 1925, en Ontario. Le ravageur a \u00e9t\u00e9 intercept\u00e9 et \u00e9radiqu\u00e9 en\u00a01957 en Colombie-Britannique, et les enqu\u00eates annuelles ult\u00e9rieurs n'ont pas men\u00e9 \u00e0 sa d\u00e9tection. La tordeuse orientale du p\u00eacher se propage probablement d'un pays \u00e0 l'autre sous forme de cocons dissimul\u00e9s sur des arbres dormants ou des fruits infest\u00e9s. Les h\u00f4tes principaux sont les esp\u00e8ces du genre Prunus. Cette enqu\u00eate est men\u00e9e pour confirmer l'absence de ce ravageur en Colombie-Britannique \u00e0 des fins d'exportation.</p>\n\n<div class=\"table-responsive\">\n<table class=\"table table-bordered\">\n<colgroup><col class=\"col-sm-2\"><col class=\"col-sm-2\"><col class=\"col-sm-4\"><col class=\"col-sm-4\"></colgroup>\n<thead>\n<tr class=\"active\">\n<th scope=\"col\">Provinces surveill\u00e9es (nombres de sites)</th>\n<th scope=\"col\">Type d'enqu\u00eate</th>\n<th scope=\"col\">R\u00e9sultats</th>\n<th scope=\"col\">Notes</th>\n</tr>\n</thead>\n<tbody>\n<tr>\n<td>C.-B.\u00a0(163)</td>\n<td>Pi\u00e8ges</td>\n<td>Aucune d\u00e9tection du ravageur</td>\n<td>Ce ravageur est consid\u00e9r\u00e9 comme \u00e9tant exempt de la Colombie-Britannique</td>\n</tr>\n</tbody>\n</table>\n</div>\n\n<h3>Scarab\u00e9e japonais (<i lang=\"la\">Popillia japonica</i>)</h3>\n\n<p><strong>Contexte:</strong> Le scarab\u00e9e japonais est pr\u00e9sent au Canada depuis\u00a01939. Ce col\u00e9opt\u00e8re s'attaque \u00e0 plus de 300\u00a0esp\u00e8ces v\u00e9g\u00e9tales, dont de nombreuses plantes de grande importance \u00e9conomique (arbres fruitiers, arbustes ornementaux, rosiers, grandes cultures, gramin\u00e9es \u00e0 gazon et pelouse). En\u00a02017, le scarab\u00e9e japonais a \u00e9t\u00e9 d\u00e9tect\u00e9 \u00e0 Vancouver et un programme d'\u00e9radication f\u00fbt lanc\u00e9 en\u00a02018 avec l'aide de nos collaborateurs. D'un total de\u00a08276 adultes captur\u00e9s en\u00a02018, ce nombre est tomb\u00e9 \u00e0 1157 scarab\u00e9es en\u00a02019, et\u00a0214 en\u00a02020. En\u00a02021, seuls 79\u00a0scarab\u00e9es ont \u00e9t\u00e9 captur\u00e9s, toutefois la moiti\u00e9 des d\u00e9tections ont \u00e9t\u00e9 observ\u00e9s \u00e0 l'ext\u00e9rieur de la zone r\u00e9glement\u00e9e. </p>\n\n<div class=\"table-responsive\">\n<table class=\"table table-bordered\">\n<colgroup><col class=\"col-sm-2\"><col class=\"col-sm-2\"><col class=\"col-sm-4\"><col class=\"col-sm-4\"></colgroup>\n<thead>\n<tr class=\"active\">\n<th scope=\"col\">Provinces surveill\u00e9es (nombres de sites)</th>\n<th scope=\"col\">Type d'enqu\u00eate</th>\n<th scope=\"col\">R\u00e9sultats (adultes captur\u00e9s dans les pi\u00e8ges)</th>\n<th scope=\"col\">Notes</th>\n</tr>\n</thead>\n<tbody>\n<tr>\n<td>C.-B.\u00a0(2790)<br>\n</td>\n<td>Pi\u00e8ges</td>\n<td><strong>C.-B.:</strong> Le scarab\u00e9e japonais a \u00e9t\u00e9 d\u00e9tect\u00e9 \u00e0 Vancouver\u00a0(73), Burnaby\u00a0(5) et Port Coquitlam\u00a0(1).</td>\n<td>Nous continuons \u00e0 supporter nos collaborateurs dans leurs efforts pour \u00e9radiquer ce ravageur. Des efforts de pi\u00e9geages seront augment\u00e9s en\u00a02022 dans les infestations satellites</td>\n</tr>\n</tbody>\n</table>\n</div>\n\n<h3>Mouche du bleuet (<i lang=\"la\">Rhagoletis mendax</i>)</h3>\n\n<p><strong>Contexte:</strong> La mouche du bleuet est un ravageur indig\u00e8ne du bleuet \u00e0 feuilles \u00e9troites (nain) et du bleuet en corymbe cultiv\u00e9s \u00e0 des fins commerciales dans les provinces maritimes canadiennes. Elle est pr\u00e9sente en Nouvelle-\u00c9cosse, au Nouveau-Brunswick, \u00e0 l'\u00cele-du-Prince-\u00c9douard et dans certaines r\u00e9gions du Qu\u00e9bec et de l'Ontario. Elle n'est pas pr\u00e9sente \u00e0 Terre-Neuve-et-Labrador ni dans l'Ouest du Canada.</p>\n\n<div class=\"table-responsive\">\n<table class=\"table table-bordered\">\n<colgroup><col class=\"col-sm-2\"><col class=\"col-sm-2\"><col class=\"col-sm-4\"><col class=\"col-sm-4\"></colgroup>\n<thead>\n<tr class=\"active\">\n<th scope=\"col\">Provinces surveill\u00e9es (nombres de sites)</th>\n<th scope=\"col\">Type d'enqu\u00eate</th>\n<th scope=\"col\">R\u00e9sultats</th>\n<th scope=\"col\">Notes</th>\n</tr>\n</thead>\n<tbody>\n<tr>\n<td>C.-B.\u00a0(23)<br>\n<br>\n<br>\n</td>\n<td>Pi\u00e8ges</td>\n<td>Aucune d\u00e9tection en dehors des zones infest\u00e9es connues</td>\n<td>Les zones r\u00e9glement\u00e9es demeurent inchang\u00e9es.</td>\n</tr>\n</tbody>\n</table>\n</div>\n\n<h3>Mouche de la pomme (<i lang=\"la\">Rhagoletis pomonella</i>)</h3>\n\n<p><strong>Contexte:</strong> La mouche de la pomme est un ravageur indig\u00e8ne des pommes au Canada. La r\u00e9gion int\u00e9rieure de la Colombie-Britannique est la derni\u00e8re grande r\u00e9gion productrice de pommes en Am\u00e9rique du Nord qui soit exempte du ravageur. L'enqu\u00eate vise \u00e0 d\u00e9tecter rapidement la mouche de la pomme dans la zone exempte de phytoravageurs de la r\u00e9gion int\u00e9rieure de la province. La pr\u00e9sente enqu\u00eate a \u00e9t\u00e9 men\u00e9e en appui des politiques et programmes en lien avec la Directive D-00-07 de l'ACIA \u00ab\u00a0Exigences phytosanitaires d'importation et de transport en territoire canadien visant \u00e0 pr\u00e9venir l'introduction de la mouche de la pomme, <i lang=\"la\">Rhagoletis pomonella</i> (Walsh)\u00a0\u00bb. En\u00a02015, une seule mouche femelle f\u00fbt d\u00e9tect\u00e9e \u00e0 West Kelowna et en 2016, une autre mouche femelle f\u00fbt d\u00e9tect\u00e9e \u00e0 Kelowna. Malgr\u00e9 une intensification de la surveillance de 2016\u00a0\u00e0\u00a02019, aucune mouche n'a \u00e9t\u00e9 d\u00e9tect\u00e9e depuis\u00a02016</p>\n\n<div class=\"table-responsive\">\n<table class=\"table table-bordered\">\n<colgroup><col class=\"col-sm-2\"><col class=\"col-sm-2\"><col class=\"col-sm-4\"><col class=\"col-sm-4\"></colgroup>\n<thead>\n<tr class=\"active\">\n<th scope=\"col\">Provinces surveill\u00e9es (nombres de sites)</th>\n<th scope=\"col\">Type d'enqu\u00eate</th>\n<th scope=\"col\">R\u00e9sultats</th>\n<th scope=\"col\">Notes</th>\n</tr>\n</thead>\n<tbody>\n<tr>\n<td>C.-B.\u00a0(435)</td>\n<td>Pi\u00e8ges</td>\n<td>Aucune d\u00e9tection</td>\n<td>La r\u00e9gion int\u00e9rieure de Colombie-Britannique est toujours consid\u00e9r\u00e9e comme une zone exempte de la mouche de la pomme</td>\n</tr>\n</tbody>\n</table>\n</div>\n\n<h3>Moisissure bleue du tabac (<i lang=\"la\">Peronospora hyoscyami</i> f.sp. <i lang=\"la\">tabacina</i>)</h3>\n\n<p><strong>Contexte:</strong> La moisissure bleue du tabac est une maladie s\u00e9rieuse des plantes de la famille des solanac\u00e9es incluant le tabac, les poivrons, les tomates et les aubergines. La moisissure bleue du tabac a seulement \u00e9t\u00e9 rapport\u00e9e dans l'est du Canada, quoiqu'il y ait eu une mention de la maladie dans l'\u00c9tat de Washington dans les ann\u00e9es\u00a01950. Ce pathog\u00e8ne n'est pas connu pour hiverner au Canada mais les spores pourraient \u00eatre introduites du sud-est des \u00c9tats-Unis par le vent.</p>\n\n<div class=\"table-responsive\">\n<table class=\"table table-bordered\">\n<colgroup><col class=\"col-sm-2\"><col class=\"col-sm-2\"><col class=\"col-sm-4\"><col class=\"col-sm-4\"></colgroup>\n<thead>\n<tr class=\"active\">\n<th scope=\"col\">Provinces surveill\u00e9es (nombres de sites)</th>\n<th scope=\"col\">Type d'enqu\u00eate</th>\n<th scope=\"col\">R\u00e9sultats</th>\n<th scope=\"col\">Notes</th>\n</tr>\n</thead>\n<tbody>\n<tr>\n<td>C.-B.\u00a0(3)</td>\n<td>Enqu\u00eate visuelle</td>\n<td>Aucune d\u00e9tection</td>\n<td>\u00a0</td>\n</tr>\n</tbody>\n</table>\n</div>\n\n<h3>Virus de la sharka</h3>\n\n<p><strong>Contexte:</strong> Le virus de la sharka (PPV) cause une grave maladie chez les plantes et s'attaque \u00e0 de nombreuses esp\u00e8ces d'arbres qui produisent des fruits \u00e0 noyau du genre Prunus, notamment les p\u00eachers, les brugnoniers, les pruniers, les abricotiers, les amandiers et certaines vari\u00e9t\u00e9s ornementales. M\u00eame si le PPV ne tue pas les arbres, il r\u00e9duit la valeur marchande des fruits, cause une chute pr\u00e9matur\u00e9e des fruits des arbres infect\u00e9s et une r\u00e9duction consid\u00e9rable du rendement en fruits. Le virus de la sharka est pr\u00e9sent dans la r\u00e9gion du Niagara.</p>\n\n<div class=\"table-responsive\">\n<table class=\"table table-bordered\">\n<colgroup><col class=\"col-sm-2\"><col class=\"col-sm-2\"><col class=\"col-sm-4\"><col class=\"col-sm-4\"></colgroup>\n<thead>\n<tr class=\"active\">\n<th scope=\"col\">Provinces surveill\u00e9es (nombres de sites)</th>\n<th scope=\"col\">Type d'enqu\u00eate</th>\n<th scope=\"col\">R\u00e9sultats</th>\n<th scope=\"col\">Notes</th>\n</tr>\n</thead>\n<tbody>\n<tr>\n<td>Ont.\u00a0(168)</td>\n<td>\u00c9chantillonnage de feuilles</td>\n<td>Aucune d\u00e9tection</td>\n<td>Un total de 150\u00a0propri\u00e9t\u00e9s r\u00e9sidentielles et 18 vergers ont \u00e9t\u00e9 visit\u00e9s.</td>\n</tr>\n</tbody>\n</table>\n</div>\n\n<h2>R\u00e9sultats des enqu\u00eates sur les ravageurs de pomme de terre du 1\u00a0avril 2021 au 31\u00a0mars 2022</h2>\n\n<h3>Galle verruqueuse de la pomme de terre (<i lang=\"la\">Synchytrium endobioticum</i>)</h3>\n\n<p><strong>Contexte:</strong> L'agent pathog\u00e8ne de la gale verruqueuse de la pomme de terre est un champignon terricole, le <i lang=\"la\">Synchytrium endobioticum</i>, qui s'attaque aux points v\u00e9g\u00e9tatifs de la plante, et notamment aux yeux, aux bourgeons et aux extr\u00e9mit\u00e9s des stolons. Il peut rester dormant dans le sol pendant plusieurs ann\u00e9es \u00e0 l'\u00e9tat de spores de repos. Au Canada, la gale verruqueuse de la pomme de terre est pr\u00e9sente \u00e0 l'\u00cele-du-Prince-\u00c9douard et \u00e0 Terre-Neuve-et-Labrador. La surveillance est men\u00e9e en dehors des zones infest\u00e9es connues.</p>\n\n<div class=\"table-responsive\">\n<table class=\"table table-bordered\">\n<colgroup><col class=\"col-sm-2\"><col class=\"col-sm-2\"><col class=\"col-sm-4\"><col class=\"col-sm-4\"></colgroup>\n<thead>\n<tr class=\"active\">\n<th scope=\"col\">Provinces surveill\u00e9es (nombres de sites)</th>\n<th scope=\"col\">Type d'enqu\u00eate</th>\n<th scope=\"col\">R\u00e9sultats</th>\n<th scope=\"col\">Notes</th>\n</tr>\n</thead>\n<tbody>\n<tr>\n<td>C.-B.\u00a0(30)<br>\n<br>\n<br>\n<br>\n<br>\n<br>\n<br>\n<br>\n<br>\n</td>\n<td>\u00c9chantillonnage de sol</td>\n<td><strong>\u00ce.-P.-\u00c9.:</strong> Dans le cadre d'une enqu\u00eate en cours, la pr\u00e9sence de la galle verruqueuse de la pomme de terre a \u00e9t\u00e9 confirm\u00e9e dans deux champs de l'\u00cele-du-Prince-\u00c9douard.</td>\n<td>L'ACIA a mise en \u0153uvre des mesures r\u00e9glementaires pour emp\u00eacher la propagation du ravageur</td>\n</tr>\n</tbody>\n</table>\n</div>\n\n<h2>R\u00e9sultats des enqu\u00eates sur les esp\u00e8ces exotiques envahissante et programmes phytosanitaires nationaux du 1\u00a0avril 2021 au 31\u00a0mars 2022</h2>\n\n<h3>Plantes exotiques envahissantes: Installations de manutention des semences et du grain</h3>\n\n<p><strong>Contexte:</strong> Le Programme de lutte contre les esp\u00e8ces envahissantes de l'ACIA a men\u00e9 \u00e0 l'adoption de nouvelles mesures visant \u00e0 r\u00e9glementer de nombreuses esp\u00e8ces de plantes comme des organismes nuisibles au m\u00eame titre que les insectes et les maladies. Un certain nombre d'esp\u00e8ces de plantes ont \u00e9t\u00e9 inscrites sur la Liste des parasites r\u00e9glement\u00e9s en vertu de la Loi sur la protection des v\u00e9g\u00e9taux. L'introduction non-intentionnelle de lots contamin\u00e9s de semences et de grain import\u00e9s constituent une des principales voies d'introduction de ces plantes envahissantes au Canada. Les principaux objectifs de cette enqu\u00eate consistent \u00e0 d\u00e9tecter les nouvelles populations des esp\u00e8ces de plantes cibl\u00e9es et d'amasser les informations n\u00e9cessaires \u00e0 l'\u00e9laboration et l'impl\u00e9mentation du programme contre les plantes envahissantes.</p>\n\n<div class=\"table-responsive\">\n<table class=\"table table-bordered\">\n<colgroup><col class=\"col-sm-2\"><col class=\"col-sm-2\"><col class=\"col-sm-4\"><col class=\"col-sm-4\"></colgroup>\n<thead>\n<tr class=\"active\">\n<th scope=\"col\">Provinces surveill\u00e9es (nombres de sites)</th>\n<th scope=\"col\">Type d'enqu\u00eate</th>\n<th scope=\"col\">R\u00e9sultats</th>\n<th scope=\"col\">Notes</th>\n</tr>\n</thead>\n<tbody>\n<tr>\n<td>C.-B.\u00a0(5)<br>\n<br>\n<br>\n<br>\n<br>\n<br>\n<br>\n<br>\n</td>\n<td>Enqu\u00eate visuelle</td>\n<td><strong>Qc.:</strong> L'eriochlo\u00e9 velue Eriochloa villosa a \u00e9t\u00e9 d\u00e9tect\u00e9e \u00e0  Varennes et Mirabel.</td>\n<td>L'approche r\u00e9glementaire envers l'\u00e9riochlo\u00e9 velue en pr\u00e9sentement en r\u00e9vision. </td>\n</tr>\n</tbody>\n</table>\n</div>\n\n<h3>Kudzu (<i lang=\"la\">Pueraria montana</i>)</h3>\n\n<p><strong>Contexte:</strong> Le kudzu (<i lang=\"la\">Pueraria montana</i>) est une plante grimpante semi-ligneuse vivace. C'est une mauvaise herbe susceptible d'avoir des cons\u00e9quences graves, car elle peut dominer le paysage, modifier le cycle des nutriments et la biodiversit\u00e9, et avoir un impact sur la productivit\u00e9 de diverses industries (agriculture et foresterie). En outre, le syst\u00e8me racinaire tub\u00e9reux consid\u00e9rable de la plante rend la lutte contre l'esp\u00e8ce et son \u00e9radication tr\u00e8s difficiles. Une population occupant 0,5\u00a0hectare a \u00e9t\u00e9 observ\u00e9e en 2009 dans le comt\u00e9 d'Essex, en Ontario, sur la zone littorale nord du lac \u00c9ri\u00e9 entre Kingsville et Leamington (Waldron et Larson,\u00a02012). Des mesures d'\u00e9radication sont en place et la population fait l'objet d'une surveillance continue. Le principal objectif de cette enqu\u00eate, qui porte surtout sur les r\u00e9gions entourant la seule population connue dans le sud de l'Ontario, est la d\u00e9tection h\u00e2tive du kudzu dans des r\u00e9gions o\u00f9 il n'a pas encore \u00e9t\u00e9 observ\u00e9.</p>\n\n<div class=\"table-responsive\">\n<table class=\"table table-bordered\">\n<colgroup><col class=\"col-sm-2\"><col class=\"col-sm-2\"><col class=\"col-sm-4\"><col class=\"col-sm-4\"></colgroup>\n<thead>\n<tr class=\"active\">\n<th scope=\"col\">Provinces surveill\u00e9es (nombres de sites)</th>\n<th scope=\"col\">Type d'enqu\u00eate</th>\n<th scope=\"col\">R\u00e9sultats</th>\n<th scope=\"col\">Notes</th>\n</tr>\n</thead>\n<tbody>\n<tr>\n<td>Ont. (4)</td>\n<td>Enqu\u00eate visuelle</td>\n<td>Aucune nouvelle d\u00e9tection</td>\n<td>Les efforts d'\u00e9radication se poursuivent</td>\n</tr>\n</tbody>\n</table>\n</div>\n\n<h3>Microst\u00e9gie en osier (<i lang=\"la\">Microstegium vimineum</i>)</h3>\n\n<p><strong>Contexte:</strong> La microst\u00e9gie en osier est une plante envahissante qui pousse dans divers habitats, dont les for\u00eats, les zones humides et les zones perturb\u00e9es. Sa production prolifique de graines et sa croissance rapide l'aident \u00e0 dominer des habitats complets en d\u00e9logeant la v\u00e9g\u00e9tation indig\u00e8ne. \u00c0 mesure qu'elle s'\u00e9tend, la microst\u00e9gie en osier d\u00e9place les sites de nidification des oiseaux et d'autres animaux. Du point de vue \u00e9conomique, elle peut aussi nuire financi\u00e8rement aux producteurs qui investissent dans son \u00e9limination et subissent des pertes de productivit\u00e9.</p>\n\n<p>Cette plante indig\u00e8ne de l'Asie a \u00e9t\u00e9 introduite aux \u00c9tats-Unis, o\u00f9 elle pousse en Ohio, en Pennsylvanie et le long de la c\u00f4te atlantique. Elle a \u00e9t\u00e9 d\u00e9tect\u00e9e \u00e0 trois endroits en Ontario\u00a0: dans la p\u00e9ninsule du Niagara et le comt\u00e9 d'Elgin en\u00a02020, et au sud-ouest du comt\u00e9 de Middlesex en\u00a02021. Il s'agit des seuls endroits connus o\u00f9 cette plante est pr\u00e9sente au Canada.</p>\n\n<div class=\"table-responsive\">\n<table class=\"table table-bordered\">\n<colgroup><col class=\"col-sm-2\"><col class=\"col-sm-2\"><col class=\"col-sm-4\"><col class=\"col-sm-4\"></colgroup>\n<thead>\n<tr class=\"active\">\n<th scope=\"col\">Provinces surveill\u00e9es (nombres de sites)</th>\n<th scope=\"col\">Type d'enqu\u00eate</th>\n<th scope=\"col\">R\u00e9sultats</th>\n<th scope=\"col\">Notes</th>\n</tr>\n</thead>\n<tbody>\n<tr>\n<td>Ont.\u00a0(10)</td>\n<td>Enqu\u00eate visuelle</td>\n<td>D\u00e9tect\u00e9 \u00e0 un endroit dans le sud-ouest du comt\u00e9 de Middlesex</td>\n<td>L'ACIA travaille avec ses collaborateurs pour la gestion de la microst\u00e9gie en osier en Ontario.</td>\n</tr>\n</tbody>\n</table>\n</div>\n\n<h2>Autres ravageurs sous surveillance</h2>\n\n<h3>Pyrale du buis (<i lang=\"la\">Cydalima perspectalis</i>)</h3>\n \n<p>L'Agence canadienne d'inspection des aliments a men\u00e9 une campagne de surveillance avec la communaut\u00e9 et de multiples collaborateurs afin de d\u00e9ployer des pi\u00e8ges \u00e0 travers le pays. Un total de 663\u00a0pi\u00e8ges ont ainsi \u00e9t\u00e9 d\u00e9ploy\u00e9s en\u00a02021 et ont permis de confirmer la propagation de la pyrale du buis \u00e0 des r\u00e9gions avoisinant la zone infest\u00e9e autour du lac Ontario. Des populations isol\u00e9es ont \u00e9t\u00e9 confirm\u00e9es dans les municipalit\u00e9s de Cookstown, Georgetown, la r\u00e9gion de Waterloo, Milton, Mississauga, Burlington, Hamilton, Grimsby, Vineland, et North Pelham.</p>\n\n<h3>Tordeuse m\u00e9diterran\u00e9enne de l'\u0153illet (<i lang=\"la\">Cacoecimorpha pronubana</i>)</h3>\n\n<p>Ce ravageur est natif de l'Afrique du Nord et est largement r\u00e9pandu \u00e0 travers l'Europe occidentale et l'Asie Mineure. Il a \u00e9t\u00e9 introduit en Am\u00e9rique du Nord o\u00f9 il s'est propag\u00e9 dans la partie nord de la c\u00f4te ouest. En mai\u00a02018, il f\u00fbt d\u00e9tect\u00e9 \u00e0 Port Coquitlam, une premi\u00e8re mention pour la Colombie-Britannique. En\u00a02021, il a \u00e9t\u00e9 observ\u00e9 dans une p\u00e9pini\u00e8re de la vall\u00e9e du Fraser et subs\u00e9quemment confirm\u00e9 par des pi\u00e8ges aux ph\u00e9romones. Ce ravageur polyphage peut se nourrir sur les fraisiers, vignes, poiriers, arbres fruitiers \u00e0 noyaux, rosiers, et beaucoup d'autres esp\u00e8ces. Ce ravageur est pr\u00e9sentement r\u00e9glement\u00e9 au Canada mais fait l'objet d'une r\u00e9vision r\u00e9glementaire en l'absence d'observation de dommages d'importance.</p>\n\n<h3>Frelon g\u00e9ant du nord (<i lang=\"la\">Vespa mandarinia</i>)</h3>\n \n<p>En octobre\u00a02021, un sp\u00e9cimen adulte du frelon g\u00e9ant du nord fut d\u00e9tect\u00e9 \u00e0 Langley en Colombie-Britannique. Le site o\u00f9 s'est produit cette observation est situ\u00e9 pr\u00e8s de la fronti\u00e8re canado-am\u00e9ricaine et \u00e0 proximit\u00e9 de la r\u00e9gion o\u00f9 de multiples d\u00e9tections du frelon dans les ann\u00e9es pr\u00e9c\u00e9dentes. Il s'agit de la seule d\u00e9tection du frelon g\u00e9ant du nord au Canada en\u00a02021 et la premi\u00e8re observation depuis\u00a02019.</p>\n\n<h3>Requ\u00eates publiques</h3>\n\n<p>Chaque ann\u00e9e des membres du public nous contactent au sujet de leurs pr\u00e9occupations au sujet d'esp\u00e8ces envahissantes exotiques. En 1\u00a0avril 2021 au 31\u00a0mars 2022, nous avons re\u00e7u 42\u00a0demandes \u00e0 ce sujet, incluant des observations d'importance permettant de supporter des d\u00e9cisions r\u00e9glementaires au sujet du puceron lanig\u00e8re de la pruche (<i lang=\"la\">Adelges tsugae</i>) et la pyrale du buis (<i lang=\"la\">Cydalima perspectalis</i>) en Ontario.</p>\n \n<p>Ces demandes illustrent l'importance du r\u00f4le du public dans la d\u00e9tection pr\u00e9coce des phytoravageurs exotiques envahissants au Canada.</p>\n\n<h3>Projets de recherche et collaborations</h3>\n \n<p>L'Unit\u00e9 de surveillance phytosanitaire de l'ACIA est ax\u00e9e sur des activit\u00e9s en science pr\u00e9ventive et de recherche qui appuient l'att\u00e9nuation des risques et la d\u00e9tection pr\u00e9coce d'organismes nuisibles. Les projets de recherche auxquels l'unit\u00e9 des enqu\u00eates phytosanitaires a pris part du 1\u00a0avril 2021 au 31\u00a0mars 2022 inclus\u00a0: </p>\n\n<ul>\n<li>Projet sur le potentiel du m\u00e9tacodage \u00e0 barres de l'ADN pour le diagnostic phytosanitaire d'esp\u00e8ces pr\u00e9occupantes, men\u00e9 en collaboration avec l'Institut de la biodiversit\u00e9 de l'Ontario, Universit\u00e9 de Guelph.</li>\n<li>\u00c9valuation de l'efficacit\u00e9 d'un programme de science communautaire pour la surveillance de la pyrale du buis.</li>\n<li>Collaboration avec Ressources naturelles Canada-Service canadien des for\u00eats pour am\u00e9liorer la m\u00e9thodologie de surveillance des insectes xylophages par le biais d'\u00e9tudes sur le terrain en Europe, Asie et en Am\u00e9rique du nord.</li>\n<li>Recherches d'agents de lutte biologique contre le puceron lanig\u00e8re de la pruche et d\u00e9veloppement d'outils pour d\u00e9tecter et quantifier les populations de <i lang=\"la\">Leucotaraxis</i>, une mouche pr\u00e9datrice de ce ravageur.</li>\n<li>D\u00e9termination des temp\u00e9ratures limites et de tol\u00e9rance au froid du fulgore tachet\u00e9 afin d'identifier les zones \u00e0 risque au Canada.</li>\n<li>\u00c9valuation du placement des pi\u00e8ges \u00e0 scarab\u00e9e japonais dans la canop\u00e9e pour am\u00e9liorer la d\u00e9tection de ce ravageur.</li>\n<li>\u00c9valuation des pi\u00e8ges lumineux \u00e0 diodes pour la surveillance dans les zones \u00e0 haut risque.</li>\n</ul>\n\n<p>L'Unit\u00e9 de surveillance phytosanitaire s'est engag\u00e9e \u00e0 constituer et \u00e0 maintenir des collaborations et des r\u00e9seaux pour la poursuite de strat\u00e9gies novatrices d'\u00e9ducation, de vulgarisation et de sensibilisation afin de renforcer les r\u00e9seaux de surveillance et leurs capacit\u00e9s.</p>\n\n<p>L'ACIA a travaill\u00e9 \u00e9troitement avec des collaborateurs de l'ext\u00e9rieur, notamment des provinces, des municipalit\u00e9s et des organismes non gouvernementaux, afin d'\u00e9largir la port\u00e9e de surveillance de la spongieuse, du longicorne brun de l'\u00e9pinette et de l'agrile du fr\u00eane. Au total, 530\u00a0sites d'enqu\u00eate ont \u00e9t\u00e9 mis en place et surveill\u00e9s par les organisations collaboratrices. De plus, les efforts de la province de l'Ontario ont support\u00e9 les discussions sur la mouche europ\u00e9enne des cerises par le biais du d\u00e9ploiement de 13\u00a0pi\u00e8ges dans le sud-ouest de la province. Aucune mouche n'a \u00e9t\u00e9 d\u00e9tect\u00e9e lors de cette enqu\u00eate. La collaboration avec le Centre des esp\u00e8ces envahissantes de l'Ontario, l'Agence Parcs Canada et le Conseil canadien sur les esp\u00e8ces envahissantes se sont poursuivis et diverses ententes pour le partage de donn\u00e9es avec les provinces ont \u00e9t\u00e9 mises en place. L'unit\u00e9 tient r\u00e9guli\u00e8rement des formations et activit\u00e9s de sensibilisation destin\u00e9es aux collaborateurs et au grand public, en plus de participer \u00e0 la formation des inspecteurs de l'ACIA. Nous vous invitons \u00e0 contacter l'unit\u00e9 de surveillance phytosanitaire si vous ou votre organisation d\u00e9sirez obtenir du support pour des activit\u00e9s de formation ou de sensibilisation.</p>\n \n<p>Pour toute question au sujet des enqu\u00eates phytosanitaires de l'ACIA, contactez l'unit\u00e9 de surveillance phytosanitaire \u00e0 <a href=\"mailto:cfia.surveillance-surveillance.acia@inspection.gc.ca\" class=\"nowrap\">cfia.surveillance-surveillance.acia@inspection.gc.ca</a></p>\r\n        \r\n\r\n<div class=\"row\">\r\n \r\n\t\t\t\r\n\t\t\t\r\n\r\n\t\t\r\n\t\r\n</div>"
    },
    "success": true,
    "chat_wizard": false
}