{
    "dcr_id": "1384971854388",
    "title": {
        "en": "Poultry and Egg Market Information - Canadian Industry",
        "fr": "Information sur le march\u00e9 de la volaille et des oeufs - Industrie canadienne"
    },
    "modified": "2021-01-11",
    "issued": "2011-01-30",
    "templatetype": "content page 1 column",
    "page_type": "1",
    "node_id": "1354137773899",
    "dc_date_created": "2011-01-30",
    "managing_branch": "MISB",
    "parent_node_id": "1579021763702",
    "label": {
        "en": "Poultry and Eggs",
        "fr": "Volaille et oeufs"
    },
    "exturl": "",
    "teamsite_location": {
        "en": "/default/main/AAFC-AAC/Internet-Internet/MISB-DGSIM/SDAD-DDAS/PE-VO/WORKAREA/PE-VO/templatedata/comm-comm/gene-gene/data/poultry_main_page_1384971854388_en",
        "fr": "/default/main/AAFC-AAC/Internet-Internet/MISB-DGSIM/SDAD-DDAS/PE-VO/WORKAREA/PE-VO/templatedata/comm-comm/gene-gene/data/poultry_main_page_1384971854388_fr"
    },
    "type_name": "sitemapinit",
    "has_dcr_id": true,
    "breadcrumb": {
        "en": "Poultry and Eggs",
        "fr": "Volaille et oeufs"
    },
    "layout_name": "content page 1 column",
    "lang": "en",
    "meta": {
        "issued": {
            "en": "2011-01-30",
            "fr": "2003-02-24"
        },
        "modified": {
            "en": "2021-02-02",
            "fr": "2021-02-02"
        },
        "format": {
            "en": "gcformat",
            "fr": "gcformat"
        },
        "title": {
            "en": "Poultry and Egg Market Information - Canadian Industry",
            "fr": "Information sur le march\u00e9 de la volaille et des oeufs - Industrie canadienne"
        },
        "subject": {
            "en": "architecture;statistics;irrigation",
            "fr": "transformation des aliments;alimentation animale;importation"
        },
        "description": {
            "en": "Poultry and egg market information Poultry and egg market information - Canadian industry. Turkey. Ducks and geese. Table and processed eggs. Animal Genetics. Canada's animal genetic exports (for breeding purpose). Publication - Statistics of Canada's Animal Genetics.",
            "fr": "ATTENTION: Entretien pr\u00e9ventif du site web. Oeufs d'incubation. Information sur les march\u00e9s par type de rapport. Informations additionnelles li\u00e9es \u00e0 la volaille et aux oeufs."
        },
        "language": {
            "en": "eng",
            "fr": "fra"
        },
        "keywords": {
            "en": "Inter-Provincial Movements;Meat Establishments;Frequently Asked Questions",
            "fr": "ex\u00e9cuterons un entretien pr\u00e9ventif mardi;ex\u00e9cuterons un entretien pr\u00e9ventif;volaille en un coup d oeil"
        },
        "audience": {
            "en": "government;general public;employers;business",
            "fr": "gouvernement;grand public;employeurs;entreprises"
        },
        "type": {
            "en": "geospatial material",
            "fr": "avis"
        },
        "creator": {
            "en": "Market and Industry Services Branch;Agriculture and Agri-Food Canada;Government of Canada",
            "fr": "Direction g\u00e9n\u00e9rale des services \u00e0 l'industrie et aux march\u00e9s;Agriculture et Agroalimentaire Canada;Gouvernement du Canada"
        },
        "spatial": {
            "en": "gcregions",
            "fr": "gcregions"
        },
        "service": {
            "en": "AAFC-AAC",
            "fr": "AAFC-AAC"
        },
        "accessRights": {
            "en": "2",
            "fr": "2"
        },
        "legalName": {
            "en": "agriculture_and_agri_food_canada",
            "fr": "agriculture_et_agroalimentaire_canada"
        },
        "areaServed": {
            "en": "Canada",
            "fr": "Canada"
        }
    },
    "css": {
        "fr": null
    },
    "js": {
        "en": null,
        "fr": null
    },
    "body": {
        "en": "<!-- D&eacute;but du contenu -->\r\n    <!-- Start content --><!-- InstanceBeginEditable name=\"ContentTitle\" --><!-- InstanceEndEditable --><!-- InstanceBeginEditable name=\"Content\" -->\n\n <!--\n<div _mce_name=\"section\" class=\"alert alert-warning\">\n<h2> ATTENTION: Website preventative maintenance notice</h2>\n<p>As part of our ongoing efforts to improve service to our clients, please be advised that we will be performing preventative maintenance Saturday, January 9 from 7:00 a.m. until Sunday, January 10, 4:00 p.m. <abbr title=\"Eastern Time\">ET</abbr>, which may affect the Agricultural Industry Market Information System (AIMIS) database and several web reports. We apologize for the inconvenience.</p>\n</div>\n<div _mce_name=\"section\" class=\"alert alert-warning\">\n<h2> ATTENTION: We are experiencing technical difficulties</h2>\n<p>We are experiencing some technical difficulties, which affects the Agricultural Industry Market Information System (AIMIS) database and several web reports. If you require personalized reports please send an e-mail to <a href=\"mailto:aafc.poultry-volaille.aac@canada.ca \" _mce_href=\"mailto:aafc.poultry-volaille.aac@canada.ca \" title=\"Email: Animal Industry Division - Market Information Section\">aafc.poultry-volaille.aac@canada.ca </a>. We apologize for the inconvenience.</p>\n</div>\n-->\n<p>\n\n<noscript>\n<div class=\"row profile\">\n<div class=\"col-md-6\">\n     \n\n\n <!-- START Social Buttons -->\n<div class=\"pull-left\">\n<div _mce_name=\"section\" class=\"followus mrgn-tp-0\"> \n   <h2>Follow:</h2> \n   <ul> \n    <li><a href=\"https://www.facebook.com/CanadianAgriculture/\" class=\"facebook gl-follow\" rel=\"external\"> <span class=\"wb-inv\">Facebook</span></a></li> \n    <li><a href=\"https://twitter.com/AAFC_Canada\" class=\"twitter gl-follow\" rel=\"external\"> <span class=\"wb-inv\">Twitter</span></a></li> \n    \n    <li><a href=\"https://www.linkedin.com/company/aafc-aac/?viewAsMember=true\" class=\"linkedin gl-follow\" rel=\"external\"><span class=\"wb-inv\">LinkedIn</span></a></li>    \n    \n    <li><a href=\"https://www.youtube.com/user/AgricultureCanadaEng\" class=\"youtube gl-follow\" rel=\"external\"><span class=\"wb-inv\">YouTube</span></a></li> \n   </ul> \n  </div>\n</div>\n<!-- END Social Buttons -->\n</div>\n<div class=\"col-md-4 mrgn-tp-sm hidden-sm hidden-xs\">\n<img src=\"https://www5.agr.gc.ca/resources/prod/Internet-Internet/MISB-DGSIM/SDAD-DDAS/RML-VRB/images/Poultry_LP.png\" class=\"img-responsive\" alt=\"\"><br>\n</div></div></noscript></p>\n<script src=\"https://ajax.googleapis.com/ajax/libs/jquery/2.2.4/jquery.js\"></script>\n<script>\n$( document ).ready( function() {\nvar h1 = document.getElementsByTagName(\"h1\")[0];\nh1.parentNode.removeChild(h1);\ndocument.getElementsByTagName(\"main\")[0].innerHTML = \n'<div class=\"row profile\"><div class=\"col-md-8\"><h1>Poultry and Egg Market Information - Canadian Industry<p>Statistics and market information on poultry sectors including chicken, turkey, ducks, geese, table and processed eggs, and hatcheries. <!-- START Social Buttons --> <div class=\"pull-left\"> <section class=\"followus mrgn-tp-0\"> <h2>Follow: <ul> <li><a rel=\"external\" class=\"facebook gl-follow\" href=\"https://www.facebook.com/CanadianAgriculture/\"> <span class=\"wb-inv\">Facebook <li><a rel=\"external\" class=\"twitter gl-follow\" href=\"https://twitter.com/AAFC_Canada\"> <span class=\"wb-inv\">Twitter <li><a rel=\"external\" class=\"linkedin gl-follow\" href=\"https://www.linkedin.com/company/aafc-aac/?viewAsMember=true\"><span class=\"wb-inv\">LinkedIn <li><a rel=\"external\" class=\"youtube gl-follow\" href=\"https://www.youtube.com/user/AgricultureCanadaEng\"><span class=\"wb-inv\">YouTube  <!-- END Social Buttons --> <div class=\"col-md-4 mrgn-tp-sm hidden-sm hidden-xs\"><img class=\"pull-right img-responsive thumbnail\" src=\"https://www5.agr.gc.ca/resources/prod/Internet-Internet/MISB-DGSIM/SDAD-DDAS/RML-VRB/images/Poultry_LP.png\" />'\n+ document.getElementsByTagName(\"main\")[0].innerHTML;\n})\n</script>\n<div class=\"clearfix\"></div>\n<section class=\"alert alert-info\">\n<h2 class=\"h4\"> Looking for a quick reference document?</h2>\n<p> Then access our <a href=\"/eng/?id=1384971854389\">Poultry Industry Profile</a> and <a href=\"/eng/?id=1416334346829\">Provincial Poultry Facts</a> for the most up-to-date information.</p>\n</section>\n<div class=\"row\">\n<div class=\"col-md-8 pull-left\">\n<div class=\"well mrgn-bttm-md\">\n<h2>By Data Type</h2>\n<div class=\"row\">\n<div class=\"col-md-4\">\n<ul>\n<li><a href=\"/eng/?id=1382649715169\">Animal Genetics</a></li>\n<li><a href=\"/eng/?id=1384971854401\">Hatcheries</a></li>\n<li><a rel=\"internal\" title=\"Link to the condemnation reports\" href=\"/eng/animal-industry/condemnations/?id=1415860000014\">Condemnations</a></li>\n<li><a href=\"/eng/?id=1384971854422\">Slaughter</a></li>\n<li><a href=\"/eng/?id=1384971854421\">Production</a></li>\n<li><a href=\"/eng/?id=1384971854424\">Storage Stocks</a></li>\n</ul>\n</div>\n<div class=\"col-xs-6\">\n  \n<ul>\n<li><a href=\"https://www.inspection.gc.ca/active/scripts/meavia/reglist/reglist.asp?lang=e\"><abbr title=\"Canadian Food Inspection Agency\">CFIA</abbr>\u00a0Licensed\u00a0Processing\u00a0Plants</a></li>\n<li><a href=\"/eng/?id=1384971854403\">Imports\u00a0and\u00a0Exports</a></li>\n<li><a href=\"/eng/?id=1384971854417\">Inter\u00a0Provincial\u00a0\u2013\u00a0Movement</a></li>\n<li><a href=\"/eng/?id=1384971854418\">Prices</a></li>\n<li><a href=\"/eng/?id=1384971854410\">Market Indicators</a></li>\n</ul>\n</div>\n</div>\n</div>\n</div>\n<div class=\"col-md-4 pull-right\">\n<div class=\"well mrgn-bttm-md\">\n<h2 class=\"text-center\"> By Commodity</h2>\n<p class=\"text-center\">\n<a href=\"/eng/?id=1384971854392\">Chicken</a><br>\n<a href=\"/eng/?id=1384971854398\">Turkey</a><br>\n<a href=\"/eng/?id=1384971854393\">Ducks\u00a0and\u00a0Geese</a><br>\n<a href=\"/eng/?id=1384971854396\">Table\u00a0and\u00a0Processed\u00a0Eggs</a><br>\n<a href=\"/eng/?id=1384971854395\">Hatcheries</a>\n</p>\n</div>\n</div>\n</div>\n<div class=\"clearfix\"></div>\n<h2>Additional information</h2>\n<ul>\n<li><a title=\"Animal Market Information \u2013 Definitions/Methodology Reference Guide\" href=\"/eng/?id=1602852563439\">Animal Market Information \u2013 Definitions/Methodology Reference Guide</a></li>\n<li><a href=\"/eng/animal-industry/poultry-and-egg-market-information/food-safety/?id=1384971854430\">Food safety</a></li>\n<li><a href=\"/eng/animal-industry/poultry-and-egg-market-information/publications-poultry-and-eggs/?id=1384971854431\">Publications - Poultry and Egg</a></li>\n<li><a href=\"/eng/animal-industry/poultry-and-egg-market-information/poultry-market-information-calendar/?id=1548878352420\">Poultry market information calendar</a></li>\n<li><a title=\"Weekly livestock report schedule\" href=\"/eng/?id=1415860000123\">Weekly livestock report schedule/calendar</a></li>\n<li><a href=\"/eng/animal-industry/poultry-and-egg-market-information/frequently-asked-questions/?id=1384971854429\">Frequently asked questions</a></li>\n<!--\n<li><a href=\"/eng/animal-industry/poultry-and-egg-market-information/help-on-aimis-input-screens/?id=1391199927006\" _mce_href=\"/eng/animal-industry/poultry-and-egg-market-information/help-on-aimis-input-screens/?id=1391199927006\">Help on AIMIS Input screens</a></li>\n-->\n</ul>\n<p>\u00a0</p>\n<div class=\"well\">\n<p>If you have any questions or require additional information, please send an e-mail to <a title=\"Email: Animal Industry Division - Market Information Section\" href=\"mailto:aafc.poultry-volaille.aac@canada.ca\"> aafc.poultry-volaille.aac@canada.ca </a></p>\n<h2>Our service standards</h2>\n<p>Service standards play a vital role in our market information program\u2019s commitment to planning, reporting and performance management. \nThey clearly define the level of service that clients can expect under normal circumstances.</p>\n<p>View the <a title=\"Service standards for poultry reports\" href=\"https://www.agr.gc.ca/eng/industry-markets-and-trade/statistics-and-market-information/by-product-sector/poultry-and-eggs/service-standards-for-poultry-and-egg-market-information/?id=1481029938239\">Service standards for poultry reports.</a></p>\n</div>\n<div class=\"clearfix\"></div>\n<!-- InstanceEndEditable --><!-- End content -->\n\r\n    <!-- Fin du contenu -->",
        "fr": "\r\n    \r\n    <!-- MainContentStart -->\r\n    <!-- D&eacute;but du contenu -->\r\n    <!-- D&eacute;but du contenu --><!-- InstanceBeginEditable name=\"ContentTitle\" --><!-- InstanceEndEditable --><!-- InstanceBeginEditable name=\"Content\" -->\n<!--\n<div _mce_name=\"section\" class=\"alert alert-warning\">\n<h2>ATTENTION: Entretien pr&eacute;ventif du site web</h2>\n<p>\nAfin d'am&eacute;liorer le service &agrave; la client&egrave;le, nous ex&eacute;cuterons un entretien pr&eacute;ventif du samedi 9 janvier, 7 h 00 au dimanche 10 janvier, 16 h 00 <abbr title=\"Heure normal de l'est\">HNE</abbr>. Cet entretien pourrait affecter notre base de donn&eacute;e du Syst&egrave;me d'information sur les march&eacute;s de l'industrie agricole (SIMIA) ainsi que plusieurs rapports web. Nous nous excusons pour les inconv&eacute;nients.</p>\n</div>\n<div _mce_name=\"section\" class=\"alert alert-warning\">\n<h2>ATTENTION: Nous &eacute;prouvons des difficult&eacute;s techniques</h2>\n<p>Nous &eacute;prouvons actuellement des difficult&eacute;s techniques qui affectent notre base de donn&eacute;e du Syst&egrave;me d'information sur les march&eacute;s de l'industrie agricole (SIMIA) ainsi que plusieurs rapports web. Pour des rapports personalis&eacute;s veuillez communiquer avec nous par courriel &agrave; <a href=\"mailto:aafc.poultry-volaille.aac@canada.ca\" _mce_href=\"mailto:aafc.poultry-volaille.aac@canada.ca\" title=\"Courriel : Division de l'industrie animale, Section de l'information sur les march&eacute;s\"> aafc.poultry-volaille.aac@canada.ca</a>. Nous nous excusons pour les inconv&eacute;nients.</p>\n</div>\n-->\n<p>\n\n<noscript>\n<div class=\"row profile\">\n<div class=\"col-md-6\">\n     \n        <p>Don\u00e9es statistiques et Information sur le secteur de la volaille incluant le poulet, le dindon, les canards, les oies, les oeufs de consommation et de transformation et les couvoirs</p>\n\n\n <!-- START Social Buttons -->\n<div class=\"pull-left\">\n<div class=\"followus mrgn-tp-0\"> \n   <h2>Follow:</h2> \n   <ul> \n    <li><a href=\"https://www.facebook.com/CanadianAgriculture/\" class=\"facebook gl-follow\" rel=\"external\"> <span class=\"wb-inv\">Facebook</span></a></li> \n    <li><a href=\"https://twitter.com/AAFC_Canada\" class=\"twitter gl-follow\" rel=\"external\"> <span class=\"wb-inv\">Twitter</span></a></li> \n    \n    <li><a href=\"https://www.linkedin.com/company/aafc-aac/?viewAsMember=true\" class=\"linkedin gl-follow\" rel=\"external\"><span class=\"wb-inv\">LinkedIn</span></a></li>    \n    \n    <li><a href=\"https://www.youtube.com/user/AgricultureCanadaEng\" class=\"youtube gl-follow\" rel=\"external\"><span class=\"wb-inv\">YouTube</span></a></li> \n   </ul> \n  </div>\n</div>\n<!-- END Social Buttons -->\n</div>\n<div class=\"col-md-4 mrgn-tp-sm hidden-sm hidden-xs\">\n<img src=\"https://www5.agr.gc.ca/resources/prod/Internet-Internet/MISB-DGSIM/SDAD-DDAS/RML-VRB/images/Poultry_LP.png\" class=\"img-responsive\" alt=\"\"><br>\n</div></div></noscript></p>\n<script src=\"https://ajax.googleapis.com/ajax/libs/jquery/2.2.4/jquery.js\"></script>\n<script>\n$( document ).ready( function() {\nvar h1 = document.getElementsByTagName(\"h1\")[0];\nh1.parentNode.removeChild(h1);\ndocument.getElementsByTagName(\"main\")[0].innerHTML = \n'<div class=\"row profile\"><div class=\"col-md-8\"><h1>Information sur le march&eacute; de la volaille et des oeufs - Industrie canadienne<p>Don&eacute;es statistiques et Information sur le secteur de la volaille incluant le poulet, le dindon, les canards, les oies, les oeufs de consommation et de transformation et les couvoirs <!-- START Social Buttons --> <div class=\"pull-left\"> <section class=\"followus mrgn-tp-0\"> <h2>Suivez&nbsp;: <ul> <li><a rel=\"external\" href=\"https://www.facebook.com/CanadianAgriculture/\" class=\"facebook gl-follow\"> <span class=\"wb-inv\">Facebook <li><a rel=\"external\" href=\"https://twitter.com/AAFC_Canada\" class=\"twitter gl-follow\"> <span class=\"wb-inv\">Twitter <li><a rel=\"external\" href=\"https://www.linkedin.com/company/aafc-aac/?viewAsMember=true\" class=\"linkedin gl-follow\"><span class=\"wb-inv\">LinkedIn <li><a rel=\"external\" href=\"https://www.youtube.com/user/AgricultureCanadaEng\" class=\"youtube gl-follow\"><span class=\"wb-inv\">YouTube  <!-- END Social Buttons --> <div class=\"col-md-4 mrgn-tp-sm hidden-sm hidden-xs\"><img class=\"pull-right img-responsive thumbnail\" src=\"https://www5.agr.gc.ca/resources/prod/Internet-Internet/MISB-DGSIM/SDAD-DDAS/RML-VRB/images/Poultry_LP.png\" />'\n+ document.getElementsByTagName(\"main\")[0].innerHTML;\n})\n</script>\n<div class=\"clearfix\"></div>\n<section class=\"alert alert-info\">\n<h2 class=\"h4\"> \u00c0 la recherche d'un document de r\u00e9f\u00e9rence rapide?</h2>\n<p> Alors aller \u00e0 notre <a href=\"/fra/?id=1384971854389\">Portrait de l'industrie de la volaille</a> et <a href=\"/fra/?id=1416334346829\">Faits provinciaux sur la volaille</a> pour les informations les plus \u00e0 jour disponibles.</p>\n</section>\n<div class=\"row\">\n<div class=\"col-md-8 pull-left\">\n<div class=\"well mrgn-bttm-md\">\n<h2>Selon\u00a0type de donn\u00e9es</h2>\n<div class=\"row\">\n<div class=\"col-xs-5\">\n<ul>\n<li><a href=\"/fra/?id=1382649715169\">G\u00e9n\u00e9tique animale</a></li>\n<li><a href=\"/fra/?id=1384971854401\">Couvoirs</a></li>\n<li><a rel=\"internal\" title=\"Liens vers les rapports de condamnation\" href=\"/fra/production-animale/condamnations/?id=1415860000014\">Condamnations</a></li>\n<li><a href=\"/fra/?id=1384971854422\">Abattage</a></li>\n<li><a href=\"/fra/?id=1384971854421\">Production</a></li>\n<li><a href=\"/fra/?id=1384971854424\">Stocks en entrep\u00f4t</a></li>\n</ul>\n</div>\n<div class=\"col-xs-6\">\n  \n<ul>\n<li><a href=\"https://www.inspection.gc.ca/active/scripts/meavia/reglist/reglist.asp?lang=f\">R\u00e9gistres de l\u2019<abbr rel=\"external\" title=\"Agence canadienne d\u2019inspection des aliments\">ACIA</abbr> des \u00e9tablissements de viande</a></li>\n<li><a href=\"/fra/?id=1384971854403\">Importations et exportations</a></li>\n<li><a href=\"/fra/?id=1384971854417\">Mouvements interprovinciaux</a></li>\n<li><a href=\"/fra/?id=1384971854418\">Prix</a></li>\n<li><a href=\"/fra/?id=1384971854410\">Indicateurs de l'industrie</a></li>\n</ul>\n</div>\n</div>\n</div>\n</div>\n<div class=\"col-md-4 pull-right\">\n<div class=\"well mrgn-bttm-md\">\n<h2 class=\"text-center\">\u00a0Selon produit</h2>\n<p class=\"text-center\">\n<a href=\"/fra/?id=1384971854392\">Poulet</a><br>\n<a href=\"/fra/?id=1384971854398\">Dindon</a><br>\n<a href=\"/fra/?id=1384971854393\">Canards et oies</a><br>\n<a href=\"/fra/?id=1384971854396\">Oeufs de consommation et de transformation</a><br>\n<a href=\"/fra/?id=1384971854395\">Couvoirs</a>\n</p>\n</div>\n</div>\n</div>\n<div class=\"clearfix\"></div>\n<h2>Informations additionnelles li\u00e9es \u00e0 la volaille et aux oeufs</h2>\n<ul>\n<li><a title=\"Information sur le march\u00e9 des animaux \u2013 D\u00e9finitions et guide de r\u00e9f\u00e9rence sur la m\u00e9thodologie\" href=\"/fra/?id=1602852563439\">Information sur le march\u00e9 des animaux \u2013 D\u00e9finitions et guide de r\u00e9f\u00e9rence sur la m\u00e9thodologie</a></li>\n<li><a href=\"/fra/production-animale/information-sur-le-marche-de-la-volaille-et-des-oeufs/salubrite-des-aliments/?id=1384971854430\">Salubrit\u00e9 des aliments</a></li>\n<li><a href=\"/fra/production-animale/information-sur-le-marche-de-la-volaille-et-des-oeufs/publications-volaille-et-oeufs/?id=1384971854431\">Publications - Volaille et oeufs</a></li>\n<li><a href=\"/fra/production-animale/information-sur-le-marche-de-la-volaille-et-des-oeufs/calendrier-des-donnees-d-information-sur-les-marchees-de-l-industrie-de-la-volaille-et-des-oeufs/?id=1548878352420\">Calendrier des donn\u00e9es d'information sur les march\u00e9es de l'industrie de la volaille et des oeufs</a></li>\n<li><a title=\"Calendrier des rapports hebdomadaires du b\u00e9tail\" href=\"/fra/?id=1415860000123\">Calendrier des rapports hebdomadaires du b\u00e9tail</a></li>\n<li><a href=\"/fra/production-animale/information-sur-le-marche-de-la-volaille-et-des-oeufs/foire-aux-questions/?id=1384971854429\">Foire aux questions</a></li>\n<!--\n<li><a href=\"/fra/production-animale/information-sur-le-marche-de-la-volaille-et-des-oeufs/aide-sur-les-ecrans-de-saisie-simia/?id=1391199927006\" _mce_href=\"/fra/production-animale/information-sur-le-marche-de-la-volaille-et-des-oeufs/aide-sur-les-ecrans-de-saisie-simia/?id=1391199927006\">Aide sur les &eacute;crans de saisie SIMIA</a></li>\n-->\n</ul>\n<p>\u00a0</p>\n<div class=\"well\">\n<p>Pour toute question ou information additionnelle, veuillez communiquer avec nous par courriel \u00e0 <a href=\"mailto:aafc.poultry-volaille.aac@canada.ca\" title=\"Courriel : Division de l'industrie animale, Section de l'information sur les march\u00e9s\"> aafc.poultry-volaille.aac@canada.ca</a></p>\n<h2>Nos normes de service</h2>\n<p>Les normes de service jouent un r\u00f4le cl\u00e9 dans les processus de gestion de la planification, des rapports et du rendement de notre programme d'information sur le march\u00e9. Elles d\u00e9finissent clairement le niveau de rendement auquel les clients peuvent s'attendre lorsqu'ils re\u00e7oivent un service dans des circonstances normales.</p>\n<p>Visionnez les  <a href=\"https://www.agr.gc.ca/fra/industrie-marches-et-commerce/statistiques-et-information-sur-les-marches/par-produit-secteur/volaille-et-oeufs/normes-de-service-pour-l-information-sur-le-marche-de-la-volaille-et-des-ufs/?id=1481029938239\" title=\"Normes de service relatives aux rapports sur la volaille\">Normes de service relatives aux rapports sur la volaille.</a></p>\n</div>\n<div class=\"clearfix\"></div>\n<!-- InstanceEndEditable --><!-- Fin du contenu -->\n\r\n    <!-- Fin du contenu -->\r\n\t\r\n\t\r\n\t\r\n  "
    }
}