{
    "dcr_id": "1219248798716",
    "title": {
        "en": "Departmental Results Reports",
        "fr": "Rapports sur les r\u00e9sultats minist\u00e9riels"
    },
    "modified": "2020-12-07",
    "issued": "2009-03-03",
    "templatetype": "content page 1 column",
    "page_type": "1",
    "node_id": "1365768471463",
    "dc_date_created": "2009-03-03",
    "managing_branch": "PAB",
    "parent_node_id": "1566306181000",
    "label": {
        "en": "Departmental Results Reports",
        "fr": "Rapports sur les r\u00e9sultats minist\u00e9riels"
    },
    "exturl": "",
    "teamsite_location": {
        "en": "/default/main/AAFC-AAC/Internet-Internet/Common-Commun/WORKAREA/Common-Commun/templatedata/comm-comm/gene-gene/data/08/dpr_1219248798716_en",
        "fr": "/default/main/AAFC-AAC/Internet-Internet/Common-Commun/WORKAREA/Common-Commun/templatedata/comm-comm/gene-gene/data/08/dpr_1219248798716_fr"
    },
    "type_name": "sitemapinit",
    "has_dcr_id": true,
    "breadcrumb": {
        "en": "Departmental Results Reports",
        "fr": "Rapports sur les r\u00e9sultats minist\u00e9riels"
    },
    "layout_name": "content page 1 column",
    "lang": "en",
    "meta": {
        "issued": {
            "en": "2009-03-03",
            "fr": "2009-03-03"
        },
        "modified": {
            "en": "2020-12-07",
            "fr": "2020-12-07"
        },
        "format": {
            "en": "text/html",
            "fr": "text/html"
        },
        "title": {
            "en": "Departmental Results Reports",
            "fr": "Rapports sur les r\u00e9sultats minist\u00e9riels"
        },
        "subject": {
            "en": "government information;audit;agriculture",
            "fr": "information gouvernementale;\u00e9valuation"
        },
        "description": {
            "en": "2004-2005 departmental performance report [ pdf version ]            2003-2004 departmental performance report 2002-2003            departmental performance report 2001-2002 departmental            performance report 2000-2001 departmental performance report            1999-2000 departmental performance report 1998-1999            departmental performance report [ pdf version ] 1997-1998            departmental performance report [ pdf version ] 1996-1997            performance report [ pdf version ] 1995-1996 performance            report [ pdf version ] [ help with accessibility ]",
            "fr": null
        },
        "language": {
            "en": "eng",
            "fr": "fra"
        },
        "keywords": {
            "en": " older versions of the performance reports; annual report; performance report; pdf version;departmental performance report",
            "fr": null
        },
        "audience": {
            "en": "gcaudience",
            "fr": "gcaudience"
        },
        "type": {
            "en": "resource list",
            "fr": "liste de r\u00e9f\u00e9rence"
        },
        "creator": {
            "en": "Agriculture and Agri-Food Canada;Government of Canada",
            "fr": "Agriculture et Agroalimentaire Canada;Gouvernement du Canada"
        },
        "spatial": {
            "en": "gcregions",
            "fr": "gcregions"
        },
        "service": {
            "en": "AAFC-AAC",
            "fr": "AAFC-AAC"
        },
        "accessRights": {
            "en": "2",
            "fr": "2"
        },
        "legalName": {
            "en": "agriculture_and_agri_food_canada",
            "fr": "agriculture_et_agroalimentaire_canada"
        },
        "areaServed": {
            "en": "Canada",
            "fr": "Canada"
        }
    },
    "css": {
        "fr": null
    },
    "js": {
        "en": null,
        "fr": null
    },
    "body": {
        "en": "<!-- D&eacute;but du contenu -->\r\n    <p>To improve reporting to Parliament and Canadians, a new simplified report to replace the Departmental Performance Report has been introduced by Treasury Board of Canada Secretariat. The Departmental Results Report provides parliamentarians and Canadians with information on the actual accomplishments against the plans, priorities and expected results set out in the corresponding Departmental Plan. They are tabled in Parliament in the fall.  </p>\n\n<p>Information on the plans and expected performance of the Department, over a three year period, can be found in the  <a href=\"?id=1174061891718\">Departmental Plan</a> (and former Report on Plans and Priorities).</p>\n\n<p>The following are the most recently published reports. For older publications, please send an email to: <a href=\"mailto:aafc.info.aac@canada.ca\">aafc.info.aac@canada.ca</a>.</p>\n\n<ul>\n<li><a href=\"?id=1600898165675\">2019-20 Departmental Results Report</a>\n<ul><li><a href=\"https://questionnaire.simplesurvey.com/f/l/drr-2019-20-rrm?idlang=EN\">Complete a survey on your experience using this Departmental Results Report</a></li></ul>\n</li>\n\n\n<li><a href=\"?id=1574269837312\">2018-19 Departmental Results Report</a></li>\n<li><a href=\"?id=1536950956460\">2017-18 Departmental Results Report</a></li>\n<!-- li><a href=\"?id=1500480297710\">2016-17 Departmental Results Report</a></li -->\n</ul>\n\n\n\r\n    <!-- Fin du contenu -->",
        "fr": "\r\n    \r\n    <!-- MainContentStart -->\r\n    <!-- D&eacute;but du contenu -->\r\n    <p>Afin d\u2019am\u00e9liorer les rapports pr\u00e9sent\u00e9s au Parlement et aux Canadiens, le Secr\u00e9tariat du Conseil du Tr\u00e9sor a cr\u00e9\u00e9 un nouveau rapport simplifi\u00e9 qui a remplac\u00e9 le Rapport minist\u00e9riel sur le rendement. Le Rapport sur les r\u00e9sultats minist\u00e9riels fournit aux parlementaires et aux Canadiens des renseignements sur les r\u00e9alisations concr\u00e8tes d\u2019un minist\u00e8re en regard des plans, des priorit\u00e9s et des r\u00e9sultats attendus d\u00e9crits dans le Plan minist\u00e9riel de ce dernier. Ces rapports sont d\u00e9pos\u00e9s au Parlement \u00e0 l\u2019automne.</p>\n\n<p>Vous trouverez des renseignements sur les plans et le rendement attendu des minist\u00e8res, pour une p\u00e9riode de trois ans, dans les <a href=\"?id=1174061891718\">Plans minist\u00e9riels</a> (anciens rapports sur les plans et les priorit\u00e9s).</p>\n\n<p>Les rapports qui suivent sont les plus r\u00e9cents. Pour consulter les publications plus anciennes, veuillez envoyer un courriel \u00e0\u00a0: <a href=\"mailto:aafc.info.aac@canada.ca\">aafc.info.aac@canada.ca</a>.</p>\n\n<ul>\n<li><a href=\"?id=1600898165675\">Rapport sur les r\u00e9sultats minist\u00e9riels 2019-2020</a>\n<ul><li><a href=\"https://questionnaire.simplesurvey.com/f/l/drr-2019-20-rrm?idlang=FR\">R\u00e9pondez \u00e0 un sondage sur votre exp\u00e9rience de l\u2019utilisation du pr\u00e9sent rapport sur les r\u00e9sultats minist\u00e9riels</a></li>\n</ul>\n</li>\n\n<li><a href=\"?id=1574269837312\">Rapport sur les r\u00e9sultats minist\u00e9riels 2018-2019</a></li>\n<li><a href=\"?id=1536950956460\">Rapport sur les r\u00e9sultats minist\u00e9riels 2017-2018</a></li>\n<!-- li><a href=\"?id=1500480297710\">Rapport sur les r&eacute;sultats minist&eacute;riels 2016-2017</a></li -->\n</ul>\n\n\n \n\r\n    <!-- Fin du contenu -->\r\n\t\r\n\t\r\n\t\r\n  "
    }
}