{
    "dcr_id": "1203091767065",
    "title": {
        "en": "Accelerated Release Program - New potato selections for french fries, chips and the fresh market",
        "fr": "Programme de mise en circulation acc\u00e9l\u00e9r\u00e9e - Nouvelles vari\u00e9t\u00e9s de pommes de terre pour le march\u00e9 des frites, croustilles et le march\u00e9 frais"
    },
    "modified": "2020-10-05",
    "issued": "2009-02-06",
    "templatetype": "content page 1 column",
    "page_type": "1",
    "node_id": "1366840625411",
    "dc_date_created": "2009-02-06",
    "managing_branch": "PAB",
    "parent_node_id": "1354137774015",
    "label": {
        "en": "Agriculture and Agri-food Canada's Accelerated Release Program",
        "fr": "Programme de mise en circulation acc\u00e9l\u00e9r\u00e9e"
    },
    "exturl": "",
    "teamsite_location": {
        "en": "/default/main/AAFC-AAC/Internet-Internet/Common-Commun/WORKAREA/Common-Commun/templatedata/comm-comm/gene-gene/data/02/sci-tech-trans-releaseprog_1203091767065_en",
        "fr": "/default/main/AAFC-AAC/Internet-Internet/Common-Commun/WORKAREA/Common-Commun/templatedata/comm-comm/gene-gene/data/02/sci-tech-trans-releaseprog_1203091767065_fr"
    },
    "type_name": "sitemapinit",
    "has_dcr_id": true,
    "breadcrumb": {
        "en": "Agriculture and Agri-food Canada's Accelerated Release Program",
        "fr": "Programme de mise en circulation acc\u00e9l\u00e9r\u00e9e"
    },
    "layout_name": "content page 1 column",
    "lang": "en",
    "meta": {
        "issued": {
            "en": "2009-02-06",
            "fr": "2009-02-06"
        },
        "modified": {
            "en": "2020-10-05",
            "fr": "2020-10-05"
        },
        "format": {
            "en": "text/html",
            "fr": "text/html"
        },
        "title": {
            "en": "Accelerated Release Program - New potato selections for french fries, chips and the fresh market",
            "fr": "Programme de mise en circulation acc\u00e9l\u00e9r\u00e9e - Nouvelles vari\u00e9t\u00e9s de pommes de terre pour le march\u00e9 des frites, croustilles et le march\u00e9 frais"
        },
        "subject": {
            "en": "genetics;technology;crops",
            "fr": "g\u00e9n\u00e9tique;technologie;cultures"
        },
        "description": {
            "en": "Accelerated Release Program for New Potato Selections - Agriculture and Agri-Food Canada (AAFC) releases to the marketplace up to 10-15 new potato selections for 2017/2018 (AR2017)",
            "fr": "Programme de mise en circulation acc\u00e9l\u00e9r\u00e9e - Nouvelles vari\u00e9t\u00e9s de pommes de terre - Agriculture et Agroalimentaire Canada met sur le march\u00e9 jusqu'\u00e0 10-15 nouvelles vari\u00e9t\u00e9s de pommes de terre pour 2017/2018 (AR2017)"
        },
        "language": {
            "en": "eng",
            "fr": "fra"
        },
        "keywords": {
            "en": " traditional crop breeding techniques; agri-food canada's accelerated release program; accelerated release program; AR2017; accelerated potato release; potato accelerated release; AAFC potato release;new potato selections",
            "fr": " Programme de mise en circulation acc\u00e9l\u00e9r\u00e9e de l\u2019AAC; techniques d'am\u00e9lioration g\u00e9n\u00e9tique des cultures; AR2017; Programme de mise en circulation acc\u00e9l\u00e9r\u00e9e; mise en circulation acc\u00e9l\u00e9r\u00e9e de pommes de terre;Nouvelles vari\u00e9t\u00e9s de pommes de terre"
        },
        "audience": {
            "en": "gcaudience",
            "fr": "gcaudience"
        },
        "type": {
            "en": "resource list",
            "fr": "liste de r\u00e9f\u00e9rence"
        },
        "creator": {
            "en": "Research & Analysis Directorate;Agriculture and Agri-Food Canada;;Government of Canada",
            "fr": "Direction de la recherche et analyse;Agriculture et Agroalimentaire Canada;Gouvernement du Canada"
        },
        "spatial": {
            "en": "gcregions",
            "fr": "gcregions"
        },
        "service": {
            "en": "AAFC-AAC",
            "fr": "AAFC-AAC"
        },
        "accessRights": {
            "en": "2",
            "fr": "2"
        },
        "legalName": {
            "en": "agriculture_and_agri_food_canada",
            "fr": "agriculture_et_agroalimentaire_canada"
        },
        "areaServed": {
            "en": "Canada",
            "fr": "Canada"
        }
    },
    "css": {
        "fr": null
    },
    "js": {
        "en": null,
        "fr": null
    },
    "body": {
        "en": "<!-- D&eacute;but du contenu -->\r\n    <p>Using a combination of traditional crop breeding techniques, as well as new and emerging technologies, Agriculture and Agri-Food Canada  releases to the marketplace up to 10-15 new potato selections annually. These annual releases have been carefully chosen from a starting population that may number 120,000 new seedlings.</p>\n\n<ul>\n <!-- <li class=\"mrgn-tp-md\"><a href=\"templatedata/page_en\">Potato Selection Release Open House</a></li> -->\n\n <li class=\"mrgn-tp-md\"><a href=\"/eng/scientific-collaboration-and-research-in-agriculture/technology-transfer-and-licensing-agriculture/licensing-opportunities-agriculture/accelerated-release-program-new-potato-selections-for-french-fries-chips-and-the-fresh-market/about-the-accelerated-release-program/?id=1197406160572\">About the Accelerated Release Program</a></li>\n\n <li class=\"mrgn-tp-md\"><a href=\"/eng/scientific-collaboration-and-research-in-agriculture/technology-transfer-and-licensing-agriculture/licensing-opportunities-agriculture/accelerated-release-program-new-potato-selections-for-french-fries-chips-and-the-fresh-market/how-to-participate/?id=1265124665112\">How to participate in the Accelerated Release Program</a>\n  <ul>\n   <li><a href=\"/eng/scientific-collaboration-and-research-in-agriculture/technology-transfer-and-licensing-agriculture/licensing-opportunities-agriculture/accelerated-release-program-new-potato-selections-for-french-fries-chips-and-the-fresh-market/how-to-participate/2018-selections/?id=1517351059100\">Accelerated Release 2018 (AR2018) Available Selections</a></li> \n    </ul>\n </li>\n\n\t<li class=\"mrgn-tp-md\"><a href=\"?id=1582312356556\">Successful Cash Bids for AR2018 Potato Selections Offered for Exclusive Testing in 2020</a></li>\n\t<li class=\"mrgn-tp-md\"><a href=\"/eng/scientific-collaboration-and-research-in-agriculture/technology-transfer-and-licensing-agriculture/licensing-opportunities-agriculture/accelerated-release-program-new-potato-selections-for-french-fries-chips-and-the-fresh-market/successful-cash-bids-for-ar2017-potato-selections-offered-for-exclusive-testing-in-2019/?id=1550152194074\">Successful Cash Bids for AR2017 Potato Selections Offered for Exclusive Testing in 2019 </a></li>\n <li class=\"mrgn-tp-md\"><a href=\"/eng/scientific-collaboration-and-research-in-agriculture/technology-transfer-and-licensing-agriculture/licensing-opportunities-agriculture/accelerated-release-program-new-potato-selections-for-french-fries-chips-and-the-fresh-market/successful-cash-bids-for-ar2016-potato-selections-offered-for-exclusive-testing-in-2018/?id=1520350041822\">Successful Cash Bids for AR2016 Potato Selections Offered for Exclusive Testing in 2018 </a></li>\n\n <li class=\"mrgn-tp-md\"><a href=\"/eng/scientific-collaboration-and-research-in-agriculture/technology-transfer-and-licensing-agriculture/licensing-opportunities-agriculture/accelerated-release-program-new-potato-selections-for-french-fries-chips-and-the-fresh-market/successful-cash-bids-for-ar2015-potato-selections-offered-for-exclusive-testing-in-2017/?id=1489415415276\">Successful Cash Bids for AR2015 Potato Selections Offered for Exclusive Testing in 2017</a></li>\n</ul>\n\r\n    <!-- Fin du contenu -->",
        "fr": "\r\n    \r\n    <!-- MainContentStart -->\r\n    <!-- D&eacute;but du contenu -->\r\n    <p>\u00c0 l'aide de diverses techniques d'am\u00e9lioration g\u00e9n\u00e9tique des cultures, et de technologies nouvelles et \u00e9mergentes, Agriculture et Agroalimentaire Canada  met chaque ann\u00e9e sur le march\u00e9 jusqu'\u00e0 10-15 nouvelles vari\u00e9t\u00e9s de pommes de terre. Ces s\u00e9lections annuelles sont soigneusement choisies parmi une population initiale qui peut atteindre 120\u00a0000 nouveaux semis.</p>\n\n<ul>\n<!--  <li class=\"mrgn-tp-md\"><a href=\"templatedata/page_fr\">Journ&eacute;e portes ouvertes pour la mise en circulation de nouvelles s&eacute;lections de pommes de terre</a></li> -->\n\n <li class=\"mrgn-tp-md\"><a href=\"/fra/collaboration-scientifique-en-agriculture/transfert-et-licences-de-technologie-agriculture/occasion-de-concession-de-licence-agriculture/programme-de-mise-en-circulation-acceleree-nouvelles-varietes-de-pommes-de-terre-pour-le-marche-de/a-propos-du-programme-de-mise-en-circulation-acceleree/?id=1197406160572\">\u00c0 propos du Programme de mise en circulation acc\u00e9l\u00e9r\u00e9e</a></li>\n\n <li class=\"mrgn-tp-md\"><a href=\"/fra/collaboration-scientifique-en-agriculture/transfert-et-licences-de-technologie-agriculture/occasion-de-concession-de-licence-agriculture/programme-de-mise-en-circulation-acceleree-nouvelles-varietes-de-pommes-de-terre-pour-le-marche-de/comment-participer/?id=1265124665112\">Comment participer au Programme de mise en circulation acc\u00e9l\u00e9r\u00e9e</a>\n  <ul>\n<li><a href=\"/fra/collaboration-scientifique-en-agriculture/transfert-et-licences-de-technologie-agriculture/occasion-de-concession-de-licence-agriculture/programme-de-mise-en-circulation-acceleree-nouvelles-varietes-de-pommes-de-terre-pour-le-marche-de/comment-participer/2018-selections-disponibles-ar2018/?id=1517351059100\">Mise en circulation acc\u00e9l\u00e9r\u00e9e 2018 S\u00e9lections disponibles (AR2018)</a></li>   \n</ul>\n</li>\n\n\t<li class=\"mrgn-tp-md\"><a href=\"?id=1582312356556\">Soumissions en argent retenues pour les s\u00e9lections de pommes de terre AR2018 - offertes pour des essais exclusifs en 2020</a></li>\n\n <li class=\"mrgn-tp-md\"><a href=\"/fra/collaboration-scientifique-en-agriculture/transfert-et-licences-de-technologie-agriculture/occasion-de-concession-de-licence-agriculture/programme-de-mise-en-circulation-acceleree-nouvelles-varietes-de-pommes-de-terre-pour-le-marche-de/soumissions-en-argent-retenues-pour-les-selections-de-pommes-de-terre-ar2017-offertes-pour-des-essais-exclusifs-en-2019/?id=1550152194074\">Soumissions en argent retenues pour les s\u00e9lections de pommes de terre AR2017 - offertes pour des essais exclusifs en 2019</a></li>\n\n\n <li class=\"mrgn-tp-md\"><a href=\"/fra/collaboration-scientifique-en-agriculture/transfert-et-licences-de-technologie-agriculture/occasion-de-concession-de-licence-agriculture/programme-de-mise-en-circulation-acceleree-nouvelles-varietes-de-pommes-de-terre-pour-le-marche-de/soumissions-en-argent-retenues-pour-les-selections-de-pommes-de-terre-ar2016-offertes-pour-des-essais-exclusifs-en-2018/?id=1520350041822\">Soumissions en argent retenues pour les s\u00e9lections de pommes de terre AR2016 - offertes pour des essais exclusifs en 2018</a></li>\n\n <li class=\"mrgn-tp-md\"><a href=\"/fra/collaboration-scientifique-en-agriculture/transfert-et-licences-de-technologie-agriculture/occasion-de-concession-de-licence-agriculture/programme-de-mise-en-circulation-acceleree-nouvelles-varietes-de-pommes-de-terre-pour-le-marche-de/soumissions-en-argent-retenues-pour-les-selections-de-pommes-de-terre-ar2015-offertes-pour-des-essais-exclusifs-en-2017/?id=1489415415276\">Soumissions en argent retenues pour les s\u00e9lections de pommes de terre AR2015\u00a0- offertes pour des essais exclusifs en 2017</a></li>\n</ul>\n\r\n    <!-- Fin du contenu -->\r\n\t\r\n\t\r\n\t\r\n  "
    }
}