{
    "dcr_id": "1181661572950",
    "title": {
        "en": "Research Centres -  Alberta",
        "fr": "Centres de recherche - Alberta"
    },
    "modified": "2016-05-26",
    "issued": "2008-12-15",
    "templatetype": "content page 1 column",
    "page_type": "1",
    "node_id": "1366736903873",
    "dc_date_created": "2008-12-15",
    "managing_branch": "PAB",
    "parent_node_id": "1354137773980",
    "label": {
        "en": "Research Centres - Alberta",
        "fr": "Centres de recherches - Alberta"
    },
    "exturl": "",
    "teamsite_location": {
        "en": "/default/main/AAFC-AAC/Internet-Internet/Common-Commun/WORKAREA/Common-Commun/templatedata/comm-comm/gene-gene/data/06/sci_res_alberta_1181661572950_en",
        "fr": "/default/main/AAFC-AAC/Internet-Internet/Common-Commun/WORKAREA/Common-Commun/templatedata/comm-comm/gene-gene/data/06/sci_res_alberta_1181661572950_fr"
    },
    "type_name": "sitemapinit",
    "has_dcr_id": true,
    "breadcrumb": {
        "en": "Research Centres - Alberta",
        "fr": "Centres de recherches - Alberta"
    },
    "layout_name": "content page 1 column",
    "lang": "en",
    "meta": {
        "issued": {
            "en": "2008-12-15",
            "fr": "2008-12-15"
        },
        "modified": {
            "en": "2016-05-26",
            "fr": "2016-05-26"
        },
        "format": {
            "en": "text/html",
            "fr": "text/html"
        },
        "title": {
            "en": "Research Centres -  Alberta",
            "fr": "Centres de recherche - Alberta"
        },
        "subject": {
            "en": "research;meat",
            "fr": "viande"
        },
        "description": {
            "en": "Alberta13667369038731Lacombe Research Centre (Lacombe Alberta) Lethbridge Research Centre (Lethbridge Alberta)",
            "fr": "Alberta13667369038731Centre de recherche de Lacombe (Lacombe Alberta)Centre de recherche de Lethbridge (Lethbridge Alberta)"
        },
        "language": {
            "en": "eng",
            "fr": "fra"
        },
        "keywords": {
            "en": "Alberta13667369038731Lacombe Research Centre;Lacombe Alberta;Lethbridge Alberta;Lethbridge Research Centre",
            "fr": "Alberta13667369038731Centre de recherche de Lacombe;Lethbridge Alberta;Lacombe Alberta)Centre de recherche de Lethbridge"
        },
        "audience": {
            "en": "gcaudience",
            "fr": "gcaudience"
        },
        "type": {
            "en": "event",
            "fr": "interface de recherche"
        },
        "creator": {
            "en": "Agriculture and Agri-Food Canada;research centre",
            "fr": "Agriculture et Agroalimentaire Canada;centre de recherche"
        },
        "spatial": {
            "en": "gcregions",
            "fr": "gcregions"
        },
        "service": {
            "en": "AAFC-AAC",
            "fr": "AAFC-AAC"
        },
        "accessRights": {
            "en": "2",
            "fr": "2"
        },
        "legalName": {
            "en": "agriculture_and_agri_food_canada",
            "fr": "agriculture_et_agroalimentaire_canada"
        },
        "areaServed": {
            "en": "Canada",
            "fr": "Canada"
        }
    },
    "css": {
        "fr": null
    },
    "js": {
        "en": null,
        "fr": null
    },
    "body": {
        "en": "<!-- D&eacute;but du contenu -->\r\n    <ul>\n<li><a href=\"/eng/?id=1180634888974\">Lacombe Research and Development Centre</a></li>\n<li><a href=\"/eng/?id=1180547946064\">Lethbridge Research and Development Centre</a></li>\n</ul>\n\r\n    <!-- Fin du contenu -->",
        "fr": "\r\n    \r\n    <!-- MainContentStart -->\r\n    <!-- D&eacute;but du contenu -->\r\n    <ul>\n<li><a href=\"/fra/?id=1180634888974\">Centre de recherche et de d\u00e9veloppement de Lacombe</a></li>\n<li><a href=\"/fra/?id=1180547946064\">Centre de recherche et de d\u00e9veloppement de Lethbridge</a></li>\n</ul>\n\r\n    <!-- Fin du contenu -->\r\n\t\r\n\t\r\n\t\r\n  "
    }
}