{
    "dcr_id": "1368482338314",
    "title": {
        "en": "Horticulture sector reports",
        "fr": "Rapports sur l'industrie horticole"
    },
    "modified": "2021-01-26",
    "issued": "2013-09-09",
    "templatetype": "content page 1 column",
    "page_type": "1",
    "node_id": "1368480094434",
    "dc_date_created": "2013-09-09",
    "managing_branch": "PAB",
    "parent_node_id": "1579021815766",
    "label": {
        "en": "Horticulture Sector Reports",
        "fr": "Rapports sur l'industrie horticole"
    },
    "exturl": "",
    "teamsite_location": {
        "en": "/default/main/AAFC-AAC/Internet-Internet/CCB-DGCC/WORKAREA/CCB-DGCC/templatedata/comm-comm/gene-gene/data/horticulture_sector_reports_1368482338314_en",
        "fr": "/default/main/AAFC-AAC/Internet-Internet/CCB-DGCC/WORKAREA/CCB-DGCC/templatedata/comm-comm/gene-gene/data/horticulture_sector_reports_1368482338314_fr"
    },
    "type_name": "sitemapinit",
    "has_dcr_id": true,
    "breadcrumb": {
        "en": "Horticulture Sector Reports",
        "fr": "Rapports sur l'industrie horticole"
    },
    "layout_name": "content page 1 column",
    "lang": "en",
    "meta": {
        "issued": {
            "en": "2013-09-09",
            "fr": "2013-09-09"
        },
        "modified": {
            "en": "2021-01-26",
            "fr": "2021-01-26"
        },
        "format": {
            "en": "gcformat",
            "fr": "gcformat"
        },
        "title": {
            "en": "Horticulture sector reports",
            "fr": "Rapports sur l'industrie horticole"
        },
        "subject": {
            "en": "horticulture",
            "fr": "apiculture;horticulture"
        },
        "description": {
            "en": "2009-2010 Performance overview Learn how Canadian horticulture sector crops such as field grown vegetables potatoes greenhouse vegetables fruits ornamental products (floriculture nursery Christmas trees sod) honey and maple products ginseng herbs and spices and more performed in a crop year.",
            "fr": "Survol des r\u00e9sultats - Campagne agricole de 2008 Survol des r\u00e9sultats - Campagne agricole de 2007 Profils de sous-secteurs et fiches d'information Fruits Fruits canadiens Aper\u00e7u statistique de l'industrie fruiti\u00e8re du Canada pour 2012 Aper\u00e7u statistique de l'industrie fruiti\u00e8re du Canada pour 2011 Aper\u00e7u de l'industrie fruiti\u00e8re du Canada 2009 Aper\u00e7u de l'industrie canadienne de la pomme 2010 Bleuets canadiens Aper\u00e7u statistique de l'industrie canadienne du bleuet 2010 Canneberge canadienne L\u00e9gumes L\u00e9gumes canadiens Nouveau!!"
        },
        "language": {
            "en": "eng",
            "fr": "fra"
        },
        "keywords": {
            "en": "Statistical Overview of the Canadian Vegetable Industry;international markets;Statistical Overview of the Canadian Maple Industry;Statistical Overview of the Canadian Honey Industry;Statistical Overview of Canadian Horticulture",
            "fr": "Aper\u00e7u statistique de l'industrie du miel du Canada;Campagne agricole;Survol des r\u00e9sultats;fruiti\u00e8re du Canada;Aper\u00e7u statistique de l'industrie"
        },
        "audience": {
            "en": "gcaudience",
            "fr": "gcaudience"
        },
        "type": {
            "en": "publication",
            "fr": "liste de r\u00e9f\u00e9rence"
        },
        "creator": {
            "en": "Agriculture and Agri-Food Canada;Government of Canada",
            "fr": "Agriculture et Agroalimentaire Canada;Gouvernement du Canada"
        },
        "spatial": {
            "en": "gcregions",
            "fr": "gcregions"
        },
        "service": {
            "en": "AAFC-AAC",
            "fr": "AAFC-AAC"
        },
        "accessRights": {
            "en": "2",
            "fr": "2"
        },
        "legalName": {
            "en": "agriculture_and_agri_food_canada",
            "fr": "agriculture_et_agroalimentaire_canada"
        },
        "areaServed": {
            "en": "Canada",
            "fr": "Canada"
        }
    },
    "css": {
        "fr": null
    },
    "js": {
        "en": null,
        "fr": null
    },
    "body": {
        "en": "<!-- D&eacute;but du contenu -->\r\n    <h2>Annual sector reports</h2>\n\n<p>All horticulture sector annual reports will be available by December 31 every year.</p>\n\n<h2>Sub-sector profiles</h2>\n<p>Learn how Canadian horticulture sector crops, such as field grown vegetables, potatoes, greenhouse vegetables, fruits, ornamental products (floriculture, nursery, Christmas trees, sod), honey and maple products, performed in a crop year.</p>\n\n<h3>Fruit</h3>\n\n<ul>\n<li><a href=\"?id=1564485377504\">Statistical overview of the Canadian fruit industry, 2019</a></li>\n<li><a href=\"?id=1410083148449\">Canadian Apple Industry - Varieties by Province, 2017</a></li>\n</ul>\n\n<h3>Vegetables</h3>\n\n<ul>\n<li><a href=\"?id=1606246042832\">Potato market information review, 2019-2020</a></li>\n<li><a href=\"/eng/horticulture/horticulture-sector-reports/statistical-overview-of-the-canadian-vegetable-industry-2019/?id=1599696046871\">Statistical overview of the Canadian vegetable industry, 2019</a></li> \n<li><a href=\"/eng/horticulture/horticulture-sector-reports/statistical-overview-of-the-canadian-greenhouse-vegetable-industry-2019/?id=1609252451699\">Statistical overview of the Canadian greenhouse vegetable industry, 2019</a></li>\n</ul>\n\n<h3>Ornamental horticulture</h3>\n\n<ul>\n<li><a href=\"?id=1602677667665\">Statistical overview of the Canadian ornamental industry, 2019</a></li>\n</ul>\n\n<h3>Honey</h3>\n\n<ul>\n<li><a href=\"?id=1594646761058\">Statistical Overview of the Canadian Honey and Bee Industry, 2019</a></li>\n</ul>\n\n<h3>Maple products</h3>\n\n<ul>\n<li><a href=\"?id=1578691127237\">Customized report service \u2013 Canadian maple syrup, 2020</a></li>\n<li><a href=\"?id=1604326674902\">Statistical overview of the Canadian maple industry, 2019</a></li>\n<li><a href=\"?id=1231363888838\">Maple syrup flavour research \u2013 flavour wheel</a></li>\n</ul>\n\r\n    <!-- Fin du contenu -->",
        "fr": "\r\n    \r\n    <!-- MainContentStart -->\r\n    <!-- D&eacute;but du contenu -->\r\n    <h2>Rapports annuels sur le secteur</h2>\n\n<p>Tous les rapports annuels sur le secteur de l'horticulture seront disponibles au plus tard le 31 d\u00e9cembre chaque ann\u00e9e.</p>\n\n<h2>Profils de sous-secteurs</h2>\n<p>Information sur le rendement pour les cultures du secteur canadien comme les l\u00e9gumes de plein champ, la pomme de terre, les l\u00e9gumes de serre, les fruits, les produits ornementaux (produits floricoles et mat\u00e9riel de p\u00e9pini\u00e8re, arbres de No\u00ebl, gazon), le miel et les produits de l'\u00e9rable, pour une ann\u00e9e agricole.</p>\n\n<h3>Fruits</h3>\n\n<ul>\n<li><a href=\"?id=1564485377504\">Aper\u00e7u statistique de l'industrie fruiti\u00e8re du Canada, 2019</a></li>\n<li><a href=\"?id=1410083148449\">Industrie canadienne de la pomme - Vari\u00e9t\u00e9s par province, 2017</a></li>\n</ul>\n\n<h3>L\u00e9gumes</h3>\n\n<ul>\n<li><a href=\"?id=1606246042832\">Revue d'information sur les march\u00e9s de la pomme de terre, 2019-2020</a></li>\n<li><a href=\"?id=1599696046871\">Aper\u00e7u statistique de l'industrie des l\u00e9gumes du Canada, 2019</a></li>\n<li><a href=\"?id=1609252451699\">Aper\u00e7u statistique de l'industrie des l\u00e9gumes de serre du Canada, 2019</a></li>\n</ul>\n\n<h3>Horticulture ornementale</h3>\n\n<ul>\n<li><a href=\"?id=1602677667665\">Aper\u00e7u statistique de l'industrie ornementale du Canada, 2019</a></li>\n</ul>\n\n<h3>Miel</h3>\n\n<ul>\n<li><a href=\"?id=1594646761058\">Aper\u00e7u statistique de l'industrie apicole canadienne, 2019</a></li>\n</ul>\n\n<h3>Produits de l'\u00e9rable</h3>\n\n<ul>\n<li><a href=\"?id=1578691127237\">Service de rapport personnalis\u00e9 \u2013 Le sirop d'\u00e9rable canadien, 2020</a></li>\n<li><a href=\"?id=1604326674902\">Aper\u00e7u statistique de l'industrie de l'\u00e9rable au Canada, 2019</a></li>\n<li><a href=\"?id=1231363888838\">La recherche sur la flaveur du sirop d'\u00e9rable - Roue des flaveurs de l'\u00e9rable</a></li>\n</ul>\n\r\n    <!-- Fin du contenu -->\r\n\t\r\n\t\r\n\t\r\n  "
    }
}