{
    "dcr_id": "1370269370649",
    "title": {
        "en": "Site map",
        "fr": "Plan du site"
    },
    "modified": "2020-09-29",
    "issued": "2013-07-12",
    "templatetype": "content page 1 column",
    "page_type": "1",
    "node_id": "1368217483336",
    "dc_date_created": "2013-07-12",
    "managing_branch": "PAB",
    "parent_node_id": "1354137774025",
    "label": {
        "en": "Site Map",
        "fr": "Plan du site"
    },
    "exturl": "",
    "teamsite_location": {
        "en": "/default/main/AAFC-AAC/Internet-Internet/CCB-DGCC/WORKAREA/CCB-DGCC/templatedata/comm-comm/gene-gene/data/site_map_1370269370649_en",
        "fr": "/default/main/AAFC-AAC/Internet-Internet/CCB-DGCC/WORKAREA/CCB-DGCC/templatedata/comm-comm/gene-gene/data/site_map_1370269370649_fr"
    },
    "type_name": "sitemapinit",
    "has_dcr_id": true,
    "breadcrumb": {
        "en": "Site Map",
        "fr": "Plan du site"
    },
    "layout_name": "content page 1 column",
    "lang": "en",
    "meta": {
        "issued": {
            "en": "2013-07-12",
            "fr": "2013-07-12"
        },
        "modified": {
            "en": "2020-09-29",
            "fr": "2020-09-29"
        },
        "format": {
            "en": "gcformat",
            "fr": "gcformat"
        },
        "title": {
            "en": "Site map",
            "fr": "Plan du site"
        },
        "subject": {
            "en": "imports;consultations;domestic trade",
            "fr": "cultures;engrais"
        },
        "description": {
            "en": "13682174833361 Programs and Services AgPal \u2013 Program and Service Finder List of Programs and Services Industry Markets and Trade Statistics and Market Information Market Access Trade Events Branding (Canada Brand) Canadian Food (eatCanadian) Exporting Importing and Buying Assistance Food Regulations Traceability Agri-Food Trade Policy Value Chain Roundtables Science and Innovation Research Centres Scientific Staff and Expertise Research Projects Agricultural Practices Science Publications and Resources Technology Transfer and Licensing International Scientific Cooperation Help Site Map A to Z Subject Index Help with Alternative Formats and Plug-ins About Us Ministers What We Do Key Departmental Initiatives Partners and",
            "fr": "13682174833361 Programmes et services AgriGuichet \u2013 Chercheur de programmes et services Liste des programmes et services Industrie march\u00e9s et commerce Statistiques et information sur les march\u00e9s Acc\u00e8s aux march\u00e9s \u00c9v\u00e9nements commerciaux Promotion de l'image de marque (marque Canada) Aliments canadiens (mangezCanadien) Aide \u00e0 l'exportation \u00e0 l'importation et \u00e0 l'achat R\u00e8glements sur les aliments Tra\u00e7abilit\u00e9 Politiques commerciales agroalimentaires Tables rondes sur les cha\u00eenes de valeur Science et innovation Centres de recherche Personnel et expertise scientifique Projets de recherche Pratiques agricoles Publications scientifiques et ressources Transfert et licences de technologie Coop\u00e9ration scientifique internationale Aide"
        },
        "language": {
            "en": "eng",
            "fr": "fra"
        },
        "keywords": {
            "en": "Resources Technology Transfer;Subject Index Help;Service Finder List of Programs;Canada Brand;Media Advisories Events",
            "fr": "Index des sujets;Promotion de l'image de marque;Demandes de renseignements des m\u00e9dias;Twitter YouTube Fils RSS;Tables rondes"
        },
        "audience": {
            "en": "gcaudience",
            "fr": "gcaudience"
        },
        "type": {
            "en": "resource list",
            "fr": "documentation de r\u00e9union"
        },
        "creator": {
            "en": "Agriculture and Agri-Food Canada;Government of Canada",
            "fr": "Agriculture et Agroalimentaire Canada;Gouvernement du Canada"
        },
        "spatial": {
            "en": "gcregions",
            "fr": "gcregions"
        },
        "service": {
            "en": "AAFC-AAC",
            "fr": "AAFC-AAC"
        },
        "accessRights": {
            "en": "2",
            "fr": "2"
        },
        "legalName": {
            "en": "agriculture_and_agri_food_canada",
            "fr": "agriculture_et_agroalimentaire_canada"
        },
        "areaServed": {
            "en": "Canada",
            "fr": "Canada"
        }
    },
    "css": {
        "fr": null
    },
    "js": {
        "en": null,
        "fr": null
    },
    "body": {
        "en": "<!-- D&eacute;but du contenu -->\r\n     <ul>\n  <li><a href=\"/eng/?id=1362151577626\">List of programs and services</a></li>\n   <li><a href=\"/eng/?id=1360881916382\">Industry, markets and trade</a>\n   <ul>\n     <li><a href=\"/eng/?id=1361290241756\">Market information by sector</a></li>\n     <li><a href=\"/eng/?id=1410083148447\">International Agri-Food Market Intelligence</a></li>\n\n     <li><a href=\"/eng/?id=1432136045585\">Agri-Food Trade Services for Exporters</a></li>\n\n\n     <li><a href=\"/eng/?id=1383918945146\">Agri-food trade policy</a></li>\n     <li><a href=\"/eng/?id=1385758087741\">Value Chain Roundtables</a></li>\n   </ul></li>\n   <li><a href=\"/eng/?id=1360882179814\">Science and innovation</a>\n   <ul>\n     <li><a href=\"/eng/?id=1181591790641\">Research centres</a></li>\n     <li><a href=\"https://profils-profiles.science.gc.ca/en/search/profiles?f%5B0%5D=field_organization%3A770&amp;f%5B1%5D=type%3Aprofile\">Scientific staff and expertise</a></li>\n     <li><a href=\"/eng/?id=1360876327795\">Agricultural practices</a></li>\n     <li><a href=\"/eng/?id=1196363731573\">Results of agricultural research</a></li>\n     <li><a href=\"/eng/?id=1196968351190\">Technology transfer and licensing</a></li>\n     <li><a href=\"/eng/?id=1180125607102\">International engagement</a></li>\n   </ul></li>\n   <li><a href=\"/eng/?id=1364493798980\">Help</a>\n   <ul>\n     <li><a href=\"/eng/?id=1370269370649\">Site map</a></li>\n     <li><a href=\"/eng/?id=1204931113132\">A to Z subject index</a></li>\n     <li><a href=\"/eng/?id=1168622342753\">Help with alternative formats</a></li>\n   </ul></li>\n   <li><a href=\"/eng/?id=1360699683758\">About us</a>\n   <ul>\n     <li><a href=\"/eng/?id=1369864009036\">Minister</a></li>\n     <li><a href=\"/eng/?id=1449594974622\">Parliamentary Secretary</a></li>\n     <li><a href=\"/eng/?id=1360700688523\">What we do</a></li>\n     <li><a href=\"/eng/?id=1360678134288\">Key departmental initiatives</a></li>\n     <li><a href=\"/eng/?id=1360701203481\">Partners and agencies</a></li>\n     <li><a href=\"/eng/?id=1360701272448\">Planning and reporting</a></li>\n     <li><a href=\"/eng/?id=1362063362371\">Public opinion and consultations</a></li>\n     \n     <li><a href=\"/eng/?id=1180107359564\">Acts and regulations</a></li>\n     <li><a href=\"/eng/?id=1360701109506\">Offices and locations</a></li>\n     <li><a href=\"/eng/?id=1210885869244\">Employment opportunities</a></li>\n   </ul></li>\n   <li><a href=\"/eng/?id=1360882468517\">News</a>\n   <ul>\n     <li><a href=\"/eng/?id=1383076728778\">News releases</a></li>\n     <li><a href=\"/eng/?id=1389382857450\">Media advisories</a></li>\n     <li><a href=\"/eng/?id=1281614162882\">Events</a></li>\n     <li><a href=\"/eng/?id=1379013177194\">Scientific achievements in agriculture</a></li>\n   </ul></li>\n   <li><a href=\"display-afficher.do?id=1360882573376\">Contact us</a>\n   <ul>\n     <li><a href=\"/eng/?id=1360882573376#a1\">General enquiries</a></li>\n     <li><a href=\"/eng/?id=1370613214988\">Media enquiries</a></li>\n     <li><a href=\"http://www.geds.gc.ca/en/GEDS?pgid=014&amp;dn=ou=AAFC-AAC,%20o=GC,%20c=CA\">Employee directory</a></li>\n   </ul></li>\n   <li><a href=\"display-afficher.do?id=1360882689831\">Stay connected</a>\n   <ul>\n     <li><a href=\"/eng/?id=1416932161986\">Email subscription service</a></li>\n     <li><a href=\"https://www.facebook.com/CanadianAgriculture/\">Facebook</a></li>\n     <li><a href=\"https://twitter.com/AAFC_Canada\">Twitter</a></li>\n     <li><a href=\"https://www.youtube.com/user/AgricultureCanadaEng\">YouTube</a></li>\n     <li><a href=\"/eng/?id=1252063521682\">RSS feeds</a></li>\n   </ul>\n</li></ul>\n\r\n    <!-- Fin du contenu -->",
        "fr": "\r\n    \r\n    <!-- MainContentStart -->\r\n    <!-- D&eacute;but du contenu -->\r\n    <ul>\n<li><a href=\"?id=1362151577626\">Liste des programmes et services</a></li>\n<li><a href=\"?id=1360881916382\">Industrie, march\u00e9s et commerce</a> \n<ul>\n<li><a href=\"/fra/?id=1361290241756\">Information sur les march\u00e9s par secteur</a></li>\n<li><a href=\"/fra/?id=1410083148447\">Renseignements sur les march\u00e9s internationaux de l'agroalimentaire</a></li>\n\n<li><a href=\"/fra/?id=1432136045585\">Services aux exportateurs de produits agroalimentaires</a></li>\n\n<li><a href=\"/fra/?id=1383918945146\">Politiques commerciales agroalimentaires</a></li>\n<li><a href=\"/fra/?id=1385758087741\">Tables rondes sur les cha\u00eenes de valeur</a></li>\n</ul>\n</li>\n<li><a href=\"?id=1360882179814\">Science et innovation</a>\n<ul>\n<li><a href=\"/fra/?id=1181591790641\">Centres de recherche</a></li>\n<li><a href=\"https://profils-profiles.science.gc.ca/fr/recherche/profils?f%5B0%5D=field_organization%3A770&amp;f%5B1%5D=type%3Aprofile\">Personnel et expertise scientifique</a></li>\n<li><a href=\"/fra/?id=1360876327795\">Pratiques agricoles</a></li>\n<li><a href=\"/fra/?id=1196363731573\">R\u00e9sultats de la recherche agricole</a></li>\n<li><a href=\"/fra/?id=1196968351190\">Transfert et licences de technologie</a></li>\n<li><a href=\"/fra/?id=1180125607102\">Engagement international</a></li>\n</ul>\n</li>\n<li><a href=\"?id=1364493798980\">Aide</a> \n<ul>\n<li><a href=\"/fra/?id=1370269370649\">Plan du site</a></li>\n<li><a href=\"/fra/?id=1204931113132\">Index des sujets de A \u00e0 Z</a></li>\n<li><a href=\"/fra/?id=1168622342753\">Aide pour les formats de rechange</a></li>\n</ul>\n</li>\n<li><a href=\"/fra/?id=1360699683758\">\u00c0 propos de nous</a>\n<ul>\n<li><a href=\"/fra/?id=1369864009036\">Ministre</a></li>\n<li><a href=\"/fra/?id=1449594974622\">Secr\u00e9taire parlementaire</a></li>\n<li><a href=\"/fra/?id=1360700688523\">Ce que nous faisons</a></li>\n<li><a href=\"/fra/?id=1360678134288\">Initiatives minist\u00e9rielles importantes</a></li>\n<li><a href=\"/fra/?id=1360701203481\">Partenaires et agences</a></li>\n<li><a href=\"/fra/?id=1360701272448\">Planification et rapports</a></li>\n<li><a href=\"/fra/?id=1362063362371\">Opinion publique et consultations</a></li>\n\n<li><a href=\"/fra/?id=1180107359564\">Lois et r\u00e8glements</a></li>\n<li><a href=\"/fra/?id=1360701109506\">Bureaux et emplacements</a></li>\n<li><a href=\"/fra/?id=1210885869244\">Possibilit\u00e9s d'emploi</a></li>\n</ul>\n</li>\n<li><a href=\"/fra/?id=1360882468517\">Nouvelles</a> \n<ul>\n<li><a href=\"/fra/?id=1383076728778\">Communiqu\u00e9s</a></li>\n<li><a href=\"/fra/?id=1389382857450\">Avis aux m\u00e9dias</a></li>\n<li><a href=\"/fra/?id=1281614162882\">\u00c9v\u00e9nements</a></li>\n<li><a href=\"/fra/?id=1379013177194\">R\u00e9alisations scientifiques en agriculture</a></li>\n</ul>\n</li>\n<li><a href=\"/fra/?id=1360882573376\">Contactez-nous</a> \n<ul>\n<li><a href=\"?id=1360882573376#a1\">Demandes de renseignements g\u00e9n\u00e9raux</a></li>\n<li><a href=\"/fra/?id=1370613214988\">Demandes de renseignements des m\u00e9dias</a></li>\n<li><a href=\"http://www.geds.gc.ca/fr/SAGE?pgid=014&amp;dn=ou=AAFC-AAC,%20o=GC,%20c=CA\">R\u00e9pertoire des employ\u00e9s</a></li>\n</ul>\n</li>\n<li><a href=\"/fra/?id=1360882689831\">Restez branch\u00e9s</a>\n<ul>\n<li><a href=\"/fra/?id=1416932161986\">Service d'abonnement par courriel</a></li>\n<li><a href=\"https://www.facebook.com/Agriculture-et-Agroalimentaire-Canada-798775163588850/\">Facebook</a></li>\n<li><a href=\"https://twitter.com/AAC_Canada\">Twitter</a></li>\n<li><a href=\"http://www.youtube.com/user/AgricultureCanadaFra\">YouTube</a></li>\n<li><a href=\"/fra/?id=1252063521682\">Fils RSS</a></li>\n</ul>\n</li>\n</ul>\n\r\n    <!-- Fin du contenu -->\r\n\t\r\n\t\r\n\t\r\n  "
    }
}