{
    "dcr_id": "1605702223982",
    "title": {
        "en": "Wholesale price reports",
        "fr": "Rapports des prix de gros"
    },
    "modified": "2020-12-18",
    "issued": "2020-12-18",
    "templatetype": "content page 1 column",
    "page_type": "1",
    "node_id": "1368483664577",
    "dc_date_created": "2020-12-18",
    "managing_branch": "PAB",
    "parent_node_id": "1368480271586",
    "label": {
        "en": "Horticulture Wholesale Price Reports",
        "fr": "Rapports des prix de gros d'horticulture"
    },
    "exturl": "https://infohort.agr.gc.ca/IH5_Reports/wholesalePriceReports.xhtml?lang=e&ref=wholesale_price_reports&pageMenuId=IH1000",
    "teamsite_location": {
        "en": "/default/main/AAFC-AAC/Internet-Internet/Common-Commun/WORKAREA/Common-Commun/templatedata/comm-comm/gene-gene/data/11/infohort_whoeslae_price_1605702223982_en",
        "fr": "/default/main/AAFC-AAC/Internet-Internet/Common-Commun/WORKAREA/Common-Commun/templatedata/comm-comm/gene-gene/data/11/infohort_whoeslae_price_1605702223982_fr"
    },
    "type_name": "sitemapinit",
    "has_dcr_id": true,
    "breadcrumb": {
        "en": "Horticulture Wholesale Price Reports",
        "fr": "Rapports des prix de gros d'horticulture"
    },
    "layout_name": "content page 1 column",
    "lang": "en",
    "meta": {
        "issued": {
            "en": "2020-12-18",
            "fr": "2020-12-18"
        },
        "modified": {
            "en": "2020-12-18",
            "fr": "2020-12-18"
        },
        "format": {
            "en": "text/html",
            "fr": "text/html"
        },
        "title": {
            "en": "Wholesale price reports",
            "fr": "Rapports des prix de gros"
        },
        "subject": {
            "en": "architectural heritage;architecture;statistics",
            "fr": "l\u00e9gume;\u0153uf;horticulture"
        },
        "description": {
            "en": "These Ministerial briefing books were prepared for the Minister of Agriculture and Agri-Food Canada sworn in on March\u00a01,\u00a02019.Some sections of these materials have been redacted based on the. 10,9. 0,6. Primary Agriculture. 18,5. 1,1. Food and Beverage Processing. 1941. 1951. 1956. 1961. 1966.",
            "fr": "Formats de rechange. Table de mati\u00e8res. 4.3.5. March\u00e9 de St. 6.3.1.6. Valeur des importations de pommes de terre fra\u00eeches par pays (dollars canadiens). 6.3.1.7. Volume des importations de pommes de terre fra\u00eeches par pays (tonnes). 6.3.2. Pommes de terre de semence."
        },
        "language": {
            "en": "eng",
            "fr": "fra"
        },
        "keywords": {
            "en": null,
            "fr": null
        },
        "audience": {
            "en": "gcaudience",
            "fr": "gcaudience"
        },
        "type": {
            "en": "geospatial material",
            "fr": "liste de r\u00e9f\u00e9rence"
        },
        "creator": {
            "en": "Agriculture and Agri-Food Canada;Government of Canada",
            "fr": "Agriculture et Agroalimentaire Canada;Gouvernement du Canada"
        },
        "spatial": {
            "en": "gcregions",
            "fr": "gcregions"
        },
        "service": {
            "en": "AAFC-AAC",
            "fr": "AAFC-AAC"
        },
        "accessRights": {
            "en": "2",
            "fr": "2"
        },
        "legalName": {
            "en": "agriculture_and_agri_food_canada",
            "fr": "agriculture_et_agroalimentaire_canada"
        },
        "areaServed": {
            "en": "Canada",
            "fr": "Canada"
        }
    },
    "css": {
        "fr": null
    },
    "js": {
        "en": null,
        "fr": null
    },
    "body": {
        "en": "<!-- D&eacute;but du contenu -->\r\n    <p><a href=\"?id=1605704761279\">Daily Wholesale Prices Reports</a>: Provides daily ranges of domestic and imported commodities offered for sale. All quoted price are supplied by a select surveyed group of wholesalers operating in that specific market. The price quoted represent the wholesalers 'asking price' to the retail level for a commodity and does not represent any arrangements or deals. The information provides for commodities, varieties, origins, pack weight or count and price range. If price quotations are required for official purposes, please <a href=\"?id=1605712335028\">contact Infohort</a>.</p>\n\n<p>Markets: Montreal,Toronto.</p>\n\n<p><a href=\"?id=1605705396951\">Weekly Wholesale Prices Reports</a>: Provides the weekly range of domestic and imported commodities offered for sale on Canadian markets. All quoted price are supplied by a select surveyed group of wholesalers operating in that specific market. The price quoted represent the wholesalers 'asking price' to the retail level for a commodity and does not represent any arrangements or deals. The information provides for commodities, varieties, origins, pack weight or count and price range. If price quotations are required for official purposes, please <a href=\"?id=1605712335028\">contact Infohort</a>.</p>\n\n<p>Markets: Calgary, Edmonton, Halifax, Moncton, Ottawa, Regina, St. John's, Saskatoon, Vancouver, Winnipeg.</p>\n\n<p><b>To receive e-mail notification to advise that the Toronto Wholesale Price Report is available on the Infohort website</b></p>\n\n<p>Send email to: <a href=\"mailto:toronto-subscribe-request@www.agr.gc.ca\">toronto-subscribe-request@www.agr.gc.ca</a> leaving the subject line and body blank</p>\n\n<p><b>To stop receiving e-mail notification of the Toronto Wholesale Price Report</b></p>\n\n<p>Send email to: <a href=\"mailto:toronto-unsubscribe-request@www.agr.gc.ca\">toronto-unsubscribe-request@www.agr.gc.ca</a> leaving the subject line and body blank</p>\n\n<p><b>To receive e-mail notification to advise that the Montreal Wholesale Price Report is available on the Infohort website</b></p>\n\n<p>Send email to: <a href=\"mailto:montreal-subscribe-request@www.agr.gc.ca\">montreal-subscribe-request@www.agr.gc.ca</a> leaving the subject line and body blank </p>\n\n<p><b>To stop receiving e-mail notification of the Montreal Wholesale Price Report</b></p>\n\n<p>Send email to: <a href=\"mailto:montreal-unsubscribe-request@www.agr.gc.ca\">montreal-unsubscribe-request@www.agr.gc.ca</a> leaving the subject line and body blank</p>\n\n\n\r\n    <!-- Fin du contenu -->",
        "fr": "\r\n    \r\n    <!-- MainContentStart -->\r\n    <!-- D&eacute;but du contenu -->\r\n    <p><a href=\"?id=1605704761279\">Rapports quotidiens des prix de gros</a>\u00a0: \u00c9ventails quotidiens des produits nationaux et des produits import\u00e9s mis en vente. Tous les prix propos\u00e9s sont fournis par un groupe choisi de grossistes ouvrant dans ce march\u00e9 sp\u00e9cifique. Ils correspondent au montant demand\u00e9 par les grossistes aux d\u00e9taillants pour un produit et ne d\u00e9coulent pas d'ententes ni se rattachent \u00e0 des transactions. Les renseignements portent sur les produits, les vari\u00e9t\u00e9s, les origines, le poids de l'emballage ou la quantit\u00e9 et la fourchette des prix. Pour obtenir des cotations de prix \u00e0 des fins officielles, veuillez <a href=\"?id=1605712335028\">contacter Infohort</a>.</p>\n\n<p>March\u00e9s\u00a0: Montr\u00e9al,Toronto.</p>\n\n<p><a href=\"?id=1605705396951\">Rapports hebdomadaires des prix de gros</a>\u00a0: \u00c9ventails hebdomadaires des produits nationaux et import\u00e9s mis en vente. Tous les prix propos\u00e9s sont fournis par un groupe choisi de grossistes ouvrant dans ce march\u00e9 sp\u00e9cifique. Ils correspondent au montant demand\u00e9 par les grossistes aux d\u00e9taillants pour un produit et ne d\u00e9coulent pas d'ententes ni se rattachent \u00e0 des transactions. Les renseignements portent sur les produits, les vari\u00e9t\u00e9s, les origines, le poids de l'emballage ou la quantit\u00e9 et la fourchette des prix. Pour obtenir des cotations de prix \u00e0 des fins officielles, veuillez <a href=\"?id=1605712335028\">contacter Infohort</a>.</p>\n\n<p>March\u00e9s\u00a0: Calgary, Edmonton, Halifax, Moncton, Ottawa, Regina, St. John's, Saskatoon, Vancouver, Winnipeg.</p>\n\n<p><b>Pour \u00eatre avis\u00e9 par courriel que le rapport des prix de gros pour le march\u00e9 de Toronto est disponible sur le site Web Infohort</b></p>\n\n<p>Envoyez un courriel pour\u00a0: <a href=\"mailto:toronto-subscribe-request@www.agr.gc.ca\">toronto-subscribe-request@www.agr.gc.ca</a>. N'\u00e9crivez rien dans l'objet et le corps du message.</p>\n\n<p><b>Pour cesser de recevoir les avis concernant le rapport des prix de gros pour le march\u00e9 de Toronto</b></p>\n\n<p>Envoyez un courriel pour\u00a0: <a href=\"mailto:toronto-unsubscribe-request@www.agr.gc.ca\">toronto-unsubscribe-request@www.agr.gc.ca</a>. N'\u00e9crivez rien dans l'objet et le corps du message.</p>\n\n<p><b>Pour \u00eatre avis\u00e9 par courriel que le rapport des prix de gros pour le march\u00e9 de Montr\u00e9al est disponible sur le site Web Infohort</b></p>\n\n<p>Envoyez un courriel pour\u00a0: <a href=\"mailto:montreal-subscribe-request@www.agr.gc.ca\">montreal-subscribe-request@www.agr.gc.ca</a>. N'\u00e9crivez rien dans l'objet et le corps du message.</p>\n\n<p><b>Pour cesser de recevoir les avis concernant le rapport des prix de gros pour le march\u00e9 de Montr\u00e9al</b></p>\n\n<p>Envoyez un courriel pour\u00a0: <a href=\"mailto:montreal-unsubscribe-request@www.agr.gc.ca\">montreal-unsubscribe-request@www.agr.gc.ca</a>. N'\u00e9crivez rien dans l'objet et le corps du message.</p>\n\n\r\n    <!-- Fin du contenu -->\r\n\t\r\n\t\r\n\t\r\n  "
    }
}