{
    "dcr_id": "1384971854399",
    "title": {
        "en": "Condemnation reports",
        "fr": "Rapports de condamnation"
    },
    "modified": "2020-01-10",
    "issued": "2011-01-30",
    "templatetype": "content page 1 column",
    "page_type": "1",
    "node_id": "1384971799959",
    "dc_date_created": "2011-01-30",
    "managing_branch": "MISB",
    "parent_node_id": "1354137773899",
    "label": {
        "en": "Condemnations",
        "fr": "Condamnations"
    },
    "exturl": "",
    "teamsite_location": {
        "en": "/default/main/AAFC-AAC/Internet-Internet/MISB-DGSIM/SDAD-DDAS/PE-VO/WORKAREA/PE-VO/templatedata/comm-comm/gene-gene/data/by_type_condemnations_1384971854399_en",
        "fr": "/default/main/AAFC-AAC/Internet-Internet/MISB-DGSIM/SDAD-DDAS/PE-VO/WORKAREA/PE-VO/templatedata/comm-comm/gene-gene/data/by_type_condemnations_1384971854399_fr"
    },
    "type_name": "sitemapinit",
    "has_dcr_id": true,
    "breadcrumb": {
        "en": "Condemnations",
        "fr": "Condamnations"
    },
    "layout_name": "content page 1 column",
    "lang": "en",
    "meta": {
        "issued": {
            "en": "2011-01-30",
            "fr": "2003-02-24"
        },
        "modified": {
            "en": "2020-01-10",
            "fr": "2020-01-10"
        },
        "format": {
            "en": "gcformat",
            "fr": "gcformat"
        },
        "title": {
            "en": "Condemnation reports",
            "fr": "Rapports de condamnation"
        },
        "subject": {
            "en": "architectural heritage;architecture;statistics",
            "fr": "\u0153uf;horticulture;m\u00e9dicament"
        },
        "description": {
            "en": "Canada's poultry and egg industry is mainly composed of the following sectors: chicken, ducks and geese, hatching eggs, table eggs, and turkey. Poultry and Egg Market Information \u2013 Canadian Industry provides weekly, monthly, and annual reports on: condemnations, egg production (processed and table eggs), hatcheries, imports and exports, inter-provincial movements, producer and retail prices, slaughter, storage stocks. Also includes product-based reports and information on chicken, ducks and geese, hatching eggs, table eggs, and turkey.",
            "fr": "L'industrie canadienne de la volaille et des oeufs comprend principalement les secteurs suivants : le poulet, le canard et l'oie, les oeufs d'incubation, les oeufs de consommation et le dindon. Information sur le march\u00e9 de la volaille et oeufs \u2013 Industrie canadienne Pr\u00e9sente des rapports hebdomadaires, mensuels et annuels sur les sujets suivants: condamnations, production d\u2019oeufs (oeufs transform\u00e9s et oeufs de consommation), couvoirs, importations / exportations, exp\u00e9ditions interprovinciales, producteurs et prix \u00e0 la consommation, abattages, stocks en entrep\u00f4t. Comprend \u00e9galement des rapports fond\u00e9s sur les produits ainsi que des renseignements sur le poulet, le canard et l'oie, les oeufs d'incubation, les oeufs de consommation et le dindon."
        },
        "language": {
            "en": "eng",
            "fr": "fra"
        },
        "keywords": {
            "en": "Turkey condemnations;Chicken condemnations",
            "fr": "Condamnations des dindons ;Condamnations des poulets"
        },
        "audience": {
            "en": "gcaudience",
            "fr": "gcaudience"
        },
        "type": {
            "en": "form",
            "fr": "mat\u00e9riel didactique"
        },
        "creator": {
            "en": "Market and Industry Services Branch;Agriculture and Agri-Food Canada;Government of Canada",
            "fr": "Direction g\u00e9n\u00e9rale des services \u00e0 l'industrie et aux march\u00e9s;Agriculture et Agroalimentaire Canada;Gouvernement du Canada"
        },
        "spatial": {
            "en": "gcregions",
            "fr": "gcregions"
        },
        "service": {
            "en": "AAFC-AAC",
            "fr": "AAFC-AAC"
        },
        "accessRights": {
            "en": "2",
            "fr": "2"
        },
        "legalName": {
            "en": "agriculture_and_agri_food_canada",
            "fr": "agriculture_et_agroalimentaire_canada"
        },
        "areaServed": {
            "en": "Canada",
            "fr": "Canada"
        }
    },
    "css": {
        "fr": null
    },
    "js": {
        "en": null,
        "fr": null
    },
    "body": {
        "en": "<!-- D&eacute;but du contenu -->\r\n    <!-- Start content -->             <!-- InstanceBeginEditable name=\"ContentTitle\" -->                     <!-- InstanceEndEditable --> <!-- InstanceBeginEditable name=\"Content\" -->                           \n<p>For any questions regarding the condemnations data, please contact: </p>\n<p>National Poultry Specialist <br>            \nMeat Programs Division<br>            \nCanadian Food Inspection Agency <br>            \n1400 Merivale Road,<br>            \nOttawa, Ontario<br>            \nK1A 0Y9 <br>          \nTelephone: 613-773-6186<br>            \nFacsimile:\u00a0 613-773-5692</p>                                   \n<p><b>Note:</b> Condemnation conditions for poultry changed in 2009.  </p>            \n<ul>              \n<li><a href=\"/eng/animal-industry/poultry-and-egg-market-information/condemnations/condemnation-conditions-list/?id=1384971854400\">Consolidation of condemnation conditions from 2008 to 2009</a></li>            \n</ul>                      \n\n<h2>Chicken condemnations </h2>          \n<ul>            \n<li><a href=\"http://aimis-simia.agr.gc.ca/rp/index-eng.cfm?menupos=1.01.04&amp;action=pR&amp;pdctc=&amp;r=133&amp;LANG=EN\" title=\"Link to report 050P\">Poultry Condemnation Report by Species</a> - <em>Monthly Report</em> (050P) <br>             \nReport displays poultry condemnations for selected species for a selected month or year.</li>          \n</ul>         \n\n<h2>Turkey condemnations</h2>          \n<ul>            \n<li><a href=\"http://aimis-simia.agr.gc.ca/rp/index-eng.cfm?menupos=1.01.04&amp;action=pR&amp;pdctc=&amp;r=133&amp;LANG=EN\" title=\"Link to report 050P\">Poultry Condemnation Report by Species</a> - <em>Monthly Report</em> (050P)  <br>\nReport displays poultry condemnations for selected species for a selected month or year.</li>            \n<li><a href=\"http://aimis-simia.agr.gc.ca/rp/index-eng.cfm?menupos=1.01.04&amp;pdctc=&amp;LANG=EN&amp;r=132&amp;action=pR\" title=\"Link to report 050B\">Turkey Condemnation Report by Weight Category</a> - <em>Monthly Report</em> (050B)<br>              \nReport displays turkey condemnations by weight category for a selected month or year.</li>          \n</ul> \n<h3>Raw data file</h3>\n<ul>\n<li><a href=\"https://aimis-simia.agr.gc.ca/rp/index-eng.cfm?action=pR&amp;r=278&amp;pdctc=\" title=\"Red Meat and Poultry Condemnation raw data file in CSV format\">Poultry and Red Meat Condemnations in Federally Registered Establishments raw data file (Report ADH-717)</a><br>\nThis file includes monthly condemnations data recorded by Canadian Food Inspection Agency inspectors in Federally registered establishments, by species and regions. This data covers the latest data from the current year and three years prior.<br>\n<a href=\"http://www.agr.gc.ca/eng/industry-markets-and-trade/canadian-agri-food-sector-intelligence/red-meat-and-livestock/red-meat-and-livestock-market-information/condemnations/condemnations-in-federally-inspected-establishments-raw-data-file-structure-and-explanation/?id=1578575055185\">Condemnations in federally inspected establishments raw data file structure and explanation</a></li>\n</ul>\n  \n<div class=\"clearfix\"></div>\n\n<div class=\"well\">\n<p>If you have any questions or require additional information, please send an e-mail to <a href=\"mailto:aafc.poultry-volaille.aac@canada.ca\" title=\"Email: Animal Industry Division - Market Information Section\"> aafc.poultry-volaille.aac@canada.ca </a></p>\n\n<h2>Our service standards</h2>\n<p>Service standards play a vital role in our market information program\u2019s commitment to planning, reporting and performance management. \nThey clearly define the level of service that clients can expect under normal circumstances.</p>\n\n<p>View the <a href=\"http://www.agr.gc.ca/eng/industry-markets-and-trade/statistics-and-market-information/by-product-sector/poultry-and-eggs/service-standards-for-poultry-and-egg-market-information/?id=1481029938239\" title=\"Service standards for poultry reports\">Service standards for poultry reports.</a></p>\n</div>\n<div class=\"clearfix\"></div>\n\n\n       <!-- InstanceEndEditable -->             <!-- End content -->\n\r\n    <!-- Fin du contenu -->",
        "fr": "\r\n    \r\n    <!-- MainContentStart -->\r\n    <!-- D&eacute;but du contenu -->\r\n    <!-- D&eacute;but du contenu -->             <!-- InstanceBeginEditable name=\"ContentTitle\" -->                    <!-- InstanceEndEditable --> <!-- InstanceBeginEditable name=\"Content\" -->                             \n<p>Pour toute question au sujet des donn\u00e9es sur les condamnations, veuillez communiquer avec : </p>                            \n<p>Sp\u00e9cialiste national de la volaille <br>          \nDivision des programmes des viandes<br>          \nAgence canadienne d'inspection des aliments<br>          \n1400 Chemin Merivale, <br>          \nOttawa (Ontario) <br>          \nK1A 0Y9 <br>                          \nT\u00e9l\u00e9phone : 613-773-6186<br>         \nT\u00e9l\u00e9copieur : 613-773-5692</p>           \n\n<p><b>Note:</b> Les conditions utilis\u00e9es pour les condamnations ont chang\u00e9es en 2009. </p>            \n<ul>              \n<li><a href=\"/fra/production-animale/information-sur-le-marche-de-la-volaille-et-des-oeufs/condamnations/liste-des-conditions-de-condamnation/?id=1384971854400\">Consolidation des conditions de condamnation entre 2008 et 2009</a></li>            \n</ul>                  \n <h2>Condamnations des poulets</h2>          \n<ul>            \n<li><a href=\"http://aimis-simia.agr.gc.ca/rp/index-fra.cfm?action=pR&amp;r=633&amp;pdctc=\">Rapport de condamnation de volaille par esp\u00e8ce</a> - <em>rapport mensuel</em> (050P)   <br>           \nCe rapport affiche les condamnations de volailles pour un type d'esp\u00e8ce s\u00e9lectionn\u00e9 pour un mois ou une ann\u00e9e s\u00e9lectionn\u00e9.</li>          \n</ul> \n<h2>Condamnations des dindons </h2>          \n<ul>            \n<li><a href=\"http://aimis-simia.agr.gc.ca/rp/index-fra.cfm?action=pR&amp;r=633&amp;pdctc=\">Rapport de condamnation de volaille par esp\u00e8ce</a> - <em>rapport mensuel</em> (050P)<br>\nCe rapport affiche les condamnations de volailles pour un type d'esp\u00e8ce s\u00e9lectionn\u00e9 pour un mois ou une ann\u00e9e s\u00e9lectionn\u00e9.</li>            \n<li><a href=\"http://aimis-simia.agr.gc.ca/rp/index-fra.cfm?action=pR&amp;r=632&amp;pdctc=\">Rapport de condamnation de dindon par cat\u00e9gorie de poids</a>- <em>rapport mensuel</em> (050B)<br>\nCe rapport affiche les condamnations de dindons par cat\u00e9gorie de poids pour un   mois ou une ann\u00e9e s\u00e9lectionn\u00e9.           </li>          \n</ul>   \n\n<h3>Fichier de donn\u00e9es brutes</h3>\n<ul>\n<li><a href=\"https://aimis-simia.agr.gc.ca/rp/index-fra.cfm?action=pR&amp;r=778&amp;pdctc=\" title=\"Fichier de donn\u00e9es brutes pour les Condamnations de la volaille et du b\u00e9tail dans les \u00e9tablissements sous inspection f\u00e9d\u00e9rale en format CSV\">Condamnations de la volaille et du b\u00e9tail dans les \u00e9tablissements sous inspection f\u00e9d\u00e9rale (Raport ADH-717)</a><br>\nLe fichier comprend les condamnations mensuelles enregistr\u00e9es par les inspecteurs de l'Agence canadienne d'inspection des aliments dans les \u00e9tablissements sous inspection f\u00e9d\u00e9rales selon l'esp\u00e8ce et la r\u00e9gion. Le fichier comprend les donn\u00e9es de l'ann\u00e9e en cours ainsi que celles des trois derni\u00e8res ann\u00e9es.\n<a href=\"http://www.agr.gc.ca/fra/industrie-marches-et-commerce/renseignements-sur-les-secteurs-canadiens-de-l-agroalimentaire/viande-rouge-et-betail/information-sur-le-marche-des-viandes-rouges/condamnations/structure-et-explication-du-fichier-de-donnees-brutes-incluant-les-condamnations-dans-les-etablissements-sous-inspection-federale/?id=1578575055185\">Explication du fichier de donn\u00e9es brutes incluant les condamnations dans les \u00e9tablissements sous inspection f\u00e9d\u00e9rale</a></li>\n</ul>\n       \n<div class=\"clearfix\"></div>\n\n<div class=\"well\">\n<p>Pour toute question ou information additionnelle, veuillez communiquer avec nous par courriel \u00e0 <a href=\"mailto:aafc.poultry-volaille.aac@canada.ca\" title=\"Courriel : Division de l'industrie animale, Section de l'information sur les march\u00e9s\"> aafc.poultry-volaille.aac@canada.ca</a></p>\n\n<h2>Nos normes de service</h2>\n<p>Les normes de service jouent un r\u00f4le cl\u00e9 dans les processus de gestion de la planification, des rapports et du rendement de notre programme d'information sur le march\u00e9. Elles d\u00e9finissent clairement le niveau de rendement auquel les clients peuvent s'attendre lorsqu'ils re\u00e7oivent un service dans des circonstances normales.</p>\n\n<p>Visionnez les  <a href=\"http://www.agr.gc.ca/fra/industrie-marches-et-commerce/statistiques-et-information-sur-les-marches/par-produit-secteur/volaille-et-oeufs/normes-de-service-pour-l-information-sur-le-marche-de-la-volaille-et-des-ufs/?id=1481029938239\" title=\"Normes de service relatives aux rapports sur la volaille\">Normes de service relatives aux rapports sur la volaille.</a></p>\n</div>\n<div class=\"clearfix\"></div>\n\n\n\n\n<!-- InstanceEndEditable -->             <!-- Fin du contenu -->\n\r\n    <!-- Fin du contenu -->\r\n\t\r\n\t\r\n\t\r\n  "
    }
}