{
    "dcr_id": "1385752573698",
    "title": {
        "en": "Agri-Subcommittee on Food Safety",
        "fr": "Sous-comit\u00e9 sur la salubrit\u00e9 des aliments de l'agriculture et de l'agroalimentaire"
    },
    "modified": "2019-10-03",
    "issued": "2010-10-21",
    "templatetype": "content page 1 column",
    "page_type": "1",
    "node_id": "1384803502552",
    "dc_date_created": "2010-10-21",
    "managing_branch": "MISB",
    "parent_node_id": "1384803392547",
    "label": {
        "en": "Agri-Subcommittee on Food Safety",
        "fr": "Sous-comit\u00e9 sur la salubrit\u00e9 des aliments de l'agriculture et de l'agroalimentaire"
    },
    "exturl": "",
    "teamsite_location": {
        "en": "/default/main/AAFC-AAC/Internet-Internet/MISB-DGSIM/VCR-TCV/WORKAREA/VCR-TCV/templatedata/comm-comm/gene-gene/data/agri-subcommittee_index_1385752573698_en",
        "fr": "/default/main/AAFC-AAC/Internet-Internet/MISB-DGSIM/VCR-TCV/WORKAREA/VCR-TCV/templatedata/comm-comm/gene-gene/data/agri-subcommittee_index_1385752573698_fr"
    },
    "type_name": "sitemapinit",
    "has_dcr_id": true,
    "breadcrumb": {
        "en": "Agri-Subcommittee on Food Safety",
        "fr": "Sous-comit\u00e9 sur la salubrit\u00e9 des aliments de l'agriculture et de l'agroalimentaire"
    },
    "layout_name": "content page 1 column",
    "lang": "en",
    "meta": {
        "issued": {
            "en": "2010-10-21",
            "fr": "2010-10-21"
        },
        "modified": {
            "en": "2019-10-03",
            "fr": "2019-10-03"
        },
        "format": {
            "en": "gcformat",
            "fr": "gcformat"
        },
        "title": {
            "en": "Agri-Subcommittee on Food Safety",
            "fr": "Sous-comit\u00e9 sur la salubrit\u00e9 des aliments de l'agriculture et de l'agroalimentaire"
        },
        "subject": {
            "en": "media",
            "fr": "m\u00e9dia"
        },
        "description": {
            "en": "Agriculture and Agri-Food Canada has collaborated with industry representatives to establish the Agri-Subcommittee on Food Safety, which includes members from the Canadian Food Inspection Agency, Health Canada, and the Public Health Agency of Canada. The purpose of the subcommittee is to strengthen relationships among all federal food safety partners and the food industry to ensure a common understanding of the roles and responsibilities of all partners, and to contribute to the continuous improvement of food safety policies and standards. ",
            "fr": "Agriculture et Agroalimentaire Canada a collabor\u00e9 avec des repr\u00e9sentants du secteur pour \u00e9tablir le Sous-comit\u00e9 sur la salubrit\u00e9 des aliments de l'agriculture et de l'agroalimentaire, un organe compos\u00e9 de membres de l'Agence canadienne d'inspection des aliments, de Sant\u00e9 Canada et de l'Agence de la sant\u00e9 publique du Canada. Le mandat du Sous-comit\u00e9 consiste \u00e0 resserrer les liens entre les partenaires f\u00e9d\u00e9raux du domaine de la salubrit\u00e9 des aliments et l'industrie alimentaire afin d'assurer une compr\u00e9hension commune des r\u00f4les et responsabilit\u00e9s de tous les partenaires et de contribuer \u00e0 l'am\u00e9lioration continue des politiques et des normes en mati\u00e8re de salubrit\u00e9 des aliments."
        },
        "language": {
            "en": "eng",
            "fr": "fra"
        },
        "keywords": {
            "en": " health; food safety; sectors; roundtables;value chain",
            "fr": " sant\u00e9; salubrit\u00e9 des aliments; secteurs; tables rondes;cha\u00eenes de valeur"
        },
        "audience": {
            "en": "gcaudience",
            "fr": "gcaudience"
        },
        "type": {
            "en": "transcript",
            "fr": "transcription"
        },
        "creator": {
            "en": "Agriculture and Food Trade Commissioner Service;Branding Strategy;International Markets Bureau;Market and Industry Services Branch;Agriculture and Agri-Food Canada;Government of Canada",
            "fr": "Service des d\u00e9l\u00e9gu\u00e9s commerciaux du secteur agroalimentaire;Strat\u00e9gie de promotion de l'image de marque;Bureau des march\u00e9s internationaux;Direction g\u00e9n\u00e9rale des services \u00e0 l'industrie et aux march\u00e9s;Agriculture et Agroalimentaire Canada;Gouvernement du Canada"
        },
        "spatial": {
            "en": "gcregions",
            "fr": "gcregions"
        },
        "service": {
            "en": "AAFC-AAC",
            "fr": "AAFC-AAC"
        },
        "accessRights": {
            "en": "2",
            "fr": "2"
        },
        "legalName": {
            "en": "agriculture_and_agri_food_canada",
            "fr": "agriculture_et_agroalimentaire_canada"
        },
        "areaServed": {
            "en": "Canada",
            "fr": "Canada"
        }
    },
    "css": {
        "fr": null
    },
    "js": {
        "en": null,
        "fr": null
    },
    "body": {
        "en": "<!-- D&eacute;but du contenu -->\r\n    <p><a href=\"#roundtable\">Learn more about each  roundtable</a></p>\n<p>The Agri-Subcommittee on Food Safety is made up of industry representatives and four federal departments/agencies that have a role in food  safety: Agriculture and  Agri-Food Canada, the Canadian Food Inspection Agency, Health Canada, and the  Public Health Agency of Canada.</p>\n\n<p>Key objectives:</p>\n\n<ul>\n<li>strengthening relationships among all federal food safety partners and the food industry</li>\n<li>ensuring a common understanding of the roles and responsibilities of all partners</li>\n<li>contributing to the continuous improvement of food safety policies and standards</li>\n</ul>\n\n<h2>Contact us</h2>\n\n<p>If you have any questions or would like more information,  please email us at <a href=\"mailto:aafc.roundtable-tableronde.aac@canada.ca\">aafc.roundtable-tableronde.aac@canada.ca</a>.</p>\n\n<h2>Upcoming meeting</h2>\n\n<p>The next Roundtable meeting will take place in 2020.</p>\n\n<h2>Meeting summary</h2>\n\n<ul>\n<li><a href=\"?id=1569615088461\">May 10, 2019</a></li>  \n<li><a href=\"?id=1545938428983\">November 6, 2018</a></li>\n<li><a href=\"?id=1536237294651\">May 7, 2018</a></li>\n</ul>\n\n<h2>Members</h2>\n\n<h3>Co-chairs</h3>\n\n<ul>\n  <li>Dennis Laycraft \u2013 Canadian Cattlemen's Association</li>\n  <li>Rosser Lloyd \u2013 Agriculture and Agri-Food Canada</li>\n</ul>\n \n<h3>Industry</h3>\n\n<ul>\n<li>Albert Chambers \u2013 Canadian Supply Chain Food Safety Coalition</li>\n<li>Angie Siemens \u2013 Cargill Ltd.</li>\n<li>Jill Tabatt \u2013 Cargill Ltd.</li>\n<li>Mary DeSouza / George Patterson \u2013 Food Processors of Canada</li>\n<li>Connie Kehler \u2013 Saskatchewan Herb and Spice Association</li>\n<li>Gordon Harrison \u2013 Canadian National Millers Association</li>\n<li>Heather Gale \u2013 CanadaGAP Program</li>\n<li>Jackie Crichton \u2013 Dairy Processors Association of  Canada </li>\n<li>Paul Harrington  \u2013 Fisheries Council of Canada</li>\n<li>Pierre Petelle \u2013 CropLife Canada</li>\n<li>Pamela Harrod \u2013 Dairy Farmers of Canada</li>\n<li>Sharon Mohammed \u2013 Maple Leaf Foods Inc</li>\n</ul>\n  \n  <h3>Federal government</h3>\n  <ul>\n  <li>vacant \u2013 Canadian Food Inspection Agency</li>\n  <li>Mark Samadhin \u2013 Public Health Agency of Canada</li>\n  <li>Adam Arsenault \u2013 Agriculture and Agri-Food Canada</li>\n  <li>Laura Anderson \u2013 Canadian Grain Commission</li>\n  <li>Karen McIntyre \u2013 Health Canada </li>\n</ul>\n\n<h2 id=\"roundtable\">Learn more about each roundtable:</h2> \n\n<ul> \n <li><a href=\"?id=1385752573698\">Agri-Subcommittee on Food Safety</a></li> \n <li><a href=\"?id=1385491202669\">All Chairs Forum</a></li> \n <li><a href=\"?id=1409832956249\">Bee Health</a></li> \n <li><a href=\"?id=1385491900787\">Beef</a></li> \n <li><a href=\"?id=1385742632592\">Food Processing</a></li> \n <li><a href=\"?id=1385582114523\">Grains</a></li> \n <li><a href=\"?id=1385585397604\">Horticulture</a></li>\n <li><a href=\"?id=1385568234264\">Industrial Bioproducts</a></li>\n <li><a href=\"?id=1481809401467\">Neonicotinoids</a></li> \n <li><a href=\"?id=1385666883750\">Organics</a></li> \n <li><a href=\"?id=1385740744721\">Pork</a></li> \n <li><a href=\"?id=1492806638190\">Poultry</a></li> \n <li><a href=\"?id=1385733134280\">Pulses</a></li>\n <li><a href=\"?id=1385755866700\">Seafood</a></li> \n <li><a href=\"?id=1385757253931\">Seed</a></li> \n <li><a href=\"?id=1385758986961\">Sheep</a></li> \n <li><a href=\"?id=1385995694580\">Special Crops</a></li> \n</ul> \n\n \n\r\n    <!-- Fin du contenu -->",
        "fr": "\r\n    \r\n    <!-- MainContentStart -->\r\n    <!-- D&eacute;but du contenu -->\r\n     <p><a href=\"#roundtable\">Apprenez-en plus sur chaque table ronde</a></p>\n \n<p>Le Sous-comit\u00e9 sur la salubrit\u00e9 des aliments de l'agriculture et de  l'agroalimentaire est compos\u00e9 de repr\u00e9sentants de l'industrie et des quatre  minist\u00e8res et organismes du gouvernement f\u00e9d\u00e9ral qui ont un r\u00f4le \u00e0 jouer pour assurer la salubrit\u00e9 des aliments\u00a0: Agriculture et Agroalimentaire Canada, l'Agence canadienne d'inspection des aliments, Sant\u00e9 Canada et l'Agence de la  sant\u00e9 publique du Canada.</p>\n\n<p>Objectifs cl\u00e9s\u00a0:</p>\n\n<ul>\n  <li>resserrer les relations entre, d'une part, les partenaires f\u00e9d\u00e9raux responsables de la salubrit\u00e9 des aliments et, d'autre part, l'industrie alimentaire</li>\n  <li>parvenir \u00e0 une compr\u00e9hension commune des r\u00f4les et des responsabilit\u00e9s de tous les partenaires</li>\n  <li>contribuer \u00e0 l'am\u00e9lioration constante des politiques et des normes de salubrit\u00e9 des aliments</li>\n</ul>\n\n<h2>Contactez-nous</h2>\n\n<p>Si vous avez des questions ou voulez en savoir plus,  veuillez nous envoyer un courriel \u00e0 <a href=\"mailto:aafc.roundtable-tableronde.aac@canada.ca\">aafc.roundtable-tableronde.aac@canada.ca</a>.</p>\n\n<h2>Prochaine r\u00e9union</h2>\n\n<p>La prochaine r\u00e9union de la Table ronde sur la  cha\u00eene de valeur aura lieu en 2020.</p>\n\n<h2>R\u00e9sum\u00e9 des r\u00e9unions</h2>\n\n<ul>\n<li><a href=\"?id=1569615088461\">10 mai 2019</a></li>  \n  <li><a href=\"?id=1545938428983\">6 novembre 2018</a></li>\n  <li><a href=\"?id=1536237294651\">7 mai 2018</a></li>\n</ul>\n\n<h2>Membres</h2>\n<h3>Copr\u00e9sidents</h3>\n<ul>\n<li>Dennis Laycraft \u2013 Canadian Cattlemen's Association</li>\n<li>Rosser Lloyd \u2013 Agriculture et Agroalimentaire Canada</li>\n</ul>\n\n<h3>Industrie</h3>\n  <ul>\n  <li>Albert Chambers \u2013 Coalition canadienne de la fili\u00e8re alimentaire pour la salubrit\u00e9 des aliments</li>\n<li>Angie Siemens \u2013 Cargill Ltd.</li>\n<li>Jill Tabatt \u2013 Cargill Ltd.</li>\n<li>Mary DeSouza/George Patterson \u2013 Fabricants de produits alimentaires du Canada</li>\n<li>Connie Kehler \u2013 <i>Saskatchewan Herb and Spice Association</i></li>\n<li>Gordon Harrison \u2013 Association canadienne des minoteries de farine de bl\u00e9</li>\n<li>Heather Gale \u2013 Programme CanadaGAP</li>\n<li>Jackie Crichton \u2013 Association des transformateurs laitiers du Canada</li>\n<li>Paul Harrington \u2013 Conseil canadien des p\u00eaches</li>\n<li>Pierre Petelle \u2013 CropLife Canada</li>\n<li>Pamela Harrod \u2013 Producteurs laitiers du Canada</li>\n<li>Sharon Mohammed \u2013 Les Aliments Maple Leaf Inc.</li>\n</ul>\n\n  <h3>Gouvernement f\u00e9d\u00e9ral</h3>\n  <ul>\n<li>vacant \u2013 Agence canadienne d'inspection des aliments</li>\n<li>Mark Samadhin \u2013 Agence de la sant\u00e9 publique du Canada</li>\n<li>Adam Arsenault \u2013 Agriculture et Agroalimentaire Canada</li>\n<li>Laura Anderson \u2013 Commission canadienne des grains</li>\n<li>Karen McIntyre \u2013 Sant\u00e9 Canada</li>\n</ul>\n \n<h2 id=\"roundtable\">Apprenez-en plus sur chaque table ronde\u00a0:</h2> \n\n<ul> \n <li><a href=\"?id=1385568234264\">Bioproduits industriels</a></li> \n <li><a href=\"?id=1385491900787\">B\u0153uf</a></li> \n <li><a href=\"?id=1385995694580\">Cultures sp\u00e9ciales</a></li> \n <li><a href=\"?id=1385582114523\">Grains</a></li> \n <li><a href=\"?id=1385585397604\">Horticulture</a></li> \n <li><a href=\"?id=1385733134280\">L\u00e9gumineuses</a></li> \n <li><a href=\"?id=1481809401467\">N\u00e9onicotino\u00efdes</a></li> \n <li><a href=\"?id=1385758986961\">Ovin</a></li> \n <li><a href=\"?id=1385740744721\">Porc</a></li> \n <li><a href=\"?id=1385666883750\">Produits biologiques</a></li> \n <li><a href=\"?id=1385755866700\">Produits de la mer</a></li> \n <li><a href=\"?id=1409832956249\">Sant\u00e9 des abeilles</a></li> \n <li><a href=\"?id=1385757253931\">Semences</a></li> \n <li><a href=\"?id=1385752573698\">Sous-comit\u00e9 sur la salubrit\u00e9 des aliments de l'agriculture et de l'agroalimentaire</a></li> \n <li><a href=\"?id=1385742632592\">Transformation des aliments</a></li> \n <li><a href=\"?id=1385491202669\">Tribune de tous les pr\u00e9sidents</a></li> \n <li><a href=\"?id=1492806638190\">Volaille</a></li> \n</ul> \n\n\r\n    <!-- Fin du contenu -->\r\n\t\r\n\t\r\n\t\r\n  "
    }
}