{
    "dcr_id": "1371508979896",
    "title": {
        "en": "Groundwater quality",
        "fr": "Qualit\u00e9 de l\u2019eau souterraine"
    },
    "modified": "2020-01-24",
    "issued": "2014-07-18",
    "templatetype": "content page 1 column",
    "page_type": "1",
    "node_id": "1400189484600",
    "dc_date_created": "2014-07-18",
    "managing_branch": "PAB",
    "parent_node_id": "1354137773764",
    "label": {
        "en": "Groundwater Quality",
        "fr": "Qualit\u00e9 de l'eau souterraine"
    },
    "exturl": "",
    "teamsite_location": {
        "en": "/default/main/AAFC-AAC/Internet-Internet/Common-Commun/WORKAREA/Common-Commun/templatedata/comm-comm/gene-gene/data/06/water-eau_wells_grdwtr_quality_1371508979896_en",
        "fr": "/default/main/AAFC-AAC/Internet-Internet/Common-Commun/WORKAREA/Common-Commun/templatedata/comm-comm/gene-gene/data/06/water-eau_wells_grdwtr_quality_1371508979896_fr"
    },
    "type_name": "sitemapinit",
    "has_dcr_id": true,
    "breadcrumb": {
        "en": "Groundwater Quality",
        "fr": "Qualit\u00e9 de l'eau souterraine"
    },
    "layout_name": "content page 1 column",
    "lang": "en",
    "meta": {
        "issued": {
            "en": "2014-07-18",
            "fr": "2014-07-18"
        },
        "modified": {
            "en": "2020-01-24",
            "fr": "2020-01-24"
        },
        "format": {
            "en": "text/html",
            "fr": "text/html"
        },
        "title": {
            "en": "Groundwater quality",
            "fr": "Qualit\u00e9 de l\u2019eau souterraine"
        },
        "subject": {
            "en": "water management;groundwater",
            "fr": "gestion de l'eau;eau souterraine"
        },
        "description": {
            "en": "On this page: Water Quality Testing Water Quality Standards Measurement and Reporting Physical and Chemical Bacteriological characteristics analysis Additional Monitoring Water Quality Testing It is highly recommended that bacteriological analysis and chemical analysis should be performed whenever a new water source is constructed or when purchasing a new rural residence with a private water supply.",
            "fr": "Sur cette page : Analyse de la qualit\u00e9 de l'eau Recommandations et normes concernant la qualit\u00e9 de l'eau Mesure du rendement et rapports Caract\u00e9ristiques physiques et chimiques Analyse des caract\u00e9ristiques bact\u00e9riologiques Surveillance suppl\u00e9mentaire Analyse de la qualit\u00e9 de l'eau On recommande fortement d'effectuer des analyses bact\u00e9riologiques et chimiques lorsqu'une nouvelle source d'eau est construite ou lorsque l'on ach\u00e8te une nouvelle r\u00e9sidence rurale avec une r\u00e9serve d'eau priv\u00e9e."
        },
        "language": {
            "en": "eng",
            "fr": "fra"
        },
        "keywords": {
            "en": "bacteriological analysis;total dissolved solids;livestock irrigation dairy food processing;domestic use;water quality",
            "fr": "minist\u00e8re de la sant\u00e9;qualit\u00e9 de l'eau potable;environnement local;eau souterraine;qualit\u00e9 de l'eau"
        },
        "audience": {
            "en": "gcaudience",
            "fr": "gcaudience"
        },
        "type": {
            "en": "resource list",
            "fr": "fiche de renseignements"
        },
        "creator": {
            "en": "Agriculture and Agri-Food Canada;Government of Canada",
            "fr": "Agriculture et Agroalimentaire Canada;Gouvernement du Canada"
        },
        "spatial": {
            "en": "gcregions",
            "fr": "gcregions"
        },
        "service": {
            "en": "AAFC-AAC",
            "fr": "AAFC-AAC"
        },
        "accessRights": {
            "en": "2",
            "fr": "2"
        },
        "legalName": {
            "en": "agriculture_and_agri_food_canada",
            "fr": "agriculture_et_agroalimentaire_canada"
        },
        "areaServed": {
            "en": "Canada",
            "fr": "Canada"
        }
    },
    "css": {
        "fr": null
    },
    "js": {
        "en": null,
        "fr": null
    },
    "body": {
        "en": "<!-- D&eacute;but du contenu -->\r\n    <p>Generally when it is said that groundwater is of good quality, it is considered to be safe for human and animal consumption, taste good, has no colour or odour and is not chemically \"very hard\" (very high concentrations of calcium and magnesium).</p>\n\n<p>Water quality testing will determine the health and safety of a water supply and the results will reflect the quality of the natural environment within the capture zone of the water well and may be reflective of land use in the immediate vicinity of the source.</p>\n<p>Groundwater acquires the water quality characteristics of the geological materials it passes through, by dissolving chemical constituents (iron, manganese, calcium, magnesium, sulphate, nitrate, arsenic, <abbr title=\"and others\">etc.</abbr>). To ensure water is safe for use, water quality tests generally assess the following:</p>\n\n<ul>\n<li>Physical Characteristics (colour, pH, sediment)</li>\n<li>Chemical Characteristics (iron, arsenic, calcium, magnesium)</li>\n<li>Biological Characteristics (bacteria, parasites, viruses)</li>\n<li>Radiological Characteristics (uranium, radon)</li>\n</ul>\n\n<p>Rural water well owners must accept the responsibility of monitoring the quality of water and maintaining the integrity of their well and distribution systems. Agricultural producers should ensure the water quality is safe for its intended use (livestock, irrigation, dairy, food processing, domestic use). Local health departments can assist in selecting tests important for assessing a domestic water supply.</p>\n\n<p><b>On this page:</b></p>\n\n<nav>\n<ul>\n<li><a href=\"#a1\">Water quality testing</a></li>\n<li><a href=\"#a2\">Water quality guidelines and standards</a></li>\n<li><a href=\"#a3\">Measurement and reporting</a></li>\n<li><a href=\"#a4\">Physical and chemical characteristics</a></li>\n<li><a href=\"#a5\">Bacteriological characteristics</a></li>\n<li><a href=\"#a6\">Additional monitoring</a></li>\n</ul>\n</nav>\n\n \n<h2 id=\"a1\">Water quality testing</h2>\n\n<p>It is highly recommended that bacteriological analysis and chemical analysis should be performed whenever a new water source is constructed or when purchasing a new rural residence with a private water supply. These tests should also be performed before and after any well restoration work or when a change in water quality is noted. However, a single water sample often does not provide enough evidence that a water supply is safe from contamination.</p>\n\n<p>Groundwater quality must be tested regularly, as water quality varies over time. Ideally, rural agricultural wells should be tested in the spring and fall, after a major weather event or after alterations to the well or distribution system to ensure the water is safe for its intended use (livestock, irrigation, dairy, food processing, domestic use). For rural water wells that are not under the direct influence of surface water, it is important to consult with your local health or environment department for further guidance to develop a sampling regime for bacteriological analysis and routine chemical analysis specific to the intended use of your groundwater supply.</p>\n \n<h2 id=\"a2\">Water quality guidelines and standards</h2>\n\n<p>Water quality standards for drinking water vary from country to country. In Canada, the Canadian Council of the Ministers of the Environment (federal and provincial) establish the Canadian Environmental Quality Guidelines for the protection of agriculture, aquatic life, environmental resources (water, soil), and the protection of human health.  Health Canada, working with provinces and territories, establish the Guidelines for Canadian Drinking Water Quality (GCDWQ).  Provincial governments establish guidelines and/or regulations for public and private drinking water supplies.  The GCDWQ are determined based upon an estimate of the concentration of a constituent that a person could ingest safely over a lifetime, based upon available toxicological information and allowance for a considerable safety margin.</p>\n\n<p>Water quality is important for many agricultural water uses including food processing, dairy and milk production, livestock watering, irrigation, wash water, heating, animal misting and pesticide application. Federal and provincial water quality guidelines provide information on the water quality required for specific agricultural uses. Many commercial laboratories offer test packages that are tailored to a particular agricultural application.</p>\n\n<p>The <a href=\"http://www.agric.gov.ab.ca/app84/rwqit\">Rural Water Quality Information Tool</a> developed by Alberta and Canada is an online tool to assist in the assessment of the quality and suitability of raw water sources for privately owned and operated rural and agricultural water supplies. </p>\n \n<h2 id=\"a3\">Measurement and reporting</h2>\n\n<p>When you have your water tested, the laboratory will provide you with the concentrations of the parameters (mostly dissolved minerals) that were analyzed. Concentrations will generally be shown in:</p>\n\n<p>mg/L = milligrams per litre or parts per million (ppm)</p>\n\n<p>Sometimes smaller concentrations are reported in:</p>\n\n<p>\u00b5g/L = micrograms per litre or parts per billion (ppb)</p>\n\n<p>Parameter specific maximum numbers are based upon Canada's GCDWQ and provincial regulations and guidelines.  Maximum Acceptable Concentrations (MAC) are related to health and safety and Aesthetic Objective (AO) guideline numbers indicate desirable levels of odour, taste or colour. The laboratory report may also indicate parameters that are either not detected or are below a detectible limit.</p>\n\n<p>If you have your water tested for microbial indicators you should discuss the results with a public health official to better understand the process, the results of the test, and any potential implications.</p>\n \n<h2 id=\"a4\">Physical and chemical characteristics</h2>\n\n<p>Physical characteristics of water may be assessed in a laboratory analysis; however, these are best determined at source.  A change in taste, colour, turbidity or odour from a groundwater source can indicate that contamination of the supply is occurring or that nuisance bacteria such as iron-related or sulphate-reducing bacteria are present.</p>\n\n<p>A routine water quality analysis of groundwater for domestic use generally measures the concentration of the main chemical constituents and is reported as total dissolved solids (TDS). Some of the commonly tested parameters include calcium, chloride, iron, manganese, fluoride, magnesium, nitrate, sodium and sulphate. Provincial agencies provided recommended acceptable concentrations of these various parameters.</p>\n\n<p>Some water quality parameters of concern for human health, if the recommended limit is exceeded, include nitrates, arsenic, selenium, sulphate and sodium.</p>\n\n<ul>\n<li>The Health Canada guideline for nitrate + nitrite is 45\u00a0mg/L as Nitrate) or 10\u00a0mg/L Nitrogen as nitrate. The Maximum Allowable Concentration for nitrate has been established to protect the most vulnerable consumers, who are infants under six months of age or adults with abnormal stomach enzymes, from developing methemoglobinemia.</li>\n<li>Arsenic MAC guidelines are under constant review and have been lowered to 0.010\u00a0mg/L and possibly to 0.005\u00a0mg/L in the future. Toxic effects include skin lesions, nervous system disorders and cancer.</li>\n<li>Selenium toxicity may result in health effects to internal organs and the nervous and circulatory systems.</li>\n<li>Fluoride between 1.0\u00a0and 1.5\u00a0mg/L can be beneficial for the prevention of tooth decay however above this amount there is the tendency to cause tooth mottling and excessive amounts may lead to skeletal damage.</li>\n<li>Sulphate concentrations in excess of the recommended guideline may have a laxative effect on new users and high levels of sodium may be a concern to people suffering from hypertension.</li>\n</ul>\n\n<p>For the remaining parameters, which have recommended guidelines, excess concentrations may lead to staining, taste, odour, scaling or other problems, but generally will have no effect on user health.</p>\n \n<h2 id=\"a5\">Bacteriological characteristics</h2>\n\n \n<h3>Coliforms</h3>\n\n<p>Coliform bacteria are a frequently tested parameter.  The Total Coliform test, if positive, indicates the possible presence of pathogenic organisms in the groundwater. This may also show that surface water is entering the well, because these organisms are also present on vegetation and in the soil.</p>\n\n<p>Most coliform bacteria do not cause disease, but are used as an indicator organism to indicate the potential presence of disease-causing micro-organisms in the water. The absence of coliform in the sample leads to the assumption that the water is microbiologically safe to drink.  An expansion of micro-biological monitoring may logically follow detection of the indicator bacteria in a water sample.</p>\n \n<h2 id=\"a6\">Additional monitoring</h2>\n\n<p>In order to consider additional monitoring of groundwater quality, a significant change in the condition of the water is usually required. A change in activity or an accidental spill (fuel, chemicals) in the vicinity of the well can also trigger a higher degree of monitoring. For example, a routine test of electrical conductivity or TDS may show a significant increase over earlier samplings, creating a need for expansion of the number of parameters tested as a follow-up.</p>\n\n<p>Changing colour, taste, odour or turbidity of the water likely indicates a change in water chemistry or bacteriological quality.</p>\n \n\r\n    <!-- Fin du contenu -->",
        "fr": "\r\n    \r\n    <!-- MainContentStart -->\r\n    <!-- D&eacute;but du contenu -->\r\n    <p>D'une mani\u00e8re g\u00e9n\u00e9rale, lorsque l'on dit que l'eau souterraine est de bonne qualit\u00e9, on estime qu'elle peut \u00eatre consomm\u00e9e par l'humain et les animaux en toute s\u00e9curit\u00e9, qu'elle a bon go\u00fbt, qu'elle est incolore et inodore et qu'elle n'est pas \u00ab\u00a0tr\u00e8s dure\u00a0\u00bb sur le plan chimique (tr\u00e8s fortes concentrations de calcium et de magn\u00e9sium).</p>\n\n<p>Les analyses de qualit\u00e9 de l'eau d\u00e9termineront la sant\u00e9 et la s\u00e9curit\u00e9 d'une r\u00e9serve d'eau, et les r\u00e9sultats indiqueront la qualit\u00e9 de l'environnement naturel au sein de la zone de captage du puits d'eau et peuvent \u00eatre repr\u00e9sentatifs de l'utilisation des terres dans le voisinage imm\u00e9diat de la source.</p>\n\n<p>L'eau souterraine r\u00e9cup\u00e8re les caract\u00e9ristiques de qualit\u00e9 de l'eau des mat\u00e9riaux g\u00e9ologiques qu'elle traverse, en dissolvant les constituants chimiques (fer, mangan\u00e8se, calcium, magn\u00e9sium, sulfate, nitrate, arsenic, <abbr title=\"etcetera\">etc.</abbr>). Pour s'assurer que l'eau peut \u00eatre utilis\u00e9e en toute s\u00e9curit\u00e9, les analyses de qualit\u00e9 de l'eau \u00e9valuent g\u00e9n\u00e9ralement les points suivants\u00a0:</p>\n\n<ul>\n<li>Caract\u00e9ristiques physiques (couleur, pH, s\u00e9diment);</li>\n<li>Caract\u00e9ristiques chimiques (fer, arsenic, calcium, magn\u00e9sium);</li>\n<li>Caract\u00e9ristiques biologiques (bact\u00e9ries, parasites, virus);</li>\n<li>Caract\u00e9ristiques radiologiques (uranium, radon).</li>\n</ul>\n\n<p>Les propri\u00e9taires des puits d'eau en milieu rural doivent assumer la responsabilit\u00e9 de surveiller la qualit\u00e9 de l'eau et de maintenir l'int\u00e9grit\u00e9 de leur puits et des syst\u00e8mes de distribution. Les producteurs agricoles devraient veiller \u00e0 ce que la qualit\u00e9 de l'eau soit s\u00fbre pour son utilisation pr\u00e9vue (b\u00e9tail, irrigation, produits laitiers, transformation des aliments, usage domestique). Les minist\u00e8res de la sant\u00e9 locaux peuvent aider \u00e0 choisir les analyses qui sont importantes pour l'\u00e9valuation d'une r\u00e9serve d'eau domestique.</p>\n\n<p><b>Sur cette page\u00a0:</b></p>\n\n<nav>\n<ul>\n<li><a href=\"#a1\">Analyse de la qualit\u00e9 de l'eau</a></li>\n<li><a href=\"#a2\">Recommandations et normes concernant la qualit\u00e9 de l'eau</a></li>\n<li><a href=\"#a3\">Mesure du rendement et rapports</a></li>\n<li><a href=\"#a4\">Caract\u00e9ristiques physiques et chimiques</a></li>\n<li><a href=\"#a5\">Analyse des caract\u00e9ristiques bact\u00e9riologiques</a></li>\n<li><a href=\"#a6\">Surveillance suppl\u00e9mentaire</a></li>\n</ul>\n</nav>\n\n<section>\n<h2 id=\"a1\">Analyse de la qualit\u00e9 de l'eau</h2>\n\n<p>On recommande fortement d'effectuer des analyses bact\u00e9riologiques et chimiques lorsqu'une nouvelle source d'eau est construite ou lorsque l'on ach\u00e8te une nouvelle r\u00e9sidence rurale avec une r\u00e9serve d'eau priv\u00e9e. Ces analyses devraient \u00eatre effectu\u00e9es avant et apr\u00e8s tous travaux de restauration des puits ou lorsque l'on constate un changement dans la qualit\u00e9 de l'eau. Toutefois, un \u00e9chantillon d'eau unique, bien souvent, ne fournit pas suffisamment de preuves indiquant qu'une r\u00e9serve d'eau est prot\u00e9g\u00e9e contre toute contamination.</p>\n\n<p>La qualit\u00e9 de l'eau souterraine doit \u00eatre analys\u00e9e r\u00e9guli\u00e8rement, car la qualit\u00e9 de l'eau varie avec le temps. Dans le meilleur des cas, l'eau des puits agricoles en milieu rural devrait \u00eatre analys\u00e9e au printemps et \u00e0 l'automne, apr\u00e8s un \u00e9v\u00e9nement m\u00e9t\u00e9orologique majeur ou si des modifications ont \u00e9t\u00e9 apport\u00e9es au puits ou au syst\u00e8me de distribution afin de s'assurer que la qualit\u00e9 de l'eau est s\u00fbre pour son utilisation pr\u00e9vue (b\u00e9tail, irrigation, produits laitiers, transformation des aliments, usage domestique). Pour les puits d'eau en milieu rural qui ne sont pas sous l'influence directe de l'eau de surface, il est important de consulter votre minist\u00e8re de la sant\u00e9 ou de l'environnement local pour obtenir plus de pr\u00e9cisions afin d'\u00e9tablir un plan d'\u00e9chantillonnage pour les analyses bact\u00e9riologiques et les analyses chimiques ordinaires propres \u00e0 l'utilisation pr\u00e9vue de la r\u00e9serve d'eau souterraine.</p>\n</section>\n\n<section>\n<h2 id=\"a2\">Recommandations et normes concernant la qualit\u00e9 de l'eau</h2>\n\n<p>Les normes relatives \u00e0 la qualit\u00e9 de l'eau pour l'eau potable varient d'un pays \u00e0 l'autre. Au Canada, le Conseil canadien des ministres de l'Environnement (f\u00e9d\u00e9ral et provincial) \u00e9tablit les Recommandations canadiennes pour la qualit\u00e9 de l'environnement afin de prot\u00e9ger l'agriculture, la vie aquatique, les ressources environnementales (eau, sol) et la sant\u00e9 humaine. Sant\u00e9 Canada, en collaboration avec les provinces et les territoires, \u00e9tablit les Recommandations pour la qualit\u00e9 de l'eau potable au Canada. Les gouvernements provinciaux \u00e9tablissent des recommandations ou des r\u00e8glements pour les r\u00e9serves d'eau potable publiques et priv\u00e9es. Les Recommandations pour la qualit\u00e9 de l'eau potable au Canada sont \u00e9tablies d'apr\u00e8s la concentration estimative d'un constituant qu'une personne pourrait ing\u00e9rer en toute s\u00e9curit\u00e9 au cours d'une vie, selon les renseignements toxicologiques disponibles et la prise en compte d'une marge de s\u00e9curit\u00e9 consid\u00e9rable.</p>\n\n<p>La qualit\u00e9 de l'eau est importante puisqu'elle est utilis\u00e9e \u00e0 maintes reprises dans l'agriculture, y compris pour la transformation des aliments, la production de lait et de produits laitiers, l'abreuvement du b\u00e9tail, l'irrigation, l'eau de lavage, le chauffage, la pulv\u00e9risation des animaux et l'application de pesticides. Les recommandations f\u00e9d\u00e9rales et provinciales sur la qualit\u00e9 de l'eau fournissent des renseignements sur la qualit\u00e9 de l'eau n\u00e9cessaire aux divers usages agricoles. Plusieurs laboratoires commerciaux proposent un forfait d'analyse particulier pour chaque activit\u00e9 agricole.</p>\n\n<p>L'outil <a href=\"http://www.agric.gov.ab.ca/app84/rwqit\"><span lang=\"en-ca\" xml:lang=\"en-ca\">Rural Water Quality Information Tool</span> (en anglais seulement)</a> \u00e9labor\u00e9 par l'Alberta et le Canada est un outil en ligne qui contribue \u00e0 l'\u00e9valuation de la qualit\u00e9 et de la durabilit\u00e9 des sources d'eau brutes pour les r\u00e9serves d'eau rurales et agricoles priv\u00e9es.</p>\n</section>\n\n\n\n<section>\n<h2 id=\"a3\">Mesure du rendement et rapports</h2>\n\n<p>Lorsque vous ferez analyser votre eau, le laboratoire vous fournira les concentrations des param\u00e8tres (principalement les min\u00e9raux dissous) qui ont \u00e9t\u00e9 analys\u00e9s. D'une mani\u00e8re g\u00e9n\u00e9rale, les concentrations seront indiqu\u00e9es en\u00a0:</p>\n\n<p>mg/L = milligrammes par litre ou parties par million (ppm)</p>\n\n<p>Parfois, des concentrations plus petites peuvent \u00eatre d\u00e9clar\u00e9es en\u00a0: </p>\n\n<p>\u00b5g/L = microgrammes par litre ou parties par milliard (ppM)</p>\n\n<p>Les valeurs maximales propres aux param\u00e8tres s'appuient sur les Recommandations pour la qualit\u00e9 de l'eau potable au Canada et sur les lignes directrices et les r\u00e8glements provinciaux. Les concentrations maximales acceptables sont li\u00e9es \u00e0 la sant\u00e9 et \u00e0 la s\u00e9curit\u00e9, et les valeurs signal\u00e9es dans les directives sur l'objectif esth\u00e9tique indiquent les niveaux souhaitables d'odeur, de go\u00fbt ou de couleur. Le rapport du laboratoire peut \u00e9galement r\u00e9v\u00e9ler des param\u00e8tres qui ne sont pas d\u00e9tect\u00e9s ou qui sont inf\u00e9rieurs \u00e0 la limite de d\u00e9tection.</p>\n\n<p>Si vous faites analyser votre eau pour d\u00e9celer des indicateurs microbiens, vous devriez discuter des r\u00e9sultats avec un responsable de la sant\u00e9 publique pour mieux comprendre le processus, les r\u00e9sultats de l'analyse et les cons\u00e9quences potentielles.</p>\n</section>\n\n<section>\n<h2 id=\"a4\">Caract\u00e9ristiques physiques et chimiques</h2>\n\n<p>Les caract\u00e9ristiques physiques de l'eau peuvent \u00eatre \u00e9valu\u00e9es au moyen d'une analyse en laboratoire. Cependant, ces derni\u00e8res sont mieux d\u00e9termin\u00e9es \u00e0 la source. Un changement dans le go\u00fbt, la couleur, la turbidit\u00e9 ou l'odeur provenant d'une source d'eau souterraine peut r\u00e9v\u00e9ler qu'une contamination de la r\u00e9serve est en cours ou que les bact\u00e9ries responsables de la nuisance, telles que les bact\u00e9ries du fer ou les bact\u00e9ries sulfato-r\u00e9ductrices, sont pr\u00e9sentes.</p>\n\n<p>Une analyse r\u00e9guli\u00e8re de la qualit\u00e9 de l'eau souterraine \u00e0 des fins d'utilisation domestique mesure g\u00e9n\u00e9ralement la concentration des principaux constituants chimiques et indique la teneur en mati\u00e8res dissoutes totales. Parmi les param\u00e8tres couramment analys\u00e9s, on compte le calcium, le chlorure, le fer, le mangan\u00e8se, le fluorure, le magn\u00e9sium, le nitrate, le sodium et le sulfate. Les organismes provinciaux ont fourni des concentrations acceptables recommand\u00e9es de ces divers param\u00e8tres.</p>\n\n<p>Le nitrate, l'arsenic, le s\u00e9l\u00e9nium, le sulfate et le sodium repr\u00e9sentent certains param\u00e8tres pr\u00e9occupants pour la sant\u00e9 humaine concernant la qualit\u00e9 de l'eau, si la limite recommand\u00e9e est d\u00e9pass\u00e9e.</p>\n\n<ul>\n<li>La recommandation de Sant\u00e9 Canada pour les concentrations de nitrate et de nitrite est fix\u00e9e \u00e0 45\u00a0mg/L sous forme de nitrate, soit 10\u00a0mg/L d'azote sous forme de nitrate. La concentration maximale acceptable pour le nitrate a \u00e9t\u00e9 \u00e9tablie pour \u00e9viter que les consommateurs les plus vuln\u00e9rables, tels que les nourrissons \u00e2g\u00e9s de moins de six mois ou les adultes ayant un taux anormal d'enzymes d'estomac, d\u00e9veloppent une m\u00e9th\u00e9moglobin\u00e9mie.</li>\n<li>Les recommandations concernant la concentration maximale admissible d'arsenic font constamment l'objet d'un examen, et cette concentration a \u00e9t\u00e9 diminu\u00e9e \u00e0 0,010\u00a0mg/L et pourra \u00eatre r\u00e9duite \u00e0 0,005\u00a0mg/L \u00e0 l'avenir. Les effets toxiques incluent des l\u00e9sions cutan\u00e9es, des troubles du syst\u00e8me nerveux et la formation de cancer.</li>\n<li>La toxicit\u00e9 du s\u00e9l\u00e9nium peut avoir des effets sur le bon fonctionnement des organes internes et le syst\u00e8me nerveux, et l'appareil circulatoire.</li>\n<li>Le fluorure entre 1,0\u00a0mg/L et 1,5\u00a0mg/L peut permettre la pr\u00e9vention des caries dentaires. Toutefois, son utilisation \u00e0 forte dose peut tacher les dents et m\u00eame entra\u00eener des l\u00e9sions osseuses.</li>\n<li>Des concentrations de sulfate sup\u00e9rieures \u00e0 la recommandation peuvent avoir un effet laxatif sur les nouveaux utilisateurs, et des quantit\u00e9s \u00e9lev\u00e9es de sodium peuvent \u00eatre pr\u00e9occupantes pour les personnes souffrant d'hypertension.</li>\n</ul>\n\n<p>Pour les autres param\u00e8tres auxquels sont associ\u00e9es des recommandations, des concentrations sup\u00e9rieures peuvent entra\u00eener des probl\u00e8mes de coloration, de go\u00fbt, d'odeur et de desquamation, entre autres, mais en g\u00e9n\u00e9ral, elles n'auront pas d'effet sur la sant\u00e9 du consommateur.</p>\n</section>\n\n\n\n<section>\n<h2 id=\"a5\">Caract\u00e9ristiques bact\u00e9riologiques</h2>\n\n<section>\n<h3>Bact\u00e9ries coliformes</h3>\n\n<p>Les bact\u00e9ries coliformes sont un param\u00e8tre fr\u00e9quemment analys\u00e9. Le test de coliformes totaux, s'il est positif, indique la pr\u00e9sence \u00e9ventuelle d'organismes pathog\u00e8nes dans l'eau souterraine. Cela peut \u00e9galement d\u00e9montrer que l'eau de surface p\u00e9n\u00e8tre dans le puits, car ces organismes sont \u00e9galement pr\u00e9sents sur la v\u00e9g\u00e9tation et dans le sol.</p>\n\n<p>La plupart des bact\u00e9ries coliformes ne causent pas de maladie, mais elles sont utilis\u00e9es en tant qu'organisme indicateur r\u00e9v\u00e9lant la pr\u00e9sence potentielle de micro organismes pathog\u00e8nes dans l'eau. L'absence de bact\u00e9ries coliformes dans l'\u00e9chantillon am\u00e8ne \u00e0 supposer que l'eau est s\u00fbre sur le plan microbiologique et qu'elle peut \u00eatre bue. Un \u00e9largissement de la surveillance microbiologique peut logiquement permettre de suivre la d\u00e9tection de la bact\u00e9rie indicatrice dans un \u00e9chantillon d'eau. </p>\n</section>\n</section>\n\n<section>\n<h2 id=\"a6\">Surveillance suppl\u00e9mentaire</h2>\n\n<p>Pour envisager d'autres mesures de surveillance de la qualit\u00e9 de l'eau souterraine, un changement important dans la condition de l'eau est habituellement requis. Un changement dans l'activit\u00e9 ou un d\u00e9versement accidentel (carburant, produits chimiques) aux alentours du puits peut \u00e9galement entra\u00eener une surveillance accrue. Par exemple, un test r\u00e9gulier de la conductivit\u00e9 \u00e9lectrique ou des mati\u00e8res dissoutes totales peut indiquer une augmentation importante par rapport aux pr\u00e9c\u00e9dents \u00e9chantillonnages, cr\u00e9ant alors le besoin d'\u00e9largir le nombre de param\u00e8tres analys\u00e9s en guise de suivi.</p>\n\n<p>Un changement dans la couleur, le go\u00fbt, l'odeur ou la turbidit\u00e9 de l'eau indique vraisemblablement une modification dans les propri\u00e9t\u00e9s chimiques ou la qualit\u00e9 bact\u00e9riologique de l'eau.</p>\n</section>\n\r\n    <!-- Fin du contenu -->\r\n\t\r\n\t\r\n\t\r\n  "
    }
}