{
    "dcr_id": "1409832956249",
    "title": {
        "en": "Bee Health Roundtable",
        "fr": "Table ronde sur la sant\u00e9 des abeilles"
    },
    "modified": "2019-06-28",
    "issued": "2014-09-05",
    "templatetype": "content page 1 column",
    "page_type": "1",
    "node_id": "1409144411097",
    "dc_date_created": "2014-09-05",
    "managing_branch": "MISB",
    "parent_node_id": "1384803392547",
    "label": {
        "en": "Bee Health",
        "fr": "Sant\u00e9 des abeilles"
    },
    "exturl": "",
    "teamsite_location": {
        "en": "/default/main/AAFC-AAC/Internet-Internet/MISB-DGSIM/VCR-TCV/WORKAREA/VCR-TCV/templatedata/comm-comm/gene-gene/data/vcr_bee_index_1409832956249_en",
        "fr": "/default/main/AAFC-AAC/Internet-Internet/MISB-DGSIM/VCR-TCV/WORKAREA/VCR-TCV/templatedata/comm-comm/gene-gene/data/vcr_bee_index_1409832956249_fr"
    },
    "type_name": "sitemapinit",
    "has_dcr_id": true,
    "breadcrumb": {
        "en": "Bee Health",
        "fr": "Sant\u00e9 des abeilles"
    },
    "layout_name": "content page 1 column",
    "lang": "en",
    "meta": {
        "issued": {
            "en": "2014-09-05",
            "fr": "2014-09-05"
        },
        "modified": {
            "en": "2019-06-28",
            "fr": "2019-06-28"
        },
        "format": {
            "en": "gcformat",
            "fr": "gcformat"
        },
        "title": {
            "en": "Bee Health Roundtable",
            "fr": "Table ronde sur la sant\u00e9 des abeilles"
        },
        "subject": {
            "en": "beekeeping",
            "fr": "apiculture"
        },
        "description": {
            "en": "In addition to honey production, honey bees play a vital pollination role in the yield and quality of Canadian crop production. In recent years, higher than average bee mortalities across the country have resulted in widespread attention being paid to bee health issues.",
            "fr": "En plus de produire du miel, les abeilles domestiques jouent un r\u00f4le essentiel de pollinisation qui d\u00e9termine le rendement et la qualit\u00e9 des r\u00e9coltes canadiennes. Au cours des derni\u00e8res ann\u00e9es, le taux de mortalit\u00e9 plus \u00e9lev\u00e9 des abeilles domestiques au Canada a stimul\u00e9 l'int\u00e9r\u00eat \u00e0 l'\u00e9gard des questions liees \u00e0 la sant\u00e9 des abeilles."
        },
        "language": {
            "en": "eng",
            "fr": "fra"
        },
        "keywords": {
            "en": "Bee Health Forum",
            "fr": "Forum sur la sant\u00e9 des abeilles"
        },
        "audience": {
            "en": "gcaudience",
            "fr": "gcaudience"
        },
        "type": {
            "en": "resource list",
            "fr": "liste de r\u00e9f\u00e9rence"
        },
        "creator": {
            "en": "Agriculture and Agri-Food Canada;Government of Canada",
            "fr": "Agriculture et Agroalimentaire Canada;Gouvernement du Canada"
        },
        "spatial": {
            "en": "gcregions",
            "fr": "gcregions"
        },
        "service": {
            "en": "AAFC-AAC",
            "fr": "AAFC-AAC"
        },
        "accessRights": {
            "en": "2",
            "fr": "2"
        },
        "legalName": {
            "en": "agriculture_and_agri_food_canada",
            "fr": "agriculture_et_agroalimentaire_canada"
        },
        "areaServed": {
            "en": "Canada",
            "fr": "Canada"
        }
    },
    "css": {
        "fr": null
    },
    "js": {
        "en": null,
        "fr": null
    },
    "body": {
        "en": "<!-- D&eacute;but du contenu -->\r\n     <p><a href=\"#roundtable\">Learn more about each roundtable</a></p> \n\n<p>In addition to honey production, honey bees play a vital pollination role in the yield and quality of Canadian crop production. With a goal to ensure a sustainable future for both beekeeping and crop agriculture, the Bee Health Roundtable was established to provide a national dialogue to identify actions to be taken to address risks and opportunities related to bee health. This roundtable is intended to complement, but not duplicate, work already underway at the provincial level and within and between industry sectors.</p>\n\n<p>Bee health is a multi-dimensional, complex issue and is affected by many factors including:</p>\n\n<ul>\n <li>parasites</li>\n <li>pests and pathogens</li>\n <li>habitat loss and food supply</li>\n <li>queen bee quality</li>\n <li>weather</li>\n <li>general hive management</li>\n <li>exposure to pesticides</li>\n</ul>\n\n<p>Evidence suggests that bees are increasingly stressed by combinations of these factors so solutions require coordinated, multi-faceted, multi-jurisdictional, science-based approaches. Individual additional contributions to bee health are being provided by researchers, governments, and the apiculture and agriculture value chains.</p>\n\n<h2>Contact us</h2>\n\n<p>If you have any questions or would like more information, please email us at <a href=\"mailto:aafc.roundtable-tableronde.aac@canada.ca\">aafc.roundtable-tableronde.aac@canada.ca</a>.</p>\n\n<h2>Working groups</h2>\n\n<p>Some working groups facilitate a variety of research projects, and others provide best management practices for beekeepers. This  roundtable has eight working groups that are very active throughout the year:</p>\n\n<ol>\n <li>Varroa Mite Control</li>\n <li>Control of Pesticide Exposure</li>\n <li>Minor Use</li>\n <li>Research</li>\n <li>Communications</li>\n <li>Habitat and Surroundings</li>\n <li>Nutrition</li>\n <li>Best Management Practices (BMPs)</li>\n</ol>\n\n<h2>Upcoming meeting</h2>\n\n<p>The  next Roundtable meeting will take place in 2020.</p>\n\n<h2>Meeting summary</h2>\n\n<ul>\n <li><a href=\"?id=1554732573186\">January 22, 2019</a></li>\n <li><a href=\"?id=1536243616732\">January 24, 2018</a></li>\n</ul>\n\n\n<h2>Members</h2>\n\n<h3>Co-chairs</h3>\n\n<ul>\n <li>Rod Scarlett \u2013 Canadian Honey Council</li>\n <li>Kathleen Donohue \u2013 Agriculture and Agri-Food Canada</li>\n</ul>\n\n<h3>Industry</h3>\n\n<ul>\n <li>Kevin Nixon \u2013 Canadian Honey Council</li>\n <li>Scott Plante \u2013 Canadian Honey Council</li>\n <li>Stan Reist \u2013 Canadian Honey Council</li>\n <li>Lindsey Ehman \u2013 Grain Growers of Canada</li>\n <li>Glyn Chancey \u2013 Canadian  Seed Growers' Association</li>\n <li>Pierre Patelle \u2013 CropLife Canada</li>\n <li>Maria Trainer \u2013 CropLife Canada</li>\n <li>Debra Conlon \u2013 Grain Farmers of Ontario</li>\n <li>Brain Innes \u2013 Canola Council of Canada</li>\n <li>William Van Tassell \u2013 F\u00e9deration des producteurs de cultures commerciales du Qu\u00e9bec</li>\n <li>Ashley St. Hilaire \u2013 Canadian Organic Growers</li>\n <li>Medhat Nasr \u2013 Canadian Association of Professional Apiculturists</li>\n <li>Shelley  Hoover \u2013 Canadian Association of Professional Apiculturists</li>\n <li>Howard Mains \u2013 Association of Equipment Manufacturers</li>\n <li>Jack Hamilton \u2013 Oxford Frozen Foods Ltd.</li>\n <li>Rebecca Lee \u2013 Canadian Horticulture Council</li>\n <li>Andrew Morse \u2013 Flowers Canada Growers</li>\n <li>Cary Gates \u2013 Flowers Canada Growers</li>\n <li>Brian Gilroy \u2013 Ontario Fruit and Vegetable Growers Association</li>\n <li>Anju Gill \u2013 British Columbia Blueberry Council</li>\n <li>Dave Carey \u2013 Canadian Seed Trade Association</li>\n</ul>\n\n<h3>Academia</h3>\n\n<ul>\n <li>Ernesto Guzman \u2013 University of Guelph</li>\n <li>Rob Curie \u2013 University of Manitoba</li>\n <li>Victoria Wojcik \u2013 Pollinator Partnership</li>\n</ul>\n\n<h3>Provincial governments</h3>\n\n<ul>\n <li>Lynda  MacSwain \u2013 Prince Edward Island Department of Agriculture and Fisheries</li>\n <li>Jason Sproule \u2013 Nova Scotia Department of Agriculture</li>\n <li>Chris Maund \u2013 New Brunswick Department of Agriculture and Aquaculture</li>\n <li>Julie Ferland \u2013 Quebec Ministry of Agriculture, Fisheries and Food</li>\n <li>Kelly McAslan \u2013 Ontario Ministry of Agriculture and Food</li>\n\n <li>Rh\u00e9al Lafreni\u00e8re \u2013 Manitoba Department of Agriculture</li>\n <li>Geoff Wilson \u2013 Saskatchewan Ministry of Agriculture</li>\n <li>David Feindel \u2013 Alberta Agriculture, Food and Rural Development</li>\n <li>James Calpas \u2013 Alberta Agriculture, Food and Rural Development</li>\n <li>Paul van Westendorp \u2013 British Columbia Ministry of Agriculture</li>\n <li>Debbie Watsyk \u2013 Northwest Territories Department of Industry, Tourism and Investment</li>\n</ul>\n\n<h3>Federal government</h3>\n\n<ul>\n <li>Connie Hart \u2013 Health Canada \u2013 Pest Management Regulatory Agency</li>\n <li>Lindsay Hanson \u2013 Health Canada \u2013 Pest Management Regulatory Agency</li>\n <li>Leslie Farmer \u2013 Agriculture and Agri-Food Canada \u2013 Pest Management Centre</li>\n <li>Steve Pernal \u2013 Agriculture and Agri-Food Canada</li>\n <li>Connie Rajzman \u2013 Canadian Food Inspection Agency</li>\n <li>Anita Gilmer \u2013 Canadian Food Inspection Agency</li>\n</ul>\n\n<h2>Reports</h2>\n\n<h3>Honey Bee Best Management Practices</h3>\n\n<p>This project addresses the need for a single compendium of BMPs for maintaining healthy honey bees. Organizations that may have BMPs related to bee health include the Pest Management Regulatory Agency, Agriculture and Agri-Food Canada, the Canadian Food Inspection Agency, the provincial and territorial Ministries of Agriculture, crop insurance programs, and federal and provincial beekeeping associations.<br>\n  Author: Canadian Honey Council<br>\nDate: March 2015</p>\n \n<p>Roundtable research reports are available by special request by writing to <a href=\"mailto:aafc.roundtable-tableronde.aac@canada.ca\">aafc.roundtable-tableronde.aac@canada.ca</a>. The Industry Engagement Division reserves the right to withhold documents that contain sensitive or proprietary information.</p>\n\n<h2 id=\"roundtable\">Learn more about each roundtable:</h2> \n\n<ul> \n <li><a href=\"?id=1385752573698\">Agri-Subcommittee on Food Safety</a></li> \n <li><a href=\"?id=1385491202669\">All Chairs Forum</a></li> \n <li><a href=\"?id=1409832956249\">Bee Health</a></li> \n <li><a href=\"?id=1385491900787\">Beef</a></li> \n <li><a href=\"?id=1385742632592\">Food Processing</a></li> \n <li><a href=\"?id=1385582114523\">Grains</a></li> \n <li><a href=\"?id=1385585397604\">Horticulture</a></li>\n <li><a href=\"?id=1385568234264\">Industrial Bioproducts</a></li>\n <li><a href=\"?id=1481809401467\">Neonicotinoids</a></li> \n <li><a href=\"?id=1385666883750\">Organics</a></li> \n <li><a href=\"?id=1385740744721\">Pork</a></li> \n <li><a href=\"?id=1492806638190\">Poultry</a></li> \n <li><a href=\"?id=1385733134280\">Pulses</a></li>\n <li><a href=\"?id=1385755866700\">Seafood</a></li> \n <li><a href=\"?id=1385757253931\">Seed</a></li> \n <li><a href=\"?id=1385758986961\">Sheep</a></li> \n <li><a href=\"?id=1385995694580\">Special Crops</a></li> \n</ul> \n\r\n    <!-- Fin du contenu -->",
        "fr": "\r\n    \r\n    <!-- MainContentStart -->\r\n    <!-- D&eacute;but du contenu -->\r\n     <p><a href=\"#roundtable\">Apprenez-en plus sur chaque table ronde</a></p>\n\n<p>Outre la production de miel, les abeilles domestiques jouent un r\u00f4le essentiel pour l'obtention de bons rendements et de r\u00e9coltes de qualit\u00e9. Afin d'assurer la durabilit\u00e9 de l'apiculture et des productions v\u00e9g\u00e9tales au Canada, la Table ronde sur la sant\u00e9 des abeilles a \u00e9t\u00e9 cr\u00e9\u00e9e pour offrir une tribune nationale de discussion et pour \u00e9tablir les mesures \u00e0 prendre afin de s'attaquer aux risques et de saisir des opportunit\u00e9s pour la pr\u00e9servation de la sant\u00e9 des abeilles. Les efforts de la Table ronde se veulent compl\u00e9mentaires \u00e0 ceux d\u00e9j\u00e0 consentis par les provinces et les divers secteurs de l'industrie. </p>\n\n<p>La sant\u00e9 des abeilles est une question multidimensionnelle et complexe qui est affect\u00e9e par de nombreux facteurs dont\u00a0:</p>\n\n<ul>\n <li>les parasites</li>\n <li>les ravageurs et les agents pathog\u00e8nes</li>\n <li>la perte d'habitats et d'approvisionnements alimentaires</li>\n <li>la qualit\u00e9 des reines</li>\n <li>la temp\u00e9rature</li>\n <li>la conduite g\u00e9n\u00e9rale des ruches</li>\n <li>l'exposition aux pesticides</li>\n</ul>\n\n<p>Selon des donn\u00e9es probantes, les abeilles seraient de plus en plus stress\u00e9es par des combinaisons de ces facteurs et les solutions au probl\u00e8me commandent des approches concert\u00e9es, \u00e0 plusieurs volets, multijuridictionnelles et fond\u00e9es sur des donn\u00e9es scientifiques. Les chercheurs, les gouvernements et les cha\u00eenes de valeur en apiculture et en agriculture font d'autres contributions individuelles pour la pr\u00e9servation de la sant\u00e9 des abeilles.</p>\n\n<h2>Contactez-nous</h2>\n\n<p>Si vous avez des questions ou voulez en savoir plus, veuillez nous envoyer un courriel \u00e0 <a href=\"mailto:aafc.roundtable-tableronde.aac@canada.ca\">aafc.roundtable-tableronde.aac@canada.ca</a>.</p>\n\n<h2>Groupes de travail</h2>\n\n<p>Certains des groupes de travail facilitent la r\u00e9alisation de divers projets de recherche et d'autres travaillent sur la pr\u00e9paration d'un compendium sur les pratiques exemplaires destin\u00e9 aux apiculteurs. La Table ronde compte huit groupes de travail  tr\u00e8s actifs \u00e0 l'ann\u00e9e\u00a0:</p>\n\n<ol>\n <li>Lutte contre la varroase  </li>\n <li>Limitation de l'exposition aux pesticides</li>\n <li>Pesticides \u00e0 usage limit\u00e9</li>\n <li>Recherche</li>\n <li>Communications</li>\n <li>Habitats et milieux ambiants</li>\n <li>Alimentation</li>\n <li>Pratiques exemplaires</li>\n</ol>\n\n<h2>Prochaine r\u00e9union</h2>\n\n<p>La prochaine r\u00e9union de la Table ronde sur la  cha\u00eene de valeur en 2020.</p>\n\n<h2>R\u00e9sum\u00e9 des r\u00e9unions</h2>\n\n<ul>\n <li><a href=\"?id=1554732573186\">22 janvier 2019</a></li>\n <li><a href=\"?id=1536243616732\">24 janvier 2018</a></li>\n</ul>\n\n<h2>Membres</h2>\n\n<h3>Copr\u00e9sidents</h3>\n\n<ul>\n <li>Rod Scarlett \u2013 Conseil canadien du miel<b></b></li>\n <li>Kathleen Donohue \u2013 Agriculture et Agroalimentaire Canada</li>\n</ul>\n\n<h3>lndustrie</h3>\n\n<ul>\n <li>Kevin Nixon \u2013 Conseil canadien du miel</li>\n <li>Scott Plante \u2013 Conseil canadien du miel</li>\n <li>Stan Reist \u2013 Conseil canadien du miel</li>\n <li>Lindsey Ehman \u2013 Les producteurs de grains du Canada</li>\n <li>Glyn Chancey \u2013 Association Canadienne des Producteurs de Semences</li>\n <li>Pierre Patelle \u2013 CropLife Canada</li>\n <li>Maria Trainer \u2013 CropLife Canada</li>\n <li>Debra Conlon \u2013 Grain Farmers of Ontario</li>\n <li>Brain Innes \u2013 Conseil canadien du canola</li>\n <li>William Van Tassell \u2013 F\u00e9deration des producteurs de cultures commerciales du Qu\u00e9bec</li>\n <li>Ashley St. Hilaire \u2013 Cultivons Biologique Canada</li>\n <li>Medhat Nasr \u2013 Association canadienne des professionnels de l'apiculture</li>\n <li>Shelley  Hoover \u2013 Association canadienne des professionnels de l'apiculture</li>\n <li>Howard Mains \u2013 Association of Equipment Manufacturers</li>\n <li>Jack Hamilton \u2013 Oxford Frozen Foods Ltd.</li>\n <li>Rebecca Lee \u2013 Conseil canadien de l'horticulture</li>\n <li>Andrew Morse \u2013 Fleurs Canada inc.</li>\n <li>Cary Gates \u2013 Fleurs Canada inc.</li>\n <li>Brian Gilroy \u2013 Associations des fruiticulteurs et des mara\u00eechers de l'Ontario</li>\n <li>Anju  Gill \u2013 British Columbia Blueberry Council</li>\n <li>Dave  Carey  \u2013 Association canadienne des producteurs  de semences</li>\n</ul>\n\n\n\n<h3>Gouvernements provinciaux</h3>\n\n<ul>\n <li>Lynda  MacSwain \u2013 Minist\u00e8re de l'Agriculture et des P\u00eacheries de l'\u00cele-du-Prince-\u00c9douard</li>\n <li>Jason Sproule \u2013 Minist\u00e8re de l'Agriculture de la Nouvelle-\u00c9cosse</li>\n <li>Chris Maund \u2013 Minist\u00e8re de l'Agriculture et de l'Aquaculture du Nouveau-Brunswick</li>\n <li>Julie Ferland \u2013 Minist\u00e8re de l'Agriculture, des P\u00eacheries et de l'Alimentation du Qu\u00e9bec</li>\n <li>Kelly McAslan \u2013 Minist\u00e8re de l'Agriculture et de l'Alimentation de l'Ontario</li>\n <li>Rh\u00e9al Lafreni\u00e8re \u2013 Minist\u00e8re de l'Agriculture, de l'Alimentation et du D\u00e9veloppement rural du Manitoba</li>\n <li>Geoff Wilson \u2013 Minist\u00e8re de l'Agriculture de la Saskatchewan</li>\n <li>David Feindel \u2013 Minist\u00e8re de l'Agriculture, de l'Alimentation et du D\u00e9veloppement rural de l'Alberta</li>\n <li>James Calpas \u2013 Minist\u00e8re de l'Agriculture, de l'Alimentation et du D\u00e9veloppement rural de l'Alberta</li>\n <li>Paul van Westendorp \u2013 Minist\u00e8re de l'Agriculture de la Colombie-Britannique</li>\n <li>Debbie Watsyk \u2013 Minist\u00e8re de l'Industrie, du Tourisme et des Investissements du gouvernement des Territoires du Nord-Ouest</li>\n</ul>\n\n<h3>Gouvernement f\u00e9d\u00e9ral</h3>\n\n<ul>\n <li>Connie Hart \u2013 Sant\u00e9 Canada \u2013 Agence de r\u00e9glementation de la lutte antiparasitaire</li>\n <li>Lindsay Hanson \u2013 Sant\u00e9 Canada \u2013 Agence de r\u00e9glementation de la lutte antiparasitaire</li>\n <li>Lars Juergensen \u2013 Sant\u00e9 Canada \u2013 Agence de r\u00e9glementation de la lutte antiparasitaire</li>\n <li>Leslie Farmer \u2013 Agriculture et Agroalimentaire Canada \u2013 Centre de la lutte antiparasitaire</li>\n <li>Steve Pernal \u2013 Agriculture et Agroalimentaire Canada</li>\n <li>Connie Rajzman \u2013 Agence canadienne d'inspection des aliments</li>\n <li>Anita Gilmer \u2013 Agence canadienne d'inspection des aliments</li>\n</ul>\n\n<h3>Milieu universitaire</h3>\n\n<ul>\n <li>Ernesto Guzman \u2013 Universit\u00e9 de Guelph</li>\n <li>Rob Curie \u2013 Universit\u00e9 du Manitoba</li>\n <li>Victoria Wojcik \u2013 Pollinator Partnership</li>\n</ul>\n\n<h2>Rapports</h2>\n\n<h3>Pratiques exemplaires pour la pr\u00e9servation de la sant\u00e9 des abeilles</h3>\n\n<p>Ce projet r\u00e9pond au besoin d'avoir un seul compendium qui regroupe les pratiques exemplaires favorisant la sant\u00e9 des abeilles de diverses organisations, comme l'Agence de r\u00e9glementation de la lutte antiparasitaire, Agriculture et Agroalimentaire Canada, l'Agence canadienne d'inspection des aliments, les minist\u00e8res provinciaux et territoriaux de l'Agriculture, les programmes d'assurance-r\u00e9colte et les associations f\u00e9d\u00e9rales et provinciales d'apiculteurs.<br>\n  Auteur\u00a0: Conseil canadien du miel<br>\nDate\u00a0: mars 2015</p>\n\n<p>Les rapports de recherche des tables rondes sont  disponibles sur demande sp\u00e9ciale envoy\u00e9e \u00e0 <a href=\"mailto:aafc.roundtable-tableronde.aac@canada.ca\">aafc.roundtable-tableronde.aac@canada.ca</a>. La Division de la  consultation du secteur se r\u00e9serve le droit de refuser la divulgation des  documents qui contiennent des renseignements confidentiels ou exclusifs.</p>\n\n<h2 id=\"roundtable\">Apprenez-en plus sur chaque table ronde\u00a0:</h2> \n\n<ul> \n <li><a href=\"?id=1385568234264\">Bioproduits industriels</a></li> \n <li><a href=\"?id=1385491900787\">B\u0153uf</a></li> \n <li><a href=\"?id=1385995694580\">Cultures sp\u00e9ciales</a></li> \n <li><a href=\"?id=1385582114523\">Grains</a></li> \n <li><a href=\"?id=1385585397604\">Horticulture</a></li> \n <li><a href=\"?id=1385733134280\">L\u00e9gumineuses</a></li> \n <li><a href=\"?id=1481809401467\">N\u00e9onicotino\u00efdes</a></li> \n <li><a href=\"?id=1385758986961\">Ovin</a></li> \n <li><a href=\"?id=1385740744721\">Porc</a></li> \n <li><a href=\"?id=1385666883750\">Produits biologiques</a></li> \n <li><a href=\"?id=1385755866700\">Produits de la mer</a></li> \n <li><a href=\"?id=1409832956249\">Sant\u00e9 des abeilles</a></li> \n <li><a href=\"?id=1385757253931\">Semences</a></li> \n <li><a href=\"?id=1385752573698\">Sous-comit\u00e9 sur la salubrit\u00e9 des aliments de l'agriculture et de l'agroalimentaire</a></li> \n <li><a href=\"?id=1385742632592\">Transformation des aliments</a></li> \n <li><a href=\"?id=1385491202669\">Tribune de tous les pr\u00e9sidents</a></li> \n <li><a href=\"?id=1492806638190\">Volaille</a></li> \n</ul> \n\n\r\n    <!-- Fin du contenu -->\r\n\t\r\n\t\r\n\t\r\n  "
    }
}