{
    "dcr_id": "1415860000004",
    "title": {
        "en": "Red meat and livestock price reports",
        "fr": "Rapports sur les prix pour le march\u00e9 des viandes rouges"
    },
    "modified": "2020-11-04",
    "issued": "2003-02-24",
    "templatetype": "content page 1 column",
    "page_type": "1",
    "node_id": "1415863600005",
    "dc_date_created": "2003-02-24",
    "managing_branch": "MISB",
    "parent_node_id": "1354137773862",
    "label": {
        "en": "Prices",
        "fr": "Prix"
    },
    "exturl": "",
    "teamsite_location": {
        "en": "/default/main/AAFC-AAC/Internet-Internet/MISB-DGSIM/SDAD-DDAS/RML-VRB/WORKAREA/RML-VRB/templatedata/comm-comm/gene-gene/data/by_type_prices_1415860000004_en",
        "fr": "/default/main/AAFC-AAC/Internet-Internet/MISB-DGSIM/SDAD-DDAS/RML-VRB/WORKAREA/RML-VRB/templatedata/comm-comm/gene-gene/data/by_type_prices_1415860000004_fr"
    },
    "type_name": "sitemapinit",
    "has_dcr_id": true,
    "breadcrumb": {
        "en": "Prices",
        "fr": "Prix"
    },
    "layout_name": "content page 1 column",
    "lang": "en",
    "meta": {
        "issued": {
            "en": "2003-02-24",
            "fr": "2003-02-24"
        },
        "modified": {
            "en": "2020-11-04",
            "fr": "2020-11-04"
        },
        "format": {
            "en": "gcformat",
            "fr": "gcformat"
        },
        "title": {
            "en": "Red meat and livestock price reports",
            "fr": "Rapports sur les prix pour le march\u00e9 des viandes rouges"
        },
        "subject": {
            "en": "horticulture;architectural heritage;architecture",
            "fr": "m\u00e9dicament;rep\u00e8re;horticulture"
        },
        "description": {
            "en": "Red Meat Market Information - Price Reports",
            "fr": "Information sur le march\u00e9 des viandes rouges - Rapports des prix"
        },
        "language": {
            "en": "eng",
            "fr": "fra"
        },
        "keywords": {
            "en": "calves;cattle;goats;lambs;sheep;fee ratios;Hog;Price;rabbit;bison;livestock;feed ratios;wholesale;Market Information;Red Mea",
            "fr": "lapin;b\u00e9tail alternatif;veaus;bovins;ch&egrave;vres;moutons;agneaux;prixporcs;bison;viandes rouges;Information sur le march\u00e9"
        },
        "audience": {
            "en": "gcaudience",
            "fr": "gcaudience"
        },
        "type": {
            "en": "form",
            "fr": "avis"
        },
        "creator": {
            "en": "Agriculture and Agri-Food Canada;Government of Canada;Agriculture and Agri-Food Canada;Market and Industry Services Branch",
            "fr": "Agriculture et Agroalimentaire Canada;Gouvernement du Canada;Agriculture et Agroalimentaire Canada;Direction g\u00e9n\u00e9rale des services &agrave; l'industrie et aux march\u00e9s"
        },
        "spatial": {
            "en": "gcregions",
            "fr": "gcregions"
        },
        "service": {
            "en": "AAFC-AAC",
            "fr": "AAFC-AAC"
        },
        "accessRights": {
            "en": "2",
            "fr": "2"
        },
        "legalName": {
            "en": "agriculture_and_agri_food_canada",
            "fr": "agriculture_et_agroalimentaire_canada"
        },
        "areaServed": {
            "en": "Canada",
            "fr": "Canada"
        }
    },
    "css": {
        "fr": null
    },
    "js": {
        "en": null,
        "fr": null
    },
    "body": {
        "en": "<!-- D&eacute;but du contenu -->\r\n    <p>Welcome to the \"Agricultural Industry Market Information System\" (AIMIS) red meat prices database. This section houses detailed statistics related to industry prices by species and region, along with other sectoral reports and links.</p>\n\n<p><b>For customized reports, please utilize the AIMIS database links provided below:</b></p>\n<h2>Red meat prices</h2>\n\n<h3>Cattle price reporting</h3>\n<ul>\n<li><a href=\"/eng/?id=1519226083827\"> The importance of cattle price reporting</a></li>\n</ul>\n\n<h3>Red meat price reports by species</h3>\n<ul>\n\n<li>Weekly reports \n<ul>\n<li><a title=\"Red meat price report for cattle (Quebec) - weekly report (W042A)\" href=\"http://aimis-simia.agr.gc.ca/rp/index-eng.cfm?menupos=1.02.05&amp;LANG=EN&amp;pdctc=&amp;action=pR&amp;r=76\">Cattle auction prices (Quebec)</a> For more detailed cattle price reporting please visit: <a href=\"http://www.canfax.ca/Main.aspx\">www.canfax.ca</a></li>\n\n<li><a title=\"Red meat price report for hogs (Ontario, Quebec and Alberta) - weekly report (W042C)\" href=\"http://aimis-simia.agr.gc.ca/rp/index-eng.cfm?menupos=1.02.05&amp;LANG=EN&amp;pdctc=&amp;action=pR&amp;r=84\">Hogs (Canada and United States)</a></li>\n\n<li><a title=\"Red meat price report for sheep and lambs and goats (Ontario, Quebec and Alberta) - weekly report (W042B)\" href=\"http://aimis-simia.agr.gc.ca/rp/index-eng.cfm?menupos=1.02.05&amp;LANG=EN&amp;pdctc=&amp;action=pR&amp;r=80\">Sheep, lamb and goats (Ontario, Quebec and Alberta (goats only)</a></li>\n</ul>\n</li>\n\n<li>Monthly reports \n<ul>\n<li><a title=\"Red meat price report for cattle (Quebec) - Monthly report (M042A)\" href=\"http://aimis-simia.agr.gc.ca/rp/index-eng.cfm?menupos=1.02.05&amp;LANG=EN&amp;pdctc=&amp;action=pR&amp;r=77\">Cattle auction prices (Quebec)</a> For more detailed cattle price reporting please visit: <a href=\"http://www.canfax.ca/Main.aspx\">www.canfax.ca</a></li>\n\n\n<li><a title=\"Red meat price report for hogs (Ontario, Quebec and Alberta) - monthly report (M042C)\" href=\"http://aimis-simia.agr.gc.ca/rp/index-eng.cfm?menupos=1.02.05&amp;LANG=EN&amp;pdctc=&amp;action=pR&amp;r=85\">Hogs (Canada and United States)</a></li>\n\n\n<li><a title=\"Red meat price report for sheep and lambs and goats (Ontario, Quebec and Alberta) - monthly report (M042B)\" href=\"http://aimis-simia.agr.gc.ca/rp/index-eng.cfm?menupos=1.02.05&amp;LANG=EN&amp;pdctc=&amp;action=pR&amp;r=81\">Sheep, lamb and goats(Ontario, Quebec and Alberta (goats only)</a></li>\n\n<li><a title=\"Number of head sold and average price paid in value in Quebec - monthly report (M006B)\" href=\"http://aimis-simia.agr.gc.ca/rp/index-eng.cfm?menupos=1.02.05&amp;LANG=EN&amp;pdctc=&amp;action=pR&amp;r=61\">Grain fed veal (Quebec)</a></li>\n</ul>\n</li>\n\n\n<li>Annual reports \n<ul>\n<li><a title=\"Annual sales and weighted average prices per 100 Kilos for hogs, sows and boars by categories and provinces - annual report (A016B)\" href=\"http://aimis-simia.agr.gc.ca/rp/index-eng.cfm?menupos=1.02.05&amp;LANG=EN&amp;pdctc=&amp;action=pR&amp;r=67\">Annual sales and weighted average prices per 100 Kilos for hogs, sows and boars by categories and provinces</a>\u00a0(Average monthly prices for live sows and boars are calculated based on data available)</li>\n\n<li><a title=\"Monthly average hog prices and volume sold for index 100 Hogs and Sows by province - annual report (A023)\" href=\"http://aimis-simia.agr.gc.ca/rp/index-eng.cfm?menupos=1.02.05&amp;LANG=EN&amp;pdctc=&amp;action=pR&amp;r=51\">Monthly average hog prices and sales volume</a></li>\n\n<li><a title=\"Monthly average hog prices for feeder hogs 30-40 lbs, 40-50 lbs. for Ontario and Quebec - annual report (A024A)\" href=\"http://aimis-simia.agr.gc.ca/rp/index-eng.cfm?menupos=1.02.05&amp;LANG=EN&amp;pdctc=&amp;action=pR&amp;r=71\">Feeder hog monthly average prices (Ontario and Quebec)</a></li>\n\n<li><a title=\"Annual sheep and lamb sales and weighted average prices for Quebec and Ontario showing number sold, average price and price range by month - annual report (A022)\" href=\"http://aimis-simia.agr.gc.ca/rp/index-eng.cfm?menupos=1.02.05&amp;LANG=EN&amp;pdctc=&amp;action=pR&amp;r=69\">Sheep and lambs (Ontario and Quebec)</a></li>\n\n<li><a title=\"Number of head sold and weighted average veal prices by month for a complete year for Ontario and Quebec - annual report (A018)\" href=\"http://aimis-simia.agr.gc.ca/rp/index-eng.cfm?menupos=1.02.05&amp;LANG=EN&amp;pdctc=&amp;action=pR&amp;r=48\">Veal (Ontario and Quebec)</a></li>\n<li><a title=\"Annual sales and weighted average prices per 100 lbs for selected species, categories for Ontario and Quebec - annual report (A016A)\" href=\"http://aimis-simia.agr.gc.ca/rp/index-eng.cfm?menupos=1.02.05&amp;LANG=EN&amp;pdctc=&amp;action=pR&amp;r=65\">Weighted average price of livestock - by species (Ontario and Quebec)</a></li>\n<li><a title=\"Annual retail pork prices - weighted average in dollars per kilogram\" href=\"/eng/?id=1520539054104\">Annual Retail Pork Prices - Weighted Average ($/<abbr title=\"kilogram\">kg</abbr>)</a></li>\n</ul>\n</li>\n</ul>\n<h3>Montreal wholesale prices for red meat species</h3>\n<ul>\n<li><a title=\"Weekly wholesale prices to retail stores delivered on a bulk basis for selected cuts of beef, pork and lamb - weekly report (W042E)\" href=\"http://aimis-simia.agr.gc.ca/rp/index-eng.cfm?menupos=1.02.05&amp;LANG=EN&amp;pdctc=&amp;action=pR&amp;r=120\">Weekly report</a></li>\n<li><a title=\"Monthly wholesale prices to retail stores delivered on a bulk basis for selected cuts of beef, pork and lamb - monthly report (M042E)\" href=\"http://aimis-simia.agr.gc.ca/rp/index-eng.cfm?menupos=1.02.05&amp;LANG=EN&amp;pdctc=&amp;action=pR&amp;r=121\">Monthly report</a></li>\n<li><a title=\"Wholesale prices to retail stores delivered on a bulk basis for selected cuts of beef, pork and lamb - annual report (A021)\" href=\"http://aimis-simia.agr.gc.ca/rp/index-eng.cfm?menupos=1.02.05&amp;LANG=EN&amp;pdctc=&amp;action=pR&amp;r=122\">Annual report</a></li>\n</ul>\n\n<h3>United States livestock prices for red meat species</h3>\n<ul>\n<li><a title=\"USDA Prices, selected species and markets - weekly report (W042D)\" href=\"http://aimis-simia.agr.gc.ca/rp/index-eng.cfm?menupos=1.02.05&amp;LANG=EN&amp;pdctc=&amp;action=pR&amp;r=88\">Weekly report</a></li>\n<li><a title=\"USDA prices, selected species and markets - monthly report (M042D)\" href=\"http://aimis-simia.agr.gc.ca/rp/index-eng.cfm?menupos=1.02.05&amp;LANG=EN&amp;pdctc=&amp;action=pR&amp;r=89\">Monthly report</a></li>\n<li><a title=\"Average United States livestock prices by selected markets and species in US dollars per 100 lbs - annual report (A025)\" href=\"http://aimis-simia.agr.gc.ca/rp/index-eng.cfm?menupos=1.02.05&amp;LANG=EN&amp;pdctc=&amp;action=pR&amp;r=52\">Annual report</a></li>\n</ul>\n<p><i>For more details on United States prices and regulations, visit:</i></p>\n<ul>\n<li><a href=\"https://www.ams.usda.gov/market-news/livestock-poultry-grain\" rel=\"external\" title=\"External link to the US agriculture marketing services reports\">United States Agricultural marketing services (AMS) </a></li>\n<li><a href=\"www.ams.usda.gov/rules-regulations/mmr\" rel=\"external\" title=\"External link to the US Livestock mandatory reporting\">United States Livestock mandatory reporting (LMR)</a></li>\n</ul>\n\n\n<h3>Hog feed ratios</h3>\n<ul>\n<li><a title=\"Report showing the number of bushels of barley required to create 100 lbs of Alberta Index 100 live hog and the number of bushels of corn required to create 100 lbs of Ontario Index 100 live hog - weekly report (W005B)\" href=\"http://aimis-simia.agr.gc.ca/rp/index-eng.cfm?menupos=1.02.05&amp;LANG=EN&amp;pdctc=&amp;action=pR&amp;r=57\">Weekly report</a></li>\n<li><a title=\"Report showing the number of bushels of barley required to create 100 lbs of Alberta Index 100 live hog and the number of bushels of corn required to create 100 lbs of Ontario Index 100 live hog - monthly report (M005B)\" href=\"http://aimis-simia.agr.gc.ca/rp/index-eng.cfm?menupos=1.02.05&amp;LANG=EN&amp;pdctc=&amp;action=pR&amp;r=58\">Monthly report</a></li>\n<li><a title=\"Number of bushels of No. 1 feed barley or corn that are equal in value to 100 lbs of Index 100 Live Hog - annual report (M024B)\" href=\"http://aimis-simia.agr.gc.ca/rp/index-eng.cfm?menupos=1.02.05&amp;LANG=EN&amp;pdctc=&amp;action=pR&amp;r=73\">Annual report</a></li>\n</ul>\n<div class=\"clear\"></div>\n\n<h2><a id=\"STC\"></a>Statistics Canada retail price reports</h2>\n<dl>\n<dt><a title=\"External link to Statistics Canada data table - Monthly average retail prices for food and other selected products\" href=\"https://www150.statcan.gc.ca/t1/tbl1/en/tv.action?pid=1810000201\" rel=\"external\">Monthly average retail prices for food and other selected products</a> (Monthly, Statistics Canada Table: 18-10-0002-01)</dt>\n<dd>Monthly average retail prices. Prices are presented for the current month and previous four months. Prices are in Canadian current dollars.</dd>\n<dt><a title=\"External link to Statistics Canada data table - Monthly average retail prices for selected products, by province\" href=\"https://www150.statcan.gc.ca/t1/tbl1/en/tv.action?pid=1810024501\" rel=\"external\">Monthly average retail prices for selected products, by province</a> (Monthly, Statistics Canada Table: 18-10-0245-01)</dt>\n<dd>Monthly average retail prices for selected products, by province. Prices are presented for the current month and the previous four months. Prices are based on transaction data from Canadian retailers, and are presented in Canadian current dollars.</dd>\n</dl>\n\n<div class=\"well\">\n<p>If you have any questions or require additional information, please send an e-mail to <a title=\"Email: Animal Industry Division - Market Information Section\" href=\"mailto:aafc.redmeat-vianderouge.aac@canada.ca\"> aafc.redmeat-vianderouge.aac@canada.ca</a></p>\n<h2>Our service standards</h2>\n<p>Service standards play a vital role in our market information program\u2019s commitment to planning, reporting and performance management. \nThey clearly define the level of service that clients can expect under normal circumstances.</p>\n<p>View the <a title=\"Service standards for red meat and livestock reports\" href=\"http://www.agr.gc.ca/eng/industry-markets-and-trade/statistics-and-market-information/by-product-sector/red-meat-and-livestock/?id=1480968240072\">Service standards for red meat and livestock reports.</a></p>\n</div>\n<div class=\"clearfix\"></div>\n\n\r\n    <!-- Fin du contenu -->",
        "fr": "\r\n    \r\n    <!-- MainContentStart -->\r\n    <!-- D&eacute;but du contenu -->\r\n    <!-- D&eacute;but du contenu --><!-- InstanceBeginEditable name=\"ContentTitle\" --><!-- InstanceEndEditable --><!-- InstanceBeginEditable name=\"Content\" -->\n<div class=\"clear\"></div>\n<p>Bienvenue \u00e0 la base de donn\u00e9es du Syst\u00e8me d'information sur les march\u00e9s de l'industrie agricole (SIMIA). Cette section comprend des rapports statistiques d\u00e9taill\u00e9s sur les prix de l'industrie animale par esp\u00e8ce et r\u00e9gion ainsi que d'autre liens et rapports sectoriels.</p>\n<p><b>Pour des rapports sur mesure veuillez utiliser les liens <abbr title=\"Syst\u00e8me d'information sur les march\u00e9s de l'industrie agricole\">SIMIA</abbr> ci-dessous:</b></p>\n<h2>Prix pour le march\u00e9s des viandes rouges</h2>\n<h3>Rapports sur les prix des bovins</h3>\n<ul>\n<li><a href=\"/fra/?id=1519226083827\">Importance des rapports sur les prix des bovins</a></li>\n</ul>\n<h3>Prix pour le march\u00e9 des viandes rouges par esp\u00e8ce</h3>\n<ul>\n<li>Rapports hebdomadaires \n<ul>\n<li><a title=\"Prix des encans du Qu\u00e9bec pour le bovin - Rapport hebdomadaire (W042A)\" href=\"http://aimis-simia.agr.gc.ca/rp/index-fra.cfm?action=pR&amp;r=576&amp;pdctc=\">Prix des encans du Qu\u00e9bec - Bovins</a>. Pour des rapports plus d\u00e9taill\u00e9s sur le prix du bovin veuillez visiter le site suivant: <a href=\"http://www.canfax.ca/Main.aspx\">www.canfax.ca</a> (disponible en anglais seulement)</li>\n<li><a title=\"Rapport de prix pour le march\u00e9 des viandes rouges -  porc (Ontario, Qu\u00e9bec et Alberta) - Rapport hebdomadaire (W042C)\" href=\"http://aimis-simia.agr.gc.ca/rp/index-fra.cfm?action=pR&amp;r=584&amp;pdctc=\">Porc (Canada et \u00c9tats-Unis)</a></li>\n<li><a title=\"Rapport de prix pour le march\u00e9 des viandes rouges -  Moutons, agneaux et ch\u00e8vres (Ontario, Qu\u00e9bec et Alberta) - Rapport hebdomadaire (W042B)\" href=\"http://aimis-simia.agr.gc.ca/rp/index-fra.cfm?action=pR&amp;r=580&amp;pdctc=\">Moutons, agneaux et ch\u00e8vres (Ontario, Qu\u00e9bec et Alberta (ch\u00e8vres seulement))</a></li>\n</ul>\n</li>\n<li>Rapports Mensuels \n<ul>\n<li><a title=\"Prix des encans du Qu\u00e9bec pour le bovin - Rapport Mensuel (M042A)\" href=\"http://aimis-simia.agr.gc.ca/rp/index-fra.cfm?action=pR&amp;r=577&amp;pdctc=\">Prix des encans du Qu\u00e9bec - Bovins</a>. Pour des rapports plus d\u00e9taill\u00e9s sur le prix du bovin veuillez visiter le site suivant: <a href=\"http://www.canfax.ca/Main.aspx\">www.canfax.ca</a> (disponible en anglais seulement)</li>\n<li><a title=\"Rapport de prix pour le march\u00e9 des viandes rouges -  porc (Ontario, Qu\u00e9bec et Alberta) - Rapport mensuel (M042C)\" href=\"http://aimis-simia.agr.gc.ca/rp/index-fra.cfm?action=pR&amp;r=585&amp;pdctc=\">Porc (Canada et \u00c9tats-Unis)</a></li>\n<li><a title=\"Rapport de prix pour le march\u00e9 des viandes rouges -  Moutons, agneaux et ch\u00e8vres (Ontario, Qu\u00e9bec et Alberta) - Rapport mensuel (M042B)\" href=\"http://aimis-simia.agr.gc.ca/rp/index-fra.cfm?action=pR&amp;r=581&amp;pdctc=\">Moutons, agneaux et ch\u00e8vres (Ontario, Qu\u00e9bec et Alberta (ch\u00e8vres seulement)</a></li>\n</ul>\n</li>\n<li>Rapports Annuels \n<ul>\n<li><a title=\"Ventes et prix moyen pond\u00e9r\u00e9s par 100 livres de porcs, truie et verrat par cat\u00e9gories et provinces - Rapport annuel (A016B)\" href=\"http://aimis-simia.agr.gc.ca/rp/index-fra.cfm?action=pR&amp;r=567&amp;pdctc=10\">Ventes et prix moyen pond\u00e9r\u00e9s par 100 livres de porcs, truie et verrat par cat\u00e9gories et provinces</a>\u00a0(Les prix moyens mensuels pour les truies et verrats vivants sont calcul\u00e9s \u00e0 partir des donn\u00e9es disponibles)</li>\n<li><a title=\"Ventes et prix moyens mensuels de porc par 100kg par province - Rapport annuel (A023)\" href=\"http://aimis-simia.agr.gc.ca/rp/index-fra.cfm?action=pR&amp;r=551&amp;pdctc=\">Ventes et prix moyens mensuels de porc</a></li>\n<li><a title=\"Prix moyens mensuels de porcs d'engraissement de 30-40 lbs, 40-50 lbs. pour l'Ontario et le Qu\u00e9bec - annual report (A024A)\" href=\"http://aimis-simia.agr.gc.ca/rp/index-fra.cfm?action=pR&amp;r=571&amp;pdctc=\">Prix moyens mensuels de porcs d'engraissement (Ontario et Qu\u00e9bec)</a></li>\n<li><a title=\"Moutons et agneaux : ventes et prix moyen pond\u00e9r\u00e9s pour le Qu\u00e9bec et l'Ontario par mois - rapport annuel (A022)\" href=\"http://aimis-simia.agr.gc.ca/rp/index-fra.cfm?action=pR&amp;r=569&amp;pdctc=\">Moutons et agneaux (Ontario et Qu\u00e9bec)</a></li>\n<li><a title=\"Nombre de t\u00eate vendu et Prix moyen pond\u00e9r\u00e9s mensuels des veaux pour l'ann\u00e9e enti\u00e8re pour l'Ontario et le Quebec - rapport annuel (A018)\" href=\"http://aimis-simia.agr.gc.ca/rp/index-fra.cfm?action=pR&amp;r=548&amp;pdctc=\">Veaux (Ontario et Qu\u00e9bec)</a></li>\n<li><a title=\"Prix moyen pond\u00e9r\u00e9s du b\u00e9tail par 100 livres par race et cat\u00e9gories pour l'Ontario et le Quebec - rapport annuel (A016A)\" href=\"http://aimis-simia.agr.gc.ca/rp/index-fra.cfm?action=pR&amp;r=565&amp;pdctc=\">Prix moyen pond\u00e9r\u00e9s du b\u00e9tail - par esp\u00e8ce (Ontario et Qu\u00e9bec)</a></li>\n<li><a title=\"Moyenne pond\u00e9r\u00e9 du prix au details du porc selon l'ann\u00e9e\" href=\"/fra/production-animale/information-sur-le-marche-des-viandes-rouges/prix/prix-au-details-du-porc-selon-l-annee/?id=1520539054104\">Prix au detail du porc selon l'ann\u00e9e - moyenne pond\u00e9r\u00e9 ($/<abbr title=\"kilogramme\">kg</abbr>)</a></li>\n</ul>\n</li>\n</ul>\n<h3>Rapport des prix des viandes rouges - Prix de gros \u00e0 Montr\u00e9al</h3>\n<ul>\n<li><a title=\"Rapport hebdomadaire des pris de gros \u00e0 montr\u00e9al pour certaine coupe de boeuf, porc et agnaux (W042E)\" href=\"http://aimis-simia.agr.gc.ca/rp/index-fra.cfm?action=pR&amp;r=620&amp;pdctc=\">Rapport hebdomadaire</a></li>\n<li><a title=\"Rapport mensuel des pris de gros \u00e0 montr\u00e9al pour certaine coupe de boeuf, porc et agnaux (M042E)\" href=\"http://aimis-simia.agr.gc.ca/rp/index-fra.cfm?action=pR&amp;r=621&amp;pdctc=\">Rapport mensuel</a></li>\n<li><a title=\"Rapport annuel des pris de gros \u00e0 montr\u00e9al pour certaine coupe de boeuf, porc et agnaux (A021)\" href=\"http://aimis-simia.agr.gc.ca/rp/index-fra.cfm?action=pR&amp;r=622&amp;pdctc=\">Rapport annuel</a></li>\n</ul>\n<h3>Prix am\u00e9ricain du march\u00e9 des viandes rouges par esp\u00e8ce</h3>\n<ul>\n<li><a title=\"Prix du d\u00e9partement d'agriculture des \u00c9tats-Unis par esp\u00e8ce s\u00e9lectionn\u00e9 et march\u00e9 - rapport hebdomadaire (W042D)\" href=\"http://aimis-simia.agr.gc.ca/rp/index-fra.cfm?action=pR&amp;r=588&amp;pdctc=\">Rapport hebdomadaire</a></li>\n<li><a title=\"Prix du d\u00e9partement d'agriculture des \u00c9tats-Unis par esp\u00e8ce s\u00e9lectionn\u00e9 et march\u00e9 - rapport mensuel (M042D)\" href=\"http://aimis-simia.agr.gc.ca/rp/index-fra.cfm?action=pR&amp;r=589&amp;pdctc=\">Rapport mensuel</a></li>\n<li><a title=\"Prix Am\u00e9ricain du b\u00e9tail (moyenne simple) par 100 livres en dollars am\u00e9ricain - rapport annuel (A025)\" href=\"http://aimis-simia.agr.gc.ca/rp/index-fra.cfm?action=pR&amp;r=552&amp;pdctc=\">Rapport annuel</a></li>\n</ul>\n<p><i>Pour plus d'information sur les prix et r\u00e8glementations am\u00e9ricains visitez:</i></p>\n<ul>\n<li><a title=\"lien externe to aux rapports des services de commercialisation de l'agriculture des \u00c9tats-Unis\" href=\"https://www.ams.usda.gov/market-news/livestock-poultry-grain\" rel=\"external\">Services de commercialisation de l'agriculture des \u00c9tats-Unis <abbr title=\"United States Agricultural marketing services\"> (AMS)</abbr></a> (disponible en anglais seulement)</li>\n<li><a title=\"Lien externe \u00e0 la d\u00e9claration obligatoire du b\u00e9tail aux \u00c9tats-Unis\" href=\"www.ams.usda.gov/rules-regulations/mmr\" rel=\"external\">D\u00e9claration obligatoire du b\u00e9tail aux \u00c9tats-Unis<abbr title=\"United States Livestock mandatory reporting\"> (LMR)</abbr></a> (disponible en anglais seulement)</li>\n</ul>\n<h3>Ratios porc/aliment</h3>\n<ul>\n<li><a title=\"Rapport indiquant le nombre de boisseaux d'orge n\u00e9cessaire pour produire 100 livres de porc vivant Indice 100 (Alberta) et le nombre de boisseaux de ma\u00efs n\u00e9cessaire pour produire 100 livres de porc vivant Indice 100 (Ontario) - Rapport hebdomadaire (W005B)\" href=\"http://aimis-simia.agr.gc.ca/rp/index-fra.cfm?action=pR&amp;r=557&amp;pdctc=\">Rapport hebdomadaire</a></li>\n<li><a title=\"Rapport indiquant le nombre de boisseaux d'orge n\u00e9cessaire pour produire 100 livres de porc vivant Indice 100 (Alberta) et le nombre de boisseaux de ma\u00efs n\u00e9cessaire pour produire 100 livres de porc vivant Indice 100 (Ontario) - Rapport mensuel\" href=\"http://aimis-simia.agr.gc.ca/rp/index-fra.cfm?menupos=1.01.02&amp;LANG=FR&amp;r=558&amp;action=pR&amp;pdctc=\">Rapport Mensuel</a></li>\n<li><a title=\"Rapport indiquant le nombre de boisseaux d'orge fourrag\u00e8re ou de ma\u00efs de cat\u00e9gorie 1 \u00e9quivalant \u00e0 100 livres de porc vivant Indice 100 - Rapport annuel (M024B)\" href=\"http://aimis-simia.agr.gc.ca/rp/index-fra.cfm?action=pR&amp;r=573&amp;pdctc=\">Rapport annuel</a></li>\n</ul>\n<h2><a id=\"STC\"></a>Liens offert par Statistique Canada, pour des rapports de prix de d\u00e9tails</h2>\n<dl>\n<dt><a title=\"Liens externe du tableau de donn\u00e9e de statistique Canada - Prix de d\u00e9tail moyens mensuels pour les aliments et autres produits s\u00e9lectionn\u00e9s\" href=\"https://www150.statcan.gc.ca/t1/tbl1/fr/tv.action?pid=1810000201&amp;request_locale=fr\" rel=\"external\">Prix de d\u00e9tail moyens mensuels pour les aliments et autres produits s\u00e9lectionn\u00e9s</a> (mensuel, Statistique Canada Tableau : 18-10-0002-01)</dt>\n<dd>Moyennes mensuelles du prix de d\u00e9tail. Les prix sont pr\u00e9sent\u00e9s pour le mois actuel et les quatre mois pr\u00e9c\u00e9dents. Les prix sont indiqu\u00e9s en dollars canadiens courants.</dd>\n<dt><a title=\"Liens externe au tableau de donn\u00e9es de Statistique Canada - Prix de d\u00e9tail moyens mensuels pour certains produits, par province\" href=\"https://www150.statcan.gc.ca/t1/tbl1/fr/tv.action?pid=1810024501&amp;request_locale=fr\" rel=\"external\">Prix de d\u00e9tail moyens mensuels pour certains produits, par province</a> (mensuel, Statistics Canada Tableau : 18-10-0245-01)</dt>\n<dd>Moyennes mensuelles de prix de d\u00e9tail pour certains produits, par province. Les prix sont pr\u00e9sent\u00e9s pour le mois actuel et les quatre mois pr\u00e9c\u00e9dents. Les prix sont bas\u00e9s sur les donn\u00e9es de transactions de d\u00e9taillants canadiens, et sont pr\u00e9sent\u00e9s en dollars canadiens courants.</dd>\n</dl>\n<div class=\"clear\"></div>\n<div class=\"well\">\n<p>Pour toute question ou information additionnelle, veuillez communiquer avec nous par courriel \u00e0 <a title=\"Courriel : Division de l'industrie animale, Section de l'information sur les march\u00e9s\" href=\"mailto:aafc.redmeat-vianderouge.aac@canada.ca\">aafc.redmeat-vianderouge.aac@canada.ca</a></p>\n<h2>Nos normes de service</h2>\n<p>Les normes de service jouent un r\u00f4le cl\u00e9 dans les processus de gestion de la planification, des rapports et du rendement de notre programme d'information sur le march\u00e9. Elles d\u00e9finissent clairement le niveau de rendement auquel les clients peuvent s'attendre lorsqu'ils re\u00e7oivent un service dans des circonstances normales.</p>\n<p>Visionnez les <a title=\"Normes de service relatives aux rapports sur les animaux \u00e0 viande rouge et le b\u00e9tail\" href=\"http://www.agr.gc.ca/fra/industrie-marches-et-commerce/statistiques-et-information-sur-les-marches/par-produit-secteur/viande-rouge-et-betail/normes-de-service-relatives-aux-rapports-sur-les-animaux-a-viande-rouge-et-le-betail/?id=1480968240072\">Normes de service relatives aux rapports sur les animaux \u00e0 viande rouge et le b\u00e9tail.</a></p>\n</div>\n<div class=\"clearfix\"></div>\n<!-- InstanceEndEditable --><!-- Fin du contenu -->\n\r\n    <!-- Fin du contenu -->\r\n\t\r\n\t\r\n\t\r\n  "
    }
}