{
    "dcr_id": "1463574780220",
    "title": {
        "en": "Livestock Tax Deferral Provision",
        "fr": "Disposition de report de l'imp\u00f4t pour les \u00e9leveurs"
    },
    "modified": "2020-04-27",
    "issued": "2016-06-17",
    "templatetype": "content page 1 column",
    "page_type": "1",
    "node_id": "1463687168420",
    "dc_date_created": "2016-06-17",
    "managing_branch": "PAB",
    "parent_node_id": "1463686976184",
    "label": {
        "en": "Livestock Tax Deferral Provision",
        "fr": "Disposition de report de l'imp\u00f4t pour les \u00e9leveurs"
    },
    "exturl": "",
    "teamsite_location": {
        "en": "/default/main/AAFC-AAC/Internet-Internet/Group-Ensemble/ProgServ-ProgServ/WORKAREA/ProgServ-ProgServ/templatedata/comm-comm/gene-gene/data/05/livestock_tax_deferral_provision_1463574780220_en",
        "fr": "/default/main/AAFC-AAC/Internet-Internet/Group-Ensemble/ProgServ-ProgServ/WORKAREA/ProgServ-ProgServ/templatedata/comm-comm/gene-gene/data/05/livestock_tax_deferral_provision_1463574780220_fr"
    },
    "type_name": "sitemapinit",
    "has_dcr_id": true,
    "breadcrumb": {
        "en": "Livestock Tax Deferral Provision",
        "fr": "Disposition de report de l'imp\u00f4t pour les \u00e9leveurs"
    },
    "layout_name": "content page 1 column",
    "lang": "en",
    "meta": {
        "issued": {
            "en": "2016-06-17",
            "fr": "2016-06-17"
        },
        "modified": {
            "en": "2020-04-27",
            "fr": "2020-04-27"
        },
        "format": {
            "en": "text/html",
            "fr": "text/html"
        },
        "title": {
            "en": "Livestock Tax Deferral Provision",
            "fr": "Disposition de report de l'imp\u00f4t pour les \u00e9leveurs"
        },
        "subject": {
            "en": "geomatics;architectural heritage;architecture",
            "fr": "d\u00e9veloppement communautaire;\u00e9conomie agricole;commerce ext\u00e9rieur"
        },
        "description": {
            "en": "DW-GS Drought Watch livestock_tax_deferral_program Livestock Tax Deferral Provision. or contact us at. AAFC.TaxDeferral-Reportdelimpot.AAC@AGR.GC.CA. List of All Designated Areas Eligible for 2015. (last updated: February 2, 2016). List of All Designated Areas Eligible for 2014.",
            "fr": "DW-GS Guetter la s\u00e9cheresse Disposition de report de l'imp\u00f4t pour les \u00e9leveurs. AAFC.TaxDeferral-Reportdelimpot.AAC@AGR.GC.CA. .D\u00e9signation des r\u00e9gions. (derni\u00e8re mise \u00e0 jour\u00a0: 2 f\u00e9vrier 2016). La liste de tous secteurs d\u00e9sign\u00e9s \u00e9ligibles pour 2014."
        },
        "language": {
            "en": "eng",
            "fr": "fra"
        },
        "keywords": {
            "en": "announced.How;December.Only",
            "fr": "administratives.En;nentra\u00eeneraient pas de d\u00e9signation.Lors;d\u00e9signation.Lors de ces pourparlers"
        },
        "audience": {
            "en": "gcaudience",
            "fr": "gcaudience"
        },
        "type": {
            "en": "geospatial material",
            "fr": "avis"
        },
        "creator": {
            "en": "Agriculture and Agri-Food Canada;Government of Canada",
            "fr": "Agriculture et Agroalimentaire Canada;Gouvernement du Canada"
        },
        "spatial": {
            "en": "gcregions",
            "fr": "gcregions"
        },
        "service": {
            "en": "AAFC-AAC",
            "fr": "AAFC-AAC"
        },
        "accessRights": {
            "en": "2",
            "fr": "2"
        },
        "legalName": {
            "en": "agriculture_and_agri_food_canada",
            "fr": "agriculture_et_agroalimentaire_canada"
        },
        "areaServed": {
            "en": "Canada",
            "fr": "Canada"
        }
    },
    "css": {
        "fr": null
    },
    "js": {
        "en": null,
        "fr": null
    },
    "body": {
        "en": "<!-- D&eacute;but du contenu -->\r\n    <p>The Livestock Tax Deferral provision allows farmers who sell part of their breeding herd due to drought or flooding in prescribed drought or flood regions to defer a portion of sale proceeds to the following year.  When prescribed regions are identified, the list is announced publicly and posted to this web page. </p>\n\n<h2>How the provision works</h2>\n\n<p>To defer income, the breeding herd must have been reduced by at least 15%. </p>\n<ul><li>Where the breeding herd has been reduced by at least 15%, but less than 30%, 30% of income from net sales can be deferred.</li> \n<li>Where the breeding herd has been reduced by 30% or more, 90% of income from net sales can be deferred.</li></ul>\n\n<p>In a year in which a region has been prescribed, income from livestock sales are deferred to the next tax year when the income may be at least partially offset by the cost of reacquiring breeding animals, thus reducing the potential tax burden. In the case of consecutive years of drought or excess moisture and flood conditions, producers may defer sales income to the first year in which the region is no longer prescribed.</p>\n\n<h2>What are the criteria to Prescribe Drought and Flood Regions?</h2>\n\n<p>Prescribed regions are designated, on the advice of the Minister of Agriculture and Agri-Food Canada to the Minister of Finance, when forage yields are less than 50% of the long-term average as a result of drought or flooding in a particular year. To be designated, the affected area must have recognized geo-political boundaries (for example municipalities or counties) and be large enough to have an impact on the industry. Impacts on individual municipalities/regions would not result in a designation.</p>\n\n<p>A preliminary list of Prescribed Drought and Flood Regions is usually completed in the early fall, for those regions where it appears that the criteria will be met. Since forage yield information is not final until later in the year, these designations are made primarily on the basis of spring moisture and summer rainfall, and is supplemented with estimates of forage yield. Assessments of areas are reviewed in discussions with federal and provincial staff.  A final list of Prescribed Drought and Flood Regions, including previously announced regions, is usually made in December when finalized forage yield information is available.</p>\n\n<h2>Additional Information</h2>\n\n<p>For more information on the process or criteria to identify Prescribed Drought or Flood Regions, please contact <a href=\"mailto:aafc.taxdeferral-reportdelimpot.aac@canada.ca\">aafc.taxdeferral-reportdelimpot.aac@canada.ca</a>.</p>\n\n<p>For questions related to calculating and/or reporting income deferral for Prescribed Drought/Flood Regions for income tax purposes, please contact the <a href=\"https://www.canada.ca/en/revenue-agency/corporate/contact-information/telephone-numbers.html#h5\">Canada Revenue Agency (CRA)</a> or consult the CRA publication T4002 Self-employed Business, Professional, Commission, Farming, and Fishing Income, Chapter 2 Income. The Livestock Tax Deferral information is detailed in Line 9470 \u2013 Livestock and animal products revenue.</p>\n\n<p>Prescribed Drought/Flood Regions eligible for livestock income deferrals by year:</p>\n\n<ul>\n<li><a href=\"?id=1563200329910\">2019 List of Prescribed Regions</a></li>\n<li><a href=\"?id=1536603017155\">2018 List of Prescribed Regions</a></li>\n<li><a href=\"?id=1509719116307\">2017 List of Prescribed Regions</a></li>\n<li><a href=\"?id=1478291103879\">2016 List of Prescribed Regions</a></li>\n<li><a href=\"?id=1463577913348\">2015 List of Prescribed Regions</a></li>\n</ul>\n\n\n<!--   <p><a href=\"?id=1530043425676\">Archival Drought and Flood Regions</a> - 2007-2014</p>   -->\n\n\r\n    <!-- Fin du contenu -->",
        "fr": "\r\n    \r\n    <!-- MainContentStart -->\r\n    <!-- D&eacute;but du contenu -->\r\n    <p>La disposition de report de l\u2019imp\u00f4t pour les \u00e9leveurs permet aux producteurs qui vendent une partie de leur cheptel reproducteur en raison d\u2019une s\u00e9cheresse ou d\u2019une inondation dans les r\u00e9gions d\u00e9sign\u00e9es de reporter une partie du produit des ventes \u00e0 l\u2019ann\u00e9e suivante. Lorsque des r\u00e9gions sont d\u00e9sign\u00e9es, la liste est annonc\u00e9e publiquement et affich\u00e9e dans la pr\u00e9sente page Web.</p> \n\n<h2>Application de la disposition </h2>\n\n<p>Pour que l\u2019imp\u00f4t puisse \u00eatre report\u00e9, le cheptel reproducteur doit avoir \u00e9t\u00e9 r\u00e9duit d\u2019au moins 15\u00a0%. </p>\n<ul><li>Si le cheptel reproducteur a \u00e9t\u00e9 r\u00e9duit de moins de 15\u00a0%, mais d\u2019au plus 30\u00a0%, il est possible de reporter 30 % du revenu des ventes nettes. </li>\n<li>Si le cheptel reproducteur a \u00e9t\u00e9 r\u00e9duit de 30\u00a0% ou plus, il est possible de reporter 90\u00a0% du revenu des ventes nettes.</li></ul>\n\n<p>Le produit des ventes de b\u00e9tail enregistr\u00e9 au cours d\u2019une ann\u00e9e o\u00f9 une r\u00e9gion a \u00e9t\u00e9 d\u00e9sign\u00e9e est report\u00e9 \u00e0 l\u2019ann\u00e9e d\u2019imposition suivante, ce qui peut permettre de compenser, en partie du moins, le revenu par le co\u00fbt d\u2019achat d\u2019animaux reproducteurs et ainsi r\u00e9duire le fardeau fiscal. Lorsque leur r\u00e9gion est d\u00e9sign\u00e9e en raison d\u2019une s\u00e9cheresse, d\u2019une humidit\u00e9 excessive ou d\u2019inondations plusieurs ann\u00e9es de suite, les producteurs peuvent reporter le produit des ventes \u00e0 la premi\u00e8re ann\u00e9e o\u00f9 cette d\u00e9signation ne s\u2019applique plus \u00e0 leur r\u00e9gion.</p>\n\n<h2>Crit\u00e8res servant \u00e0 prescrire une r\u00e9gion en raison d\u2019une s\u00e9cheresse ou d\u2019une inondation </h2>\n\t\n<p>Lorsque le rendement des cultures fourrag\u00e8res est inf\u00e9rieur \u00e0 50\u00a0% de la moyenne \u00e0 long terme en raison d\u2019une s\u00e9cheresse ou d\u2019une inondation survenue lors d\u2019une ann\u00e9e donn\u00e9e, le ministre d\u2019Agriculture et Agroalimentaire Canada recommande au ministre des Finances de prescrire les r\u00e9gions concern\u00e9es. Pour \u00eatre d\u00e9sign\u00e9e, la zone touch\u00e9e doit avoir des fronti\u00e8res g\u00e9opolitiques reconnues (par exemple les municipalit\u00e9s et les comt\u00e9s) et \u00eatre suffisamment \u00e9tendue pour avoir des r\u00e9percussions sur le secteur. Des r\u00e9percussions touchant une seule municipalit\u00e9/r\u00e9gion ne donneraient pas lieu \u00e0 une d\u00e9signation.</p>\n\n<p>Une liste provisoire des r\u00e9gions prescrites en raison d\u2019une s\u00e9cheresse ou d\u2019une inondation peut habituellement \u00eatre \u00e9tablie au d\u00e9but de l\u2019automne lorsqu\u2019il semble que les crit\u00e8res \u00e9tablis seront respect\u00e9s. Comme les donn\u00e9es d\u00e9finitives sur le rendement des cultures fourrag\u00e8res ne sont connues que plus tard dans l\u2019ann\u00e9e, la d\u00e9signation provisoire repose principalement sur la teneur en humidit\u00e9 au printemps et le niveau des pr\u00e9cipitations en \u00e9t\u00e9, ainsi que sur une estimation du rendement des cultures fourrag\u00e8res. L\u2019\u00e9valuation des zones est v\u00e9rifi\u00e9e en collaboration avec des fonctionnaires f\u00e9d\u00e9raux et provinciaux. La liste d\u00e9finitive des r\u00e9gions  prescrites en raison d\u2019une s\u00e9cheresse ou d\u2019une inondation, y compris les r\u00e9gions annonc\u00e9es pr\u00e9c\u00e9demment, est habituellement \u00e9tablie en d\u00e9cembre lorsque les donn\u00e9es d\u00e9finitives sur le rendement des cultures fourrag\u00e8res sont disponibles.</p>\n\n<h2>Renseignements suppl\u00e9mentaires</h2>\n\n<p>Pour de plus amples renseignements sur le processus ou les crit\u00e8res permettant de prescrire les r\u00e9gions en raison d\u2019une s\u00e9cheresse ou d\u2019une inondation, veuillez envoyer un courriel \u00e0 <a href=\"mailto:aafc.taxdeferral-reportdelimpot.aac@canada.ca\">aafc.taxdeferral-reportdelimpot.aac@canada.ca</a>.</p> \n\n<p>Si vous avez des questions sur le calcul ou la d\u00e9claration du report de l\u2019imp\u00f4t pour les r\u00e9gions d\u00e9sign\u00e9es en raison d\u2019une s\u00e9cheresse ou d\u2019une inondation, <a href=\"https://www.canada.ca/fr/agence-revenu/organisation/coordonnees/numeros-telephone.html\">veuillez communiquer avec l\u2019Agence du revenu du Canada (ARC)</a> ou consulter le guide de l\u2019ARC T4002 Revenus d\u2019un travail ind\u00e9pendant d\u2019entreprise, de profession lib\u00e9rale, de commissions, d\u2019agriculture et de p\u00eache, Chapitre 2\u00a0\u2013 Revenus. L'information sur le report de l'imp\u00f4t pour les \u00e9leveurs est d\u00e9taill\u00e9e \u00e0 la ligne 9470 \u2013 Revenus du b\u00e9tail et des produits d\u2019origine animale.</p>\n\n<p>Report de l\u2019imp\u00f4t pour les \u00e9leveurs en raison d\u2019une s\u00e9cheresse ou d\u2019une inondation \u2013 r\u00e9gions prescrites admissibles par ann\u00e9e\u00a0:</p>\n<ul>\n <li><a href=\"?id=1563200329910\">La liste de tous r\u00e9gions d\u00e9sign\u00e9s \u00e9ligibles pour 2019</a></li>\n <li><a href=\"?id=1536603017155\">La liste de tous r\u00e9gions d\u00e9sign\u00e9s \u00e9ligibles pour 2018</a></li>\n <li><a href=\"?id=1509719116307\">La liste de tous r\u00e9gions d\u00e9sign\u00e9s \u00e9ligibles pour 2017</a></li>\n <li><a href=\"?id=1478291103879\">La liste de tous r\u00e9gions d\u00e9sign\u00e9s \u00e9ligibles pour 2016</a></li>\n <li><a href=\"?id=1463577913348\">La liste de tous r\u00e9gions d\u00e9sign\u00e9s \u00e9ligibles pour 2015</a></li>\n</ul>\n\r\n    <!-- Fin du contenu -->\r\n\t\r\n\t\r\n\t\r\n  "
    }
}