{
    "dcr_id": "1463575241811",
    "title": {
        "en": "Managing Agroclimate Risk",
        "fr": "Gestion du risque agroclimatique"
    },
    "modified": "2020-07-29",
    "issued": "2016-06-17",
    "templatetype": "content page 1 column",
    "page_type": "1",
    "node_id": "1463687249668",
    "dc_date_created": "2016-06-17",
    "managing_branch": "PAB",
    "parent_node_id": "1463686976184",
    "label": {
        "en": "Managing Agroclimate Risk",
        "fr": "Gestion du risque agroclimatique"
    },
    "exturl": "",
    "teamsite_location": {
        "en": "/default/main/AAFC-AAC/Internet-Internet/Group-Ensemble/ProgServ-ProgServ/WORKAREA/ProgServ-ProgServ/templatedata/comm-comm/gene-gene/data/05/managing_agroclimate_risk_1463575241811_en",
        "fr": "/default/main/AAFC-AAC/Internet-Internet/Group-Ensemble/ProgServ-ProgServ/WORKAREA/ProgServ-ProgServ/templatedata/comm-comm/gene-gene/data/05/managing_agroclimate_risk_1463575241811_fr"
    },
    "type_name": "sitemapinit",
    "has_dcr_id": true,
    "breadcrumb": {
        "en": "Managing Agroclimate Risk",
        "fr": "Gestion du risque agroclimatique"
    },
    "layout_name": "content page 1 column",
    "lang": "en",
    "meta": {
        "issued": {
            "en": "2016-06-17",
            "fr": "2016-06-17"
        },
        "modified": {
            "en": "2020-07-29",
            "fr": "2020-07-29"
        },
        "format": {
            "en": "text/html",
            "fr": "text/html"
        },
        "title": {
            "en": "Managing Agroclimate Risk",
            "fr": "Gestion du risque agroclimatique"
        },
        "subject": {
            "en": "community development;rural communities;sustainable development",
            "fr": "foresterie;accord;engrais"
        },
        "description": {
            "en": "DW-GSDrought Watchmanaging_argroclimate_riskManaging Agroclimate Risk. The information here on farm management practices will help you to prepare and mitigate risk to your crops, livestock and land during drought conditions.Crops. Livestock. Securing Livestock Water During Drought. Using Cereals for Feed During a Drought. Farm Water Conservation During Times of Drought. Farmers Urged to Choose Water Carefully.",
            "fr": "DW-GSGuetter la s\u00e9cheresseGestion du risque agroclimatique. Freiner l\u2019\u00e9rosion \u00e9olienne par la culture en bandes. Mesures d\u2019urgence pour l\u2019approvisionnement en eau en p\u00e9riode de s\u00e9cheresse."
        },
        "language": {
            "en": "eng",
            "fr": "fra"
        },
        "keywords": {
            "en": null,
            "fr": "d\u00e9rosion;bleu-vert;ann\u00e9es.Presque"
        },
        "audience": {
            "en": "gcaudience",
            "fr": "gcaudience"
        },
        "type": {
            "en": "presentation",
            "fr": "d\u00e9cision"
        },
        "creator": {
            "en": "Agriculture and Agri-Food Canada;Government of Canada",
            "fr": "Agriculture et Agroalimentaire Canada;Gouvernement du Canada"
        },
        "spatial": {
            "en": "gcregions",
            "fr": "gcregions"
        },
        "service": {
            "en": "AAFC-AAC",
            "fr": "AAFC-AAC"
        },
        "accessRights": {
            "en": "2",
            "fr": "2"
        },
        "legalName": {
            "en": "agriculture_and_agri_food_canada",
            "fr": "agriculture_et_agroalimentaire_canada"
        },
        "areaServed": {
            "en": "Canada",
            "fr": "Canada"
        }
    },
    "css": {
        "fr": null
    },
    "js": {
        "en": null,
        "fr": null
    },
    "body": {
        "en": "<!-- D&eacute;but du contenu -->\r\n    <p>The information here on farm management practices will help you to prepare and mitigate risk to your crops, livestock and land during drought conditions.</p>\n\n<h2>Crops</h2>\n<ul>\n<li><a href=\"?id=1463579320216\">Alternatives to Summerfallow</a></li>\n<li><a href=\"?id=1463579901513\">Drought Increases Erosion Concerns</a></li>\n<li><a href=\"?id=1463580815688\">Strip Farming for Wind Erosion Control</a></li>\n</ul>\n\n<h2>Pest Management</h2>\n<ul>\n<li><a href=\"?id=1463592184398\">Grasshopper Control Methods</a></li>\n</ul>\n\n\n<h2>Water</h2>\n<ul>\n<li><a href=\"?id=1463592399677\">Tips on Dugout Water Treatment</a></li>\n<li><a href=\"?id=1463592646188\">Farm Water Conservation During Times of Drought</a></li>\n<li><a href=\"?id=1463593254527\">Water Wells During Drought</a></li>\n</ul>\n\n\n<h2>Climate Profiles</h2>\n<ul>\n<li><a href=\"?id=1463593613430\">Lessons Learned from the Canadian Drought Years 2001 and 2002: Synthesis Report</a></li>\n</ul>\n\n\r\n    <!-- Fin du contenu -->",
        "fr": "\r\n    \r\n    <!-- MainContentStart -->\r\n    <!-- D&eacute;but du contenu -->\r\n    <p>Cette section renferme des renseignements sur les m\u00e9thodes de gestion agricole qui vous aideront \u00e0 vous pr\u00e9parer en cas de s\u00e9cheresse et \u00e0 att\u00e9nuer les risques de cette s\u00e9cheresse pour vos cultures, votre b\u00e9tail et vos terres.</p>\n\n<h2>Cultures</h2>\n<ul>\n<li><a href=\"?id=1463579320216\">Solutions de rechange \u00e0 la mise en jach\u00e8re</a></li>\n<li><a href=\"?id=1463579901513\">La s\u00e9cheresse augmente les probl\u00e8mes d'\u00e9rosion</a></li>\n<li><a href=\"?id=1463580815688\">Freiner l'\u00e9rosion \u00e9olienne par la culture en bandes</a></li>\n</ul>\n\n<h2>Lutte antiparasitaire</h2>\n<ul>\n<li><a href=\"?id=1463592184398\">M\u00e9thodes de lutte contre les sauterelles</a></li>\n</ul>\n\n\n<h2>Eau</h2>\n<ul>\n<li><a href=\"?id=1463592399677\">Conseils sur le traitement des eaux des mares-r\u00e9servoirs</a></li>\n<li><a href=\"?id=1463592646188\">La conservation de l'eau de ferme en p\u00e9riodes de s\u00e9cheresse</a></li>\n<li><a href=\"?id=1463593254527\">Les puits d'eau en temps de s\u00e9cheresse</a></li>\n</ul>\n\n\n<h2>Profils climatiques </h2>\n<ul>\n<li><a href=\"?id=1463593613430\">Le\u00e7ons tir\u00e9es des ann\u00e9es de s\u00e9cheresse 2001 et 2002 au Canada\u00a0: Rapport de synth\u00e8se</a></li>\n</ul>\n\n\r\n    <!-- Fin du contenu -->\r\n\t\r\n\t\r\n\t\r\n  "
    }
}