{
    "dcr_id": "1467728531275",
    "title": {
        "en": "Agriculture and food market intelligence - Asia",
        "fr": "Information sur les march\u00e9s agricoles et alimentaires - Asie"
    },
    "modified": "2021-01-26",
    "issued": "2016-07-13",
    "templatetype": "content page 1 column",
    "page_type": "1",
    "node_id": "1468266822670",
    "dc_date_created": "2016-07-13",
    "managing_branch": "MISB",
    "parent_node_id": "1410080965335",
    "label": {
        "en": "Market Intelligence - Asia",
        "fr": "Renseignements sur les march\u00e9s"
    },
    "exturl": "",
    "teamsite_location": {
        "en": "/default/main/AAFC-AAC/Internet-Internet/MISB-DGSIM/ATS-SEA/ATS-SEA-s2/WORKAREA/ATS-SEA-s2/templatedata/comm-comm/gene-gene/data/info_asi_marketintelligence_1467728531275_en",
        "fr": "/default/main/AAFC-AAC/Internet-Internet/MISB-DGSIM/ATS-SEA/ATS-SEA-s2/WORKAREA/ATS-SEA-s2/templatedata/comm-comm/gene-gene/data/info_asi_marketintelligence_1467728531275_fr"
    },
    "type_name": "sitemapinit",
    "has_dcr_id": true,
    "breadcrumb": {
        "en": "Market Intelligence - Asia",
        "fr": "Renseignements sur les march\u00e9s"
    },
    "layout_name": "content page 1 column",
    "lang": "en",
    "meta": {
        "issued": {
            "en": "2016-07-13",
            "fr": "2016-07-13"
        },
        "modified": {
            "en": "2021-01-26",
            "fr": "2021-01-26"
        },
        "format": {
            "en": "gcformat",
            "fr": "gcformat"
        },
        "title": {
            "en": "Agriculture and food market intelligence - Asia",
            "fr": "Information sur les march\u00e9s agricoles et alimentaires - Asie"
        },
        "subject": {
            "en": "agri-food products;agri-food industry",
            "fr": "produit agro-alimentaire;industrie agro-alimentaire"
        },
        "description": {
            "en": "Market intelligence by country, by interest and by sector",
            "fr": "Renseignements sur les march\u00e9s par int\u00e9r\u00eat, par secteur et par r\u00e9gion"
        },
        "language": {
            "en": "eng",
            "fr": "fra"
        },
        "keywords": {
            "en": " livestock; meat; processed food; horticulture; wellness; health; vietnam; thailand; taiwan; sri lanka; southeast asia; singapore; seafood; philippines; pakistan; new zealand; malaysia; laos; republic; korea; japan; indonesia; india; fish; hong kong; china; cambodia; burma (myanmar); brunei; bangladesh; australia; retail; foodservice; consumer; dairy;crops",
            "fr": " b\u00e9tail; viande; aliments transform\u00e9s; horticoles; bien-\u00eatre; sant\u00e9; vietnam; tha\u00eflande; ta\u00efwan; sri lanka; singapour; philippines; fruits de mer; pakistan; nouvelle-z\u00e9lande; malaisie; laos; japon; indon\u00e9sie; inde; hong kong; r\u00e9publique; cor\u00e9e; poissons; chine; cambodge; brun\u00e9i; birmanie (myanmar); bangladesh; australie; asie du sud-est; vente au d\u00e9tail; restoration; consommateurs; laitiers;cultures"
        },
        "audience": {
            "en": "gcaudience",
            "fr": "gcaudience"
        },
        "type": {
            "en": "resource list",
            "fr": "liste de r\u00e9f\u00e9rence"
        },
        "creator": {
            "en": "Agriculture and Agri-Food Canada;Government of Canada",
            "fr": "Agriculture et Agroalimentaire Canada;Gouvernement du Canada"
        },
        "spatial": {
            "en": "gcregions",
            "fr": "gcregions"
        },
        "service": {
            "en": "AAFC-AAC",
            "fr": "AAFC-AAC"
        },
        "accessRights": {
            "en": "2",
            "fr": "2"
        },
        "legalName": {
            "en": "agriculture_and_agri_food_canada",
            "fr": "agriculture_et_agroalimentaire_canada"
        },
        "areaServed": {
            "en": "Canada",
            "fr": "Canada"
        }
    },
    "css": {
        "fr": null
    },
    "js": {
        "en": null,
        "fr": null
    },
    "body": {
        "en": "<!-- D&eacute;but du contenu -->\r\n    <section class=\"alert alert-info\">\n<h2>Find market intelligence reports faster</h2>\n<p>Access <a class=\"alert-link nowrap\" href=\"?id=1522931721523\">international market intelligence reports</a> on agriculture, food and seafood using a dynamic filtering tool.</p>\n</section>\n\n<h2>Top Asian agri-food opportunities</h2>\n\n<p>Discover the major opportunities for Canadian agri-food producers in our:</p>\n<ul>\n<li><a href=\"?id=1513879312343\">Outline of opportunities in China</a></li>\n<li><a href=\"?id=1578504349994\">Outline of opportunities in India</a></li>\n<li><a href=\"?id=1513609569040\">Outline of opportunities in Japan</a></li>\n<li><a href=\"?id=1517337263907\">Outline of opportunities in South Korea</a></li>\n</ul>\n\n<h2>Reports by sector</h2>\n<ul class=\"list-unstyled colcount-md-3\">\n<li><a href=\"?id=1467733104653#additivesandingredients\">Additives and ingredients</a></li>\n<li><a href=\"?id=1467733104653#animalfeedandpetfood\">Animal feed and pet food</a></li>\n<!--li><a href=\"?id=1467733104653#bakedgoodsandbakeryproducts\">Baked goods and bakery products</a></li-->\n<li><a href=\"?id=1467733104653#beverages\">Beverages</a></li>\n<!--li><a href=\"?id=1467733104653#condiments\">Condiments</a></li-->\n<li><a href=\"?id=1467733104653#confectionery\">Confectionery</a></li>\n<li><a href=\"?id=1467733104653#dairyproducts\">Dairy products</a></li>\n<li><a href=\"?id=1467733104653#fishandseafood\">Fish and seafood</a></li>\n<li><a href=\"?id=1467733104653#healthandwellness\">Health and wellness</a></li>\n<!--li><a href=\"?id=1467733104653#horticulture\">Horticulture</a></li-->\n<li><a href=\"?id=1467733104653#meatandlivestock\">Meat and livestock</a></li>\n<li><a href=\"?id=1467733104653#oilseedscerealsandgrains\">Oilseeds, cereals and grains</a></li>\n<li><a href=\"?id=1467733104653#packagedfood\">Packaged food</a></li>\n<li><a href=\"?id=1467733104653#poultryandeggs\">Poultry and eggs</a></li>\n<li><a href=\"?id=1467733104653#pulsesandspecialcrops\">Pulses and special crops</a></li>\n</ul>\n\n<h2>Reports by market</h2>\n<ul class=\"list-unstyled colcount-md-3\">\n<li><a href=\"?id=1467732642829#ASEAN\">Association of Southeast Asian Nations (ASEAN)</a></li>\n<li><a href=\"?id=1467732642829#australia\">Australia</a></li>\n<li><a href=\"?id=1467732642829#china\">China</a></li>\n<li><a href=\"?id=1467732642829#hongkong\">Hong Kong</a></li>\n<li><a href=\"?id=1467732642829#india\">India</a></li>\n<li><a href=\"?id=1467732642829#indonesia\">Indonesia</a></li>\n<li><a href=\"?id=1467732642829#japan\">Japan</a></li>\n<li><a href=\"?id=1467732642829#malaysia\">Malaysia</a></li>\n<li><a href=\"?id=1467732642829#newzealand\">New Zealand</a></li>\n<li><a href=\"?id=1467732642829#philippines\">Philippines</a></li>\n<li><a href=\"?id=1467732642829#singapore\">Singapore</a></li>\n<li><a href=\"?id=1467732642829#korea\">South Korea</a></li>\n<li><a href=\"?id=1467732642829#taiwan\">Taiwan</a></li>\n<li><a href=\"?id=1467732642829#thailand\">Thailand</a></li>\n<li><a href=\"?id=1467732642829#vietnam\">Vietnam</a></li>\n</ul>\n\n<h2>Videos on agri-food trade with Asia</h2>\n\n<p class=\"mrgn-tp-md\">Trade Commissioners highlight key marketplace considerations.</p>\n\n<div class=\"row\">\n<div class=\"col-md-4\">\n<p class=\"small mrgn-tp-md\"><a href=\"?id=1525272046056\"><img src=\"https://www.agr.gc.ca/resources/prod/Internet-Internet/MISB-DGSIM/ATS-SEA/images/7002/tradecommissionervid_ckfta-eng.jpg\" class=\"img-responsive text-center mrgn-bttm-sm\" alt=\"\"><br>Canada-Korea Free Trade Agreement (CKFTA)</a></p>\n</div>\n<div class=\"col-md-4\">\n<p class=\"small mrgn-tp-md\"><a href=\"?id=1477073967278\"><img src=\"https://www.agr.gc.ca/resources/prod/Internet-Internet/MISB-DGSIM/ATS-SEA/images/vid-asi-korea-eng.png\" class=\"img-responsive text-center mrgn-bttm-sm\" alt=\"\"><br>Market Opportunity: South Korea</a></p>\n</div>\n<div class=\"col-md-4\">\n<p class=\"small mrgn-tp-md\"><a href=\"?id=1491491999810\"><img src=\"https://www.agr.gc.ca/resources/prod/Internet-Internet/MISB-DGSIM/ATS-SEA/images/vid-asi-india-eng.png\" class=\"img-responsive text-center mrgn-bttm-sm\" alt=\"\"><br>Market Opportunity: India</a></p>\n</div>\n</div>\n\n<h2 class=\"mrgn-tp-lg\">More support for business</h2>\n<dl>\n<dt><a href=\"?id=1517591966114\">Canada-Korea  Free Trade Agreement (CKFTA) for agri-food exporters</a></dt>\n<dd>Find out what CKFTA is and how  it can benefit your exports to South Korea.</dd>\n<dt><a href=\"https://www.tradecommissioner.gc.ca/trade_commissioners-delegues_commerciaux/index.aspx?lang=eng\">The Canadian Trade Commissioner Service</a></dt>\n<dd>\n<p>Learn how Canada's network of Trade Commissioners can help you navigate international markets and expand your business.</p>\n<p>Access the Trade Commissioner  Service\u2019s market profiles and reports on:</p>\n<ul>\n<li><a href=\"https://www.tradecommissioner.gc.ca/sectors-secteurs/agriculture-and-processed-foods-agriculture-et-des-aliments-transformes.aspx?lang=eng&amp;_ga=2.232935574.941185074.1563462390-1655195799.1557946351\">Agriculture and processed foods</a></li>\n<li><a href=\"https://www.tradecommissioner.gc.ca/sectors-secteurs/fish-and-seafood-poissons-et-fruits-de-mer.aspx?lang=eng&amp;_ga=2.238235912.941185074.1563462390-1655195799.1557946351\">Fish and seafood</a></li>\n<li><a href=\"https://www.tradecommissioner.gc.ca/sectors-secteurs/wine-beer-and-spirits-vin-de-la-biere-et-des-spiritueux.aspx?lang=eng&amp;_ga=2.2946232.941185074.1563462390-1655195799.1557946351\">Wine, beer and spirits</a></li>\n</ul>\n</dd>\n<dt>Market intelligence services</dt>\n<dd>\n<p>We offer free services for Canadian agriculture and agri-food businesses.</p>\n<ul>\n<li>Request market intelligence: <a class=\"nowrap\" href=\"mailto:aafc.mas-sam.aac@canada.ca?subject=International%20market%20intelligence%20services%20and%20analysis&amp;body=Please%20describe%20how%20we%20can%20help%20you%20with%20your%20international%20market%20intelligence%20needs.&amp;cc=aafc.infoservice.aac@canada.ca\">aafc.mas-sam.aac@canada.ca</a></li>\n<li>Subscribe to receive the latest reports in your email inbox: <a class=\"nowrap\" href=\"mailto:aafc.infoservice.aac@canada.ca?subject=InfoService%20subscription%20for%20international%20market%20intelligence&amp;body=Please%20subscribe%20me%20to%20AAFC-AAC's%20international%20market%20intelligence%20InfoService%20emails.\">aafc.infoservice.aac@canada.ca</a></li>\n</ul>\n</dd>\n</dl>\n\r\n    <!-- Fin du contenu -->",
        "fr": "\r\n    \r\n    <!-- MainContentStart -->\r\n    <!-- D&eacute;but du contenu -->\r\n    <section class=\"alert alert-info\">\n<h2>Trouvez des rapports d'information sur les march\u00e9s plus rapidement</h2>\n<p>Consultez des <a class=\"alert-link nowrap\" href=\"?id=1522931721523\">rapports d'information sur les march\u00e9s</a> internationaux des secteurs de l'agriculture, de l'alimentation et des produits de la mer au moyen d'un outil de filtrage dynamique.</p>\n</section>\n\n<h2>Meilleurs d\u00e9bouch\u00e9s agroalimentaires du march\u00e9 asiatique</h2>\n\n<p>D\u00e9couvrez les principaux d\u00e9bouch\u00e9s pour les producteurs agroalimentaires canadiens dans notre\u00a0:</p>\n<ul>\n<li><a href=\"?id=1513879312343\">Aper\u00e7u des d\u00e9bouch\u00e9s en Chine</a></li>\n<li><a href=\"?id=1517337263907\">Aper\u00e7u des d\u00e9bouch\u00e9s en Cor\u00e9e du Sud</a></li>\n<li><a href=\"?id=1578504349994\">Aper\u00e7u des d\u00e9bouch\u00e9s en Inde</a></li>\n<li><a href=\"?id=1513609569040\">Aper\u00e7u des d\u00e9bouch\u00e9s au Japon</a></li>\n</ul>\n\n<h2>Rapports par secteur</h2>\n<ul class=\"list-unstyled colcount-md-3\">\n<li><a href=\"?id=1467733104653#additifsetingredients\">Additifs et ingr\u00e9dients</a></li>\n<li><a href=\"?id=1467733104653#alimentsemballes\">Aliments emball\u00e9s</a></li>\n<li><a href=\"?id=1467733104653#alimentspourbetailetanimauxdomestiques\">Aliments pour b\u00e9tail et animaux domestiques</a></li>\n<li><a href=\"?id=1467733104653#boissons\">Boissons</a></li>\n<li><a href=\"?id=1467733104653#condiments\">Condiments</a></li>\n<!--li><a href=\"?id=1467733104653#confiseries\">Confiseries</a></li-->\n<li><a href=\"?id=1467733104653#legumineusesagrainsetculturesspeciales\">L\u00e9gumineuses \u00e0 grains et cultures sp\u00e9ciales</a></li>\n<li><a href=\"?id=1467733104653#oleagineuxcerealesetgrains\">Ol\u00e9agineux, c\u00e9r\u00e9ales et grains</a></li>\n<li><a href=\"?id=1467733104653#poissonsetfruitsdemer\">Poissons et fruits de mer</a></li>\n<li><a href=\"?id=1467733104653#produitsdeboulangerieetdepatisserie\">Produits de boulangerie et de p\u00e2tisserie</a></li>\n<li><a href=\"?id=1467733104653#horticulture\">Produits horticoles</a></li>\n<li><a href=\"?id=1467733104653#produitlaitiers\">Produits laitiers</a></li>\n<li><a href=\"?id=1467733104653#santeetbienetre\">Sant\u00e9 et mieux-\u00eatre</a></li>\n<li><a href=\"?id=1467733104653#viandeetbetail\">Viande et b\u00e9tail</a></li>\n<li><a href=\"?id=1467733104653#volailleetoeufs\">Volaille et \u0153ufs</a></li>\n</ul>\n\n<h2>Rapports par march\u00e9</h2>\n<ul class=\"list-unstyled colcount-md-3\">\n<li><a href=\"?id=1467732642829#ANASE\">Association des nations de l'Asie du Sud-Est (ANASE)</a></li>\n<li><a href=\"?id=1467732642829#australie\">Australie</a></li>\n<li><a href=\"?id=1467732642829#chine\">Chine</a></li>\n<li><a href=\"?id=1467732642829#coree\">Cor\u00e9e du Sud</a></li>\n<li><a href=\"?id=1467732642829#hongkong\">Hong Kong</a></li>\n<li><a href=\"?id=1467732642829#inde\">Inde</a></li>\n<li><a href=\"?id=1467732642829#indonesie\">Indon\u00e9sie</a></li>\n<li><a href=\"?id=1467732642829#japon\">Japon</a></li>\n<li><a href=\"?id=1467732642829#malaisie\">Malaisie</a></li>\n<li><a href=\"?id=1467732642829#nouvellezelande\">Nouvelle-Z\u00e9lande</a></li>\n<li><a href=\"?id=1467732642829#philippines\">Philippines</a></li>\n<li><a href=\"?id=1467732642829#singapour\">Singapour</a></li>\n<li><a href=\"?id=1467732642829#taiwan\">Ta\u00efwan</a></li>\n<li><a href=\"?id=1467732642829#thailande\">Tha\u00eflande</a></li>\n<li><a href=\"?id=1467732642829#vietnam\">Vietnam</a></li>\n</ul>\n\n<h2>Vid\u00e9os sur le commerce des produits agroalimentaires avec l'Asie</h2>\n\n<p class=\"mrgn-tp-md\">Les d\u00e9l\u00e9gu\u00e9s commerciaux soulignent les principales consid\u00e9rations relatives aux march\u00e9s.</p>\n\n<div class=\"row\">\n<div class=\"col-md-4\">\n<p class=\"small mrgn-tp-md\"><a href=\"?id=1525272046056\"><img src=\"https://www.agr.gc.ca/resources/prod/Internet-Internet/MISB-DGSIM/ATS-SEA/images/7002/tradecommissionervid_ckfta-fra.jpg\" class=\"img-responsive text-center mrgn-bttm-sm\" alt=\"\"><br>L'Accord de libre \u00e9change Canada Cor\u00e9e (ALECC)</a></p>\n</div>\n<div class=\"col-md-4\">\n<p class=\"small mrgn-tp-md\"><a href=\"?id=1491491999810\"><img src=\"https://www.agr.gc.ca/resources/prod/Internet-Internet/MISB-DGSIM/ATS-SEA/images/vid-asi-india-fra.png\" class=\"img-responsive text-center mrgn-bttm-sm\" alt=\"\"><br>D\u00e9bouch\u00e9s commerciaux en Inde</a></p>\n</div>\n<div class=\"col-md-4\">\n<p class=\"small mrgn-tp-md\"><a href=\"?id=1477073967278\"><img src=\"https://www.agr.gc.ca/resources/prod/Internet-Internet/MISB-DGSIM/ATS-SEA/images/vid-asi-korea-fra.png\" class=\"img-responsive text-center mrgn-bttm-sm\" alt=\"\"><br>D\u00e9bouch\u00e9s commerciaux en Cor\u00e9e du Sud</a></p>\n</div>\n</div>\n\n<h2 class=\"mrgn-tp-lg\">Aide suppl\u00e9mentaire pour les entreprises</h2>\n<dl>\n<dt><a href=\"?id=1517591966114\">Accord de libre \u00e9change Canada Cor\u00e9e  (ALECC) pour les exportateurs de produits agroalimentaires</a></dt>\n<dd>D\u00e9couvrez en quoi consiste l'ALECC et comment il peut faciliter vos exportations vers la Cor\u00e9e du Sud.</dd>\n<dt><a href=\"https://www.deleguescommerciaux.gc.ca/trade_commissioners-delegues_commerciaux/index.aspx?lang=fra\">Le Service des d\u00e9l\u00e9gu\u00e9s commerciaux  du Canada</a></dt>\n<dd>\n<p>D\u00e9couvrez comment le r\u00e9seau de  d\u00e9l\u00e9gu\u00e9s commerciaux du Canada peut aider votre entreprise \u00e0 s'orienter sur les  march\u00e9s internationaux et \u00e0 \u00e9largir ses activit\u00e9s.</p>\n<p>Consultez les profils de march\u00e9s  et les rapports sur les march\u00e9s du Service des d\u00e9l\u00e9gu\u00e9s commerciaux aux liens  suivants\u00a0:</p>\n<ul>\n<li><a href=\"https://www.deleguescommerciaux.gc.ca/sectors-secteurs/agriculture-and-processed-foods-agriculture-et-des-aliments-transformes.aspx?lang=fra&amp;_ga=2.232935574.941185074.1563462390-1655195799.1557946351\">Agriculture et aliments transform\u00e9s</a></li><li><a href=\"https://www.deleguescommerciaux.gc.ca/sectors-secteurs/fish-and-seafood-poissons-et-fruits-de-mer.aspx?lang=fra&amp;_ga=2.238235912.941185074.1563462390-1655195799.1557946351\">Poissons et fruits de mer</a></li>\n<li><a href=\"https://www.deleguescommerciaux.gc.ca/sectors-secteurs/wine-beer-and-spirits-vin-de-la-biere-et-des-spiritueux.aspx?lang=fra&amp;_ga=2.2946232.941185074.1563462390-1655195799.1557946351\">Vins, bi\u00e8re et spiritueux</a></li>\n</ul>\n</dd>\n<dt>Services d'information sur les march\u00e9s</dt>\n<dd>\n<p>Nous offrons des services gratuits aux entreprises agricoles et agroalimentaires canadiennes.</p>\n<ul>\n<li>Pour  demander des renseignements sur les march\u00e9s\u00a0: <a class=\"nowrap\" href=\"mailto:aafc.mas-sam.aac@canada.ca?subject=Services%20et%20analyse%20de%20renseignements%20sur%20les%20march%C3%A9s%20internationaux&amp;body=Veuillez%20nous%20expliquer%20comment%20nous%20pouvons%20r%C3%A9pondre%20%C3%A0%20vos%20besoins%20en%20renseignements%20sur%20les%20march%C3%A9s%20internationaux.&amp;cc=aafc.infoservice.aac@canada.ca\">aafc.mas-sam.aac@canada.ca</a></li>\n<li>Abonnez-vous  pour recevoir les rapports les plus r\u00e9cents par courriel\u00a0: <a class=\"nowrap\" href=\"mailto:aafc.infoservice.aac@canada.ca?subject=Abonnement%20%C3%A0%20InfoService%20pour%20recevoir%20les%20renseignements%20sur%20les%20march%C3%A9s%20internationaux%20&amp;body=Veuillez%20m'ajouter%20%C3%A0%20la%20liste%20de%20diffusion%20des%20courriels%20d'InfoService%20(AAC)%20sur%20les%20march%C3%A9s%20internationaux.\">aafc.infoservice.aac@canada.ca</a></li>\n</ul>\n</dd>\n</dl>\n\r\n    <!-- Fin du contenu -->\r\n\t\r\n\t\r\n\t\r\n  "
    }
}