{
    "dcr_id": "1492806638190",
    "title": {
        "en": "Poultry Sustainability Value Chain Roundtable",
        "fr": "Table ronde sur la p\u00e9rennit\u00e9 du secteur de la volaille"
    },
    "modified": "2019-10-03",
    "issued": "2017-04-25",
    "templatetype": "content page 1 column",
    "page_type": "1",
    "node_id": "1493045794735",
    "dc_date_created": "2017-04-25",
    "managing_branch": "MISB",
    "parent_node_id": "1384803392547",
    "label": {
        "en": "Poultry",
        "fr": "Volaille"
    },
    "exturl": "",
    "teamsite_location": {
        "en": "/default/main/AAFC-AAC/Internet-Internet/MISB-DGSIM/VCR-TCV/WORKAREA/VCR-TCV/templatedata/comm-comm/gene-gene/data/vcr_poultry_index_1492806638190_en",
        "fr": "/default/main/AAFC-AAC/Internet-Internet/MISB-DGSIM/VCR-TCV/WORKAREA/VCR-TCV/templatedata/comm-comm/gene-gene/data/vcr_poultry_index_1492806638190_fr"
    },
    "type_name": "sitemapinit",
    "has_dcr_id": true,
    "breadcrumb": {
        "en": "Poultry",
        "fr": "Volaille"
    },
    "layout_name": "content page 1 column",
    "lang": "en",
    "meta": {
        "issued": {
            "en": "2017-04-25",
            "fr": "2017-04-25"
        },
        "modified": {
            "en": "2019-10-03",
            "fr": "2019-10-03"
        },
        "format": {
            "en": "gcformat",
            "fr": "gcformat"
        },
        "title": {
            "en": "Poultry Sustainability Value Chain Roundtable",
            "fr": "Table ronde sur la p\u00e9rennit\u00e9 du secteur de la volaille"
        },
        "subject": {
            "en": "architecture;horticulture;cooperatives",
            "fr": "ressources p\u00e9dagogiques;engrais;m\u00e9dicament"
        },
        "description": {
            "en": "2014. PDF. Version. (8.9. MB. www.blundellseafoods.com. Sales: $10\u201350. Tel. : (604) 276-2515.",
            "fr": "Formats de rechange. Remarque\u00a0:Une partie du contenu d\u00e9passe la largeur habituelle.Num\u00e9ro international normalis\u00e9 du livre\u00a0: 2292-1532. Services internes. Section IV : Renseignements suppl\u00e9mentaires. Des consultations approfondies ont \u00e9t\u00e9 mises sur pied, conform\u00e9ment \u00e0 l\u2019engagement du gouvernement envers l\u2019ouverture et la transparence \u00e0 l\u2019\u00e9gard des Canadiens.Le Canada compte sur les meilleurs agriculteurs et sur les meilleures entreprises de transformation d\u2019aliments au monde, ainsi que sur une fonction publique d\u00e9vou\u00e9e. En tant que ministre de l\u2019Agriculture et de l\u2019Agroalimentaire du Canada, je suis fier d\u2019\u00eatre au service de ce secteur dynamique, et je m\u2019engage \u00e0 obtenir des r\u00e9sultats favorables \u00e0 la fois pour le secteur et pour tous les Canadiens.Je me r\u00e9jouis de travailler avec les partenaires du portefeuille de l\u2019agriculture et les intervenants pour aider les agriculteurs et les transformateurs alimentaires du Canada \u00e0 \u00eatre toujours plus concurrentiels et innovateurs, contribuant ainsi \u00e0 la croissance \u00e9conomique, \u00e0 la cr\u00e9ation d\u2019emplois et \u00e0 la prosp\u00e9rit\u00e9 du Canada."
        },
        "language": {
            "en": "eng",
            "fr": "fra"
        },
        "keywords": {
            "en": "Meeting.Labour;Leader.Updates",
            "fr": "connexes.Atteinte"
        },
        "audience": {
            "en": "gcaudience",
            "fr": "gcaudience"
        },
        "type": {
            "en": "contact information",
            "fr": "avis"
        },
        "creator": {
            "en": "Agriculture and Agri-Food Canada;Government of Canada",
            "fr": "Agriculture et Agroalimentaire Canada;Gouvernement du Canada"
        },
        "spatial": {
            "en": "gcregions",
            "fr": "gcregions"
        },
        "service": {
            "en": "AAFC-AAC",
            "fr": "AAFC-AAC"
        },
        "accessRights": {
            "en": "2",
            "fr": "2"
        },
        "legalName": {
            "en": "agriculture_and_agri_food_canada",
            "fr": "agriculture_et_agroalimentaire_canada"
        },
        "areaServed": {
            "en": "Canada",
            "fr": "Canada"
        }
    },
    "css": {
        "fr": null
    },
    "js": {
        "en": null,
        "fr": null
    },
    "body": {
        "en": "<!-- D&eacute;but du contenu -->\r\n    <p><a href=\"#roundtable\">Learn more about each roundtable</a></p>\n\n <p>The Canadian poultry industry includes the production  of chicken, turkey, table and processed eggs, and broiler hatching eggs. The  poultry value chain includes inputs (feed, animal health products, equipment),  primary processing, further processing, egg grading and processing, hatcheries,  and distribution (food service and retail).</p>\n<p>The objective of this roundtable is to provide a forum  for collaborative action by industry and government. The main areas of focus  will be:</p>\n\n<ul>\n  <li>public trust</li>\n  <li>food safety</li>\n  <li>antimicrobial use and resistance</li>\n  <li>animal care</li>\n  <li>research and innovation</li>\n  <li>consumer preferences</li>\n</ul>\n \n<h2>Contact us</h2>\n \n<p>If you have any questions or would like more information, please email us at <a href=\"mailto:aafc.roundtable-tableronde.aac@canada.ca\">aafc.roundtable-tableronde.aac@canada.ca</a></p>\n\n<h2>Working groups</h2>\n\n<p>The following working groups address challenges in the sector and develop action plans in  strategic areas:</p>\n<ul>\n  <li>Common Approach to Public Trust</li>\n  <li>Antimicrobial Resistance and Antimicrobial Use (AMR-AMU)</li>\n  <li>Global Scan</li>\n  <li>Research Coordination</li>\n</ul>\n<h2>Upcoming meeting</h2>\n\n<p>The next Roundtable meeting will take place in 2020.</p>\n \n<h2>Meeting summary</h2>\n\n<ul>\n <li><a href=\"?id=1559919416926\">May 13, 2019</a></li> \n <li><a href=\"?id=1550500821052\">January 31, 2019</a></li>\n <li><a href=\"?id=1530040155688\">May 23, 2018</a></li>\n</ul>\n\n<h2>Members</h2>\n\n<h3>Co-chairs</h3>\n\n<ul>\n <li>Roger Pelissero \u2013 Egg Farmers of Canada</li>\n<li>Marco  Valicenti \u2013 Agriculture and Agri-Food Canada</li>\n</ul>\n\n<h3>Industry</h3>\n\n<ul>\n  <li>Michael Lalibert\u00e9 \u2013 Chicken Farmers of Canada</li>\n    <li>Andrew Telfer \u2013 Retail Council of Canada</li>\n    <li>Phil Boyd \u2013 Turkey Farmers of Canada</li>\n    <li>David Lefebvre \u2013 Restaurants Canada</li>\n    <li>Peter Vale \u2013 Restaurants Canada</li>\n    <li>Neil Newlands \u2013 Egg Farmers of Canada</li>\n    <li>Tim Lambert \u2013 Egg Farmers of Canada</li>\n    <li>Jackie Wepruk \u2013 National Farm Animal Care Council</li>\n    <li>Bruce Roberts \u2013 Canadian Poultry Research Council</li>\n    <li>Robin Horel \u2013 Canadian Poultry and Egg Processors       Council</li>\n    <li>Craig Evans \u2013 Granny's Poultry Cooperative</li>\n    <li>Genevi\u00e8ve  Arsenault       \u2013 Exceldor </li>\n    <li>Marta Haley  \u2013 Further Poultry Processors Association       of Canada</li>\n    <li>Ian McFall \u2013 Burnbrae Farms </li>\n    <li>Gerry Kennie \u2013 Canadian Hatchery Federation</li>\n    <li>Melissa Dumont \u2013 Animal Nutrition Association of Canada</li>\n    <li>Brian  Bilkes  \u2013 Canadian Hatching Egg Producers</li>\n    <li>Drew  Black \u2013 Canadian Hatching Egg Producers</li>\n</ul>\n\n<h3>Federal government</h3>\n\n<ul>\n <li>Luc  Marchand  \u2013 Agriculture and Agri-Food Canada</li>\n <li>Moussa Sory Diarra \u2013 Agriculture and Agri-Food Canada</li>\n <li>Martin Appelt \u2013 Canadian Food Inspection Agency</li>\n <li>Debbie Barr \u2013 Canadian Food Inspection Agency</li>\n <li>Steven Sternthal \u2013 Public Health Agency of Canada</li>\n <li>Bill Edwardson \u2013 Farm Products Council of Canada</li>\n</ul>\n\n<h2 id=\"roundtable\">Learn more about each roundtable:</h2> \n\n<ul> \n <li><a href=\"?id=1385752573698\">Agri-Subcommittee on Food Safety</a></li> \n <li><a href=\"?id=1385491202669\">All Chairs Forum</a></li> \n <li><a href=\"?id=1409832956249\">Bee Health</a></li> \n <li><a href=\"?id=1385491900787\">Beef</a></li> \n <li><a href=\"?id=1385742632592\">Food Processing</a></li> \n <li><a href=\"?id=1385582114523\">Grains</a></li> \n <li><a href=\"?id=1385585397604\">Horticulture</a></li>\n <li><a href=\"?id=1385568234264\">Industrial Bioproducts</a></li>\n <li><a href=\"?id=1481809401467\">Neonicotinoids</a></li> \n <li><a href=\"?id=1385666883750\">Organics</a></li> \n <li><a href=\"?id=1385740744721\">Pork</a></li> \n <li><a href=\"?id=1492806638190\">Poultry</a></li> \n <li><a href=\"?id=1385733134280\">Pulses</a></li>\n <li><a href=\"?id=1385755866700\">Seafood</a></li> \n <li><a href=\"?id=1385757253931\">Seed</a></li> \n <li><a href=\"?id=1385758986961\">Sheep</a></li> \n <li><a href=\"?id=1385995694580\">Special Crops</a></li> \n</ul> \n\r\n    <!-- Fin du contenu -->",
        "fr": "\r\n    \r\n    <!-- MainContentStart -->\r\n    <!-- D&eacute;but du contenu -->\r\n    <p><a href=\"#roundtable\">Apprenez-en plus sur chaque table ronde</a></p>\n\n<p>L'industrie avicole canadienne comprend la production de poulets, de dindons et d'\u0153ufs de consommation, de transformation et d'incubation de poulet de chair. La cha\u00eene de valeur de l'industrie de la volaille inclut les intrants (aliments pour animaux, produits de sant\u00e9 animale, \u00e9quipement), la transformation primaire, la surtransformation, le classement et la transformation des \u0153ufs, les couvoirs et la distribution (services alimentaires et vente au d\u00e9tail).</p>  \n\n<p>L'objectif de la pr\u00e9sente table ronde est d'offrir un forum permettant la prise de mesures concert\u00e9es par l'industrie et le gouvernement. Les principaux th\u00e8mes seront\u00a0:</p>\n\n<ul>\n  <li>la confiance du public</li>\n  <li>la salubrit\u00e9 des aliments</li>\n  <li>l'utilisation d'antimicrobiens et la r\u00e9sistance \u00e0 ceux-ci</li>\n  <li>les soins aux animaux</li>\n  <li>la recherche et l'innovation, et les pr\u00e9f\u00e9rences des consommateurs.</li>\n</ul>\n\n<h2>Contactez-nous</h2>\n\n<p>Si vous avez des questions ou voulez en savoir plus, veuillez nous envoyer un courriel \u00e0 <a href=\"mailto:aafc.roundtable-tableronde.aac@canada.ca\">aafc.roundtable-tableronde.aac@canada.ca</a>.</p>\n\n<h2>Groupes de travail</h2>\n\n<p>Ces groupes de travail abordent les d\u00e9fis auxquels est confront\u00e9e l'industrie et \u00e9laborent des plans d'action dans les secteurs strat\u00e9giques\u00a0:</p>\n<ul>\n  <li>Approche commune visant \u00e0 favoriser la confiance du public</li>\n  <li>R\u00e9sistance aux antimicrobiens et utilisation d'antimicrobiens</li>\n  <li>Analyses mondiales</li>\n  <li>Coordination de la recherche</li>\n</ul>\n\n<h2>Prochaine r\u00e9union</h2>\n\n<p>La prochaine r\u00e9union de la Table ronde sur la cha\u00eene de valeur aura lieu en 2020.</p>\n \n<h2>R\u00e9sum\u00e9 des r\u00e9unions</h2>\n\n<ul>\n <li><a href=\"?id=1559919416926\">13 mai 2019</a></li>\n <li><a href=\"?id=1550500821052\">31 janvier 2019</a></li>\n <li><a href=\"?id=1530040155688\">23 mai 2018</a></li>\n</ul>\n\n<h2>Membres</h2>\n\n<h3>Copr\u00e9sidents</h3>\n\n<ul>\n  <li>Roger Pelissero \u2013 Les Producteurs d'ouefs du Canada</li>\n  <li>Marco Valicenti \u2013 Agriculture et Agroalimentaire Canada</li>\n</ul>\n\n<h3>Industrie</h3>\n\n<ul>\n  <li>Michael  Lalibert\u00e9 \u2013 Les Producteurs de poulet du Canada</li>\n  <li>Andrew Telfer \u2013  Conseil canadien du commerce de d\u00e9tail</li>\n  <li>Phil\u00a0Boyd \u2013  Les \u00c9leveurs de dindon du Canada</li>\n  <li>David\u00a0Lefebvre  \u2013 Restaurants Canada</li>\n  <li>Peter\u00a0Vale  \u2013 Restaurants Canada</li>\n  <li>Neil\u00a0Newlands  \u2013 Les Producteurs d\u2019\u0153ufs du Canada</li>\n  <li>Tim\u00a0Lambert  \u2013 Les Producteurs d\u2019\u0153ufs du Canada</li>\n  <li>Jackie\u00a0Wepruk  \u2013 Conseil national pour les soins aux animaux d\u2019\u00e9levage </li>\n  <li>Bruce\u00a0Roberts  \u2013 Conseil de recherches avicoles du Canada</li>\n  <li>Robin\u00a0Horel  \u2013 Conseil canadien des transformateurs d\u2019\u0153ufs et de volailles</li>\n  <li>Craig\u00a0Evans  \u2013 Granny\u2019s Poultry Cooperative</li>\n  <li>Genevi\u00e8ve Arsenault \u2013 Exceldor </li>\n  <li>Marta Haley \u2013 Association canadienne des surtransformateurs de volailles</li>\n  <li>Ian\u00a0McFall  \u2013 Burnbrae Farms</li>\n  <li>Gerry\u00a0Kennie  \u2013 F\u00e9d\u00e9ration canadienne des couvoirs</li>\n  <li>Melissa\u00a0Dumont  \u2013 Association de nutrition animale du Canada</li>\n  <li>Brian Bilkes  \u2013 Les Producteurs d\u2019\u0153ufs d\u2019incubation  du Canada</li>\n  <li>Drew Black \u2013 Les  Producteurs d\u2019\u0153ufs d\u2019incubation du Canada</li>\n</ul>\n\n<h3>Gouvernement f\u00e9d\u00e9ral</h3>\n<ul>\n  <li>Luc Marchand  \u2013 Agriculture et Agroalimentaire Canada</li>\n  <li>Moussa Sory Diarra \u2013 Agriculture et Agroalimentaire Canada</li>\n  <li>Martin Appelt \u2013 Agence canadienne d'inspection des aliments</li>\n  <li>Debbie Barr \u2013 Agence canadienne d'inspection des aliments</li>\n  <li>Steven Sternthal \u2013 Agence de la sant\u00e9 publique du Canada</li>\n  <li>Bill Edwardson \u2013 Conseil des produits agricoles du Canada</li>\n</ul>\n\n<h2 id=\"roundtable\">Apprenez-en plus sur chaque table ronde\u00a0:</h2> \n\n<ul> \n <li><a href=\"?id=1385568234264\">Bioproduits industriels</a></li> \n <li><a href=\"?id=1385491900787\">B\u0153uf</a></li> \n <li><a href=\"?id=1385995694580\">Cultures sp\u00e9ciales</a></li> \n <li><a href=\"?id=1385582114523\">Grains</a></li> \n <li><a href=\"?id=1385585397604\">Horticulture</a></li> \n <li><a href=\"?id=1385733134280\">L\u00e9gumineuses</a></li> \n <li><a href=\"?id=1481809401467\">N\u00e9onicotino\u00efdes</a></li> \n <li><a href=\"?id=1385758986961\">Ovin</a></li> \n <li><a href=\"?id=1385740744721\">Porc</a></li> \n <li><a href=\"?id=1385666883750\">Produits biologiques</a></li> \n <li><a href=\"?id=1385755866700\">Produits de la mer</a></li> \n <li><a href=\"?id=1409832956249\">Sant\u00e9 des abeilles</a></li> \n <li><a href=\"?id=1385757253931\">Semences</a></li> \n <li><a href=\"?id=1385752573698\">Sous-comit\u00e9 sur la salubrit\u00e9 des aliments de l'agriculture et de l'agroalimentaire</a></li> \n <li><a href=\"?id=1385742632592\">Transformation des aliments</a></li> \n <li><a href=\"?id=1385491202669\">Tribune de tous les pr\u00e9sidents</a></li> \n <li><a href=\"?id=1492806638190\">Volaille</a></li> \n</ul> \n \n\r\n    <!-- Fin du contenu -->\r\n\t\r\n\t\r\n\t\r\n  "
    }
}