{
    "dcr_id": "1174311378019",
    "title": {
        "en": "Organization Structure",
        "fr": "Structure organisationnelle"
    },
    "modified": "2020-10-19",
    "issued": "2009-06-18",
    "templatetype": "content page 1 column",
    "page_type": "1",
    "node_id": "1519338328741",
    "dc_date_created": "2009-06-18",
    "managing_branch": "PAB",
    "parent_node_id": "1354137774028",
    "label": {
        "en": "Organization Structure",
        "fr": "Structure organisationnelle"
    },
    "exturl": "",
    "teamsite_location": {
        "en": "/default/main/AAFC-AAC/Internet-Internet/Common-Commun/WORKAREA/Common-Commun/templatedata/comm-comm/gene-gene/data/03/about-us_info_org_1174311378019_en",
        "fr": "/default/main/AAFC-AAC/Internet-Internet/Common-Commun/WORKAREA/Common-Commun/templatedata/comm-comm/gene-gene/data/03/about-us_info_org_1174311378019_fr"
    },
    "type_name": "sitemapinit",
    "has_dcr_id": true,
    "breadcrumb": {
        "en": "Organization Structure",
        "fr": "Structure organisationnelle"
    },
    "layout_name": "content page 1 column",
    "lang": "en",
    "meta": {
        "issued": {
            "en": "2009-06-18",
            "fr": "2009-06-18"
        },
        "modified": {
            "en": "2020-10-19",
            "fr": "2020-10-19"
        },
        "format": {
            "en": "text/html",
            "fr": "text/html"
        },
        "title": {
            "en": "Organization Structure",
            "fr": "Structure organisationnelle"
        },
        "subject": {
            "en": "government information;agricultural workers;agriculture",
            "fr": "travailleur agricole;information gouvernementale;agriculture"
        },
        "description": {
            "en": "13541377740280 Agriculture and Agri-Food Canada Organization Chart The following chart reflects the organizational structure of Agriculture and Agri-Food Canada (AAFC) including areas of responsibility for senior managers and key personnel.",
            "fr": "Forget Conseill\u00e8re principale Politiques Bureau du sous-ministre d\u00e9l\u00e9gu\u00e9 - Carolyn Finlayson Secr\u00e9taire minist\u00e9riel - Marco Valicenti Directions g\u00e9n\u00e9rales et bureaux Sous-ministre adjointe Direction g\u00e9n\u00e9rale des communications et des consultations - Jodi Redmond Sous-ministre adjoint Direction g\u00e9n\u00e9rale de la gestion int\u00e9gr\u00e9e - Pierre Corriveau Sous-ministre adjoint Direction g\u00e9n\u00e9rale des politiques strat\u00e9giques - Greg Meredith Chef ex\u00e9cutif de la v\u00e9rification et de l\u2019\u00e9valuation - Michael Whittaker Sous-ministre adjointe Direction g\u00e9n\u00e9rale des programmes - Manon Brassard Sous-ministre adjointe Direction g\u00e9n\u00e9rale des sciences et de la technologie - Dr. Siddika Mithani Sous-ministre adjoint d\u00e9l\u00e9gu\u00e9 Direction g\u00e9n\u00e9rale des sciences et de la technologie"
        },
        "language": {
            "en": "eng",
            "fr": "fra"
        },
        "keywords": {
            "en": "Agri-Food Canada Minister's Office Minister;Minister of State;Shalene Curtis-Micallef General Counsel;Technology Branch;Executive Director",
            "fr": "Dr. Siddika Mithani Sous-ministre adjoint;principal de l'information;Conseill\u00e8re principale;g\u00e9n\u00e9rale des sciences;Agroalimentaire Canada"
        },
        "audience": {
            "en": "gcaudience",
            "fr": "gcaudience"
        },
        "type": {
            "en": "organizational description",
            "fr": "description de l'organisation"
        },
        "creator": {
            "en": "Communications and Consultations Branch;Agriculture and Agri-Food Canada;Government of Canada",
            "fr": "Direction g\u00e9n\u00e9rale des communications et des consultations;Agriculture et Agroalimentaire Canada;Gouvernement du Canada"
        },
        "spatial": {
            "en": "gcregions",
            "fr": "gcregions"
        },
        "service": {
            "en": "AAFC-AAC",
            "fr": "AAFC-AAC"
        },
        "accessRights": {
            "en": "2",
            "fr": "2"
        },
        "legalName": {
            "en": "agriculture_and_agri_food_canada",
            "fr": "agriculture_et_agroalimentaire_canada"
        },
        "areaServed": {
            "en": "Canada",
            "fr": "Canada"
        }
    },
    "body": {
        "en": "<!-- D&eacute;but du contenu -->\r\n    <h2>Organization Chart</h2>\n\n<p>The following chart reflects the organizational structure of Agriculture and Agri-Food Canada (AAFC), as of October 19,\u00a02020, including areas of responsibility for senior managers and key personnel.</p>\n\n<div class=\"text-center center-block\">\n\n<div class=\"row wb-eqht\">\n <div class=\"mrgn-tp-md col-xs-4 col-md-offset-2\">\n <section class=\"panel panel-primary eqht-trgt\">\n <header class=\"panel-heading\">\n  <h3 class=\"panel-title\">Chris Forbes</h3>\n </header>\n <div class=\"panel-body\">\n        <p>Deputy Minister<br>\n        Agriculture and Agri-Food Canada</p>\n </div>\n</section>\n</div>  \n</div>\n\n<div class=\"row wb-eqht\">\n <div class=\"col-xs-4 col-md-offset-2\">\n <section class=\"panel panel-primary eqht-trgt\">\n <header class=\"panel-heading\">\n  <h4 class=\"panel-title\">Annette Gibbons</h4>\n </header>\n <div class=\"panel-body\">\n        <p>Associate Deputy Minister<br>\n        Agriculture and Agri-Food Canada</p> \n </div>\n</section>\n</div>\n</div>\n\n\n<div class=\"row wb-eqht\">  \n  <div class=\"col-xs-4\">\n  <section class=\"panel panel-primary eqht-trgt\">\n <header class=\"panel-heading\">\n  <h5 class=\"panel-title\">Christine Walker</h5>\n </header>\n <div class=\"panel-body\">\n            <p>Assistant Deputy Minister<br>\n            Corporate Management</p>\n </div>\n</section>    \n </div>\n\n <div class=\"col-xs-4\">\n   <section class=\"panel panel-primary eqht-trgt\">\n <header class=\"panel-heading\">\n  <h5 class=\"panel-title\">Fred Gorrell</h5>\n </header>\n <div class=\"panel-body\">\n            <p>Assistant Deputy Minister<br>\n            International Affairs (AAFC/CFIA)</p>\n </div>\n</section>\n</div>\n</div>\n\n\n<div class=\"row wb-eqht\">  \n  <div class=\"col-xs-4\">\n  <section class=\"panel panel-primary eqht-trgt\">\n <header class=\"panel-heading\">\n  <h5 class=\"panel-title\">Gilles Saindon</h5>\n </header>\n <div class=\"panel-body\">\n            <p>Assistant Deputy Minister<br>\n            Science and Technology</p>\n </div>\n</section>    \n </div>\n\n <div class=\"col-xs-4\">\n   <section class=\"panel panel-primary eqht-trgt\">\n <header class=\"panel-heading\">\n  <h5 class=\"panel-title\">Mary Dila</h5>\n </header>\n <div class=\"panel-body\">\n            <p>Assistant Deputy Minister<br>\n            Public Affairs</p>     \n </div>\n</section>\n</div>\n</div>\n\n\n<div class=\"row wb-eqht\"> \n<div class=\"col-xs-4\">\n  <section class=\"panel panel-primary eqht-trgt\">\n <header class=\"panel-heading\">\n  <h5 class=\"panel-title\">Liz Foster</h5>\n </header>\n <div class=\"panel-body\">\n            <p>Associate Assistant Deputy Minister<br>\n            Science and Technology</p> \n </div>\n</section>    \n </div>\n \n  <div class=\"col-xs-4\">\n  <section class=\"panel panel-primary eqht-trgt\">\n <header class=\"panel-heading\">\n  <h5 class=\"panel-title\">Vidya ShankarNarayan</h5>\n </header>\n <div class=\"panel-body\">\n            <p>Chief Information Officer/Assistant Deputy Minister<br>\n            Information Systems</p> \n </div>\n</section>    \n </div>\n</div> \n\n \n<div class=\"row wb-eqht\">\n <div class=\"col-xs-4\">\n   <section class=\"panel panel-primary eqht-trgt\">\n <header class=\"panel-heading\">\n  <h5 class=\"panel-title\">Tom Rosser</h5>\n </header>\n <div class=\"panel-body\">\n            <p>Assistant Deputy Minister<br>\n            Strategic Policy</p>\n </div>\n</section>\n</div>\n\n <div class=\"col-xs-4\">\n   <section class=\"panel panel-primary eqht-trgt\">\n <header class=\"panel-heading\">\n  <h5 class=\"panel-title\">Fr\u00e9d\u00e9ric Seppey</h5>\n </header>\n <div class=\"panel-body\">\n            <p>Assistant Deputy Minister<br>\n            Market and Industry Services</p>\n </div>\n</section>\n</div>\n</div>\n\n<div class=\"row wb-eqht\"> \n  <div class=\"col-xs-4\">\n  <section class=\"panel panel-primary eqht-trgt\">\n <header class=\"panel-heading\">\n  <h5 class=\"panel-title\">Paul Samson</h5>\n </header>\n <div class=\"panel-body\">\n            <p>Assistant Deputy Minister<br>\n            Programs Branch</p>\n </div>\n</section>    \n </div>\n\n <div class=\"col-xs-4\">\n   <section class=\"panel panel-primary eqht-trgt\">\n <header class=\"panel-heading\">\n  <h5 class=\"panel-title\">Kristine Allen</h5>\n </header>\n <div class=\"panel-body\">\n            <p>Executive Director and<br>\n            Senior General Counsel</p>     \n </div>\n</section>\n</div>\n</div>\n\n<div class=\"row wb-eqht\"> \n  <div class=\"col-xs-4\">\n  <section class=\"panel panel-primary eqht-trgt\">\n <header class=\"panel-heading\">\n  <h5 class=\"panel-title\">Kimberly Saunders</h5>\n </header>\n <div class=\"panel-body\">\n            <p>Director General<br>\n            Office of Audit and Evaluation</p>      \n </div>\n</section>    \n </div> \n \n <div class=\"col-xs-4\">\n   <section class=\"panel panel-primary eqht-trgt\">\n <header class=\"panel-heading\">\n  <h5 class=\"panel-title\">Katherine MacDonald</h5>\n </header>\n <div class=\"panel-body\">\n            <p>Corporate Secretary<br>\n            Deputy Minister's Office</p>     \n </div>\n</section>\n</div>\n</div>\n\n<div class=\"row wb-eqht\">\n  <div class=\"col-xs-4\">\n  <section class=\"panel panel-primary eqht-trgt\">\n <header class=\"panel-heading\">\n  <h5 class=\"panel-title\">Claire Mullen</h5>\n </header>\n <div class=\"panel-body\">\n            <p>Senior Policy Advisor<br>\n            Deputy Minister's Office</p>      \n </div>\n</section>    \n </div>\n\n <div class=\"col-xs-4\">\n   <section class=\"panel panel-primary eqht-trgt\">\n <header class=\"panel-heading\">\n  <h5 class=\"panel-title\">Bonnie Fung</h5>\n </header>\n <div class=\"panel-body\">\n            <p>Senior Policy Advisor<br>\n            Associate Deputy Minister\u2019s Office</p>\n </div>\n</section>\n</div>\n</div>\n\n<div class=\"row wb-eqht\">\n<div class=\"col-xs-4\">\n<section class=\"panel panel-primary eqht-trgt\">\n <header class=\"panel-heading\">\n  <h5 class=\"panel-title\">Holly McCoubrey</h5>\n </header>\n <div class=\"panel-body\">\n            <p>Departmental Assistant<br>\n            Minister's Office</p>\n </div>\n</section>    \n </div>\n</div>\n</div>\n\n\n<h2>Department organizational structure</h2>\n\n<h3>Minister's Office</h3>\n\n<ul>\n<li><a href=\"/eng/about-our-department/minister/?id=1369864009036\">Minister</a></li>\n<li><a href=\"?id=1449594974622\">Parliamentary Secretary</a></li>\n<li>Departmental Assistant</li>\n</ul>\n\n<h3>Deputy Minister's Office</h3>\n\n<ul>\n<li>Deputy Minister</li>\n<li>Associate Deputy Minister</li>\n<li>Senior Policy Advisor, Deputy Minister's Office</li>\n<li>Senior Policy Advisor, Associate Deputy Minister\u2019s Office</li>\n<li>Corporate Secretary</li>\n</ul>\n\n<h3>Branches and Offices</h3>\n\n<ul>\n  <li>Assistant Deputy Minister, Public Affairs Branch</li>\n  <li>Assistant Deputy Minister, Corporate Management Branch</li>\n  <li>Assistant Deputy Minister, International Affairs (AAFC/CFIA)</li>\n  <li>Chief Information Officer/Assistant Deputy Minister, Information Systems Branch</li>\n  <li>Assistant Deputy Minister, Programs Branch</li>\n  <li>Assistant Deputy Minister, Science and Technology Branch</li>\n  <li>Associate Assistant Deputy Minister, Science and Technology Branch</li>\n  <li>Assistant Deputy Minister, Strategic Policy Branch</li>\n  <li>Assistant Deputy Minister, Market and Industry Services Branch</li>\n  <li>Director General, Office of Audit and Evaluation</li>\n  <li>Executive Director and Senior General Counsel</li>\n</ul>\n\r\n    <!-- Fin du contenu -->",
        "fr": "\r\n    \r\n    <!-- MainContentStart -->\r\n    <!-- D&eacute;but du contenu -->\r\n    <h2>Organigramme minist\u00e9riel</h2>\n\n<p>L'organigramme suivant, en date du 19 octobre 2020, est celui d'Agriculture et Agroalimentaire Canada (AAC) et comprend les domaines de responsabilit\u00e9s des gestionnaires sup\u00e9rieurs et du personnel cl\u00e9.</p>\n\n\n<div class=\"text-center center-block\">\n\n<div class=\"row wb-eqht\">\n <div class=\"mrgn-tp-md col-xs-4 col-md-offset-2\">\n <section class=\"panel panel-primary eqht-trgt\">\n <header class=\"panel-heading\">\n  <h3 class=\"panel-title\">Chris  Forbes</h3>\n </header>\n <div class=\"panel-body\">\n        <p>Sous-ministre<br>\n        Agriculture et Agroalimentaire Canada</p>\n </div>\n</section>\n</div> \n</div>\n\n<div class=\"row wb-eqht\">\n <div class=\"col-xs-4 col-md-offset-2\">\n <section class=\"panel panel-primary eqht-trgt\">\n <header class=\"panel-heading\">\n  <h4 class=\"panel-title\">Annette Gibbons</h4>\n </header>\n <div class=\"panel-body\">\n          <p>Sous-ministre d\u00e9l\u00e9gu\u00e9e<br>\n        Agriculture et Agroalimentaire Canada</p>            \n </div>\n</section>\n</div>\n</div>\n\n\n<div class=\"row wb-eqht\">  \n  <div class=\"col-xs-4\">\n  <section class=\"panel panel-primary eqht-trgt\">\n <header class=\"panel-heading\">\n  <h5 class=\"panel-title\">Christine Walker</h5>\n </header>\n <div class=\"panel-body\">      \n            <p>Sous-ministre adjointe<br>\n            Gestion int\u00e9gr\u00e9e</p>         \n </div>\n</section>    \n </div>\n\n <div class=\"col-xs-4\">\n   <section class=\"panel panel-primary eqht-trgt\">\n <header class=\"panel-heading\">\n  <h5 class=\"panel-title\">Fred Gorrell</h5>\n </header>\n <div class=\"panel-body\">      \n            <p>Sous-ministre adjoint<br>\n            Affaires internationales (AAC/ACIA)</p>        \n </div>\n</section>\n</div>\n</div>\n\n\n<div class=\"row wb-eqht\">  \n  <div class=\"col-xs-4\">\n  <section class=\"panel panel-primary eqht-trgt\">\n <header class=\"panel-heading\">\n  <h5 class=\"panel-title\">Gilles Saindon</h5>\n </header>\n <div class=\"panel-body\">      \n            <p>Sous-ministre adjoint<br>\n            Sciences et technologie</p>         \n </div>\n</section>    \n </div>\n\n <div class=\"col-xs-4\">\n   <section class=\"panel panel-primary eqht-trgt\">\n <header class=\"panel-heading\">\n  <h5 class=\"panel-title\">Mary Dila</h5>\n </header>\n <div class=\"panel-body\">      \n            <p>Sous-ministre adjointe<br>\n            Affaires publiques</p>        \n </div>\n</section>\n</div>\n</div>\n\n<div class=\"row wb-eqht\">  \n  <div class=\"col-xs-4\">\n  <section class=\"panel panel-primary eqht-trgt\">\n <header class=\"panel-heading\">\n  <h5 class=\"panel-title\">Liz Foster</h5>\n </header>\n <div class=\"panel-body\">      \n            <p>Sous-ministre adjointe<br>\n                   d\u00e9l\u00e9gu\u00e9e<br>             \n        Sciences et technologie</p>         \n </div>\n</section>    \n </div>\n\n  <div class=\"col-xs-4\">\n  <section class=\"panel panel-primary eqht-trgt\">\n <header class=\"panel-heading\">\n  <h5 class=\"panel-title\">Vidya ShankarNarayan</h5>\n </header>\n <div class=\"panel-body\">      \n            <p>Dirigeante principale de l\u2019information (DPI) / Sous-ministre adjointe<br>\n            Syst\u00e8mes d'information</p>         \n </div>\n</section>    \n </div>\n</div>\n\n\n<div class=\"row wb-eqht\">\n <div class=\"col-xs-4\">\n   <section class=\"panel panel-primary eqht-trgt\">\n <header class=\"panel-heading\">\n  <h5 class=\"panel-title\">Tom Rosser</h5>\n </header>\n <div class=\"panel-body\">      \n            <p>Sous-ministre adjoint<br>\n            Politiques strat\u00e9giques</p>        \n </div>\n</section>\n</div>\n  \n <div class=\"col-xs-4\">\n   <section class=\"panel panel-primary eqht-trgt\">\n <header class=\"panel-heading\">\n  <h5 class=\"panel-title\">Fr\u00e9d\u00e9ric Seppey</h5>\n </header>\n <div class=\"panel-body\">      \n            <p>Sous-ministre adjoint<br>\n            Services \u00e0 l'industrie et aux march\u00e9s</p>        \n </div>\n</section>\n</div>\n</div>\n\n\n<div class=\"row wb-eqht\">\n  <div class=\"col-xs-4\">\n  <section class=\"panel panel-primary eqht-trgt\">\n <header class=\"panel-heading\">\n  <h5 class=\"panel-title\">Paul Samson</h5>\n </header>\n <div class=\"panel-body\">      \n            <p>Sous-ministre adjoint<br>\n            Programmes</p>         \n </div>\n</section>    \n </div>\n\n <div class=\"col-xs-4\">\n   <section class=\"panel panel-primary eqht-trgt\">\n <header class=\"panel-heading\">\n  <h5 class=\"panel-title\">Kristine Allen</h5>\n </header>\n <div class=\"panel-body\">      \n            <p>Directrice ex\u00e9cutive et<br>\n            Avocate g\u00e9n\u00e9rale principale</p>        \n </div>\n</section>\n</div>\n</div>\n\n\n<div class=\"row wb-eqht\">\n  <div class=\"col-xs-4\">\n  <section class=\"panel panel-primary eqht-trgt\">\n <header class=\"panel-heading\">\n  <h5 class=\"panel-title\">Kimberly Saunders</h5>\n </header>\n <div class=\"panel-body\">      \n            <p>Directrice g\u00e9n\u00e9rale<br>\n            Bureau de la v\u00e9rification et de l'\u00e9valuation</p>         \n </div>\n</section>    \n </div> \n \n  <div class=\"col-xs-4\">\n   <section class=\"panel panel-primary eqht-trgt\">\n <header class=\"panel-heading\">\n  <h5 class=\"panel-title\">Katherine MacDonald</h5>\n </header>\n <div class=\"panel-body\">      \n            <p>Secr\u00e9taire g\u00e9n\u00e9rale<br>\n            Bureau du sous-ministre</p>        \n </div>\n</section>\n</div>\n</div>\n\n\n<div class=\"row wb-eqht\">\n  <div class=\"col-xs-4\">\n  <section class=\"panel panel-primary eqht-trgt\">\n <header class=\"panel-heading\">\n  <h5 class=\"panel-title\">Claire Mullen</h5>\n </header>\n <div class=\"panel-body\">      \n            <p>Conseill\u00e8re principale, Politiques<br>\n            Bureau du sous-ministre</p>         \n </div>\n</section>    \n </div> \n \n  <div class=\"col-xs-4\">\n   <section class=\"panel panel-primary eqht-trgt\">\n <header class=\"panel-heading\">\n  <h5 class=\"panel-title\">Bonnie Fung</h5>\n </header>\n <div class=\"panel-body\">      \n            <p>Conseill\u00e8re principale, Politiques<br>\n            Bureau de la sous-ministre d\u00e9l\u00e9gu\u00e9e</p>        \n </div>\n</section>\n</div>\n</div>\n\n\n<div class=\"row wb-eqht\">\n  <div class=\"col-xs-4\">\n  <section class=\"panel panel-primary eqht-trgt\">\n <header class=\"panel-heading\">\n  <h5 class=\"panel-title\">Holly McCoubrey</h5>\n </header>\n <div class=\"panel-body\">      \n            <p>Adjointe minist\u00e9rielle<br>\n            Cabinet du Ministre</p>         \n </div>\n</section>    \n </div>\n</div>\n</div>\n\n\n<h2>Structure organisationnelle du minist\u00e8re</h2>\n\n<h3>Cabinet du ministre</h3>\n\n<ul>\n<li><a href=\"/fra/a-propos-de-notre-ministere/ministre/?id=1369864009036\">Ministre</a></li>\n<li><a href=\"?id=1449594974622\">Secr\u00e9taire parlementaire</a></li>\n<li>Adjointe minist\u00e9rielle, Cabinet du Ministre</li>\n</ul>\n\n<h3>Bureau du sous-ministre</h3>\n\n<ul>\n<li>Sous-ministre</li>\n<li>Sous-ministre d\u00e9l\u00e9gu\u00e9e</li>\n<li>Conseill\u00e8re principale, Politiques, Bureau du sous-ministre</li>\n<li>Conseill\u00e8re principale, Politiques, Bureau de la sous-ministre d\u00e9l\u00e9gu\u00e9e</li>\n<li>Secr\u00e9taire g\u00e9n\u00e9ral</li>\n</ul>\n\n<h3>Directions g\u00e9n\u00e9rales et bureaux</h3>\n\n<ul>\n <li>Sous-ministre adjointe, Direction g\u00e9n\u00e9rale des affaires publiques</li>\n  <li>Sous-ministre adjointe, Direction g\u00e9n\u00e9rale de la gestion int\u00e9gr\u00e9e</li>\n  <li>Sous-ministre adjoint, Direction g\u00e9n\u00e9rale des affaires internationales (AAC/ACIA)</li>\n  <li>Sous-ministre adjoint, Direction g\u00e9n\u00e9rale des politiques strat\u00e9giques</li>\n  <li>Sous-ministre adjoint, Direction g\u00e9n\u00e9rale des sciences et de la technologie</li>\n  <li>Sous-ministre adjoint d\u00e9l\u00e9gu\u00e9, Direction g\u00e9n\u00e9rale des sciences et de la technologie</li>\n  <li>Sous-ministre adjoint, Direction g\u00e9n\u00e9rale des programmes</li>\n  <li>Dirigeant principal de l'information/Sous-ministre adjoint, Direction g\u00e9n\u00e9rale des syst\u00e8mes d'information</li>\n  <li>Sous-ministre adjoint, Direction g\u00e9n\u00e9rale des services \u00e0 l\u2019industrie et aux march\u00e9s</li>\n  <li>Directrice g\u00e9n\u00e9rale, Bureau de la v\u00e9rification et de l'\u00e9valuation</li>\n  <li>Directrice ex\u00e9cutive et avocate g\u00e9n\u00e9rale principale</li>\n</ul>\n\r\n    <!-- Fin du contenu -->\r\n\t\r\n\t\r\n\t\r\n  "
    },
    "css": {
        "fr": null
    },
    "js": {
        "en": null,
        "fr": null
    }
}