{
    "dcr_id": "1286197216280",
    "title": {
        "en": "Minor Use Pesticides at the Pest Management Centre",
        "fr": "Les pesticides \u00e0 usage limit\u00e9 au Centre de la lutte antiparasitaire"
    },
    "modified": "2018-11-07",
    "issued": "2018-08-27",
    "templatetype": "content page 1 column",
    "page_type": "1",
    "node_id": "1535394780267",
    "dc_date_created": "2018-08-27",
    "managing_branch": "PAB",
    "parent_node_id": "1534766780348",
    "label": {
        "en": "Minor-Use Pesticides Program",
        "fr": "Programme des pesticides \u00e0 usage limit\u00e9"
    },
    "exturl": "",
    "teamsite_location": {
        "en": "/default/main/AAFC-AAC/Internet-Internet/Group-Ensemble/ProgServ-ProgServ/WORKAREA/ProgServ-ProgServ/templatedata/comm-comm/gene-gene/data/08/landingpage_1286197216280_en",
        "fr": "/default/main/AAFC-AAC/Internet-Internet/Group-Ensemble/ProgServ-ProgServ/WORKAREA/ProgServ-ProgServ/templatedata/comm-comm/gene-gene/data/08/landingpage_1286197216280_fr"
    },
    "type_name": "sitemapinit",
    "has_dcr_id": true,
    "breadcrumb": {
        "en": "Minor-Use Pesticides Program",
        "fr": "Programme des pesticides \u00e0 usage limit\u00e9"
    },
    "layout_name": "content page 1 column",
    "lang": "en",
    "meta": {
        "issued": {
            "en": "2018-08-27",
            "fr": "2018-08-27"
        },
        "modified": {
            "en": "2018-11-07",
            "fr": "2018-11-07"
        },
        "format": {
            "en": "text/html",
            "fr": "text/html"
        },
        "title": {
            "en": "Minor Use Pesticides at the Pest Management Centre",
            "fr": "Les pesticides \u00e0 usage limit\u00e9 au Centre de la lutte antiparasitaire"
        },
        "subject": {
            "en": "biochemicals;agriculture;pesticides",
            "fr": "engrais;changement climatique;m\u00e9dicament"
        },
        "description": {
            "en": "MUP-PUL Minor Use Pesticides Program. This activity complements the existing roles and responsibilities of pesticide manufacturers in submitting products to the PMRA for registration, and encourages manufacturers to register products in Canada.As a result, newer, more environmentally friendly and more efficient products will be made available to Canadian producers, which helps level the playing field and allows them to be more competitive in global markets.Under MUPP, AAFC works with provincial governments, industry representatives, and producers to:match pest problems with new minor uses of pesticide solutions;establish priorities and gain industry support;conduct trials; and. have undergone training to meet the Standards Council of Canada Good Laboratory Practices (GLP) recognition standards for carrying out trials and generating data on minor use pesticides.",
            "fr": "MUP-PUL Programme des pesticides \u00e0 usage limit\u00e9. Les producteurs canadiens ont besoin d\u2019outils efficaces pour g\u00e9rer les probl\u00e8mes li\u00e9s aux organismes nuisibles comme les mauvaises herbes, les insectes, les maladies et les n\u00e9matodes qui peuvent menacer la qualit\u00e9, la valeur et la quantit\u00e9 des cultures qu\u2019ils produisent. Un organisme nuisible est un organisme ind\u00e9sirable \u2013 mauvaise herbe, insecte, maladie \u2013 qui endommage les cultures et diminue la qualit\u00e9 ou le rendement.On associe par la suite ces probl\u00e8mes \u00e0 des solutions possibles en mati\u00e8re de pesticides, avec l\u2019aide des compagnies titulaires de pesticides, afin de produire des listes provinciales de priorit\u00e9s et de solutions possibles pour la lutte antiparasitaire.Les listes provinciales sont par la suite fusionn\u00e9es pour constituer une liste nationale; cette liste est utilis\u00e9e dans le cadre de l\u2019atelier annuel d\u2019AAC visant l\u2019\u00e9tablissement des priorit\u00e9s nationales en mati\u00e8re de pesticides \u00e0 usage limit\u00e9. Les repr\u00e9sentants d\u2019un vaste \u00e9ventail de groupes d\u2019intervenants participent \u00e0 l\u2019atelier, y compris des coordonnateurs provinciaux responsables des pesticides \u00e0 usage limit\u00e9 (CPPUL), des producteurs, des repr\u00e9sentants de l\u2019industrie des pesticides, des sp\u00e9cialistes des cultures ainsi que des repr\u00e9sentants des gouvernements provinciaux et f\u00e9d\u00e9ral.\u00c9tablissement des priorit\u00e9s et obtention du soutien de l\u2019industrie. la base de donn\u00e9es de recherche dans les \u00e9tiquettes de pesticides."
        },
        "language": {
            "en": "eng",
            "fr": "fra"
        },
        "keywords": {
            "en": "cost-effective to pursue;nursery and landscape;prescribed by the PMRA",
            "fr": "cultures.Le PPUL;dhomologation \u00e0 lARLA;conf\u00e9rences.Le CLA"
        },
        "audience": {
            "en": "gcaudience",
            "fr": "gcaudience"
        },
        "type": {
            "en": "media release",
            "fr": "description du programme ou du service"
        },
        "creator": {
            "en": "Agriculture and Agri-Food Canada;Government of Canada",
            "fr": "Agriculture et Agroalimentaire Canada;Gouvernement du Canada"
        },
        "spatial": {
            "en": "gcregions",
            "fr": "gcregions"
        },
        "service": {
            "en": "AAFC-AAC",
            "fr": "AAFC-AAC"
        },
        "accessRights": {
            "en": "2",
            "fr": "2"
        },
        "legalName": {
            "en": "agriculture_and_agri_food_canada",
            "fr": "agriculture_et_agroalimentaire_canada"
        },
        "areaServed": {
            "en": "Canada",
            "fr": "Canada"
        }
    },
    "css": {
        "fr": null
    },
    "js": {
        "en": null,
        "fr": null
    },
    "body": {
        "en": "<!-- D&eacute;but du contenu -->\r\n    \n<ul>\n<li><a href=\"#a1\">Objectives</a></li>\n<li><a href=\"#a2\">Matching pest problems and priorities</a></li>\n<li><a href=\"#a3\">Conducting field trials and laboratory analyses</a></li>\n<li><a href=\"#a4\">Preparing submissions to the Pest Management Regulatory Agency</a></li>\n<li><a href=\"#a5\">Collaboration between the United States and Canada</a></li>\n<li><a href=\"#a6\">Submissions and project statuses</a></li>\n<li><a href=\"#a7\">Contact Information</a></li>\n</ul>\n\n<p>Canadian farmers require effective tools to manage pest problems like weeds, insects, diseases, and nematodes which can threaten the quality, value and yield of the crops they produce. A \"minor use\" of a pesticide refers to the use of crop-protection treatments (like herbicides, insecticides, fungicides, and nematicides) on low acreage, high-value crops, or, where pest control is only needed on a small portion of the overall crop acreage. These pesticides are usually used in such small quantities for these uses that manufacturers find the sales potential is not sufficient to justify investments required to register that particular use in Canada.</p>\n\n<p>The Minor Use Pesticides activities (MUP) of the <a href=\"?id=1466083437376\">Pest Management Centre</a> (PMC) was launched in June 2002 as a joint initiative between Agriculture and Agri-Food Canada (AAFC) and Health Canada's Pest Management Regulatory Agency (PMRA).The MUP, which has been continued under the federal Canadian Agriculture Partnership policy initiative, aims to increase grower competiveness by improving access to new and effective crop protection tools and technologies.</p>\n\n<p>MUP works with growers, the provinces, manufacturers and the United States (U.S.) IR-4 Specialty Crops Program to establish grower-selected crop/pest needs, and match them with potential solutions. As the front-line guardians against pest issues, growers know from experience the types of persistent and emerging pest problems that can have serious effects on their operations. It is for that reason that growers select priorities at an annual priority setting workshop.</p>\n\n<p>PMC then conducts field and greenhouse trials and laboratory analyses to generate the required data, including efficacy, crop tolerance, and pesticide residue information, before drafting regulatory submissions to PMRA for the registration of new minor uses of pesticides. Many of these new uses replace older chemistries and formulations which have been taken off the market.</p>\n\n<p>These efforts assist in moving new products through the regulatory system which will help Canada's producers to compete in global markets.</p>\n\n<h2 id=\"a1\">Objectives</h2>\n\n<p>MUP provides benefits to Canadian producers by contributing to a competitive, innovative and resilient agriculture and agri-food sector through increased awareness and access to new minor uses of pesticides. MUP works cooperatively with growers, manufacturers, provincial governments and international partners to:</p>\n\n<ul>\n<li>match pest problems with new minor uses of pesticide solutions;</li>\n<li>establish priorities and gain industry support;</li>\n<li>conduct trials; and </li>\n<li>prepare pesticide submissions for new uses to the PMRA</li>\n</ul>\n\n<h2 id=\"a2\">Matching pest problems and priorities</h2>\n\n<p>Growers and other stakeholders work with Provincial Minor Use Coordinators to identify crop/pest problems and potential solutions for these problems. These problems are grouped and listed into three disciplines: weeds and growth regulators, insects (entomology) and diseases (pathology). The provincial lists are compiled by the PMC and integrated into a national list for each discipline that serves as the working document for the Canadian Minor Use Pesticide Priority Setting Workshop. </p>\n\n<p>During the annual workshop, stakeholders prioritize the pest control needs on a national basis. Selected national priorities are grouped into the following categories: entomology, pathology, weeds and growth regulators, regional priorities and organic production. Potential solutions are chosen for each priority and support confirmed from the product manufacturer. </p>\n\n <p>To learn more about the selected national priorities from previous years, please consult  <a href=\"?id=1534462314621#a2\">Minor Use Crop and Pest Problems</a>.</p>\n\n<h2 id=\"a3\">Conducting field trials and laboratory analyses</h2>\n\n<p>Once the priorities are established, AAFC's Pest Management Centre, in consultation with industry and government partners, undertakes to: </p>\n \n \n<ul>\n<li>obtain formal manufacturer support;</li>\n<li>consults with PMRA to determine data requirements; </li>\n<li>conducts field, greenhouse and growth chamber trials to determine pesticide efficacy, and crop tolerance to pesticides; </li>\n<li>conducts laboratory analyses to determine pesticide residues in food crops; </li>\n<li>cooperate with the U.S. IR-4Program to generate data and prepare submissions for joint priority projects;</li>\n<li>provide quality assurance for the data-generation process;</li>\n<li>prepare submissions to Health Canada's PMRA for regulatory review; and</li>\n<li>provides transparent tracking and reporting of results to stakeholders.</li>\n</ul>\n\n<p>While the PMC headquarters is located in Ottawa, it conducts field trials at seven <a href=\"?id=1534462314621#a3\">AAFC Research Centres</a> across the country. The PMC Residue Chemistry Laboratory Services, located at the Vineland, Ontario research centre, conduct analysis of samples collected from residue trials to determine pesticide residue levels. In addition, private contractors are used. </p>\n\n<p>The MUP and its dedicated teams at AAFC research centres are recognized by the Standards Council of Canada as being compliant with Organization for Economic Co-operation and Development (OECD) Good Laboratory Practices (GLP). Compliance with the principles of GLP is a mandatory requirement of OECD country pesticide regulatory agencies for the submission of pesticide residue data.</p>\n\n\n<h2 id=\"a4\">Preparing submissions to the Pest Management Regulatory Agency</h2>\n\n<p>The MUP reviews the data and prepares reports resulting from field, greenhouse and laboratory trials and prepares a submission to the PMRA to support the registration of the minor use of the pesticide.</p>\n\n<p>Once the MUP has finalized a regulatory submission, it is reviewed by the PMRA who determines whether the new minor use is acceptable for registration in Canada. The PMRA bases its decision on whether the product demonstrates merit and value, and whether the risks to human health and the environment are acceptable.  </p>\n\n<p>For more information visit PMRA's <a href=\"http://pr-rp.hc-sc.gc.ca/ls-re/index-eng.php\">pesticide label database</a>.</p>\n\n<h2 id=\"a5\">Collaboration between the United States and Canada</h2>\n\n<p>AAFC's MUP was modelled after the U. S., Interregional Project #4, or as it more commonly known, the IR-4 Program. Canada and the U.S. cooperate on common priority projects to generate data and make submissions to their respective pesticide regulatory agencies concurrently (Health Canada's Pest Management Regulatory Agency (PMRA), and the U.S. Environmental Protection Agency (EPA)). This saves time by reducing duplication of data collection activities and shares resources of the regulatory review. Through these efforts, growers on both sides of the border with the same crop/pest problem can have new uses of crop protection products registered in both countries simultaneously.</p>\n\n<h2 id=\"a6\">Submissions and project statuses </h2>\n\n<p>The results of the MUP projects are compiled in the list of submissions to PMRA and PMC\u2019s priority project statuses:</p>\n<ul>\n     <li><a href=\"?id=1534548128455\">List of submissions of minor use pesticides</a></li>\n     <li><a href=\"?id=1534549112696\">Project statuses of minor use pesticides</a></li>\n</ul>\n         \n\n<h2 id=\"a7\">Contact Information</h2>\n\n<p>For more information about Minor Use Pesticides, please contact the  <a href=\"?id=1466083437376\">Pest Management Centre</a>.</p>\n \n<p><b>TDD/TTY:</b> 613-773-2600</p>\n \n\n\r\n    <!-- Fin du contenu -->",
        "fr": "\r\n    \r\n    <!-- MainContentStart -->\r\n    <!-- D&eacute;but du contenu -->\r\n    <ul>\n<li><a href=\"#a1\">Objectifs</a></li>\n<li><a href=\"#a2\">Identification des priorit\u00e9s en mati\u00e8re de lutte antiparasitaire</a></li>\n<li><a href=\"#a3\">Essais en champ et analyses de laboratoire</a></li>\n<li><a href=\"#a4\">Pr\u00e9paration de demandes d\u2019homologation \u00e0 soumettre \u00e0 l\u2019Agence de r\u00e9glementation de la lutte antiparasitaire</a></li>\n<li><a href=\"#a5\">Collaboration entre les \u00c9tats-Unis et le Canada</a></li>\n<li><a href=\"#a6\">Liste des demandes d\u00e9pos\u00e9es et \u00e9tat des projets</a></li>\n<li><a href=\"#a7\">\tCoordonn\u00e9es</a></li>\n</ul>\n\n<p>Les producteurs canadiens ont besoin d\u2019outils efficaces pour g\u00e9rer les probl\u00e8mes li\u00e9s aux organismes nuisibles comme les mauvaises herbes, les insectes, les maladies et les n\u00e9matodes qui peuvent menacer la qualit\u00e9, la valeur et le rendement des cultures qu\u2019ils produisent. Les pesticides \u00e0 usage limit\u00e9 sont des traitements de protection des cultures (comme des herbicides, des insecticides, des fongicides ou des n\u00e9maticides) utilis\u00e9s pour les cultures de grande valeur produites sur de petites superficies ou sur une petite partie de la superficie cultiv\u00e9e. Ces pesticides sont g\u00e9n\u00e9ralement utilis\u00e9s en si petite quantit\u00e9 que les compagnies titulaires estiment que leur potentiel de vente est insuffisant pour justifier les investissements n\u00e9cessaires pour obtenir une homologation au Canada.</p>\n\n<p>Les activit\u00e9s du <a href=\"?id=1466083437376\">Centre de lutte antiparasitaire</a> (CLA) li\u00e9es aux pesticides \u00e0 usage limit\u00e9 (PUL), ont \u00e9t\u00e9 lanc\u00e9es en juin 2002 dans le cadre d\u2019une initiative conjointe d\u2019Agriculture et Agroalimentaire Canada (AAC) et de l\u2019Agence de r\u00e9glementation de la lutte antiparasitaire (ARLA) de Sant\u00e9 Canada. Les activit\u00e9s li\u00e9es aux PUL, qui se sont poursuivies au titre de l\u2019initiative strat\u00e9gique du Partenariat canadien pour l\u2019agriculture, qui a \u00e9t\u00e9 renforc\u00e9 aux termes du Plan d\u2019action en mati\u00e8re de r\u00e9glementation pour l\u2019agriculture, visent \u00e0 accro\u00eetre la comp\u00e9titivit\u00e9 des producteurs en am\u00e9liorant l\u2019acc\u00e8s \u00e0 de nouveaux outils et technologies efficaces de protection des cultures.</p>\n\n<p>Les PUL s\u2019associent aux producteurs, aux provinces, aux compagnies titulaires et au programme am\u00e9ricain des cultures sp\u00e9cialis\u00e9es IR-4 pour \u00e9tablir les besoins en mati\u00e8re de cultures et d\u2019organismes nuisibles cern\u00e9s par les producteurs et les jumeler \u00e0 des solutions possibles. \u00c0 titre d\u2019intervenants de premi\u00e8re ligne, les producteurs connaissent d\u2019exp\u00e9rience les probl\u00e8mes associ\u00e9s aux ravageurs persistants et \u00e9mergents pouvant avoir d\u2019importantes r\u00e9percussions sur leurs activit\u00e9s. C\u2019est la raison pour laquelle les producteurs \u00e9tablissent les priorit\u00e9s lors d\u2019un atelier annuel destin\u00e9 \u00e0 cette fin.</p>\n\n<p>Par la suite, l\u2019\u00e9quipe des PUL m\u00e8ne des essais en plein champ et en serre et des analyses en laboratoire pour g\u00e9n\u00e9rer les donn\u00e9es requises, y compris des renseignements sur l\u2019efficacit\u00e9, la tol\u00e9rance des cultures et les r\u00e9sidus de pesticides, avant de r\u00e9diger les demandes r\u00e9glementaires qui seront soumises \u00e0 l\u2019ARLA en vue de l\u2019homologation des nouveaux emplois de pesticides \u00e0 usage limit\u00e9. Un grand nombre de ces nouveaux emplois remplacent les anciennes compositions chimiques et formulations qui ont \u00e9t\u00e9 retir\u00e9es du march\u00e9.</p>\n\n<p>Ces efforts contribuent \u00e0 faire progresser les nouveaux produits dans le syst\u00e8me de r\u00e9glementation et aident les producteurs canadiens \u00e0 rester comp\u00e9titifs sur les march\u00e9s mondiaux.</p>\n\n<h2 id=\"a1\">Objectifs</h2>\n\n<p>Les PUL fournissent des avantages aux producteurs canadiens en contribuant \u00e0 l\u2019instauration d\u2019un secteur agricole et agroalimentaire, concurrentiel, innovateur et r\u00e9silient en augmentant des connaissances et en facilitant l\u2019acc\u00e8s aux nouveaux pesticides \u00e0 usage limit\u00e9. Les PUL collaborent avec les producteurs, les compagnies titulaires, les gouvernements provinciaux et les partenaires \u00e9trangers pour r\u00e9aliser les activit\u00e9s suivantes :</p>\n\n<ul>\n<li>trouver des solutions de pesticides \u00e0 usage limit\u00e9 aux probl\u00e8mes de lutte antiparasitaire;</li>\n<li>\u00e9tablir des priorit\u00e9s et obtenir le soutien de l\u2019industrie;</li>\n<li>effectuer des essais;</li>\n<li>pr\u00e9parer des demandes d\u2019homologation de pesticides \u00e0 l\u2019ARLA pour de nouvelles utilisations.</li>\n</ul>\n\n<h2 id=\"a2\">Identification des priorit\u00e9s en mati\u00e8re de lutte antiparasitaire</h2>\n\n<p>Les producteurs et autres intervenants collaborent avec les coordonnateurs responsables des pesticides \u00e0 usage limit\u00e9 dans leurs provinces respectives pour cerner les probl\u00e8mes li\u00e9s aux cultures et aux ravageurs et \u00e9tablir des solutions possibles pour y rem\u00e9dier. Ces probl\u00e8mes sont regroup\u00e9s et class\u00e9s en trois disciplines : les mauvaises herbes (malherbologie) et les r\u00e9gulateurs de croissance, les insectes (entomologie) et les maladies (pathologie). Les listes provinciales sont compil\u00e9es par le CLA et fusionn\u00e9es afin de constituer une liste nationale pour chaque discipline; cette liste est utilis\u00e9e comme document de travail lors des ateliers annuels sur l\u2019\u00e9tablissement des priorit\u00e9s relatives aux pesticides \u00e0 usage limit\u00e9 au Canada.</p>\n\n<p>Dans le cadre de l\u2019atelier annuel, les intervenants \u00e9tablissent les priorit\u00e9s nationales en mati\u00e8re de pesticides \u00e0 usage limit\u00e9. Celles-ci sont regroup\u00e9es et class\u00e9es dans les cat\u00e9gories suivantes : entomologie, pathologie, malherbologie et r\u00e9gulateurs de croissance, priorit\u00e9s r\u00e9gionales et production biologique. Des solutions possibles sont choisies pour chaque priorit\u00e9 et la compagnie titulaire confirme si le produit convient.</p>\n\n<p>Pour en apprendre plus sur les priorit\u00e9s nationales \u00e9tablies au cours des ann\u00e9es pr\u00e9c\u00e9dentes, allez \u00e0 la page Web intitul\u00e9e <a href=\"?id=1534462314621#a2\">Cultures sur surfaces r\u00e9duites et probl\u00e8mes associ\u00e9s aux ennemis des cultures</a>.</p>\n\n<h2 id=\"a3\">Essais en champ et analyses de laboratoire</h2>\n\n<p>Lorsque les priorit\u00e9s sont \u00e9tablies, le Centre de la lutte antiparasitaire d\u2019AAC, en collaboration avec l\u2019industrie et les partenaires du gouvernement, entreprend les activit\u00e9s suivantes :</p>\n<ul>\n<li>obtenir l\u2019appui officiel des compagnies titulaires;</li> \n<li>consulter l\u2019ARLA pour d\u00e9terminer les besoins en mati\u00e8re de donn\u00e9es;</li>\n<li>r\u00e9aliser des essais au champ, en serre et en chambre de croissance afin de d\u00e9terminer l\u2019efficacit\u00e9 des pesticides et la tol\u00e9rance des cultures aux pesticides</li>\n<li>effectuer des analyses en laboratoire afin de d\u00e9tecter la pr\u00e9sence de r\u00e9sidus de pesticides dans les cultures vivri\u00e8res;</li>\n<li>collaborer avec les repr\u00e9sentants du programme IR-4 des \u00c9tats-Unis dans le but de g\u00e9n\u00e9rer des donn\u00e9es et de pr\u00e9parer des soumissions de projets prioritaires conjoints;</li>\n<li>fournir un contr\u00f4le de la qualit\u00e9 pour le processus de g\u00e9n\u00e9ration de donn\u00e9es;</li>\n<li>pr\u00e9parer des demandes qui seront d\u00e9pos\u00e9es \u00e0 l\u2019ARLA de Sant\u00e9 Canada pour l\u2019examen r\u00e9glementaire;</li>\n<li>assurer un suivi des r\u00e9sultats et faire rapport des r\u00e9sultats aux intervenants de fa\u00e7on transparente.</li>\n</ul>\n\n<p>M\u00eame si son si\u00e8ge social est situ\u00e9 \u00e0 Ottawa, le CLA effectue des essais au champ dans sept centres de recherche d\u2019AAC r\u00e9partis dans l\u2019ensemble du pays. Les Services de laboratoire de chimie des r\u00e9sidus du CLA, situ\u00e9s au Centre de recherche de Vineland, en Ontario, analysent des \u00e9chantillons pr\u00e9lev\u00e9s lors d\u2019essais sur les r\u00e9sidus afin de d\u00e9terminer les niveaux de r\u00e9sidus de pesticides. On a aussi recours \u00e0 des entrepreneurs priv\u00e9s.</p>\n\n<p>Les PUL et ses \u00e9quipes sp\u00e9cialis\u00e9es qui \u0153uvrent dans les centres de recherches d\u2019AAC sont reconnus par le Conseil canadien des normes comme \u00e9tant conformes aux bonnes pratiques de laboratoire (BPL) de l\u2019Organisation de coop\u00e9ration et de d\u00e9veloppement \u00e9conomiques (OCDE). L\u2019OCDE exige que les agences de r\u00e9glementation des pesticides de ses pays membres se conforment aux principes des BPL pour la pr\u00e9sentation des donn\u00e9es sur les r\u00e9sidus de pesticides.</p>\n\n<h2 id=\"a4\">Pr\u00e9paration de demandes d'homologation \u00e0 soumettre \u00e0 l'Agence de r\u00e9glementation de la lutte antiparasitaire</h2>\n\n<p>L\u2019\u00e9quipe des PUL examine les donn\u00e9es recueillies lors des essais au champ, en serre et en laboratoire et pr\u00e9pare les rapports connexes; elle pr\u00e9pare ensuite une demande d\u2019homologation \u00e0 soumettre \u00e0 l\u2019ARLA pour le pesticide \u00e0 usage limit\u00e9.</p>\n\n<p>Lorsque les PUL ont termin\u00e9 la demande r\u00e9glementaire, l\u2019ARLA l\u2019examine et elle d\u00e9cide si elle doit homologuer ou non l\u2019utilisation du nouveau pesticide au Canada. La d\u00e9cision de l\u2019ARLA repose sur le bien-fond\u00e9 de la demande et la valeur du produit, ainsi que sur une \u00e9valuation des risques pour la sant\u00e9 humaine et l\u2019environnement, risques qui doivent \u00eatre jug\u00e9s acceptables.</p>\n\n<p>Pour plus d\u2019informations, visitez <a href=\"http://pr-rp.hc-sc.gc.ca/ls-re/index-fra.php\">la base de donn\u00e9es de recherche dans les \u00e9tiquettes de pesticides</a>  de l\u2019ARLA.</p>\n\n<h2 id=\"a5\">Collaboration entre les \u00c9tats-Unis et le Canada</h2>\n\n<p>Les PUL d\u2019AAC s\u2019inspirent du programme Interregional Project No. 4 des \u00c9tats-Unis, mieux connu sous le nom de programme IR-4. Le Canada et les \u00c9tats-Unis collaborent \u00e0 des projets prioritaires conjoints de production de donn\u00e9es et de pr\u00e9sentation simultan\u00e9e de demandes d\u2019homologation \u00e0 leurs organismes respectifs de r\u00e9glementation des pesticides (l\u2019Agence de r\u00e9glementation de la lutte antiparasitaire [ARLA] de Sant\u00e9 Canada et l\u2019Environmental Protection Agency [EPA] aux \u00c9tats-Unis). Cette approche permet de gagner du temps en r\u00e9duisant le d\u00e9doublement des activit\u00e9s de collecte des donn\u00e9es et en partageant les ressources n\u00e9cessaires pour l\u2019examen r\u00e9glementaire. Gr\u00e2ce \u00e0 ces efforts concert\u00e9s, les producteurs canadiens et am\u00e9ricains qui sont aux prises avec les m\u00eames ennemis des cultures peuvent faire homologuer les nouveaux usages de produits antiparasitaires simultan\u00e9ment dans les deux pays.</p>\n\n \n<h2 id=\"a6\">Liste des demandes d\u00e9pos\u00e9es et \u00e9tat des projets</h2>\n\n<p>Les r\u00e9sultats des projets sur les PUL sont compil\u00e9s dans la liste des demandes d\u00e9pos\u00e9es de l\u2019ARLA et l\u2019\u00e9tat des projets du CLA\u00a0:</p>\n<ul>\n  <li><a href=\"?id=1534548128455\">Liste des demandes de pesticides \u00e0 usage limit\u00e9 d\u00e9pos\u00e9es</a></li>\n  <li><a href=\"?id=1534549112696\">\u00c9tat des projets de pesticides \u00e0 usage limit\u00e9</a></li>\n</ul>\n\n<h2 id=\"a7\">Coordonn\u00e9es</h2>\n\n<p>Pour obtenir de plus amples renseignements sur le Programme des pesticides \u00e0 usage limit\u00e9, veuillez communiquer avec\n le <a href=\"?id=1466083437376\">Centre de la lutte antiparasitaire</a>.</p>\n\n \n \n\r\n    <!-- Fin du contenu -->\r\n\t\r\n\t\r\n\t\r\n  "
    }
}