{
    "dcr_id": "1463428090546",
    "title": {
        "en": "AgriInvest - Step 3. How to apply",
        "fr": "Agri-investissement - \u00c9tape 3. Comment pr\u00e9senter une demande"
    },
    "modified": "2021-01-13",
    "issued": "2019-10-22",
    "templatetype": "content page 1 column",
    "page_type": "1",
    "node_id": "1571321869162",
    "dc_date_created": "2019-10-22",
    "managing_branch": "PAB",
    "parent_node_id": "1571321713170",
    "label": {
        "en": "AgriInvest - Step 3. How to apply",
        "fr": "Agri-investissement - \u00c9tape 3. Comment pr\u00e9senter une demande"
    },
    "exturl": "",
    "teamsite_location": {
        "en": "/default/main/AAFC-AAC/Internet-Internet/Group-Ensemble/ProgServ-ProgServ/WORKAREA/ProgServ-ProgServ/templatedata/comm-comm/gene-gene/data/09/ai_fact-sheets_how_participate_1463428090546_en",
        "fr": "/default/main/AAFC-AAC/Internet-Internet/Group-Ensemble/ProgServ-ProgServ/WORKAREA/ProgServ-ProgServ/templatedata/comm-comm/gene-gene/data/09/ai_fact-sheets_how_participate_1463428090546_fr"
    },
    "type_name": "sitemapinit",
    "has_dcr_id": true,
    "breadcrumb": {
        "en": "AgriInvest - Step 3. How to apply",
        "fr": "Agri-investissement - \u00c9tape 3. Comment pr\u00e9senter une demande"
    },
    "layout_name": "content page 1 column",
    "lang": "en",
    "meta": {
        "issued": {
            "en": "2019-10-22",
            "fr": "2019-10-22"
        },
        "modified": {
            "en": "2021-02-12",
            "fr": "2021-02-12"
        },
        "format": {
            "en": "text/html",
            "fr": "text/html"
        },
        "title": {
            "en": "AgriInvest - Step 3. How to apply",
            "fr": "Agri-investissement - \u00c9tape 3. Comment pr\u00e9senter une demande"
        },
        "subject": {
            "en": "architectural heritage;architecture;horticulture",
            "fr": "d\u00e9veloppement communautaire;diversit\u00e9 biologique;finances"
        },
        "description": {
            "en": "Step 1 - Complete your AgriInvest form. Send your completed AgriInvest form by the deadline. If you deposit less than your maximum matchable deposit, you cannot make up for it later.When your financial institution confirms that you made your deposit, we will credit matching government contributions to Fund\u00a02 of your account.For information on how to make a deposit see. La Financi\u00e8re agricole. at 1-800-749-3646.For detailed program information, see the.",
            "fr": "Formats de rechange. Table des mati\u00e8res. Envoyez votre formulaire d'Agri-investissement rempli avant la date limite.30 septembre \u2013 Date limite initiale. b\u0153uf transform\u00e9 en viande s\u00e9ch\u00e9e. cire d'abeille transform\u00e9e en bougies."
        },
        "language": {
            "en": "eng",
            "fr": "fra"
        },
        "keywords": {
            "en": "account.To;taxable when withdrawn",
            "fr": "effectu\u00e9.Section;d\u00e9p\u00f4t.Vous"
        },
        "audience": {
            "en": "gcaudience",
            "fr": "gcaudience"
        },
        "type": {
            "en": "geospatial material",
            "fr": "diffusion aupr\u00e9s des m\u00e9dias"
        },
        "creator": {
            "en": "Agriculture and Agri-Food Canada;Government of Canada",
            "fr": "Agriculture et Agroalimentaire Canada;Gouvernement du Canada"
        },
        "spatial": {
            "en": "gcregions",
            "fr": "gcregions"
        },
        "service": {
            "en": "AAFC-AAC",
            "fr": "AAFC-AAC"
        },
        "accessRights": {
            "en": "2",
            "fr": "2"
        },
        "legalName": {
            "en": "agriculture_and_agri_food_canada",
            "fr": "agriculture_et_agroalimentaire_canada"
        },
        "areaServed": {
            "en": "Canada",
            "fr": "Canada"
        }
    },
    "css": {
        "fr": null
    },
    "js": {
        "en": null,
        "fr": null
    },
    "body": {
        "en": "<!-- D&eacute;but du contenu -->\r\n    <script type=\"text/javascript\" src=\"//script.crazyegg.com/pages/scripts/0088/8871.js\" async></script>\n\n<div class=\"mrgn-tp-md mrgn-bttm-lg brdr-bttm\">\n\n<div class=\"row\">\n<ul class=\"toc lst-spcd col-md-12 list-unstyled\">\n<li class=\"col-md-4 col-sm-6\"><span class=\"list-group-item\"><a href=\"?id=1291828779399\">Step 1. What this program offers</a></span></li>\n<li class=\"col-md-4 col-sm-6\"><span class=\"list-group-item\"><a href=\"?id=1291836203250\">Step 2. Who is eligible</a></span></li>\n<li class=\"col-md-4 col-sm-6\"><span class=\"list-group-item active\">Step 3. How to apply</span></li>\n<li class=\"col-md-4 col-sm-6 clr-lft-sm\"><span class=\"list-group-item\"><a href=\"?id=1549485507708\">Step 4. After you apply</a></span></li>\n<li class=\"col-md-4 col-sm-6\"><span class=\"list-group-item\"><a href=\"?id=1463488151850\">Step 5. Managing your account</a></span></li>\n<li class=\"col-md-4 col-sm-6\"><span class=\"list-group-item\"><a href=\"?id=1549485586652\">Resources</a></span></li>\n<li class=\"col-md-4 col-sm-6\"><span class=\"list-group-item\"><a href=\"?id=1374687910526\">Contact information</a></span></li>\n</ul>\n</div>\n</div>\n\n<section id=\"details-elements\">\n<h2 id=\"a1a\">AgriInvest \u2013 How to apply</h2>\n\n<h3 id=\"a1\">1. Complete your AgriInvest form</h3>\n\t\t<details>\n<summary><h3 class=\"h4\" id=\"form1\">If you farm in British Columbia, Manitoba, Newfoundland and Labrador, Nova Scotia, New Brunswick,  or Yukon</h3></summary>\n\n\n<section class=\"alert alert-info\">\n  <h3>Electronic filing for individuals and corporations</h3>\n  <p>Using the internet:</p>\n  <ul>\n    <li>2020 forms for individuals can be filed electronically to  the Canada Revenue Agency (CRA) using <a href=\"https://www.canada.ca/en/revenue-agency/services/e-services/e-services-businesses/efile-electronic-filers.html\">EFILE</a>. </li>\n    <li>2020 forms for corporations can be filed  electronically to CRA using <a href=\"https://www.canada.ca/en/revenue-agency/services/e-services/e-services-businesses/corporation-internet-filing/about-corporation-internet-filing-service.html\">Corporation Internet Filing</a>.</li>\n  </ul>\n  <p>CRA will electronically send your data to the AgriInvest program. </p>\n</section>\n\n<table class=\"table table-bordered\">\n <tr class=\"text-left\">\n <th scope=\"col\" class=\"col-md-3\">Participant type</th>\n <th scope=\"col\" class=\"col-md-3\">Application form</th>\n <th scope=\"col\" class=\"col-md-3\">Send form to</th>\n </tr>\n <tr>\n <td>Individual</td>\n <td><a href=\"https://www.canada.ca/en/revenue-agency/services/forms-publications/forms/t1273.html\">2020 - T1273 Statement A - Harmonized AgriStability and AgriInvest Programs Information and Statement of Farming Activities for Individuals</a></td>\n <td>\n<ul class=\"list-unstyled\">\n<li>EFILE:\n<ul class=\"list-unstyled\">\n<li><a href=\"https://www.canada.ca/en/revenue-agency/services/e-services/e-services-businesses/efile-electronic-filers.html\">Canada Revenue Agency</a></li>\n</ul>\n</li>\n<li class=\"mrgn-tp-md\">Paper copy:\n<p>Canada Revenue Agency Tax Centre<br>\nPO Box 14001 Station Main<br>\nWinnipeg MB\u00a0 R3C\u00a03M3</p>\n</li>\n</ul>\n</td>\n </tr>\n <tr>\n <td>Corporation, Co-operative or Special Individual</td>\n <td><ul class=\"list-unstyled\">\n \n<li class=\"mrgn-tp-md\"><a href=\"?id=1579813380841\">AgriInvest: 2020 Statement A - Corporations/Co-operatives and Special Individuals</a></li>\n<li class=\"mrgn-tp-md\"><a href=\"?id=1612139354586\">AgriInvest: 2021 Statement A - Corporations/Co-operatives and Special Individuals</a></li>\n</ul>\n\n\n\n</td> <!-- 2018 version - 1516216935259. 2016 version - 1452109530043 was deleted due to redesign -->\n <td>\n<ul class=\"list-unstyled\">\n<li><a href=\"https://www.canada.ca/en/revenue-agency/services/e-services/e-services-businesses/corporation-internet-filing/about-corporation-internet-filing-service.html\">Canada Revenue Agency (Corporation Internet Filing)</a></li>\n\n <li class=\"mrgn-tp-md\">Paper copy:\n<p>AgriInvest Administration<br>\nPO Box 3200<br>\nWinnipeg MB\u00a0 R3C\u00a05R7<br>\nToll-free fax: 1-877-949-4885</p>\n</li>\n </ul>\n</td>\n </tr>\n</table>\n\n</details>\n\n\t\t<details>\n\t\t\t<summary><h3 class=\"h4\" id=\"form2\">If you farm in Alberta, Saskatchewan, Ontario, or Prince Edward Island</h3></summary>\n\n<section class=\"alert alert-info\">\n  <h3>Electronic filing for individuals</h3>\n  <ul>\n    <li>2020 forms for individuals can be filed electronically to the Canada Revenue Agency (CRA) using <a href=\"https://www.canada.ca/en/revenue-agency/services/e-services/e-services-businesses/efile-electronic-filers.html\">EFILE</a>. </li>\n    <li>CRA will electronically send your data to the AgriInvest program.</li>\n  </ul>\n\n</section>\n\n<table class=\"table table-bordered\">\n <tr class=\"text-left\">\n <th scope=\"col\" class=\"col-md-3\">Participant type</th>\n <th scope=\"col\" class=\"col-md-3\">Application form</th>\n <th scope=\"col\" class=\"col-md-3\">Send form to</th>\n </tr>\n <tr>\n <td>Individuals </td>\n <td><a href=\"https://www.canada.ca/en/revenue-agency/services/forms-publications/forms/t1163.html\">2020 - T1163 Statement A - AgriStability and AgriInvest Programs Information and Statement of Farming Activities for Individuals</a></td>\n <td>\n<ul class=\"list-unstyled\">\n<li>EFILE:<br>\n<a href=\"https://www.canada.ca/en/revenue-agency/services/e-services/e-services-businesses/efile-electronic-filers.html\">Canada Revenue Agency</a></li>\n\n<li class=\"mrgn-tp-md\">Paper copy:\n<p>Canada Revenue Agency Tax Centre<br>\nPO Box 14001 Station Main<br>\nWinnipeg MB\u00a0 R3C\u00a03M3</p>\n</li>\n</ul>\n</td>\n </tr>\n <tr>\n <td>Corporation, Co-operative or Special Individual</td>\n <td>Contact your local administration for a form. </td>\n <td></td>\n </tr>\n</table>\n\n\n\n<table class=\"table table-bordered\"><caption class=\"text-left\">Local administrations</caption>\n <tr class=\"text-left bg-info\">\n <th scope=\"col\" class=\"col-md-3\">Province</th>\n <th scope=\"col\" class=\"col-md-3\">Toll-free</th>\n <th scope=\"col\" class=\"col-md-3\">Website</th>\n </tr>\n <tr>\n <td>Alberta</td>\n <td>1-877-899-2372</td>\n <td><a href=\"https://afsc.ca/income-stabilization/agriinvest/\">Agriculture Financial Services Corporation</a></td>\n </tr>\n <tr>\n <td>Ontario</td>\n <td>1-888-247-4999</td>\n <td><a href=\"https://www.agricorp.com/en-ca/Programs/AgriInvest/Pages/Overview.aspx\">Agricorp</a></td>\n </tr>\n <tr>\n <td>Prince Edward Island</td>\n <td>1-855-251-9695</td>\n <td><a href=\"https://www.princeedwardisland.ca/en/information/agriculture-and-fisheries/agristability-program\">Prince Edward Island Department of Agriculture and Land</a></td>\n </tr>\n <tr>\n <td>Saskatchewan</td>\n <td>1-866-270-8450</td>\n <td><a href=\"https://www.scic.ca/agristability/forms/agriinvest/\">Saskatchewan Crop Insurance Corporation</a></td>\n </tr>\n</table>\n\n</details>\n\n\t\t<details>\n\t\t\t<summary><h3 class=\"h4\" id=\"form3\">If you farm in Quebec</h3></summary>\n\n\n<p>AgriInvest is administered by <a href=\"https://www.fadq.qc.ca/en/home/\">La\u00a0Financi\u00e8re\u00a0agricole</a> in Quebec. Contact La\u00a0Financi\u00e8re\u00a0agricole at 1-800-749-3646 or online for more information on how to apply.</p>\n</details>\n\n</section>\n\n\n<div class=\"well well-sm\">\n<h4 class=\"mrgn-tp-0\">Excel versions of the AgriStability and AgriInvest forms</h4>\n\n<p>Excel versions of the AgriStability and AgriInvest application are available for individual producers in all provinces (except Quebec) and corporations, co-operatives, and special individuals in British Columbia, Manitoba, Newfoundland and Labrador, Nova Scotia, New Brunswick, and Yukon. To receive the forms, complete the <a href=\"http://www.agr.gc.ca/fa-ad/nppform/excelD_en.php\">online request form</a>.</p>\n</div>\n\n\n<h3 id=\"a2\">2. File your 2019 form by the deadline</h3>\n\n<section class=\"panel alert alert-info\"> \n<h4>Important Dates</h4>\n<div class=\"row mrgn-tp-md\">\n  <div class=\"col-md-3\"><strong>September 30, 2020</strong></div>\n  <div class=\"col-md-8\">Initial deadline to submit your 2019 form without penalty.</div>\n</div>\n<div class=\"row mrgn-tp-md\">\n  <div class=\"col-md-3\"><strong>December 31, 2020</strong></div>\n  <div class=\"col-md-8\">Final deadline to submit your form with a penalty applied. We will reduce your maximum matchable deposit by 5% for each month (or\u00a0part of a month) past the initial deadline to the final deadline.</div>\n</div>\n\n<p class=\"mrgn-tp-md\">For information on deadlines, visit <a href=\"?id=1463487497771\">What are the deadlines for AgriInvest?</a></p>\n\n</section>\n\n\n\n\n\n<div class=\"well well-sm\">\n\n<p>The following information applies to:</p>\n<ul>\n<li>individual producers in all provinces (except Quebec)</li>\n<li>corporations in British Columbia, Manitoba, Newfoundland and Labrador, Nova Scotia, New Brunswick and Yukon</li>\n</ul>\n\n<h4 class=\"mrgn-tp-0\">If you are a new participant and want to EFILE with the Canada Revenue Agency\u00a0(CRA)</h4>\n\n<ul class=\"list-unstyled lst-spcd\">\n<li>You must have a Participant Identification Number (PIN) to electronically file your  AgriInvest form to the CRA.</li>\n<li>The PIN is your unique identifier for AgriInvest.  It allows the program to automatically match your information to your records and  prevents processing delays.</li>\n<li>Request your  PIN before you file.</li>\n<li>To request a PIN, complete an <a href=\"?id=1489159838744\">AgriInvest New Participant Identification Number Request Form</a>.</li>\n<li>If you cannot download the form call AAFC  at 1-866-367-8506 and the form will be sent to you.</li>\n<li>AAFC will send your PIN to you by mail.  You must include your PIN when filing your forms.</li>\n</ul>\n</div>\n\n\n<nav>\n <h2 class=\"wb-inv\">Previous-next document navigation - bottom</h2>\n\n<div class=\"row\">\n<div class=\"col-md-12 mrgn-lft-0 mrgn-rght-0\">\n<ul class=\"pager\">\n<li class=\"previous\"><a href=\"?id=1291836203250\" rel=\"prev\" title=\"Step 2. Who is eligible\">Previous</a></li>\n<li class=\"next\"><a href=\"?id=1549485507708\" rel=\"next\" title=\"After you apply\">Next</a></li>\n</ul>\n</div>\n</div>\n</nav>\n\r\n    <!-- Fin du contenu -->",
        "fr": "\r\n    \r\n    <!-- MainContentStart -->\r\n    <!-- D&eacute;but du contenu -->\r\n    <div class=\"mrgn-tp-md mrgn-bttm-lg brdr-bttm\">\n\n<div class=\"row\">\n<ul class=\"toc lst-spcd col-md-12 list-unstyled\">\n<li class=\"col-md-3 col-sm-6\"><span class=\"list-group-item\"><a href=\"?id=1549485410565\">\u00c9tape 1. Ce qu'offre ce programme</a></span></li>\n<li class=\"col-md-3 col-sm-6\"><span class=\"list-group-item\"><a href=\"?id=1291836203250\">\u00c9tape 2. Qui est admissible</a></span></li>\n<li class=\"col-md-3 col-sm-6\"><span class=\"list-group-item active\">\u00c9tape 3. Comment pr\u00e9senter une demande</span></li>\n<li class=\"col-md-3 col-sm-6 clr-lft-sm\"><span class=\"list-group-item\"><a href=\"?id=1549485507708\">\u00c9tape 4. Apr\u00e8s avoir pr\u00e9sent\u00e9 votre demande</a></span></li>\n<li class=\"col-md-3 col-sm-6\"><span class=\"list-group-item\"><a href=\"?id=1463488151850\">\u00c9tape 5. G\u00e9rer votre compte</a></span></li>\n<li class=\"col-md-3 col-sm-6\"><span class=\"list-group-item\"><a href=\"?id=1549485586652\">Ressources</a></span></li>\n<li class=\"col-md-3 col-sm-6\"><span class=\"list-group-item\"><a href=\"?id=1374687910526\">Pour nous joindre</a></span></li>\n</ul>\n</div>\n</div>\n\n<section id=\"details-elements\">\n<h2 id=\"a1a\">Agri-investissement \u2013 Comment pr\u00e9senter une demande</h2>\n\n<h3 id=\"a1\">1. Remplissez votre formulaire d\u2019Agri-investissement</h3>\n\n<details>\n<summary><h3 class=\"h4\" id=\"form1\">Si votre exploitation agricole est situ\u00e9e en Colombie-Britannique, au Manitoba, \u00e0 Terre Neuve et Labrador, en Nouvelle-\u00c9cosse, au Nouveau-Brunswick ou au Yukon</h3></summary>\n\n<section class=\"alert alert-info\">\n  <h3>Soumission des formulaires par voie \u00e9lectronique pour les particuliers et les soci\u00e9t\u00e9s</h3>\n  <p>Transmission par Internet\u00a0:</p>\n  <ul>\n    <li>utiliser le service\u00a0<a href=\"https://www.canada.ca/fr/agence-revenu/services/services-electroniques/services-electroniques-entreprises/declarants-voie-electronique.html\" target=\"_blank\">TED</a>\u00a0pour soumettre le formulaire de 2020 pour les particuliers.</li>\n    <li>utiliser le service de\u00a0<a href=\"https://www.canada.ca/fr/agence-revenu/services/services-electroniques/services-electroniques-entreprises/transmission-internet-declarations-societes/a-propos-service-tramsission-internet-declarations-societes.html\" target=\"_blank\">transmission par Internet des d\u00e9clarations des soci\u00e9t\u00e9s</a>\u00a0pour soumettre le formulaire de 2020 pour les soci\u00e9t\u00e9s.</li>\n  </ul>\n<p>L\u2019ARC enverra vos donn\u00e9es \u00e9lectroniquement au  programme Agri-investissement.</p>\n</section>\n\n<table class=\"table table-bordered\">\n <tr class=\"text-left\">\n <th scope=\"col\" class=\"col-md-3\">Type de participant</th>\n <th scope=\"col\" class=\"col-md-3\">Formulaire de demande</th>\n <th scope=\"col\" class=\"col-md-3\">Envoyez le formulaire \u00e0\u00a0:</th>\n </tr>\n\n <tr>\n <td>Particulier</td>\n <td><a href=\"https://www.canada.ca/fr/agence-revenu/services/formulaires-publications/formulaires/t1273.html\">2020 - T1273 \u00c9tat A - Renseignements harmonis\u00e9s pour les programmes Agri-stabilit\u00e9 et Agri-investissement et \u00e9tat des r\u00e9sultats des activit\u00e9s d'une entreprise agricole pour particuliers</a></td>\n <td>\n<ul class=\"list-unstyled\">\n<li>Par TED : <br>\n<a href=\"https://www.canada.ca/fr/agence-revenu/services/services-electroniques/services-electroniques-entreprises/declarants-voie-electronique.html\">Agence du revenu du Canada</a></li>\n\n<li class=\"mrgn-tp-md\">Copie papier :\n<p>Centre fiscal, Agence du revenu du Canada<br>\nCP 14001, succursale Main<br>\nWinnipeg (Manitoba)\u00a0\u00a0R3C\u00a03M3</p>\n</li>\n</ul>\n</td>\n </tr>\n <tr>\n <td>Soci\u00e9t\u00e9, coop\u00e9rative ou particulier de cat\u00e9gorie sp\u00e9ciale</td>\n <td><ul class=\"list-unstyled\">\n\n<li class=\"mrgn-tp-md\"><a href=\"?id=1579813380841\">Agri-investissement : 2020 \u00c9tat  A - Soci\u00e9t\u00e9, coop\u00e9rative ou particulier de cat\u00e9gorie sp\u00e9ciale</a></li>\n<li class=\"mrgn-tp-md\"><a href=\"?id=1612139354586\">Agri-investissement : 2021 \u00c9tat  A - Soci\u00e9t\u00e9, coop\u00e9rative ou particulier de cat\u00e9gorie sp\u00e9ciale</a></li>\n\n</ul>\n\n</td> <!-- 2018 version - 1516216935259. 2016 version - 1452109530043 was deleted due to redesign -->\n <td>\n<ul class=\"list-unstyled\">\n<li><a href=\"https://www.canada.ca/fr/agence-revenu/services/services-electroniques/services-electroniques-entreprises/declarants-voie-electronique.html\">Agence du revenu du Canada (transmission par Internet des d\u00e9clarations des soci\u00e9t\u00e9)</a></li>\n\n <li class=\"mrgn-tp-md\">Copie papier :\n<p>Administration d'Agri-investissement<br>\nCP 3200<br>\nWinnipeg (Manitoba)\u00a0\u00a0R3C\u00a05R7<br>\nT\u00e9l\u00e9copieur (sans frais): 1-877-949-4885</p>\n</li>\n </ul>\n</td>\n </tr>\n</table>\n\n</details>\n\n\t\t<details>\n\t\t\t<summary><h3 class=\"h4\" id=\"form2\">Si votre exploitation agricole est situ\u00e9e en Alberta, en Saskatchewan, en Ontario ou \u00e0 l\u2019\u00cele du Prince \u00c9douard</h3></summary>\n\n<section class=\"alert alert-info\">\n  <h3>Soumission des formulaires par voie \u00e9lectronique pour les particuliers</h3>\n  <ul>\n    <li>utiliser le service\u00a0<a href=\"https://www.canada.ca/fr/agence-revenu/services/services-electroniques/services-electroniques-entreprises/declarants-voie-electronique.html\" target=\"_blank\">TED</a>\u00a0pour soumettre le formulaire de 2020 pour les particuliers.</li>\n    <li>L\u2019ARC enverra vos donn\u00e9es \u00e9lectroniquement au programme Agri-investissement.</li>\n  </ul>\n\n</section>\n\n\n<table class=\"table table-bordered\">\n <tr class=\"text-left\">\n <th scope=\"col\" class=\"col-md-3\">Type de participant</th>\n <th scope=\"col\" class=\"col-md-3\">Formulaire de demande</th>\n <th scope=\"col\" class=\"col-md-3\">Envoyez le formulaire \u00e0\u00a0:</th>\n </tr>\n <tr>\n <td>Particulier </td>\n <td><a href=\"https://www.canada.ca/fr/agence-revenu/services/formulaires-publications/formulaires/t1163.html\">2020 - T1163 \u00c9tat A - Renseignements pour les programmes Agri-stabilit\u00e9 et Agri-investissement et \u00e9tat des r\u00e9sultats des activit\u00e9s d'une entreprise agricole pour particuliers</a></td>\n <td>\n<ul class=\"list-unstyled\">\n<li>Par TED : <br>\n<a href=\"https://www.canada.ca/fr/agence-revenu/services/services-electroniques/services-electroniques-entreprises/declarants-voie-electronique.html\">Agence du revenu du Canada</a></li>\n\n<li class=\"mrgn-tp-md\">Copie papier :\n<p>Centre fiscal, Agence du revenu du Canada<br>\nCP 14001, succursale Main<br>\nWinnipeg (Manitoba)\u00a0\u00a0R3C\u00a03M3</p>\n</li>\n</ul>\n</td>\n </tr>\n <tr>\n <td>Soci\u00e9t\u00e9, coop\u00e9rative ou particulier de cat\u00e9gorie sp\u00e9ciale</td>\n <td>Communiquez avec votre administration locale pour obtenir les formulaires.</td>\n <td></td>\n </tr>\n</table>\n\n\n\n<table class=\"table table-bordered\"><caption class=\"text-left\">Administration locale</caption>\n <tr class=\"text-left bg-info\">\n <th scope=\"col\" class=\"col-md-3\">Province</th>\n <th scope=\"col\" class=\"col-md-3\">Num\u00e9ro sans frais</th>\n <th scope=\"col\" class=\"col-md-3\">Site Web</th>\n </tr>\n <tr>\n <td>Alberta</td>\n <td>1-877-899-2372</td>\n <td><a href=\"https://afsc.ca/income-stabilization/agriinvest/\"><em>Agriculture Financial Services Corporation</em> (en anglais seulement)</a></td>\n </tr>\n <tr>\n <td>Ontario</td>\n <td>1-888-247-4999</td>\n <td><a href=\"https://www.agricorp.com/fr-ca/Programs/AgriInvest/Pages/Overview.aspx\">Agricorp</a></td>\n </tr>\n <tr>\n <td>\u00cele-du-Prince-\u00c9douard</td>\n <td>1-855-251-9695</td>\n <td><a href=\"https://www.princeedwardisland.ca/en/information/agriculture-and-land/agristability-program\">Le gouvernement de l'\u00cele-du-Prince-\u00c9douard (en anglais seulement)</a></td>\n </tr>\n <tr>\n <td>Saskatchewan</td>\n <td>1-866-270-8450</td>\n <td><a href=\"https://www.scic.ca/agristability/forms/agriinvest/\"><em>Saskatchewan Crop Insurance Corporation</em> (en anglais seulement)</a></td>\n </tr>\n</table>\n\n</details>\n\n\t\t<details>\n\t\t\t<summary><h3 class=\"h4\" id=\"form3\">Si votre exploitation agricole est situ\u00e9e au Qu\u00e9bec</h3></summary>\n\n<p>Le programme Agri-investissement est administr\u00e9 par <a href=\"https://www.fadq.qc.ca/fr/accueil/\">La\u00a0Financi\u00e8re\u00a0agricole</a> du Qu\u00e9bec. Pour obtenir plus de renseignements sur la fa\u00e7on de pr\u00e9senter une demande, communiquez avec La Financi\u00e8re agricole en ligne ou en appelant au 1-800-749-3646.</p>\n\n</details>\n\n</section>\n\n<div class=\"well well-sm\">\n<h4 class=\"mrgn-tp-0\">Versions Excel des formulaires d\u2019Agri-stabilit\u00e9 et d\u2019Agri-investissement</h4>\n\n<p>Les versions Excel des formulaires de demande Agri-stabilit\u00e9 et Agri-investissement sont disponibles pour les producteurs de toutes les provinces (sauf le Qu\u00e9bec) et pour les soci\u00e9t\u00e9s, les coop\u00e9ratives et les particuliers de cat\u00e9gorie sp\u00e9ciale de la Colombie-Britannique, du Manitoba, de Terre-Neuve-et-Labrador, de la Nouvelle-\u00c9cosse, du Nouveau-Brunswick, et du Yukon. Pour recevoir les formulaires, remplissez le <a href=\"http://www.agr.gc.ca/fa-ad/nppform/excelD_fr.php\">formulaire de demande en ligne</a>.</p>\n</div>\n\n\n\n<h3 id=\"a2\">2. Pr\u00e9senter une demande au programme</h3>\n\n<section class=\"panel alert alert-info\"> \n<h4>Dates importantes</h4>\n<div class=\"row mrgn-tp-md\">\n  <div class=\"col-md-3\"><strong>30 septembre 2020</strong></div>\n  <div class=\"col-md-8\">Date limite initiale pour pr\u00e9senter une demande sans p\u00e9nalit\u00e9.</div>\n</div>\n<div class=\"row mrgn-tp-md\">\n  <div class=\"col-md-3\"><strong>31 d\u00e9cembre 2020</strong></div>\n  <div class=\"col-md-8\">Date limite finale pour pr\u00e9senter une demande avec p\u00e9nalit\u00e9. Nous r\u00e9duirons votre d\u00e9p\u00f4t maximal de contrepartie de 5 % par mois (ou partie de mois) de retard suivant la date limite initiale.</div>\n</div>\n\n<p class=\"mrgn-tp-md\">Pour obtenir de l'information sur les dates limites, consultez <a href=\"?id=1463487497771\">Quelles sont les dates limites du programme Agri-investissement?</a></p>\n\n\n</section>\n\n<div class=\"well well-sm\">\n\n<p>Les renseignements suivants s\u2019appliquent :</p>\n<ul>\n<li>aux producteurs dans toutes les provinces (sauf le Qu\u00e9bec) et;\n</li><li>aux soci\u00e9t\u00e9s de la Colombie-Britannique, du Manitoba, de Terre-Neuve-et-Labrador, de la Nouvelle-\u00c9cosse, du Nouveau-Brunswick, et du Yukon.</li>\n</ul>\n\n<h4 class=\"mrgn-tp-0\">Si vous \u00eates un nouveau participant et souhaitez transmettre votre formulaire \u00e0 l\u2019Agence du revenu du Canada au moyen de la TED</h4>\n\n<ul class=\"list-unstyled lst-spcd\">\n<li>Vous devez avoir un num\u00e9ro d\u2019identification du participant (NIP) pour pouvoir soumettre votre formulaire d\u2019Agri-investissement par voie \u00e9lectronique \u00e0 l\u2019Agence du revenu du Canada.</li>\n\n<li>Le NIP est votre num\u00e9ro d\u2019identification unique pour le programme Agri-investissement. Il permet le programme de faire correspondre automatiquement vos renseignements \u00e0 votre dossier et d\u2019\u00e9viter les retards de traitement.</li>\n\n<li>Demandez votre Num\u00e9ro d\u2019identification du participant (NIP) avant de transmettre votre formulaire.</li>\n\n<li>Pour demander un NIP, remplissez un <a href=\"?id=1489159838744\">Formulaire de demande de num\u00e9ro d\u2019identification du participant pour les nouveaux participants d\u2019Agri-investissement</a>.</li>\n\n<li>Si vous n\u2019arrivez pas \u00e0 t\u00e9l\u00e9charger le formulaire, appeler AAC au 1-866-367-8506 et AAC vous le fera parvenir.</li>\n\n<li>Nous vous enverrons votre NIP par la poste. Vous devez inscrire votre NIP lorsque vous remplissez les formulaires.</li>\n</ul>\n</div>\n\n\n<nav>\n <h2 class=\"wb-inv\">Navigation du document - pr\u00e9c\u00e9dente-suivante - bas</h2>\n\n<div class=\"row\">\n<div class=\"col-md-12 mrgn-lft-0 mrgn-rght-0\">\n<ul class=\"pager\">\n<li class=\"previous\"><a href=\"?id=1291836203250\" rel=\"prev\" title=\"\u00c9tape 2. Qui est admissible\">Pr\u00e9c\u00e9dente</a></li>\n<li class=\"next\"><a href=\"?id=1549485507708\" rel=\"next\" title=\"Apr\u00e8s avoir pr\u00e9sent\u00e9 votre demande\">Suivante</a></li>\n</ul>\n</div>\n</div>\n</nav>\n\r\n    <!-- Fin du contenu -->\r\n\t\r\n\t\r\n\t\r\n  "
    }
}