{
    "dcr_id": "1288035482429",
    "title": {
        "en": "Canadian Agricultural Loans Act program: Step 1. What this program offers",
        "fr": "Programme de la Loi canadienne sur les pr\u00eats agricoles : \u00c9tape 1. Ce qu\u2019offre ce programme"
    },
    "modified": "2020-01-14",
    "issued": "2020-01-14",
    "templatetype": "content page 1 column",
    "page_type": "1",
    "node_id": "1571855000721",
    "dc_date_created": "2020-01-14",
    "managing_branch": "PAB",
    "parent_node_id": "1354137773676",
    "label": {
        "en": "Canadian Agricultural Loans Act Program - Step 1. What this program offers",
        "fr": "Programme de la Loi canadienne sur les pr\u00eats agricoles - \u00c9tape 1. "
    },
    "exturl": "",
    "teamsite_location": {
        "en": "/default/main/AAFC-AAC/Internet-Internet/Group-Ensemble/ProgServ-ProgServ/WORKAREA/ProgServ-ProgServ/templatedata/comm-comm/gene-gene/data/10/cala_step1_landingpage_1288035482429_en",
        "fr": "/default/main/AAFC-AAC/Internet-Internet/Group-Ensemble/ProgServ-ProgServ/WORKAREA/ProgServ-ProgServ/templatedata/comm-comm/gene-gene/data/10/cala_step1_landingpage_1288035482429_fr"
    },
    "type_name": "sitemapinit",
    "has_dcr_id": true,
    "breadcrumb": {
        "en": "Canadian Agricultural Loans Act Program - Step 1. What this program offers",
        "fr": "Programme de la Loi canadienne sur les pr\u00eats agricoles - \u00c9tape 1. "
    },
    "layout_name": "content page 1 column",
    "lang": "en",
    "meta": {
        "issued": {
            "en": "2020-01-14",
            "fr": "2020-01-14"
        },
        "modified": {
            "en": "2020-01-14",
            "fr": "2020-01-14"
        },
        "format": {
            "en": "text/html",
            "fr": "text/html"
        },
        "title": {
            "en": "Canadian Agricultural Loans Act program: Step 1. What this program offers",
            "fr": "Programme de la Loi canadienne sur les pr\u00eats agricoles : \u00c9tape 1. Ce qu\u2019offre ce programme"
        },
        "subject": {
            "en": "agricultural assistance;horticulture;government information",
            "fr": "engrais;m\u00e9dicament;viande"
        },
        "description": {
            "en": "LandingPage_1288035482429_en. Canadian Agricultural Loans Act program: Step 1. What this program offers. Farmers can use these loans to establish, improve, and develop farms, while agricultural co-operatives may also access loans to process, distribute, or market the products of farming.Objectives. caisses populaires. , issue and administer loans under the CALA program.Lenders must take the same care and prudence in issuing CALA loans as would be taken in conducting ordinary business.",
            "fr": "\u00c9tape 1. Ce qu\u2019offre ce programme. Par le truchement du programme de la LCPA, nous soutenons le renouvellement du secteur agricole et permet aux coop\u00e9ratives de tirer davantage parti des nouveaux d\u00e9bouch\u00e9s sur les march\u00e9s commerciaux.Financement disponible. R\u00e8glement canadien sur les pr\u00eats agricoles."
        },
        "language": {
            "en": "eng",
            "fr": "fra"
        },
        "keywords": {
            "en": "co-operatives.If;approval.For",
            "fr": null
        },
        "audience": {
            "en": "gcaudience",
            "fr": "gcaudience"
        },
        "type": {
            "en": "geospatial material",
            "fr": "fiche de renseignements"
        },
        "creator": {
            "en": "Agriculture and Agri-Food Canada;Government of Canada",
            "fr": "Agriculture et Agroalimentaire Canada;Gouvernement du Canada"
        },
        "spatial": {
            "en": "gcregions",
            "fr": "gcregions"
        },
        "service": {
            "en": "AAFC-AAC",
            "fr": "AAFC-AAC"
        },
        "accessRights": {
            "en": "2",
            "fr": "2"
        },
        "legalName": {
            "en": "agriculture_and_agri_food_canada",
            "fr": "agriculture_et_agroalimentaire_canada"
        },
        "areaServed": {
            "en": "Canada",
            "fr": "Canada"
        }
    },
    "body": {
        "en": "<!-- D&eacute;but du contenu -->\r\n    \n <div class=\"mrgn-tp-md mrgn-bttm-lg brdr-bttm\">\n\n<div class=\"row\">\n<ul class=\"toc lst-spcd col-md-12 list-unstyled\">\n<li class=\"col-md-4 col-sm-6\"><span class=\"list-group-item active\">Step 1. What this program offers</span></li>\n\n<li class=\"col-md-4 col-sm-6\"><span class=\"list-group-item\">Step 2. <a href=\"?id=1572989468581\">Who is eligible</a></span></li>\n\n<li class=\"col-md-4 col-sm-6 clr-lft-sm\"><span class=\"list-group-item\">Step 3. <a href=\"?id=1288287038233\">How to apply</a></span></li>\n\n<li class=\"col-md-4 col-sm-6\"><span class=\"list-group-item\"><a href=\"?id=1333637676318\">For lenders</a></span></li>\n\n<li class=\"col-md-4 col-sm-6\"><span class=\"list-group-item\"><a href=\"?id=1288375291000\">Frequently asked questions</a></span></li>\n\n<li class=\"col-md-4 col-sm-6\"><span class=\"list-group-item\"><a href=\"?id=1571175919535\">Contact information</a></span></li>\n</ul>\n</div>\n</div>\n\n<h2>Step 1. What this program offers</h2>\n\n<div class=\"col-md-4 pull-right\">\n            <section class=\"panel panel-default\">\n            <header class=\"panel-heading\">\n                <h2 class=\"panel-title\">Fact Sheet</h2>\n            </header>\n            <div class=\"panel-body\">\n<p>Print this fact sheet for use at events and meetings to promote the program.</p> \n<ul>\n<li><a href=\"http://publications.gc.ca/site/eng/9.830297/publication.html\">Helping Farmers Innovate and Expand</a></li>\n</ul>\n</div>\n</section>\n</div>\n\n<p>The <cite>Canadian Agricultural Loans Act</cite> (CALA) Program is a loan guarantee program designed to increase the availability of loans to farmers and agricultural co-operatives. Farmers can use these loans to establish, improve, and develop farms, while agricultural co-operatives may also access loans to process, distribute, or market the products of farming.</p>\n\n<h2>Objectives</h2>\n\n<p>Through the CALA Program, we are supporting the  renewal of the agricultural sector and enabling co-operatives to better seize  market opportunities.</p>\n\n<h2>Available funding</h2>\n\n<p>Under the CALA, the federal government guarantees, to the lender,  repayment of 95% of a net loss on an eligible loan issued.</p>\n\n<p>The maximum aggregate loan limit for any one farm operation is $500,000.</p>\n\n<p>Loans are limited to a maximum of:</p>\n\n<ul>\n  <li>$500,000 for the purchase of land and the construction or improvement of buildings</li>\n  <li>$350,000 for all other loan purposes, including consolidation/refinancing</li>\n</ul>\n\n<p>The maximum aggregate loan limit for  agricultural co-operatives is $3\u00a0million, with the Minister's approval.</p>\n\n<p><b>For example:</b> If a farmer gets a CALA loan for $300,000 for a tractor, he can still access up to $200,000 for land purchase or building  repair, or $50,000 for another implement and $150,000 for land purchase or  building repair.</p>\n\n\n\n<h2>Program delivery</h2>\n<p>Lenders, such as banks, credit unions and <i>caisses populaires</i>, issue and administer loans under the CALA program.</p>\n\n<p>Lenders must take the same care and prudence in issuing CALA loans as would be taken in conducting ordinary business. The CALA Program has been designed to enable lenders to incorporate  it into their normal lending practice, while providing the government guarantee on eligible loans to farmers and agricultural co-operatives.</p>\n\n<p>If a purchase has already been made,  a lender has 60 days from the purchase date to issue a CALA loan.</p>\n\n<p>Lenders can register loans and submit  the associated registration fee using the CALA\u00a0<a href=\"?id=1333637676318\">Online Loan\u00a0Registration System</a>.</p>\n\n<h2>Administrative guidelines</h2>\n\n<p>The following are used to administer the CALA program.</p>\n\n<ul>\n<li><a href=\"http://laws-lois.justice.gc.ca/eng/acts/f-2.7/index.html\"><cite>Canadian Agricultural Loans Act</cite></a></li>\n<li><a href=\"http://laws-lois.justice.gc.ca/eng/regulations/SOR-99-122/\"><cite>Canadian Agricultural Loans Regulations</cite></a></li>\n<li><a href=\"?id=1369846155609\">Lenders' Guidelines</a>: Guidelines for lenders in administering CALA loans</li>\n</ul>\n\n\n<nav>\n<h2 class=\"wb-inv\">Previous-next document navigation - bottom</h2>\n\n<div class=\"row\">\n<div class=\"col-md-12 mrgn-lft-0 mrgn-rght-0\">\n<ul class=\"pager\">\n<li class=\"next\"><a href=\"?id=1572989468581\" rel=\"next\" title=\"Step 2. Who is eligible\">Next</a></li>\n</ul>\n</div>\n</div>\n</nav>\n\n \n\n\r\n    <!-- Fin du contenu -->",
        "fr": "\r\n    \r\n    <!-- MainContentStart -->\r\n    <!-- D&eacute;but du contenu -->\r\n     \n<div class=\"mrgn-tp-md mrgn-bttm-lg brdr-bttm\">\n\n<div class=\"row\">\n<ul class=\"toc lst-spcd col-md-12 list-unstyled\">\n<li class=\"col-md-4 col-sm-6\"><span class=\"list-group-item active\">\u00c9tape 1. Ce qu\u2019offre ce programme</span></li>\n\n<li class=\"col-md-4 col-sm-6\"><span class=\"list-group-item\">\u00c9tape 2. <a href=\"?id=1572989468581\">Qui est admissible</a></span></li>\n\n<li class=\"col-md-4 col-sm-6 clr-lft-sm\"><span class=\"list-group-item\">\u00c9tape 3. <a href=\"?id=1288287038233\">Comment pr\u00e9senter une demande</a></span></li>\n\n<li class=\"col-md-4 col-sm-6\"><span class=\"list-group-item\"><a href=\"?id=1333637676318\">Pour les pr\u00eateurs </a></span></li>\n\n<li class=\"col-md-4 col-sm-6\"><span class=\"list-group-item\"><a href=\"?id=1288375291000\">Foire aux questions</a></span></li>\n\n<li class=\"col-md-4 col-sm-6\"><span class=\"list-group-item\"><a href=\"?id=1571175919535\">Pour nous joindre</a></span></li>\n</ul>\n</div>\n</div>\n\n<h2>\u00c9tape 1. Ce qu\u2019offre ce programme</h2>\n\n<div class=\"col-md-4 pull-right\">\n            <section class=\"panel panel-default\">\n            <header class=\"panel-heading\">\n                <h2 class=\"panel-title\">Fiche de renseignements</h2>\n            </header>\n            <div class=\"panel-body\">\n<p>Imprimez cette fiche de renseignements pour promouvoir le programme \u00e0 l\u2019occasion d\u2019\u00e9v\u00e9nements et de r\u00e9unions.</p> \n<ul>\n<li><a href=\"http://publications.gc.ca/site/fra/9.830298/publication.html\">Aider  les agriculteurs \u00e0 innover et \u00e0 \u00e9largir leurs activit\u00e9s</a></li>\n</ul>\n</div>\n</section>\n</div>\n\n<p>Le Programme de la <cite>Loi  canadienne sur les pr\u00eats agricoles</cite> (LCPA) est un programme de  garantie de pr\u00eats de financement facilitant l\u2019acc\u00e8s au cr\u00e9dit des producteurs  et des coop\u00e9ratives agricoles. Les producteurs agricoles peuvent utiliser ces  pr\u00eats en vue de construire, de r\u00e9nover et d\u2019agrandir leurs exploitations  agricoles, alors que les coop\u00e9ratives agricoles peuvent aussi avoir acc\u00e8s aux  pr\u00eats pour transformer, distribuer ou commercialiser des produits agricoles.</p>\n\n<h2>Objectifs</h2>\n\n<p>Par le truchement du programme de la LCPA, nous soutenons le renouvellement du secteur agricole et permet aux coop\u00e9ratives de tirer davantage parti des nouveaux d\u00e9bouch\u00e9s sur les march\u00e9s commerciaux.</p>\n\n<h2>Financement disponible</h2>\n\n<p>En vertu du programme de la LCPA, le  gouvernement f\u00e9d\u00e9ral garantit au pr\u00eateur le remboursement de 95\u00a0% d\u2019une  perte nette sur un pr\u00eat admissible consenti.</p>\n\n<p>Le plafond actuel de regroupement de  pr\u00eats pour tout emprunteur est de 500\u00a0000\u00a0$.</p>\n\n<p>Les pr\u00eats sont limit\u00e9s au montant maximal de\u00a0:</p>\n\n<ul>\n  <li>500\u00a0000\u00a0$ s\u2019ils servent \u00e0 l\u2019achat de       terres et \u00e0 la construction ou \u00e0 la r\u00e9novation de b\u00e2timents;</li>\n  <li>350\u00a0000\u00a0$ pour tout autre motif d\u2019emprunt, y compris la consolidation ou le refinancement de pr\u00eats.</li>\n</ul>\n\n<p>Le plafond de regroupement de pr\u00eats  pour les coop\u00e9ratives agricoles est de 3\u00a0millions de dollars, avec  l\u2019approbation du ministre. </p>\n\n<p><b>Exemple\u00a0:</b> Si un producteur agricole obtient un pr\u00eat en vertu de la LCPA de 300\u00a0000\u00a0$ pour l\u2019achat d\u2019un tracteur, il a encore acc\u00e8s \u00e0 200\u00a0000\u00a0$ pour l\u2019achat d\u2019une terre ou la r\u00e9fection d\u2019un b\u00e2timent.</p>\n\n\n\n<h2>Prestation de programme</h2>\n\n<p>Les pr\u00eateurs, comme les banques, les coop\u00e9ratives  de cr\u00e9dit et les caisses populaires, consentent et administrent les pr\u00eats dans  le cadre du programme de la LCPA.</p>\n\n<p>Les pr\u00eateurs doivent faire preuve d\u2019autant de soin et de prudence dans l\u2019administration des pr\u00eats de la LCPA que  dans la conduite de leurs affaires courantes. Le programme de la LCPA a \u00e9t\u00e9 con\u00e7u pour permettre aux pr\u00eateurs de l\u2019int\u00e9grer \u00e0 leurs pratiques habituelles d\u2019octroi de pr\u00eats, tout en offrant des pr\u00eats garantis par le gouvernement aux  producteurs et aux coop\u00e9ratives agricoles.</p>\n<p>Si l\u2019achat a d\u00e9j\u00e0 \u00e9t\u00e9 effectu\u00e9, le  pr\u00eateur dispose de 60 jours \u00e0 partir de la date d\u2019achat pour consentir un pr\u00eat de la LCPA.</p>\n\n<p>Les pr\u00eateurs peuvent enregistrer les pr\u00eats et soumettre les frais d\u2019enregistrement connexes par le truchement du <a href=\"?id=1333637676318\">syst\u00e8me d\u2019enregistrement en ligne</a> du programme de la LCPA.</p>\n\n<h2>Lignes directrices administratives</h2>\n\n<p>Les \u00e9l\u00e9ments suivants sont utilis\u00e9s  pour administrer le programme de la LCPA :</p>\n<ul>\n<li><a href=\"http://laws-lois.justice.gc.ca/fra/lois/f-2.7/index.html\"><cite>Loi canadienne sur les pr\u00eats agricoles</cite></a></li>\n<li><a href=\"http://laws-lois.justice.gc.ca/fra/reglements/DORS-99-122/\"><cite>R\u00e8glement canadien sur les pr\u00eats agricoles</cite></a></li>\n<li>Les <a href=\"?id=1369846155609\">Lignes directrices relatives aux pr\u00eateurs</a>\u00a0: Lignes directrices pour les pr\u00eateurs concernant l'administration des pr\u00eats consentis conform\u00e9ment \u00e0 la LCPA. </li>\n</ul>\n\n<nav>\n<h2 class=\"wb-inv\">Navigation du document - pr\u00e9c\u00e9dente-suivante - bas</h2>\n\n<div class=\"row\">\n<div class=\"col-md-12 mrgn-lft-0 mrgn-rght-0\">\n<ul class=\"pager\">\n \n<li class=\"next\"><a href=\"?id=1572989468581\" rel=\"next\" title=\"Qui est admissible\">Suivante</a></li>\n</ul>\n</div>\n</div>\n</nav>\n\n\r\n    <!-- Fin du contenu -->\r\n\t\r\n\t\r\n\t\r\n  "
    },
    "css": {
        "fr": null
    },
    "js": {
        "en": null,
        "fr": null
    }
}