{
    "dcr_id": "1568145041715",
    "title": {
        "en": "Audits and Evaluations",
        "fr": "Audits et \u00e9valuations"
    },
    "modified": "2021-01-13",
    "issued": "2019-09-10",
    "templatetype": "content page 1 column",
    "page_type": "1",
    "node_id": "1587496160123",
    "dc_date_created": "2019-09-10",
    "managing_branch": "PAB",
    "parent_node_id": "1566306181000",
    "label": {
        "en": "Audits and evaluations",
        "fr": "Audits et \u00e9valuations"
    },
    "exturl": "",
    "teamsite_location": {
        "en": "/default/main/AAFC-AAC/Internet-Internet/Common-Commun/WORKAREA/Common-Commun/templatedata/comm-comm/gene-gene/data/09/office_of_audit_evaluation_1568145041715_en",
        "fr": "/default/main/AAFC-AAC/Internet-Internet/Common-Commun/WORKAREA/Common-Commun/templatedata/comm-comm/gene-gene/data/09/office_of_audit_evaluation_1568145041715_fr"
    },
    "type_name": "sitemapinit",
    "has_dcr_id": true,
    "breadcrumb": {
        "en": "Audits and evaluations",
        "fr": "Audits et \u00e9valuations"
    },
    "layout_name": "content page 1 column",
    "lang": "en",
    "meta": {
        "issued": {
            "en": "2019-09-10",
            "fr": "2019-09-10"
        },
        "modified": {
            "en": "2021-01-13",
            "fr": "2021-01-13"
        },
        "format": {
            "en": "text/html",
            "fr": "text/html"
        },
        "title": {
            "en": "Audits and Evaluations",
            "fr": "Audits et \u00e9valuations"
        },
        "subject": {
            "en": "architecture;sustainable development;benchmarks",
            "fr": "cultures;terre agricole;technologie agricole"
        },
        "description": {
            "en": "Audit Reports. 2019-2020. Audit of Grants and Contributions Digital Platform: Project Planning. Audit of the AgriInnovation Program \u2013 Enabling Commercialization and Adoption Stream. Audit of Initiatives Under the. Agricultural Marketing Programs Act.",
            "fr": "30 mars 2017. Table des mati\u00e8res. Collection nationale canadienne d'insectes, d'arachnides et de n\u00e9matodes. d'\u00e9liminer les menaces qui p\u00e8sent sur la cha\u00eene de valeur des produits agricoles et agroalimentaires."
        },
        "language": {
            "en": "eng",
            "fr": "fra"
        },
        "keywords": {
            "en": "Science-Related;Memoranda;Agri-Products",
            "fr": "doutils.Le"
        },
        "audience": {
            "en": "gcaudience",
            "fr": "gcaudience"
        },
        "type": {
            "en": "educational material",
            "fr": "description du programme ou du service"
        },
        "creator": {
            "en": "Agriculture and Agri-Food Canada;Government of Canada",
            "fr": "Agriculture et Agroalimentaire Canada;Gouvernement du Canada"
        },
        "spatial": {
            "en": "gcregions",
            "fr": "gcregions"
        },
        "service": {
            "en": "AAFC-AAC",
            "fr": "AAFC-AAC"
        },
        "accessRights": {
            "en": "2",
            "fr": "2"
        },
        "legalName": {
            "en": "agriculture_and_agri_food_canada",
            "fr": "agriculture_et_agroalimentaire_canada"
        },
        "areaServed": {
            "en": "Canada",
            "fr": "Canada"
        }
    },
    "css": {
        "fr": null
    },
    "js": {
        "en": null,
        "fr": null
    },
    "body": {
        "en": "<!-- D&eacute;but du contenu -->\r\n    <p>The Office of Audit and Evaluation conducts audits and evaluations of departmental programs, processes, and services. The resulting reports provide credible, timely, neutral evidence to support government accountability and decision-making on policy, programs, and management of how funds are spent. Audit and evaluation reports make recommendations for improvement, which are to be implemented in a timely manner.</p>\n\n<p><a href=\"?id=1231423632566\">Learn about the department's internal audit and evaluation activities</a></p>\n\n<div class=\"clearfix mrgn-bttm-lg\"></div>\n\n <div class=\"well well-sm\">\n<form class=\"wb-tables-filter\" data-bind-to=\"dataset-filter\">\n<div class=\"row\">\n<div class=\"col-md-6\">\n<div class=\"form-group\">\n<label for=\"dt_p_year\">Year</label>\n<select class=\"form-control\" id=\"dt_p_year\" name=\"dt_p_year\" data-column=\"0\">\n<option value=\"\">All years</option>\n<option value=\"2020-2021\">2020-2021</option>\n<option value=\"2019-2020\">2019-2020</option>\n<option value=\"2018-2019\">2018-2019</option>\n<option value=\"2017-2018\">2017-2018</option>\n<option value=\"2016-2017\">2016-2017</option>\n<option value=\"2015-2016\">2015-2016</option>\n<option value=\"2014-2015\">2014-2015</option>\n<option value=\"2013-2014\">2013-2014</option>\n<option value=\"2012-2013\">2012-2013</option>\n</select>\n</div>\n</div>\n\n\n\n<div class=\"col-md-6\">\n<div class=\"form-group\">\n<label for=\"dt_type\">Type</label>\n<select class=\"form-control\" id=\"dt_type\" name=\"dt_type\" data-column=\"1\">\n<option value=\"\">All types</option>\n<option value=\"Audit\">Audit</option>\n<option value=\"Evaluation\">Evaluation</option>\n</select>\n</div>\n</div>\n\n</div>\n<button type=\"submit\" class=\"btn btn-primary\" aria-controls=\"dataset-filter\">Filter</button>\n<button type=\"reset\" class=\"btn btn-default\">Clear</button>\n</form>\n</div>\n\n\n<figure>\n<table id=\"dataset-filter\" class=\"wb-tables table table-striped table-hover\" data-wb-tables='{ \"order\" : [[0, \"dsc\"]] }'>\n<caption><span class=\"wb-invisible\">Office of Audit and Evaluation Reports</span></caption>\n<thead>\n  <tr>\n<th scope=\"col\">Year</th>\n<th scope=\"col\">Type</th>\n<th scope=\"col\">Report</th>\n<th scope=\"col\" class=\"hidden\">Teaser hidden column</th>\n</tr>\n</thead>\n<tbody>\n\n<tr>\n <td>2020-2021</td>\n <td>Evaluation</td>\n <td><a href=\"?id=1606435592491\">Evaluation of the programs under the Agricultural Marketing Programs Act (2014\u201319)</a></td>\n <td class=\"hidden\">Add notes here (date, info, etc.)</td>\n</tr>\n\n\n<tr>\n <td>2020-2021</td>\n <td>Audit</td> \n <td><a href=\"?id=1594640794711\">Internal Audit Performance Results</a></td>\n <td class=\"hidden\">Add notes here (date, info, etc.)</td>\n</tr>\n\n<tr>\n<td>2019-2020</td>\n <td>Evaluation</td>\n<td><a href=\"?id=1582935745703\">Evaluation of the agricultural greenhouse gases program (2016-17 to 2020-21)</a></td>\n <td class=\"hidden\">Add notes here (date, info, etc.)</td>\n</tr>\n\n\n<tr>\n<td>2019-2020</td>\n <td>Audit</td>\n<td><a href=\"?id=1582935121602\">Audit of the Revenue Control Framework</a></td>\n <td class=\"hidden\">Add notes here (date, info, etc.)</td>\n</tr>\n\n\n\n<tr>\n<td>2019-2020</td>\n <td>Audit</td>\n<td><a href=\"?id=1565133586112\">Audit of Grants and Contributions Digital Platform: Project Planning</a></td>\n <td class=\"hidden\">Add notes here (date, info, etc.)</td>\n</tr>\n\n\n<tr>\n <td>2019-2020</td>\n <td>Audit</td> \n <td><a href=\"?id=1560347333555\">Internal Audit Performance Results</a></td>\n <td class=\"hidden\">Add notes here (date, info, etc.)</td>\n</tr>\n\n<tr>\n <td>2019-2020</td>\n <td>Audit</td> \n <td><a href=\"?id=1583359720039\">Audit of Governance</a></td>\n <td class=\"hidden\">Add notes here (date, info, etc.)</td>\n</tr>\n\n\n<tr>\n <td>2018-2019</td>\n <td>Audit</td> \n <td><a href=\"?id=1553028646105\">Audit of Travel and Hospitality</a></td>\n <td class=\"hidden\">Add notes here (date, info, etc.)</td>\n</tr>\n\n\n<tr>\n <td>2018-2019</td>\n <td>Audit</td> \n <td><a href=\"?id=1543948412451\">Audit of the Management of Intellectual Property</a></td>\n <td class=\"hidden\">Add notes here (date, info, etc.)</td>\n</tr>\n  \n<tr>\n <td>2018-2019</td>\n <td>Audit</td>\n <td><a href=\"?id=1534270656152\">Audit of Memoranda of Understanding and Service Agreements</a></td>\n <td class=\"hidden\">Add notes here (date, info, etc.)</td>\n</tr>  \n\n<tr>\n <td>2018-2019</td>\n <td>Audit</td>\n <td><a href=\"?id=1529695487355\">Internal Audit Performance Results</a></td>\n <td class=\"hidden\">Add notes here (date, info, etc.)</td>\n</tr>\n\n<tr>\n <td>2017-2018</td>\n <td>Audit</td>\n <td><a href=\"?id=1506955013301\">Audit of the Winnipeg Contact Centre</a></td>\n <td class=\"hidden\">Add notes here (date, info, etc.)</td>\n</tr>\n\n<tr>\n <td>2017-2018</td>\n <td>Audit</td>\n <td><a href=\"?id=1527780534061\">Audit of AgriRisk Initiatives Program</a></td>\n <td class=\"hidden\">Add notes here (date, info, etc.)</td>\n</tr>\n\n<tr>\n <td>2017-2018</td>\n <td>Audit</td>\n <td><a href=\"?id=1511377536470\">Audit of Inventory Management: IT Assets (Workstations)</a></td>\n <td class=\"hidden\">Add notes here (date, info, etc.)</td>\n</tr>\n  \n<tr>\n <td>2016-2017</td>\n <td>Audit</td>\n <td><a href=\"?id=1495221712729\">Audit of the AgriMarketing Program \u2013 Assurance Systems Stream</a></td>\n <td class=\"hidden\">Add notes here (date, info, etc.)</td>\n</tr>  \n\n<tr>\n <td>2016-2017</td>\n <td>Audit</td>\n <td><a href=\"?id=1485986464013\">Audit of the AgriInnovation Program \u2013 Enabling Commercialization and Adoption Stream</a></td>\n <td class=\"hidden\">Add notes here (date, info, etc.)</td>\n</tr>  \n\n<tr>\n <td>2016-2017</td>\n <td>Audit</td>\n <td><a href=\"?id=1481137497811\">Audit of Promotion and Succession Planning of Research Scientists</a></td>\n <td class=\"hidden\">Add notes here (date, info, etc.)</td>\n</tr>  \n\n<tr>\n <td>2015-2016</td>\n <td>Audit</td>\n <td><a href=\"?id=1453229712781\">Audit of the AgriMarketing Program \u2013 Market Development Stream</a></td>\n <td class=\"hidden\">Add notes here (date, info, etc.)</td>\n</tr> \n\n<tr>\n <td>2015-2016</td>\n <td>Audit</td>\n <td><a href=\"?id=1434551677885\">Audit of Real Property (Laboratories)</a></td>\n <td class=\"hidden\">Add notes here (date, info, etc.)</td>\n</tr> \n  \n<tr>\n <td>2015-2016</td>\n <td>Audit</td>\n <td><a href=\"?id=1453143372995\">Audit of Science-Related Information Technology Acquisitions</a></td>\n <td class=\"hidden\">Add notes here (date, info, etc.)</td>\n</tr> \n  \n<tr>\n <td>2015-2016</td>\n <td>Audit</td>\n <td><a href=\"?id=1437137031182\">Audit of Information Technology Project Management</a></td>\n <td class=\"hidden\">Add notes here (date, info, etc.)</td>\n</tr> \n  \n<tr>\n <td>2015-2016</td>\n <td>Audit</td>\n <td><a href=\"?id=1461592921959\">Audit of Occupational Health and Safety</a></td>\n <td class=\"hidden\">Add notes here (date, info, etc.)</td>\n</tr> \n  \n<tr>\n <td>2015-2016</td>\n <td>Audit</td>\n <td><a href=\"?id=1453303927297\">Joint Audit of SAP Internal Controls</a></td>\n <td class=\"hidden\">Add notes here (date, info, etc.)</td>\n</tr>            \n\n<tr>\n <td>2014-2015</td>\n <td>Audit</td>\n <td><a href=\"?id=1431097041822\">Audit of Initiatives Under the <cite>Agricultural Marketing Programs Act</cite></a></td>\n <td class=\"hidden\">Add notes here (date, info, etc.)</td>\n</tr>     \n\n<tr>\n <td>2014-2015</td>\n <td>Audit</td>\n <td><a href=\"?id=1430913711053\">Audit of Growing Forward-Federally Funded Programs \u2013 Canadian Agri-Science Clusters and Developing Innovative Agri-Products</a></td>\n <td class=\"hidden\">Add notes here (date, info, etc.)</td>\n</tr>     \n\n<tr>\n <td>2014-2015</td>\n <td>Audit</td>\n <td><a href=\"?id=1434465310338\">Audit of Information Technology Security</a></td>\n <td class=\"hidden\">Add notes here (date, info, etc.)</td>\n</tr>                \n\n\n<tr>\n <td>2013-2014</td>\n <td>Audit</td>\n <td><a href=\"?id=1398795788947\">Report: AgriInsurance Program Audit</a></td>\n <td class=\"hidden\">Add notes here (date, info, etc.)</td>\n</tr>             \n\n<tr>\n <td>2013-2014</td>\n <td>Audit</td>\n <td><a href=\"?id=1380638418009\">Audit of Information Management \u2013 Records Management</a></td>\n <td class=\"hidden\">Add notes here (date, info, etc.)</td>\n</tr>                  \n\n<!-- Evaluation Reports -->\n\n\n<tr>\n <td>2019-2020</td>\n <td>Evaluation</td>\n <td><a href=\"?id=1563313134314\">Integrated audit and evaluation plan, fiscal years 2019\u201320 to 2023\u201324</a></td>\n <td class=\"hidden\">Add notes here (date, info, etc.)</td>\n</tr>     \n\n<tr>\n <td>2019-2020</td>\n <td>Evaluation</td>\n <td><a href=\"?id=1559939600250\">Evaluation of Canadian Agricultural Adaptation Program \u2013 Summary</a></td>\n <td class=\"hidden\">Add notes here (date, info, etc.)</td>\n</tr>     \n\n<tr>\n <td>2019-2020</td>\n <td>Evaluation</td>\n <td><a href=\"?id=1559594670386\">Evaluation of Canadian Agricultural Adaptation Program</a></td>\n <td class=\"hidden\">Add notes here (date, info, etc.)</td>\n</tr>     \n  \n\n<tr>\n <td>2018-2019</td>\n <td>Evaluation</td>\n <td><a href=\"?id=1560968854224\">Evaluation of Canadian Agricultural Loans Act Program \u2013 Summary</a></td>\n <td class=\"hidden\">Add notes here (date, info, etc.)</td>\n</tr>    \n  \n<tr>\n <td>2018-2019</td>\n <td>Evaluation</td>\n <td><a href=\"?id=1560431955204\">Evaluation of Canadian Agricultural Loans Act Program</a></td>\n <td class=\"hidden\">Add notes here (date, info, etc.)</td>\n</tr>    \n  \n<tr>\n <td>2018-2019</td>\n <td>Evaluation</td>\n <td><a href=\"?id=1551903731027\">Evaluation of Canadian Pari-Mutuel Agency \u2013 Summary</a></td>\n <td class=\"hidden\">Add notes here (date, info, etc.)</td>\n</tr>    \n  \n<tr>\n <td>2018-2019</td>\n <td>Evaluation</td>\n <td><a href=\"?id=1551903137500\">Evaluation of Canadian Pari-Mutuel Agency</a></td>\n <td class=\"hidden\">Add notes here (date, info, etc.)</td>\n</tr>               \n\n<tr>\n <td>2017-2018</td>\n <td>Evaluation</td>\n <td><a href=\"?id=1531242392797\">Evaluation of the AgriMarketing Program Stream C: Market Development \u2013 Summary</a></td>\n <td class=\"hidden\">Add notes here (date, info, etc.)</td>\n</tr>         \n\n<tr>\n <td>2017-2018</td>\n <td>Evaluation</td>\n <td><a href=\"?id=1531170674792\">Evaluation of the AgriMarketing Program Stream C: Market Development</a></td>\n <td class=\"hidden\">Add notes here (date, info, etc.)</td>\n</tr>         \n\n<tr>\n <td>2017-2018</td>\n <td>Evaluation</td>\n  <td><a href=\"?id=1529095349170\">Evaluation of Minor Use Pesticides Program  \u2013 Summary Report</a></td>\n <td class=\"hidden\">Add notes here (date, info, etc.)</td>\n</tr>         \n\n<tr>\n <td>2017-2018</td>\n <td>Evaluation</td>\n <td><a href=\"?id=1529086839900\">Evaluation of the Minor Use Pesticides Program</a></td>\n <td class=\"hidden\">Add notes here (date, info, etc.)</td>\n</tr>         \n\n<tr>\n <td>2017-2018</td>\n <td>Evaluation</td>\n <td>\u200b<a href=\"?id=1530836356857\">Evaluation of AgriInnovation Program Stream C: Enabling Commercialization and Adoption  - Summary Report</a></td>\n <td class=\"hidden\">Add notes here (date, info, etc.)</td>\n</tr>         \n\n<tr>\n <td>2017-2018</td>\n <td>Evaluation</td>\n <td><a href=\"?id=1530835382740\">Evaluation of AgriInnovation Program Stream C: Enabling Commercialization and Adoption</a></td>\n <td class=\"hidden\">Add notes here (date, info, etc.)</td>\n</tr>         \n\n<tr>\n <td>2017-2018</td>\n <td>Evaluation</td>\n <td><a href=\"?id=1529512581101\">Evaluation of AgriRisk Initiatives \u2013 Summary Report</a></td>\n <td class=\"hidden\">Add notes here (date, info, etc.)</td>\n</tr>         \n\n<tr>\n <td>2017-2018</td>\n <td>Evaluation</td>\n <td><a href=\"?id=1529352644792\">Evaluation of AgriRisk Initiatives</a></td>\n <td class=\"hidden\">Add notes here (date, info, etc.)</td>\n</tr>         \n\n<tr>\n <td>2017-2018</td>\n <td>Evaluation</td>\n <td><a href=\"?id=1528238936001\">Evaluation of the Pesticide Risk Reduction Program \u2013 Summary Report</a></td>\n <td class=\"hidden\">Add notes here (date, info, etc.)</td>\n</tr>         \n\n<tr>\n <td>2017-2018</td>\n <td>Evaluation</td>\n <td><a href=\"?id=1528217571100\">Evaluation of the Pesticide Risk Reduction Program</a></td>\n <td class=\"hidden\">Add notes here (date, info, etc.)</td>\n</tr>         \n\n<tr>\n <td>2017-2018</td>\n <td>Evaluation</td>\n <td><a href=\"?id=1518447030734\">Evaluation of Growing Forward 2 Cost-shared Programming Strategic Initiatives \u2013 Summary Report</a></td>\n <td class=\"hidden\">Add notes here (date, info, etc.)</td>\n</tr>         \n\n<tr>\n <td>2017-2018</td>\n <td>Evaluation</td>\n <td><a href=\"?id=1518641524878\">Evaluation of Growing Forward 2 Cost-shared Programming Strategic Initiatives</a></td>\n <td class=\"hidden\">Add notes here (date, info, etc.)</td>\n</tr>         \n\n<tr>\n <td>2017-2018</td>\n <td>Evaluation</td>\n <td><a href=\"?id=1509142838381\">Evaluation of the AgriInnovation Program \u2013 Stream B:  Research, Development and Knowledge Transfer \u2013 Summary Report</a></td>\n <td class=\"hidden\">Add notes here (date, info, etc.)</td>\n</tr>         \n\n<tr>\n <td>2017-2018</td>\n <td>Evaluation</td>\n <td><a href=\"?id=1509045749269\">Evaluation of the AgriInnovation Program \u2013 Stream B:  Research, Development and Knowledge Transfer</a></td>\n <td class=\"hidden\">Add notes here (date, info, etc.)</td>\n</tr>     \n\n\n<tr>\n <td>2016-2017</td>\n <td>Evaluation</td>\n <td><a href=\"?id=1503611834734\">Evaluation of AgriStability, AgriInvest, AgriInsurance and the Wildlife Compensation Program - Summary Report</a></td>\n <td class=\"hidden\">Add notes here (date, info, etc.)</td>\n</tr>         \n\n<tr>\n <td>2016-2017</td>\n <td>Evaluation</td>\n <td><a href=\"?id=1474589738244\">Evaluation of the Agricultural Disaster Relief Program</a></td>\n <td class=\"hidden\">Add notes here (date, info, etc.)</td>\n</tr>         \n\n<tr>\n <td>2016-2017</td>\n <td>Evaluation</td>\n <td><a href=\"?id=1503612344518\">Evaluation of AgriStability, AgriInvest,  AgriInsurance   and the Wildlife Compensation Program</a></td>\n <td class=\"hidden\">Add notes here (date, info, etc.)</td>\n</tr>         \n\n<tr>\n <td>2016-2017</td>\n <td>Evaluation</td>\n <td><a href=\"?id=1501693333324\">Evaluation of AgriMarketing, Stream D: Assurance Systems - Summary Report</a></td>\n <td class=\"hidden\">Add notes here (date, info, etc.)</td>\n</tr>         \n\n\n<tr>\n <td>2016-2017</td>\n <td>Evaluation</td>\n <td><a href=\"?id=1501286272068\">Evaluation of AgriMarketing, Stream D: Assurance Systems</a></td>\n <td class=\"hidden\">Add notes here (date, info, etc.)</td>\n</tr>         \n\n\n<tr>\n <td>2016-2017</td>\n <td>Evaluation</td>\n <td><a href=\"?id=1500914822850\">Evaluation of the Agricultural Flexibility Fund</a></td>\n <td class=\"hidden\">Add notes here (date, info, etc.)</td>\n</tr>         \n\n\n<tr>\n <td>2016-2017</td>\n <td>Evaluation</td>\n <td><a href=\"?id=1499284461898\">Evaluation of the AgriInnovation Program Stream A:  Research Accelerating Innovation \u2013 Summary Report</a></td>\n <td class=\"hidden\">Add notes here (date, info, etc.)</td>\n</tr>         \n\n\n<tr>\n <td>2016-2017</td>\n <td>Evaluation</td>\n <td><a href=\"?id=1499282667119\">Evaluation of the AgriInnovation Program Stream A:  Research Accelerating Innovation</a></td>\n <td class=\"hidden\">Add notes here (date, info, etc.)</td>\n</tr>         \n\n\n<tr>\n <td>2016-2017</td>\n <td>Evaluation</td>\n <td><a href=\"?id=1498852092050\">Evaluation of Science 2.1.1: Science Supporting an Innovative and Sustainable Sector \u2013 Summary Report</a></td>\n <td class=\"hidden\">Add notes here (date, info, etc.)</td>\n</tr>         \n\n\n<tr>\n <td>2016-2017</td>\n <td>Evaluation</td>\n <td><a href=\"?id=1498783490024\">Evaluation of Science 2.1.1: Science Supporting an Innovative and Sustainable Sector</a></td>\n <td class=\"hidden\">Add notes here (date, info, etc.)</td>\n</tr>         \n\n\n<tr>\n <td>2016-2017</td>\n <td>Evaluation</td>\n <td><a href=\"?id=1495662443310\">Evaluation of the programs under the Agricultural Marketing Programs Act \u2013 Summary Report</a></td>\n <td class=\"hidden\">Add notes here (date, info, etc.)</td>\n</tr>         \n\n\n<tr>\n <td>2016-2017</td>\n <td>Evaluation</td>\n <td><a href=\"?id=1495239603607\">Evaluation of the programs under the Agricultural Marketing Programs Act</a></td>\n <td class=\"hidden\">Add notes here (date, info, etc.)</td>\n</tr>   \n\n\n<tr>\n <td>2015-2016</td>\n <td>Evaluation</td>\n <td><a href=\"?id=1466628344728\">Evaluation of the Sector Engagement and Development Program</a></td>\n <td class=\"hidden\">Add notes here (date, info, etc.)</td>\n</tr>         \n\n\n<tr>\n <td>2015-2016</td>\n <td>Evaluation</td>\n <td><a href=\"?id=1466531898375\">Evaluation of the Trade and Market Expansion Program</a></td>\n <td class=\"hidden\">Add notes here (date, info, etc.)</td>\n</tr>         \n\n\n<tr>\n <td>2015-2016</td>\n <td>Evaluation</td>\n  <td><a href=\"?id=1464291484565\">Evaluation of the Farm Debt Mediation Service</a></td>\n <td class=\"hidden\">Add notes here (date, info, etc.)</td>\n</tr>         \n\n<tr>\n <td>2014-2015</td>\n <td>Evaluation</td>\n  <td><a href=\"?id=1402430307415\">Evaluation of Agriculture and Agri-Food Canada's Innovation and Adaptation Programs</a></td>\n <td class=\"hidden\">Add notes here (date, info, etc.)</td>\n</tr>         \n\n\n<tr>\n <td>2014-2015</td>\n <td>Evaluation</td>\n  <td><a href=\"?id=1422475533235\">Evaluation of the International Pork Marketing Fund</a></td>\n <td class=\"hidden\">Add notes here (date, info, etc.)</td>\n</tr>         \n\n\n<tr>\n <td>2014-2015</td>\n <td>Evaluation</td>\n  <td><a href=\"?id=1422987718261\">Evaluation of the Beef Market Development Fund</a></td>\n <td class=\"hidden\">Add notes here (date, info, etc.)</td>\n</tr>         \n\n\n<tr>\n <td>2014-2015</td>\n <td>Evaluation</td>\n  <td><a href=\"?id=1424977033211\">Evaluation of the Agricultural Greenhouse Gases Program</a></td>\n <td class=\"hidden\">Add notes here (date, info, etc.)</td>\n</tr>         \n\n\n<tr>\n <td>2014-2015</td>\n <td>Evaluation</td>\n  <td><a href=\"?id=1421671560787\">Evaluation of the Canadian Integrated Food Safety Initiative</a></td>\n <td class=\"hidden\">Add notes here (date, info, etc.)</td>\n</tr>         \n\n\n<tr>\n <td>2014-2015</td>\n <td>Evaluation</td>\n <td><a href=\"?id=1427375740700\">Evaluation of the Hog Industry Loan Loss Reserve Program and the Hog Farm Transition Program</a></td>\n <td class=\"hidden\">Add notes here (date, info, etc.)</td>\n</tr>         \n\n\n<tr>\n <td>2014-2015</td>\n <td>Evaluation</td>\n <td><a href=\"?id=1433442330315\">Evaluation of the Fostering Business Development Program</a></td>\n <td class=\"hidden\">Add notes here (date, info, etc.)</td>\n</tr>         \n\n\n<tr>\n <td>2014-2015</td>\n <td>Evaluation</td>\n <td><a href=\"?id=1431617600233\">Evaluation of Grants to Foreign Recipients for Participation in International Organizations Supporting Agriculture</a></td>\n <td class=\"hidden\">Add notes here (date, info, etc.)</td>\n</tr>         \n\n<tr>\n <td>2014-2015</td>\n <td>Evaluation</td>\n <td><a href=\"?id=1435868137804\">Evaluation of the Control of Diseases in the Hog Industry</a></td>\n <td class=\"hidden\">Add notes here (date, info, etc.)</td>\n</tr>         \n\n\n<tr>\n <td>2013-2014</td>\n <td>Evaluation</td>\n  <td><a href=\"?id=1401475853238\">Evaluation of the Canadian Agricultural Loans Act Program</a></td>\n <td class=\"hidden\">Add notes here (date, info, etc.)</td>\n</tr>  \n\n\n\n<tr>\n <td>2013-2014</td>\n <td>Evaluation</td>\n  <td><a href=\"?id=1391208240481\">Evaluation of the Market and Trade Development Initiative</a></td>\n <td class=\"hidden\">Add notes here (date, info, etc.)</td>\n</tr>  \n\n\n\n<tr>\n <td>2013-2014</td>\n <td>Evaluation</td>\n  <td><a href=\"?id=1383668836307\">Evaluation of Rural and Co-operative Development</a></td>\n <td class=\"hidden\">Add notes here (date, info, etc.)</td>\n</tr>  \n\n\n\n<tr>\n <td>2013-2014</td>\n <td>Evaluation</td>\n <td>Evaluation of the Cost-Shared Non-Business Risk Management Contribution Programming under Growing Forward (available upon request)</td>\n <td class=\"hidden\">Add notes here (date, info, etc.)</td>\n</tr>  \n\n\n\n<tr>\n <td>2013-2014</td>\n <td>Evaluation</td>\n  <td><a href=\"?id=1378733416822\">Evaluation of the Agricultural Regulatory Action Plan under Growing Forward\u00a0\u2013 Health Claims, Novel Foods and Ingredients; Food Fortification; and Veterinary Drugs</a></td>\n <td class=\"hidden\">Add notes here (date, info, etc.)</td>\n</tr>  \n\n\n\n<tr>\n <td>2013-2014</td>\n <td>Evaluation</td>\n  <td><a href=\"?id=1378325519297\">Evaluation of the Minor Use Pesticides Program</a></td>\n <td class=\"hidden\">Add notes here (date, info, etc.)</td>\n</tr>  \n\n\n<tr>\n <td>2012-2013</td>\n <td>Evaluation</td>\n  <td><a href=\"?id=1382447295068\">Evaluation of the Agri-Environmental Science Sub-Activity</a></td>\n <td class=\"hidden\">Add notes here (date, info, etc.)</td>\n</tr>  \n\n\n\n<tr>\n <td>2012-2013</td>\n <td>Evaluation</td>\n  <td><a href=\"?id=1379353990720\">Evaluation of Performance Measurement and Reporting Programs\u00a0\u2013 National Agri-Environmental Health Analysis and Reporting Program (NAHARP) and National Carbon and Greenhouse Gas Accounting and Verification System (NCGAVS)</a></td>\n <td class=\"hidden\">Add notes here (date, info, etc.)</td>\n</tr>  \n\n\n\n<tr>\n <td>2012-2013</td>\n <td>Evaluation</td>\n  <td><a href=\"?id=1367338599421\">Evaluation of the AgriInsurance, Private Sector Risk Management Partnerships and Wildlife Compensation Programs</a></td>\n <td class=\"hidden\">Add notes here (date, info, etc.)</td>\n</tr>  \n\n\n\n<tr>\n <td>2012-2013</td>\n <td>Evaluation</td>\n  <td><a href=\"?id=1362083604412\">Evaluation of Income Stability Tools\u00a0- AgriStability and AgriInvest</a></td>\n <td class=\"hidden\">Add notes here (date, info, etc.)</td>\n</tr>  \n\n\n</tbody>\n</table>\n</figure>\n\n<div class=\"clearfix mrgn-bttm-lg\"></div>\n\n\n<p>Previous reports are available on request; contact us at <a href=\"mailto:aafc.oae-be.aac@canada.ca\">aafc.oae-be.aac@canada.ca</a> to obtain a copy.</p>\n\r\n    <!-- Fin du contenu -->",
        "fr": "\r\n    \r\n    <!-- MainContentStart -->\r\n    <!-- D&eacute;but du contenu -->\r\n    <p>Le Bureau de la v\u00e9rification et de l'\u00e9valuation proc\u00e8de \u00e0 des audits et \u00e0 des \u00e9valuations des programmes, processus et services du minist\u00e8re. Les rapports qui en r\u00e9sultent fournissent des \u00e9l\u00e9ments de preuve cr\u00e9dibles, neutres et en temps opportun afin d\u2019appuyer la reddition de comptes et la prise de d\u00e9cisions du gouvernement en mati\u00e8re de politique, de programmes et d\u2019utilisation des fonds. Les rapports d\u2019audit et d\u2019\u00e9valuation contiennent des recommandations d\u2019am\u00e9lioration, qui doivent \u00eatre mises en \u0153uvre rapidement.</p>\n\n<p><a href=\"?id=1231423632566\">Informez-vous sur les activit\u00e9s d\u2019audit interne et d\u2019\u00e9valuation du minist\u00e8re</a></p>\n\n<div class=\"clearfix  mrgn-bttm-lg\"></div>\n\n <div class=\"well well-sm\">\n<form class=\"wb-tables-filter\" data-bind-to=\"dataset-filter\">\n<div class=\"row\">\n<div class=\"col-md-6\">\n<div class=\"form-group\">\n<label for=\"dt_p_year\">Ann\u00e9e</label>\n<select class=\"form-control\" id=\"dt_p_year\" name=\"dt_p_year\" data-column=\"0\">\n<option value=\"\">Toutes les ann\u00e9es</option>\n<option value=\"2020-2021\">2020-2021</option>\n<option value=\"2019-2020\">2019-2020</option>\n<option value=\"2018-2019\">2018-2019</option>\n<option value=\"2017-2018\">2017-2018</option>\n<option value=\"2016-2017\">2016-2017</option>\n<option value=\"2015-2016\">2015-2016</option>\n<option value=\"2014-2015\">2014-2015</option>\n<option value=\"2013-2014\">2013-2014</option>\n<option value=\"2012-2013\">2012-2013</option>\n</select>\n</div>\n</div>\n\n\n\n<div class=\"col-md-6\">\n<div class=\"form-group\">\n<label for=\"dt_type\">Type</label>\n<select class=\"form-control\" id=\"dt_type\" name=\"dt_type\" data-column=\"1\">\n<option value=\"\">Tous les types</option>\n<option value=\"V\u00e9rification\">V\u00e9rification</option>\n<option value=\"\u00c9valuation\">\u00c9valuation</option>\n</select>\n</div>\n</div>\n\n</div>\n<button type=\"submit\" class=\"btn btn-primary\" aria-controls=\"dataset-filter\">Filtrer</button>\n<button type=\"reset\" class=\"btn btn-default\">Effacer</button>\n</form>\n</div>\n\n\n<figure>\n<table id=\"dataset-filter\" class=\"wb-tables table table-striped table-hover\" data-wb-tables='{ \"order\" : [[0, \"dsc\"]] }'>\n<caption><span class=\"wb-invisible\">Bureau de la v\u00e9rification et de l\u2019\u00e9valuation</span></caption>\n<thead>\n  <tr>\n<th scope=\"col\">Ann\u00e9e</th>\n<th scope=\"col\">Type</th>\n<th scope=\"col\">Rapports</th>\n<th scope=\"col\" class=\"hidden\">Hidden</th>\n</tr>\n</thead>\n<tbody>\n\n<tr>\n <td>2020-2021</td>\n <td>V\u00e9rification</td>\n <td><a href=\"?id=1594640794711\">R\u00e9sultats li\u00e9s au rendement d'audit</a></td>\n <td class=\"hidden\">Add notes here (date, info, etc.)</td>\n</tr>\n\n <tr>\n<td>2019-2020</td>\n <td>V\u00e9rification</td>\n<td><a href=\"?id=1582935121602\">Audit du cadre de contr\u00f4le des recettes</a></td>\n <td class=\"hidden\">Add notes here (date, info, etc.)</td>\n</tr>\n\n\n\n<tr>\n<td>2019-2020</td>\n<td>V\u00e9rification</td>\n<td><a href=\"?id=1565133586112\">Audit de la Plateforme num\u00e9rique des subventions et contributions : Planification de projet</a></td>\n <td class=\"hidden\">Add notes here (date, info, etc.)</td>\n</tr>\n\n\n<tr>\n <td>2019-2020</td>\n <td>V\u00e9rification</td>\n <td><a href=\"?id=1583359720039\">Audit de la gouvernance</a></td>\n <td class=\"hidden\">Add notes here (date, info, etc.)</td>\n</tr>\n\n\n<tr>\n <td>2019-2020</td>\n <td>V\u00e9rification</td>\n <td><a href=\"?id=1560347333555\">R\u00e9sultats li\u00e9s au rendement d'audit</a></td>\n <td class=\"hidden\">Add notes here (date, info, etc.)</td>\n</tr>\n\n\n<tr>\n <td>2018-2019</td>\n <td>V\u00e9rification</td>\n <td><a href=\"?id=1553028646105\">Audit des frais de voyage et d\u2019accueil</a></td>\n <td class=\"hidden\">Add notes here (date, info, etc.)</td>\n</tr>\n\n\n<tr>\n <td>2018-2019</td>\n <td>V\u00e9rification</td>\n <td><a href=\"?id=1543948412451\">Audit de la gestion de la propri\u00e9t\u00e9 intellectuelle</a></td>\n <td class=\"hidden\">Add notes here (date, info, etc.)</td>\n</tr>\n  \n<tr>\n <td>2018-2019</td>\n <td>V\u00e9rification</td>\n <td><a href=\"?id=1534270656152\">Audit des protocoles d'entente et des ententes de service</a></td>\n <td class=\"hidden\">Add notes here (date, info, etc.)</td>\n</tr>  \n\n<tr>\n <td>2018-2019</td>\n <td>V\u00e9rification</td>\n <td><a href=\"?id=1529695487355\">R\u00e9sultats li\u00e9s au rendement d'audit</a></td>\n <td class=\"hidden\">Add notes here (date, info, etc.)</td>\n</tr>\n\n\n<tr>\n <td>2017-2018</td>\n <td>V\u00e9rification</td>\n <td><a href=\"?id=1506955013301\">Audit du Centre d\u2019appels de Winnipeg</a></td>\n <td class=\"hidden\">Add notes here (date, info, etc.)</td>\n</tr>\n\n<tr>\n <td>2017-2018</td>\n <td>V\u00e9rification</td>\n <td><a href=\"?id=1527780534061\">Audit du programme des Initiatives Agri-risques</a></td>\n <td class=\"hidden\">Add notes here (date, info, etc.)</td>\n</tr>\n\n<tr>\n <td>2017-2018</td>\n <td>V\u00e9rification</td>\n <td><a href=\"?id=1511377536470\">Audit de la gestion de l\u2019inventaire Actifs de TI (postes de travail)</a></td>\n <td class=\"hidden\">Add notes here (date, info, etc.)</td>\n</tr>\n  \n<tr>\n <td>2016-2017</td>\n <td>V\u00e9rification</td>\n <td><a href=\"?id=1495221712729\">Audit du volet Syst\u00e8mes d'assurance du programme Agri-marketing</a></td>\n <td class=\"hidden\">Add notes here (date, info, etc.)</td>\n</tr>  \n\n<tr>\n <td>2016-2017</td>\n <td>V\u00e9rification</td>\n <td><a href=\"?id=1485986464013\">Audit du programme Agri-innovation \u2013 Facilitation de la commercialisation et de l'adoption</a></td>\n <td class=\"hidden\">Add notes here (date, info, etc.)</td>\n</tr>  \n\n<tr>\n <td>2016-2017</td>\n <td>V\u00e9rification</td>\n <td><a href=\"?id=1481137497811\">Audit de la promotion et de la planification de la rel\u00e8ve des chercheurs</a></td>\n <td class=\"hidden\">Add notes here (date, info, etc.)</td>\n</tr>  \n\n<tr>\n <td>2015-2016</td>\n <td>V\u00e9rification</td>\n <td><a href=\"?id=1453229712781\">Rapport d'audit du volet D\u00e9veloppement des march\u00e9s du programme Agri\u00admarketing</a></td>\n <td class=\"hidden\">Add notes here (date, info, etc.)</td>\n</tr> \n\n<tr>\n <td>2015-2016</td>\n <td>V\u00e9rification</td>\n <td><a href=\"?id=1434551677885\">V\u00e9rification des biens immobiliers (laboratoires)</a></td>\n <td class=\"hidden\">Add notes here (date, info, etc.)</td>\n</tr> \n  \n<tr>\n <td>2015-2016</td>\n <td>V\u00e9rification</td>\n <td><a href=\"?id=1453143372995\">Audit des acquisitions de technologies de l'information li\u00e9es aux sciences</a></td>\n <td class=\"hidden\">Add notes here (date, info, etc.)</td>\n</tr> \n  \n<tr>\n <td>2015-2016</td>\n <td>V\u00e9rification</td>\n <td><a href=\"?id=1437137031182\">V\u00e9rification de la gestion des projets de technologie de l'information</a></td>\n <td class=\"hidden\">Add notes here (date, info, etc.)</td>\n</tr> \n  \n<tr>\n <td>2015-2016</td>\n <td>V\u00e9rification</td>\n <td><a href=\"?id=1461592921959\">Audit de la sant\u00e9 et de la s\u00e9curit\u00e9 au travail</a></td>\n <td class=\"hidden\">Add notes here (date, info, etc.)</td>\n</tr> \n  \n<tr>\n <td>2015-2016</td>\n <td>V\u00e9rification</td>\n <td><a href=\"?id=1453303927297\">Audit collectif des contr\u00f4les internes du SAP</a></td>\n <td class=\"hidden\">Add notes here (date, info, etc.)</td>\n</tr>            \n\n<tr>\n <td>2014-2015</td>\n <td>V\u00e9rification</td>\n      <td><a href=\"?id=1431097041822\">V\u00e9rification des initiatives pr\u00e9vues par la <cite>Loi sur les programmes de commercialisation agricole</cite></a></td>\n <td class=\"hidden\">Add notes here (date, info, etc.)</td>\n</tr>     \n\n<tr>\n <td>2014-2015</td>\n <td>V\u00e9rification</td>\n     <td><a href=\"?id=1430913711053\">V\u00e9rification interne de Cultivons l'avenir \u2013 Programmes financ\u00e9s par le gouvernement f\u00e9d\u00e9ral \u2013 Initiative des grappes agroscientifiques canadiennes et Initiative de d\u00e9veloppement de produits agricoles innovateurs</a></td>\n <td class=\"hidden\">Add notes here (date, info, etc.)</td>\n</tr>     \n\n<tr>\n <td>2014-2015</td>\n <td>V\u00e9rification</td>\n     <td><a href=\"?id=1434465310338\">V\u00e9rification de la s\u00e9curit\u00e9 des technologies de l'information</a></td>\n <td class=\"hidden\">Add notes here (date, info, etc.)</td>\n</tr>                \n\n\n<tr>\n <td>2013-2014</td>\n <td>V\u00e9rification</td>\n  <td><a href=\"?id=1398795788947\">Rapport\u00a0: V\u00e9rification du programme Agri-protection</a></td>\n <td class=\"hidden\">Add notes here (date, info, etc.)</td>\n</tr>             \n\n<tr>\n <td>2013-2014</td>\n <td>V\u00e9rification</td>\n  <td><a href=\"?id=1380638418009\">V\u00e9rification de la gestion de l'information et de la gestion des documents</a></td>\n <td class=\"hidden\">Add notes here (date, info, etc.)</td>\n</tr>                  \n\n<!-- Evaluation Reports -->\n\n<tr>\n<td>2020-2021</td>\n <td>\u00c9valuation</td>\n<td><a href=\"?id=1606435592491\">\u00c9valuation des programmes r\u00e9gis par la Loi sur les programmes de commercialisation agricole (2014\u20132019)</a></td>\n <td class=\"hidden\">Add notes here (date, info, etc.)</td>\n</tr>\n\n\n<tr>\n<td>2019-2020</td>\n <td>\u00c9valuation</td>\n<td><a href=\"?id=1582935745703\">\u00c9valuation du programme de lutte contre les gaz \u00e0 effet de serre en agriculture (2016-2017 \u00e0 2020-2021)</a></td>\n <td class=\"hidden\">Add notes here (date, info, etc.)</td>\n</tr>\n\n\n<tr>\n <td>2019-2020</td>\n <td>\u00c9valuation</td>\n <td><a href=\"?id=1563313134314\">Plan int\u00e9gr\u00e9 d\u2019audit et d\u2019\u00e9valuation pour les ann\u00e9es financi\u00e8res 2019-2020 \u00e0 2023-2024</a></td>\n <td class=\"hidden\">Add notes here (date, info, etc.)</td>\n</tr>     \n\n<tr>\n <td>2019-2020</td>\n <td>\u00c9valuation</td>\n <td><a href=\"?id=1559939600250\">\u00c9valuation du Programme canadien d\u2019adaptation agricole : Rapport sommaire</a></td>\n <td class=\"hidden\">Add notes here (date, info, etc.)</td>\n</tr>     \n\n<tr>\n <td>2019-2020</td>\n <td>\u00c9valuation</td>\n <td><a href=\"?id=1559594670386\">\u00c9valuation du Programme canadien d\u2019adaptation agricole</a></td>\n <td class=\"hidden\">Add notes here (date, info, etc.)</td>\n</tr>     \n  \n\n<tr>\n <td>2018-2019</td>\n <td>\u00c9valuation</td>\n <td><a href=\"?id=1560968854224\">\u00c9valuation du Programme de la Loi canadienne sur les pr\u00eats agricoles\u00a0: Rapport sommaire</a></td>\n <td class=\"hidden\">Add notes here (date, info, etc.)</td>\n</tr>    \n  \n<tr>\n <td>2018-2019</td>\n <td>\u00c9valuation</td>\n <td><a href=\"?id=1560431955204\">\u00c9valuation du Programme de la Loi canadienne sur les pr\u00eats agricoles</a></td> \n <td class=\"hidden\">Add notes here (date, info, etc.)</td>\n</tr>    \n  \n<tr>\n <td>2018-2019</td>\n <td>\u00c9valuation</td>\n <td><a href=\"?id=1551903731027\">\u00c9valuation de l\u2019Agence canadienne du pari mutuel : Rapport sommaire</a></td>\n <td class=\"hidden\">Add notes here (date, info, etc.)</td>\n</tr>    \n  \n<tr>\n <td>2018-2019</td>\n <td>\u00c9valuation</td>\n <td><a href=\"?id=1551903137500\">\u00c9valuation de l\u2019Agence canadienne du pari mutuel</a></td> \n <td class=\"hidden\">Add notes here (date, info, etc.)</td>\n</tr>               \n\n\n<tr>\n <td>2017-2018</td>\n <td>\u00c9valuation</td>\n <td><a href=\"?id=1531242392797\">\u00c9valuation du programme Agri-marketing, volet C : D\u00e9veloppement des march\u00e9s : Sommaire</a></td>\n <td class=\"hidden\">Add notes here (date, info, etc.)</td>\n</tr>         \n\n<tr>\n <td>2017-2018</td>\n <td>\u00c9valuation</td>\n <td><a href=\"?id=1531170674792\">\u00c9valuation du programme Agri-marketing, volet C : D\u00e9veloppement des march\u00e9s </a></td>\n <td class=\"hidden\">Add notes here (date, info, etc.)</td>\n</tr>         \n\n<tr>\n <td>2017-2018</td>\n <td>\u00c9valuation</td>\n <td><a href=\"?id=1529095349170\">\u00c9valuation du Programme des pesticides \u00e0 usage limit\u00e9 :  Rapport sommaire</a></td>\n <td class=\"hidden\">Add notes here (date, info, etc.)</td>\n</tr>         \n\n<tr>\n <td>2017-2018</td>\n <td>\u00c9valuation</td>\n <td><a href=\"?id=1529086839900\">\u00c9valuation du Programme des pesticides \u00e0 usage limit\u00e9</a></td> \n <td class=\"hidden\">Add notes here (date, info, etc.)</td>\n</tr>         \n\n<tr>\n <td>2017-2018</td>\n <td>\u00c9valuation</td>\n <td><a href=\"?id=1530836356857\">\u00c9valuation du programme Agri-innovation, volet C \u2013 Facilitation de la commercialisation et de l\u2019adoption : Sommaire</a></td>\n <td class=\"hidden\">Add notes here (date, info, etc.)</td>\n</tr>     \n\n\n<tr>\n <td>2016-2017</td>\n <td>\u00c9valuation</td>\n <td><a href=\"?id=1530835382740\">\u00c9valuation du programme Agri-innovation, volet C : Facilitation de la commercialisation et de l\u2019adoption</a></td>\n <td class=\"hidden\">Add notes here (date, info, etc.)</td>\n</tr>   \n\n<tr>\n <td>2017-2018</td>\n <td>\u00c9valuation</td>\n <td><a href=\"?id=1528238936001\">\u00c9valuation du Programme de r\u00e9duction des risques li\u00e9s aux pesticides \u2013 Rapport sommaire</a></td>\n <td class=\"hidden\">Add notes here (date, info, etc.)</td>\n</tr>         \n\n<tr>\n <td>2017-2018</td>\n <td>\u00c9valuation</td>\n <td><a href=\"?id=1528217571100\">\u00c9valuation du Programme de r\u00e9duction des risques li\u00e9s aux pesticides</a></td>\n <td class=\"hidden\">Add notes here (date, info, etc.)</td>\n</tr>         \n\n<tr>\n <td>2017-2018</td>\n <td>\u00c9valuation</td>\n <td><a href=\"?id=1529512581101\">\u00c9valuation des initiatives Agri-risques \u2013 Rapport sommaire</a></td>\n <td class=\"hidden\">Add notes here (date, info, etc.)</td>\n</tr>         \n\n<tr>\n <td>2017-2018</td>\n <td>\u00c9valuation</td>\n <td><a href=\"?id=1529352644792\">\u00c9valuation des initiatives Agri-risques</a></td>\n <td class=\"hidden\">Add notes here (date, info, etc.)</td>\n</tr>         \n\n<tr>\n <td>2017-2018</td>\n <td>\u00c9valuation</td>\n <td><a href=\"?id=1518447030734\">\u00c9valuation des programmes des Initiatives strat\u00e9giques \u00e0 co\u00fbts partag\u00e9s de Cultivons l\u2019avenir 2 \u2013 Rapport sommaire</a></td>\n <td class=\"hidden\">Add notes here (date, info, etc.)</td>\n</tr>         \n\n<tr>\n <td>2017-2018</td>\n <td>\u00c9valuation</td>\n <td><a href=\"?id=1518641524878\">\u00c9valuation des programmes des Initiatives strat\u00e9giques \u00e0 co\u00fbts partag\u00e9s de Cultivons l\u2019avenir 2</a></td>\n <td class=\"hidden\">Add notes here (date, info, etc.)</td>\n</tr>         \n\n<tr>\n <td>2017-2018</td>\n <td>\u00c9valuation</td>\n <td><a href=\"?id=1509142838381\">\u00c9valuation du Programme Agri-innovation,Volet B\u00a0: Recherche, d\u00e9veloppement et transfert des connaissances \u2013 Rapport sommaire</a></td>\n <td class=\"hidden\">Add notes here (date, info, etc.)</td>\n</tr>         \n\n<tr>\n <td>2017-2018</td>\n <td>\u00c9valuation</td>\n <td><a href=\"?id=1509045749269\">\u00c9valuation du Programme Agri-innovation,Volet B\u00a0: Recherche, d\u00e9veloppement et transfert des connaissances</a></td>\n <td class=\"hidden\">Add notes here (date, info, etc.)</td>\n</tr>         \n\n\n<tr>\n <td>2017-2018</td>\n <td>\u00c9valuation</td>\n <td><a href=\"?id=1503611834734\">\u00c9valuation des programmes Agri\u00adstabilit\u00e9, Agri-investissement et Agri\u00adprotection et du Programme d\u2019indemnisation pour les dommages caus\u00e9s par la faune \u2013 Rapport sommaire</a></td>\n <td class=\"hidden\">Add notes here (date, info, etc.)</td>\n</tr>         \n\n      \n\n<tr>\n <td>2016-2017</td>\n <td>\u00c9valuation</td>\n\t <td><a href=\"?id=1474589738244\">\u00c9valuation du programme d'aide aux agriculteurs en cas de catastrophe</a></td>\n <td class=\"hidden\">Add notes here (date, info, etc.)</td>\n</tr>         \n\n<tr>\n <td>2016-2017</td>\n <td>\u00c9valuation</td>\n <td><a href=\"?id=1503612344518\">\u00c9valuation des programmes Agri-stabilit\u00e9, Agri\u00ad-investissement et Agri\u00ad-protection et du Programme d\u2019indemnisation pour les dommages caus\u00e9s par la faune</a></td>\n <td class=\"hidden\">Add notes here (date, info, etc.)</td>\n</tr>         \n\n<tr>\n <td>2016-2017</td>\n <td>\u00c9valuation</td>\n <td><a href=\"?id=1501693333324\">\u00c9valuation du Programme AgriMarketing, Volet B\u00a0: Syst\u00e8mes d\u2019assurance \u2013 Rapport sommaire</a></td>\n <td class=\"hidden\">Add notes here (date, info, etc.)</td>\n</tr>         \n\n\n<tr>\n <td>2016-2017</td>\n <td>\u00c9valuation</td>\n <td><a href=\"?id=1501286272068\">\u00c9valuation du Programme AgriMarketing, Volet B\u00a0: Syst\u00e8mes d\u2019assurance</a></td>\n <td class=\"hidden\">Add notes here (date, info, etc.)</td>\n</tr>         \n\n\n<tr>\n <td>2016-2017</td>\n <td>\u00c9valuation</td>\n <td><a href=\"?id=1500914822850\">\u00c9valuation du Fonds Agri-flexibilit\u00e9</a></td>\n <td class=\"hidden\">Add notes here (date, info, etc.)</td>\n</tr>         \n\n\n<tr>\n <td>2016-2017</td>\n <td>\u00c9valuation</td>\n <td><a href=\"?id=1499284461898\">\u00c9valuation du Programme Agri-innovation \u2013 Volet A\u00a0: Recherche acc\u00e9l\u00e9rant l'innovation \u2013 Rapport sommaire</a></td>\n <td class=\"hidden\">Add notes here (date, info, etc.)</td>\n</tr>         \n\n\n<tr>\n <td>2016-2017</td>\n <td>\u00c9valuation</td>\n <td><a href=\"?id=1499282667119\">\u00c9valuation du Programme Agri-innovation \u2013 Volet A\u00a0: Recherche acc\u00e9l\u00e9rant l'innovation</a></td>\n <td class=\"hidden\">Add notes here (date, info, etc.)</td>\n</tr>         \n\n\n<tr>\n <td>2016-2017</td>\n <td>\u00c9valuation</td>\n <td><a href=\"?id=1498852092050\">\u00c9valuation des activit\u00e9s scientifiques 2.1.1\u00a0: Un secteur innovateur et durable appuy\u00e9 par la science \u2013 Rapport sommaire</a></td>\n <td class=\"hidden\">Add notes here (date, info, etc.)</td>\n</tr>         \n\n\n<tr>\n <td>2016-2017</td>\n <td>\u00c9valuation</td>\n <td><a href=\"?id=1498783490024\">\u00c9valuation des activit\u00e9s scientifiques 2.1.1\u00a0: Un secteur innovateur et durable appuy\u00e9 par la science</a></td>\n <td class=\"hidden\">Add notes here (date, info, etc.)</td>\n</tr>         \n\n\n<tr>\n <td>2016-2017</td>\n <td>\u00c9valuation</td>\n <td><a href=\"?id=1495662443310\">\u00c9valuation des programmes constitu\u00e9s par la Loi sur les programmes de commercialisation agricole \u2013 Rapport sommaire</a></td>\n <td class=\"hidden\">Add notes here (date, info, etc.)</td>\n</tr>         \n\n\n<tr>\n <td>2016-2017</td>\n <td>\u00c9valuation</td>\n <td><a href=\"?id=1495239603607\">\u00c9valuation des programmes constitu\u00e9s par la Loi sur les programmes de commercialisation agricole</a></td>\n <td class=\"hidden\">Add notes here (date, info, etc.)</td>\n</tr>   \n\n\n<tr>\n <td>2015-2016</td>\n <td>\u00c9valuation</td>\n <td><a href=\"?id=1466628344728\">\u00c9valuation du programme mobilisation et d\u00e9veloppement du secteur</a></td>\n <td class=\"hidden\">Add notes here (date, info, etc.)</td>\n</tr>         \n\n\n<tr>\n <td>2015-2016</td>\n <td>\u00c9valuation</td>\n <td><a href=\"?id=1466531898375\">\u00c9valuation du programme croissance du commerce et des march\u00e9s</a></td>\n <td class=\"hidden\">Add notes here (date, info, etc.)</td>\n</tr>         \n\n\n<tr>\n <td>2015-2016</td>\n <td>\u00c9valuation</td>\n <td><a href=\"?id=1464291484565\">\u00c9valuation du Service de m\u00e9diation en mati\u00e8re d'endettement agricole</a></td>\n <td class=\"hidden\">Add notes here (date, info, etc.)</td>\n</tr>         \n\n<tr>\n <td>2014-2015</td>\n <td>\u00c9valuation</td>\n   <td><a href=\"?id=1402430307415\">\u00c9valuation des programmes d'innovation et d'adaptation d'Agriculture et Agroalimentaire Canada</a></td>\n <td class=\"hidden\">Add notes here (date, info, etc.)</td>\n</tr>         \n\n\n<tr>\n <td>2014-2015</td>\n <td>\u00c9valuation</td>\n  <td><a href=\"?id=1422475533235\">\u00c9valuation du Fonds de commercialisation du porc \u00e0 l'\u00e9chelle internationale</a></td>\n <td class=\"hidden\">Add notes here (date, info, etc.)</td>\n</tr>         \n\n\n<tr>\n <td>2014-2015</td>\n <td>\u00c9valuation</td>\n  <td><a href=\"?id=1422987718261\">\u00c9valuation du Fonds de d\u00e9veloppement du march\u00e9 canadien du b\u0153uf et des bovins</a></td>\n <td class=\"hidden\">Add notes here (date, info, etc.)</td>\n</tr>         \n\n\n<tr>\n <td>2014-2015</td>\n <td>\u00c9valuation</td>\n  <td><a href=\"?id=1424977033211\">\u00c9valuation du programme de lutte contre les gaz \u00e0 effet de serre en agriculture</a></td>\n <td class=\"hidden\">Add notes here (date, info, etc.)</td>\n</tr>         \n\n\n<tr>\n <td>2014-2015</td>\n <td>\u00c9valuation</td>\n  <td><a href=\"?id=1421671560787\">\u00c9valuation de l'Initiative canadienne int\u00e9gr\u00e9e de salubrit\u00e9 des aliments</a></td>\n <td class=\"hidden\">Add notes here (date, info, etc.)</td>\n</tr>         \n\n\n<tr>\n <td>2014-2015</td>\n <td>\u00c9valuation</td>\n <td><a href=\"?id=1427375740700\">\u00c9valuation du Programme de r\u00e9serve pour pertes sur pr\u00eats dans l'industrie porcine et du Programme de transition pour les exploitations porcines</a></td>\n <td class=\"hidden\">Add notes here (date, info, etc.)</td>\n</tr>         \n\n\n<tr>\n <td>2014-2015</td>\n <td>\u00c9valuation</td>\n <td><a href=\"?id=1433442330315\">\u00c9valuation  du programme \u00ab\u00a0Favoriser le d\u00e9veloppement des entreprises\u00a0\u00bb</a></td>\n <td class=\"hidden\">Add notes here (date, info, etc.)</td>\n</tr>         \n\n\n<tr>\n <td>2014-2015</td>\n <td>\u00c9valuation</td>\n <td><a href=\"?id=1431617600233\">\u00c9valuation des subventions \u00e0 des b\u00e9n\u00e9ficiaires \u00e9trangers aux fins de participation \u00e0 des organisations internationales soutenant l'agriculture</a></td>\n <td class=\"hidden\">Add notes here (date, info, etc.)</td>\n</tr>         \n\n<tr>\n <td>2014-2015</td>\n <td>\u00c9valuation</td>\n <td><a href=\"?id=1435868137804\">\u00c9valuation de l\u2019Initiative de lutte contre les maladies dans l\u2019industrie porcine</a></td>\n <td class=\"hidden\">Add notes here (date, info, etc.)</td>\n</tr>         \n\n\n<tr>\n <td>2013-2014</td>\n <td>\u00c9valuation</td>\n  <td><a href=\"?id=1401475853238\">\u00c9valuation du programme de la Loi canadienne sur les pr\u00eats agricoles</a></td>\n <td class=\"hidden\">Add notes here (date, info, etc.)</td>\n</tr>  \n\n\n\n<tr>\n <td>2013-2014</td>\n <td>\u00c9valuation</td>\n  <td><a href=\"?id=1391208240481\">\u00c9valuation de l'initiative de d\u00e9veloppement des march\u00e9s et du commerce</a></td>\n <td class=\"hidden\">Add notes here (date, info, etc.)</td>\n</tr>  \n\n\n\n<tr>\n <td>2013-2014</td>\n <td>\u00c9valuation</td>\n  <td><a href=\"?id=1383668836307\">\u00c9valuation du d\u00e9veloppement des r\u00e9gions rurales et du d\u00e9veloppement des coop\u00e9ratives</a></td>\n <td class=\"hidden\">Add notes here (date, info, etc.)</td>\n</tr>  \n\n\n\n<tr>\n <td>2013-2014</td>\n <td>\u00c9valuation</td>\n <td>\u00c9valuation des programmes de contribution \u00e0 frais partag\u00e9s non li\u00e9s \u00e0 la gestion des risques de l'entreprise de Cultivons l'avenir (Disponible sur demande)</td>\n <td class=\"hidden\">Add notes here (date, info, etc.)</td>\n</tr>  \n\n\n\n<tr>\n <td>2013-2014</td>\n <td>\u00c9valuation</td>\n  <td><a href=\"?id=1378733416822\">\u00c9valuation du Plan d'action en mati\u00e8re de r\u00e9glementation pour l'agriculture dans le cadre de Cultivons l'avenir\u00a0- all\u00e9gations sant\u00e9, aliments et ingr\u00e9dients nouveaux; enrichissement des aliments et m\u00e9dicaments v\u00e9t\u00e9rinaires</a></td>\n <td class=\"hidden\">Add notes here (date, info, etc.)</td>\n</tr>  \n\n\n\n<tr>\n <td>2013-2014</td>\n <td>\u00c9valuation</td>\n  <td><a href=\"?id=1378325519297\">\u00c9valuation du Programme des pesticides \u00e0 usage limit\u00e9</a></td>\n <td class=\"hidden\">Add notes here (date, info, etc.)</td>\n</tr>  \n\n\n<tr>\n <td>2012-2013</td>\n <td>\u00c9valuation</td>\n  <td><a href=\"?id=1382447295068\">\u00c9valuation de la sous activit\u00e9 Science agroenvironnementale</a></td>\n <td class=\"hidden\">Add notes here (date, info, etc.)</td>\n</tr>  \n\n\n\n<tr>\n <td>2012-2013</td>\n <td>\u00c9valuation</td>\n  <td><a href=\"?id=1379353990720\">\u00c9valuation des programmes de mesure du rendement et de production de rapports\u00a0-  Programme national d'analyse et de rapport en mati\u00e8re de sant\u00e9 agroenvironnementale (PNARSA) et Syst\u00e8me national de comptabilisation et de v\u00e9rification des quantit\u00e9s de carbone et des \u00e9missions de gaz \u00e0 effet de serre (SNCVCG)</a></td>\n <td class=\"hidden\">Add notes here (date, info, etc.)</td>\n</tr>  \n\n\n\n<tr>\n <td>2012-2013</td>\n <td>\u00c9valuation</td>\n  <td><a href=\"?id=1367338599421\">\u00c9valuation des programmes Agri-protection, de partenariat avec le secteur priv\u00e9 pour la gestion des risques et d'indemnisation des dommages caus\u00e9s par la faune</a></td>\n <td class=\"hidden\">Add notes here (date, info, etc.)</td>\n</tr>  \n\n\n\n<tr>\n <td>2012-2013</td>\n <td>\u00c9valuation</td>\n  <td><a href=\"?id=1362083604412\">\u00c9valuation des outils de stabilit\u00e9 des revenus\u00a0- Agri-stabilit\u00e9 et Agri-investissement</a></td>\n <td class=\"hidden\">Add notes here (date, info, etc.)</td>\n</tr>  \n\n\n</tbody>\n</table>\n</figure>\n\n<div class=\"clearfix  mrgn-bttm-lg\"></div>\n\n\n<p>Les rapports pr\u00e9c\u00e9dents sont disponibles sur demande; contactez-nous \u00e0 <a href=\"mailto:aafc.oae-be.aac@canada.ca\">aafc.oae-be.aac@canada.ca</a> pour en obtenir une copie.</p>\n\r\n    <!-- Fin du contenu -->\r\n\t\r\n\t\r\n\t\r\n  "
    }
}