{
    "dcr_id": "1591298974329",
    "title": {
        "en": "Surplus Food Rescue Program: Step 1: What this program offers",
        "fr": "Programme de r\u00e9cup\u00e9ration d\u2019aliments exc\u00e9dentaires : \u00c9tape 1. Ce qu\u2019offre ce programme"
    },
    "modified": "2020-07-31",
    "issued": "2020-06-15",
    "templatetype": "content page 1 column",
    "page_type": "1",
    "node_id": "1591299492598",
    "dc_date_created": "2020-06-15",
    "managing_branch": "PAB",
    "parent_node_id": "1354137773676",
    "label": {
        "en": "Surplus Food Rescue Program",
        "fr": "Programme de R\u00e9cuperation de Surplus Alimentaire"
    },
    "exturl": "",
    "teamsite_location": {
        "en": "/default/main/AAFC-AAC/Internet-Internet/Group-Ensemble/ProgServ-ProgServ/WORKAREA/ProgServ-ProgServ/templatedata/comm-comm/gene-gene/data/06/sfrp-prsa_step1_what_1591298974329_en",
        "fr": "/default/main/AAFC-AAC/Internet-Internet/Group-Ensemble/ProgServ-ProgServ/WORKAREA/ProgServ-ProgServ/templatedata/comm-comm/gene-gene/data/06/sfrp-prsa_step1_what_1591298974329_fr"
    },
    "type_name": "sitemapinit",
    "has_dcr_id": true,
    "breadcrumb": {
        "en": "Surplus Food Rescue Program",
        "fr": "Programme de R\u00e9cuperation de Surplus Alimentaire"
    },
    "layout_name": "content page 1 column",
    "lang": "en",
    "meta": {
        "issued": {
            "en": "2020-06-15",
            "fr": "2020-06-15"
        },
        "modified": {
            "en": "2020-07-31",
            "fr": "2020-07-31"
        },
        "format": {
            "en": "text/html",
            "fr": "text/html"
        },
        "title": {
            "en": "Surplus Food Rescue Program: Step 1: What this program offers",
            "fr": "Programme de r\u00e9cup\u00e9ration d\u2019aliments exc\u00e9dentaires : \u00c9tape 1. Ce qu\u2019offre ce programme"
        },
        "subject": {
            "en": "meat;architectural heritage;architecture",
            "fr": "viande"
        },
        "description": {
            "en": "Applicant guide. Step 1.What this program offers. 12.8 Collection and use of Applicant's Business Information. 2.0 Are you eligible?Applicants must ensure that they meet all eligibility criteria before applying.Under DFIP Phase 2,eligible applicants.",
            "fr": "\u00c9tape 1. Ce qu\u2019offre ce programme. [CONTENT TO FOLLOW]."
        },
        "language": {
            "en": "eng",
            "fr": "fra"
        },
        "keywords": {
            "en": "as;activities.Based",
            "fr": "ci-dessus.Continuum;carbone.Le;appliqu\u00e9e.La"
        },
        "audience": {
            "en": "gcaudience",
            "fr": "gcaudience"
        },
        "type": {
            "en": "fact sheet",
            "fr": "foire aux questions"
        },
        "creator": {
            "en": "Agriculture and Agri-Food Canada;Government of Canada",
            "fr": "Agriculture et Agroalimentaire Canada;Gouvernement du Canada"
        },
        "spatial": {
            "en": "gcregions",
            "fr": "gcregions"
        },
        "service": {
            "en": "AAFC-AAC",
            "fr": "AAFC-AAC"
        },
        "accessRights": {
            "en": "2",
            "fr": "2"
        },
        "legalName": {
            "en": "agriculture_and_agri_food_canada",
            "fr": "agriculture_et_agroalimentaire_canada"
        },
        "areaServed": {
            "en": "Canada",
            "fr": "Canada"
        }
    },
    "css": {
        "fr": null
    },
    "js": {
        "en": null,
        "fr": null
    },
    "body": {
        "en": "<!-- D&eacute;but du contenu -->\r\n     \n <div class=\"mrgn-tp-md mrgn-bttm-lg brdr-bttm\">\n\n<div class=\"row\">\n<ul class=\"toc lst-spcd col-md-12 list-unstyled\">\n<li class=\"col-md-4 col-sm-6\"><span class=\"list-group-item active\">Step 1. What this program offers</span></li>\n\n<li class=\"col-md-4 col-sm-6\"><span class=\"list-group-item\">Step 2. <a href=\"?id=1591883170753\">Who is eligible</a></span></li>\n\n<li class=\"col-md-4 col-sm-6 clr-lft-sm\"><span class=\"list-group-item\">Step 3. <a href=\"?id=1591883341260\">How to apply</a></span></li>\n\n<li class=\"col-md-4 col-sm-6\"><span class=\"list-group-item\">Step 4. <a href=\"?id=1591883525803\">After you apply</a></span></li>\n<li class=\"col-md-4 col-sm-6\"><span class=\"list-group-item\"><a href=\"?id=1591883799138\">Applicant guide</a></span></li>\n<li class=\"col-md-4 col-sm-6\"><span class=\"list-group-item\"><a href=\"?id=1591883994789\">Contact information</a></span></li>\n</ul>\n</div>\n</div>\n\n<h2>Step 1. What this program offers</h2>\n\n\n<div class=\"alert alert-info\">\n\n<p>The application intake period for the  Surplus Food Rescue Program is now closed.</p>\n</div>\n\n<p>The Surplus Food Rescue Program is part of the government of Canada\u2019s emergency response to the current COVID-19 crisis. This is a time-limited program to help manage and redirect existing surpluses to organizations addressing food insecurity and to avoid food waste. It will provide an opportunity for non-profit and for-profit organizations across the supply chain to bid on significant volumes of surplus products <b>at the cost of production or less</b>, processing them where necessary for longer shelf life and distributing to food serving agencies.</p>\n\n<p>Applicants under this program may be eligible to receive a maximum of $20 million unless the organization can make a case to move commodities in all categories.</p>\n\n\n\n\n\n<nav>\n  <h2 class=\"wb-inv\">Previous-next document navigation - bottom</h2>\n\n<div class=\"row\">\n<div class=\"col-md-12 mrgn-lft-0 mrgn-rght-0\">\n<ul class=\"pager\">\n<li class=\"next\"><a href=\"?id=1591883170753\" title=\"Who is eligible\">Next</a></li>\n</ul>\n</div>\n</div>\n</nav>\n\r\n    <!-- Fin du contenu -->",
        "fr": "\r\n    \r\n    <!-- MainContentStart -->\r\n    <!-- D&eacute;but du contenu -->\r\n     \n <div class=\"mrgn-tp-md mrgn-bttm-lg brdr-bttm\">\n\n<div class=\"row\">\n<ul class=\"toc lst-spcd col-md-12 list-unstyled\">\n<li class=\"col-md-4 col-sm-6\"><span class=\"list-group-item active\">\u00c9tape 1. Ce qu\u2019offre le programme</span></li>\n\n<li class=\"col-md-4 col-sm-6\"><span class=\"list-group-item\">\u00c9tape 2. <a href=\"?id=1591883170753\">Qui est admissible</a></span></li>\n\n<li class=\"col-md-4 col-sm-6 clr-lft-sm\"><span class=\"list-group-item\">\u00c9tape 3. <a href=\"?id=1591883341260\">Comment pr\u00e9senter une demande</a></span></li>\n\n<li class=\"col-md-4 col-sm-6\"><span class=\"list-group-item\">\u00c9tape 4. <a href=\"?id=1591883525803\">Apr\u00e8s avoir pr\u00e9sent\u00e9 votre  demande</a></span></li>\n\n<li class=\"col-md-4 col-sm-6\"><span class=\"list-group-item\"><a href=\"?id=1591883799138\">Guide du demandeur</a></span></li>\n\n<li class=\"col-md-4 col-sm-6\"><span class=\"list-group-item\"><a href=\"?id=1591883994789\">Pour nous joindre</a></span></li>\n</ul>\n</div>\n</div>\n\n<h2>\u00c9tape 1. Ce qu\u2019offre le programme</h2>\n \n<div class=\"alert alert-info\">\n<p>La p\u00e9riode de demande pour le Programme de r\u00e9cup\u00e9ration d\u2019aliments exc\u00e9dentaires est maintenant ferm\u00e9e.</p> \n</div>\n\n\n<p>Le Programme de r\u00e9cup\u00e9ration d\u2019aliments exc\u00e9dentaires fait partie de l\u2019intervention d\u2019urgence du gouvernement du Canada \u00e0 la crise actuelle de COVID-19. Il s\u2019agit d\u2019un programme \u00e0 dur\u00e9e limit\u00e9e visant \u00e0 g\u00e9rer et \u00e0 r\u00e9orienter les exc\u00e9dents existants vers des organisations vou\u00e9es \u00e0 la lutte \u00e0 l\u2019ins\u00e9curit\u00e9 alimentaire et \u00e0 garantir que ces produits exc\u00e9dentaires ne soient pas gaspill\u00e9s. Ce programme est con\u00e7u pour permettre aux organisations \u00e0 but lucratif et non lucratif de toute la cha\u00eene d\u2019approvisionnement de soumissionner pour l\u2019acquisition de volumes importants de produits exc\u00e9dentaires <b>au co\u00fbt de production ou moindre prix</b>, et de les transformer si n\u00e9cessaire pour en prolonger la dur\u00e9e de conservation (produits congel\u00e9s, s\u00e9ch\u00e9s ou en conserve) et de les distribuer \u00e0 des organismes de services alimentaires.</p>\n\n<p>Les demandeurs dans le cadre de ce programme peuvent \u00eatre admissibles \u00e0 un maximum de 20 millions de dollars, \u00e0 moins que l\u2019organisation ne puisse justifier l\u2019acheminement de produits de toutes cat\u00e9gories.</p>\n\n \n\n<nav>\n  <h2 class=\"wb-inv\">Navigation du document - pr\u00e9c\u00e9dente-suivante - bas</h2>\n\n<div class=\"row\">\n<div class=\"col-md-12 mrgn-lft-0 mrgn-rght-0\">\n<ul class=\"pager\">\n<li class=\"next\"><a href=\"?id=1591883170753\" title=\"Qui est admissible\">Suivante</a></li>\n</ul>\n</div>\n</div>\n</nav>\n\r\n    <!-- Fin du contenu -->\r\n\t\r\n\t\r\n\t\r\n  "
    }
}