{
    "dcr_id": "1530807048141",
    "lang": "en",
    "type_name": "empl-empl",
    "staffadvisor": "minh-ha.le2@canada.ca",
    "submitername": "Susan Hayes",
    "submiteremail": "susan.hayes@agr.gc.ca",
    "contactname": "Susan Hayes",
    "contactemail": "susan.hayes@agr.gc.ca",
    "contactphonenumber": "613-773-0709",
    "issued": "2018-07-09",
    "": ""
}