{
    "dcr_id": "1532696132069",
    "lang": "en",
    "type_name": "empl-empl",
    "staffadvisor": "Patrycja.Hendersen@canada.ca",
    "submitername": "Julie.Levert@canada.ca",
    "submiteremail": "Julie.Levert@canada.ca",
    "contactname": "Julie.Levert@canada.ca",
    "contactemail": "Julie.Levert@canada.ca",
    "contactphonenumber": "613-773-2807",
    "issued": "2018-08-01",
    "": ""
}