{
    "dcr_id": "1536612905365",
    "lang": "en",
    "type_name": "empl-empl",
    "staffadvisor": "amanda.dent@agr.gc.ca",
    "submitername": "Alexandre Campbell",
    "submiteremail": "alexandre.campbell@canada.ca",
    "contactname": "Alexandre Campbell",
    "contactemail": "alexandre.campbell@canada.ca",
    "contactphonenumber": "613-773-0260",
    "issued": "2018-09-12",
    "": ""
}