{
    "dcr_id": "1542383510505",
    "lang": "en",
    "type_name": "empl-empl",
    "staffadvisor": "Patrycja.Henderson@canada.ca",
    "submitername": "Julie.Levert@canada.ca",
    "submiteremail": "Julie.Levert@canada.ca",
    "contactname": "Julie Levert",
    "contactemail": "julie.levert@canada.ca",
    "contactphonenumber": "613-773-2807",
    "issued": "2018-11-20",
    "": ""
}