{
    "dcr_id": "1547223820438",
    "lang": "en",
    "type_name": "empl-empl",
    "staffadvisor": "patrycja.henderson@canada.ca",
    "submitername": "Josée Boisvert",
    "submiteremail": "josee.boisvert@canada.ca",
    "contactname": "Mariam El Dali",
    "contactemail": "mariam.eldali@canada.ca",
    "contactphonenumber": "613-773-0224",
    "issued": "2019-01-15",
    "": ""
}