{
    "dcr_id": "1555351693426",
    "lang": "en",
    "type_name": "empl-empl",
    "staffadvisor": "chantal.desbiens@canada.ca",
    "submitername": "Amrane Boumghar",
    "submiteremail": "amrane.boumghar@canada.ca",
    "contactname": "Amrane Boumghar",
    "contactemail": "amrane.boumghar@canada.ca",
    "contactphonenumber": "613-773-3037",
    "issued": "2019-04-23",
    "": ""
}