{
    "dcr_id": "1566322610459",
    "lang": "en",
    "type_name": "empl-empl",
    "staffadvisor": "mardi.pleskach@canada.ca",
    "submitername": "Julie Rochon",
    "submiteremail": "julie.rochon@canada.ca",
    "contactname": "Veronique Ouellette",
    "contactemail": "veronique.ouellette@canada.ca",
    "contactphonenumber": "613-773-1470",
    "issued": "2019-08-21",
    "": ""
}