{
    "dcr_id": "1566422252973",
    "lang": "en",
    "type_name": "empl-empl",
    "staffadvisor": "dawn.mcewen@canada.ca",
    "submitername": "Patrick Girard",
    "submiteremail": "patrick.girard@canada.ca",
    "contactname": "Tammy Moke",
    "contactemail": "tammy.moke@canada.ca",
    "contactphonenumber": "613-773-2744",
    "issued": "2019-08-22",
    "": ""
}