{
    "dcr_id": "1568740819714",
    "lang": "en",
    "type_name": "empl-empl",
    "staffadvisor": "mardi.pleskach@canada.ca",
    "submitername": "Chantal Pâquet",
    "submiteremail": "chantal.paquet2@canada.ca",
    "contactname": "Mariam El Dali",
    "contactemail": "mariam.eldali@canada.ca",
    "contactphonenumber": "613-773-0224",
    "issued": "2019-09-23",
    "": ""
}