{
    "dcr_id": "1574958514597",
    "lang": "en",
    "type_name": "empl-empl",
    "staffadvisor": "erica.shadford@canada.ca",
    "submitername": "Bill Edwardson",
    "submiteremail": "william.edwardson@canada.ca",
    "contactname": "Bill Edwardson",
    "contactemail": "william.edwardson@canada.ca",
    "contactphonenumber": "613-759-1589",
    "issued": "2019-11-29",
    "": ""
}