{
    "dcr_id": "1574106207862",
    "lang": "en",
    "type_name": "empl-empl",
    "staffadvisor": "michelle.lavergne@canada.ca",
    "submitername": "Bridget Mowat",
    "submiteremail": "bridget.mowat2@canada.ca",
    "contactname": "Bridget Mowat",
    "contactemail": "bridget.mowat2@canada.ca",
    "contactphonenumber": "613-773-0276",
    "issued": "2019-11-19",
    "": ""
}