{
    "dcr_id": "1575407539073",
    "lang": "en",
    "type_name": "empl-empl",
    "staffadvisor": "emanuel.miulescu3@canada.ca",
    "submitername": "Louise Pageau",
    "submiteremail": "louise.pageau@canada.ca",
    "contactname": "Louise Pageau",
    "contactemail": "louise.pageau@canada.ca",
    "contactphonenumber": "613-773-0252",
    "issued": "2019-12-04",
    "": ""
}