{
    "dcr_id": "1579530536555",
    "lang": "en",
    "type_name": "empl-empl",
    "staffadvisor": "chantal.desbiens@canada.ca",
    "submitername": "Warren Gould",
    "submiteremail": "warren.gould@canada.ca",
    "contactname": "Joann Perron",
    "contactemail": "joann.perron@canada.ca",
    "contactphonenumber": "613-773-1257",
    "issued": "2020-01-21",
    "": ""
}