{
    "dcr_id": "1580778093805",
    "lang": "en",
    "type_name": "empl-empl",
    "staffadvisor": "adriana.azzi3@canada.ca",
    "submitername": "Daryl Nearing",
    "submiteremail": "daryl.nearing@canada.ca",
    "contactname": "Grace Kim",
    "contactemail": "grace.kim@canada.ca",
    "contactphonenumber": "604-292-5850",
    "issued": "2020-02-04",
    "": ""
}