{
    "dcr_id": "1347383943203",
    "title": {
        "en": "<abbr title=\"Regulatory Guidance\">RG</abbr>-8 Regulatory Guidance:<br>Contaminants in Feed (formerly <abbr title=\"Regulatory Guidance\">RG</abbr>-1, Chapter 7)",
        "fr": "<abbr title=\"Directives R\u00e9glementaires\">RG</abbr>-8 Directives r\u00e9glementaires : Contaminants dans les aliments du b\u00e9tail (anciennement <abbr title=\"Directives R\u00e9glementaires\">RG</abbr>-1, chapitre 7)"
    },
    "html_modified": "2024-01-26 2:21:14 PM",
    "modified": "2017-10-16",
    "issued": "2015-04-09 10:33:22",
    "teamsite_location": {
        "en": "/default/main/inspection/cont-cont/animals-animaux/STAGING/templatedata/comn-comn/manuals-manuels/data/feeds_reg_guide_rg8_1347383943203_eng",
        "fr": "/default/main/inspection/cont-cont/animals-animaux/STAGING/templatedata/comn-comn/manuals-manuels/data/feeds_reg_guide_rg8_1347383943203_fra"
    },
    "ia_id": "1347384015909",
    "parent_ia_id": "1320602307623",
    "chronicletopic": {
        "en": "",
        "fr": ""
    },
    "chroniclecontent": {
        "en": "",
        "fr": ""
    },
    "chronicleaudience": {
        "en": "",
        "fr": ""
    },
    "sfcrdocumenttype": {
        "en": "",
        "fr": ""
    },
    "sfcraudience": {
        "en": "",
        "fr": ""
    },
    "sfcrmethodofproduction": {
        "en": "",
        "fr": ""
    },
    "activity": {
        "en": "Regulatory Guidance",
        "fr": "Directives r\u00e9glementaires"
    },
    "commodity": {
        "en": "Feeds",
        "fr": "Aliments du b\u00e9tail"
    },
    "program": {
        "en": "Animals",
        "fr": "Animaux"
    },
    "search_type": "guidancefinder",
    "parent_node_id": "1320602307623",
    "layout_name": "content page 1 column",
    "breadcrumb": {
        "en": "<abbr title=\"Regulatory Guidance\">RG</abbr>-8 Regulatory Guidance:<br>Contaminants in Feed (formerly <abbr title=\"Regulatory Guidance\">RG</abbr>-1, Chapter 7)",
        "fr": "<abbr title=\"Directives R\u00e9glementaires\">RG</abbr>-8 Directives r\u00e9glementaires : Contaminants dans les aliments du b\u00e9tail (anciennement <abbr title=\"Directives R\u00e9glementaires\">RG</abbr>-1, chapitre 7)"
    },
    "label": {
        "en": "<abbr title=\"Regulatory Guidance\">RG</abbr>-8 Regulatory Guidance:<br>Contaminants in Feed (formerly <abbr title=\"Regulatory Guidance\">RG</abbr>-1, Chapter 7)",
        "fr": "<abbr title=\"Directives R\u00e9glementaires\">RG</abbr>-8 Directives r\u00e9glementaires : Contaminants dans les aliments du b\u00e9tail (anciennement <abbr title=\"Directives R\u00e9glementaires\">RG</abbr>-1, chapitre 7)"
    },
    "templatetype": "content page 1 column",
    "node_id": "1347384015909",
    "managing_branch": "comn",
    "type_name": "manuals-manuels",
    "dcr_type": "manuals-manuels",
    "parent_dcr_id": "1299871623634",
    "has_dcr_id": true,
    "lang": "en",
    "could_not_load": 0,
    "refaire": false,
    "interwoven_url": {
        "en": "/animal-health/livestock-feeds/regulatory-guidance/rg-8/",
        "fr": "/sante-des-animaux/aliments-du-betail/directives-reglementaires/rg-8/"
    },
    "meta": {
        "viewport": {
            "en": "width=device-width,initial-scale=1",
            "fr": "width=device-width,initial-scale=1"
        },
        "service": {
            "en": "CFIA-ACIA",
            "fr": "CFIA-ACIA"
        },
        "accessRights": {
            "en": "2",
            "fr": "2"
        },
        "title": {
            "en": "RG-8 Regulatory Guidance:Contaminants in Feed (formerly RG-1, Chapter 7)",
            "fr": "RG-8 Directives r\u00e9glementaires : Contaminants dans les aliments du b\u00e9tail (anciennement RG-1, chapitre 7)"
        },
        "description": {
            "en": "Certain moulds are known to produce toxins in grain such that the suitability of the grain for use in livestock feed may be affected.",
            "fr": "Certaines moisissures du grain sont reconnues comme \u00e9tant une source de toxines pouvant avoir un effet nuisible si pr\u00e9sentes dans les aliments du b\u00e9tail."
        },
        "keywords": {
            "en": "mycotoxins, Feed, polychlorinated biphenyls, PCBs, ingredients, toxicology, contaminants",
            "fr": "mycotoxines, aliments du b&eacute;tail, biph\u00e9nyles polychlor\u00e9s, BPC, ingr\u00e9dients, toxicologie, contaminants"
        },
        "dcterms.subject": {
            "en": "animal health,inspection,regulation",
            "fr": "sant\u00e9 animale,inspection,r\u00e9glementation"
        },
        "creator": {
            "en": "Government of Canada,Canadian Food Inspection Agency,Animal Health Directorate",
            "fr": "Gouvernement du Canada,Agence canadienne d'inspection des aliments,Direction sant\u00e9 des animaux"
        },
        "language": {
            "en": "eng",
            "fr": "fra"
        },
        "issued": {
            "en": "2015-04-09 10:33:22",
            "fr": "2015-04-09 10:33:22"
        },
        "modified": {
            "en": "2017-10-16",
            "fr": "2017-10-16"
        },
        "type": {
            "en": "reference material",
            "fr": "mat\u00e9riel de r\u00e9f\u00e9rence"
        },
        "audience": {
            "en": "business,government",
            "fr": "entreprises,gouvernement"
        },
        "name": {
            "en": "Government of Canada",
            "fr": "Gouvernement du Canada"
        },
        "areaServed": {
            "en": "Canada",
            "fr": "Canada"
        }
    },
    "h1": {
        "en": "RG-8 Regulatory Guidance:Contaminants in Feed (formerly RG-1, Chapter 7)",
        "fr": "RG-8 Directives r\u00e9glementaires : Contaminants dans les aliments du b\u00e9tail (anciennement RG-1, chapitre 7)"
    },
    "body": {
        "en": "        \r\n        \n\n\r\n\r\n<section class=\"alert alert-info\">\r\n<h2 class=\"h3\">This page is part of the Guidance Document Repository (GDR).</h2>\r\n<p>\r\n<br>\r\n<a href=\"/industry-guidance/eng/1374161650885/1374161737236?gp=1&amp;gc=6&amp;ga=80#gdr_results\" class=\"alert-link\">\r\n            Search for related documents in the Guidance Document Repository\r\n</a>\r\n</p>\r\n</section>\r\n\r\n\r\n\r\n<p class=\"small text-right\"><a href=\"/animal-health/livestock-feeds/regulatory-guidance/rg-8/eng/1347383943203/1347384015909?chap=0\">Complete Regulatory Guidance</a></p>\r\n\r\n\r\n<h2>Table of Contents</h2>\r\n<ul class=\"list-unstyled col-md-offset-1 mrgn-tp-md mrgn-bttm-md\">\r\n\r\n<li>\r\n<a href=\"/animal-health/livestock-feeds/regulatory-guidance/rg-8/eng/1347383943203/1347384015909?chap=1\">Section 1: Mycotoxins in Livestock Feed</a>\r\n\r\n</li>\r\n\r\n<li>\r\n<a href=\"/animal-health/livestock-feeds/regulatory-guidance/rg-8/eng/1347383943203/1347384015909?chap=2\">Section 2: Action Levels for Dioxins, Furans, Dioxin-like polychlorinated biphenyls (PCBs) and Total <abbr title=\"polychlorinated biphenyls\">PCBs</abbr> in Livestock Feed</a>\r\n\r\n</li>\r\n\r\n<li>\r\n<a href=\"/animal-health/livestock-feeds/regulatory-guidance/rg-8/eng/1347383943203/1347384015909?chap=3\">Section 3: Gentian Violet for Use in Livestock Feeds</a>\r\n\r\n</li>\r\n\r\n<li>\r\n<a href=\"/animal-health/livestock-feeds/regulatory-guidance/rg-8/eng/1347383943203/1347384015909?chap=4\">Section 4: Metal Contaminants</a>\r\n\r\n</li>\r\n\r\n</ul>\r\n\r\n\r\n\n\n\r\n        \r\n\r\n\r\n\r\n<div class=\"row\">\r\n \r\n\t\r\n\t\t\t\r\n\r\n<div class=\"col-xm-12 pagedetails container\">\r\n\t\t\t\t\r\n\r\n</div>\r\n\t\r\n</div>",
        "fr": "\r\n        \r\n        \n\n\r\n\r\n<section class=\"alert alert-info\">\r\n<h2 class=\"h3\">Cette page fait partie du r\u00e9pertoire des documents d'orientation (RDO).</h2>\r\n<p>\r\n<br>\r\n<a href=\"/orientation-pour-l-industrie/fra/1374161650885/1374161737236?gp=1&amp;gc=6&amp;ga=80#gdr_results\" class=\"alert-link\">\r\n            Recherche de documents connexes dans le r\u00e9pertoire des documents d'orientation.\r\n</a>\r\n</p>\r\n</section>\r\n\r\n\r\n\r\n<p class=\"small text-right\"><a href=\"/sante-des-animaux/aliments-du-betail/directives-reglementaires/rg-8/fra/1347383943203/1347384015909?chap=0\">Directives R\u00e9glementaires Compl\u00e8tes</a></p>\r\n\r\n\r\n<h2>Table des mati\u00e8res</h2>\r\n<ul class=\"list-unstyled col-md-offset-1 mrgn-tp-md mrgn-bttm-md\">\r\n\r\n<li>\r\n<a href=\"/sante-des-animaux/aliments-du-betail/directives-reglementaires/rg-8/fra/1347383943203/1347384015909?chap=1\">Section 1 : Mycotoxins dans les aliments du b\u00e9tail</a>\r\n\r\n</li>\r\n\r\n<li>\r\n<a href=\"/sante-des-animaux/aliments-du-betail/directives-reglementaires/rg-8/fra/1347383943203/1347384015909?chap=2\">Section 2 : Niveaux d'intervention relatifs aux dioxines, furanes, biph\u00e9nyles polychlor\u00e9s (BPC) de type dioxine, et <abbr title=\"biph\u00e9nyles polychlor\u00e9\">BPC</abbr> totaux pr\u00e9sents dans les aliments du b\u00e9tail</a>\r\n\r\n</li>\r\n\r\n<li>\r\n<a href=\"/sante-des-animaux/aliments-du-betail/directives-reglementaires/rg-8/fra/1347383943203/1347384015909?chap=3\">Section 3 : Utilisation du violet de gentiane dans les aliments du b\u00e9tail</a>\r\n\r\n</li>\r\n\r\n<li>\r\n<a href=\"/sante-des-animaux/aliments-du-betail/directives-reglementaires/rg-8/fra/1347383943203/1347384015909?chap=4\">Section 4 : Contaminants m\u00e9talliques</a>\r\n\r\n</li>\r\n\r\n</ul>\r\n\r\n\r\n<div class=\"clear\"></div>\r\n\n\n\r\n        \r\n\r\n<div class=\"row\">\r\n \r\n\t\t\t\r\n\t\t\t\r\n\r\n\t\t\r\n\t\r\n</div>"
    },
    "js": {
        "en": "",
        "fr": ""
    },
    "success": true,
    "chat_wizard": false
}