{
    "dcr_id": "1391790253201",
    "title": {
        "en": "Labelling requirements for salt",
        "fr": "Exigences d'\u00e9tiquetage pour le sel"
    },
    "html_modified": "2024-01-26 2:22:17 PM",
    "modified": "2022-07-22",
    "issued": "2014-02-07 15:21:25",
    "teamsite_location": {
        "en": "/default/main/inspection/cont-cont/food-aliments/STAGING/templatedata/comn-comn/manuals-manuels/data/lble_industry_specific_salt_1391790253201_eng",
        "fr": "/default/main/inspection/cont-cont/food-aliments/STAGING/templatedata/comn-comn/manuals-manuels/data/lble_industry_specific_salt_1391790253201_fra"
    },
    "ia_id": "1391795959629",
    "parent_ia_id": "1383607344939",
    "chronicletopic": {
        "en": "",
        "fr": ""
    },
    "chroniclecontent": {
        "en": "",
        "fr": ""
    },
    "chronicleaudience": {
        "en": "",
        "fr": ""
    },
    "sfcrdocumenttype": {
        "en": "Guidance",
        "fr": "Document d'orientation"
    },
    "sfcraudience": {
        "en": "|Agency personnel|Industry",
        "fr": "|Industrie|Personnel de l'agence"
    },
    "sfcrmethodofproduction": {
        "en": "",
        "fr": ""
    },
    "activity": {
        "en": "Labelling|Meeting a standard of identity",
        "fr": "\u00c9tiquetage|Respect d\u2019une norme d\u2019identit\u00e9"
    },
    "commodity": {
        "en": "Other",
        "fr": "Autre"
    },
    "program": {
        "en": "Food",
        "fr": "Aliments"
    },
    "search_type": "guidancefinder",
    "parent_node_id": "1383607344939",
    "layout_name": "content page 1 column",
    "breadcrumb": {
        "en": "Labelling requirements for salt",
        "fr": "Exigences d'\u00e9tiquetage pour le sel"
    },
    "label": {
        "en": "Labelling requirements for salt",
        "fr": "Exigences d'\u00e9tiquetage pour le sel"
    },
    "templatetype": "content page 1 column",
    "node_id": "1391795959629",
    "managing_branch": "comn",
    "type_name": "manuals-manuels",
    "dcr_type": "manuals-manuels",
    "parent_dcr_id": "1383607266489",
    "has_dcr_id": true,
    "lang": "en",
    "could_not_load": 0,
    "refaire": false,
    "interwoven_url": {
        "en": "/food-labels/labelling/industry/salt/",
        "fr": "/etiquetage-des-aliments/etiquetage/industrie/sel/"
    },
    "meta": {
        "viewport": {
            "en": "width=device-width,initial-scale=1",
            "fr": "width=device-width,initial-scale=1"
        },
        "service": {
            "en": "CFIA-ACIA",
            "fr": "CFIA-ACIA"
        },
        "accessRights": {
            "en": "2",
            "fr": "2"
        },
        "title": {
            "en": "Labelling requirements for salt",
            "fr": "Exigences d'\u00e9tiquetage pour le sel"
        },
        "description": {
            "en": "Salt and salt substitutes sold in Canada are subject to specific labelling requirements.",
            "fr": "Le sel et les succ\u00e9dan\u00e9s de sel vendus au Canada sont assujettis \u00e0 des exigences sp\u00e9cifiques en mati\u00e8re d'\u00e9tiquetage."
        },
        "keywords": {
            "en": "food, food health, labelling, requirements, salt",
            "fr": "aliments, la sant\u00e9 des aliments, exigences, \u00e9tiquetage, sel"
        },
        "dcterms.subject": {
            "en": "labelling,food labeling,government information,inspection,agri-food products,food safety",
            "fr": "\u00e9tiquetage,\u00e9tiquetage des aliments,information gouvernementale,inspection,produit agro-alimentaire,salubrit\u00e9 des aliments"
        },
        "creator": {
            "en": "Government of Canada,Canadian Food Inspection Agency",
            "fr": "Gouvernement du Canada,Agence canadienne d'inspection des aliments"
        },
        "language": {
            "en": "eng",
            "fr": "fra"
        },
        "issued": {
            "en": "2014-02-07 15:21:25",
            "fr": "2014-02-07 15:21:25"
        },
        "modified": {
            "en": "2022-07-22",
            "fr": "2022-07-22"
        },
        "type": {
            "en": "reference material",
            "fr": "mat\u00e9riel de r\u00e9f\u00e9rence"
        },
        "audience": {
            "en": "business,government,general public",
            "fr": "entreprises,gouvernement,grand public"
        },
        "name": {
            "en": "Government of Canada",
            "fr": "Gouvernement du Canada"
        },
        "areaServed": {
            "en": "Canada",
            "fr": "Canada"
        }
    },
    "h1": {
        "en": "Labelling requirements for salt",
        "fr": "Exigences d'\u00e9tiquetage pour le sel"
    },
    "js": {
        "en": "",
        "fr": ""
    },
    "body": {
        "en": "        \r\n        \n\n\r\n\r\n\r\n\r\n\r\n\r\n<p class=\"small text-right\"><a href=\"/food-labels/labelling/industry/salt/eng/1391790253201/1391795959629?chap=0\">Complete text</a></p>\r\n\r\n<!--\n<div class=\"alert alert-info\">\n\n<h3 class=\"h4\">Important Notice</h3>\n<p>On December 14, 2016, amendments to nutrition labelling, list of ingredients and food colour requirements of the Food and Drug Regulations came into force. Regulated parties have a five (5) year transition period to meet the new labelling requirements.</p>\n\n<p>Consult the <a href=\"/eng/1515601300728/1515601301632\">Former&nbsp;&ndash;&nbsp;Labelling Requirements for Salt</a> for information on the former requirements.</p>\n</div>\n\r\n<h2>On this page</h2>\r\n<ul class=\"list-unstyled col-md-offset-1 mrgn-tp-md mrgn-bttm-md\">\r\n\r\n<li>\r\n<a href=\"/food-labels/labelling/industry/salt/eng/1391790253201/1391795959629?chap=1\">Overview</a>\r\n\r\n</li>\r\n\r\n<li>\r\n<a href=\"/food-labels/labelling/industry/salt/eng/1391790253201/1391795959629?chap=2\">Common name - salt and salt substitutes</a>\r\n\r\n<ul class=\"list-unstyled col-md-offset-1 mrgn-bttm-md\">\r\n\r\n<li>\r\n<a href=\"/food-labels/labelling/industry/salt/eng/1391790253201/1391795959629?chap=2#s1c2\">Salt that does not contain 0.01% potassium iodide</a>\r\n\r\n</li>\r\n\r\n<li>\r\n<a href=\"/food-labels/labelling/industry/salt/eng/1391790253201/1391795959629?chap=2#s2c2\">Sea salt and sea salts</a>\r\n\r\n</li>\r\n\r\n</ul>\r\n\r\n</li>\r\n\r\n<li>\r\n<a href=\"/food-labels/labelling/industry/salt/eng/1391790253201/1391795959629?chap=3\">List of ingredients - salt and salt substitutes</a>\r\n\r\n<ul class=\"list-unstyled col-md-offset-1 mrgn-bttm-md\">\r\n\r\n<li>\r\n<a href=\"/food-labels/labelling/industry/salt/eng/1391790253201/1391795959629?chap=3#s3c3\">Salt</a>\r\n\r\n</li>\r\n\r\n<li>\r\n<a href=\"/food-labels/labelling/industry/salt/eng/1391790253201/1391795959629?chap=3#s4c3\">Sea salt(s)</a>\r\n\r\n</li>\r\n\r\n<li>\r\n<a href=\"/food-labels/labelling/industry/salt/eng/1391790253201/1391795959629?chap=3#s5c3\">Salt substitutes</a>\r\n\r\n</li>\r\n\r\n</ul>\r\n\r\n</li>\r\n\r\n<li>\r\n<a href=\"/food-labels/labelling/industry/salt/eng/1391790253201/1391795959629?chap=4\">Nutrition labelling - salt and salt substitutes</a>\r\n\r\n</li>\r\n\r\n<li>\r\n<a href=\"/food-labels/labelling/industry/salt/eng/1391790253201/1391795959629?chap=5\">Product specific labelling requirements</a>\r\n\r\n<ul class=\"list-unstyled col-md-offset-1 mrgn-bttm-md\">\r\n\r\n<li>\r\n<a href=\"/food-labels/labelling/industry/salt/eng/1391790253201/1391795959629?chap=5#s6c5\">Iodide declaration</a>\r\n\r\n</li>\r\n\r\n</ul>\r\n\r\n</li>\r\n\r\n<li>\r\n<a href=\"/food-labels/labelling/industry/salt/eng/1391790253201/1391795959629?chap=6\">Voluntary claims and statements</a>\r\n\r\n<ul class=\"list-unstyled col-md-offset-1 mrgn-bttm-md\">\r\n\r\n<li>\r\n<a href=\"/food-labels/labelling/industry/salt/eng/1391790253201/1391795959629?chap=6#s7c6\">Diet specific claims</a>\r\n\r\n</li>\r\n\r\n<li>\r\n<a href=\"/food-labels/labelling/industry/salt/eng/1391790253201/1391795959629?chap=6#s8c6\">Nutrient content claims</a>\r\n\r\n</li>\r\n\r\n</ul>\r\n\r\n</li>\r\n\r\n</ul>\r\n\r\n\r\n\n\n\r\n        \r\n\r\n\r\n\r\n<div class=\"row\">\r\n \r\n\t\r\n\t\t\t\r\n\r\n<div class=\"col-xm-12 pagedetails container\">\r\n\t\t\t\t\r\n\r\n</div>\r\n\t\r\n</div>",
        "fr": "\r\n        \r\n        \n\n\r\n\r\n\r\n\r\n\r\n\r\n<p class=\"small text-right\"><a href=\"/etiquetage-des-aliments/etiquetage/industrie/sel/fra/1391790253201/1391795959629?chap=0\">Texte complet</a></p>\r\n\r\n<!--\n<div class=\"alert alert-info\">\n\n<h3 class=\"h4\">Avis important</h3>\n<p>Le 14 d&#233;cembre 2016, des modifications aux exigences du R&#232;glement sur les aliments et drogues en mati&#232;re d'&#233;tiquetage nutritionnel, de la liste des ingr&#233;dients et des colorants alimentaires sont entr&#233;es en vigueur. Les parties r&#233;glement&#233;es ont droit &#224; une p&#233;riode de transition de cinq (5) ans pour respecter les nouvelles exigences en mati&#232;re d'&#233;tiquetage.</p>\n\n<p>Veuillez consulter l'<a href=\"/fra/1515601300728/1515601301632\">ancien&nbsp;&ndash;&nbsp;Exigences d'&#233;tiquetage pour le sel</a> pour obtenir de l'information sur les anciennes exigences.</p>\n</div>\n\r\n<h2>Sur cette page</h2>\r\n<ul class=\"list-unstyled col-md-offset-1 mrgn-tp-md mrgn-bttm-md\">\r\n\r\n<li>\r\n<a href=\"/etiquetage-des-aliments/etiquetage/industrie/sel/fra/1391790253201/1391795959629?chap=1\">Aper\u00e7u</a>\r\n\r\n</li>\r\n\r\n<li>\r\n<a href=\"/etiquetage-des-aliments/etiquetage/industrie/sel/fra/1391790253201/1391795959629?chap=2\">Nom usuel - Sel et les succ\u00e9dan\u00e9s de sel</a>\r\n\r\n<ul class=\"list-unstyled col-md-offset-1 mrgn-bttm-md\">\r\n\r\n<li>\r\n<a href=\"/etiquetage-des-aliments/etiquetage/industrie/sel/fra/1391790253201/1391795959629?chap=2#s1c2\">Sel qui ne contient pas 0,01\u00a0% d'iodure de potassium</a>\r\n\r\n</li>\r\n\r\n<li>\r\n<a href=\"/etiquetage-des-aliments/etiquetage/industrie/sel/fra/1391790253201/1391795959629?chap=2#s2c2\">Sel de mer et les sels de mer</a>\r\n\r\n</li>\r\n\r\n</ul>\r\n\r\n</li>\r\n\r\n<li>\r\n<a href=\"/etiquetage-des-aliments/etiquetage/industrie/sel/fra/1391790253201/1391795959629?chap=3\">Liste des ingr\u00e9dients - Sel et les succ\u00e9dan\u00e9s de sel</a>\r\n\r\n<ul class=\"list-unstyled col-md-offset-1 mrgn-bttm-md\">\r\n\r\n<li>\r\n<a href=\"/etiquetage-des-aliments/etiquetage/industrie/sel/fra/1391790253201/1391795959629?chap=3#s3c3\">Sel</a>\r\n\r\n</li>\r\n\r\n<li>\r\n<a href=\"/etiquetage-des-aliments/etiquetage/industrie/sel/fra/1391790253201/1391795959629?chap=3#s4c3\">Sel(s) de mer</a>\r\n\r\n</li>\r\n\r\n<li>\r\n<a href=\"/etiquetage-des-aliments/etiquetage/industrie/sel/fra/1391790253201/1391795959629?chap=3#s5c3\">Succ\u00e9dan\u00e9s de sel</a>\r\n\r\n</li>\r\n\r\n</ul>\r\n\r\n</li>\r\n\r\n<li>\r\n<a href=\"/etiquetage-des-aliments/etiquetage/industrie/sel/fra/1391790253201/1391795959629?chap=4\">\u00c9tiquetage nutritionnel - Sel et les succ\u00e9dan\u00e9s de sel</a>\r\n\r\n</li>\r\n\r\n<li>\r\n<a href=\"/etiquetage-des-aliments/etiquetage/industrie/sel/fra/1391790253201/1391795959629?chap=5\">Exigences en mati\u00e8re d'\u00e9tiquetage propres \u00e0 un produit</a>\r\n\r\n<ul class=\"list-unstyled col-md-offset-1 mrgn-bttm-md\">\r\n\r\n<li>\r\n<a href=\"/etiquetage-des-aliments/etiquetage/industrie/sel/fra/1391790253201/1391795959629?chap=5#s6c5\">D\u00e9claration de la teneur en iodure</a>\r\n\r\n</li>\r\n\r\n</ul>\r\n\r\n</li>\r\n\r\n<li>\r\n<a href=\"/etiquetage-des-aliments/etiquetage/industrie/sel/fra/1391790253201/1391795959629?chap=6\">All\u00e9gations et mentions volontaires</a>\r\n\r\n<ul class=\"list-unstyled col-md-offset-1 mrgn-bttm-md\">\r\n\r\n<li>\r\n<a href=\"/etiquetage-des-aliments/etiquetage/industrie/sel/fra/1391790253201/1391795959629?chap=6#s7c6\">All\u00e9gations relatives \u00e0 un r\u00e9gime alimentaire</a>\r\n\r\n</li>\r\n\r\n<li>\r\n<a href=\"/etiquetage-des-aliments/etiquetage/industrie/sel/fra/1391790253201/1391795959629?chap=6#s8c6\">All\u00e9gations relatives \u00e0 la teneur nutritive</a>\r\n\r\n</li>\r\n\r\n</ul>\r\n\r\n</li>\r\n\r\n</ul>\r\n\r\n\r\n<div class=\"clear\"></div>\r\n\n\n\r\n        \r\n\r\n<div class=\"row\">\r\n \r\n\t\t\t\r\n\t\t\t\r\n\r\n\t\t\r\n\t\r\n</div>"
    },
    "success": true,
    "chat_wizard": false
}