{
    "dcr_id": "1468604182635",
    "title": {
        "en": "Paolo Chiasson Fined $1000 for Offences Under the <i>Fish Inspection Regulations</i>",
        "fr": "Paolo Chiasson condamn\u00e9 \u00e0 une amende de 1\u00a0000\u00a0$ pour avoir enfreint le <i>R\u00e8glement sur l'inspection du poisson</i>"
    },
    "html_modified": "15-7-2016",
    "modified": "15-7-2016",
    "issued": "15-7-2016",
    "teamsite_location": {
        "en": "/default/main/inspection/cont-cont/pros-judi/WORKAREA/pros-judi/templatedata/comn-comn/pros-judi/data/20160715b_1468604182635_eng",
        "fr": "/default/main/inspection/cont-cont/pros-judi/WORKAREA/pros-judi/templatedata/comn-comn/pros-judi/data/20160715b_1468604182635_fra"
    },
    "parent_ia_id": "1299852705293",
    "ia_id": "1468604183157",
    "parent_node_id": "1299852705293",
    "layout_name": "content page 1 column",
    "breadcrumb": {
        "en": "Paolo Chiasson Fined $1000 for Offences Under the <i>Fish Inspection Regulations</i>",
        "fr": "Paolo Chiasson condamn\u00e9 \u00e0 une amende de 1\u00a0000\u00a0$ pour avoir enfreint le <i>R\u00e8glement sur l'inspection du poisson</i>"
    },
    "label": {
        "en": "Paolo Chiasson Fined $1000 for Offences Under the <i>Fish Inspection Regulations</i>",
        "fr": "Paolo Chiasson condamn\u00e9 \u00e0 une amende de 1\u00a0000\u00a0$ pour avoir enfreint le <i>R\u00e8glement sur l'inspection du poisson</i>"
    },
    "templatetype": "content page 1 column",
    "node_id": "1468604183157",
    "managing_branch": "comn",
    "type_name": "pros-judi",
    "dcr_type": "pros-judi",
    "parent_dcr_id": "1298575869119",
    "has_dcr_id": true,
    "lang": "en",
    "could_not_load": 0,
    "refaire": false,
    "interwoven_url": {
        "en": "/about-cfia/media-relations/prosecution-bulletins/2016-07-15/",
        "fr": "/a-propos-de-l-acia/relations-avec-les-medias/bulletins-judiciaires/2016-07-15/"
    },
    "meta": {
        "viewport": {
            "en": "width=device-width,initial-scale=1",
            "fr": "width=device-width,initial-scale=1"
        },
        "service": {
            "en": "CFIA-ACIA",
            "fr": "CFIA-ACIA"
        },
        "accessRights": {
            "en": "2",
            "fr": "2"
        },
        "title": {
            "en": "Paolo Chiasson Fined $1000 for Offences Under the Fish Inspection Regulations",
            "fr": "Paolo Chiasson condamn\u00e9 \u00e0 une amende de 1\u00a0000\u00a0$ pour avoir enfreint le R\u00e8glement sur l'inspection du poisson"
        },
        "description": {
            "en": "On May 19, 2016, at the Caraquet Provincial Court in Caraquet, New Brunswick, Paolo Chiasson was convicted of two counts of contravening paragraph 14(3)(a) and (b) of the Fish Inspection Regulations and was ordered to pay $500 fine for each count.",
            "fr": "Le 19 mai 2016, \u00e0 la Cour provinciale de Caraquet, \u00e0 Caraquet au Nouveau-Brunswick, Paolo Chiasson a \u00e9t\u00e9 d\u00e9clar\u00e9 coupable de deux chefs d'accusation pour avoir enfreint les alin\u00e9as 14 (3) a) et b) du R\u00e8glement sur l'inspection du poisson et a \u00e9t\u00e9 condamn\u00e9 \u00e0 payer une amende de 500 $ pour chacun des chefs d'accusation."
        },
        "keywords": {
            "en": "prosecution bulletin, Paolo Chiasson, Viandex Inc., Fish Inspection Regulations, Fish Inspection Act, snow crab",
            "fr": "bulletins judiciaires, Paolo Chiasson, Viandex Inc., R\u00e8glement sur l'inspection du poisson, Loi sur l'inspection du poisson, crabes des neiges"
        },
        "dcterms.subject": {
            "en": "food,court decisions,imports,legislation,fish,consumer protection,regulation",
            "fr": "aliment,d\u00e9cision du tribunal,importation,l\u00e9gislation,poisson,protection du consommateur,r\u00e9glementation"
        },
        "creator": {
            "en": "Government of Canada,Canadian Food Inspection Agency",
            "fr": "Gouvernement du Canada,Agence canadienne d'inspection des aliments"
        },
        "language": {
            "en": "eng",
            "fr": "fra"
        },
        "issued": {
            "en": "2016-07-15",
            "fr": "2016-07-15"
        },
        "modified": {
            "en": "2016-07-15",
            "fr": "2016-07-15"
        },
        "type": {
            "en": "media release,reference material",
            "fr": "diffusion aupr\u00e8s des m\u00e9dias,mat\u00e9riel de r\u00e9f\u00e9rence"
        },
        "audience": {
            "en": "business,government,general public,media",
            "fr": "entreprises,gouvernement,grand public,m\u00e9dia"
        },
        "name": {
            "en": "Government of Canada",
            "fr": "Gouvernement du Canada"
        },
        "areaServed": {
            "en": "Canada",
            "fr": "Canada"
        }
    },
    "h1": {
        "en": "Paolo Chiasson Fined $1000 for Offences Under the Fish Inspection Regulations",
        "fr": "Paolo Chiasson condamn\u00e9 \u00e0 une amende de 1\u00a0000\u00a0$ pour avoir enfreint le R\u00e8glement sur l'inspection du poisson"
    },
    "body": {
        "en": "        \r\n        \n<section id=\"archived\" class=\"alert alert-warning wb-inview\" data-inview=\"archived-bnr\">\n<h2>This page has been archived</h2>\n<p>Information identified as archived is provided for reference, research or record-keeping purposes. It is not subject to the Government of Canada Web Standards and has not been altered or updated since it was archived. Please contact us to request a format other than those available.</p>\n</section>\n\n<section id=\"archived-bnr\" class=\"wb-overlay modal-content overlay-def wb-bar-t\">\n<header>\n<h2 class=\"wb-inv\">Archived</h2>\n</header>\n<p><a href=\"#archived\">This page has been archived.</a></p>\n</section>\n\n<p>July 15, 2016, Ottawa: On May 19, 2016, at the Caraquet Provincial Court in Caraquet, New Brunswick, Paolo Chiasson was convicted of two counts of contravening paragraph 14(3)(a) and (b) of the <i>Fish Inspection Regulations</i> and was ordered to pay $500 fine for each count.</p> \n\n<p>Paragraph 14(3)(a) and (b) of the <i>Fish Inspection Regulations</i> indicates that:</p>\n\n<p>14 (3) No person shall export fish unless</p>\n\n<ol class=\"lst-lwr-alph\">\n<li>all processing and storage of the fish is carried out in a registered establishment; or</li>\n<li>the person holds a fish export licence.</li>\n</ol>\n\n<p>The <abbr title=\"Canadian Food Inspection Agency\">CFIA</abbr>'s investigation determined that, on July 24, 2013 and July 29, 2013, <abbr title=\"Mister\">Mr.</abbr> Chiasson exported a total of 7500 pounds of snow crab to Viandex <abbr title=\"Incorporated\">Inc.</abbr> that was not prepared and stored in a registered establishment or did not hold a fish export licence. <abbr title=\"Mister\">Mr.</abbr> Chiasson reimbursed Viandex <abbr title=\"Incorporated\">Inc.</abbr> $30,000 as a symbol of restitution.</p>\n\n<p>The <abbr title=\"Canadian Food Inspection Agency\">CFIA</abbr> is responsible for the administration and enforcement of federal legislation, acts and regulations, including the <i>Fish Inspection Regulations</i>. The <abbr title=\"Canadian Food Inspection Agency\">CFIA</abbr> is dedicated to safeguarding food, animal, and plant health, which enhances the health and well-being of Canada's people, environment, and economy.</p>\n\n<h2>Media Inquiries:</h2>\n\n<p><abbr title=\"Canadian Food Inspection Agency\">CFIA</abbr> Media Relations<br> 613-773-6600</p>\r\n\r\n\r\n\r\n\r\n<div class=\"row\">\r\n \r\n\t\r\n\t\t\t\r\n\r\n<div class=\"col-xm-12 pagedetails container\">\r\n\t\t\t\t\r\n\r\n</div>\r\n\t\r\n</div>",
        "fr": "\r\n        \r\n        \n<section id=\"archived\" class=\"alert alert-warning wb-inview\" data-inview=\"archived-bnr\">\n<h2>Cette page a \u00e9t\u00e9 archiv\u00e9e</h2>\n<p>L'information dont il est indiqu\u00e9 qu'elle est archiv\u00e9e est fournie \u00e0 des fins de r\u00e9f\u00e9rence, de recherche ou de tenue de documents. Elle n'est pas assujettie aux normes Web du gouvernement du Canada et elle n'a pas \u00e9t\u00e9 modifi\u00e9e ou mise \u00e0 jour depuis son archivage. Pour obtenir cette information dans un autre format, veuillez communiquer avec nous.</p>\n</section>\n\n<section id=\"archived-bnr\" class=\"wb-overlay modal-content overlay-def wb-bar-t\">\n<header>\n<h2 class=\"wb-inv\">Archiv\u00e9e</h2>\n</header>\n<p><a href=\"#archived\">Cette page a \u00e9t\u00e9 archiv\u00e9e.</a></p>\n</section>\n\n<p>Le 15 juillet 2016, Ottawa : Le 19 mai  2016, \u00e0 la Cour provinciale de Caraquet, \u00e0 Caraquet au Nouveau-Brunswick, Paolo Chiasson a \u00e9t\u00e9 d\u00e9clar\u00e9 coupable de deux chefs d'accusation pour avoir enfreint les alin\u00e9as 14 (3) <i>a</i>) et <i>b</i>) du <i>R\u00e8glement sur l'inspection du poisson</i> et a \u00e9t\u00e9 condamn\u00e9 \u00e0 payer une amende de 500\u00a0$ pour chacun des chefs d'accusation.</p>\n\n<p>Selon les alin\u00e9as 14 (3) <i>a</i>) et <i>b</i>) du <i>R\u00e8glement sur l'inspection du poisson </i>:</p>\n\n<p>14 (3) Il est interdit d'exporter du poisson, \u00e0 moins,  selon le cas\u00a0:</p>\n\n<ol class=\"lst-lwr-alph\">\n<li>que le poisson ait \u00e9t\u00e9 transform\u00e9 et entrepos\u00e9 dans un \u00e9tablissement agr\u00e9\u00e9;</li>\n<li>d'\u00eatre titulaire d'un permis d'exportation de poisson.</li>\n</ol>\n\n<p>L'enqu\u00eate de l'<abbr title=\"Agence canadienne d'inspection des aliments\">ACIA</abbr> a r\u00e9v\u00e9l\u00e9 que le 24 juillet 2013 et le 29 juillet 2013, <abbr title=\"Monsieur\">M.</abbr> Chiasson a export\u00e9 \u00e0 Viandex <abbr title=\"Incorpor\u00e9e\">Inc.</abbr> un total de 7\u00a0500  livres de crabes des neiges qui n'avaient pas \u00e9t\u00e9 pr\u00e9par\u00e9s et entrepos\u00e9s dans  un \u00e9tablissement agr\u00e9\u00e9 ou n'\u00e9tait pas titulaire d'un permis d'exportation de  poisson. <abbr title=\"Monsieur\">M.</abbr> Chiasson a rembours\u00e9 30\u00a0000\u00a0$ \u00e0 Viandex <abbr title=\"Incorpor\u00e9e\">Inc.</abbr> en guise de  d\u00e9dommagement.</p>\n\n<p>L'<abbr title=\"Agence canadienne d'inspection des aliments\">ACIA</abbr> est charg\u00e9e d'assurer et de contr\u00f4ler  l'application de lois et r\u00e8glements f\u00e9d\u00e9raux, dont le <i>R\u00e8glement sur l'inspection du poisson</i>. L'<abbr title=\"Agence canadienne d'inspection des aliments\">ACIA</abbr> veille \u00e0 la sant\u00e9 et  au bien-\u00eatre des Canadiens, \u00e0 l'environnement et \u00e0 l'\u00e9conomie en assurant la  salubrit\u00e9 des aliments, la sant\u00e9 des animaux et la protection des v\u00e9g\u00e9taux.</p>\n\n<h2>Demandes des m\u00e9dias\u00a0:</h2>\n\n<p>Relations avec les m\u00e9dias de l'<abbr title=\"Agence canadienne d'inspection des aliments\">ACIA</abbr><br> \n</p>\r\n\r\n\r\n<div class=\"row\">\r\n \r\n\t\t\t\r\n\t\t\t\r\n\r\n\t\t\r\n\t\r\n</div>"
    },
    "js": {
        "en": "",
        "fr": ""
    },
    "success": true,
    "chat_wizard": false
}