{
    "dcr_id": "1468606381663",
    "title": {
        "en": "Marc Dugas Fined $10,000 for Offences Under the <i>Food and Drugs Act</i>",
        "fr": "Marc Dugas est condamn\u00e9 \u00e0 une amende de <span class=\"nowrap\">10 000 $</span> pour avoir enfreint la <i>Loi sur les aliments et drogues</i>"
    },
    "html_modified": "15-7-2016",
    "modified": "15-7-2016",
    "issued": "15-7-2016",
    "teamsite_location": {
        "en": "/default/main/inspection/cont-cont/pros-judi/WORKAREA/pros-judi/templatedata/comn-comn/pros-judi/data/20160715a_1468606381663_eng",
        "fr": "/default/main/inspection/cont-cont/pros-judi/WORKAREA/pros-judi/templatedata/comn-comn/pros-judi/data/20160715a_1468606381663_fra"
    },
    "parent_ia_id": "1299852705293",
    "ia_id": "1468606384047",
    "parent_node_id": "1299852705293",
    "layout_name": "content page 1 column",
    "breadcrumb": {
        "en": "Marc Dugas Fined $10,000 for Offences Under the <i>Food and Drugs Act</i>",
        "fr": "Marc Dugas est condamn\u00e9 \u00e0 une amende de <span class=\"nowrap\">10 000 $</span> pour avoir enfreint la <i>Loi sur les aliments et drogues</i>"
    },
    "label": {
        "en": "Marc Dugas Fined $10,000 for Offences Under the <i>Food and Drugs Act</i>",
        "fr": "Marc Dugas est condamn\u00e9 \u00e0 une amende de <span class=\"nowrap\">10 000 $</span> pour avoir enfreint la <i>Loi sur les aliments et drogues</i>"
    },
    "templatetype": "content page 1 column",
    "node_id": "1468606384047",
    "managing_branch": "comn",
    "type_name": "pros-judi",
    "dcr_type": "pros-judi",
    "parent_dcr_id": "1298575869119",
    "has_dcr_id": true,
    "lang": "en",
    "could_not_load": 0,
    "refaire": false,
    "interwoven_url": {
        "en": "/about-cfia/media-relations/prosecution-bulletins/2016-07-15/",
        "fr": "/a-propos-de-l-acia/relations-avec-les-medias/bulletins-judiciaires/2016-07-15/"
    },
    "meta": {
        "viewport": {
            "en": "width=device-width,initial-scale=1",
            "fr": "width=device-width,initial-scale=1"
        },
        "service": {
            "en": "CFIA-ACIA",
            "fr": "CFIA-ACIA"
        },
        "accessRights": {
            "en": "2",
            "fr": "2"
        },
        "title": {
            "en": "Marc Dugas Fined $10,000 for Offences Under the Food and Drugs Act",
            "fr": "Marc Dugas est condamn\u00e9 \u00e0 une amende de 10 000 $ pour avoir enfreint la Loi sur les aliments et drogues"
        },
        "description": {
            "en": "On June 14, 2016, at the Caraquet Provincial Court in Caraquet, New Brunswick, Marc Dugas was convicted of two counts of contravening subsection 5(1) of the Food and Drugs Act and was ordered to pay a $5000 fine for each count",
            "fr": "Le 14 juin 2016, \u00e0 la Cour provinciale de Caraquet, \u00e0 Caraquet au Nouveau-Brunswick, Marc Dugas a \u00e9t\u00e9 d\u00e9clar\u00e9 coupable de deux chefs d'accusation pour avoir enfreint le paragraphe 5(1) de la Loi sur les aliments et drogues, et a \u00e9t\u00e9 condamn\u00e9 \u00e0 payer une amende de 5 000 $ pour chacun des chefs d'accusation."
        },
        "keywords": {
            "en": "prosecution bulletin, Marc Dugas, Food and Drugs Act, label",
            "fr": "bulletins judiciaires, Marc Dugas, Loi sur les aliments et drogues, \u00e9tiquettes"
        },
        "dcterms.subject": {
            "en": "court decisions,legislation,consumer protection,regulation",
            "fr": "d\u00e9cision du tribunal,l\u00e9gislation,protection du consommateur,r\u00e9glementation"
        },
        "creator": {
            "en": "Government of Canada,Canadian Food Inspection Agency",
            "fr": "Government of Canada,Canadian Food Inspection Agency"
        },
        "language": {
            "en": "eng",
            "fr": "fra"
        },
        "issued": {
            "en": "2016-07-15",
            "fr": "2016-07-15"
        },
        "modified": {
            "en": "2016-07-15",
            "fr": "2016-07-15"
        },
        "type": {
            "en": "media release,reference material",
            "fr": "diffusion aupr\u00e8s des m\u00e9dias,mat\u00e9riel de r\u00e9f\u00e9rence"
        },
        "audience": {
            "en": "business,government,general public,media",
            "fr": "entreprises,gouvernement,grand public,m\u00e9dia"
        },
        "name": {
            "en": "Government of Canada",
            "fr": "Gouvernement du Canada"
        },
        "areaServed": {
            "en": "Canada",
            "fr": "Canada"
        }
    },
    "h1": {
        "en": "Marc Dugas Fined $10,000 for Offences Under the Food and Drugs Act",
        "fr": "Marc Dugas est condamn\u00e9 \u00e0 une amende de 10 000 $ pour avoir enfreint la Loi sur les aliments et drogues"
    },
    "body": {
        "en": "        \r\n        \n<section id=\"archived\" class=\"alert alert-warning wb-inview\" data-inview=\"archived-bnr\">\n<h2>This page has been archived</h2>\n<p>Information identified as archived is provided for reference, research or record-keeping purposes. It is not subject to the Government of Canada Web Standards and has not been altered or updated since it was archived. Please contact us to request a format other than those available.</p>\n</section>\n\n<section id=\"archived-bnr\" class=\"wb-overlay modal-content overlay-def wb-bar-t\">\n<header>\n<h2 class=\"wb-inv\">Archived</h2>\n</header>\n<p><a href=\"#archived\">This page has been archived.</a></p>\n</section>\n<p>July 15, 2016, Ottawa: July 15, 2016, Ottawa: On June 14, 2016, at the Caraquet Provincial Court in Caraquet, New Brunswick, Marc Dugas was convicted of two counts of contravening subsection 5(1) of the <i>Food and Drugs Act</i> and was ordered to pay a $5000 fine for each count.</p>\n\n<p>Subsection 5(1) of the <i>Food and Drugs Act</i> indicates that no person shall label, package, treat, process, sell or advertise any food in a manner that is false, misleading or deceptive or is likely to create an erroneous impression regarding its character, value, quantity, composition, merit or safety.</p>\n\n<p>The <abbr title=\"Canadian Food Inspection Agency\">CFIA</abbr>'s investigation determined that, on July 24, 2013 and July 29, 2013, <abbr title=\"Mister\">Mr.</abbr> Dugas sold a total of 7500 pounds of snow crab with false labels to Viandex <abbr title=\"Incorporated\">Inc.</abbr></p>\n\n<p>The <abbr title=\"Canadian Food Inspection Agency\">CFIA</abbr> is responsible for the administration and enforcement of federal legislation, acts and regulations, including the <i>Food and Drugs Act</i>. The <abbr title=\"Canadian Food Inspection Agency\">CFIA</abbr> is dedicated to safeguarding food, animal, and plant health, which enhances the health and well-being of Canada's people, environment, and economy.</p>\n\n\n<h2>Media Inquiries:</h2>\n\n<p><abbr title=\"Canadian Food Inspection Agency\">CFIA</abbr> Media Relations<br>\n</p>\r\n\r\n\r\n\r\n\r\n<div class=\"row\">\r\n \r\n\t\r\n\t\t\t\r\n\r\n<div class=\"col-xm-12 pagedetails container\">\r\n\t\t\t\t\r\n\r\n</div>\r\n\t\r\n</div>",
        "fr": "\r\n        \r\n        \n<section id=\"archived\" class=\"alert alert-warning wb-inview\" data-inview=\"archived-bnr\">\n<h2>Cette page a \u00e9t\u00e9 archiv\u00e9e</h2>\n<p>L'information dont il est indiqu\u00e9 qu'elle est archiv\u00e9e est fournie \u00e0 des fins de r\u00e9f\u00e9rence, de recherche ou de tenue de documents. Elle n'est pas assujettie aux normes Web du gouvernement du Canada et elle n'a pas \u00e9t\u00e9 modifi\u00e9e ou mise \u00e0 jour depuis son archivage. Pour obtenir cette information dans un autre format, veuillez communiquer avec nous.</p>\n</section>\n\n<section id=\"archived-bnr\" class=\"wb-overlay modal-content overlay-def wb-bar-t\">\n<header>\n<h2 class=\"wb-inv\">Archiv\u00e9e</h2>\n</header>\n<p><a href=\"#archived\">Cette page a \u00e9t\u00e9 archiv\u00e9e.</a></p>\n</section>\n<p>Le 15 juillet 2016, Ottawa : Le 15 juillet 2016, Ottawa : Le 14 juin 2016, \u00e0 la Cour provinciale de Caraquet, \u00e0 Caraquet au Nouveau-Brunswick, Marc Dugas a \u00e9t\u00e9 d\u00e9clar\u00e9 coupable de deux chefs d'accusation pour avoir enfreint le paragraphe 5(1) de la <i>Loi sur les aliments et drogues</i>, et a \u00e9t\u00e9 condamn\u00e9 \u00e0 payer une amende de <span class=\"nowrap\">5 000 $</span> pour chacun des chefs d'accusation.</p>\n\n<p>Aux termes du paragraphe 5(1) de la <i>Loi sur les aliments et drogues</i>, \u00ab\u00a0Il est interdit d'\u00e9tiqueter, d'emballer, de traiter, de pr\u00e9parer ou de vendre un aliment - ou d'en faire la publicit\u00e9 - de mani\u00e8re fausse, trompeuse ou mensong\u00e8re ou susceptible de cr\u00e9er une fausse impression quant \u00e0 sa nature, sa valeur, sa quantit\u00e9, sa composition, ses avantages ou sa s\u00fbret\u00e9\u00a0\u00bb.</p>\n\n<p>L'enqu\u00eate de l'<abbr title=\"Agence canadienne d'inspection des aliments\">ACIA</abbr> a r\u00e9v\u00e9l\u00e9 que le 24 juillet 2013 et le 29 juillet 2013, <abbr title=\"Monsieur\">M.</abbr> Dugas a vendu un total de 7 500 livres de crabes des neiges portant de fausses \u00e9tiquettes \u00e0 <span lang=\"en\">Viandex <abbr title=\"Incorporated\">Inc.</abbr></span></p>\n\n<p>L'<abbr title=\"Agence canadienne d'inspection des aliments\">ACIA</abbr> est charg\u00e9e de l'ex\u00e9cution et du contr\u00f4le de l'application de lois et de r\u00e8glements f\u00e9d\u00e9raux, y compris la <i>Loi sur les aliments et drogues</i>. Elle veille \u00e0 la sant\u00e9 et au bien-\u00eatre des Canadiens et \u00e0 la protection de l'environnement et de l'\u00e9conomie en pr\u00e9servant la salubrit\u00e9 des aliments et la sant\u00e9 des animaux et en prot\u00e9geant les v\u00e9g\u00e9taux.</p>\n\n<h2>Demandes des m\u00e9dias\u00a0:</h2>\n\n<p>Relations avec les m\u00e9dias de l'<abbr title=\"Agence canadienne d'inspection des aliments\">ACIA</abbr><br> \n</p>\r\n\r\n\r\n<div class=\"row\">\r\n \r\n\t\t\t\r\n\t\t\t\r\n\r\n\t\t\r\n\t\r\n</div>"
    },
    "js": {
        "en": "",
        "fr": ""
    },
    "success": true,
    "chat_wizard": false
}