{
    "dcr_id": "1510334600518",
    "title": {
        "en": "Archived - Thomas Canning (Maidstone) Limited Fined $40,000 for Offences under the Food and Drugs Act",
        "fr": "Archiv\u00e9e - <span lang=\"en\">Thomas Canning (Maidstone) Limited</span> est condamn\u00e9 \u00e0 une amende de 40\u2009000 $ pour avoir enfreint la Loi sur les aliments et drogues"
    },
    "html_modified": "10-11-2017",
    "modified": "10-11-2017",
    "issued": "10-11-2017",
    "teamsite_location": {
        "en": "/default/main/inspection/cont-cont/pros-judi/WORKAREA/pros-judi/templatedata/comn-comn/pros-judi/data/20171110_1510334600518_eng",
        "fr": "/default/main/inspection/cont-cont/pros-judi/WORKAREA/pros-judi/templatedata/comn-comn/pros-judi/data/20171110_1510334600518_fra"
    },
    "parent_ia_id": "1299852705293",
    "ia_id": "1510334603026",
    "parent_node_id": "1299852705293",
    "layout_name": "content page 1 column",
    "breadcrumb": {
        "en": "Archived - Thomas Canning (Maidstone) Limited Fined $40,000 for Offences under the Food and Drugs Act",
        "fr": "Archiv\u00e9e - <span lang=\"en\">Thomas Canning (Maidstone) Limited</span> est condamn\u00e9 \u00e0 une amende de 40\u2009000 $ pour avoir enfreint la Loi sur les aliments et drogues"
    },
    "label": {
        "en": "Archived - Thomas Canning (Maidstone) Limited Fined $40,000 for Offences under the Food and Drugs Act",
        "fr": "Archiv\u00e9e - <span lang=\"en\">Thomas Canning (Maidstone) Limited</span> est condamn\u00e9 \u00e0 une amende de 40\u2009000 $ pour avoir enfreint la Loi sur les aliments et drogues"
    },
    "templatetype": "content page 1 column",
    "node_id": "1510334603026",
    "managing_branch": "comn",
    "type_name": "pros-judi",
    "dcr_type": "pros-judi",
    "parent_dcr_id": "1298575869119",
    "has_dcr_id": true,
    "lang": "en",
    "could_not_load": 0,
    "refaire": false,
    "interwoven_url": {
        "en": "/about-cfia/media-relations/prosecution-bulletins/2017-11-10/",
        "fr": "/a-propos-de-l-acia/relations-avec-les-medias/bulletins-judiciaires/2017-11-10/"
    },
    "meta": {
        "viewport": {
            "en": "width=device-width,initial-scale=1",
            "fr": "width=device-width,initial-scale=1"
        },
        "service": {
            "en": "CFIA-ACIA",
            "fr": "CFIA-ACIA"
        },
        "accessRights": {
            "en": "2",
            "fr": "2"
        },
        "title": {
            "en": "Archived - Thomas Canning (Maidstone) Limited Fined $40,000 for Offences under the Food and Drugs Act",
            "fr": "Archiv\u00e9e - Thomas Canning (Maidstone) Limited est condamn\u00e9 \u00e0 une amende de 40\u2009000 $ pour avoir enfreint la Loi sur les aliments et drogues"
        },
        "description": {
            "en": "On November 6, 2017, in the Ontario Court of Justice in Windsor, ON, Thomas Canning (Maidstone) Limited of Maidstone, Ontario, pled guilty to and was convicted by indictment on one count of contravening Section 5.(1) of the Food and Drugs Act.",
            "fr": "Le 6 novembre 2017, devant la Cour de justice de l'Ontario de Windsor, en Ontario, l'entreprise Thomas Canning (Maidstone) Limited de Maidstone, en Ontario, a plaid\u00e9 coupable \u00e0 un chef d'accusation pour avoir enfreint le paragraphe 5(1) de la Loi sur les aliments et drogues."
        },
        "keywords": {
            "en": "prosecution bulletins, Thomas Canning (Maidstone) Limited, Maidstone, Ontario,Food and Drugs Ac",
            "fr": "Bulletins judiciaires, Thomas Canning (Maidstone) Limited,Maidstone, Ontario, Loi sur les aliments et drogues"
        },
        "dcterms.subject": {
            "en": "court decisions,commercial law,food inspection,consumer protection",
            "fr": "d\u00e9cision du tribunal,droit commercial,inspection des aliments,protection du consommateur"
        },
        "creator": {
            "en": "Government of Canada,Canadian Food Inspection Agency,Vice President, Communications and Public Affairs",
            "fr": "Gouvernement du Canada,Agence canadienne d'inspection des aliments,Vice pr\u00e9sidente, Communications et affaires publiques"
        },
        "language": {
            "en": "eng",
            "fr": "fra"
        },
        "issued": {
            "en": "2017-11-10",
            "fr": "2017-11-10"
        },
        "modified": {
            "en": "2017-11-10",
            "fr": "2017-11-10"
        },
        "type": {
            "en": "reference material",
            "fr": "mat\u00e9riel de r\u00e9f\u00e9rence"
        },
        "audience": {
            "en": "business,government,general public",
            "fr": "entreprises,gouvernement,grand public"
        },
        "name": {
            "en": "Government of Canada",
            "fr": "Gouvernement du Canada"
        },
        "areaServed": {
            "en": "Canada",
            "fr": "Canada"
        }
    },
    "h1": {
        "en": "Archived - Thomas Canning (Maidstone) Limited Fined $40,000 for Offences under the Food and Drugs Act",
        "fr": "Archiv\u00e9e - Thomas Canning (Maidstone) Limited est condamn\u00e9 \u00e0 une amende de 40\u2009000 $ pour avoir enfreint la Loi sur les aliments et drogues"
    },
    "body": {
        "en": "        \r\n        \n<section id=\"archived\" class=\"alert alert-warning\">\n<h2>This page has been archived</h2>\n<p>November 10, 2017, Ottawa: Information identified as archived is provided for reference, research or record-keeping purposes. It is not subject to the Government of Canada Web Standards and has not been altered or updated since it was archived. Please contact us to request a format other than those available.</p>\n</section><p>On November 6, 2017, in the Ontario Court of Justice in Windsor, <abbr title=\"Ontario\">ON</abbr>, Thomas Canning (Maidstone) Limited of Maidstone, Ontario, pled guilty to and was convicted by indictment on one count of contravening Section 5.(1) of the Food and Drugs Act. The company was ordered to pay total fines of $40,000.</p>\n \n<p>Section 5.(1) of the Food and Drugs Act states that no person shall label, package, treat, process, sell or advertise any food in a manner that is false, misleading or deceptive, or is likely to create an erroneous impression regarding its character, value, quantity, composition, merit or safety.</p>\n  \n<p>The Canadian Food Inspection Agency's (CFIA) investigation determined that between September 2013 and July 2015 the company falsely labelled some of its regular canned tomato products as \"organic\" canned tomato products.</p>\n \n<p>Contravening Section 5.(1) results in an offence under Section 31.1 of the Food and Drugs Act.  Every person who contravenes any provision of this act or the regulations, as it relates to food, is guilty of an offence and liable:</p>\n\n<ol class=\"lst-lwr-alph\">\n<li class=\"mrgn-bttm-md\">on summary conviction, to a fine not exceeding $50,000 or to imprisonment for a term not exceeding six months or to both; or</li>\n<li class=\"mrgn-bttm-md\">on conviction by indictment, to a fine not exceeding $250,000 or to imprisonment for a term not exceeding three years or to both.</li>\n</ol>\n\n<p>The <abbr title=\"Canadian Food Inspection Agency\">CFIA</abbr> is responsible for the administration and enforcement of federal legislation, acts and regulations, including the Food and Drugs Act.</p>\n\n<p>The <abbr title=\"Canadian Food Inspection Agency\">CFIA</abbr> is dedicated to safeguarding food, animal, and plant health, which enhances the health and well-being of Canada's people, environment, and economy.</p>\n\n<h2>Media enquiries</h2>\n\n<p><abbr title=\"Canadian Food Inspection Agency\">CFIA</abbr> Media Relations<br>\n</p>\n\r\n        \r\n\r\n\r\n\r\n<div class=\"row\">\r\n \r\n\t\r\n\t\t\t\r\n\r\n<div class=\"col-xm-12 pagedetails container\">\r\n\t\t\t\t\r\n\r\n</div>\r\n\t\r\n</div>",
        "fr": "\r\n        \r\n        \n<section id=\"archived\" class=\"alert alert-warning\">\n<h2>Cette page a \u00e9t\u00e9 archiv\u00e9e</h2>\n<p>Le 10 novembre 2017, Ottawa : L'information dont il est indiqu\u00e9 qu'elle est archiv\u00e9e est fournie \u00e0 des fins de r\u00e9f\u00e9rence, de recherche ou de tenue de documents. Elle n'est pas assujettie aux normes Web du gouvernement du Canada et elle n'a pas \u00e9t\u00e9 modifi\u00e9e ou mise \u00e0 jour depuis son archivage. Pour obtenir cette information dans un autre format, veuillez communiquer avec nous.</p>\n</section><p>Le 6\u00a0novembre\u00a02017, devant la Cour de justice de l'Ontario de Windsor, en Ontario, l'entreprise <span lang=\"en\">Thomas Canning (Maidstone) Limited</span> de Maidstone, en Ontario, a plaid\u00e9 coupable \u00e0 un chef d'accusation pour avoir enfreint le paragraphe\u00a05(1) de la Loi sur les aliments et drogues.\u00a0 L'entreprise s'est vu imposer une amende de 40\u00a0000\u00a0$.</p>\n\n<p>Selon le paragraphe\u00a05(1) de la Loi sur les aliments et drogues, \u00ab\u00a0[i]l est interdit d'\u00e9tiqueter, d'emballer, de traiter, de pr\u00e9parer ou de vendre un aliment \u2013 ou d'en faire la publicit\u00e9 \u2013 de mani\u00e8re fausse, trompeuse ou mensong\u00e8re ou susceptible de cr\u00e9er une fausse impression quant \u00e0 sa nature, sa valeur, sa quantit\u00e9, sa composition, ses avantages ou sa s\u00fbret\u00e9\u00a0\u00bb.</p>\n\n<p>L'enqu\u00eate de l'Agence canadienne d'inspection des aliments (ACIA) a r\u00e9v\u00e9l\u00e9 qu'entre septembre\u00a02013 et juillet\u00a02015, l'entreprise a faussement \u00e9tiquet\u00e9 certains de ses produits r\u00e9guliers de tomate en conserve comme des produits de tomate en conserves \u00ab\u00a0biologiques\u00a0\u00bb.</p>\n\n<p>Le non-respect du paragraphe\u00a05(1) constitue une infraction \u00e0 l'article\u00a031.1 de la Loi sur les aliments et drogues. Quiconque contrevient \u00e0 une disposition de la pr\u00e9sente loi ou des r\u00e8glements d'application de la pr\u00e9sente partie \u00e0 l'\u00e9gard d'aliments commet une infraction et encourt, sur d\u00e9claration de culpabilit\u00e9\u00a0:</p>\n\n<ol class=\"lst-lwr-alph\">\n<li class=\"mrgn-bttm-md\">par proc\u00e9dure sommaire, une amende maximale de 50\u00a0000\u00a0$ et un emprisonnement maximal de six mois, ou l'une de ces peines;</li>\n\n<li class=\"mrgn-bttm-md\">par mise en accusation, une amende maximale de 250\u00a0000\u00a0$ et un emprisonnement maximal de trois ans, ou l'une de ces peines.</li>\n</ol>\n\n<p>L'<abbr title=\"Agence canadienne d'inspection des aliments\">ACIA</abbr> est charg\u00e9e de l'administration et du contr\u00f4le de l'application de lois et de r\u00e8glements f\u00e9d\u00e9raux, y compris la Loi sur les aliments et drogues.</p>\n\n<p>L'<abbr title=\"Agence canadienne d'inspection des aliments\">ACIA</abbr> a pour mandat d'assurer la salubrit\u00e9 des aliments, la sant\u00e9 des animaux et la protection des v\u00e9g\u00e9taux afin de contribuer \u00e0 la sant\u00e9 et au bien-\u00eatre de la population canadienne, de prot\u00e9ger l'environnement et d'assurer la viabilit\u00e9 de l'\u00e9conomie.</p>\n\n<h2>Demandes de renseignements des m\u00e9dias</h2>\n\n<p><abbr title=\"Relations avec les m\u00e9dias de l'&lt;abbr title=\" agence canadienne d des aliments>ACIA</abbr><br>\n</p>\r\n        \r\n\r\n<div class=\"row\">\r\n \r\n\t\t\t\r\n\t\t\t\r\n\r\n\t\t\r\n\t\r\n</div>"
    },
    "js": {
        "en": "",
        "fr": ""
    },
    "success": true,
    "chat_wizard": false
}