{
    "dcr_id": "1518447201557",
    "lang": "en",
    "type_name": "empl-empl",
    "staffadvisor": "Cindy.chen@canada.ca",
    "submitername": "Cindy Chen",
    "submiteremail": "Cindy.Chen@canada.ca",
    "contactname": "Cindy Chen",
    "contactemail": "cindy.chen@canada.ca",
    "contactphonenumber": "613-773-3101",
    "issued": "2018-02-14"
}