{
    "dcr_id": "1523031181101",
    "lang": "en",
    "type_name": "empl-empl",
    "staffadvisor": "patrycja.henderson@canada.ca",
    "submitername": "John Stevenson",
    "submiteremail": "john.stevenson@canada.ca",
    "contactname": "Thea Clark",
    "contactemail": "thea.clark@agr.gc.ca",
    "contactphonenumber": "613-773-2290",
    "issued": "2018-04-20"
}