{
    "dcr_id": "1560370968743",
    "lang": "en",
    "type_name": "empl-empl",
    "staffadvisor": "adriana.azzi@canada.ca",
    "submitername": "Julie Levert",
    "submiteremail": "julie.levert@canada.ca",
    "contactname": "Julie Levert",
    "contactemail": "julie.levert@canada.ca",
    "contactphonenumber": "613-773-2807",
    "issued": "2019-06-26"
}