{
    "dcr_id": "1564674350865",
    "lang": "en",
    "type_name": "empl-empl",
    "staffadvisor": "amanda.dent@canada.ca",
    "submitername": "Alexandre Campbell",
    "submiteremail": "alexandre.campbell@canada.ca",
    "contactname": "Alexandre Campbell",
    "contactemail": "alexandre.campbell@canada.ca",
    "contactphonenumber": "613-773-0260",
    "issued": "2019-08-02"
}