{
    "dcr_id": "1571427821075",
    "lang": "en",
    "type_name": "empl-empl",
    "staffadvisor": "chantal.desbiens@canada.ca",
    "submitername": "Janet Steele",
    "submiteremail": "Janet.Steele@canada.ca",
    "contactname": "Alexander Drake",
    "contactemail": "alexander.drake@canada.ca",
    "contactphonenumber": "902-426-6151",
    "issued": "2019-11-01"
}