{
    "dcr_id": "1599591935856",
    "lang": "en",
    "type_name": "empl-empl",
    "staffadvisor": "emanuel.miulescu3@canada.ca",
    "submitername": "Emanuel Miulescu",
    "submiteremail": "emanuel.miulescu3@canada.ca",
    "contactname": "Emanuel Miulescu",
    "contactemail": "emanuel.miulescu3@canada.ca",
    "contactphonenumber": "613-773-0297",
    "issued": "2020-09-09"
}