{
    "dcr_id": "1600347203589",
    "lang": "en",
    "type_name": "empl-empl",
    "staffadvisor": "natalie.guimond@canada.ca",
    "submitername": "Natalie Guimond",
    "submiteremail": "natalie.guimond@canada.ca",
    "contactname": "Natalie Guimond",
    "contactemail": "natalie.guimond@canada.ca",
    "contactphonenumber": "343-572-3758",
    "issued": "2020-09-21"
}