{
    "dcr_id": "1602192385210",
    "lang": "en",
    "type_name": "empl-empl",
    "staffadvisor": "amanda.dent@canada.ca",
    "submitername": "Nada Mroue",
    "submiteremail": "nada.mroue@canada.ca",
    "contactname": "Nada Mroue",
    "contactemail": "nada.mroue@canada.ca",
    "contactphonenumber": "613-773-5454",
    "issued": "2020-10-09"
}