{
    "dcr_id": "1602775605269",
    "lang": "en",
    "title": {
        "en": "International Postings Overview - Upcoming Postings Abroad",
        "fr": "Aper\u00e7u des affectations \u00e0 l\u2019\u00e9tranger \u2014 Affectations \u00e0 venir \u00e0 l\u2019\u00e9tranger"
    },
    "modified": "2020-10-22 00:00:00.0",
    "issued": "2020-10-22 00:00:00.0",
    "type_name": "intra-intra/news-nouv",
    "node_id": "1279030006975",
    "layout_name": null,
    "dc_date_created": "2020-10-20",
    "breadcrumb_label": "",
    "trigger_date": "2020-10-22 11:30:06.0",
    "meta": {
        "issued": {
            "en": "2020-10-22",
            "fr": "2020-10-22"
        },
        "modified": {
            "en": "2020-10-22",
            "fr": "2020-10-22"
        },
        "format": {
            "en": "gcformat",
            "fr": "gcformat"
        },
        "title": {
            "en": "International Postings Overview - Upcoming Postings Abroad",
            "fr": "Aper\u00e7u des affectations \u00e0 l\u2019\u00e9tranger \u2014 Affectations \u00e0 venir \u00e0 l\u2019\u00e9tranger"
        },
        "subject": {
            "en": "communications",
            "fr": "communications"
        },
        "description": {
            "en": "Are you interested in working abroad? Do you have a background in trade? Are you a Technical Specialist?",
            "fr": "Aimeriez-vous travailler \u00e0 l'\u00e9tranger? Avez-vous une formation en commerce? \u00cates-vous un sp\u00e9cialiste technique?"
        },
        "language": {
            "en": "eng",
            "fr": "fra"
        },
        "audience": {
            "en": "gcaudience",
            "fr": "gcaudience"
        },
        "creator": {
            "en": "Agriculture and Agri-Food Canada",
            "fr": "Agriculture et Agroalimentaire Canada"
        },
        "spatial": {
            "en": "gcregions",
            "fr": "gcregions"
        },
        "service": {
            "en": "AAFC_AgriSource",
            "fr": "AAC_AgriSource"
        },
        "accessRights": {
            "en": "3",
            "fr": "3"
        }
    },
    "body": {
        "en": "<br>\n<br>\n<p>Are you interested in working abroad? Do you have a background in trade? Are you a Technical Specialist?</p>\n<p>The International Affairs Branch (IAB) is looking for subject matter experts - like you - to represent the Agri-Food Trade Commissioner Service and CFIA Technical Specialist Abroad program. Working abroad offers exciting opportunities to build networks, work with industry and foreign authorities to address key market access issues, promote Canada\u2019s Agriculture interests in foreign institutions (e.g. FAO) and to work with exporters to expand the reach of Canada\u2019s agriculture and agri-food products abroad! Various position levels and classifications are sought for Agriculture Trade Commissioner, Regional Trade Commissioner, Technical Specialist and Counsellor positions and can vary from two years to\u00a0four years\u00a0plus. Requirements for positions vary based on the position, and may include networking skills, knowledge of trade priorities, and knowledge of regional markets.</p>\n<h2><strong>Current opportunities </strong></h2>\n<p>We have various posters for postings abroad in 2021 and 2022. Check out the current <a href=\"https://intranet.agr.gc.ca/agrisourceprev/eng/human-resources/internal-employment-opportunities?id=1309887212500\">Employment Opportunities</a> AgriSource page for more.</p>\n<p>A <a href=\"https://collab.cfia-acia.inspection.gc.ca/cfia-acia/inspection/IAB/_layouts/15/guestaccess.aspx?guestaccesstoken=VDvvdCcCQN4Utfpi%2bsUGoI2vDmEC4hnA%2foR%2fc5pnR9M%3d&amp;docid=2_1be7fb5f85f1b45c6a6c7fbd765abd125&amp;rev=1\">list of upcoming postings and their anticipated start dates</a> (Word) can be found on SharePoint.</p>\n<h2><strong>Stay tuned</strong> </h2>\n<p>We also have postings planned for\u00a0two and\u00a0three years down the line. It\u2019s never too early to plan ahead for your dream job. You can begin preparing by gaining experience in subject matter areas and developing your language skills early.</p>\n\n\t\t",
        "fr": "<br>\n<br>\n<p>Aimeriez-vous travailler \u00e0 l\u2019\u00e9tranger? Avez-vous une formation en commerce? \u00cates-vous un sp\u00e9cialiste technique?</p>\n<p>La Direction g\u00e9n\u00e9rale des affaires internationales (DGAI) est \u00e0 la recherche d\u2019experts en la mati\u00e8re \u2014 comme vous \u2014 pour repr\u00e9senter le Service des d\u00e9l\u00e9gu\u00e9s commerciaux du secteur agroalimentaire et le Programme des sp\u00e9cialistes techniques \u00e0 l\u2019\u00e9tranger de l\u2019ACIA. Travailler \u00e0 l\u2019\u00e9tranger vous offre des occasions int\u00e9ressantes de b\u00e2tir des r\u00e9seaux, de travailler avec l\u2019industrie et les autorit\u00e9s \u00e9trang\u00e8res pour r\u00e9gler les principaux probl\u00e8mes d\u2019acc\u00e8s aux march\u00e9s, promouvoir les int\u00e9r\u00eats du Canada en mati\u00e8re d\u2019agriculture dans les institutions \u00e9trang\u00e8res (p. ex. la FAO) et travailler avec les exportateurs pour \u00e9largir la port\u00e9e des produits agricoles et agroalimentaires du Canada \u00e0 l\u2019\u00e9tranger! Divers niveaux de poste et classifications sont recherch\u00e9s pour les postes de commissaire au commerce agricole, de d\u00e9l\u00e9gu\u00e9 commercial r\u00e9gional, de sp\u00e9cialiste technique et de conseiller et peuvent varier d\u2019un d\u00e9lai de deux ans \u00e0 quatre ans plus. Les exigences relatives aux postes varient en fonction du poste et peuvent inclure des comp\u00e9tences en r\u00e9seautage, une connaissance des priorit\u00e9s commerciales et une connaissance des march\u00e9s r\u00e9gionaux.</p>\n<h2><strong>Opportunit\u00e9s actuelles </strong></h2>\n<p>Nous avons diverses affiches pour les affectations \u00e0 l\u2019\u00e9tranger en 2021 et 2022. Consultez la page <a href=\"https://intranet.agr.gc.ca/agrisourceprev/fra/ressources-humaines/possibilites-demploi-a-linterne?id=1309887212500\">Possibilit\u00e9s d\u2019emploi</a> dans AgriSource pour en savoir plus.</p>\n<p>Une <a href=\"https://collab.cfia-acia.inspection.gc.ca/cfia-acia/inspection/IAB/_layouts/15/guestaccess.aspx?guestaccesstoken=VDvvdCcCQN4Utfpi%2bsUGoI2vDmEC4hnA%2foR%2fc5pnR9M%3d&amp;docid=2_1be7fb5f85f1b45c6a6c7fbd765abd125&amp;rev=1\">liste des publications \u00e0 venir et leurs dates de d\u00e9but pr\u00e9vues</a> (Word) peuvent \u00eatre trouv\u00e9es dans SharePoint.</p>\n<h2><strong>Restez \u00e0 l\u2019aff\u00fbt</strong> </h2>\n<p>Nous avons \u00e9galement des affectations pr\u00e9vues pour les deux et trois prochaines ann\u00e9es. Il n\u2019est jamais trop t\u00f4t pour planifier votre emploi de r\u00eave. Vous pouvez commencer \u00e0 vous pr\u00e9parer en acqu\u00e9rant de l\u2019exp\u00e9rience dans des domaines sp\u00e9cialis\u00e9s et en perfectionnant d\u00e8s maintenant vos comp\u00e9tences linguistiques.</p>\n\t\t"
    },
    "breadcrumb": {
        "en": "International Postings Overview - Upcoming Postings Abroad",
        "fr": "Aper\u00e7u des affectations \u00e0 l'\u00e9tranger - Affectations \u00e0 venir \u00e0 l'\u00e9tranger"
    },
    "news": {
        "date_posted": {
            "en": "2020-10-15",
            "fr": "2020-10-15"
        },
        "to": {
            "en": "All staff",
            "fr": "Tous les employ\u00e9s"
        },
        "by": {
            "en": "International Affairs Branch",
            "fr": "La Direction g\u00e9n\u00e9rale des affaires internationales"
        }
    }
}