{
    "dcr_id": "1348587109286",
    "title": {
        "en": "Children's Food Project Report 2008-2009 ",
        "fr": "Rapport du Projet sur les aliments destin\u00e9s aux enfants 2008-2009"
    },
    "html_modified": "2024-03-12 3:55:49 PM",
    "modified": "2018-09-04",
    "issued": "2018-06-05",
    "teamsite_location": {
        "en": "/default/main/inspection/cont-cont/food-aliments/STAGING/templatedata/comn-comn/forms-formes/data/chem_residue_reports_2008-2009_childrenfood_1348587109286_eng",
        "fr": "/default/main/inspection/cont-cont/food-aliments/STAGING/templatedata/comn-comn/forms-formes/data/chem_residue_reports_2008-2009_childrenfood_1348587109286_fra"
    },
    "ia_id": "1348587393958",
    "parent_ia_id": "1453327843364",
    "chronicletopic": {
        "en": "",
        "fr": ""
    },
    "chroniclecontent": {
        "en": "",
        "fr": ""
    },
    "chronicleaudience": {
        "en": "",
        "fr": ""
    },
    "sfcrdocumenttype": {
        "en": "",
        "fr": ""
    },
    "sfcraudience": {
        "en": "",
        "fr": ""
    },
    "sfcrmethodofproduction": {
        "en": "",
        "fr": ""
    },
    "activity": {
        "en": "",
        "fr": ""
    },
    "commodity": {
        "en": "",
        "fr": ""
    },
    "program": {
        "en": "",
        "fr": ""
    },
    "search_type": "other",
    "parent_node_id": "1453327843364",
    "layout_name": "content page 1 column",
    "breadcrumb": {
        "en": "Children's Food Project Report 2008-2009 ",
        "fr": "Rapport du Projet sur les aliments destin\u00e9s aux enfants 2008-2009"
    },
    "label": {
        "en": "Children's Food Project Report 2008-2009 ",
        "fr": "Rapport du Projet sur les aliments destin\u00e9s aux enfants 2008-2009"
    },
    "templatetype": "content page 1 column",
    "node_id": "1348587393958",
    "managing_branch": "comn",
    "type_name": "forms-formes",
    "dcr_type": "forms-formes",
    "parent_dcr_id": "1453324778043",
    "has_dcr_id": true,
    "lang": "en",
    "could_not_load": 0,
    "refaire": false,
    "interwoven_url": {
        "en": "/food-safety-for-industry/food-chemistry-and-microbiology/food-safety-testing-reports-and-journal-articles/children-s-food-project/",
        "fr": "/salubrite-alimentaire-pour-l-industrie/chimie-et-microbiologie-alimentaires/rapports-d-analyse-et-articles-de-revues-sur-la-sa/projet-sur-les-aliments-destines-aux-enfants/"
    },
    "meta": {
        "viewport": {
            "en": "width=device-width,initial-scale=1",
            "fr": "width=device-width,initial-scale=1"
        },
        "service": {
            "en": "CFIA-ACIA",
            "fr": "CFIA-ACIA"
        },
        "accessRights": {
            "en": "2",
            "fr": "2"
        },
        "title": {
            "en": "Children's Food Project Report 2008-2009",
            "fr": "Rapport du Projet sur les aliments destin\u00e9s aux enfants 2008-2009"
        },
        "description": {
            "en": "The scope of pesticide residue analysis was expanded in the 2008-2009 CFP, from approximately 300 to over 400 pesticide residues.",
            "fr": "La port\u00e9e des analyses sur les r\u00e9sidus de pesticides a \u00e9t\u00e9 \u00e9largie dans le\u00a0PAE\u00a0de\u00a0 2008-2009, passant de 300 \u00e0 plus de 400\u00a0r\u00e9sidus de pesticides."
        },
        "keywords": {
            "en": "chemical residues, testing, sampling, reporting, children food project, pesticides, children,",
            "fr": "R\u00e9sidus chimiques, essai, pr\u00e9l\u00e8vement, \u00a0rapports, Projet sur les aliments destin\u00e9s aux enfants, enfants, pesticides"
        },
        "dcterms.subject": {
            "en": "agri-food products,assessment,food inspection,food safety,inspection,scientific research",
            "fr": "produit agro-alimentaire,\u00e9valuation,inspection des aliments,salubrit\u00e9 des aliments,inspection,recherche scientifique"
        },
        "creator": {
            "en": "Government of Canada,Canadian Food Inspection Agency,Food Safety Science Directorate",
            "fr": "Gouvernement du Canada,Agence canadienne d'inspection des aliments,Direction des sciences de la salubrit\u00e9 des aliments"
        },
        "language": {
            "en": "eng",
            "fr": "fra"
        },
        "issued": {
            "en": "2018-06-05",
            "fr": "2018-06-05"
        },
        "modified": {
            "en": "2018-09-04",
            "fr": "2018-09-04"
        },
        "type": {
            "en": "reference material,report",
            "fr": "mat\u00e9riel de r\u00e9f\u00e9rence,rapport"
        },
        "audience": {
            "en": "business,general public,government,scientists",
            "fr": "entreprises,grand public,gouvernement,Scientifiques"
        },
        "name": {
            "en": "Government of Canada",
            "fr": "Gouvernement du Canada"
        },
        "areaServed": {
            "en": "Canada",
            "fr": "Canada"
        }
    },
    "h1": {
        "en": "Children's Food Project Report 2008-2009",
        "fr": "Rapport du Projet sur les aliments destin\u00e9s aux enfants 2008-2009"
    },
    "js": {
        "en": "<script>\n    document.frmPublication.strTitle.value = document.getElementsByTagName(\"title\")[0].innerHTML;\n    document.frmPublication.strUrl.value = document.URL;\n</script>/* --------------------- MORE JAVASCRIPT ------------------- */<script>\n$(document).ready (function(){\n\tif($(\"#strPaper\").checked || $(\"#strBraille\").checked)\n\t{\n\t\tPaperBrailleChecked();\n\t}\n});\n\n$(document).on(\"change\", \"#strBraille\", function(){\n\tif($(\"#strBraille\").is(\":checked\"))\n\t{\n\t\tPaperBrailleChecked();\n\t}\n\telse if(!($(\"#strPaper\").is(\":checked\")))\n\t{\n\t\tPaperBrailleUnChecked();\n\t}\n});\n\n$(document).on(\"change\", \"#strPaper\", function(){\n\tif($(\"#strPaper\").is(\":checked\"))\n\t{\n\t\tPaperBrailleChecked();\n\t}\n\telse if(!($(\"#strBraille\").is(\":checked\")))\n\t{\n\t\tPaperBrailleUnChecked();\n\t}\n});\n\nfunction PaperBrailleChecked()\n{\n\t$(\"#strAddress1\").attr(\"required\", \"true\");\n\t$(\"#strCity\").attr(\"required\", \"true\");\n\t$(\"#strProvince\").attr(\"required\", \"true\");\n\t$(\"#strCountry\").attr(\"required\", \"true\");\n\t$(\"#strPostal\").attr(\"required\", \"true\");\n}\n\nfunction PaperBrailleUnChecked()\n{\n\t$(\"#strAddress1\").removeAttr(\"required\");\n\t$(\"#strCity\").removeAttr(\"required\");\n\t$(\"#strProvince\").removeAttr(\"required\");\n\t$(\"#strCountry\").removeAttr(\"required\");\n\t$(\"#strPostal\").removeAttr(\"required\");\n}\n</script>",
        "fr": "<script>\n    document.frmPublication.strTitle.value = document.getElementsByTagName(\"title\")[0].innerHTML;\n    document.frmPublication.strUrl.value = document.URL;\n</script>/* --------------------- MORE JAVASCRIPT ------------------- */<script>\n$(document).ready (function(){\n\tif($(\"#strPaper\").checked || $(\"#strBraille\").checked)\n\t{\n\t\tPaperBrailleChecked();\n\t}\n});\n\n$(document).on(\"change\", \"#strBraille\", function(){\n\tif($(\"#strBraille\").is(\":checked\"))\n\t{\n\t\tPaperBrailleChecked();\n\t}\n\telse if(!($(\"#strPaper\").is(\":checked\")))\n\t{\n\t\tPaperBrailleUnChecked();\n\t}\n});\n\n$(document).on(\"change\", \"#strPaper\", function(){\n\tif($(\"#strPaper\").is(\":checked\"))\n\t{\n\t\tPaperBrailleChecked();\n\t}\n\telse if(!($(\"#strBraille\").is(\":checked\")))\n\t{\n\t\tPaperBrailleUnChecked();\n\t}\n});\n\nfunction PaperBrailleChecked()\n{\n\t$(\"#strAddress1\").attr(\"required\", \"true\");\n\t$(\"#strCity\").attr(\"required\", \"true\");\n\t$(\"#strProvince\").attr(\"required\", \"true\");\n\t$(\"#strCountry\").attr(\"required\", \"true\");\n\t$(\"#strPostal\").attr(\"required\", \"true\");\n}\n\nfunction PaperBrailleUnChecked()\n{\n\t$(\"#strAddress1\").removeAttr(\"required\");\n\t$(\"#strCity\").removeAttr(\"required\");\n\t$(\"#strProvince\").removeAttr(\"required\");\n\t$(\"#strCountry\").removeAttr(\"required\");\n\t$(\"#strPostal\").removeAttr(\"required\");\n}\n</script>"
    },
    "mode_html": "no_editor_full",
    "body": {
        "en": "        \r\n        \n<h2>Summary</h2>\n<p>The main objectives of the 2008 \u2013 2009 Children's Food Project (CFP) were:</p>\n<ul>\n<li>to assess the compliance status for pesticide residues in foods consumed by infants and toddlers aged 0 \u2013 24 months;</li>\n<li>to provide data to Health Canada that can be used for health risk assessment of foods consumed by children.</li>\n</ul>\n<p>In the 2008 \u2013 2009 <abbr title=\"Children's Food Project\">CFP</abbr>, a total of 382 processed food samples were purchased in the Ottawa \u2013 Gatineau area. The samples included a variety of infant cereals, formulas (soy and dairy-based), fruit and vegetable purees, meat and vegetable purees, cookies, prepared meals and flavoured water. All samples were obtained from national grocery stores and drugstores. The samples were analyzed for pesticide residues and metals. A total of 2449 analytical tests were performed which corresponds to more than <span class=\"nowrap\">127 000 results</span>.</p>\n<p>The scope of pesticide residue analysis was expanded in the 2008 \u2013 2009 <abbr title=\"Children's Food Project\">CFP</abbr>, from approximately 300 to over 400 pesticide residues. Approximately 100 new pesticide residues can now be detected in selected infant foods by a new <abbr title=\"liquid chromatography electrospray ionization mass spectrometry\">LC/ESI-MS-MS</abbr> method. The new method is also capable of detecting pesticide residues that were previously detected using single residue methods. All samples were either analyzed for pesticide residues using a multi-residue method that detects 299 individual carbamate, organochlorine or organophosphate compounds in processed fruit, vegetable and meat products or a multi-residue method that detects 32 pesticide residues in dairy products. Single-residue methods were used to detect alar, amitraz, carbamates, carbendazim, ethylene thiourea (ETU), formetanate and thiabendazole in selected samples. All samples were analyzed for metals using an analytical method capable of detecting 15 different metals \u2013 aluminum, arsenic, boron, cadmium, chromium, copper, iron, mercury, manganese, nickel, lead, selenium, tin, titanium, and zinc.</p>\n<p>Of the 382 samples tested, 294 (77.0%) contained no detected pesticide residues. The remaining 88 samples (23.0%) had detected levels of pesticide residues, with 33 (8.6%) containing more than one chemical residue type. Of the 88 samples with detected pesticide residues, one (0.3% of all samples) contained a pesticide residue level in excess of the 0.1 <abbr title=\"parts per million\">ppm</abbr> Maximum Residue Limit (MRL) and was therefore in violation of paragraph 4(d) of the Food and Drugs Act (FDA). The violative level of pesticide detected does not, however, pose a human health risk. The majority of the pesticide residue results (99.7%) were in compliance with Canadian <abbr title=\"Maximum Residue Limits\">MRLs</abbr>.</p>\n<p>Heavy metals that may pose a health risk to human health include arsenic, cadmium, mercury and lead. The levels of most metals detected in this study were below established tolerances. Consistent with the previous year's results, higher arsenic levels were found in several rice products and infant formulas. Health Canada completed an assessment of the total arsenic results from this report.</p>\r\n<style>\n/* required style */\n    .keyValue{\n\tdisplay: none !important;\n        visibility: hidden !important;\n</style>\n<h2>Request of Complete Report</h2>\n<p>The complete text of this report is available upon request.</p>\n\n<div class=\"wb-frmvld\">\n\n<form class=\"form-horizontal\" role=\"form\" method=\"post\" action=\"/active/netapp/comment/publicationposte.aspx#wb-cont\" name=\"frmPublication\">\n<input id=\"emailad0\" name=\"to\" class=\"hidden\" type=\"hidden\" aria-hidden=\"true\" value=\"IPztV7dUvNzpsRkuJBGETx/XCAmd9sPiwacmFR25IOpZ4liIcG4Pk1WmbVfSOltMkCU2XrXyhM+LAeHWLIJd/Dru/yMcQajpw1QFyXrn7FM=\">\n<input name=\"strLang\" type=\"hidden\" value=\"English\">\n<input name=\"strSubject\" type=\"hidden\" value=\"Chemical Residues / Microbiology Report Request\">\n<input name=\"strTitle\" type=\"hidden\" value=\"title\">\n<input name=\"strUrl\" type=\"hidden\" value=\"url\">\n<script type=\"text/javascript\">\n    document.frmPublication.strTitle.value = document.getElementsByTagName(\"title\")[0].innerHTML;\n    document.frmPublication.strUrl.value = document.URL;\n</script>\n        \n<fieldset class=\"mrgn-tp-md mrgn-bttm-lg\">\t\t\n\n<legend class=\"field-name required\"><span class=\"field-name\">The format in which you would like to receive the report</span> <strong class=\"required\">(required)</strong></legend>\n\n<div class=\"checkbox\">\n<label for=\"strPdf\"><input type=\"checkbox\" name=\"formatsent\" id=\"strPdf\" value=\"pdf\" required=\"required\">PDF (Portable Document Format) electronic file sent to you by email</label>\n</div>\n\n<div class=\"checkbox\">\n<label for=\"strText\"><input type=\"checkbox\" name=\"formatsent\" id=\"strText\" value=\"text\">RTF (Rich Text Format) electronic file sent to you by email</label>\n</div>\n\n<div class=\"checkbox\">\n<label for=\"strBraille\"><input type=\"checkbox\" name=\"formatsent\" id=\"strBraille\" value=\"braille\">Braille copy sent to you by mail</label>\n</div>\n\n<div class=\"checkbox\">\n<label for=\"strPaper\"><input type=\"checkbox\" name=\"formatsent\" id=\"strPaper\" value=\"paper\">Paper copy sent to you by mail</label>\n</div>\n\n</fieldset>\t\n\n<fieldset class=\"mrgn-tp-md mrgn-bttm-lg\">\t\t\n\n<legend class=\"field-name\">Your contact information</legend>\n\n<label class=\"keyValue\" for=\"name\"></label>\n<input class=\"keyValue\" autocomplete=\"off\" type=\"text\" id=\"name\" name=\"name\">\n<label class=\"keyValue\" for=\"email\"></label>\n<input class=\"keyValue\" autocomplete=\"off\" type=\"email\" id=\"email\" name=\"email\"> \n\n<div class=\"form-group\">\n<label for=\"strFirstName\" class=\"required col-md-4 control-label\"><span class=\"field-name\">First name:</span> <strong class=\"required\">(required)</strong></label>\n<div class=\"col-md-8\">\n<input class=\"form-control\" id=\"strFirstName\" name=\"strFirstName\" type=\"text\" required=\"required\" pattern=\".{2,}\" data-rule-minlength=\"2\">\n</div>\n</div>\n            \n<div class=\"form-group\">\n<label for=\"strLastName\" class=\"required col-md-4 control-label\"><span class=\"field-name\">Last name:</span> <strong class=\"required\">(required)</strong></label>\n<div class=\"col-md-8\">\n<input class=\"form-control\" id=\"strLastName\" name=\"strLastName\" type=\"text\" required=\"required\" pattern=\".{2,}\" data-rule-minlength=\"2\">\n</div>\n</div>\n\n<div class=\"form-group\">\n<label for=\"strEmail\" class=\"required col-md-4 control-label\"><span class=\"field-name\">Email address:</span>  <strong class=\"required\">(required)</strong></label>\n<div class=\"col-md-8\">\n<input class=\"form-control\" id=\"strEmail\" name=\"strEmail\" type=\"email\" required=\"required\">\n</div>\n</div>\n\n<div class=\"form-group\">\n<label for=\"strConfirmEmail\" class=\"required col-md-4 control-label\"><span class=\"field-name\">Confirm email address:</span>  <strong class=\"required\">(required)</strong></label>\n<div class=\"col-md-8\">\n<input class=\"form-control\" id=\"strConfirmEmail\" name=\"strConfirmEmail\" type=\"email\" data-rule-equalto=\"#strEmail\" required=\"required\">\n</div>\n</div>\n\n<div class=\"form-group mrgn-tp-md\">\n<label for=\"lstdescribe\" class=\"required col-md-4 control-label\"><span class=\"field-name\">How would you describe yourself?</span> <strong class=\"required\">(required)</strong></label>\n<div class=\"col-md-8\">\n<select class=\"form-control\" id=\"lstdescribe\" name=\"lstdescribe\" required=\"required\">\n<option label=\"Select from this list\"></option>\n<option value=\"Academia\">Academia</option>\n<option value=\"Consumer Association\">Consumer Association</option>\n<option value=\"Consumer/General Public\">Consumer / General Public</option>\n<option value=\"Industry Association\">Industry Association</option>\n<option value=\"Industry/Commercial Sector\">Industry / Commercial Sector</option>\n<option value=\"Other Government Departments\">Other Government Departments</option>\t\t\t\n</select>\n</div>\n</div>\t\n\n<div class=\"form-group\">\n<label for=\"strAddress1\" class=\"col-md-4 control-label\"><span class=\"field-name\">Address 1:</span></label>\n<div class=\"col-md-8\">\n<input class=\"form-control\" id=\"strAddress1\" name=\"strAddress1\" type=\"text\">\n</div>\n</div>\n\n<div class=\"form-group\">\n<label for=\"strAddress2\" class=\"col-md-4 control-label\"><span class=\"field-name\">Address 2:</span></label>\n<div class=\"col-md-8\">\n<input class=\"form-control\" id=\"strAddress2\" name=\"strAddress2\" type=\"text\">\n</div>\n</div>\n\n<div class=\"form-group\">\n<label for=\"strCity\" class=\"col-md-4 control-label\"><span class=\"field-name\">City:</span></label>\n<div class=\"col-md-8\">\n<input class=\"form-control\" id=\"strCity\" name=\"strCity\" type=\"text\">\n</div>\n</div>\n\n<div class=\"form-group\">\n<label for=\"strProvince\" class=\"col-md-4 control-label\"><span class=\"field-name\">Province:</span></label>\n<div class=\"col-md-8\">\n<input class=\"form-control\" id=\"strProvince\" name=\"strProvince\" type=\"text\">\n</div>\n</div>\n\n<div class=\"form-group\">\n<label for=\"strCountry\" class=\"col-md-4 control-label\"><span class=\"field-name\">Country:</span></label>\n<div class=\"col-md-8\">\n<input class=\"form-control\" id=\"strCountry\" name=\"strCountry\" type=\"text\">\n</div>\n</div>\n\n<div class=\"form-group\">\n<label for=\"strPostal\" class=\"col-md-4 control-label\"><span class=\"field-name\">Postal Code:</span></label>\n<div class=\"col-md-8\">\n<input class=\"form-control\" id=\"strPostal\" name=\"strPostal\" type=\"text\">\n</div>\n</div>\n\n</fieldset>\t\n\n<input value=\"Submit Your Request\" id=\"btnSubmit\" name=\"btnSubmit\" class=\"btn btn-primary\" type=\"submit\"> \n<input value=\"Clear All Information\" id=\"btnReset\" name=\"btnReset\" class=\"btn btn-default\" type=\"reset\">\n\n</form>\n</div>\n<script src=\"https://ajax.googleapis.com/ajax/libs/jquery/2.1.1/jquery.min.js\"></script>\n<script type=\"text/javascript\">\n$(document).ready (function(){\n\tif($(\"#strPaper\").checked || $(\"#strBraille\").checked)\n\t{\n\t\tPaperBrailleChecked();\n\t}\n});\n\n$(document).on(\"change\", \"#strBraille\", function(){\n\tif($(\"#strBraille\").is(\":checked\"))\n\t{\n\t\tPaperBrailleChecked();\n\t}\n\telse if(!($(\"#strPaper\").is(\":checked\")))\n\t{\n\t\tPaperBrailleUnChecked();\n\t}\n});\n\n$(document).on(\"change\", \"#strPaper\", function(){\n\tif($(\"#strPaper\").is(\":checked\"))\n\t{\n\t\tPaperBrailleChecked();\n\t}\n\telse if(!($(\"#strBraille\").is(\":checked\")))\n\t{\n\t\tPaperBrailleUnChecked();\n\t}\n});\n\nfunction PaperBrailleChecked()\n{\n\t$(\"#strAddress1\").attr(\"required\", \"true\");\n\t$(\"#strCity\").attr(\"required\", \"true\");\n\t$(\"#strProvince\").attr(\"required\", \"true\");\n\t$(\"#strCountry\").attr(\"required\", \"true\");\n\t$(\"#strPostal\").attr(\"required\", \"true\");\n}\n\nfunction PaperBrailleUnChecked()\n{\n\t$(\"#strAddress1\").removeAttr(\"required\");\n\t$(\"#strCity\").removeAttr(\"required\");\n\t$(\"#strProvince\").removeAttr(\"required\");\n\t$(\"#strCountry\").removeAttr(\"required\");\n\t$(\"#strPostal\").removeAttr(\"required\");\n}\n</script>\r\n\r\n\r\n\r\n<div class=\"row\">\r\n \r\n\t\r\n\t\t\t\r\n\r\n<div class=\"col-xm-12 pagedetails container\">\r\n\t\t\t\t\r\n\r\n</div>\r\n\t\r\n</div>",
        "fr": "\r\n        \r\n        \n<h2>R\u00e9sum\u00e9</h2>\n<p>Les principaux objectifs du Projet sur les aliments destin\u00e9s aux enfants (PAE) 2008-2009 sont les suivants\u00a0:</p>\n<ul>\n<li>\u00e9valuer le niveau de conformit\u00e9 aux limites \u00e9tablies \u00e0 l'\u00e9gard des r\u00e9sidus de pesticides dans les aliments consomm\u00e9s par des nourrissons et des enfants dont l'\u00e2ge se situe entre 0 et 24\u00a0mois;</li>\n<li>fournir, \u00e0 Sant\u00e9 Canada, des donn\u00e9es qui peuvent \u00eatre utilis\u00e9es pour \u00e9valuer les risques pour la sant\u00e9 associ\u00e9s aux aliments pour enfants.</li>\n</ul>\n<p>Dans le <abbr title=\"Projet sur les aliments destin\u00e9s aux enfants\">PAE</abbr> 2008-2009, un total de 382\u00a0\u00e9chantillons d'aliments transform\u00e9s ont \u00e9t\u00e9 achet\u00e9s dans la r\u00e9gion d'Ottawa-Gatineau. Les \u00e9chantillons comprenaient des c\u00e9r\u00e9ales pour nourrissons, des pr\u00e9parations pour nourrissons (\u00e0 base de soya et de produits laitiers), des pur\u00e9es de fruits et de l\u00e9gumes, des pur\u00e9es de viande et de l\u00e9gumes, des biscuits, des repas pr\u00e9par\u00e9s et de l'eau aromatis\u00e9e. Tous les \u00e9chantillons ont \u00e9t\u00e9 achet\u00e9s dans des \u00e9piceries et des pharmacies nationales. Les \u00e9chantillons ont \u00e9t\u00e9 analys\u00e9s pour d\u00e9tecter la pr\u00e9sence de r\u00e9sidus de pesticides et de m\u00e9taux. En tout, 2\u00a0449\u00a0analyses ont \u00e9t\u00e9 effectu\u00e9es, ce qui correspond \u00e0 plus de 127\u00a0000\u00a0r\u00e9sultats.</p>\n<p>La port\u00e9e des analyses sur les r\u00e9sidus de pesticides a \u00e9t\u00e9 \u00e9largie dans le <abbr title=\"Projet sur les aliments destin\u00e9s aux enfants\">PAE</abbr> de\u00a0 2008-2009, passant de 300 \u00e0 plus de 400\u00a0r\u00e9sidus de pesticides. Environ 100\u00a0nouveaux r\u00e9sidus de pesticides peuvent maintenant \u00eatre d\u00e9tect\u00e9s dans des aliments destin\u00e9s aux enfants choisis gr\u00e2ce \u00e0 la nouvelle m\u00e9thode <abbr title=\"liquid chromatography electrospray ionization mass spectrometry\" lang=\"en\">LC/ESI-SM-SM</abbr>. Cette nouvelle m\u00e9thode permet \u00e9galement de d\u00e9tecter des r\u00e9sidus de pesticides qui \u00e9taient d\u00e9cel\u00e9s auparavant avec les m\u00e9thodes d'analyse d'un seul r\u00e9sidu. Tous les \u00e9chantillons ont \u00e9t\u00e9 analys\u00e9s pour trouver des r\u00e9sidus de pesticides en utilisant soit une m\u00e9thode d'analyse multi-r\u00e9sidus qui d\u00e9tecte 299\u00a0compos\u00e9s distincts (carbamates, organochlor\u00e9s ou organophosphor\u00e9s) dans les fruits, les l\u00e9gumes et les produits carn\u00e9s transform\u00e9s, soit une m\u00e9thode d'analyse multi-r\u00e9sidus qui permet de d\u00e9celer 32\u00a0r\u00e9sidus de pesticides dans les produits laitiers. Des m\u00e9thodes d'analyse d'un seul r\u00e9sidu ont aussi \u00e9t\u00e9 utilis\u00e9es pour d\u00e9tecter l'alar, l'amitraze, les carbamates, la carbendazime, l'\u00e9thyl\u00e8ne thio-ur\u00e9e (ETU), le form\u00e9tanate et le thiabendazole dans les \u00e9chantillons choisis. L'analyse des m\u00e9taux dans les \u00e9chantillons a \u00e9t\u00e9 r\u00e9alis\u00e9e au moyen d'une m\u00e9thode permettant de d\u00e9tecter 15\u00a0m\u00e9taux diff\u00e9rents, soit l'aluminium, l'arsenic, le bore, le cadmium, le chrome, le cuivre, le fer, le mercure, le mangan\u00e8se, le nickel, le plomb, le s\u00e9l\u00e9nium, l'\u00e9tain, le titane et le zinc.</p>\n<p>Sur les 382\u00a0\u00e9chantillons analys\u00e9s, 294 (77,0\u00a0%) ne contenaient aucun r\u00e9sidu de pesticides d\u00e9tectables. Les 88\u00a0\u00e9chantillons restants (23,0\u00a0%) pr\u00e9sentaient des quantit\u00e9s de pesticides mesurables, et 33 (8,6\u00a0%)\u00a0de ces \u00e9chantillons renfermaient plus d'un type de r\u00e9sidu. Des 88\u00a0\u00e9chantillons dans lesquels se trouvaient des r\u00e9sidus de pesticides, un seul (0,3\u00a0% des \u00e9chantillons) contenait un niveau de r\u00e9sidu de pesticides exc\u00e9dant la limite maximale des r\u00e9sidus (LMR), qui est de 0,1\u00a0partie par million (ppm), et contrevenait donc \u00e0 l'alin\u00e9a 4d) de la Loi sur les aliments et drogues (LAD). Ce niveau de pesticide non-conform ne repr\u00e9sente pas un risque pour la sant\u00e9 humaine. La majorit\u00e9 des r\u00e9sultats de d\u00e9tection de r\u00e9sidus de pesticides (99,7\u00a0%) \u00e9taient conformes aux <abbr title=\"limite maximale des r\u00e9sidus\">LMR</abbr> canadiennes.</p>\n<p>Les m\u00e9taux lourds qui peuvent repr\u00e9senter un risque pour la sant\u00e9 humaine sont l'arsenic, le cadmium, le mercure et le plomb. Pour la plupart des m\u00e9taux d\u00e9tect\u00e9s dans le cadre de l'\u00e9tude, les concentrations se situent sous les seuils de tol\u00e9rance \u00e9tablis. Comme l'an dernier, on a d\u00e9cel\u00e9 des concentrations plus \u00e9lev\u00e9es d'arsenic dans plusieurs produits \u00e0 base de riz et dans les pr\u00e9parations pour nourrissons. Sant\u00e9 Canada a termin\u00e9 l'\u00e9valuation des r\u00e9sultats du pr\u00e9sent rapport sur la teneur en arsenic total.</p>\r\n<style>\n/* required style */\n    .keyValue{\n\tdisplay: none !important;\n        visibility: hidden !important;\n</style>\n<h2>Demande de rapport complet</h2>\n<p>La version int\u00e9grale du pr\u00e9sent rapport est disponible sur demande.</p>\n\n<div class=\"wb-frmvld\">\n\n<form class=\"form-horizontal\" role=\"form\" method=\"post\" action=\"/active/netapp/comment/publicationposte.aspx#wb-cont\" name=\"frmPublication\">\n\n<input id=\"emailad0\" name=\"to\" class=\"hidden\" type=\"hidden\" aria-hidden=\"true\" value=\"gar30TAvwgb0oh7nGUaSNN/6WDR5BqGWEgz0ZvXq3kR6RsFt4UDje0wm4fEjIJxKp2m3Zk+dg6/PQad6+jM4+xc/f7n1yzKprPOxm+GXaN4=\">\n<input name=\"strLang\" type=\"hidden\" value=\"Francais\">\n<input name=\"strSubject\" type=\"hidden\" value=\"Demande de rapport de r\u00e9sidus chimiques / microbiologie\">\n<input name=\"strTitle\" type=\"hidden\" value=\"title\">\n<input name=\"strUrl\" type=\"hidden\" value=\"url\">\n<script type=\"text/javascript\">\n    document.frmPublication.strTitle.value = document.getElementsByTagName(\"title\")[0].innerHTML;\n    document.frmPublication.strUrl.value = document.URL;\n</script>\n        \n<fieldset class=\"mrgn-tp-md mrgn-bttm-lg\">\t\t\n\n<legend class=\"field-name required\"><span class=\"field-name\">Le format dans lequel vous souhaitez recevoir le rapport</span> <strong class=\"required\">(obligatoire)</strong></legend>\n\n<div class=\"checkbox\">\n<label for=\"strPdf\"><input type=\"checkbox\" name=\"formatsent\" id=\"strPdf\" value=\"pdf\" required=\"required\">Fichier \u00e9lectronique PDF (format de document portable) envoy\u00e9 par courriel</label>\n</div>\n\n<div class=\"checkbox\">\n<label for=\"strText\"><input type=\"checkbox\" name=\"formatsent\" id=\"strText\" value=\"text\">Fichier \u00e9lectronique RTF (<span lang=\"en\">Rich Text Format</span>) envoy\u00e9 par courriel</label>\n</div>\n\n<div class=\"checkbox\">\n<label for=\"strBraille\"><input type=\"checkbox\" name=\"formatsent\" id=\"strBraille\" value=\"braille\">Copie braille envoy\u00e9e par la poste</label>\n</div>\n\n<div class=\"checkbox\">\n<label for=\"strPaper\"><input type=\"checkbox\" name=\"formatsent\" id=\"strPaper\" value=\"paper\">Copie papier envoy\u00e9e par la poste</label>\n</div>\n\n</fieldset>\t\n\n<fieldset class=\"mrgn-tp-md mrgn-bttm-lg\">\t\t\n\n<legend class=\"field-name\">Vos coordonn\u00e9es</legend>\n\n<label class=\"keyValue\" for=\"name\"></label>\n<input class=\"keyValue\" autocomplete=\"off\" type=\"text\" id=\"name\" name=\"name\">\n<label class=\"keyValue\" for=\"email\"></label>\n<input class=\"keyValue\" autocomplete=\"off\" type=\"email\" id=\"email\" name=\"email\"> \n\n<div class=\"form-group\">\n<label for=\"strFirstName\" class=\"required col-md-4 control-label\"><span class=\"field-name\">Pr\u00e9nom :</span> <strong class=\"required\">(obligatoire)</strong></label>\n<div class=\"col-md-8\">\n<input class=\"form-control\" id=\"strFirstName\" name=\"strFirstName\" type=\"text\" required=\"required\" pattern=\".{2,}\" data-rule-minlength=\"2\">\n</div>\n</div>\n            \n<div class=\"form-group\">\n<label for=\"strLastName\" class=\"required col-md-4 control-label\"><span class=\"field-name\">Nom :</span> <strong class=\"required\">(obligatoire)</strong></label>\n<div class=\"col-md-8\">\n<input class=\"form-control\" id=\"strLastName\" name=\"strLastName\" type=\"text\" required=\"required\" pattern=\".{2,}\" data-rule-minlength=\"2\">\n</div>\n</div>\n\n<div class=\"form-group\">\n<label for=\"strEmail\" class=\"required col-md-4 control-label\"><span class=\"field-name\">Adresse de courriel :</span> \u00a0<strong class=\"required\">(obligatoire)</strong></label>\n<div class=\"col-md-8\">\n<input class=\"form-control\" id=\"strEmail\" name=\"strEmail\" type=\"email\" required=\"required\">\n</div>\n</div>\n\n<div class=\"form-group\">\n<label for=\"strConfirmEmail\" class=\"required col-md-4 control-label\"><span class=\"field-name\">Confirmer Adresse de courriel :</span>  <strong class=\"required\">(obligatoire)</strong></label>\n<div class=\"col-md-8\">\n<input class=\"form-control\" id=\"strConfirmEmail\" name=\"strConfirmEmail\" type=\"email\" data-rule-equalto=\"#strEmail\" required=\"required\">\n</div>\n</div>\n\n<div class=\"form-group mrgn-tp-md\">\n<label for=\"lstdescribe\" class=\"required col-md-4 control-label\"><span class=\"field-name\">Comment vous vous d\u00e9criviez?</span> <strong class=\"required\">(obligatoire)</strong></label>\n<div class=\"col-md-8\">\n<select class=\"form-control\" id=\"lstdescribe\" name=\"lstdescribe\" required=\"required\">\n<option label=\"Choisir parmi la liste\"></option>\n<option value=\"Acad\u00e9mie\">Acad\u00e9mie</option>\n<option value=\"Association sectorielle\">Association sectorielle</option>  \n<option value=\"Autres institutions du gouvernement\">Autres institutions du gouvernement</option>\n<option value=\"Consommateur/Grand public\">Consommateur / Grand public</option>\n<option value=\"Groupe de consommateur\">Groupe de consommateur</option>\n<option value=\"Industrie/Secteur commercial\">Industrie / Secteur commercial</option>\n</select>\n</div>\n</div>\t\n\n<div class=\"form-group\">\n<label for=\"strAddress1\" class=\"col-md-4 control-label\"><span class=\"field-name\">Adresse 1 :</span></label>\n<div class=\"col-md-8\">\n<input class=\"form-control\" id=\"strAddress1\" name=\"strAddress1\" type=\"text\">\n</div>\n</div>\n\n<div class=\"form-group\">\n<label for=\"strAddress2\" class=\"col-md-4 control-label\"><span class=\"field-name\">Adresse 2 :</span></label>\n<div class=\"col-md-8\">\n<input class=\"form-control\" id=\"strAddress2\" name=\"strAddress2\" type=\"text\">\n</div>\n</div>\n\n<div class=\"form-group\">\n<label for=\"strCity\" class=\"col-md-4 control-label\"><span class=\"field-name\">Ville :</span></label>\n<div class=\"col-md-8\">\n<input class=\"form-control\" id=\"strCity\" name=\"strCity\" type=\"text\">\n</div>\n</div>\n\n<div class=\"form-group\">\n<label for=\"strProvince\" class=\"col-md-4 control-label\"><span class=\"field-name\">Province :</span></label>\n<div class=\"col-md-8\">\n<input class=\"form-control\" id=\"strProvince\" name=\"strProvince\" type=\"text\">\n</div>\n</div>\n\n<div class=\"form-group\">\n<label for=\"strCountry\" class=\"col-md-4 control-label\"><span class=\"field-name\">Pays : </span></label>\n<div class=\"col-md-8\">\n<input class=\"form-control\" id=\"strCountry\" name=\"strCountry\" type=\"text\">\n</div>\n</div>\n\n<div class=\"form-group\">\n<label for=\"strPostal\" class=\"col-md-4 control-label\"><span class=\"field-name\">Code postal : </span></label>\n<div class=\"col-md-8\">\n<input class=\"form-control\" id=\"strPostal\" name=\"strPostal\" type=\"text\">\n</div>\n</div>\n\n</fieldset>\t\n\n<input value=\"Soumettre votre demande\" id=\"btnSubmit\" name=\"btnSubmit\" class=\"btn btn-primary\" type=\"submit\"> \n<input value=\"Effacez tous les renseignements\" id=\"btnReset\" name=\"btnReset\" class=\"btn btn-default\" type=\"reset\">\n\n</form>\n</div>\n<script src=\"https://ajax.googleapis.com/ajax/libs/jquery/2.1.1/jquery.min.js\"></script>\n<script type=\"text/javascript\">\n$(document).ready (function(){\n\tif($(\"#strPaper\").checked || $(\"#strBraille\").checked)\n\t{\n\t\tPaperBrailleChecked();\n\t}\n});\n\n$(document).on(\"change\", \"#strBraille\", function(){\n\tif($(\"#strBraille\").is(\":checked\"))\n\t{\n\t\tPaperBrailleChecked();\n\t}\n\telse if(!($(\"#strPaper\").is(\":checked\")))\n\t{\n\t\tPaperBrailleUnChecked();\n\t}\n});\n\n$(document).on(\"change\", \"#strPaper\", function(){\n\tif($(\"#strPaper\").is(\":checked\"))\n\t{\n\t\tPaperBrailleChecked();\n\t}\n\telse if(!($(\"#strBraille\").is(\":checked\")))\n\t{\n\t\tPaperBrailleUnChecked();\n\t}\n});\n\nfunction PaperBrailleChecked()\n{\n\t$(\"#strAddress1\").attr(\"required\", \"true\");\n\t$(\"#strCity\").attr(\"required\", \"true\");\n\t$(\"#strProvince\").attr(\"required\", \"true\");\n\t$(\"#strCountry\").attr(\"required\", \"true\");\n\t$(\"#strPostal\").attr(\"required\", \"true\");\n}\n\nfunction PaperBrailleUnChecked()\n{\n\t$(\"#strAddress1\").removeAttr(\"required\");\n\t$(\"#strCity\").removeAttr(\"required\");\n\t$(\"#strProvince\").removeAttr(\"required\");\n\t$(\"#strCountry\").removeAttr(\"required\");\n\t$(\"#strPostal\").removeAttr(\"required\");\n}\n</script>\r\n\r\n<div class=\"row\">\r\n \r\n\t\t\t\r\n\t\t\t\r\n\r\n\t\t\r\n\t\r\n</div>"
    },
    "success": true,
    "chat_wizard": false
}