{
    "dcr_id": "1389132104276",
    "title": {
        "en": "2008-2009 Dioxins in Guar Gum from India",
        "fr": "2008-2009 Dioxines dans la gomme de guar en provenance de l'Inde"
    },
    "html_modified": "2024-03-12 3:56:34 PM",
    "modified": "2018-09-04",
    "issued": "2018-06-05",
    "teamsite_location": {
        "en": "/default/main/inspection/cont-cont/food-aliments/STAGING/templatedata/comn-comn/forms-formes/data/chem_residue_reports_2008-2009_dioxin_1389132104276_eng",
        "fr": "/default/main/inspection/cont-cont/food-aliments/STAGING/templatedata/comn-comn/forms-formes/data/chem_residue_reports_2008-2009_dioxin_1389132104276_fra"
    },
    "ia_id": "1389132105588",
    "parent_ia_id": "1453327843364",
    "chronicletopic": {
        "en": "",
        "fr": ""
    },
    "chroniclecontent": {
        "en": "",
        "fr": ""
    },
    "chronicleaudience": {
        "en": "",
        "fr": ""
    },
    "sfcrdocumenttype": {
        "en": "",
        "fr": ""
    },
    "sfcraudience": {
        "en": "",
        "fr": ""
    },
    "sfcrmethodofproduction": {
        "en": "",
        "fr": ""
    },
    "activity": {
        "en": "",
        "fr": ""
    },
    "commodity": {
        "en": "",
        "fr": ""
    },
    "program": {
        "en": "",
        "fr": ""
    },
    "search_type": "other",
    "parent_node_id": "1453327843364",
    "layout_name": "content page 1 column",
    "breadcrumb": {
        "en": "2008-2009 Dioxins in Guar Gum from India",
        "fr": "2008-2009 Dioxines dans la gomme de guar en provenance de l'Inde"
    },
    "label": {
        "en": "2008-2009 Dioxins in Guar Gum from India",
        "fr": "2008-2009 Dioxines dans la gomme de guar en provenance de l'Inde"
    },
    "templatetype": "content page 1 column",
    "node_id": "1389132105588",
    "managing_branch": "comn",
    "type_name": "forms-formes",
    "dcr_type": "forms-formes",
    "parent_dcr_id": "1453324778043",
    "has_dcr_id": true,
    "lang": "en",
    "could_not_load": 0,
    "refaire": false,
    "interwoven_url": {
        "en": "/food-safety-for-industry/food-chemistry-and-microbiology/food-safety-testing-reports-and-journal-articles/dioxins/",
        "fr": "/salubrite-alimentaire-pour-l-industrie/chimie-et-microbiologie-alimentaires/rapports-d-analyse-et-articles-de-revues-sur-la-sa/dioxines/"
    },
    "meta": {
        "viewport": {
            "en": "width=device-width,initial-scale=1",
            "fr": "width=device-width,initial-scale=1"
        },
        "service": {
            "en": "CFIA-ACIA",
            "fr": "CFIA-ACIA"
        },
        "accessRights": {
            "en": "2",
            "fr": "2"
        },
        "title": {
            "en": "2008-2009 Dioxins in Guar Gum from India",
            "fr": "2008-2009 Dioxines dans la gomme de guar en provenance de l'Inde"
        },
        "description": {
            "en": "The Food Safety Action Plan (FSAP) aims to modernize and enhance Canada's food safety system. As part of the FSAP enhanced surveillance initiative, targeted surveys are used to test various foods for specific hazards.",
            "fr": "Le Plan d'action pour assurer la s\u00e9curit\u00e9 des produits alimentaires (PAASPA) vise \u00e0 moderniser et \u00e0 am\u00e9liorer le syst\u00e8me d'assurance de la salubrit\u00e9 des aliments du Canada. Dans le cadre de l'initiative de surveillance accrue du PAASPA, des enqu\u00eates cibl\u00e9es sont effectu\u00e9es en vue de d\u00e9celer des dangers pr\u00e9cis dans divers aliments."
        },
        "keywords": {
            "en": "chemical residues, testing, sampling, reporting, Food Safety Action Plan, FSAP, dioxins, dioxin-like compounds, vegetable oils, cheese",
            "fr": "R\u00e9sidus chimiques, essai, pr\u00e9l\u00e8vement, rapports, Plan d'action pour assurer la s\u00e9curit\u00e9 des produits alimentaires, PAASPA, r\u00e9sidus de dioxines, compos\u00e9s semblables, huiles v\u00e9g\u00e9tales, fromages"
        },
        "dcterms.subject": {
            "en": "agri-food products,assessment,food inspection,food safety,inspection,scientific research",
            "fr": "produit agro-alimentaire,\u00e9valuation,inspection des aliments,salubrit\u00e9 des aliments,inspection,recherche scientifique"
        },
        "creator": {
            "en": "Government of Canada,Canadian Food Inspection Agency,Food Safety Science Directorate",
            "fr": "Gouvernement du Canada,Agence canadienne d'inspection des aliments,Direction des sciences de la salubrit\u00e9 des aliments"
        },
        "language": {
            "en": "eng",
            "fr": "fra"
        },
        "issued": {
            "en": "2018-06-05",
            "fr": "2018-06-05"
        },
        "modified": {
            "en": "2018-09-04",
            "fr": "2018-09-04"
        },
        "type": {
            "en": "reference material",
            "fr": "mat\u00e9riel de r\u00e9f\u00e9rence"
        },
        "audience": {
            "en": "business,general public,government",
            "fr": "entreprises,grand public,gouvernement"
        },
        "name": {
            "en": "Government of Canada",
            "fr": "Gouvernement du Canada"
        },
        "areaServed": {
            "en": "Canada",
            "fr": "Canada"
        }
    },
    "h1": {
        "en": "2008-2009 Dioxins in Guar Gum from India",
        "fr": "2008-2009 Dioxines dans la gomme de guar en provenance de l'Inde"
    },
    "js": {
        "en": "<script>\n    document.frmPublication.strTitle.value = document.getElementsByTagName(\"title\")[0].innerHTML;\n    document.frmPublication.strUrl.value = document.URL;\n</script>/* --------------------- MORE JAVASCRIPT ------------------- */<script>\n$(document).ready (function(){\n\tif($(\"#strPaper\").checked || $(\"#strBraille\").checked)\n\t{\n\t\tPaperBrailleChecked();\n\t}\n});\n\n$(document).on(\"change\", \"#strBraille\", function(){\n\tif($(\"#strBraille\").is(\":checked\"))\n\t{\n\t\tPaperBrailleChecked();\n\t}\n\telse if(!($(\"#strPaper\").is(\":checked\")))\n\t{\n\t\tPaperBrailleUnChecked();\n\t}\n});\n\n$(document).on(\"change\", \"#strPaper\", function(){\n\tif($(\"#strPaper\").is(\":checked\"))\n\t{\n\t\tPaperBrailleChecked();\n\t}\n\telse if(!($(\"#strBraille\").is(\":checked\")))\n\t{\n\t\tPaperBrailleUnChecked();\n\t}\n});\n\nfunction PaperBrailleChecked()\n{\n\t$(\"#strAddress1\").attr(\"required\", \"true\");\n\t$(\"#strCity\").attr(\"required\", \"true\");\n\t$(\"#strProvince\").attr(\"required\", \"true\");\n\t$(\"#strCountry\").attr(\"required\", \"true\");\n\t$(\"#strPostal\").attr(\"required\", \"true\");\n}\n\nfunction PaperBrailleUnChecked()\n{\n\t$(\"#strAddress1\").removeAttr(\"required\");\n\t$(\"#strCity\").removeAttr(\"required\");\n\t$(\"#strProvince\").removeAttr(\"required\");\n\t$(\"#strCountry\").removeAttr(\"required\");\n\t$(\"#strPostal\").removeAttr(\"required\");\n}\n</script>",
        "fr": "<script>\n    document.frmPublication.strTitle.value = document.getElementsByTagName(\"title\")[0].innerHTML;\n    document.frmPublication.strUrl.value = document.URL;\n</script>/* --------------------- MORE JAVASCRIPT ------------------- */<script>\n$(document).ready (function(){\n\tif($(\"#strPaper\").checked || $(\"#strBraille\").checked)\n\t{\n\t\tPaperBrailleChecked();\n\t}\n});\n\n$(document).on(\"change\", \"#strBraille\", function(){\n\tif($(\"#strBraille\").is(\":checked\"))\n\t{\n\t\tPaperBrailleChecked();\n\t}\n\telse if(!($(\"#strPaper\").is(\":checked\")))\n\t{\n\t\tPaperBrailleUnChecked();\n\t}\n});\n\n$(document).on(\"change\", \"#strPaper\", function(){\n\tif($(\"#strPaper\").is(\":checked\"))\n\t{\n\t\tPaperBrailleChecked();\n\t}\n\telse if(!($(\"#strBraille\").is(\":checked\")))\n\t{\n\t\tPaperBrailleUnChecked();\n\t}\n});\n\nfunction PaperBrailleChecked()\n{\n\t$(\"#strAddress1\").attr(\"required\", \"true\");\n\t$(\"#strCity\").attr(\"required\", \"true\");\n\t$(\"#strProvince\").attr(\"required\", \"true\");\n\t$(\"#strCountry\").attr(\"required\", \"true\");\n\t$(\"#strPostal\").attr(\"required\", \"true\");\n}\n\nfunction PaperBrailleUnChecked()\n{\n\t$(\"#strAddress1\").removeAttr(\"required\");\n\t$(\"#strCity\").removeAttr(\"required\");\n\t$(\"#strProvince\").removeAttr(\"required\");\n\t$(\"#strCountry\").removeAttr(\"required\");\n\t$(\"#strPostal\").removeAttr(\"required\");\n}\n</script>"
    },
    "mode_html": "no_editor_full",
    "body": {
        "en": "        \r\n        \n<h2>Summary</h2>\n<p>The Food Safety Action Plan (FSAP) aims to modernize and enhance Canada's food safety system. As part of the <abbr title=\"Food Safety Action Plan\">FSAP</abbr> enhanced surveillance initiative, targeted surveys are used to test various foods for specific hazards.</p>\n<p>Guar gum is a food additive commonly used as an emulsifier and  stabilizer in processed food. It is generally a minor ingredient in food  stuffs but is found in a wide variety of food products. In 2007, the European  Commission discovered serious contamination of guar gum with dioxins and pentachlorophenol originating from India. As a result, a targeted survey  was initiated in order to assess the levels of dioxin in guar gum originating from India.</p>\n<p>The main objectives of the dioxins in guar gum survey were:</p>\n<ul>\n<li>To obtain a snapshot of the levels of dioxins in guar gum originating from India, an origin with a history of contamination.</li>\n<li>To assess whether there is merit in continuing to monitor guar gum imported from India for dioxins.</li>\n</ul>\n<p>A total of 20 samples of guar gum originating from India were  collected in this survey. Guar gum was sampled from importers who were  importing guar gum for use in food or feed. All samples were analyzed in a  Canadian Food Inspection Agency (CFIA) laboratory for dioxins, furans  and polychlorinated biphenyls (PCBs).</p>\n<p>Of the 20 samples tested, all contained measurable residues of  dioxins. There is no standard for the presence of dioxins in food in  Canada. However, as it is expected that dioxin may be present at very low  levels, it has been suggested by the European Commission (EC) that a  toxic equivalent (TEQ) of 0.75\u00a0<abbr title=\"nanograms\">ng</abbr> <abbr title=\"Toxic equivalents per kilogram\">TEQ/kg</abbr> product be adopted in order to determine if guar gum samples contain higher than background  levels of dioxin contamination. All but one of the samples analyzed had total <abbr title=\"toxic equivalent\">TEQ</abbr> dioxin levels lower than the <abbr title=\"European Commission\">EC</abbr>'s suggested standard. This one sample had 2.731 <abbr title=\"nanogram\">ng</abbr> <abbr title=\"Toxic equivalents per kilogram\">TEQ/kg</abbr> total weight.</p>\n<p>Bearing in mind that the Canadian Food and Drug Regulations (FDR) lists the maximum use rate of guar gum as an ingredient in  processed foods as 1.0%, levels of dioxin and dioxin-like chemicals in guar gum  samples would not pose an unacceptable health risk provided the guar gum  is used in accordance with provisions found within the <abbr title=\"Food and Drug Regulations\">FDR</abbr>.</p>\r\n<style>\n/* required style */\n    .keyValue{\n\tdisplay: none !important;\n        visibility: hidden !important;\n</style>\n<h2>Request of Complete Report</h2>\n<p>The complete text of this report is available upon request.</p>\n\n<div class=\"wb-frmvld\">\n\n<form class=\"form-horizontal\" role=\"form\" method=\"post\" action=\"/active/netapp/comment/publicationposte.aspx#wb-cont\" name=\"frmPublication\">\n<input id=\"emailad0\" name=\"to\" class=\"hidden\" type=\"hidden\" aria-hidden=\"true\" value=\"4rDhJt18lWD3JNn2erkOfl2oeRv+4fdIbnn38N+J3ItC5SZq8bFWUpD0Cl5zu5mhdN9ttCF5/HOla55DiDPJQxAbIq+ELLs7j4Kx+5F+EH8=\">\n<input name=\"strLang\" type=\"hidden\" value=\"English\">\n<input name=\"strSubject\" type=\"hidden\" value=\"Chemical Residues / Microbiology Report Request\">\n<input name=\"strTitle\" type=\"hidden\" value=\"title\">\n<input name=\"strUrl\" type=\"hidden\" value=\"url\">\n<script type=\"text/javascript\">\n    document.frmPublication.strTitle.value = document.getElementsByTagName(\"title\")[0].innerHTML;\n    document.frmPublication.strUrl.value = document.URL;\n</script>\n        \n<fieldset class=\"mrgn-tp-md mrgn-bttm-lg\">\t\t\n\n<legend class=\"field-name required\"><span class=\"field-name\">The format in which you would like to receive the report</span> <strong class=\"required\">(required)</strong></legend>\n\n<div class=\"checkbox\">\n<label for=\"strPdf\"><input type=\"checkbox\" name=\"formatsent\" id=\"strPdf\" value=\"pdf\" required=\"required\">PDF (Portable Document Format) electronic file sent to you by email</label>\n</div>\n\n<div class=\"checkbox\">\n<label for=\"strText\"><input type=\"checkbox\" name=\"formatsent\" id=\"strText\" value=\"text\">RTF (Rich Text Format) electronic file sent to you by email</label>\n</div>\n\n<div class=\"checkbox\">\n<label for=\"strBraille\"><input type=\"checkbox\" name=\"formatsent\" id=\"strBraille\" value=\"braille\">Braille copy sent to you by mail</label>\n</div>\n\n<div class=\"checkbox\">\n<label for=\"strPaper\"><input type=\"checkbox\" name=\"formatsent\" id=\"strPaper\" value=\"paper\">Paper copy sent to you by mail</label>\n</div>\n\n</fieldset>\t\n\n<fieldset class=\"mrgn-tp-md mrgn-bttm-lg\">\t\t\n\n<legend class=\"field-name\">Your contact information</legend>\n\n<label class=\"keyValue\" for=\"name\"></label>\n<input class=\"keyValue\" autocomplete=\"off\" type=\"text\" id=\"name\" name=\"name\">\n<label class=\"keyValue\" for=\"email\"></label>\n<input class=\"keyValue\" autocomplete=\"off\" type=\"email\" id=\"email\" name=\"email\"> \n\n<div class=\"form-group\">\n<label for=\"strFirstName\" class=\"required col-md-4 control-label\"><span class=\"field-name\">First name:</span> <strong class=\"required\">(required)</strong></label>\n<div class=\"col-md-8\">\n<input class=\"form-control\" id=\"strFirstName\" name=\"strFirstName\" type=\"text\" required=\"required\" pattern=\".{2,}\" data-rule-minlength=\"2\">\n</div>\n</div>\n            \n<div class=\"form-group\">\n<label for=\"strLastName\" class=\"required col-md-4 control-label\"><span class=\"field-name\">Last name:</span> <strong class=\"required\">(required)</strong></label>\n<div class=\"col-md-8\">\n<input class=\"form-control\" id=\"strLastName\" name=\"strLastName\" type=\"text\" required=\"required\" pattern=\".{2,}\" data-rule-minlength=\"2\">\n</div>\n</div>\n\n<div class=\"form-group\">\n<label for=\"strEmail\" class=\"required col-md-4 control-label\"><span class=\"field-name\">Email address:</span>  <strong class=\"required\">(required)</strong></label>\n<div class=\"col-md-8\">\n<input class=\"form-control\" id=\"strEmail\" name=\"strEmail\" type=\"email\" required=\"required\">\n</div>\n</div>\n\n<div class=\"form-group\">\n<label for=\"strConfirmEmail\" class=\"required col-md-4 control-label\"><span class=\"field-name\">Confirm email address:</span>  <strong class=\"required\">(required)</strong></label>\n<div class=\"col-md-8\">\n<input class=\"form-control\" id=\"strConfirmEmail\" name=\"strConfirmEmail\" type=\"email\" data-rule-equalto=\"#strEmail\" required=\"required\">\n</div>\n</div>\n\n<div class=\"form-group mrgn-tp-md\">\n<label for=\"lstdescribe\" class=\"required col-md-4 control-label\"><span class=\"field-name\">How would you describe yourself?</span> <strong class=\"required\">(required)</strong></label>\n<div class=\"col-md-8\">\n<select class=\"form-control\" id=\"lstdescribe\" name=\"lstdescribe\" required=\"required\">\n<option label=\"Select from this list\"></option>\n<option value=\"Academia\">Academia</option>\n<option value=\"Consumer Association\">Consumer Association</option>\n<option value=\"Consumer/General Public\">Consumer / General Public</option>\n<option value=\"Industry Association\">Industry Association</option>\n<option value=\"Industry/Commercial Sector\">Industry / Commercial Sector</option>\n<option value=\"Other Government Departments\">Other Government Departments</option>\t\t\t\n</select>\n</div>\n</div>\t\n\n<div class=\"form-group\">\n<label for=\"strAddress1\" class=\"col-md-4 control-label\"><span class=\"field-name\">Address 1:</span></label>\n<div class=\"col-md-8\">\n<input class=\"form-control\" id=\"strAddress1\" name=\"strAddress1\" type=\"text\">\n</div>\n</div>\n\n<div class=\"form-group\">\n<label for=\"strAddress2\" class=\"col-md-4 control-label\"><span class=\"field-name\">Address 2:</span></label>\n<div class=\"col-md-8\">\n<input class=\"form-control\" id=\"strAddress2\" name=\"strAddress2\" type=\"text\">\n</div>\n</div>\n\n<div class=\"form-group\">\n<label for=\"strCity\" class=\"col-md-4 control-label\"><span class=\"field-name\">City:</span></label>\n<div class=\"col-md-8\">\n<input class=\"form-control\" id=\"strCity\" name=\"strCity\" type=\"text\">\n</div>\n</div>\n\n<div class=\"form-group\">\n<label for=\"strProvince\" class=\"col-md-4 control-label\"><span class=\"field-name\">Province:</span></label>\n<div class=\"col-md-8\">\n<input class=\"form-control\" id=\"strProvince\" name=\"strProvince\" type=\"text\">\n</div>\n</div>\n\n<div class=\"form-group\">\n<label for=\"strCountry\" class=\"col-md-4 control-label\"><span class=\"field-name\">Country:</span></label>\n<div class=\"col-md-8\">\n<input class=\"form-control\" id=\"strCountry\" name=\"strCountry\" type=\"text\">\n</div>\n</div>\n\n<div class=\"form-group\">\n<label for=\"strPostal\" class=\"col-md-4 control-label\"><span class=\"field-name\">Postal Code:</span></label>\n<div class=\"col-md-8\">\n<input class=\"form-control\" id=\"strPostal\" name=\"strPostal\" type=\"text\">\n</div>\n</div>\n\n</fieldset>\t\n\n<input value=\"Submit Your Request\" id=\"btnSubmit\" name=\"btnSubmit\" class=\"btn btn-primary\" type=\"submit\"> \n<input value=\"Clear All Information\" id=\"btnReset\" name=\"btnReset\" class=\"btn btn-default\" type=\"reset\">\n\n</form>\n</div>\n<script src=\"https://ajax.googleapis.com/ajax/libs/jquery/2.1.1/jquery.min.js\"></script>\n<script type=\"text/javascript\">\n$(document).ready (function(){\n\tif($(\"#strPaper\").checked || $(\"#strBraille\").checked)\n\t{\n\t\tPaperBrailleChecked();\n\t}\n});\n\n$(document).on(\"change\", \"#strBraille\", function(){\n\tif($(\"#strBraille\").is(\":checked\"))\n\t{\n\t\tPaperBrailleChecked();\n\t}\n\telse if(!($(\"#strPaper\").is(\":checked\")))\n\t{\n\t\tPaperBrailleUnChecked();\n\t}\n});\n\n$(document).on(\"change\", \"#strPaper\", function(){\n\tif($(\"#strPaper\").is(\":checked\"))\n\t{\n\t\tPaperBrailleChecked();\n\t}\n\telse if(!($(\"#strBraille\").is(\":checked\")))\n\t{\n\t\tPaperBrailleUnChecked();\n\t}\n});\n\nfunction PaperBrailleChecked()\n{\n\t$(\"#strAddress1\").attr(\"required\", \"true\");\n\t$(\"#strCity\").attr(\"required\", \"true\");\n\t$(\"#strProvince\").attr(\"required\", \"true\");\n\t$(\"#strCountry\").attr(\"required\", \"true\");\n\t$(\"#strPostal\").attr(\"required\", \"true\");\n}\n\nfunction PaperBrailleUnChecked()\n{\n\t$(\"#strAddress1\").removeAttr(\"required\");\n\t$(\"#strCity\").removeAttr(\"required\");\n\t$(\"#strProvince\").removeAttr(\"required\");\n\t$(\"#strCountry\").removeAttr(\"required\");\n\t$(\"#strPostal\").removeAttr(\"required\");\n}\n</script>\r\n\r\n\r\n\r\n<div class=\"row\">\r\n \r\n\t\r\n\t\t\t\r\n\r\n<div class=\"col-xm-12 pagedetails container\">\r\n\t\t\t\t\r\n\r\n</div>\r\n\t\r\n</div>",
        "fr": "\r\n        \r\n        \n<h2>R\u00e9sum\u00e9</h2>\n<p>Le Plan d'action pour assurer la s\u00e9curit\u00e9 des produits alimentaires (PAASPA) vise \u00e0 moderniser et \u00e0 am\u00e9liorer le syst\u00e8me d'assurance de la salubrit\u00e9 des aliments du Canada. Dans le cadre de l'initiative de surveillance accrue du <abbr title=\"Plan d'action pour assurer la s\u00e9curit\u00e9 des produits alimentaires\">PAASPA</abbr>, des enqu\u00eates cibl\u00e9es sont effectu\u00e9es en vue de d\u00e9celer des dangers pr\u00e9cis dans divers aliments.</p>\n<p>La gomme de guar est un additif alimentaire couramment utilis\u00e9 comme \u00e9mulsifiant et agent stabilisant dans les aliments transform\u00e9s. Habituellement, il s'agit d'un ingr\u00e9dient mineur dans les produits destin\u00e9s \u00e0 la consommation humaine, toutefois, la gomme de guar se trouve dans une grande vari\u00e9t\u00e9 de produits alimentaires. En 2007, la Commission europ\u00e9enne a d\u00e9couvert de la gomme de guar en provenance de l'Inde grandement contamin\u00e9e par des dioxines et du pentachloroph\u00e9nol. Par cons\u00e9quent, une enqu\u00eate cibl\u00e9e a \u00e9t\u00e9 lanc\u00e9e en vue de doser les dioxines dans la gomme de guar en provenance de l'Inde.</p>\n<p>Les principaux objectifs de l'enqu\u00eate portant sur les dioxines dans la gomme de guar \u00e9taient\u00a0:</p>\n<ul>\n<li>d'avoir un portrait instantan\u00e9 des teneurs en dioxines de la gomme de guar en provenance de l'Inde, un lieu d'origine reconnu pour des probl\u00e8mes de contamination;</li>\n<li>d'\u00e9valuer s'il est opportun de continuer \u00e0 v\u00e9rifier la pr\u00e9sence de dioxines dans la gomme de guar import\u00e9e de l'Inde.</li>\n</ul>\n<p>En tout, 20\u00a0\u00e9chantillons de gomme de guar en provenance de l'Inde ont  \u00e9t\u00e9 recueillis aux fins de la pr\u00e9sente enqu\u00eate. Les \u00e9chantillons ont \u00e9t\u00e9 obtenus aupr\u00e8s d'entreprises qui  importaient la gomme de guar pour l'alimentation humaine ou animale. Un laboratoire de l'Agence canadienne d'inspection  des aliments (ACIA) a analys\u00e9 tous les \u00e9chantillons pour en doser les dioxines, les furanes et les biph\u00e9nyles polychlor\u00e9s (PCB).</p>\n<p>Les 20\u00a0\u00e9chantillons analys\u00e9s contenaient tous des r\u00e9sidus mesurables de dioxines. Au Canada, aucune norme n'existe \u00e0 l'\u00e9gard des dioxines dans les aliments. Toutefois, la Commission europ\u00e9enne (CE) a propos\u00e9 d'adopter un \u00e9quivalent toxique (EQT) de\u00a00,75\u00a0<abbr title=\"nanogramme\">ng</abbr>\u00a0<abbr title=\"\u00e9quivalent toxique par kilogramme\">EQT/kg</abbr> de produit, afin de d\u00e9terminer si les \u00e9chantillons de gomme de guar pr\u00e9sentent des niveaux de contamination en dioxines sup\u00e9rieurs aux concentrations de fond. Tous les \u00e9chantillons analys\u00e9s, \u00e0 l'exception d'un seul, avaient une teneur en dioxine totale <abbr title=\"\u00e9quivalent toxique\">EQT</abbr> inf\u00e9rieure \u00e0 la norme propos\u00e9e par la <abbr title=\"Commission europ\u00e9enne\">CE</abbr>; la concentration de l'\u00e9chantillon qui se d\u00e9marquait \u00e9tait de 2,731\u00a0<abbr title=\"nanogrammes\">ng</abbr> <abbr title=\"\u00e9quivalent toxique par kilogramme\">EQT/kg</abbr> de poids total.</p>\n<p>En tenant compte du fait que le R\u00e8glement sur les aliments et drogues du Canada \u00e9tablit \u00e0\u00a01\u00a0% la proportion maximale de gomme de guar utilis\u00e9e comme ingr\u00e9dient dans les aliments  transform\u00e9s, les teneurs en dioxines et en substances chimiques apparent\u00e9es dans les \u00e9chantillons de gomme de guar analys\u00e9s ne  constituent pas un risque inacceptable pour la sant\u00e9, dans la mesure o\u00f9 la gomme de guar est utilis\u00e9e conform\u00e9ment aux dispositions du  R\u00e8glement sur les aliments et drogues.</p>\r\n<style>\n/* required style */\n    .keyValue{\n\tdisplay: none !important;\n        visibility: hidden !important;\n</style>\n<h2>Demande de rapport complet</h2>\n<p>La version int\u00e9grale du pr\u00e9sent rapport est disponible sur demande.</p>\n\n<div class=\"wb-frmvld\">\n\n<form class=\"form-horizontal\" role=\"form\" method=\"post\" action=\"/active/netapp/comment/publicationposte.aspx#wb-cont\" name=\"frmPublication\">\n\n<input id=\"emailad0\" name=\"to\" class=\"hidden\" type=\"hidden\" aria-hidden=\"true\" value=\"jgHaUWPUp2eYx7CSAF/xs8CabeyoWZKbzbu2dDccqyv+84QfsfKWPqqvjB4A8wWQ4ngtCDsU5UEedqTce18msbaKVvCO9Bvdaz5CC7Sh6/Q=\">\n<input name=\"strLang\" type=\"hidden\" value=\"Francais\">\n<input name=\"strSubject\" type=\"hidden\" value=\"Demande de rapport de r\u00e9sidus chimiques / microbiologie\">\n<input name=\"strTitle\" type=\"hidden\" value=\"title\">\n<input name=\"strUrl\" type=\"hidden\" value=\"url\">\n<script type=\"text/javascript\">\n    document.frmPublication.strTitle.value = document.getElementsByTagName(\"title\")[0].innerHTML;\n    document.frmPublication.strUrl.value = document.URL;\n</script>\n        \n<fieldset class=\"mrgn-tp-md mrgn-bttm-lg\">\t\t\n\n<legend class=\"field-name required\"><span class=\"field-name\">Le format dans lequel vous souhaitez recevoir le rapport</span> <strong class=\"required\">(obligatoire)</strong></legend>\n\n<div class=\"checkbox\">\n<label for=\"strPdf\"><input type=\"checkbox\" name=\"formatsent\" id=\"strPdf\" value=\"pdf\" required=\"required\">Fichier \u00e9lectronique PDF (format de document portable) envoy\u00e9 par courriel</label>\n</div>\n\n<div class=\"checkbox\">\n<label for=\"strText\"><input type=\"checkbox\" name=\"formatsent\" id=\"strText\" value=\"text\">Fichier \u00e9lectronique RTF (<span lang=\"en\">Rich Text Format</span>) envoy\u00e9 par courriel</label>\n</div>\n\n<div class=\"checkbox\">\n<label for=\"strBraille\"><input type=\"checkbox\" name=\"formatsent\" id=\"strBraille\" value=\"braille\">Copie braille envoy\u00e9e par la poste</label>\n</div>\n\n<div class=\"checkbox\">\n<label for=\"strPaper\"><input type=\"checkbox\" name=\"formatsent\" id=\"strPaper\" value=\"paper\">Copie papier envoy\u00e9e par la poste</label>\n</div>\n\n</fieldset>\t\n\n<fieldset class=\"mrgn-tp-md mrgn-bttm-lg\">\t\t\n\n<legend class=\"field-name\">Vos coordonn\u00e9es</legend>\n\n<label class=\"keyValue\" for=\"name\"></label>\n<input class=\"keyValue\" autocomplete=\"off\" type=\"text\" id=\"name\" name=\"name\">\n<label class=\"keyValue\" for=\"email\"></label>\n<input class=\"keyValue\" autocomplete=\"off\" type=\"email\" id=\"email\" name=\"email\"> \n\n<div class=\"form-group\">\n<label for=\"strFirstName\" class=\"required col-md-4 control-label\"><span class=\"field-name\">Pr\u00e9nom :</span> <strong class=\"required\">(obligatoire)</strong></label>\n<div class=\"col-md-8\">\n<input class=\"form-control\" id=\"strFirstName\" name=\"strFirstName\" type=\"text\" required=\"required\" pattern=\".{2,}\" data-rule-minlength=\"2\">\n</div>\n</div>\n            \n<div class=\"form-group\">\n<label for=\"strLastName\" class=\"required col-md-4 control-label\"><span class=\"field-name\">Nom :</span> <strong class=\"required\">(obligatoire)</strong></label>\n<div class=\"col-md-8\">\n<input class=\"form-control\" id=\"strLastName\" name=\"strLastName\" type=\"text\" required=\"required\" pattern=\".{2,}\" data-rule-minlength=\"2\">\n</div>\n</div>\n\n<div class=\"form-group\">\n<label for=\"strEmail\" class=\"required col-md-4 control-label\"><span class=\"field-name\">Adresse de courriel :</span> \u00a0<strong class=\"required\">(obligatoire)</strong></label>\n<div class=\"col-md-8\">\n<input class=\"form-control\" id=\"strEmail\" name=\"strEmail\" type=\"email\" required=\"required\">\n</div>\n</div>\n\n<div class=\"form-group\">\n<label for=\"strConfirmEmail\" class=\"required col-md-4 control-label\"><span class=\"field-name\">Confirmer Adresse de courriel :</span>  <strong class=\"required\">(obligatoire)</strong></label>\n<div class=\"col-md-8\">\n<input class=\"form-control\" id=\"strConfirmEmail\" name=\"strConfirmEmail\" type=\"email\" data-rule-equalto=\"#strEmail\" required=\"required\">\n</div>\n</div>\n\n<div class=\"form-group mrgn-tp-md\">\n<label for=\"lstdescribe\" class=\"required col-md-4 control-label\"><span class=\"field-name\">Comment vous vous d\u00e9criviez?</span> <strong class=\"required\">(obligatoire)</strong></label>\n<div class=\"col-md-8\">\n<select class=\"form-control\" id=\"lstdescribe\" name=\"lstdescribe\" required=\"required\">\n<option label=\"Choisir parmi la liste\"></option>\n<option value=\"Acad\u00e9mie\">Acad\u00e9mie</option>\n<option value=\"Association sectorielle\">Association sectorielle</option>  \n<option value=\"Autres institutions du gouvernement\">Autres institutions du gouvernement</option>\n<option value=\"Consommateur/Grand public\">Consommateur / Grand public</option>\n<option value=\"Groupe de consommateur\">Groupe de consommateur</option>\n<option value=\"Industrie/Secteur commercial\">Industrie / Secteur commercial</option>\n</select>\n</div>\n</div>\t\n\n<div class=\"form-group\">\n<label for=\"strAddress1\" class=\"col-md-4 control-label\"><span class=\"field-name\">Adresse 1 :</span></label>\n<div class=\"col-md-8\">\n<input class=\"form-control\" id=\"strAddress1\" name=\"strAddress1\" type=\"text\">\n</div>\n</div>\n\n<div class=\"form-group\">\n<label for=\"strAddress2\" class=\"col-md-4 control-label\"><span class=\"field-name\">Adresse 2 :</span></label>\n<div class=\"col-md-8\">\n<input class=\"form-control\" id=\"strAddress2\" name=\"strAddress2\" type=\"text\">\n</div>\n</div>\n\n<div class=\"form-group\">\n<label for=\"strCity\" class=\"col-md-4 control-label\"><span class=\"field-name\">Ville :</span></label>\n<div class=\"col-md-8\">\n<input class=\"form-control\" id=\"strCity\" name=\"strCity\" type=\"text\">\n</div>\n</div>\n\n<div class=\"form-group\">\n<label for=\"strProvince\" class=\"col-md-4 control-label\"><span class=\"field-name\">Province :</span></label>\n<div class=\"col-md-8\">\n<input class=\"form-control\" id=\"strProvince\" name=\"strProvince\" type=\"text\">\n</div>\n</div>\n\n<div class=\"form-group\">\n<label for=\"strCountry\" class=\"col-md-4 control-label\"><span class=\"field-name\">Pays : </span></label>\n<div class=\"col-md-8\">\n<input class=\"form-control\" id=\"strCountry\" name=\"strCountry\" type=\"text\">\n</div>\n</div>\n\n<div class=\"form-group\">\n<label for=\"strPostal\" class=\"col-md-4 control-label\"><span class=\"field-name\">Code postal : </span></label>\n<div class=\"col-md-8\">\n<input class=\"form-control\" id=\"strPostal\" name=\"strPostal\" type=\"text\">\n</div>\n</div>\n\n</fieldset>\t\n\n<input value=\"Soumettre votre demande\" id=\"btnSubmit\" name=\"btnSubmit\" class=\"btn btn-primary\" type=\"submit\"> \n<input value=\"Effacez tous les renseignements\" id=\"btnReset\" name=\"btnReset\" class=\"btn btn-default\" type=\"reset\">\n\n</form>\n</div>\n<script src=\"https://ajax.googleapis.com/ajax/libs/jquery/2.1.1/jquery.min.js\"></script>\n<script type=\"text/javascript\">\n$(document).ready (function(){\n\tif($(\"#strPaper\").checked || $(\"#strBraille\").checked)\n\t{\n\t\tPaperBrailleChecked();\n\t}\n});\n\n$(document).on(\"change\", \"#strBraille\", function(){\n\tif($(\"#strBraille\").is(\":checked\"))\n\t{\n\t\tPaperBrailleChecked();\n\t}\n\telse if(!($(\"#strPaper\").is(\":checked\")))\n\t{\n\t\tPaperBrailleUnChecked();\n\t}\n});\n\n$(document).on(\"change\", \"#strPaper\", function(){\n\tif($(\"#strPaper\").is(\":checked\"))\n\t{\n\t\tPaperBrailleChecked();\n\t}\n\telse if(!($(\"#strBraille\").is(\":checked\")))\n\t{\n\t\tPaperBrailleUnChecked();\n\t}\n});\n\nfunction PaperBrailleChecked()\n{\n\t$(\"#strAddress1\").attr(\"required\", \"true\");\n\t$(\"#strCity\").attr(\"required\", \"true\");\n\t$(\"#strProvince\").attr(\"required\", \"true\");\n\t$(\"#strCountry\").attr(\"required\", \"true\");\n\t$(\"#strPostal\").attr(\"required\", \"true\");\n}\n\nfunction PaperBrailleUnChecked()\n{\n\t$(\"#strAddress1\").removeAttr(\"required\");\n\t$(\"#strCity\").removeAttr(\"required\");\n\t$(\"#strProvince\").removeAttr(\"required\");\n\t$(\"#strCountry\").removeAttr(\"required\");\n\t$(\"#strPostal\").removeAttr(\"required\");\n}\n</script>\r\n\r\n<div class=\"row\">\r\n \r\n\t\t\t\r\n\t\t\t\r\n\r\n\t\t\r\n\t\r\n</div>"
    },
    "success": true,
    "chat_wizard": false
}