{
    "dcr_id": "1430828027840",
    "title": {
        "en": "2011-2012 Lead in Dried Herbs and Spices",
        "fr": "2011-2012 Le plomb dans les herbes s\u00e9ch\u00e9es et les \u00e9pices"
    },
    "html_modified": "2024-03-12 3:57:04 PM",
    "modified": "2018-09-04",
    "issued": "2018-06-05",
    "teamsite_location": {
        "en": "/default/main/inspection/cont-cont/food-aliments/STAGING/templatedata/comn-comn/forms-formes/data/chem_residue_reports_2011-2012_lead_herbs_1430828027840_eng",
        "fr": "/default/main/inspection/cont-cont/food-aliments/STAGING/templatedata/comn-comn/forms-formes/data/chem_residue_reports_2011-2012_lead_herbs_1430828027840_fra"
    },
    "ia_id": "1430828028356",
    "parent_ia_id": "1453327843364",
    "chronicletopic": {
        "en": "",
        "fr": ""
    },
    "chroniclecontent": {
        "en": "",
        "fr": ""
    },
    "chronicleaudience": {
        "en": "",
        "fr": ""
    },
    "sfcrdocumenttype": {
        "en": "",
        "fr": ""
    },
    "sfcraudience": {
        "en": "",
        "fr": ""
    },
    "sfcrmethodofproduction": {
        "en": "",
        "fr": ""
    },
    "activity": {
        "en": "",
        "fr": ""
    },
    "commodity": {
        "en": "",
        "fr": ""
    },
    "program": {
        "en": "",
        "fr": ""
    },
    "search_type": "other",
    "parent_node_id": "1453327843364",
    "layout_name": "content page 1 column",
    "breadcrumb": {
        "en": "2011-2012 Lead in Dried Herbs and Spices",
        "fr": "2011-2012 Le plomb dans les herbes s\u00e9ch\u00e9es et les \u00e9pices"
    },
    "label": {
        "en": "2011-2012 Lead in Dried Herbs and Spices",
        "fr": "2011-2012 Le plomb dans les herbes s\u00e9ch\u00e9es et les \u00e9pices"
    },
    "templatetype": "content page 1 column",
    "node_id": "1430828028356",
    "managing_branch": "comn",
    "type_name": "forms-formes",
    "dcr_type": "forms-formes",
    "parent_dcr_id": "1453324778043",
    "has_dcr_id": true,
    "lang": "en",
    "could_not_load": 0,
    "refaire": false,
    "interwoven_url": {
        "en": "/food-safety-for-industry/food-chemistry-and-microbiology/food-safety-testing-reports-and-journal-articles/dried-herbs-and-spices/",
        "fr": "/salubrite-alimentaire-pour-l-industrie/chimie-et-microbiologie-alimentaires/rapports-d-analyse-et-articles-de-revues-sur-la-sa/herbes-sechees-et-les-epices/"
    },
    "meta": {
        "viewport": {
            "en": "width=device-width,initial-scale=1",
            "fr": "width=device-width,initial-scale=1"
        },
        "service": {
            "en": "CFIA-ACIA",
            "fr": "CFIA-ACIA"
        },
        "accessRights": {
            "en": "2",
            "fr": "2"
        },
        "title": {
            "en": "2011-2012 Lead in Dried Herbs and Spices",
            "fr": "2011-2012 Le plomb dans les herbes s\u00e9ch\u00e9es et les \u00e9pices"
        },
        "description": {
            "en": "The 2011-2012 FSAP Lead survey targeted domestic and imported dried herbs and spices.",
            "fr": "L\u2019enqu\u00eate de 2011-2012 du PAASPA a cibl\u00e9 les herbes s\u00e9ch\u00e9es et les \u00e9pices, domestiques et import\u00e9es."
        },
        "keywords": {
            "en": "food, food safety, Food Safety Action Plan, targeted survey, FSAP, lead, dried herbs, spices, 2011, 2012",
            "fr": "aliments, salubrit\u00e9 des aliments, Plan d'action pour assurer la s\u00e9curit\u00e9 des produits alimentaires, PAASPA, \u00e9tude cibl\u00e9e, plomb, \u00e9pices, herbes s\u00e9ch\u00e9es, 2011-2012"
        },
        "dcterms.subject": {
            "en": "food,agri-food products,consumer protection,regulation,food safety,safety,testing",
            "fr": "aliment,produit agro-alimentaire,protection du consommateur,r\u00e9glementation,salubrit\u00e9 des aliments,s\u00e9curit\u00e9,test"
        },
        "creator": {
            "en": "Government of Canada,Canadian Food Inspection Agency",
            "fr": "Gouvernement du Canada,Agence canadienne d'inspection des aliments"
        },
        "language": {
            "en": "eng",
            "fr": "fra"
        },
        "issued": {
            "en": "2018-06-05",
            "fr": "2018-06-05"
        },
        "modified": {
            "en": "2018-09-04",
            "fr": "2018-09-04"
        },
        "type": {
            "en": "reference material,report",
            "fr": "mat\u00e9riel de r\u00e9f\u00e9rence,rapport"
        },
        "audience": {
            "en": "business,government,general public",
            "fr": "entreprises,gouvernement,grand public"
        },
        "name": {
            "en": "Government of Canada",
            "fr": "Gouvernement du Canada"
        },
        "areaServed": {
            "en": "Canada",
            "fr": "Canada"
        }
    },
    "h1": {
        "en": "2011-2012 Lead in Dried Herbs and Spices",
        "fr": "2011-2012 Le plomb dans les herbes s\u00e9ch\u00e9es et les \u00e9pices"
    },
    "js": {
        "en": "<script>\n    document.frmPublication.strTitle.value = document.getElementsByTagName(\"title\")[0].innerHTML;\n    document.frmPublication.strUrl.value = document.URL;\n</script>/* --------------------- MORE JAVASCRIPT ------------------- */<script>\n$(document).ready (function(){\n\tif($(\"#strPaper\").checked || $(\"#strBraille\").checked)\n\t{\n\t\tPaperBrailleChecked();\n\t}\n});\n\n$(document).on(\"change\", \"#strBraille\", function(){\n\tif($(\"#strBraille\").is(\":checked\"))\n\t{\n\t\tPaperBrailleChecked();\n\t}\n\telse if(!($(\"#strPaper\").is(\":checked\")))\n\t{\n\t\tPaperBrailleUnChecked();\n\t}\n});\n\n$(document).on(\"change\", \"#strPaper\", function(){\n\tif($(\"#strPaper\").is(\":checked\"))\n\t{\n\t\tPaperBrailleChecked();\n\t}\n\telse if(!($(\"#strBraille\").is(\":checked\")))\n\t{\n\t\tPaperBrailleUnChecked();\n\t}\n});\n\nfunction PaperBrailleChecked()\n{\n\t$(\"#strAddress1\").attr(\"required\", \"true\");\n\t$(\"#strCity\").attr(\"required\", \"true\");\n\t$(\"#strProvince\").attr(\"required\", \"true\");\n\t$(\"#strCountry\").attr(\"required\", \"true\");\n\t$(\"#strPostal\").attr(\"required\", \"true\");\n}\n\nfunction PaperBrailleUnChecked()\n{\n\t$(\"#strAddress1\").removeAttr(\"required\");\n\t$(\"#strCity\").removeAttr(\"required\");\n\t$(\"#strProvince\").removeAttr(\"required\");\n\t$(\"#strCountry\").removeAttr(\"required\");\n\t$(\"#strPostal\").removeAttr(\"required\");\n}\n</script>",
        "fr": "<script>\n    document.frmPublication.strTitle.value = document.getElementsByTagName(\"title\")[0].innerHTML;\n    document.frmPublication.strUrl.value = document.URL;\n</script>/* --------------------- MORE JAVASCRIPT ------------------- */<script>\n$(document).ready (function(){\n\tif($(\"#strPaper\").checked || $(\"#strBraille\").checked)\n\t{\n\t\tPaperBrailleChecked();\n\t}\n});\n\n$(document).on(\"change\", \"#strBraille\", function(){\n\tif($(\"#strBraille\").is(\":checked\"))\n\t{\n\t\tPaperBrailleChecked();\n\t}\n\telse if(!($(\"#strPaper\").is(\":checked\")))\n\t{\n\t\tPaperBrailleUnChecked();\n\t}\n});\n\n$(document).on(\"change\", \"#strPaper\", function(){\n\tif($(\"#strPaper\").is(\":checked\"))\n\t{\n\t\tPaperBrailleChecked();\n\t}\n\telse if(!($(\"#strBraille\").is(\":checked\")))\n\t{\n\t\tPaperBrailleUnChecked();\n\t}\n});\n\nfunction PaperBrailleChecked()\n{\n\t$(\"#strAddress1\").attr(\"required\", \"true\");\n\t$(\"#strCity\").attr(\"required\", \"true\");\n\t$(\"#strProvince\").attr(\"required\", \"true\");\n\t$(\"#strCountry\").attr(\"required\", \"true\");\n\t$(\"#strPostal\").attr(\"required\", \"true\");\n}\n\nfunction PaperBrailleUnChecked()\n{\n\t$(\"#strAddress1\").removeAttr(\"required\");\n\t$(\"#strCity\").removeAttr(\"required\");\n\t$(\"#strProvince\").removeAttr(\"required\");\n\t$(\"#strCountry\").removeAttr(\"required\");\n\t$(\"#strPostal\").removeAttr(\"required\");\n}\n</script>"
    },
    "mode_html": "no_editor_full",
    "body": {
        "en": "        \r\n        \n<h2>Summary</h2>\n\n<p>The Food Safety Action Plan (FSAP) aims to modernize and enhance Canada's food safety system. As part of the <abbr title=\"Food Safety Action Plan\">FSAP</abbr> enhanced surveillance initiative, targeted surveys are used to test various foods for specific hazards.</p>\n\n<p>The diet as a source of lead exposure is documented on the Health Canada web page which states that: \"Lead is a naturally occurring metal found in rock and soil, and also has many industrial applications. Due to both its natural occurrence and long history of global use, lead is present in air, water and soil, as well as in food, drinking water and household dust. Levels of lead in the environment have declined significantly over the past few decades due to the discontinued use of lead in paint, gasoline and the solder used in food cans. Since the phase-out of leaded gasoline and the subsequent reduction of airborne lead, food and drinking water are currently the primary sources of lead exposure to adults within the general population\".</p>\n\n<p>Lead is not permitted to be added to foods sold in Canada; however, due to its widespread presence in the environment, it is detected in all foods, generally at very low levels. Lead can enter the food chain through various pathways, such as uptake from soil into plants. Contamination of food could also occur during food manufacture (<abbr title=\"for example\">e.g.</abbr>, from the use of inappropriate food storage materials, processing equipment, <abbr title=\"et cetera\">etc.</abbr>).</p>\n\n<p>Lead levels in meat, dairy products, eggs, honey, fruits and vegetables (processed and fresh), and fresh herbs are monitored annually under the Canadian Food Inspection Agency's National Chemical Residue Monitoring Program (NRCMP). The <abbr title=\"National Chemical Residue Monitoring Program\">NCRMP</abbr> does not routinely test finished and/or manufactured foods, such as dried herbs and spices. There is limited Canadian data available from other sources (<abbr title=\"that is to say\">i.e.</abbr> Health Canada's Total Diet Study) and high lead levels have been reported for some spices in the United States and in the European Union by the media and in the scientific literature. Therefore, the main objective of the current survey was to generate baseline surveillance data on the level of lead in dried herbs and spices available on the Canadian retail market.</p>\n\n<p>The 2011-2012 <abbr title=\"Food Safety Action Plan\">FSAP</abbr> Lead survey targeted domestic and imported dried herbs and spices. A total of 148 samples were collected from grocery and specialty stores in 11 Canadian cities between <span class=\"nowrap\">April 2011</span> and <span class=\"nowrap\">March 2012</span>. The samples collected included 90 spices and 58 dried herb samples.</p>\n\n<p>All of the 148 samples analyzed contained a detectable level of lead, with concentrations ranging from 0.013 parts per million (ppm) to 8.476\u00a0<abbr title=\"parts per million\">ppm</abbr>. Currently, no maximum level, tolerance, or standard has been established by Health Canada for lead in dried herbs and spices so compliance to a numerical standard could not be assessed.</p>\n\n<p>All foods sold in Canada must comply with Section 4 of the Canadian Food and Drugs Act. In the case of lead, the Government of Canada recognizes that there can be multiple sources of lead in food. Nonetheless, all food industries are expected to minimize the presence of lead by any and all processes and practices available to them. This is consistent with the ALARA (As Low As Reasonably Achievable) principle. Given the wide variety of processes, procedures and sources of raw materials, the means of implementing the <abbr title=\"As Low As Reasonably Achievable\">ALARA</abbr> principle will be company-specific.</p>\n\n<p>All the data generated were shared with Health Canada for use in performing human health risk assessments. Health Canada concluded that the levels of lead found in the dried herbs and spice products tested in this survey were unlikely to pose a health concern. No follow up action was required.</p>\r\n<style>\n/* required style */\n    .keyValue{\n\tdisplay: none !important;\n        visibility: hidden !important;\n</style>\n<h2>Request of Complete Report</h2>\n<p>The complete text of this report is available upon request.</p>\n\n<div class=\"wb-frmvld\">\n\n<form class=\"form-horizontal\" role=\"form\" method=\"post\" action=\"/active/netapp/comment/publicationposte.aspx#wb-cont\" name=\"frmPublication\">\n<input id=\"emailad0\" name=\"to\" class=\"hidden\" type=\"hidden\" aria-hidden=\"true\" value=\"9Rof56fHpW/y6df832NVaJ0z9umGDPdtaPF2cLqIfm43Id5c+QP+rHGWZHuCkLC7F9CKP5Ayn1reSQuD7Hy9aAPJ2uzjx1qWcEUWVdD8Yt8=\">\n<input name=\"strLang\" type=\"hidden\" value=\"English\">\n<input name=\"strSubject\" type=\"hidden\" value=\"Chemical Residues / Microbiology Report Request\">\n<input name=\"strTitle\" type=\"hidden\" value=\"title\">\n<input name=\"strUrl\" type=\"hidden\" value=\"url\">\n<script type=\"text/javascript\">\n    document.frmPublication.strTitle.value = document.getElementsByTagName(\"title\")[0].innerHTML;\n    document.frmPublication.strUrl.value = document.URL;\n</script>\n        \n<fieldset class=\"mrgn-tp-md mrgn-bttm-lg\">\t\t\n\n<legend class=\"field-name required\"><span class=\"field-name\">The format in which you would like to receive the report</span> <strong class=\"required\">(required)</strong></legend>\n\n<div class=\"checkbox\">\n<label for=\"strPdf\"><input type=\"checkbox\" name=\"formatsent\" id=\"strPdf\" value=\"pdf\" required=\"required\">PDF (Portable Document Format) electronic file sent to you by email</label>\n</div>\n\n<div class=\"checkbox\">\n<label for=\"strText\"><input type=\"checkbox\" name=\"formatsent\" id=\"strText\" value=\"text\">RTF (Rich Text Format) electronic file sent to you by email</label>\n</div>\n\n<div class=\"checkbox\">\n<label for=\"strBraille\"><input type=\"checkbox\" name=\"formatsent\" id=\"strBraille\" value=\"braille\">Braille copy sent to you by mail</label>\n</div>\n\n<div class=\"checkbox\">\n<label for=\"strPaper\"><input type=\"checkbox\" name=\"formatsent\" id=\"strPaper\" value=\"paper\">Paper copy sent to you by mail</label>\n</div>\n\n</fieldset>\t\n\n<fieldset class=\"mrgn-tp-md mrgn-bttm-lg\">\t\t\n\n<legend class=\"field-name\">Your contact information</legend>\n\n<label class=\"keyValue\" for=\"name\"></label>\n<input class=\"keyValue\" autocomplete=\"off\" type=\"text\" id=\"name\" name=\"name\">\n<label class=\"keyValue\" for=\"email\"></label>\n<input class=\"keyValue\" autocomplete=\"off\" type=\"email\" id=\"email\" name=\"email\"> \n\n<div class=\"form-group\">\n<label for=\"strFirstName\" class=\"required col-md-4 control-label\"><span class=\"field-name\">First name:</span> <strong class=\"required\">(required)</strong></label>\n<div class=\"col-md-8\">\n<input class=\"form-control\" id=\"strFirstName\" name=\"strFirstName\" type=\"text\" required=\"required\" pattern=\".{2,}\" data-rule-minlength=\"2\">\n</div>\n</div>\n            \n<div class=\"form-group\">\n<label for=\"strLastName\" class=\"required col-md-4 control-label\"><span class=\"field-name\">Last name:</span> <strong class=\"required\">(required)</strong></label>\n<div class=\"col-md-8\">\n<input class=\"form-control\" id=\"strLastName\" name=\"strLastName\" type=\"text\" required=\"required\" pattern=\".{2,}\" data-rule-minlength=\"2\">\n</div>\n</div>\n\n<div class=\"form-group\">\n<label for=\"strEmail\" class=\"required col-md-4 control-label\"><span class=\"field-name\">Email address:</span>  <strong class=\"required\">(required)</strong></label>\n<div class=\"col-md-8\">\n<input class=\"form-control\" id=\"strEmail\" name=\"strEmail\" type=\"email\" required=\"required\">\n</div>\n</div>\n\n<div class=\"form-group\">\n<label for=\"strConfirmEmail\" class=\"required col-md-4 control-label\"><span class=\"field-name\">Confirm email address:</span>  <strong class=\"required\">(required)</strong></label>\n<div class=\"col-md-8\">\n<input class=\"form-control\" id=\"strConfirmEmail\" name=\"strConfirmEmail\" type=\"email\" data-rule-equalto=\"#strEmail\" required=\"required\">\n</div>\n</div>\n\n<div class=\"form-group mrgn-tp-md\">\n<label for=\"lstdescribe\" class=\"required col-md-4 control-label\"><span class=\"field-name\">How would you describe yourself?</span> <strong class=\"required\">(required)</strong></label>\n<div class=\"col-md-8\">\n<select class=\"form-control\" id=\"lstdescribe\" name=\"lstdescribe\" required=\"required\">\n<option label=\"Select from this list\"></option>\n<option value=\"Academia\">Academia</option>\n<option value=\"Consumer Association\">Consumer Association</option>\n<option value=\"Consumer/General Public\">Consumer / General Public</option>\n<option value=\"Industry Association\">Industry Association</option>\n<option value=\"Industry/Commercial Sector\">Industry / Commercial Sector</option>\n<option value=\"Other Government Departments\">Other Government Departments</option>\t\t\t\n</select>\n</div>\n</div>\t\n\n<div class=\"form-group\">\n<label for=\"strAddress1\" class=\"col-md-4 control-label\"><span class=\"field-name\">Address 1:</span></label>\n<div class=\"col-md-8\">\n<input class=\"form-control\" id=\"strAddress1\" name=\"strAddress1\" type=\"text\">\n</div>\n</div>\n\n<div class=\"form-group\">\n<label for=\"strAddress2\" class=\"col-md-4 control-label\"><span class=\"field-name\">Address 2:</span></label>\n<div class=\"col-md-8\">\n<input class=\"form-control\" id=\"strAddress2\" name=\"strAddress2\" type=\"text\">\n</div>\n</div>\n\n<div class=\"form-group\">\n<label for=\"strCity\" class=\"col-md-4 control-label\"><span class=\"field-name\">City:</span></label>\n<div class=\"col-md-8\">\n<input class=\"form-control\" id=\"strCity\" name=\"strCity\" type=\"text\">\n</div>\n</div>\n\n<div class=\"form-group\">\n<label for=\"strProvince\" class=\"col-md-4 control-label\"><span class=\"field-name\">Province:</span></label>\n<div class=\"col-md-8\">\n<input class=\"form-control\" id=\"strProvince\" name=\"strProvince\" type=\"text\">\n</div>\n</div>\n\n<div class=\"form-group\">\n<label for=\"strCountry\" class=\"col-md-4 control-label\"><span class=\"field-name\">Country:</span></label>\n<div class=\"col-md-8\">\n<input class=\"form-control\" id=\"strCountry\" name=\"strCountry\" type=\"text\">\n</div>\n</div>\n\n<div class=\"form-group\">\n<label for=\"strPostal\" class=\"col-md-4 control-label\"><span class=\"field-name\">Postal Code:</span></label>\n<div class=\"col-md-8\">\n<input class=\"form-control\" id=\"strPostal\" name=\"strPostal\" type=\"text\">\n</div>\n</div>\n\n</fieldset>\t\n\n<input value=\"Submit Your Request\" id=\"btnSubmit\" name=\"btnSubmit\" class=\"btn btn-primary\" type=\"submit\"> \n<input value=\"Clear All Information\" id=\"btnReset\" name=\"btnReset\" class=\"btn btn-default\" type=\"reset\">\n\n</form>\n</div>\n<script src=\"https://ajax.googleapis.com/ajax/libs/jquery/2.1.1/jquery.min.js\"></script>\n<script type=\"text/javascript\">\n$(document).ready (function(){\n\tif($(\"#strPaper\").checked || $(\"#strBraille\").checked)\n\t{\n\t\tPaperBrailleChecked();\n\t}\n});\n\n$(document).on(\"change\", \"#strBraille\", function(){\n\tif($(\"#strBraille\").is(\":checked\"))\n\t{\n\t\tPaperBrailleChecked();\n\t}\n\telse if(!($(\"#strPaper\").is(\":checked\")))\n\t{\n\t\tPaperBrailleUnChecked();\n\t}\n});\n\n$(document).on(\"change\", \"#strPaper\", function(){\n\tif($(\"#strPaper\").is(\":checked\"))\n\t{\n\t\tPaperBrailleChecked();\n\t}\n\telse if(!($(\"#strBraille\").is(\":checked\")))\n\t{\n\t\tPaperBrailleUnChecked();\n\t}\n});\n\nfunction PaperBrailleChecked()\n{\n\t$(\"#strAddress1\").attr(\"required\", \"true\");\n\t$(\"#strCity\").attr(\"required\", \"true\");\n\t$(\"#strProvince\").attr(\"required\", \"true\");\n\t$(\"#strCountry\").attr(\"required\", \"true\");\n\t$(\"#strPostal\").attr(\"required\", \"true\");\n}\n\nfunction PaperBrailleUnChecked()\n{\n\t$(\"#strAddress1\").removeAttr(\"required\");\n\t$(\"#strCity\").removeAttr(\"required\");\n\t$(\"#strProvince\").removeAttr(\"required\");\n\t$(\"#strCountry\").removeAttr(\"required\");\n\t$(\"#strPostal\").removeAttr(\"required\");\n}\n</script>\r\n\r\n\r\n\r\n<div class=\"row\">\r\n \r\n\t\r\n\t\t\t\r\n\r\n<div class=\"col-xm-12 pagedetails container\">\r\n\t\t\t\t\r\n\r\n</div>\r\n\t\r\n</div>",
        "fr": "\r\n        \r\n        \n<h2>R\u00e9sum\u00e9</h2>\n\n<p>Le Plan d'action pour assurer la s\u00e9curit\u00e9 des produits alimentaires (PAASPA) vise \u00e0 moderniser et \u00e0 am\u00e9liorer le syst\u00e8me de salubrit\u00e9 des aliments du Canada. Dans le cadre de l'initiative de surveillance accrue du <abbr title=\"Plan d'action pour assurer la s\u00e9curit\u00e9 des produits alimentaires\">PAASPA</abbr>, des \u00e9tudes cibl\u00e9es servent \u00e0 d\u00e9celer des dangers pr\u00e9cis dans divers aliments.</p>\n\n<p>L'exposition au plomb par le r\u00e9gime alimentaire est document\u00e9e sur le site Web de Sant\u00e9 Canada, qui pr\u00e9cise ceci\u00a0: \u00ab\u00a0Le plomb est un m\u00e9tal d'origine naturelle pr\u00e9sent dans les pierres et dans le sol, lequel est utilis\u00e9 \u00e0 plusieurs fins industrielles. En raison de sa pr\u00e9sence naturelle et de son utilisation mondiale de longue date, le plomb est omnipr\u00e9sent dans l'environnement et se trouve dans l'air, l'eau, le sol ainsi que dans les aliments, l'eau potable et la poussi\u00e8re domestique. Les concentrations de plomb dans la plupart des milieux environnementaux ont diminu\u00e9 au cours des derni\u00e8res d\u00e9cennies \u00e0 la suite de l'\u00e9limination du plomb dans la peinture, l'essence et les soudures des bo\u00eetes de conserve. Depuis l'\u00e9limination graduelle de l'essence au plomb et cons\u00e9quemment, de la diminution du nombre de particules de plomb en suspension dans l'air; les aliments et l'eau potable sont les principales sources d'exposition au plomb pour les adultes de la population en g\u00e9n\u00e9ral\u00a0\u00bb.</p>\n\n<p>Il est interdit d'ajouter du plomb aux aliments vendus au Canada. Toutefois, puisque ce m\u00e9tal est omnipr\u00e9sent dans l'environnement, il est \u00e9galement pr\u00e9sent dans tous les aliments, g\u00e9n\u00e9ralement \u00e0 de tr\u00e8s faibles concentrations. Le plomb peut s'introduire dans la cha\u00eene alimentaire en empruntant diff\u00e9rentes voies, comme par l'absorption \u00e0 partir du sol par les plantes et par des sources artificielles (<abbr title=\"par exemple\" class=\"nowrap\">p. ex.</abbr> en utilisant des mat\u00e9riaux pour l'entreposage, de l'\u00e9quipement pour le traitement, <abbr title=\"et cetera\">etc.</abbr>, inappropri\u00e9s aux aliments).</p>\n\n<p>Les concentrations de plomb dans les viandes, les produits laitiers, les \u0153ufs, le miel, les fruits et les l\u00e9gumes (frais ou transform\u00e9s) et les herbes fra\u00eeches sont surveill\u00e9s annuellement dans le cadre du Programme national de surveillance des r\u00e9sidus chimiques (PNSRC) de l'Agence canadienne d'inspection des aliments (ACIA). Le <abbr title=\"Programme national de surveillance des r\u00e9sidus chimiques\">PNSRC</abbr> ne teste pas de mani\u00e8re routini\u00e8re les aliments finis et/ou manufactur\u00e9s, comme les herbes s\u00e9ch\u00e9es et les \u00e9pices. Il existe des donn\u00e9es canadiennes limit\u00e9es provenant d'autres sources (<abbr title=\"par exemple\" class=\"nowrap\">p. ex.</abbr> de l'\u00c9tude canadienne sur l'alimentation totale de Sant\u00e9 Canada), et des niveaux \u00e9lev\u00e9s de plomb ont \u00e9t\u00e9 rapport\u00e9s dans les m\u00e9dias et la litt\u00e9rature scientifique pour certaines \u00e9pices aux \u00c9tats-Unis et dans l'Union europ\u00e9enne. Le principal objectif de la pr\u00e9sente enqu\u00eate est donc de produire des donn\u00e9es de surveillance de base sur le niveau de plomb dans les herbes s\u00e9ch\u00e9es et les \u00e9pices disponibles sur le march\u00e9 de d\u00e9tail au Canada.</p> \n\n<p>L'enqu\u00eate de 2011-2012 du <abbr title=\"Plan d'action pour assurer la s\u00e9curit\u00e9 des produits alimentaires\">PAASPA</abbr> a cibl\u00e9 les herbes s\u00e9ch\u00e9es et les \u00e9pices, domestiques et import\u00e9es. Au total, 148 \u00e9chantillons ont \u00e9t\u00e9 collect\u00e9s dans des \u00e9piceries et des magasins sp\u00e9cialis\u00e9s dans 11 villes canadiennes, entre <span class=\"nowrap\">avril 2011</span> et <span class=\"nowrap\">mars 2012</span>. Les \u00e9chantillons collect\u00e9s comprenaient 90 \u00e9chantillons d'\u00e9pices et 58 \u00e9chantillons d'herbes s\u00e9ch\u00e9es.</p>\n\n<p>Les 148 \u00e9chantillons analys\u00e9s contenaient tous un niveau d\u00e9tectable de plomb, avec des concentrations allant de 0,013 \u00e0 8,476 parties par million (ppm). Actuellement, Sant\u00e9 Canada n'a \u00e9tabli aucune concentration maximale, aucun seuil detol\u00e9rance ni aucune norme pour le plomb dans les herbes s\u00e8ches et les \u00e9pices. Aucune conformit\u00e9 \u00e0 une norme num\u00e9rique n'a donc pu \u00eatre \u00e9valu\u00e9e.</p>\n\n<p>Tous les aliments vendus au Canada doivent satisfaire \u00e0 l'article 4 de la Loi sur les aliments et drogues du Canada. Dans le cas du plomb, le gouvernement du Canada reconna\u00eet qu'il peut y avoir plusieurs sources pour le plomb dans les aliments. N\u00e9anmoins, il est attendu  que toutes les industries alimentaires r\u00e9duisent au minimum la pr\u00e9sence du plomb au moyen de tout proc\u00e9d\u00e9 ou de toute pratique qu'elles pourraient mettre en \u0153uvre. Ceci correspond au principe ALARA (<span lang=\"en\">As Low As Reasonably Achievable</span> (le plus faible qu'il soit raisonnablement possible d'atteindre)). \u00c9tant donn\u00e9 la grande vari\u00e9t\u00e9 des proc\u00e9d\u00e9s, des proc\u00e9dures et des sources de mati\u00e8res brutes, les moyens pour mettre en \u0153uvre le principe <abbr title=\"le plus faible qu'il soit raisonnablement possible d'atteindre\">ALARA</abbr> seront sp\u00e9cifiques de l'entreprise.</p> \n\n<p>Toutes les donn\u00e9es produites ont \u00e9t\u00e9 communiqu\u00e9es \u00e0 Sant\u00e9 Canada \u00e0 des fins d'utilisation lors d'\u00e9valuations de risques pos\u00e9s \u00e0 la sant\u00e9 humaine. Sant\u00e9 Canada a conclu que les niveaux de plomb d\u00e9tect\u00e9s dans les herbes s\u00e9ch\u00e9es et les \u00e9pices test\u00e9es lors de la pr\u00e9sente enqu\u00eate n'\u00e9taient probablement pas pr\u00e9occupants pour la sant\u00e9. Aucun mesure de suivi n'est donc n\u00e9cessaire.</p>\r\n<style>\n/* required style */\n    .keyValue{\n\tdisplay: none !important;\n        visibility: hidden !important;\n</style>\n<h2>Demande de rapport complet</h2>\n<p>La version int\u00e9grale du pr\u00e9sent rapport est disponible sur demande.</p>\n\n<div class=\"wb-frmvld\">\n\n<form class=\"form-horizontal\" role=\"form\" method=\"post\" action=\"/active/netapp/comment/publicationposte.aspx#wb-cont\" name=\"frmPublication\">\n\n<input id=\"emailad0\" name=\"to\" class=\"hidden\" type=\"hidden\" aria-hidden=\"true\" value=\"eRk9VdJYrD0UHD5Ike55M6kLepWxzDahhe/skVfrC55JAaKVvAIhtTgPcB3CW0nsRUqMR8c79hk8WV4oAz4hTqWZDi1mkKFiytJhnLgPD78=\">\n<input name=\"strLang\" type=\"hidden\" value=\"Francais\">\n<input name=\"strSubject\" type=\"hidden\" value=\"Demande de rapport de r\u00e9sidus chimiques / microbiologie\">\n<input name=\"strTitle\" type=\"hidden\" value=\"title\">\n<input name=\"strUrl\" type=\"hidden\" value=\"url\">\n<script type=\"text/javascript\">\n    document.frmPublication.strTitle.value = document.getElementsByTagName(\"title\")[0].innerHTML;\n    document.frmPublication.strUrl.value = document.URL;\n</script>\n        \n<fieldset class=\"mrgn-tp-md mrgn-bttm-lg\">\t\t\n\n<legend class=\"field-name required\"><span class=\"field-name\">Le format dans lequel vous souhaitez recevoir le rapport</span> <strong class=\"required\">(obligatoire)</strong></legend>\n\n<div class=\"checkbox\">\n<label for=\"strPdf\"><input type=\"checkbox\" name=\"formatsent\" id=\"strPdf\" value=\"pdf\" required=\"required\">Fichier \u00e9lectronique PDF (format de document portable) envoy\u00e9 par courriel</label>\n</div>\n\n<div class=\"checkbox\">\n<label for=\"strText\"><input type=\"checkbox\" name=\"formatsent\" id=\"strText\" value=\"text\">Fichier \u00e9lectronique RTF (<span lang=\"en\">Rich Text Format</span>) envoy\u00e9 par courriel</label>\n</div>\n\n<div class=\"checkbox\">\n<label for=\"strBraille\"><input type=\"checkbox\" name=\"formatsent\" id=\"strBraille\" value=\"braille\">Copie braille envoy\u00e9e par la poste</label>\n</div>\n\n<div class=\"checkbox\">\n<label for=\"strPaper\"><input type=\"checkbox\" name=\"formatsent\" id=\"strPaper\" value=\"paper\">Copie papier envoy\u00e9e par la poste</label>\n</div>\n\n</fieldset>\t\n\n<fieldset class=\"mrgn-tp-md mrgn-bttm-lg\">\t\t\n\n<legend class=\"field-name\">Vos coordonn\u00e9es</legend>\n\n<label class=\"keyValue\" for=\"name\"></label>\n<input class=\"keyValue\" autocomplete=\"off\" type=\"text\" id=\"name\" name=\"name\">\n<label class=\"keyValue\" for=\"email\"></label>\n<input class=\"keyValue\" autocomplete=\"off\" type=\"email\" id=\"email\" name=\"email\"> \n\n<div class=\"form-group\">\n<label for=\"strFirstName\" class=\"required col-md-4 control-label\"><span class=\"field-name\">Pr\u00e9nom :</span> <strong class=\"required\">(obligatoire)</strong></label>\n<div class=\"col-md-8\">\n<input class=\"form-control\" id=\"strFirstName\" name=\"strFirstName\" type=\"text\" required=\"required\" pattern=\".{2,}\" data-rule-minlength=\"2\">\n</div>\n</div>\n            \n<div class=\"form-group\">\n<label for=\"strLastName\" class=\"required col-md-4 control-label\"><span class=\"field-name\">Nom :</span> <strong class=\"required\">(obligatoire)</strong></label>\n<div class=\"col-md-8\">\n<input class=\"form-control\" id=\"strLastName\" name=\"strLastName\" type=\"text\" required=\"required\" pattern=\".{2,}\" data-rule-minlength=\"2\">\n</div>\n</div>\n\n<div class=\"form-group\">\n<label for=\"strEmail\" class=\"required col-md-4 control-label\"><span class=\"field-name\">Adresse de courriel :</span> \u00a0<strong class=\"required\">(obligatoire)</strong></label>\n<div class=\"col-md-8\">\n<input class=\"form-control\" id=\"strEmail\" name=\"strEmail\" type=\"email\" required=\"required\">\n</div>\n</div>\n\n<div class=\"form-group\">\n<label for=\"strConfirmEmail\" class=\"required col-md-4 control-label\"><span class=\"field-name\">Confirmer Adresse de courriel :</span>  <strong class=\"required\">(obligatoire)</strong></label>\n<div class=\"col-md-8\">\n<input class=\"form-control\" id=\"strConfirmEmail\" name=\"strConfirmEmail\" type=\"email\" data-rule-equalto=\"#strEmail\" required=\"required\">\n</div>\n</div>\n\n<div class=\"form-group mrgn-tp-md\">\n<label for=\"lstdescribe\" class=\"required col-md-4 control-label\"><span class=\"field-name\">Comment vous vous d\u00e9criviez?</span> <strong class=\"required\">(obligatoire)</strong></label>\n<div class=\"col-md-8\">\n<select class=\"form-control\" id=\"lstdescribe\" name=\"lstdescribe\" required=\"required\">\n<option label=\"Choisir parmi la liste\"></option>\n<option value=\"Acad\u00e9mie\">Acad\u00e9mie</option>\n<option value=\"Association sectorielle\">Association sectorielle</option>  \n<option value=\"Autres institutions du gouvernement\">Autres institutions du gouvernement</option>\n<option value=\"Consommateur/Grand public\">Consommateur / Grand public</option>\n<option value=\"Groupe de consommateur\">Groupe de consommateur</option>\n<option value=\"Industrie/Secteur commercial\">Industrie / Secteur commercial</option>\n</select>\n</div>\n</div>\t\n\n<div class=\"form-group\">\n<label for=\"strAddress1\" class=\"col-md-4 control-label\"><span class=\"field-name\">Adresse 1 :</span></label>\n<div class=\"col-md-8\">\n<input class=\"form-control\" id=\"strAddress1\" name=\"strAddress1\" type=\"text\">\n</div>\n</div>\n\n<div class=\"form-group\">\n<label for=\"strAddress2\" class=\"col-md-4 control-label\"><span class=\"field-name\">Adresse 2 :</span></label>\n<div class=\"col-md-8\">\n<input class=\"form-control\" id=\"strAddress2\" name=\"strAddress2\" type=\"text\">\n</div>\n</div>\n\n<div class=\"form-group\">\n<label for=\"strCity\" class=\"col-md-4 control-label\"><span class=\"field-name\">Ville :</span></label>\n<div class=\"col-md-8\">\n<input class=\"form-control\" id=\"strCity\" name=\"strCity\" type=\"text\">\n</div>\n</div>\n\n<div class=\"form-group\">\n<label for=\"strProvince\" class=\"col-md-4 control-label\"><span class=\"field-name\">Province :</span></label>\n<div class=\"col-md-8\">\n<input class=\"form-control\" id=\"strProvince\" name=\"strProvince\" type=\"text\">\n</div>\n</div>\n\n<div class=\"form-group\">\n<label for=\"strCountry\" class=\"col-md-4 control-label\"><span class=\"field-name\">Pays : </span></label>\n<div class=\"col-md-8\">\n<input class=\"form-control\" id=\"strCountry\" name=\"strCountry\" type=\"text\">\n</div>\n</div>\n\n<div class=\"form-group\">\n<label for=\"strPostal\" class=\"col-md-4 control-label\"><span class=\"field-name\">Code postal : </span></label>\n<div class=\"col-md-8\">\n<input class=\"form-control\" id=\"strPostal\" name=\"strPostal\" type=\"text\">\n</div>\n</div>\n\n</fieldset>\t\n\n<input value=\"Soumettre votre demande\" id=\"btnSubmit\" name=\"btnSubmit\" class=\"btn btn-primary\" type=\"submit\"> \n<input value=\"Effacez tous les renseignements\" id=\"btnReset\" name=\"btnReset\" class=\"btn btn-default\" type=\"reset\">\n\n</form>\n</div>\n<script src=\"https://ajax.googleapis.com/ajax/libs/jquery/2.1.1/jquery.min.js\"></script>\n<script type=\"text/javascript\">\n$(document).ready (function(){\n\tif($(\"#strPaper\").checked || $(\"#strBraille\").checked)\n\t{\n\t\tPaperBrailleChecked();\n\t}\n});\n\n$(document).on(\"change\", \"#strBraille\", function(){\n\tif($(\"#strBraille\").is(\":checked\"))\n\t{\n\t\tPaperBrailleChecked();\n\t}\n\telse if(!($(\"#strPaper\").is(\":checked\")))\n\t{\n\t\tPaperBrailleUnChecked();\n\t}\n});\n\n$(document).on(\"change\", \"#strPaper\", function(){\n\tif($(\"#strPaper\").is(\":checked\"))\n\t{\n\t\tPaperBrailleChecked();\n\t}\n\telse if(!($(\"#strBraille\").is(\":checked\")))\n\t{\n\t\tPaperBrailleUnChecked();\n\t}\n});\n\nfunction PaperBrailleChecked()\n{\n\t$(\"#strAddress1\").attr(\"required\", \"true\");\n\t$(\"#strCity\").attr(\"required\", \"true\");\n\t$(\"#strProvince\").attr(\"required\", \"true\");\n\t$(\"#strCountry\").attr(\"required\", \"true\");\n\t$(\"#strPostal\").attr(\"required\", \"true\");\n}\n\nfunction PaperBrailleUnChecked()\n{\n\t$(\"#strAddress1\").removeAttr(\"required\");\n\t$(\"#strCity\").removeAttr(\"required\");\n\t$(\"#strProvince\").removeAttr(\"required\");\n\t$(\"#strCountry\").removeAttr(\"required\");\n\t$(\"#strPostal\").removeAttr(\"required\");\n}\n</script>\r\n\r\n<div class=\"row\">\r\n \r\n\t\t\t\r\n\t\t\t\r\n\r\n\t\t\r\n\t\r\n</div>"
    },
    "success": true,
    "chat_wizard": false
}