{
    "dcr_id": "1467179764138",
    "title": {
        "en": "2011-2013 Arsenic Speciation in Selected Foods",
        "fr": "2011-2013 Sp\u00e9ciation de l'arsenic dans certains aliments"
    },
    "html_modified": "2024-03-12 3:57:23 PM",
    "modified": "2018-09-04",
    "issued": "2018-06-05",
    "teamsite_location": {
        "en": "/default/main/inspection/cont-cont/food-aliments/STAGING/templatedata/comn-comn/forms-formes/data/chem_testing_report_2011-2013_arsenic_speciation_1467179764138_eng",
        "fr": "/default/main/inspection/cont-cont/food-aliments/STAGING/templatedata/comn-comn/forms-formes/data/chem_testing_report_2011-2013_arsenic_speciation_1467179764138_fra"
    },
    "ia_id": "1467179789317",
    "parent_ia_id": "1453327843364",
    "chronicletopic": {
        "en": "",
        "fr": ""
    },
    "chroniclecontent": {
        "en": "",
        "fr": ""
    },
    "chronicleaudience": {
        "en": "",
        "fr": ""
    },
    "sfcrdocumenttype": {
        "en": "",
        "fr": ""
    },
    "sfcraudience": {
        "en": "",
        "fr": ""
    },
    "sfcrmethodofproduction": {
        "en": "",
        "fr": ""
    },
    "activity": {
        "en": "",
        "fr": ""
    },
    "commodity": {
        "en": "",
        "fr": ""
    },
    "program": {
        "en": "",
        "fr": ""
    },
    "search_type": "other",
    "parent_node_id": "1453327843364",
    "layout_name": "content page 1 column",
    "breadcrumb": {
        "en": "2011-2013 Arsenic Speciation in Selected Foods",
        "fr": "2011-2013 Sp\u00e9ciation de l'arsenic dans certains aliments"
    },
    "label": {
        "en": "2011-2013 Arsenic Speciation in Selected Foods",
        "fr": "2011-2013 Sp\u00e9ciation de l'arsenic dans certains aliments"
    },
    "templatetype": "content page 1 column",
    "node_id": "1467179789317",
    "managing_branch": "comn",
    "type_name": "forms-formes",
    "dcr_type": "forms-formes",
    "parent_dcr_id": "1453324778043",
    "has_dcr_id": true,
    "lang": "en",
    "could_not_load": 0,
    "refaire": false,
    "interwoven_url": {
        "en": "/food-safety-for-industry/food-chemistry-and-microbiology/food-safety-testing-reports-and-journal-articles/arsenic-speciation-in-selected-foods/",
        "fr": "/salubrite-alimentaire-pour-l-industrie/chimie-et-microbiologie-alimentaires/rapports-d-analyse-et-articles-de-revues-sur-la-sa/speciation-de-l-arsenic-dans-certains-aliments/"
    },
    "meta": {
        "viewport": {
            "en": "width=device-width,initial-scale=1",
            "fr": "width=device-width,initial-scale=1"
        },
        "service": {
            "en": "CFIA-ACIA",
            "fr": "CFIA-ACIA"
        },
        "accessRights": {
            "en": "2",
            "fr": "2"
        },
        "title": {
            "en": "2011-2013 Arsenic Speciation in Selected Foods",
            "fr": "2011-2013 Sp\u00e9ciation de l'arsenic dans certains aliments"
        },
        "description": {
            "en": "The Food Safety Action Plan (FSAP) aims to modernize and enhance Canada's food safety system.",
            "fr": "Le Plan d'action pour assurer la s\u00e9curit\u00e9 des produits alimentaires (PAASPA) vise \u00e0 moderniser et \u00e0 am\u00e9liorer le syst\u00e8me canadien de salubrit\u00e9 des aliments."
        },
        "keywords": {
            "en": "food, food safety, food safety requirements, sampling, testing, food safety risks, arsenic speciation, arsenic",
            "fr": "aliments, salubrit\u00e9 des aliments, exigences f\u00e9d\u00e9rales en mati\u00e8re de salubrit\u00e9 des aliments, \u00e9chantillonnage, analyse, risques pour la salubrit\u00e9 des aliments, Sp\u00e9ciation de l'arsenic, arsenic"
        },
        "dcterms.subject": {
            "en": "food,samples,food inspection,consumer protection,regulation,food safety,testing",
            "fr": "aliment,\u00e9chantillon,inspection des aliments,protection du consommateur,r\u00e9glementation,salubrit\u00e9 des aliments,test"
        },
        "creator": {
            "en": "Government of Canada,Canadian Food Inspection Agency",
            "fr": "Gouvernement du Canada,Agence canadienne d'inspection des aliments"
        },
        "language": {
            "en": "eng",
            "fr": "fra"
        },
        "issued": {
            "en": "2018-06-05",
            "fr": "2018-06-05"
        },
        "modified": {
            "en": "2018-09-04",
            "fr": "2018-09-04"
        },
        "type": {
            "en": "reference material",
            "fr": "mat\u00e9riel de r\u00e9f\u00e9rence"
        },
        "audience": {
            "en": "business,government,general public",
            "fr": "entreprises,gouvernement,grand public"
        },
        "name": {
            "en": "Government of Canada",
            "fr": "Gouvernement du Canada"
        },
        "areaServed": {
            "en": "Canada",
            "fr": "Canada"
        }
    },
    "h1": {
        "en": "2011-2013 Arsenic Speciation in Selected Foods",
        "fr": "2011-2013 Sp\u00e9ciation de l'arsenic dans certains aliments"
    },
    "js": {
        "en": "<script>\n    document.frmPublication.strTitle.value = document.getElementsByTagName(\"title\")[0].innerHTML;\n    document.frmPublication.strUrl.value = document.URL;\n</script>/* --------------------- MORE JAVASCRIPT ------------------- */<script>\n$(document).ready (function(){\n\tif($(\"#strPaper\").checked || $(\"#strBraille\").checked)\n\t{\n\t\tPaperBrailleChecked();\n\t}\n});\n\n$(document).on(\"change\", \"#strBraille\", function(){\n\tif($(\"#strBraille\").is(\":checked\"))\n\t{\n\t\tPaperBrailleChecked();\n\t}\n\telse if(!($(\"#strPaper\").is(\":checked\")))\n\t{\n\t\tPaperBrailleUnChecked();\n\t}\n});\n\n$(document).on(\"change\", \"#strPaper\", function(){\n\tif($(\"#strPaper\").is(\":checked\"))\n\t{\n\t\tPaperBrailleChecked();\n\t}\n\telse if(!($(\"#strBraille\").is(\":checked\")))\n\t{\n\t\tPaperBrailleUnChecked();\n\t}\n});\n\nfunction PaperBrailleChecked()\n{\n\t$(\"#strAddress1\").attr(\"required\", \"true\");\n\t$(\"#strCity\").attr(\"required\", \"true\");\n\t$(\"#strProvince\").attr(\"required\", \"true\");\n\t$(\"#strCountry\").attr(\"required\", \"true\");\n\t$(\"#strPostal\").attr(\"required\", \"true\");\n}\n\nfunction PaperBrailleUnChecked()\n{\n\t$(\"#strAddress1\").removeAttr(\"required\");\n\t$(\"#strCity\").removeAttr(\"required\");\n\t$(\"#strProvince\").removeAttr(\"required\");\n\t$(\"#strCountry\").removeAttr(\"required\");\n\t$(\"#strPostal\").removeAttr(\"required\");\n}\n</script>",
        "fr": "<script>\n    document.frmPublication.strTitle.value = document.getElementsByTagName(\"title\")[0].innerHTML;\n    document.frmPublication.strUrl.value = document.URL;\n</script>/* --------------------- MORE JAVASCRIPT ------------------- */<script>\n$(document).ready (function(){\n\tif($(\"#strPaper\").checked || $(\"#strBraille\").checked)\n\t{\n\t\tPaperBrailleChecked();\n\t}\n});\n\n$(document).on(\"change\", \"#strBraille\", function(){\n\tif($(\"#strBraille\").is(\":checked\"))\n\t{\n\t\tPaperBrailleChecked();\n\t}\n\telse if(!($(\"#strPaper\").is(\":checked\")))\n\t{\n\t\tPaperBrailleUnChecked();\n\t}\n});\n\n$(document).on(\"change\", \"#strPaper\", function(){\n\tif($(\"#strPaper\").is(\":checked\"))\n\t{\n\t\tPaperBrailleChecked();\n\t}\n\telse if(!($(\"#strBraille\").is(\":checked\")))\n\t{\n\t\tPaperBrailleUnChecked();\n\t}\n});\n\nfunction PaperBrailleChecked()\n{\n\t$(\"#strAddress1\").attr(\"required\", \"true\");\n\t$(\"#strCity\").attr(\"required\", \"true\");\n\t$(\"#strProvince\").attr(\"required\", \"true\");\n\t$(\"#strCountry\").attr(\"required\", \"true\");\n\t$(\"#strPostal\").attr(\"required\", \"true\");\n}\n\nfunction PaperBrailleUnChecked()\n{\n\t$(\"#strAddress1\").removeAttr(\"required\");\n\t$(\"#strCity\").removeAttr(\"required\");\n\t$(\"#strProvince\").removeAttr(\"required\");\n\t$(\"#strCountry\").removeAttr(\"required\");\n\t$(\"#strPostal\").removeAttr(\"required\");\n}\n</script>"
    },
    "mode_html": "no_editor_full",
    "body": {
        "en": "        \r\n        \n<h2>Summary</h2>\n\n<p>The Food Safety Action Plan (FSAP) aims to modernize and enhance Canada's food safety system. As a part of the <abbr title=\"Food Safety Action Plan\">FSAP</abbr> enhanced surveillance initiative, targeted surveys are used to analyze various foods for specific hazards.</p> \n\n<p>The main objectives of the Arsenic Speciation in Selected Foods targeted survey were to generate baseline surveillance data on the levels of the various forms of arsenic in beverages, fruit products, grain products, rice and rice products and seaweed products available on the Canadian retail market and to compare these levels with data generated from previous <abbr title=\"Food Safety Action Plan\">FSAP</abbr> targeted surveys, when possible.</p> \n\n<p>Arsenic is a naturally occurring element found in trace amounts in rock, soil, water and air. The primary routes of human exposure to arsenic are through drinking water and food. The presence of arsenic in food and water is expected as a result of natural accumulation from the environment. Arsenic levels in food are usually low; however, the levels are typically higher in aquatic organisms (such as seaweed, fish and seafood).</p>\n\n<p>Arsenic can exist in both organic and inorganic forms in food; the inorganic forms are widely considered to be of greater toxicological significance to human health. The ratio of inorganic to organic arsenic species can vary widely depending on the source of contamination and the commodities in which it is present. While inorganic arsenic is the predominant species in drinking water, organic arsenic species are the main forms found in aquatic organisms, such as seaweed, fish and seafood. Chronic exposure to inorganic arsenic may lead to a variety of detrimental health effects in humans, including affecting the gastrointestinal tract, kidneys, liver, lungs and skin as well as contributing to the risk of certain cancers.</p>\n\n<p>In total, 2015 samples were collected from Canadian retail stores between April 2011 and March 2013 and analyzed for two inorganic arsenic species, and up to four organic arsenic species. Product types included beverages (bottled waters and juices), fruit products (canned fruits, fruit purees, dried fruit and fruit snacks), grain products (wheat bran and breakfast cereals), rice/rice products (rice grains, flour, bran, noodles/pasta/papers, crackers/cakes, puddings and beverages) and seaweed products (dried seaweeds of various forms). As anticipated, the majority of samples tested (87%) contained a detectable level of one or more arsenic species. Beverages had the lowest prevalence of arsenic, with only 68% of samples containing a detectable level of one or more arsenic species, whereas 100% of seaweed products and rice/rice products tested contained a detectable level of one or more arsenic species. With respect to the levels of inorganic arsenic, beverages had the lowest average levels of inorganic arsenic (3.84 <abbr title=\"parts per billion\">ppb</abbr>), whereas rice and rice products had the highest average inorganic arsenic concentrations observed (94.19 <abbr title=\"parts per billion\">ppb</abbr>).</p>\n\n<p>The tolerance for arsenic in fruit juice, fruit nectar, beverages when ready-to-serve and water in sealed containers (other than spring or mineral water) specified in Division 15 of the <i>Food and Drug Regulations</i> is outdated and in the process of being reviewed by Health Canada. Health Canada has proposed lower tolerances for apple juice and bottled water; two apple juice samples tested in the current survey had total arsenic levels greater than the proposed new tolerance for apple juice and none of the water samples contained total arsenic concentrations higher than the proposed lower tolerance for bottled water. There are no other Canadian regulations for arsenic in any of the other foods tested in this survey, so compliance with a numerical standard could not be assessed.</p>\n\n<p>All data generated were shared with Health Canada's Bureau of Chemical Safety for use in performing human health risk assessments. The levels of arsenic in the products tested in this survey were not considered to pose a concern to human health. No product recalls were warranted given the lack of a health concern.</p>\r\n<style>\n/* required style */\n    .keyValue{\n\tdisplay: none !important;\n        visibility: hidden !important;\n</style>\n<h2>Request of Complete Report</h2>\n<p>The complete text of this report is available upon request.</p>\n\n<div class=\"wb-frmvld\">\n\n<form class=\"form-horizontal\" role=\"form\" method=\"post\" action=\"/active/netapp/comment/publicationposte.aspx#wb-cont\" name=\"frmPublication\">\n<input id=\"emailad0\" name=\"to\" class=\"hidden\" type=\"hidden\" aria-hidden=\"true\" value=\"8G3to2yQfu/6QB8GRtEAKmKzBHZ0S7/tPdU/f5SflvYH1P9DxEgef1MWFyRslUjLCZNt5rEHycURQXpvJFGZGjN3rjjCESCdej+Kyh/pMJg=\">\n<input name=\"strLang\" type=\"hidden\" value=\"English\">\n<input name=\"strSubject\" type=\"hidden\" value=\"Chemical Residues / Microbiology Report Request\">\n<input name=\"strTitle\" type=\"hidden\" value=\"title\">\n<input name=\"strUrl\" type=\"hidden\" value=\"url\">\n<script type=\"text/javascript\">\n    document.frmPublication.strTitle.value = document.getElementsByTagName(\"title\")[0].innerHTML;\n    document.frmPublication.strUrl.value = document.URL;\n</script>\n        \n<fieldset class=\"mrgn-tp-md mrgn-bttm-lg\">\t\t\n\n<legend class=\"field-name required\"><span class=\"field-name\">The format in which you would like to receive the report</span> <strong class=\"required\">(required)</strong></legend>\n\n<div class=\"checkbox\">\n<label for=\"strPdf\"><input type=\"checkbox\" name=\"formatsent\" id=\"strPdf\" value=\"pdf\" required=\"required\">PDF (Portable Document Format) electronic file sent to you by email</label>\n</div>\n\n<div class=\"checkbox\">\n<label for=\"strText\"><input type=\"checkbox\" name=\"formatsent\" id=\"strText\" value=\"text\">RTF (Rich Text Format) electronic file sent to you by email</label>\n</div>\n\n<div class=\"checkbox\">\n<label for=\"strBraille\"><input type=\"checkbox\" name=\"formatsent\" id=\"strBraille\" value=\"braille\">Braille copy sent to you by mail</label>\n</div>\n\n<div class=\"checkbox\">\n<label for=\"strPaper\"><input type=\"checkbox\" name=\"formatsent\" id=\"strPaper\" value=\"paper\">Paper copy sent to you by mail</label>\n</div>\n\n</fieldset>\t\n\n<fieldset class=\"mrgn-tp-md mrgn-bttm-lg\">\t\t\n\n<legend class=\"field-name\">Your contact information</legend>\n\n<label class=\"keyValue\" for=\"name\"></label>\n<input class=\"keyValue\" autocomplete=\"off\" type=\"text\" id=\"name\" name=\"name\">\n<label class=\"keyValue\" for=\"email\"></label>\n<input class=\"keyValue\" autocomplete=\"off\" type=\"email\" id=\"email\" name=\"email\"> \n\n<div class=\"form-group\">\n<label for=\"strFirstName\" class=\"required col-md-4 control-label\"><span class=\"field-name\">First name:</span> <strong class=\"required\">(required)</strong></label>\n<div class=\"col-md-8\">\n<input class=\"form-control\" id=\"strFirstName\" name=\"strFirstName\" type=\"text\" required=\"required\" pattern=\".{2,}\" data-rule-minlength=\"2\">\n</div>\n</div>\n            \n<div class=\"form-group\">\n<label for=\"strLastName\" class=\"required col-md-4 control-label\"><span class=\"field-name\">Last name:</span> <strong class=\"required\">(required)</strong></label>\n<div class=\"col-md-8\">\n<input class=\"form-control\" id=\"strLastName\" name=\"strLastName\" type=\"text\" required=\"required\" pattern=\".{2,}\" data-rule-minlength=\"2\">\n</div>\n</div>\n\n<div class=\"form-group\">\n<label for=\"strEmail\" class=\"required col-md-4 control-label\"><span class=\"field-name\">Email address:</span>  <strong class=\"required\">(required)</strong></label>\n<div class=\"col-md-8\">\n<input class=\"form-control\" id=\"strEmail\" name=\"strEmail\" type=\"email\" required=\"required\">\n</div>\n</div>\n\n<div class=\"form-group\">\n<label for=\"strConfirmEmail\" class=\"required col-md-4 control-label\"><span class=\"field-name\">Confirm email address:</span>  <strong class=\"required\">(required)</strong></label>\n<div class=\"col-md-8\">\n<input class=\"form-control\" id=\"strConfirmEmail\" name=\"strConfirmEmail\" type=\"email\" data-rule-equalto=\"#strEmail\" required=\"required\">\n</div>\n</div>\n\n<div class=\"form-group mrgn-tp-md\">\n<label for=\"lstdescribe\" class=\"required col-md-4 control-label\"><span class=\"field-name\">How would you describe yourself?</span> <strong class=\"required\">(required)</strong></label>\n<div class=\"col-md-8\">\n<select class=\"form-control\" id=\"lstdescribe\" name=\"lstdescribe\" required=\"required\">\n<option label=\"Select from this list\"></option>\n<option value=\"Academia\">Academia</option>\n<option value=\"Consumer Association\">Consumer Association</option>\n<option value=\"Consumer/General Public\">Consumer / General Public</option>\n<option value=\"Industry Association\">Industry Association</option>\n<option value=\"Industry/Commercial Sector\">Industry / Commercial Sector</option>\n<option value=\"Other Government Departments\">Other Government Departments</option>\t\t\t\n</select>\n</div>\n</div>\t\n\n<div class=\"form-group\">\n<label for=\"strAddress1\" class=\"col-md-4 control-label\"><span class=\"field-name\">Address 1:</span></label>\n<div class=\"col-md-8\">\n<input class=\"form-control\" id=\"strAddress1\" name=\"strAddress1\" type=\"text\">\n</div>\n</div>\n\n<div class=\"form-group\">\n<label for=\"strAddress2\" class=\"col-md-4 control-label\"><span class=\"field-name\">Address 2:</span></label>\n<div class=\"col-md-8\">\n<input class=\"form-control\" id=\"strAddress2\" name=\"strAddress2\" type=\"text\">\n</div>\n</div>\n\n<div class=\"form-group\">\n<label for=\"strCity\" class=\"col-md-4 control-label\"><span class=\"field-name\">City:</span></label>\n<div class=\"col-md-8\">\n<input class=\"form-control\" id=\"strCity\" name=\"strCity\" type=\"text\">\n</div>\n</div>\n\n<div class=\"form-group\">\n<label for=\"strProvince\" class=\"col-md-4 control-label\"><span class=\"field-name\">Province:</span></label>\n<div class=\"col-md-8\">\n<input class=\"form-control\" id=\"strProvince\" name=\"strProvince\" type=\"text\">\n</div>\n</div>\n\n<div class=\"form-group\">\n<label for=\"strCountry\" class=\"col-md-4 control-label\"><span class=\"field-name\">Country:</span></label>\n<div class=\"col-md-8\">\n<input class=\"form-control\" id=\"strCountry\" name=\"strCountry\" type=\"text\">\n</div>\n</div>\n\n<div class=\"form-group\">\n<label for=\"strPostal\" class=\"col-md-4 control-label\"><span class=\"field-name\">Postal Code:</span></label>\n<div class=\"col-md-8\">\n<input class=\"form-control\" id=\"strPostal\" name=\"strPostal\" type=\"text\">\n</div>\n</div>\n\n</fieldset>\t\n\n<input value=\"Submit Your Request\" id=\"btnSubmit\" name=\"btnSubmit\" class=\"btn btn-primary\" type=\"submit\"> \n<input value=\"Clear All Information\" id=\"btnReset\" name=\"btnReset\" class=\"btn btn-default\" type=\"reset\">\n\n</form>\n</div>\n<script src=\"https://ajax.googleapis.com/ajax/libs/jquery/2.1.1/jquery.min.js\"></script>\n<script type=\"text/javascript\">\n$(document).ready (function(){\n\tif($(\"#strPaper\").checked || $(\"#strBraille\").checked)\n\t{\n\t\tPaperBrailleChecked();\n\t}\n});\n\n$(document).on(\"change\", \"#strBraille\", function(){\n\tif($(\"#strBraille\").is(\":checked\"))\n\t{\n\t\tPaperBrailleChecked();\n\t}\n\telse if(!($(\"#strPaper\").is(\":checked\")))\n\t{\n\t\tPaperBrailleUnChecked();\n\t}\n});\n\n$(document).on(\"change\", \"#strPaper\", function(){\n\tif($(\"#strPaper\").is(\":checked\"))\n\t{\n\t\tPaperBrailleChecked();\n\t}\n\telse if(!($(\"#strBraille\").is(\":checked\")))\n\t{\n\t\tPaperBrailleUnChecked();\n\t}\n});\n\nfunction PaperBrailleChecked()\n{\n\t$(\"#strAddress1\").attr(\"required\", \"true\");\n\t$(\"#strCity\").attr(\"required\", \"true\");\n\t$(\"#strProvince\").attr(\"required\", \"true\");\n\t$(\"#strCountry\").attr(\"required\", \"true\");\n\t$(\"#strPostal\").attr(\"required\", \"true\");\n}\n\nfunction PaperBrailleUnChecked()\n{\n\t$(\"#strAddress1\").removeAttr(\"required\");\n\t$(\"#strCity\").removeAttr(\"required\");\n\t$(\"#strProvince\").removeAttr(\"required\");\n\t$(\"#strCountry\").removeAttr(\"required\");\n\t$(\"#strPostal\").removeAttr(\"required\");\n}\n</script>\r\n\r\n\r\n\r\n<div class=\"row\">\r\n \r\n\t\r\n\t\t\t\r\n\r\n<div class=\"col-xm-12 pagedetails container\">\r\n\t\t\t\t\r\n\r\n</div>\r\n\t\r\n</div>",
        "fr": "\r\n        \r\n        \n<h2>R\u00e9sum\u00e9</h2>\n\n<p>Le Plan d'action pour assurer la s\u00e9curit\u00e9 des produits alimentaires (PAASPA) vise \u00e0 moderniser et \u00e0 am\u00e9liorer le syst\u00e8me canadien de salubrit\u00e9 des aliments. Dans le cadre de l'initiative de surveillance accrue du <abbr title=\"Plan d'action pour assurer la s\u00e9curit\u00e9 des produits alimentaires\">PAASPA</abbr>, des enqu\u00eates cibl\u00e9es sont effectu\u00e9es afin d'analyser diff\u00e9rentes denr\u00e9es pour y d\u00e9celer des dangers pr\u00e9cis.</p> \n\n<p>Les principaux objectifs de l'enqu\u00eate cibl\u00e9e Sp\u00e9ciation de l'arsenic dans certains aliments \u00e9taient d'obtenir des donn\u00e9es de surveillance de base pour la surveillance des teneurs en arsenic sous diff\u00e9rentes formes dans les boissons, les produits de fruits, les produits de grains, le riz et les produits de riz et les produits d'algues vendus sur le march\u00e9 du d\u00e9tail au Canada et, lorsque cela est possible, de comparer ces concentrations avec les donn\u00e9es obtenues lors d'enqu\u00eates cibl\u00e9es ant\u00e9rieures du <abbr title=\"Plan d'action pour assurer la s\u00e9curit\u00e9 des produits alimentaires\">PAASPA</abbr>.</p> \n\n<p>L'arsenic est un \u00e9l\u00e9ment naturellement pr\u00e9sent \u00e0 l'\u00e9tat de trace dans la roche, le sol, l'eau et l'air. Les voies principales d'exposition humaine \u00e0 l'arsenic sont la consommation d'eau et d'aliments. La pr\u00e9sence d'arsenic dans les aliments et l'eau est une cons\u00e9quence pr\u00e9visible de son accumulation naturelle \u00e0 partir de l'environnement. Les concentrations d'arsenic dans les denr\u00e9es sont habituellement basses. Toutefois, elles sont plus \u00e9lev\u00e9es dans les organismes aquatiques (comme les algues, les poissons, les fruits de mer).</p> \n\n<p>L'arsenic existe sous des formes organiques et inorganiques dans les aliments. Les esp\u00e8ces inorganiques sont g\u00e9n\u00e9ralement consid\u00e9r\u00e9es d'avoir une plus grande importance toxicologique sur la sant\u00e9 humaine. La proportion d'esp\u00e8ces organiques et inorganiques de l'arsenic peut varier consid\u00e9rablement en fonction de la source de contamination et des produits dans lesquels elles sont pr\u00e9sentes. D'une part, l'arsenic inorganique est l'esp\u00e8ce pr\u00e9dominante dans l'eau potable, les esp\u00e8ces organiques sont les formes principales trouv\u00e9es dans les organismes aquatiques, comme les algues, le poisson et les fruits de mer. L'exposition chronique \u00e0 l'arsenic inorganique peut provoquer divers effets nuisibles \u00e0 la sant\u00e9 humaine, notamment sur le tube digestif, les reins, le foie, les poumons et la peau, et elle contribue aux risques de certains cancers.</p> \n\n<p>D'avril 2011 \u00e0 mars 2013, 2015 \u00e9chantillons ont \u00e9t\u00e9 collect\u00e9s chez des d\u00e9taillants canadiens. On les a analys\u00e9s pour deux esp\u00e8ces inorganiques de l'arsenic et jusqu'\u00e0 quatre esp\u00e8ces organiques. Les produits \u00e9chantillonn\u00e9s comprenaient les boissons (eaux embouteill\u00e9es et jus), les produits de fruits (fruits en conserve, pur\u00e9es de fruits, fruits d\u00e9shydrat\u00e9s et collations aux fruits), les produits de grains (son de bl\u00e9, c\u00e9r\u00e9ales pour petit-d\u00e9jeuner), le riz et les produits de riz (grains, farine, son, nouilles, p\u00e2tes, papiers, craquelins et g\u00e2teaux, pouding et boissons) et les produits d'algues (algues s\u00e9ch\u00e9es sous diverses formes). Comme pr\u00e9vu, la majorit\u00e9 des \u00e9chantillons analys\u00e9s (87\u00a0%) pr\u00e9sentait une concentration d\u00e9tectable d'une ou de plusieurs esp\u00e8ces de l'arsenic. C'est dans les boissons que l'arsenic \u00e9tait le moins pr\u00e9sent. Seulement 68\u00a0% des \u00e9chantillons contenaient une concentration d\u00e9tectable d'une ou de plusieurs esp\u00e8ces d'arsenic. Par contre, tous (100\u00a0%) les \u00e9chantillons des produits d'algues, du riz et des produits de riz contenaient une concentration d\u00e9tectable d'une ou de plusieurs esp\u00e8ces d'arsenic. Au chapitre des concentrations de l'arsenic inorganique, les boissons contenaient les concentrations moyennes les plus basses d'arsenic inorganique (3,84 <abbr title=\"parties par billion\">ppb</abbr>), alors que le riz et les produits de riz comportaient les concentrations moyennes les plus \u00e9lev\u00e9es d'arsenic inorganique (94,19 <abbr title=\"parties par billion\">ppb</abbr>).</p>\n\n<p>La tol\u00e9rance pour l'arsenic dans les jus de fruits, les nectars de fruits, les bossons pr\u00eates-\u00e0-servir et l'eau dans des contenants scell\u00e9s (autre que l'eau de source ou l'eau min\u00e9rale vis\u00e9es \u00e0 la section 15 du <i>R\u00e8glement sur les aliments et drogues</i> est d\u00e9pass\u00e9 et en cours de r\u00e9vision par Sant\u00e9 Canada. Sant\u00e9 Canada a propos\u00e9 des tol\u00e9rances plus basses pour le jus de pomme et l'eau embouteill\u00e9e; deux \u00e9chantillons de jus de pomme analys\u00e9 dans le cadre de la pr\u00e9sente enqu\u00eate cibl\u00e9e avaient des niveaux d'arsenic total sup\u00e9rieures \u00e0 la nouvelle tol\u00e9rance propos\u00e9e pour le jus de pomme et aucun des \u00e9chantillons d'eau contenaient des concentrations totales d'arsenic plus \u00e9lev\u00e9es que la tol\u00e9rance plus faible propos\u00e9e pour l'eau embouteill\u00e9e. Il n'y a pas d'autres r\u00e8glements canadiens pour l'arsenic dans les autres aliments analys\u00e9s dans le cadre de la pr\u00e9sent enqu\u00eate, donc la conformit\u00e9  \u00e0 une norme num\u00e9rique n'a pas pu \u00eatre \u00e9valu\u00e9e.</p> \n\n<p>Toutes les donn\u00e9es obtenues ont \u00e9t\u00e9 transmises au Bureau d'innocuit\u00e9 des produits chimiques de Sant\u00e9 Canada aux fins de l'\u00e9valuation des risques pour la sant\u00e9 humaine. Les concentrations d'arsenic dans les produits analys\u00e9s lors de cette enqu\u00eate ne sont pas consid\u00e9r\u00e9es comme inqui\u00e9tantes pour la sant\u00e9 humaine. Aucun rappel d'aliments n'est justifi\u00e9 compte tenu de l'absence de pr\u00e9occupation sur la sant\u00e9.</p>\r\n<style>\n/* required style */\n    .keyValue{\n\tdisplay: none !important;\n        visibility: hidden !important;\n</style>\n<h2>Demande de rapport complet</h2>\n<p>La version int\u00e9grale du pr\u00e9sent rapport est disponible sur demande.</p>\n\n<div class=\"wb-frmvld\">\n\n<form class=\"form-horizontal\" role=\"form\" method=\"post\" action=\"/active/netapp/comment/publicationposte.aspx#wb-cont\" name=\"frmPublication\">\n\n<input id=\"emailad0\" name=\"to\" class=\"hidden\" type=\"hidden\" aria-hidden=\"true\" value=\"ASASwY/K5NUOy/n0mvRKthCN4l1REFdTHAVi0z9TgFbfcxxc2E3Ws/5bOMLfeY51+nRIuvv/Nzj5Os9RNGlt4k45kLoDInPPEr6fo8Yc2Kg=\">\n<input name=\"strLang\" type=\"hidden\" value=\"Francais\">\n<input name=\"strSubject\" type=\"hidden\" value=\"Demande de rapport de r\u00e9sidus chimiques / microbiologie\">\n<input name=\"strTitle\" type=\"hidden\" value=\"title\">\n<input name=\"strUrl\" type=\"hidden\" value=\"url\">\n<script type=\"text/javascript\">\n    document.frmPublication.strTitle.value = document.getElementsByTagName(\"title\")[0].innerHTML;\n    document.frmPublication.strUrl.value = document.URL;\n</script>\n        \n<fieldset class=\"mrgn-tp-md mrgn-bttm-lg\">\t\t\n\n<legend class=\"field-name required\"><span class=\"field-name\">Le format dans lequel vous souhaitez recevoir le rapport</span> <strong class=\"required\">(obligatoire)</strong></legend>\n\n<div class=\"checkbox\">\n<label for=\"strPdf\"><input type=\"checkbox\" name=\"formatsent\" id=\"strPdf\" value=\"pdf\" required=\"required\">Fichier \u00e9lectronique PDF (format de document portable) envoy\u00e9 par courriel</label>\n</div>\n\n<div class=\"checkbox\">\n<label for=\"strText\"><input type=\"checkbox\" name=\"formatsent\" id=\"strText\" value=\"text\">Fichier \u00e9lectronique RTF (<span lang=\"en\">Rich Text Format</span>) envoy\u00e9 par courriel</label>\n</div>\n\n<div class=\"checkbox\">\n<label for=\"strBraille\"><input type=\"checkbox\" name=\"formatsent\" id=\"strBraille\" value=\"braille\">Copie braille envoy\u00e9e par la poste</label>\n</div>\n\n<div class=\"checkbox\">\n<label for=\"strPaper\"><input type=\"checkbox\" name=\"formatsent\" id=\"strPaper\" value=\"paper\">Copie papier envoy\u00e9e par la poste</label>\n</div>\n\n</fieldset>\t\n\n<fieldset class=\"mrgn-tp-md mrgn-bttm-lg\">\t\t\n\n<legend class=\"field-name\">Vos coordonn\u00e9es</legend>\n\n<label class=\"keyValue\" for=\"name\"></label>\n<input class=\"keyValue\" autocomplete=\"off\" type=\"text\" id=\"name\" name=\"name\">\n<label class=\"keyValue\" for=\"email\"></label>\n<input class=\"keyValue\" autocomplete=\"off\" type=\"email\" id=\"email\" name=\"email\"> \n\n<div class=\"form-group\">\n<label for=\"strFirstName\" class=\"required col-md-4 control-label\"><span class=\"field-name\">Pr\u00e9nom :</span> <strong class=\"required\">(obligatoire)</strong></label>\n<div class=\"col-md-8\">\n<input class=\"form-control\" id=\"strFirstName\" name=\"strFirstName\" type=\"text\" required=\"required\" pattern=\".{2,}\" data-rule-minlength=\"2\">\n</div>\n</div>\n            \n<div class=\"form-group\">\n<label for=\"strLastName\" class=\"required col-md-4 control-label\"><span class=\"field-name\">Nom :</span> <strong class=\"required\">(obligatoire)</strong></label>\n<div class=\"col-md-8\">\n<input class=\"form-control\" id=\"strLastName\" name=\"strLastName\" type=\"text\" required=\"required\" pattern=\".{2,}\" data-rule-minlength=\"2\">\n</div>\n</div>\n\n<div class=\"form-group\">\n<label for=\"strEmail\" class=\"required col-md-4 control-label\"><span class=\"field-name\">Adresse de courriel :</span> \u00a0<strong class=\"required\">(obligatoire)</strong></label>\n<div class=\"col-md-8\">\n<input class=\"form-control\" id=\"strEmail\" name=\"strEmail\" type=\"email\" required=\"required\">\n</div>\n</div>\n\n<div class=\"form-group\">\n<label for=\"strConfirmEmail\" class=\"required col-md-4 control-label\"><span class=\"field-name\">Confirmer Adresse de courriel :</span>  <strong class=\"required\">(obligatoire)</strong></label>\n<div class=\"col-md-8\">\n<input class=\"form-control\" id=\"strConfirmEmail\" name=\"strConfirmEmail\" type=\"email\" data-rule-equalto=\"#strEmail\" required=\"required\">\n</div>\n</div>\n\n<div class=\"form-group mrgn-tp-md\">\n<label for=\"lstdescribe\" class=\"required col-md-4 control-label\"><span class=\"field-name\">Comment vous vous d\u00e9criviez?</span> <strong class=\"required\">(obligatoire)</strong></label>\n<div class=\"col-md-8\">\n<select class=\"form-control\" id=\"lstdescribe\" name=\"lstdescribe\" required=\"required\">\n<option label=\"Choisir parmi la liste\"></option>\n<option value=\"Acad\u00e9mie\">Acad\u00e9mie</option>\n<option value=\"Association sectorielle\">Association sectorielle</option>  \n<option value=\"Autres institutions du gouvernement\">Autres institutions du gouvernement</option>\n<option value=\"Consommateur/Grand public\">Consommateur / Grand public</option>\n<option value=\"Groupe de consommateur\">Groupe de consommateur</option>\n<option value=\"Industrie/Secteur commercial\">Industrie / Secteur commercial</option>\n</select>\n</div>\n</div>\t\n\n<div class=\"form-group\">\n<label for=\"strAddress1\" class=\"col-md-4 control-label\"><span class=\"field-name\">Adresse 1 :</span></label>\n<div class=\"col-md-8\">\n<input class=\"form-control\" id=\"strAddress1\" name=\"strAddress1\" type=\"text\">\n</div>\n</div>\n\n<div class=\"form-group\">\n<label for=\"strAddress2\" class=\"col-md-4 control-label\"><span class=\"field-name\">Adresse 2 :</span></label>\n<div class=\"col-md-8\">\n<input class=\"form-control\" id=\"strAddress2\" name=\"strAddress2\" type=\"text\">\n</div>\n</div>\n\n<div class=\"form-group\">\n<label for=\"strCity\" class=\"col-md-4 control-label\"><span class=\"field-name\">Ville :</span></label>\n<div class=\"col-md-8\">\n<input class=\"form-control\" id=\"strCity\" name=\"strCity\" type=\"text\">\n</div>\n</div>\n\n<div class=\"form-group\">\n<label for=\"strProvince\" class=\"col-md-4 control-label\"><span class=\"field-name\">Province :</span></label>\n<div class=\"col-md-8\">\n<input class=\"form-control\" id=\"strProvince\" name=\"strProvince\" type=\"text\">\n</div>\n</div>\n\n<div class=\"form-group\">\n<label for=\"strCountry\" class=\"col-md-4 control-label\"><span class=\"field-name\">Pays : </span></label>\n<div class=\"col-md-8\">\n<input class=\"form-control\" id=\"strCountry\" name=\"strCountry\" type=\"text\">\n</div>\n</div>\n\n<div class=\"form-group\">\n<label for=\"strPostal\" class=\"col-md-4 control-label\"><span class=\"field-name\">Code postal : </span></label>\n<div class=\"col-md-8\">\n<input class=\"form-control\" id=\"strPostal\" name=\"strPostal\" type=\"text\">\n</div>\n</div>\n\n</fieldset>\t\n\n<input value=\"Soumettre votre demande\" id=\"btnSubmit\" name=\"btnSubmit\" class=\"btn btn-primary\" type=\"submit\"> \n<input value=\"Effacez tous les renseignements\" id=\"btnReset\" name=\"btnReset\" class=\"btn btn-default\" type=\"reset\">\n\n</form>\n</div>\n<script src=\"https://ajax.googleapis.com/ajax/libs/jquery/2.1.1/jquery.min.js\"></script>\n<script type=\"text/javascript\">\n$(document).ready (function(){\n\tif($(\"#strPaper\").checked || $(\"#strBraille\").checked)\n\t{\n\t\tPaperBrailleChecked();\n\t}\n});\n\n$(document).on(\"change\", \"#strBraille\", function(){\n\tif($(\"#strBraille\").is(\":checked\"))\n\t{\n\t\tPaperBrailleChecked();\n\t}\n\telse if(!($(\"#strPaper\").is(\":checked\")))\n\t{\n\t\tPaperBrailleUnChecked();\n\t}\n});\n\n$(document).on(\"change\", \"#strPaper\", function(){\n\tif($(\"#strPaper\").is(\":checked\"))\n\t{\n\t\tPaperBrailleChecked();\n\t}\n\telse if(!($(\"#strBraille\").is(\":checked\")))\n\t{\n\t\tPaperBrailleUnChecked();\n\t}\n});\n\nfunction PaperBrailleChecked()\n{\n\t$(\"#strAddress1\").attr(\"required\", \"true\");\n\t$(\"#strCity\").attr(\"required\", \"true\");\n\t$(\"#strProvince\").attr(\"required\", \"true\");\n\t$(\"#strCountry\").attr(\"required\", \"true\");\n\t$(\"#strPostal\").attr(\"required\", \"true\");\n}\n\nfunction PaperBrailleUnChecked()\n{\n\t$(\"#strAddress1\").removeAttr(\"required\");\n\t$(\"#strCity\").removeAttr(\"required\");\n\t$(\"#strProvince\").removeAttr(\"required\");\n\t$(\"#strCountry\").removeAttr(\"required\");\n\t$(\"#strPostal\").removeAttr(\"required\");\n}\n</script>\r\n\r\n<div class=\"row\">\r\n \r\n\t\t\t\r\n\t\t\t\r\n\r\n\t\t\r\n\t\r\n</div>"
    },
    "success": true,
    "chat_wizard": false
}