{
    "dcr_id": "1540499930498",
    "title": {
        "en": "National Microbiological Monitoring Program and Food Safety Oversight Program Annual Report 2015-2016",
        "fr": "Rapport annuel du Programme national de surveillance microbiologique et Programme de surveillance de la salubrit\u00e9 des aliments 2015-2016"
    },
    "html_modified": "2024-03-12 3:58:12 PM",
    "modified": "2018-11-07",
    "issued": "2018-11-07",
    "teamsite_location": {
        "en": "/default/main/inspection/cont-cont/food-aliments/STAGING/templatedata/comn-comn/forms-formes/data/nmmp_fsop_annual_report_2015-2016_1540499930498_eng",
        "fr": "/default/main/inspection/cont-cont/food-aliments/STAGING/templatedata/comn-comn/forms-formes/data/nmmp_fsop_annual_report_2015-2016_1540499930498_fra"
    },
    "ia_id": "1540499930825",
    "parent_ia_id": "1453327843364",
    "chronicletopic": {
        "en": "",
        "fr": ""
    },
    "chroniclecontent": {
        "en": "",
        "fr": ""
    },
    "chronicleaudience": {
        "en": "",
        "fr": ""
    },
    "sfcrdocumenttype": {
        "en": "",
        "fr": ""
    },
    "sfcraudience": {
        "en": "",
        "fr": ""
    },
    "sfcrmethodofproduction": {
        "en": "",
        "fr": ""
    },
    "activity": {
        "en": "",
        "fr": ""
    },
    "commodity": {
        "en": "",
        "fr": ""
    },
    "program": {
        "en": "",
        "fr": ""
    },
    "search_type": "other",
    "parent_node_id": "1453327843364",
    "layout_name": "content page 1 column",
    "breadcrumb": {
        "en": "National Microbiological Monitoring Program and Food Safety Oversight Program Annual Report 2015-2016",
        "fr": "Rapport annuel du Programme national de surveillance microbiologique et Programme de surveillance de la salubrit\u00e9 des aliments 2015-2016"
    },
    "label": {
        "en": "National Microbiological Monitoring Program and Food Safety Oversight Program Annual Report 2015-2016",
        "fr": "Rapport annuel du Programme national de surveillance microbiologique et Programme de surveillance de la salubrit\u00e9 des aliments 2015-2016"
    },
    "templatetype": "content page 1 column",
    "node_id": "1540499930825",
    "managing_branch": "comn",
    "type_name": "forms-formes",
    "dcr_type": "forms-formes",
    "parent_dcr_id": "1453324778043",
    "has_dcr_id": true,
    "lang": "en",
    "could_not_load": 0,
    "refaire": false,
    "interwoven_url": {
        "en": "/food-safety-for-industry/food-chemistry-and-microbiology/food-safety-testing-reports-and-journal-articles/nmmp-fsop-annual-report-2015-2016/",
        "fr": "/salubrite-alimentaire-pour-l-industrie/chimie-et-microbiologie-alimentaires/rapports-d-analyse-et-articles-de-revues-sur-la-sa/rapport-annuel-du-pnsm-pssa-2015-2016/"
    },
    "meta": {
        "viewport": {
            "en": "width=device-width,initial-scale=1",
            "fr": "width=device-width,initial-scale=1"
        },
        "service": {
            "en": "CFIA-ACIA",
            "fr": "CFIA-ACIA"
        },
        "accessRights": {
            "en": "2",
            "fr": "2"
        },
        "title": {
            "en": "National Microbiological Monitoring Program and Food Safety Oversight Program Annual Report 2015-2016",
            "fr": "Rapport annuel du Programme national de surveillance microbiologique et Programme de surveillance de la salubrit\u00e9 des aliments 2015-2016"
        },
        "description": {
            "en": "The Canadian Food Inspection Agency (CFIA) develops and delivers programs and services designed to protect Canadians from preventable food safety hazards.",
            "fr": "L'Agence canadienne d'inspection des aliments (ACIA) \u00e9labore et administre des programmes et des services visant \u00e0 prot\u00e9ger les Canadiens des dangers \u00e9vitables qui ont trait \u00e0 la salubrit\u00e9 des aliments."
        },
        "keywords": {
            "en": "food, food safety, food products, Food and Drugs Act, Food and Drug Regulations, food safety requirements, sampling, testing, food safety risks, microbiology reports, bacterial pathogens, annual reports, red meat, poultry, shell eggs, egg products, dairy products, fresh fruits, vegetables, processed fruit, vegetable products, National Microbiological Monitoring Program, 2015-2016",
            "fr": "aliments, salubrit\u00e9 des aliments, produits alimentaires, Loi sur les aliments et drogues, R\u00e8glement sur les aliments et drogues, exigences en mati\u00e8re de salubrit\u00e9 des aliments, \u00e9chantillonnage, analyse, risques pour la salubrit\u00e9 des aliments, rapports microbiologiques, produits de viande rouge, volaille, \u0153ufs en coquille, produits d'\u0153ufs, produits laitiers, fruits et l\u00e9gumes frais, ainsi que produits de fruits, l\u00e9gumes transform\u00e9s, 2015-2016"
        },
        "dcterms.subject": {
            "en": "bacteria,consumers,samples,imports,government information,inspection,agri-food products,consumer protection,government publication,testing",
            "fr": "bact\u00e9rie,consommateur,\u00e9chantillon,importation,information gouvernementale,inspection,produit agro-alimentaire,protection du consommateur,publication gouvernementale,test"
        },
        "creator": {
            "en": "Government of Canada,Canadian Food Inspection Agency",
            "fr": "Agence canadienne d'inspection des aliments,Gouvernement du Canada"
        },
        "language": {
            "en": "eng",
            "fr": "fra"
        },
        "issued": {
            "en": "2018-11-07",
            "fr": "2018-11-07"
        },
        "modified": {
            "en": "2018-11-07",
            "fr": "2018-11-07"
        },
        "type": {
            "en": "reference material",
            "fr": "mat\u00e9riel de r\u00e9f\u00e9rence"
        },
        "audience": {
            "en": "business,government,general public",
            "fr": "entreprises,gouvernement,grand public"
        },
        "name": {
            "en": "Government of Canada",
            "fr": "Gouvernement du Canada"
        },
        "areaServed": {
            "en": "Canada",
            "fr": "Canada"
        }
    },
    "h1": {
        "en": "National Microbiological Monitoring Program and Food Safety Oversight Program Annual Report 2015-2016",
        "fr": "Rapport annuel du Programme national de surveillance microbiologique et Programme de surveillance de la salubrit\u00e9 des aliments 2015-2016"
    },
    "js": {
        "en": "<script>\n    document.frmPublication.strTitle.value = document.getElementsByTagName(\"title\")[0].innerHTML;\n    document.frmPublication.strUrl.value = document.URL;\n</script>/* --------------------- MORE JAVASCRIPT ------------------- */<script>\n$(document).ready (function(){\n\tif($(\"#strPaper\").checked || $(\"#strBraille\").checked)\n\t{\n\t\tPaperBrailleChecked();\n\t}\n});\n\n$(document).on(\"change\", \"#strBraille\", function(){\n\tif($(\"#strBraille\").is(\":checked\"))\n\t{\n\t\tPaperBrailleChecked();\n\t}\n\telse if(!($(\"#strPaper\").is(\":checked\")))\n\t{\n\t\tPaperBrailleUnChecked();\n\t}\n});\n\n$(document).on(\"change\", \"#strPaper\", function(){\n\tif($(\"#strPaper\").is(\":checked\"))\n\t{\n\t\tPaperBrailleChecked();\n\t}\n\telse if(!($(\"#strBraille\").is(\":checked\")))\n\t{\n\t\tPaperBrailleUnChecked();\n\t}\n});\n\nfunction PaperBrailleChecked()\n{\n\t$(\"#strAddress1\").attr(\"required\", \"true\");\n\t$(\"#strCity\").attr(\"required\", \"true\");\n\t$(\"#strProvince\").attr(\"required\", \"true\");\n\t$(\"#strCountry\").attr(\"required\", \"true\");\n\t$(\"#strPostal\").attr(\"required\", \"true\");\n}\n\nfunction PaperBrailleUnChecked()\n{\n\t$(\"#strAddress1\").removeAttr(\"required\");\n\t$(\"#strCity\").removeAttr(\"required\");\n\t$(\"#strProvince\").removeAttr(\"required\");\n\t$(\"#strCountry\").removeAttr(\"required\");\n\t$(\"#strPostal\").removeAttr(\"required\");\n}\n</script>",
        "fr": "<script>\n    document.frmPublication.strTitle.value = document.getElementsByTagName(\"title\")[0].innerHTML;\n    document.frmPublication.strUrl.value = document.URL;\n</script>/* --------------------- MORE JAVASCRIPT ------------------- */<script>\n$(document).ready (function(){\n\tif($(\"#strPaper\").checked || $(\"#strBraille\").checked)\n\t{\n\t\tPaperBrailleChecked();\n\t}\n});\n\n$(document).on(\"change\", \"#strBraille\", function(){\n\tif($(\"#strBraille\").is(\":checked\"))\n\t{\n\t\tPaperBrailleChecked();\n\t}\n\telse if(!($(\"#strPaper\").is(\":checked\")))\n\t{\n\t\tPaperBrailleUnChecked();\n\t}\n});\n\n$(document).on(\"change\", \"#strPaper\", function(){\n\tif($(\"#strPaper\").is(\":checked\"))\n\t{\n\t\tPaperBrailleChecked();\n\t}\n\telse if(!($(\"#strBraille\").is(\":checked\")))\n\t{\n\t\tPaperBrailleUnChecked();\n\t}\n});\n\nfunction PaperBrailleChecked()\n{\n\t$(\"#strAddress1\").attr(\"required\", \"true\");\n\t$(\"#strCity\").attr(\"required\", \"true\");\n\t$(\"#strProvince\").attr(\"required\", \"true\");\n\t$(\"#strCountry\").attr(\"required\", \"true\");\n\t$(\"#strPostal\").attr(\"required\", \"true\");\n}\n\nfunction PaperBrailleUnChecked()\n{\n\t$(\"#strAddress1\").removeAttr(\"required\");\n\t$(\"#strCity\").removeAttr(\"required\");\n\t$(\"#strProvince\").removeAttr(\"required\");\n\t$(\"#strCountry\").removeAttr(\"required\");\n\t$(\"#strPostal\").removeAttr(\"required\");\n}\n</script>"
    },
    "mode_html": "no_editor_full",
    "body": {
        "en": "        \r\n        \n<h2>Summary</h2>\n\n<p>The Canadian Food Inspection Agency (CFIA) develops and delivers programs and services designed to protect Canadians from preventable food safety hazards. The CFIA works to ensure that food safety emergencies are effectively managed, that the public is aware of and contributes to food safety, and that consumers and the marketplace are protected from unfair practices. Canada's food safety requirements apply equally to the domestic and imported food sectors.</p>\n\n<p>The National Microbiological Monitoring Program (NMMP) is a food surveillance program managed by the CFIA to verify industry compliance with microbial standards, facilitate access of Canadian food products to international markets, provide information on the effectiveness of food safety control measures and interventions, and maintain consumer confidence in the safety of the food supply. Under the NMMP, a broad range of imported and domestic food products are sampled by CFIA inspectors. These food products are frequently sampled at federally registered establishments (i.e., those that produce food products that are exported or traded inter-provincially), which are inspected by CFIA inspectors, but samples may also be collected at other establishment types, such as warehouses, distribution centres, and wholesalers.</p>\n\n<p>In 2014, the Government of Canada introduced an initiative known as the Food Safety Oversight (FSO) Program to complement the NMMP by providing additional sampling and testing of commodities to specifically increase oversight on fresh fruit and vegetables, fish and seafood and manufactured products. In the 2015/16 fiscal year some FSO samples were collected by CFIA inspectors, in the same manner as the NMMP samples, however, the majority of the FSO samples were collected at retail by contracted samplers.</p>\n\n<p>The NMMP and FSO programs provide information to the Government of Canada on the safety of foods available to Canadians while verifying compliance of the food industry with safety practices and standards. Food-hazard combinations deemed to pose the greatest potential health risks, recent outbreaks of foodborne illnesses, emerging food-hazard combinations and historical levels of compliance are taken into consideration when designing NMMP and FSO monitoring sampling plans.</p>\n\n<p>Food products of the following commodities were tested under the NMMP and FSO programs in the 2015/16 fiscal year: red meat and poultry products, shell eggs and egg products, dairy products, fish and seafood, fresh fruits and vegetables and processed fruit and vegetable products. Food products within these commodities were selected for testing on the basis of known food-hazard combinations. Under the NMMP and FSO programs, environmental sampling was also performed at Canadian federally registered establishments to verify the producer's ability to control the presence of pathogens within the processing environment and confirm that food products are produced under sanitary conditions.</p>\n\n<p>Product and environmental samples collected were sent to CFIA laboratories and tested to verify industry compliance with food microbiological safety and quality standards. All samples were subject to appropriate follow-up actions by both industry and the CFIA. Such follow-up actions could include follow-up inspections, additional sampling, product disposal, corrective action requests, food safety investigations, product recalls, etc.</p>\n\n<p>In the 2015/16 fiscal year, 13172 tests were performed on 6078 domestic and imported food products collected under the NMMP. Specifically, 9074 tests were performed on 3972 domestic products and 4098 tests were performed on 2106 imported products to verify compliance with food safety standards. Results indicated that domestic products were 99.8% compliant whereas imported products were 99.5% compliant. Overall, a 99.7% compliance rate was observed for combined domestic and imported products. In addition, there were 2196 tests performed on 1768 environmental samples, which were assessed as 98.1% compliant.</p>\n\n<p>In 2015/16 fiscal year, 6033 tests were performed on 1778 domestic and imported food products collected under the FSO Program. Specifically, 2517 tests were performed on 715 domestic products and 3516 tests were performed on 1063 imported products. Results indicated that domestic products were 99.4% compliant whereas imported products were 99.9% compliant. Overall, a 99.7% compliance rate was observed for both domestic and imported products. In addition, there were 23 tests performed on 12 environmental samples under the FSO program, which were assessed as 91.7% compliant.</p>\n\n<p>The results of the 2015/16 NMMP and FSO sampling activities indicated that the vast majority of food products available in Canada between April 1, 2015 and March 31, 2016 were compliant with food standards. The few noncompliant samples that were detected resulted in appropriate follow-up actions by the CFIA and industry. These actions allowed the CFIA to continue to safeguard Canada's food system and the health and well-being of Canadians.</p>\r\n<style>\n/* required style */\n    .keyValue{\n\tdisplay: none !important;\n        visibility: hidden !important;\n</style>\n<h2>Request of Complete Report</h2>\n<p>The complete text of this report is available upon request.</p>\n\n<div class=\"wb-frmvld\">\n\n<form class=\"form-horizontal\" role=\"form\" method=\"post\" action=\"/active/netapp/comment/publicationposte.aspx#wb-cont\" name=\"frmPublication\">\n<input id=\"emailad0\" name=\"to\" class=\"hidden\" type=\"hidden\" aria-hidden=\"true\" value=\"G2r0moIedSXC9O3OjPSWZnNYQ5BM2eTcMFfwj+m0HKgJZppHslq0ZXPysVrKa8cslTYpCoTufZysEfKxcnCsgfyjGcVNRZblYEMQuUeuhfo=\">\n<input name=\"strLang\" type=\"hidden\" value=\"English\">\n<input name=\"strSubject\" type=\"hidden\" value=\"Chemical Residues / Microbiology Report Request\">\n<input name=\"strTitle\" type=\"hidden\" value=\"title\">\n<input name=\"strUrl\" type=\"hidden\" value=\"url\">\n<script type=\"text/javascript\">\n    document.frmPublication.strTitle.value = document.getElementsByTagName(\"title\")[0].innerHTML;\n    document.frmPublication.strUrl.value = document.URL;\n</script>\n        \n<fieldset class=\"mrgn-tp-md mrgn-bttm-lg\">\t\t\n\n<legend class=\"field-name required\"><span class=\"field-name\">The format in which you would like to receive the report</span> <strong class=\"required\">(required)</strong></legend>\n\n<div class=\"checkbox\">\n<label for=\"strPdf\"><input type=\"checkbox\" name=\"formatsent\" id=\"strPdf\" value=\"pdf\" required=\"required\">PDF (Portable Document Format) electronic file sent to you by email</label>\n</div>\n\n<div class=\"checkbox\">\n<label for=\"strText\"><input type=\"checkbox\" name=\"formatsent\" id=\"strText\" value=\"text\">RTF (Rich Text Format) electronic file sent to you by email</label>\n</div>\n\n<div class=\"checkbox\">\n<label for=\"strBraille\"><input type=\"checkbox\" name=\"formatsent\" id=\"strBraille\" value=\"braille\">Braille copy sent to you by mail</label>\n</div>\n\n<div class=\"checkbox\">\n<label for=\"strPaper\"><input type=\"checkbox\" name=\"formatsent\" id=\"strPaper\" value=\"paper\">Paper copy sent to you by mail</label>\n</div>\n\n</fieldset>\t\n\n<fieldset class=\"mrgn-tp-md mrgn-bttm-lg\">\t\t\n\n<legend class=\"field-name\">Your contact information</legend>\n\n<label class=\"keyValue\" for=\"name\"></label>\n<input class=\"keyValue\" autocomplete=\"off\" type=\"text\" id=\"name\" name=\"name\">\n<label class=\"keyValue\" for=\"email\"></label>\n<input class=\"keyValue\" autocomplete=\"off\" type=\"email\" id=\"email\" name=\"email\"> \n\n<div class=\"form-group\">\n<label for=\"strFirstName\" class=\"required col-md-4 control-label\"><span class=\"field-name\">First name:</span> <strong class=\"required\">(required)</strong></label>\n<div class=\"col-md-8\">\n<input class=\"form-control\" id=\"strFirstName\" name=\"strFirstName\" type=\"text\" required=\"required\" pattern=\".{2,}\" data-rule-minlength=\"2\">\n</div>\n</div>\n            \n<div class=\"form-group\">\n<label for=\"strLastName\" class=\"required col-md-4 control-label\"><span class=\"field-name\">Last name:</span> <strong class=\"required\">(required)</strong></label>\n<div class=\"col-md-8\">\n<input class=\"form-control\" id=\"strLastName\" name=\"strLastName\" type=\"text\" required=\"required\" pattern=\".{2,}\" data-rule-minlength=\"2\">\n</div>\n</div>\n\n<div class=\"form-group\">\n<label for=\"strEmail\" class=\"required col-md-4 control-label\"><span class=\"field-name\">Email address:</span>  <strong class=\"required\">(required)</strong></label>\n<div class=\"col-md-8\">\n<input class=\"form-control\" id=\"strEmail\" name=\"strEmail\" type=\"email\" required=\"required\">\n</div>\n</div>\n\n<div class=\"form-group\">\n<label for=\"strConfirmEmail\" class=\"required col-md-4 control-label\"><span class=\"field-name\">Confirm email address:</span>  <strong class=\"required\">(required)</strong></label>\n<div class=\"col-md-8\">\n<input class=\"form-control\" id=\"strConfirmEmail\" name=\"strConfirmEmail\" type=\"email\" data-rule-equalto=\"#strEmail\" required=\"required\">\n</div>\n</div>\n\n<div class=\"form-group mrgn-tp-md\">\n<label for=\"lstdescribe\" class=\"required col-md-4 control-label\"><span class=\"field-name\">How would you describe yourself?</span> <strong class=\"required\">(required)</strong></label>\n<div class=\"col-md-8\">\n<select class=\"form-control\" id=\"lstdescribe\" name=\"lstdescribe\" required=\"required\">\n<option label=\"Select from this list\"></option>\n<option value=\"Academia\">Academia</option>\n<option value=\"Consumer Association\">Consumer Association</option>\n<option value=\"Consumer/General Public\">Consumer / General Public</option>\n<option value=\"Industry Association\">Industry Association</option>\n<option value=\"Industry/Commercial Sector\">Industry / Commercial Sector</option>\n<option value=\"Other Government Departments\">Other Government Departments</option>\t\t\t\n</select>\n</div>\n</div>\t\n\n<div class=\"form-group\">\n<label for=\"strAddress1\" class=\"col-md-4 control-label\"><span class=\"field-name\">Address 1:</span></label>\n<div class=\"col-md-8\">\n<input class=\"form-control\" id=\"strAddress1\" name=\"strAddress1\" type=\"text\">\n</div>\n</div>\n\n<div class=\"form-group\">\n<label for=\"strAddress2\" class=\"col-md-4 control-label\"><span class=\"field-name\">Address 2:</span></label>\n<div class=\"col-md-8\">\n<input class=\"form-control\" id=\"strAddress2\" name=\"strAddress2\" type=\"text\">\n</div>\n</div>\n\n<div class=\"form-group\">\n<label for=\"strCity\" class=\"col-md-4 control-label\"><span class=\"field-name\">City:</span></label>\n<div class=\"col-md-8\">\n<input class=\"form-control\" id=\"strCity\" name=\"strCity\" type=\"text\">\n</div>\n</div>\n\n<div class=\"form-group\">\n<label for=\"strProvince\" class=\"col-md-4 control-label\"><span class=\"field-name\">Province:</span></label>\n<div class=\"col-md-8\">\n<input class=\"form-control\" id=\"strProvince\" name=\"strProvince\" type=\"text\">\n</div>\n</div>\n\n<div class=\"form-group\">\n<label for=\"strCountry\" class=\"col-md-4 control-label\"><span class=\"field-name\">Country:</span></label>\n<div class=\"col-md-8\">\n<input class=\"form-control\" id=\"strCountry\" name=\"strCountry\" type=\"text\">\n</div>\n</div>\n\n<div class=\"form-group\">\n<label for=\"strPostal\" class=\"col-md-4 control-label\"><span class=\"field-name\">Postal Code:</span></label>\n<div class=\"col-md-8\">\n<input class=\"form-control\" id=\"strPostal\" name=\"strPostal\" type=\"text\">\n</div>\n</div>\n\n</fieldset>\t\n\n<input value=\"Submit Your Request\" id=\"btnSubmit\" name=\"btnSubmit\" class=\"btn btn-primary\" type=\"submit\"> \n<input value=\"Clear All Information\" id=\"btnReset\" name=\"btnReset\" class=\"btn btn-default\" type=\"reset\">\n\n</form>\n</div>\n<script src=\"https://ajax.googleapis.com/ajax/libs/jquery/2.1.1/jquery.min.js\"></script>\n<script type=\"text/javascript\">\n$(document).ready (function(){\n\tif($(\"#strPaper\").checked || $(\"#strBraille\").checked)\n\t{\n\t\tPaperBrailleChecked();\n\t}\n});\n\n$(document).on(\"change\", \"#strBraille\", function(){\n\tif($(\"#strBraille\").is(\":checked\"))\n\t{\n\t\tPaperBrailleChecked();\n\t}\n\telse if(!($(\"#strPaper\").is(\":checked\")))\n\t{\n\t\tPaperBrailleUnChecked();\n\t}\n});\n\n$(document).on(\"change\", \"#strPaper\", function(){\n\tif($(\"#strPaper\").is(\":checked\"))\n\t{\n\t\tPaperBrailleChecked();\n\t}\n\telse if(!($(\"#strBraille\").is(\":checked\")))\n\t{\n\t\tPaperBrailleUnChecked();\n\t}\n});\n\nfunction PaperBrailleChecked()\n{\n\t$(\"#strAddress1\").attr(\"required\", \"true\");\n\t$(\"#strCity\").attr(\"required\", \"true\");\n\t$(\"#strProvince\").attr(\"required\", \"true\");\n\t$(\"#strCountry\").attr(\"required\", \"true\");\n\t$(\"#strPostal\").attr(\"required\", \"true\");\n}\n\nfunction PaperBrailleUnChecked()\n{\n\t$(\"#strAddress1\").removeAttr(\"required\");\n\t$(\"#strCity\").removeAttr(\"required\");\n\t$(\"#strProvince\").removeAttr(\"required\");\n\t$(\"#strCountry\").removeAttr(\"required\");\n\t$(\"#strPostal\").removeAttr(\"required\");\n}\n</script>\r\n\r\n\r\n\r\n<div class=\"row\">\r\n \r\n\t\r\n\t\t\t\r\n\r\n<div class=\"col-xm-12 pagedetails container\">\r\n\t\t\t\t\r\n\r\n</div>\r\n\t\r\n</div>",
        "fr": "\r\n        \r\n        \n<h2>R\u00e9sum\u00e9</h2>\n\n<p>L'Agence canadienne d'inspection des aliments (ACIA) \u00e9labore et administre des programmes et des services visant \u00e0 prot\u00e9ger les Canadiens des dangers \u00e9vitables qui ont trait \u00e0 la salubrit\u00e9 des aliments. L'ACIA s'assure que les urgences li\u00e9es \u00e0 la salubrit\u00e9 des aliments sont bien g\u00e9r\u00e9es, que la population est sensibilis\u00e9e \u00e0 la salubrit\u00e9 des aliments et y contribue, et que les consommateurs et le march\u00e9 sont \u00e0 l'abri des pratiques d\u00e9loyales. Les exigences canadiennes relatives \u00e0 la salubrit\u00e9 des aliments s'appliquent tout autant aux aliments canadiens qu'aux aliments import\u00e9s.</p>\n\n<p>Le Programme national de surveillance microbiologique (PNSM) est un programme de surveillance des aliments g\u00e9r\u00e9 par l'ACIA et con\u00e7u pour d\u00e9terminer si l'industrie se conforme aux normes microbiologiques; faciliter l'acc\u00e8s aux march\u00e9s internationaux pour les produits alimentaires canadiens; fournir de l'information sur l'efficacit\u00e9 des mesures de contr\u00f4le de la salubrit\u00e9 des aliments et des interventions en la mati\u00e8re; faire en sorte que les consommateurs gardent confiance en la salubrit\u00e9 de l'approvisionnement alimentaire. Dans le cadre du PNSM, des \u00e9chantillons d'un vaste \u00e9ventail de produits alimentaires import\u00e9s et canadiens sont pr\u00e9lev\u00e9s par les inspecteurs de l'ACIA. Ces produits alimentaires sont fr\u00e9quemment \u00e9chantillonn\u00e9s dans les \u00e9tablissements agr\u00e9\u00e9s par le gouvernement f\u00e9d\u00e9ral (c.-\u00e0-d. les \u00e9tablissements qui fabriquent des produits alimentaires destin\u00e9s \u00e0 l'exportation ou au commerce interprovincial), qui sont inspect\u00e9s par des inspecteurs de l'ACIA, mais des \u00e9chantillons sont \u00e9galement pr\u00e9lev\u00e9s dans d'autres types d'\u00e9tablissements, par exemple des entrep\u00f4ts, des centres de distribution et des commerces de gros.</p>\n\n<p>En 2014, le gouvernement du Canada a introduit une initiative connue sous le nom de programme de surveillance de la salubrit\u00e9 des aliments (PSSA) qui compl\u00e9mentait le PNSM par le pr\u00e9l\u00e8vement et l'analyse de produits additionnels dans le but d'accro\u00eetre la supervision des fruits et l\u00e9gumes frais, du poisson et des produits de la mer, ainsi que des produits manufactur\u00e9s. Au cours de l'exercice 2015-2016, certains \u00e9chantillons du PSSA ont \u00e9t\u00e9 pr\u00e9lev\u00e9s par les inspecteurs de l'ACIA de la m\u00eame mani\u00e8re que les \u00e9chantillons du PNSM, mais la majorit\u00e9 des \u00e9chantillons du PSSA ont \u00e9t\u00e9 pr\u00e9lev\u00e9s par des \u00e9chantillonneurs sous-traitants.</p>\n\n<p>Le PNSM et le PSSA fournissent au gouvernement du Canada des renseignements sur la salubrit\u00e9 des aliments offerts aux Canadiens tout en v\u00e9rifiant la conformit\u00e9 de l'industrie alimentaire quant aux pratiques et aux normes de salubrit\u00e9. Lorsqu'on con\u00e7oit les plans d'\u00e9chantillonnage de surveillance du PNSM et du PSSA, on tient compte des combinaisons aliment-danger qui semblent poser les plus grands risques pour la sant\u00e9, des \u00e9closions r\u00e9centes de maladie d'origine alimentaire, des nouvelles combinaisons aliment-danger et des taux de conformit\u00e9 ant\u00e9rieurs.</p>\n\n<p>Des produits alimentaires dans les cat\u00e9gories suivantes ont \u00e9t\u00e9 analys\u00e9s dans le cadre du PNSM et du PSSA au cours de l'exercice 2015-2016\u00a0: produits de viande rouge et de volaille, \u0153ufs en coquille et produits d'\u0153ufs, produits laitiers, poisson et produits de la mer, fruits et l\u00e9gumes frais, ainsi que produits de fruits et l\u00e9gumes transform\u00e9s. Les produits alimentaires de ces cat\u00e9gories ont \u00e9t\u00e9 choisis en fonction de combinaisons aliment-danger connues. Des \u00e9chantillons environnementaux ont aussi \u00e9t\u00e9 pr\u00e9lev\u00e9s dans les \u00e9tablissements canadiens agr\u00e9\u00e9s par le gouvernement f\u00e9d\u00e9ral afin de s'assurer que le producteur pouvait contr\u00f4ler la pr\u00e9sence d'agents pathog\u00e8nes dans l'environnement de transformation et pour confirmer que les produits alimentaires \u00e9taient fabriqu\u00e9s dans des conditions sanitaires.</p>\n\n<p>Les \u00e9chantillons de produits et les \u00e9chantillons environnementaux pr\u00e9lev\u00e9s ont \u00e9t\u00e9 envoy\u00e9s aux laboratoires de l'ACIA, qui les ont analys\u00e9s pour v\u00e9rifier la conformit\u00e9 de l'industrie aux normes relatives \u00e0 la salubrit\u00e9 microbiologique et \u00e0 la qualit\u00e9 des aliments. L'industrie et l'ACIA ont pris les mesures de suivi appropri\u00e9es pour chaque \u00e9chantillon concern\u00e9. Ces mesures pouvaient notamment inclure des inspections de suivi, le pr\u00e9l\u00e8vement d'\u00e9chantillons suppl\u00e9mentaires, l'\u00e9limination de produits, une demande d'application de mesures correctives, une enqu\u00eate sur la salubrit\u00e9 des aliments et un rappel de produits.</p>\n\n<p>Au cours de l'exercice 2015-2016, 13 172 analyses ont port\u00e9 sur 6078 produits alimentaires canadiens et import\u00e9s \u00e9chantillonn\u00e9s dans le cadre du PNSM. Plus pr\u00e9cis\u00e9ment, 9074 analyses ont port\u00e9 sur 3972 produits canadiens et 4098 analyses, sur 2106 produits import\u00e9s. Les analyses visaient \u00e0 d\u00e9terminer si les produits \u00e9taient conformes aux normes canadiennes. Les r\u00e9sultats indiquent que la conformit\u00e9 des produits canadiens \u00e9tait de 99,8\u00a0% et celle des produits import\u00e9s, de 99,5\u00a0%. Dans l'ensemble, on a observ\u00e9 un taux de conformit\u00e9 de 99,7\u00a0% des produits canadiens et import\u00e9s combin\u00e9s. En outre, 2196 analyses ont port\u00e9 sur 1768 \u00e9chantillons environnementaux, pour un taux de conformit\u00e9 de 98,1\u00a0%.</p>\n\n<p>Au cours de l'exercice 2015-2016, 6033 analyses ont port\u00e9 sur 1778 produits alimentaires canadiens et import\u00e9s \u00e9chantillonn\u00e9s dans le cadre du PSSA. Plus pr\u00e9cis\u00e9ment, 2517 analyses ont port\u00e9 sur 715 produits canadiens et 3516 analyses ont port\u00e9 sur 1063 produits import\u00e9s. Les r\u00e9sultats indiquent que la conformit\u00e9 des produits canadiens \u00e9tait de 99,4\u00a0% et celle des produits import\u00e9s, de 99,9\u00a0%. Dans l'ensemble, un taux de conformit\u00e9 de 99,7\u00a0% a \u00e9t\u00e9 observ\u00e9 pour les produits canadiens et import\u00e9s. En outre, 23 analyses ont port\u00e9 sur 12 \u00e9chantillons environnementaux dans le cadre du PSSA, et 91,7\u00a0% des \u00e9chantillons \u00e9taient conformes.</p>\n\n<p>Les r\u00e9sultats du PNSM et des activit\u00e9s d'\u00e9chantillonnage du PSSA de 2015-2016 indiquent que les produits alimentaires disponibles au Canada entre le 1<sup>er</sup> avril 2015 et le 31 mars 2016 \u00e9taient en grande majorit\u00e9 conformes aux normes alimentaires. Les quelques \u00e9chantillons trouv\u00e9s non conformes ont donn\u00e9 lieu aux mesures de suivi appropri\u00e9es de la part de l'ACIA et de l'industrie. Ces mesures ont permis \u00e0 l'ACIA de continuer de prot\u00e9ger le syst\u00e8me alimentaire du Canada, ainsi que la sant\u00e9 et le bien-\u00eatre de la population canadienne.</p>\r\n<style>\n/* required style */\n    .keyValue{\n\tdisplay: none !important;\n        visibility: hidden !important;\n</style>\n<h2>Demande de rapport complet</h2>\n<p>La version int\u00e9grale du pr\u00e9sent rapport est disponible sur demande.</p>\n\n<div class=\"wb-frmvld\">\n\n<form class=\"form-horizontal\" role=\"form\" method=\"post\" action=\"/active/netapp/comment/publicationposte.aspx#wb-cont\" name=\"frmPublication\">\n\n<input id=\"emailad0\" name=\"to\" class=\"hidden\" type=\"hidden\" aria-hidden=\"true\" value=\"l4qFYzuA3u0LvJIk9UIFRkRHjSMtHuhNiv8KzVOBvybdglSvyd0gMe1JJ3HDvBHJ0J3o9OCEvizwL840WD4wnFJaP/bUWRk+XjEO+DYH/Ho=\">\n<input name=\"strLang\" type=\"hidden\" value=\"Francais\">\n<input name=\"strSubject\" type=\"hidden\" value=\"Demande de rapport de r\u00e9sidus chimiques / microbiologie\">\n<input name=\"strTitle\" type=\"hidden\" value=\"title\">\n<input name=\"strUrl\" type=\"hidden\" value=\"url\">\n<script type=\"text/javascript\">\n    document.frmPublication.strTitle.value = document.getElementsByTagName(\"title\")[0].innerHTML;\n    document.frmPublication.strUrl.value = document.URL;\n</script>\n        \n<fieldset class=\"mrgn-tp-md mrgn-bttm-lg\">\t\t\n\n<legend class=\"field-name required\"><span class=\"field-name\">Le format dans lequel vous souhaitez recevoir le rapport</span> <strong class=\"required\">(obligatoire)</strong></legend>\n\n<div class=\"checkbox\">\n<label for=\"strPdf\"><input type=\"checkbox\" name=\"formatsent\" id=\"strPdf\" value=\"pdf\" required=\"required\">Fichier \u00e9lectronique PDF (format de document portable) envoy\u00e9 par courriel</label>\n</div>\n\n<div class=\"checkbox\">\n<label for=\"strText\"><input type=\"checkbox\" name=\"formatsent\" id=\"strText\" value=\"text\">Fichier \u00e9lectronique RTF (<span lang=\"en\">Rich Text Format</span>) envoy\u00e9 par courriel</label>\n</div>\n\n<div class=\"checkbox\">\n<label for=\"strBraille\"><input type=\"checkbox\" name=\"formatsent\" id=\"strBraille\" value=\"braille\">Copie braille envoy\u00e9e par la poste</label>\n</div>\n\n<div class=\"checkbox\">\n<label for=\"strPaper\"><input type=\"checkbox\" name=\"formatsent\" id=\"strPaper\" value=\"paper\">Copie papier envoy\u00e9e par la poste</label>\n</div>\n\n</fieldset>\t\n\n<fieldset class=\"mrgn-tp-md mrgn-bttm-lg\">\t\t\n\n<legend class=\"field-name\">Vos coordonn\u00e9es</legend>\n\n<label class=\"keyValue\" for=\"name\"></label>\n<input class=\"keyValue\" autocomplete=\"off\" type=\"text\" id=\"name\" name=\"name\">\n<label class=\"keyValue\" for=\"email\"></label>\n<input class=\"keyValue\" autocomplete=\"off\" type=\"email\" id=\"email\" name=\"email\"> \n\n<div class=\"form-group\">\n<label for=\"strFirstName\" class=\"required col-md-4 control-label\"><span class=\"field-name\">Pr\u00e9nom :</span> <strong class=\"required\">(obligatoire)</strong></label>\n<div class=\"col-md-8\">\n<input class=\"form-control\" id=\"strFirstName\" name=\"strFirstName\" type=\"text\" required=\"required\" pattern=\".{2,}\" data-rule-minlength=\"2\">\n</div>\n</div>\n            \n<div class=\"form-group\">\n<label for=\"strLastName\" class=\"required col-md-4 control-label\"><span class=\"field-name\">Nom :</span> <strong class=\"required\">(obligatoire)</strong></label>\n<div class=\"col-md-8\">\n<input class=\"form-control\" id=\"strLastName\" name=\"strLastName\" type=\"text\" required=\"required\" pattern=\".{2,}\" data-rule-minlength=\"2\">\n</div>\n</div>\n\n<div class=\"form-group\">\n<label for=\"strEmail\" class=\"required col-md-4 control-label\"><span class=\"field-name\">Adresse de courriel :</span> \u00a0<strong class=\"required\">(obligatoire)</strong></label>\n<div class=\"col-md-8\">\n<input class=\"form-control\" id=\"strEmail\" name=\"strEmail\" type=\"email\" required=\"required\">\n</div>\n</div>\n\n<div class=\"form-group\">\n<label for=\"strConfirmEmail\" class=\"required col-md-4 control-label\"><span class=\"field-name\">Confirmer Adresse de courriel :</span>  <strong class=\"required\">(obligatoire)</strong></label>\n<div class=\"col-md-8\">\n<input class=\"form-control\" id=\"strConfirmEmail\" name=\"strConfirmEmail\" type=\"email\" data-rule-equalto=\"#strEmail\" required=\"required\">\n</div>\n</div>\n\n<div class=\"form-group mrgn-tp-md\">\n<label for=\"lstdescribe\" class=\"required col-md-4 control-label\"><span class=\"field-name\">Comment vous vous d\u00e9criviez?</span> <strong class=\"required\">(obligatoire)</strong></label>\n<div class=\"col-md-8\">\n<select class=\"form-control\" id=\"lstdescribe\" name=\"lstdescribe\" required=\"required\">\n<option label=\"Choisir parmi la liste\"></option>\n<option value=\"Acad\u00e9mie\">Acad\u00e9mie</option>\n<option value=\"Association sectorielle\">Association sectorielle</option>  \n<option value=\"Autres institutions du gouvernement\">Autres institutions du gouvernement</option>\n<option value=\"Consommateur/Grand public\">Consommateur / Grand public</option>\n<option value=\"Groupe de consommateur\">Groupe de consommateur</option>\n<option value=\"Industrie/Secteur commercial\">Industrie / Secteur commercial</option>\n</select>\n</div>\n</div>\t\n\n<div class=\"form-group\">\n<label for=\"strAddress1\" class=\"col-md-4 control-label\"><span class=\"field-name\">Adresse 1 :</span></label>\n<div class=\"col-md-8\">\n<input class=\"form-control\" id=\"strAddress1\" name=\"strAddress1\" type=\"text\">\n</div>\n</div>\n\n<div class=\"form-group\">\n<label for=\"strAddress2\" class=\"col-md-4 control-label\"><span class=\"field-name\">Adresse 2 :</span></label>\n<div class=\"col-md-8\">\n<input class=\"form-control\" id=\"strAddress2\" name=\"strAddress2\" type=\"text\">\n</div>\n</div>\n\n<div class=\"form-group\">\n<label for=\"strCity\" class=\"col-md-4 control-label\"><span class=\"field-name\">Ville :</span></label>\n<div class=\"col-md-8\">\n<input class=\"form-control\" id=\"strCity\" name=\"strCity\" type=\"text\">\n</div>\n</div>\n\n<div class=\"form-group\">\n<label for=\"strProvince\" class=\"col-md-4 control-label\"><span class=\"field-name\">Province :</span></label>\n<div class=\"col-md-8\">\n<input class=\"form-control\" id=\"strProvince\" name=\"strProvince\" type=\"text\">\n</div>\n</div>\n\n<div class=\"form-group\">\n<label for=\"strCountry\" class=\"col-md-4 control-label\"><span class=\"field-name\">Pays : </span></label>\n<div class=\"col-md-8\">\n<input class=\"form-control\" id=\"strCountry\" name=\"strCountry\" type=\"text\">\n</div>\n</div>\n\n<div class=\"form-group\">\n<label for=\"strPostal\" class=\"col-md-4 control-label\"><span class=\"field-name\">Code postal : </span></label>\n<div class=\"col-md-8\">\n<input class=\"form-control\" id=\"strPostal\" name=\"strPostal\" type=\"text\">\n</div>\n</div>\n\n</fieldset>\t\n\n<input value=\"Soumettre votre demande\" id=\"btnSubmit\" name=\"btnSubmit\" class=\"btn btn-primary\" type=\"submit\"> \n<input value=\"Effacez tous les renseignements\" id=\"btnReset\" name=\"btnReset\" class=\"btn btn-default\" type=\"reset\">\n\n</form>\n</div>\n<script src=\"https://ajax.googleapis.com/ajax/libs/jquery/2.1.1/jquery.min.js\"></script>\n<script type=\"text/javascript\">\n$(document).ready (function(){\n\tif($(\"#strPaper\").checked || $(\"#strBraille\").checked)\n\t{\n\t\tPaperBrailleChecked();\n\t}\n});\n\n$(document).on(\"change\", \"#strBraille\", function(){\n\tif($(\"#strBraille\").is(\":checked\"))\n\t{\n\t\tPaperBrailleChecked();\n\t}\n\telse if(!($(\"#strPaper\").is(\":checked\")))\n\t{\n\t\tPaperBrailleUnChecked();\n\t}\n});\n\n$(document).on(\"change\", \"#strPaper\", function(){\n\tif($(\"#strPaper\").is(\":checked\"))\n\t{\n\t\tPaperBrailleChecked();\n\t}\n\telse if(!($(\"#strBraille\").is(\":checked\")))\n\t{\n\t\tPaperBrailleUnChecked();\n\t}\n});\n\nfunction PaperBrailleChecked()\n{\n\t$(\"#strAddress1\").attr(\"required\", \"true\");\n\t$(\"#strCity\").attr(\"required\", \"true\");\n\t$(\"#strProvince\").attr(\"required\", \"true\");\n\t$(\"#strCountry\").attr(\"required\", \"true\");\n\t$(\"#strPostal\").attr(\"required\", \"true\");\n}\n\nfunction PaperBrailleUnChecked()\n{\n\t$(\"#strAddress1\").removeAttr(\"required\");\n\t$(\"#strCity\").removeAttr(\"required\");\n\t$(\"#strProvince\").removeAttr(\"required\");\n\t$(\"#strCountry\").removeAttr(\"required\");\n\t$(\"#strPostal\").removeAttr(\"required\");\n}\n</script>\r\n\r\n<div class=\"row\">\r\n \r\n\t\t\t\r\n\t\t\t\r\n\r\n\t\t\r\n\t\r\n</div>"
    },
    "success": true,
    "chat_wizard": false
}