{
    "dcr_id": "1645636586466",
    "title": {
        "en": "2012-2014 Deoxynivalenol in Selected Foods",
        "fr": "2012-2014 Le d\u00e9soxynival\u00e9nol dans certains produits alimentaires"
    },
    "html_modified": "2024-03-12 3:59:13 PM",
    "modified": "2016-08-05",
    "issued": "2022-02-23",
    "teamsite_location": {
        "en": "/default/main/inspection/cont-cont/food-aliments/STAGING/templatedata/comn-comn/forms-formes/data/chem_testing_report_2012-2014_selected_deoxynivalenol_1645636586466_eng",
        "fr": "/default/main/inspection/cont-cont/food-aliments/STAGING/templatedata/comn-comn/forms-formes/data/chem_testing_report_2012-2014_selected_deoxynivalenol_1645636586466_fra"
    },
    "ia_id": "1645636586794",
    "parent_ia_id": "1453327843364",
    "chronicletopic": {
        "en": "",
        "fr": ""
    },
    "chroniclecontent": {
        "en": "",
        "fr": ""
    },
    "chronicleaudience": {
        "en": "",
        "fr": ""
    },
    "sfcrdocumenttype": {
        "en": "",
        "fr": ""
    },
    "sfcraudience": {
        "en": "",
        "fr": ""
    },
    "sfcrmethodofproduction": {
        "en": "",
        "fr": ""
    },
    "activity": {
        "en": "",
        "fr": ""
    },
    "commodity": {
        "en": "",
        "fr": ""
    },
    "program": {
        "en": "",
        "fr": ""
    },
    "search_type": "other",
    "parent_node_id": "1453327843364",
    "layout_name": "content page 1 column",
    "breadcrumb": {
        "en": "2012-2014 Deoxynivalenol in Selected Foods",
        "fr": "2012-2014 Le d\u00e9soxynival\u00e9nol dans certains produits alimentaires"
    },
    "label": {
        "en": "2012-2014 Deoxynivalenol in Selected Foods",
        "fr": "2012-2014 Le d\u00e9soxynival\u00e9nol dans certains produits alimentaires"
    },
    "templatetype": "content page 1 column",
    "node_id": "1645636586794",
    "managing_branch": "comn",
    "type_name": "forms-formes",
    "dcr_type": "forms-formes",
    "parent_dcr_id": "1453324778043",
    "has_dcr_id": true,
    "lang": "en",
    "could_not_load": 0,
    "refaire": false,
    "interwoven_url": {
        "en": "/food-safety-for-industry/food-chemistry-and-microbiology/food-safety-testing-reports-and-journal-articles/deoxynivalenol-in-selected-foods/",
        "fr": "/salubrite-alimentaire-pour-l-industrie/chimie-et-microbiologie-alimentaires/rapports-d-analyse-et-articles-de-revues-sur-la-sa/desoxynivalenol-dans-certains-produits-alimentaire/"
    },
    "meta": {
        "viewport": {
            "en": "width=device-width,initial-scale=1",
            "fr": "width=device-width,initial-scale=1"
        },
        "service": {
            "en": "CFIA-ACIA",
            "fr": "CFIA-ACIA"
        },
        "accessRights": {
            "en": "2",
            "fr": "2"
        },
        "title": {
            "en": "2012-2014 Deoxynivalenol in Selected Foods",
            "fr": "2012-2014 Le d\u00e9soxynival\u00e9nol dans certains produits alimentaires"
        },
        "description": {
            "en": "The Food Safety Action Plan (FSAP) aims to modernize and enhance Canada's food safety system. As part of the FSAP enhanced surveillance initiative, targeted surveys are used to examine various foods for specific hazards.",
            "fr": "Le Plan d'action pour assurer la s\u00e9curit\u00e9 des produits alimentaires (PAASPA) vise \u00e0 moderniser et \u00e0 am\u00e9liorer le syst\u00e8me canadien de salubrit\u00e9 des aliments. Dans le cadre de l'initiative visant \u00e0 am\u00e9liorer la surveillance pr\u00e9vue dans le PAASPA, des \u00e9tudes cibl\u00e9es sont effectu\u00e9es afin de recueillir des donn\u00e9es permettant de d\u00e9celer des dangers pr\u00e9cis dans divers aliments."
        },
        "keywords": {
            "en": "food, samples, food inspection, consumer protection, regulations, food safety, testing, deoxynivalenol",
            "fr": "aliment, \u00e9chantillon, inspection des aliments, protection du consommateur, r\u00e8glements, salubrit\u00e9 des aliments, s\u00e9curit\u00e9, v\u00e9rification, d\u00e9soxynival\u00e9nol"
        },
        "dcterms.subject": {
            "en": "assessment,inspection,food inspection,veterinary medicine,agri-food products,scientific research,food safety",
            "fr": "\u00e9valuation,inspection,inspection des aliments,m\u00e9decine v\u00e9t\u00e9rinaire,produit agro-alimentaire,recherche scientifique,salubrit\u00e9 des aliments"
        },
        "creator": {
            "en": "Government of Canada,Canadian Food Inspection Agency",
            "fr": "Gouvernement du Canada,Agence canadienne d'inspection des aliments"
        },
        "language": {
            "en": "eng",
            "fr": "fra"
        },
        "issued": {
            "en": "2022-02-23",
            "fr": "2022-02-23"
        },
        "modified": {
            "en": "2016-08-05",
            "fr": "2016-08-05"
        },
        "type": {
            "en": "reference material",
            "fr": "mat\u00e9riel de r\u00e9f\u00e9rence"
        },
        "audience": {
            "en": "business,government,general public,scientists",
            "fr": "entreprises,gouvernement,grand public,Scientifiques"
        },
        "name": {
            "en": "Government of Canada",
            "fr": "Gouvernement du Canada"
        },
        "areaServed": {
            "en": "Canada",
            "fr": "Canada"
        }
    },
    "h1": {
        "en": "2012-2014 Deoxynivalenol in Selected Foods",
        "fr": "2012-2014 Le d\u00e9soxynival\u00e9nol dans certains produits alimentaires"
    },
    "js": {
        "en": "<script>\n    document.frmPublication.strTitle.value = document.getElementsByTagName(\"title\")[0].innerHTML;\n    document.frmPublication.strUrl.value = document.URL;\n</script>/* --------------------- MORE JAVASCRIPT ------------------- */<script>\n$(document).ready (function(){\n\tif($(\"#strPaper\").checked || $(\"#strBraille\").checked)\n\t{\n\t\tPaperBrailleChecked();\n\t}\n});\n\n$(document).on(\"change\", \"#strBraille\", function(){\n\tif($(\"#strBraille\").is(\":checked\"))\n\t{\n\t\tPaperBrailleChecked();\n\t}\n\telse if(!($(\"#strPaper\").is(\":checked\")))\n\t{\n\t\tPaperBrailleUnChecked();\n\t}\n});\n\n$(document).on(\"change\", \"#strPaper\", function(){\n\tif($(\"#strPaper\").is(\":checked\"))\n\t{\n\t\tPaperBrailleChecked();\n\t}\n\telse if(!($(\"#strBraille\").is(\":checked\")))\n\t{\n\t\tPaperBrailleUnChecked();\n\t}\n});\n\nfunction PaperBrailleChecked()\n{\n\t$(\"#strAddress1\").attr(\"required\", \"true\");\n\t$(\"#strCity\").attr(\"required\", \"true\");\n\t$(\"#strProvince\").attr(\"required\", \"true\");\n\t$(\"#strCountry\").attr(\"required\", \"true\");\n\t$(\"#strPostal\").attr(\"required\", \"true\");\n}\n\nfunction PaperBrailleUnChecked()\n{\n\t$(\"#strAddress1\").removeAttr(\"required\");\n\t$(\"#strCity\").removeAttr(\"required\");\n\t$(\"#strProvince\").removeAttr(\"required\");\n\t$(\"#strCountry\").removeAttr(\"required\");\n\t$(\"#strPostal\").removeAttr(\"required\");\n}\n</script>",
        "fr": "<script>\n    document.frmPublication.strTitle.value = document.getElementsByTagName(\"title\")[0].innerHTML;\n    document.frmPublication.strUrl.value = document.URL;\n</script>/* --------------------- MORE JAVASCRIPT ------------------- */<script>\n$(document).ready (function(){\n\tif($(\"#strPaper\").checked || $(\"#strBraille\").checked)\n\t{\n\t\tPaperBrailleChecked();\n\t}\n});\n\n$(document).on(\"change\", \"#strBraille\", function(){\n\tif($(\"#strBraille\").is(\":checked\"))\n\t{\n\t\tPaperBrailleChecked();\n\t}\n\telse if(!($(\"#strPaper\").is(\":checked\")))\n\t{\n\t\tPaperBrailleUnChecked();\n\t}\n});\n\n$(document).on(\"change\", \"#strPaper\", function(){\n\tif($(\"#strPaper\").is(\":checked\"))\n\t{\n\t\tPaperBrailleChecked();\n\t}\n\telse if(!($(\"#strBraille\").is(\":checked\")))\n\t{\n\t\tPaperBrailleUnChecked();\n\t}\n});\n\nfunction PaperBrailleChecked()\n{\n\t$(\"#strAddress1\").attr(\"required\", \"true\");\n\t$(\"#strCity\").attr(\"required\", \"true\");\n\t$(\"#strProvince\").attr(\"required\", \"true\");\n\t$(\"#strCountry\").attr(\"required\", \"true\");\n\t$(\"#strPostal\").attr(\"required\", \"true\");\n}\n\nfunction PaperBrailleUnChecked()\n{\n\t$(\"#strAddress1\").removeAttr(\"required\");\n\t$(\"#strCity\").removeAttr(\"required\");\n\t$(\"#strProvince\").removeAttr(\"required\");\n\t$(\"#strCountry\").removeAttr(\"required\");\n\t$(\"#strPostal\").removeAttr(\"required\");\n}\n</script>"
    },
    "mode_html": "no_editor_full",
    "body": {
        "en": "        \r\n        \n<h2>Summary</h2>\n\n<p>The Food Safety Action Plan (FSAP) aims to modernize and enhance Canada's food safety system. As part of the <abbr title=\"Food Safety Action Plan\">FSAP</abbr> enhanced surveillance initiative, targeted surveys are used to examine various foods for specific hazards.</p> \n\n<p>This targeted survey focused on a natural toxin, deoxynivalenol (DON), which can contaminate grains in the field. <abbr title=\"deoxynivalenol\">DON</abbr> is not carcinogenic, but exposure to very high levels may cause gastrointestinal, immunosuppressive and developmental effects in various animal species. As <abbr title=\"deoxynivalenol\">DON</abbr> is resistant to heat, finished foods may still contain detectable levels of <abbr title=\"deoxynivalenol\">DON</abbr> despite being substantially processed.</p> \n\n<p>The main objectives of this survey were to:</p> \n\n<ul><li>establish baseline surveillance data for <abbr title=\"deoxynivalenol\">DON</abbr> levels in infant formula, dried fruit, soy products, and grain-based products (wheat products, corn products, oat products, milled products of less commonly consumed grains, infant cereals, breakfast cereals, breads, baked goods and crackers); and</li>\n<li>compare the prevalence of <abbr title=\"deoxynivalenol\">DON</abbr> in infant formula, dried fruit, and grain products found in 2012-2014 with the prevalence found in the previous <abbr title=\"Canadian Food Inspection Agency\">CFIA</abbr> <abbr title=\"deoxynivalenol\">DON</abbr> targeted surveys, where possible.</li></ul>\n\n<p>A total of 3630 samples were analyzed for the presence of <abbr title=\"deoxynivalenol\">DON</abbr>. These samples included 386 assorted foods (dried fruit and soy products), 543 infant foods (cereal and formula), 1284 milled grain products and 1417 processed grain-based products. Twenty-three percent of the samples tested for <abbr title=\"deoxynivalenol\">DON</abbr> did not contain detectable levels. The samples with detectable levels of <abbr title=\"deoxynivalenol\">DON</abbr> were from all types of products sampled in this survey. <abbr title=\"deoxynivalenol\">DON</abbr> levels ranged from the method reporting limit of 1 part-per-billion (ppb) to a maximum of 4380 <abbr title=\"parts per billion\">ppb</abbr>. There are no Canadian maximum levels established for <abbr title=\"deoxynivalenol\">DON</abbr> in finished products, so compliance to a numeric standard could not be evaluated.</p> \n\n<p>All the data generated were shared with Health Canada's Bureau of Chemical Safety for use in performing human health risk assessments. Health Canada's Bureau of Chemical Safety concluded that, overdid not pose a all, the levels of <abbr title=\"deoxynivalenol\">DON</abbr> found in the foods included in this survey were low and that short-term exposure to elevated levels of <abbr title=\"deoxynivalenol\">DON</abbr> in the limited number of samples that were identified in this survey are not expected to pose a safety concern. No product recalls were warranted given the lack of health concern.</p>\r\n<style>\n/* required style */\n    .keyValue{\n\tdisplay: none !important;\n        visibility: hidden !important;\n</style>\n<h2>Request of Complete Report</h2>\n<p>The complete text of this report is available upon request.</p>\n\n<div class=\"wb-frmvld\">\n\n<form class=\"form-horizontal\" role=\"form\" method=\"post\" action=\"/active/netapp/comment/publicationposte.aspx#wb-cont\" name=\"frmPublication\">\n<input id=\"emailad0\" name=\"to\" class=\"hidden\" type=\"hidden\" aria-hidden=\"true\" value=\"CoDxIeoHvBjEPtjHcsXppnMEHynpREaJ9R6PBBn+xhDcKIcGKsdcu+AiLzEKnKb7\">\n<input name=\"strLang\" type=\"hidden\" value=\"English\">\n<input name=\"strSubject\" type=\"hidden\" value=\"Chemical Residues / Microbiology Report Request\">\n<input name=\"strTitle\" type=\"hidden\" value=\"title\">\n<input name=\"strUrl\" type=\"hidden\" value=\"url\">\n<script type=\"text/javascript\">\n    document.frmPublication.strTitle.value = document.getElementsByTagName(\"title\")[0].innerHTML;\n    document.frmPublication.strUrl.value = document.URL;\n</script>\n        \n<fieldset class=\"mrgn-tp-md mrgn-bttm-lg\">\t\t\n\n<legend class=\"field-name required\"><span class=\"field-name\">The format in which you would like to receive the report</span> <strong class=\"required\">(required)</strong></legend>\n\n<div class=\"checkbox\">\n<label for=\"strPdf\"><input type=\"checkbox\" name=\"formatsent\" id=\"strPdf\" value=\"pdf\" required=\"required\">PDF (Portable Document Format) electronic file sent to you by email</label>\n</div>\n\n<div class=\"checkbox\">\n<label for=\"strText\"><input type=\"checkbox\" name=\"formatsent\" id=\"strText\" value=\"text\">RTF (Rich Text Format) electronic file sent to you by email</label>\n</div>\n\n<div class=\"checkbox\">\n<label for=\"strBraille\"><input type=\"checkbox\" name=\"formatsent\" id=\"strBraille\" value=\"braille\">Braille copy sent to you by mail</label>\n</div>\n\n<div class=\"checkbox\">\n<label for=\"strPaper\"><input type=\"checkbox\" name=\"formatsent\" id=\"strPaper\" value=\"paper\">Paper copy sent to you by mail</label>\n</div>\n\n</fieldset>\t\n\n<fieldset class=\"mrgn-tp-md mrgn-bttm-lg\">\t\t\n\n<legend class=\"field-name\">Your contact information</legend>\n\n<label class=\"keyValue\" for=\"name\"></label>\n<input class=\"keyValue\" autocomplete=\"off\" type=\"text\" id=\"name\" name=\"name\">\n<label class=\"keyValue\" for=\"email\"></label>\n<input class=\"keyValue\" autocomplete=\"off\" type=\"email\" id=\"email\" name=\"email\"> \n\n<div class=\"form-group\">\n<label for=\"strFirstName\" class=\"required col-md-4 control-label\"><span class=\"field-name\">First name:</span> <strong class=\"required\">(required)</strong></label>\n<div class=\"col-md-8\">\n<input class=\"form-control\" id=\"strFirstName\" name=\"strFirstName\" type=\"text\" required=\"required\" pattern=\".{2,}\" data-rule-minlength=\"2\">\n</div>\n</div>\n            \n<div class=\"form-group\">\n<label for=\"strLastName\" class=\"required col-md-4 control-label\"><span class=\"field-name\">Last name:</span> <strong class=\"required\">(required)</strong></label>\n<div class=\"col-md-8\">\n<input class=\"form-control\" id=\"strLastName\" name=\"strLastName\" type=\"text\" required=\"required\" pattern=\".{2,}\" data-rule-minlength=\"2\">\n</div>\n</div>\n\n<div class=\"form-group\">\n<label for=\"strEmail\" class=\"required col-md-4 control-label\"><span class=\"field-name\">Email address:</span>  <strong class=\"required\">(required)</strong></label>\n<div class=\"col-md-8\">\n<input class=\"form-control\" id=\"strEmail\" name=\"strEmail\" type=\"email\" required=\"required\">\n</div>\n</div>\n\n<div class=\"form-group\">\n<label for=\"strConfirmEmail\" class=\"required col-md-4 control-label\"><span class=\"field-name\">Confirm email address:</span>  <strong class=\"required\">(required)</strong></label>\n<div class=\"col-md-8\">\n<input class=\"form-control\" id=\"strConfirmEmail\" name=\"strConfirmEmail\" type=\"email\" data-rule-equalto=\"#strEmail\" required=\"required\">\n</div>\n</div>\n\n<div class=\"form-group mrgn-tp-md\">\n<label for=\"lstdescribe\" class=\"required col-md-4 control-label\"><span class=\"field-name\">How would you describe yourself?</span> <strong class=\"required\">(required)</strong></label>\n<div class=\"col-md-8\">\n<select class=\"form-control\" id=\"lstdescribe\" name=\"lstdescribe\" required=\"required\">\n<option label=\"Select from this list\"></option>\n<option value=\"Academia\">Academia</option>\n<option value=\"Consumer Association\">Consumer Association</option>\n<option value=\"Consumer/General Public\">Consumer / General Public</option>\n<option value=\"Industry Association\">Industry Association</option>\n<option value=\"Industry/Commercial Sector\">Industry / Commercial Sector</option>\n<option value=\"Other Government Departments\">Other Government Departments</option>\t\t\t\n</select>\n</div>\n</div>\t\n\n<div class=\"form-group\">\n<label for=\"strAddress1\" class=\"col-md-4 control-label\"><span class=\"field-name\">Address 1:</span></label>\n<div class=\"col-md-8\">\n<input class=\"form-control\" id=\"strAddress1\" name=\"strAddress1\" type=\"text\">\n</div>\n</div>\n\n<div class=\"form-group\">\n<label for=\"strAddress2\" class=\"col-md-4 control-label\"><span class=\"field-name\">Address 2:</span></label>\n<div class=\"col-md-8\">\n<input class=\"form-control\" id=\"strAddress2\" name=\"strAddress2\" type=\"text\">\n</div>\n</div>\n\n<div class=\"form-group\">\n<label for=\"strCity\" class=\"col-md-4 control-label\"><span class=\"field-name\">City:</span></label>\n<div class=\"col-md-8\">\n<input class=\"form-control\" id=\"strCity\" name=\"strCity\" type=\"text\">\n</div>\n</div>\n\n<div class=\"form-group\">\n<label for=\"strProvince\" class=\"col-md-4 control-label\"><span class=\"field-name\">Province:</span></label>\n<div class=\"col-md-8\">\n<input class=\"form-control\" id=\"strProvince\" name=\"strProvince\" type=\"text\">\n</div>\n</div>\n\n<div class=\"form-group\">\n<label for=\"strCountry\" class=\"col-md-4 control-label\"><span class=\"field-name\">Country:</span></label>\n<div class=\"col-md-8\">\n<input class=\"form-control\" id=\"strCountry\" name=\"strCountry\" type=\"text\">\n</div>\n</div>\n\n<div class=\"form-group\">\n<label for=\"strPostal\" class=\"col-md-4 control-label\"><span class=\"field-name\">Postal Code:</span></label>\n<div class=\"col-md-8\">\n<input class=\"form-control\" id=\"strPostal\" name=\"strPostal\" type=\"text\">\n</div>\n</div>\n\n</fieldset>\t\n\n<input value=\"Submit Your Request\" id=\"btnSubmit\" name=\"btnSubmit\" class=\"btn btn-primary\" type=\"submit\"> \n<input value=\"Clear All Information\" id=\"btnReset\" name=\"btnReset\" class=\"btn btn-default\" type=\"reset\">\n\n</form>\n</div>\n<script src=\"https://ajax.googleapis.com/ajax/libs/jquery/2.1.1/jquery.min.js\"></script>\n<script type=\"text/javascript\">\n$(document).ready (function(){\n\tif($(\"#strPaper\").checked || $(\"#strBraille\").checked)\n\t{\n\t\tPaperBrailleChecked();\n\t}\n});\n\n$(document).on(\"change\", \"#strBraille\", function(){\n\tif($(\"#strBraille\").is(\":checked\"))\n\t{\n\t\tPaperBrailleChecked();\n\t}\n\telse if(!($(\"#strPaper\").is(\":checked\")))\n\t{\n\t\tPaperBrailleUnChecked();\n\t}\n});\n\n$(document).on(\"change\", \"#strPaper\", function(){\n\tif($(\"#strPaper\").is(\":checked\"))\n\t{\n\t\tPaperBrailleChecked();\n\t}\n\telse if(!($(\"#strBraille\").is(\":checked\")))\n\t{\n\t\tPaperBrailleUnChecked();\n\t}\n});\n\nfunction PaperBrailleChecked()\n{\n\t$(\"#strAddress1\").attr(\"required\", \"true\");\n\t$(\"#strCity\").attr(\"required\", \"true\");\n\t$(\"#strProvince\").attr(\"required\", \"true\");\n\t$(\"#strCountry\").attr(\"required\", \"true\");\n\t$(\"#strPostal\").attr(\"required\", \"true\");\n}\n\nfunction PaperBrailleUnChecked()\n{\n\t$(\"#strAddress1\").removeAttr(\"required\");\n\t$(\"#strCity\").removeAttr(\"required\");\n\t$(\"#strProvince\").removeAttr(\"required\");\n\t$(\"#strCountry\").removeAttr(\"required\");\n\t$(\"#strPostal\").removeAttr(\"required\");\n}\n</script>\r\n\r\n\r\n\r\n<div class=\"row\">\r\n \r\n\t\r\n\t\t\t\r\n\r\n<div class=\"col-xm-12 pagedetails container\">\r\n\t\t\t\t\r\n\r\n</div>\r\n\t\r\n</div>",
        "fr": "\r\n        \r\n        \n<h2>R\u00e9sum\u00e9</h2>\n\n<p>Le Plan d'action pour assurer la s\u00e9curit\u00e9 des produits alimentaires (PAASPA) vise \u00e0 moderniser et \u00e0 am\u00e9liorer le syst\u00e8me canadien de salubrit\u00e9 des aliments. Dans le cadre de l'initiative visant \u00e0 am\u00e9liorer la surveillance pr\u00e9vue dans le <abbr title=\"Plan d'action pour assurer la s\u00e9curit\u00e9 des produits alimentaires\">PAASPA</abbr>, des \u00e9tudes cibl\u00e9es sont effectu\u00e9es afin de recueillir des donn\u00e9es permettant de d\u00e9celer des dangers pr\u00e9cis dans divers aliments.</p>\n\n<p>La pr\u00e9sente \u00e9tude \u00e9tait centr\u00e9e sur une toxine naturelle, le d\u00e9soxynival\u00e9nol (DON), qui peut contaminer des grains dans les champs. Le <abbr title=\"d\u00e9soxynival\u00e9nol\">DON</abbr> n'est pas carcinog\u00e8ne, mais une exposition \u00e0 des niveaux tr\u00e8s \u00e9lev\u00e9s peut entra\u00eener des effets gastro-intestinaux, immunosuppresseurs et sur le d\u00e9veloppement chez diverses esp\u00e8ces d'animaux. Le <abbr title=\"d\u00e9soxynival\u00e9nol\">DON</abbr> \u00e9tant r\u00e9sistant \u00e0 la chaleur, des produits alimentaires finis peuvent encore en contenir des niveaux d\u00e9tectables, m\u00eame s'ils ont \u00e9t\u00e9 substantiellement transform\u00e9s.</p> \n\n<p>Les principaux objectifs de la pr\u00e9sente \u00e9tude \u00e9taient\u00a0:</p> \n\n<ul><li>d'\u00e9tablir des donn\u00e9es de surveillance de base pour les niveaux de <abbr title=\"d\u00e9soxynival\u00e9nol\">DON</abbr> dans les pr\u00e9parations pour nourrissons, les fruits secs, les produits du soja et les produits de meunerie (produits du bl\u00e9, du ma\u00efs, de l'avoine, produits \u00e0 base de grains moulus moins commun\u00e9ment consomm\u00e9s, c\u00e9r\u00e9ales pour nourrissons, c\u00e9r\u00e9ales pour petit-d\u00e9jeuner, pains, produits de boulangerie-p\u00e2tisserie et craquelins);</li>\n<li>de comparer la pr\u00e9valence du <abbr title=\"d\u00e9soxynival\u00e9nol\">DON</abbr> dans les pr\u00e9parations pour nourrissons, les fruits secs et les produits de meunerie observ\u00e9e lors de l'\u00e9tude de 2012-2014 avec celle observ\u00e9e lors des pr\u00e9c\u00e9dentes \u00e9tudes du <abbr title=\"Plan d'action pour assurer la s\u00e9curit\u00e9 des produits alimentaires\">PAASPA</abbr> de l'<abbr title=\"Agence canadienne d'inspection des aliments\">ACIA</abbr> sur le <abbr title=\"d\u00e9soxynival\u00e9nol\">DON</abbr>, dans la mesure du possible.</li>\n</ul>\n\n<p>Au total, <span class=\"nowrap\">3 630</span> \u00e9chantillons ont \u00e9t\u00e9 analys\u00e9s pour d\u00e9terminer la pr\u00e9sence de <abbr title=\"d\u00e9soxynival\u00e9nol\">DON</abbr>. Ces \u00e9chantillons comprenaient 386 aliments assortis (fruits s\u00e9cs et produits du soja), 543 aliments pour nourrissons (c\u00e9r\u00e9ales et pr\u00e9parations), <span class=\"nowrap\">1 284</span> produits de meunerie et <span class=\"nowrap\">1 417</span> produits de c\u00e9r\u00e9aliers transform\u00e9s. Vingt-trois pour cent des \u00e9chantillons analys\u00e9s ne contenaient pas un niveau d\u00e9tectable de DON. Les \u00e9chantillons avec des niveaux d\u00e9tectables de <abbr title=\"d\u00e9soxynival\u00e9nol\">DON</abbr> provenaient de tous les types de produits analys\u00e9s dans le cadre de la pr\u00e9sente \u00e9tude. Les niveaux de <abbr title=\"d\u00e9soxynival\u00e9nol\">DON</abbr> variaient du seuil de d\u00e9claration de 1 partie par milliard (ppb) \u00e0 un maximum de <span class=\"nowrap\">4 380</span> <abbr title=\"parties par billion\">ppb</abbr>. Aucune concentration maximale de <abbr title=\"d\u00e9soxynival\u00e9nol\">DON</abbr> n'a \u00e9t\u00e9 \u00e9tabli au Canada pour les produits finis, la conformit\u00e9 \u00e0 une norme num\u00e9rique ne peut donc pas \u00eatre \u00e9valu\u00e9e.</p> \n\n<p>Toutes les donn\u00e9es obtenues ont \u00e9t\u00e9 communiqu\u00e9es au Bureau d'innocuit\u00e9 des produits chimiques de Sant\u00e9 Canada \u00e0 des fins d'utilisation lors d'\u00e9valuations de risques pour la sant\u00e9 humaine. Le Bureau d'innocuit\u00e9 des produits chimiques de Sant\u00e9 Canada a conclu que, dans l'ensemble, les niveaux de <abbr title=\"d\u00e9soxynival\u00e9nol\">DON</abbr> d\u00e9cel\u00e9s dans les aliments inclus dans cette \u00e9tude \u00e9taient faibles et qu'une exposition \u00e0 court terme aux concentrations \u00e9lev\u00e9es de <abbr title=\"d\u00e9soxynival\u00e9nol\">DON</abbr> dans le nombre limit\u00e9 d'\u00e9chantillons identifi\u00e9s dans cette \u00e9tude ne devrait pas poser de probl\u00e8me de s\u00e9curit\u00e9. Aucun rappel de produit n'a \u00e9t\u00e9 justifi\u00e9 compte tenu de l'absence de pr\u00e9occupation pour la sant\u00e9.</p>\r\n<style>\n/* required style */\n    .keyValue{\n\tdisplay: none !important;\n        visibility: hidden !important;\n</style>\n<h2>Demande de rapport complet</h2>\n<p>La version int\u00e9grale du pr\u00e9sent rapport est disponible sur demande.</p>\n\n<div class=\"wb-frmvld\">\n\n<form class=\"form-horizontal\" role=\"form\" method=\"post\" action=\"/active/netapp/comment/publicationposte.aspx#wb-cont\" name=\"frmPublication\">\n\n<input id=\"emailad0\" name=\"to\" class=\"hidden\" type=\"hidden\" aria-hidden=\"true\" value=\"8PAcrIzJhYqX4JV8B9ySjFftIASyNmTMBlpdxUfI+Sp77NWrROA8oCO7O3L/i/SC\">\n<input name=\"strLang\" type=\"hidden\" value=\"Francais\">\n<input name=\"strSubject\" type=\"hidden\" value=\"Demande de rapport de r\u00e9sidus chimiques / microbiologie\">\n<input name=\"strTitle\" type=\"hidden\" value=\"title\">\n<input name=\"strUrl\" type=\"hidden\" value=\"url\">\n<script type=\"text/javascript\">\n    document.frmPublication.strTitle.value = document.getElementsByTagName(\"title\")[0].innerHTML;\n    document.frmPublication.strUrl.value = document.URL;\n</script>\n        \n<fieldset class=\"mrgn-tp-md mrgn-bttm-lg\">\t\t\n\n<legend class=\"field-name required\"><span class=\"field-name\">Le format dans lequel vous souhaitez recevoir le rapport</span> <strong class=\"required\">(obligatoire)</strong></legend>\n\n<div class=\"checkbox\">\n<label for=\"strPdf\"><input type=\"checkbox\" name=\"formatsent\" id=\"strPdf\" value=\"pdf\" required=\"required\">Fichier \u00e9lectronique PDF (format de document portable) envoy\u00e9 par courriel</label>\n</div>\n\n<div class=\"checkbox\">\n<label for=\"strText\"><input type=\"checkbox\" name=\"formatsent\" id=\"strText\" value=\"text\">Fichier \u00e9lectronique RTF (<span lang=\"en\">Rich Text Format</span>) envoy\u00e9 par courriel</label>\n</div>\n\n<div class=\"checkbox\">\n<label for=\"strBraille\"><input type=\"checkbox\" name=\"formatsent\" id=\"strBraille\" value=\"braille\">Copie braille envoy\u00e9e par la poste</label>\n</div>\n\n<div class=\"checkbox\">\n<label for=\"strPaper\"><input type=\"checkbox\" name=\"formatsent\" id=\"strPaper\" value=\"paper\">Copie papier envoy\u00e9e par la poste</label>\n</div>\n\n</fieldset>\t\n\n<fieldset class=\"mrgn-tp-md mrgn-bttm-lg\">\t\t\n\n<legend class=\"field-name\">Vos coordonn\u00e9es</legend>\n\n<label class=\"keyValue\" for=\"name\"></label>\n<input class=\"keyValue\" autocomplete=\"off\" type=\"text\" id=\"name\" name=\"name\">\n<label class=\"keyValue\" for=\"email\"></label>\n<input class=\"keyValue\" autocomplete=\"off\" type=\"email\" id=\"email\" name=\"email\"> \n\n<div class=\"form-group\">\n<label for=\"strFirstName\" class=\"required col-md-4 control-label\"><span class=\"field-name\">Pr\u00e9nom :</span> <strong class=\"required\">(obligatoire)</strong></label>\n<div class=\"col-md-8\">\n<input class=\"form-control\" id=\"strFirstName\" name=\"strFirstName\" type=\"text\" required=\"required\" pattern=\".{2,}\" data-rule-minlength=\"2\">\n</div>\n</div>\n            \n<div class=\"form-group\">\n<label for=\"strLastName\" class=\"required col-md-4 control-label\"><span class=\"field-name\">Nom :</span> <strong class=\"required\">(obligatoire)</strong></label>\n<div class=\"col-md-8\">\n<input class=\"form-control\" id=\"strLastName\" name=\"strLastName\" type=\"text\" required=\"required\" pattern=\".{2,}\" data-rule-minlength=\"2\">\n</div>\n</div>\n\n<div class=\"form-group\">\n<label for=\"strEmail\" class=\"required col-md-4 control-label\"><span class=\"field-name\">Adresse de courriel :</span> \u00a0<strong class=\"required\">(obligatoire)</strong></label>\n<div class=\"col-md-8\">\n<input class=\"form-control\" id=\"strEmail\" name=\"strEmail\" type=\"email\" required=\"required\">\n</div>\n</div>\n\n<div class=\"form-group\">\n<label for=\"strConfirmEmail\" class=\"required col-md-4 control-label\"><span class=\"field-name\">Confirmer Adresse de courriel :</span>  <strong class=\"required\">(obligatoire)</strong></label>\n<div class=\"col-md-8\">\n<input class=\"form-control\" id=\"strConfirmEmail\" name=\"strConfirmEmail\" type=\"email\" data-rule-equalto=\"#strEmail\" required=\"required\">\n</div>\n</div>\n\n<div class=\"form-group mrgn-tp-md\">\n<label for=\"lstdescribe\" class=\"required col-md-4 control-label\"><span class=\"field-name\">Comment vous vous d\u00e9criviez?</span> <strong class=\"required\">(obligatoire)</strong></label>\n<div class=\"col-md-8\">\n<select class=\"form-control\" id=\"lstdescribe\" name=\"lstdescribe\" required=\"required\">\n<option label=\"Choisir parmi la liste\"></option>\n<option value=\"Acad\u00e9mie\">Acad\u00e9mie</option>\n<option value=\"Association sectorielle\">Association sectorielle</option>  \n<option value=\"Autres institutions du gouvernement\">Autres institutions du gouvernement</option>\n<option value=\"Consommateur/Grand public\">Consommateur / Grand public</option>\n<option value=\"Groupe de consommateur\">Groupe de consommateur</option>\n<option value=\"Industrie/Secteur commercial\">Industrie / Secteur commercial</option>\n</select>\n</div>\n</div>\t\n\n<div class=\"form-group\">\n<label for=\"strAddress1\" class=\"col-md-4 control-label\"><span class=\"field-name\">Adresse 1 :</span></label>\n<div class=\"col-md-8\">\n<input class=\"form-control\" id=\"strAddress1\" name=\"strAddress1\" type=\"text\">\n</div>\n</div>\n\n<div class=\"form-group\">\n<label for=\"strAddress2\" class=\"col-md-4 control-label\"><span class=\"field-name\">Adresse 2 :</span></label>\n<div class=\"col-md-8\">\n<input class=\"form-control\" id=\"strAddress2\" name=\"strAddress2\" type=\"text\">\n</div>\n</div>\n\n<div class=\"form-group\">\n<label for=\"strCity\" class=\"col-md-4 control-label\"><span class=\"field-name\">Ville :</span></label>\n<div class=\"col-md-8\">\n<input class=\"form-control\" id=\"strCity\" name=\"strCity\" type=\"text\">\n</div>\n</div>\n\n<div class=\"form-group\">\n<label for=\"strProvince\" class=\"col-md-4 control-label\"><span class=\"field-name\">Province :</span></label>\n<div class=\"col-md-8\">\n<input class=\"form-control\" id=\"strProvince\" name=\"strProvince\" type=\"text\">\n</div>\n</div>\n\n<div class=\"form-group\">\n<label for=\"strCountry\" class=\"col-md-4 control-label\"><span class=\"field-name\">Pays : </span></label>\n<div class=\"col-md-8\">\n<input class=\"form-control\" id=\"strCountry\" name=\"strCountry\" type=\"text\">\n</div>\n</div>\n\n<div class=\"form-group\">\n<label for=\"strPostal\" class=\"col-md-4 control-label\"><span class=\"field-name\">Code postal : </span></label>\n<div class=\"col-md-8\">\n<input class=\"form-control\" id=\"strPostal\" name=\"strPostal\" type=\"text\">\n</div>\n</div>\n\n</fieldset>\t\n\n<input value=\"Soumettre votre demande\" id=\"btnSubmit\" name=\"btnSubmit\" class=\"btn btn-primary\" type=\"submit\"> \n<input value=\"Effacez tous les renseignements\" id=\"btnReset\" name=\"btnReset\" class=\"btn btn-default\" type=\"reset\">\n\n</form>\n</div>\n<script src=\"https://ajax.googleapis.com/ajax/libs/jquery/2.1.1/jquery.min.js\"></script>\n<script type=\"text/javascript\">\n$(document).ready (function(){\n\tif($(\"#strPaper\").checked || $(\"#strBraille\").checked)\n\t{\n\t\tPaperBrailleChecked();\n\t}\n});\n\n$(document).on(\"change\", \"#strBraille\", function(){\n\tif($(\"#strBraille\").is(\":checked\"))\n\t{\n\t\tPaperBrailleChecked();\n\t}\n\telse if(!($(\"#strPaper\").is(\":checked\")))\n\t{\n\t\tPaperBrailleUnChecked();\n\t}\n});\n\n$(document).on(\"change\", \"#strPaper\", function(){\n\tif($(\"#strPaper\").is(\":checked\"))\n\t{\n\t\tPaperBrailleChecked();\n\t}\n\telse if(!($(\"#strBraille\").is(\":checked\")))\n\t{\n\t\tPaperBrailleUnChecked();\n\t}\n});\n\nfunction PaperBrailleChecked()\n{\n\t$(\"#strAddress1\").attr(\"required\", \"true\");\n\t$(\"#strCity\").attr(\"required\", \"true\");\n\t$(\"#strProvince\").attr(\"required\", \"true\");\n\t$(\"#strCountry\").attr(\"required\", \"true\");\n\t$(\"#strPostal\").attr(\"required\", \"true\");\n}\n\nfunction PaperBrailleUnChecked()\n{\n\t$(\"#strAddress1\").removeAttr(\"required\");\n\t$(\"#strCity\").removeAttr(\"required\");\n\t$(\"#strProvince\").removeAttr(\"required\");\n\t$(\"#strCountry\").removeAttr(\"required\");\n\t$(\"#strPostal\").removeAttr(\"required\");\n}\n</script>\r\n\r\n<div class=\"row\">\r\n \r\n\t\t\t\r\n\t\t\t\r\n\r\n\t\t\r\n\t\r\n</div>"
    },
    "success": true,
    "chat_wizard": false
}