{
    "dcr_id": "1519913793675",
    "title": {
        "en": "Subscribe to Agri-info",
        "fr": "Inscrivez-vous au Agri-info"
    },
    "modified": "2020-08-19",
    "issued": "2019-03-01",
    "templatetype": "content page 1 column",
    "page_type": "1",
    "node_id": "1354137774096",
    "dc_date_created": "2019-03-01",
    "managing_branch": "PAB",
    "parent_node_id": "1354137774094",
    "label": {
        "en": "Stay Connected",
        "fr": "Restez branch\u00e9s"
    },
    "exturl": "",
    "teamsite_location": {
        "en": "/default/main/AAFC-AAC/Internet-Internet/CCB-DGCC/WORKAREA/CCB-DGCC/templatedata/comm-comm/gene-gene/data/subscribe_to_the_agriinfo_1519913793675_en",
        "fr": "/default/main/AAFC-AAC/Internet-Internet/CCB-DGCC/WORKAREA/CCB-DGCC/templatedata/comm-comm/gene-gene/data/subscribe_to_the_agriinfo_1519913793675_fr"
    },
    "type_name": "sitemapinit",
    "has_dcr_id": true,
    "breadcrumb": {
        "en": "Stay Connected",
        "fr": "Restez branch\u00e9s"
    },
    "layout_name": "content page 1 column",
    "lang": "en",
    "meta": {
        "issued": {
            "en": "2019-03-01",
            "fr": "2019-03-01"
        },
        "modified": {
            "en": "2020-06-04",
            "fr": "2020-06-04"
        },
        "format": {
            "en": "gcformat",
            "fr": "gcformat"
        },
        "title": {
            "en": "Subscribe to Agri-info",
            "fr": "Inscrivez-vous au bulletin Agri-info"
        },
        "subject": {
            "en": "taxes;architectural heritage;architecture",
            "fr": "diversit\u00e9 biologique;engrais;\u00e9conomie agricole"
        },
        "description": {
            "en": "Annexes. Table of contents. Annex A: How to apply. registered as an Indian under the. Indian Act. Provide a brief project title that accurately reflects the activities and results of the Project.Project objective.",
            "fr": "Inscrivez-vous au bulletin Agri-info. Table des mati\u00e8res. Dans le cadre du Partenariat, les producteurs continuent d\u2019avoir acc\u00e8s \u00e0 une gamme robuste de programmes de gestion des risques de l\u2019entreprise (GRE) qui les aident \u00e0 g\u00e9rer des risques importants qui menacent la viabilit\u00e9 de leur exploitation agricole et d\u00e9passent leur capacit\u00e9 de gestion.Agri-stabilit\u00e9 est un programme de base de l\u2019initiative de GRE, qui offre un soutien lorsque les producteurs subissent une baisse importante de leur marge. Surveillez les annonces \u00e0 ce sujet au cours des prochaines semaines.Canola\u00a0: canadien, hein?C\u2019est une huile v\u00e9g\u00e9tale saine que la plupart d\u2019entre nous utilisent chaque semaine dans tout, des saut\u00e9s aux salades \u2013 l\u2019huile de canola \u2013 explore l\u2019ing\u00e9niosit\u00e9 de chercheurs en g\u00e9n\u00e9tique v\u00e9g\u00e9tale qui se sont lanc\u00e9 le d\u00e9fi de cr\u00e9er une huile v\u00e9g\u00e9tale sant\u00e9 \u00e0 partir du colza, une plante m\u00e9connue poussant facilement dans les Prairies."
        },
        "language": {
            "en": "eng",
            "fr": "fra"
        },
        "keywords": {
            "en": "female.Youth;colour.Women",
            "fr": "alimentaire.Priorit\u00e9s;Accessibility;stage en agroenvironnement"
        },
        "audience": {
            "en": "gcaudience",
            "fr": "gcaudience"
        },
        "type": {
            "en": "fact sheet",
            "fr": "fiche de renseignements"
        },
        "creator": {
            "en": "Agriculture and Agri-Food Canada",
            "fr": "Agriculture et Agroalimentaire Canada"
        },
        "spatial": {
            "en": "gcregions",
            "fr": "gcregions"
        },
        "service": {
            "en": "AAFC-AAC",
            "fr": "AAFC-AAC"
        },
        "accessRights": {
            "en": "2",
            "fr": "2"
        },
        "legalName": {
            "en": "agriculture_and_agri_food_canada",
            "fr": "agriculture_et_agroalimentaire_canada"
        },
        "areaServed": {
            "en": "Canada",
            "fr": "Canada"
        }
    },
    "body": {
        "en": "-&gt;\n\t\t<!-- D&eacute;but du contenu -->\n\t\t\n\n\t\t<div data-container=\"true\" style=\"null\"><div class=\"col-md-4 pull-left\" data-editorblocktype=\"Image\">\n\t\t\t<img alt=\"Agri-info\" class=\"\" src=\"https://mktdplp102ccda.azureedge.net/org-539a2768f2c54e019d905f729a0b8467/7d59260c-9eca-ea11-a812-000d3a0c94a6/iR5CCc8wimkKh6IN4K1TlR6mpatXXiMOJwDwpYSgfUE!\" style=\"max-height: 100%; max-width: 100%; margin: 0px; position: static; display: block; box-sizing: border-box;\">\n\n\n\n\n\n\n\n\n\n\n\n\n\n\n\n\n\n\n\n\t\t</div></div>\n\t\t<p>\n\t\t\tReceive industry, markets, trade, science and innovation information on Agriculture and Agri-Food Canada's programs and services.  \n\t\t\t<a href=\"https://www.agr.gc.ca/eng/news-from-agriculture-and-agri-food-canada/agri-info-newsletter/?id=1419351635969\">Agri-info </a> will also be used to issue timely updates and important notices. </p>\n\n\n\t\t<p>\n\t\t\t<a href=\"#privacy\">Agri-info terms and your privacy</a>\n\t\t</p>\n\t\t<p> </p>\n\t\t<h2>Subscription Information<br></h2>\n\t\t<p>In addition to our regular updates, we may periodically send you information based on your interests.</p>\n\n\n\n\t\t<div class=\"wb-frmvld\">\n\t\t\t<!--form start -->\n<div data-container=\"true\" style=\"null\"><div data-editorblocktype=\"FormBlock\" data-form-block-id=\"66671c4d-5ae1-ea11-a813-000d3a0c94a6\"></div></div>\n            <!--form end -->\n\t\t</div>\n\t\t<div class=\"clear\"></div>\n\n\n\n\t\t<section>\n\t\t\t<h2 id=\"privacy\">Agri-info terms and your privacy</h2>\n\t\t\t<p>Our service provider, Microsoft 365, will send AAFC\u2019s emails to you, the subscriber.</p>\n\n\t\t\t<p>When you subscribe with us, you agree to Agri-info's terms, which are consistent with AAFC's privacy practices. The\n\t\t\t\tAgri-info terms also include AAFC\u2019s\n\t\t\t\t<a href=\"https://www.agr.gc.ca/eng/about-our-department/terms-and-conditions/?id=1367245286657\">terms and conditions</a>. Review the Agri-info terms regularly as they may change and will automatically replace any\n\t\t\t\tprevious version that you agreed to.</p>\n\n\t\t\t<p>AAFC is subject to the\n\t\t\t\t<a href=\"https://laws-lois.justice.gc.ca/eng/acts/P-21/FullText.html\"><cite>Privacy Act</cite></a>, and collects your personal information under the authority of the\n\t\t\t\t<a href=\"https://laws.justice.gc.ca/eng/acts/A-9/FullText.html\"><cite>Department of Agriculture and Agri-Food Act</cite></a> and as described in\n\t\t\t\t<a href=\"https://www.canada.ca/en/treasury-board-secretariat/services/access-information-privacy/access-information/information-about-programs-information-holdings/standard-personal-information-banks.html#psu914\">AAFC PSU 914 (Public Communications)</a>. Contact us at\n\t\t\t\t<a href=\"mailto:aafc.atip-aiprp.aac@canada.ca\">aafc.atip-aiprp.aac@canada.ca</a> if you have any questions about AAFC's privacy practices.</p>\n\n\t\t\t<p>Once you complete the subscription information form and click <b>Subscribe</b>, you allow AAFC to share the form with\n\t\t\t\tMicrosoft 365, and its third parties, to send you Agri-info. </p>\n\n\t\t\t<p>Microsoft 365 will generate a contact list with the information on the form. Microsoft 365, or its third parties, will\n\t\t\t\thost the contact list on their servers located in\n\t\t\t\t<a href=\"https://azure.microsoft.com/en-ca/global-infrastructure/locations/\">Microsoft Azure data centres</a> located in Toronto and Quebec City, so your information is subject to provincial and\n\t\t\t\tfederal laws. By subscribing, you agree to Microsoft 365\u2019s\n\t\t\t\t<a href=\"https://www.microsoft.com/en-ca/trust-center/privacy\">privacy policy</a> and\n\t\t\t\t<a href=\"https://www.microsoft.com/en-us/licensing/product-licensing/products\">licensing terms</a>. Microsoft 365 may change these policies, so visit their website regularly because these policies\n\t\t\t\tapply to you.</p>\n\n\t\t\t<p>You can unsubscribe at any time by clicking the <b>Unsubscribe</b> button at the bottom of every email you receive. Email\n\t\t\t\tus at\n\t\t\t\t<a href=\"mailto:aafc.agri-info.aac@agr.gc.ca\">aafc.agri-info.aac@agr.gc.ca</a> if you have questions about your subscription to Agri-info.</p>\n\n\n\n\n\n\t\t</section>\n\n\t\t<!-- Fin du contenu -->\n\n\t\t <div class=\"pagedetails\">\n\t            <div class=\"row\">\n\t        \t<div class=\"col-sm-6 col-md-5 col-lg-4\">\n                    <a href=\"https://www.canada.ca/en/report-problem.html\" class=\"btn btn-default text-center\">Report a problem on this page</a>\n                </div>\n            </div>\n\t\t\t<dl id=\"wb-dtmd\">\n\t\t\t\t<dt>Date modified: </dt>\n\t\t\t\t<dd>\n\t\t\t\t\t<time property=\"dateModified\">2020-06-04</time></dd></dl></div>",
        "fr": "\n\n\t\t<!-- MainContentStart -->\n\t\t<!-- D&eacute;but du contenu -->\n\t\t\n\n\t\t<div data-container=\"true\" style=\"null\"><div class=\"col-md-4 pull-left\" data-editorblocktype=\"Image\">\n\t\t\t<img alt=\"Agri-info\" class=\"\" src=\"https://mktdplp102ccda.azureedge.net/org-539a2768f2c54e019d905f729a0b8467/7d59260c-9eca-ea11-a812-000d3a0c94a6/iR5CCc8wimkKh6IN4K1TlR6mpatXXiMOJwDwpYSgfUE!\" style=\"max-height: 100%; max-width: 100%; margin: 0px; position: static; display: block; box-sizing: border-box;\">\n\n\n\n\n\n\n\n\n\n\n\n\n\n\n\n\n\n\n\n\t\t</div></div>\n\t\t<p>\n\t\t\tRecevez de l\u2019information sur les programmes et services d\u2019Agriculture et Agroalimentaire Canada ayant trait au secteur, aux march\u00e9s, au commerce, \u00e0 la science et \u00e0 l\u2019innovation.\n\t\t\t<a href=\"https://www.agr.gc.ca/fra/nouvelles-dagriculture-et-agroalimentaire-canada/bulletin-agri-info/?id=1419351635969\">Agri-info</a> servira aussi \u00e0 communiquer des faits nouveaux et des avis importants.\n\n\t\t</p><p>\n\t\t\t<a href=\"#privacy\">Modalit\u00e9s d'Agri-info et protection de vos renseignements personnels</a>\n\t\t</p>\n\n\t\t<h2>Renseignements d\u2019abonnement</h2>\n\t\t<p>En plus de nos envois habituels, nous pouvons vous envoyer, de temps \u00e0 autre, de l'information sur les sujets qui vous\n\t\t\tint\u00e9ressent.</p>\n\n\t\t<div class=\"wb-frmvld\">\n\t\t\t<!--form start -->\n<div data-container=\"true\" style=\"null\"><div data-editorblocktype=\"FormBlock\" data-form-block-id=\"01ddd772-31e2-ea11-a813-000d3a0c8127\"></div></div>\n            <!--form end -->\n\t\t</div>\n\t\t<div class=\"clear\"></div>\n\n\n\t\t<section>\n\t\t\t<h2 id=\"privacy\">Modalit\u00e9s d'Agri-info et protection de vos renseignements personnels</h2>\n\t\t\t<p>Abonnez-vous \u00e0 notre liste de distribution et notre fournisseur, Microsoft 365, vous enverra des courriels au nom d\u2019AAC.\n\t\t\t\t</p>\n\n\t\t\t<p>Lorsque vous vous abonnez \u00e0 notre liste, vous acceptez les modalit\u00e9s d\u2019Agri-info, qui sont conformes aux pratiques d\u2019AAC\n\t\t\t\trelatives \u00e0 la protection de la vie priv\u00e9e. Les\n\t\t\t\t<a href=\"https://www.agr.gc.ca/fra/a-propos-de-notre-ministere/avis/?id=1367245286657\">modalit\u00e9s</a> d\u2019Agri-info comprennent les modalit\u00e9s d\u2019AAC. Passez-les en revue r\u00e9guli\u00e8rement, car elles peuvent changer\n\t\t\t\tet remplaceront automatiquement toute version ant\u00e9rieure que vous avez accept\u00e9e.</p>\n\n\t\t\t<p>AAC est assujetti \u00e0 la\n\t\t\t\t<a href=\"https://laws-lois.justice.gc.ca/fra/lois/P-21/TexteComplet.html\"><cite>Loi sur la protection des renseignements personnels et recueille vos renseignements personnels</cite></a> en vertu\n\t\t\t\tde la\n\t\t\t\t<a href=\"https://laws.justice.gc.ca/fra/lois/A-9/page-1.html\"><cite>Loi sur le minist\u00e8re de l\u2019Agriculture et de l\u2019Agroalimentaire</cite></a> et de la fa\u00e7on \u00e9nonc\u00e9e dans le fichier\n\t\t\t\tde renseignements personnels AAC PSU 914 (communications publiques). Communiquez avec nous par courriel \u00e0\n\t\t\t\t<a href=\"mailto:aafc.atip-aiprp.aac@canada.ca\">aafc.atip-aiprp.aac@canada.ca</a> si vous avez des questions concernant les pratiques d\u2019AAC relatives \u00e0 la protection\n\t\t\t\tde la vie priv\u00e9e. </p>\n\n\t\t\t<p>Une fois que vous avez d\u00fbment rempli le formulaire d\u2019abonnement et cliqu\u00e9 sur le bouton \u00ab\u00a0<b>M\u2019abonner</b>\u00a0\u00bb,\n\t\t\t\tvous autorisez AAC \u00e0 communiquer le formulaire \u00e0 Microsoft 365 et \u00e0 ses mandataires pour leur permettre de vous envoyer\n\t\t\t\tle bulletin Agri-info. </p>\n\n\t\t\t<p>Microsoft 365 g\u00e9n\u00e9rera une liste de contacts avec les informations du formulaire. Microsoft 365, ou ses tiers, h\u00e9bergera\n\t\t\t\tla liste de contacts sur leurs serveurs situ\u00e9s dans les\n\t\t\t\t<a href=\"https://azure.microsoft.com/fr-ca/global-infrastructure/locations/\">centres de donn\u00e9es Azure de Microsoft</a> situ\u00e9s \u00e0 Toronto (Ontario) et \u00e0 Qu\u00e9bec (Qu\u00e9bec), de sorte que vos informations\n\t\t\t\tsont soumises aux lois provinciales et f\u00e9d\u00e9rales. En vous abonnant, vous acceptez aussi de vous conformer \u00e0 la\n\t\t\t\t<a href=\"https://www.microsoft.com/fr-ca/trust-center/privacy\">politique de confidentialit\u00e9</a>, aux\n\t\t\t\t<a href=\"https://www.microsoft.com/fr-fr/licensing/product-licensing/products\">termes des contrats de licence</a> de Microsoft 365. Microsoft 365 peut modifier ces politiques en tout temps. Veuillez\n\t\t\t\tdonc consulter son site Web fr\u00e9quemment, car ces politiques s\u2019appliquent \u00e9galement \u00e0 vous. </p>\n\n\t\t\t<p>Vous pouvez vous \u00ab d\u00e9sabonner \u00bb en tout temps en cliquant sur le bouton \u00ab\u00a0<b>Se d\u00e9sabonner</b>\u00a0\u00bb au bas de chaque\n\t\t\t\tcourriel que vous recevrez. Envoyez-nous un courriel \u00e0\n\t\t\t\t<a href=\"mailto:aafc.agri-info.aac@agr.gc.ca\">aafc.agri-info.aac@agr.gc.ca</a> si vous avez des questions sur votre abonnement \u00e0 Agri-info. </p>\n\n\n\t\t</section>\n\n\t\t<!-- Fin du contenu -->\n\n\t\t<div class=\"pagedetails\">\n\t\t<div class=\"row\">\n\t\t\t<div class=\"col-sm-6 col-md-5 col-lg-4\">\n\t\t\t\t\t<a href=\"https://www.canada.ca/fr/signaler-probleme.html\" class=\"btn btn-default text-center\">Signaler un probl\u00e8me sur cette page</a>\n\t\t\t</div>\n\t\t</div>\n\t\t\t<dl id=\"wb-dtmd\">\n\t\t\t\t<dt>Date de modification\u00a0: </dt>\n\t\t\t\t<dd>\n\t\t\t\t\t<time property=\"dateModified\">2020-06-04</time>\n\t\t\t\t</dd>\n\t\t\t</dl>\n\t\t</div>\n\t"
    }
}