{
    "dcr_id": "1362151577626",
    "title": {
        "en": "Agricultural programs and services",
        "fr": "Programmes et services agricoles"
    },
    "modified": "2020-12-22",
    "issued": "2013-07-11",
    "templatetype": "content page 1 column",
    "page_type": "1",
    "node_id": "1354137773676",
    "dc_date_created": "2013-07-11",
    "managing_branch": "PAB",
    "parent_node_id": "1354137773675",
    "label": {
        "en": "Programs and Services",
        "fr": "Programmes et services"
    },
    "exturl": "",
    "teamsite_location": {
        "en": "/default/main/AAFC-AAC/Internet-Internet/CCB-DGCC/WORKAREA/CCB-DGCC/templatedata/comm-comm/gene-gene/data/alphabetical_list_of_programs_1362151577626_en",
        "fr": "/default/main/AAFC-AAC/Internet-Internet/CCB-DGCC/WORKAREA/CCB-DGCC/templatedata/comm-comm/gene-gene/data/alphabetical_list_of_programs_1362151577626_fr"
    },
    "type_name": "sitemapinit",
    "has_dcr_id": true,
    "breadcrumb": {
        "en": "Programs and Services",
        "fr": "Programmes et services"
    },
    "layout_name": "content page 1 column",
    "lang": "en",
    "meta": {
        "issued": {
            "en": "2013-07-11",
            "fr": "2013-07-11"
        },
        "modified": {
            "en": "2021-02-05",
            "fr": "2021-02-05"
        },
        "format": {
            "en": "gcformat",
            "fr": "gcformat"
        },
        "title": {
            "en": "Agricultural programs and services",
            "fr": "Programmes et services agricoles"
        },
        "subject": {
            "en": "programs",
            "fr": "programme"
        },
        "description": {
            "en": "\nWe help Canadian farmers and businesses produce the best possible food and agriculture products. Through our programs and services we support innovation, sustainable farming, business development, managing risk, trade and market development.Find our programs and services by name.",
            "fr": "Nous aidons les agriculteurs et les entreprises du Canada \u00e0 produire les meilleurs aliments et produits agricoles possibles. Nos programmes et services appuient l'innovation, l'agriculture durable, le d\u00e9veloppement d'entreprises, la gestion du risque et le d\u00e9veloppement du commerce et des march\u00e9s.Trouvez un programme ou un service par nom."
        },
        "language": {
            "en": "eng",
            "fr": "fra"
        },
        "keywords": {
            "en": null,
            "fr": null
        },
        "audience": {
            "en": "gcaudience",
            "fr": "gcaudience"
        },
        "type": {
            "en": "program-service description",
            "fr": "description du programme ou du service"
        },
        "creator": {
            "en": "Agriculture and Agri-Food Canada;Government of Canada",
            "fr": "Agriculture et Agroalimentaire Canada;Gouvernement du Canada"
        },
        "spatial": {
            "en": "gcregions",
            "fr": "gcregions"
        },
        "service": {
            "en": "AAFC-AAC",
            "fr": "AAFC-AAC"
        },
        "accessRights": {
            "en": "2",
            "fr": "2"
        },
        "legalName": {
            "en": "agriculture_and_agri_food_canada",
            "fr": "agriculture_et_agroalimentaire_canada"
        },
        "areaServed": {
            "en": "Canada",
            "fr": "Canada"
        }
    },
    "body": {
        "en": "tart --&gt;\r\n    <!-- D&eacute;but du contenu -->\r\n    <script type=\"text/javascript\" src=\"//script.crazyegg.com/pages/scripts/0088/8871.js\" async></script>\n\n<script src=\"https://ajax.googleapis.com/ajax/libs/jquery/2.2.4/jquery.js\"></script>\n<script>\n$(document).ready(function() {\n  var theMain = document.getElementById(\"wb-cont\");\n  var theRep = document.getElementById(\"pgft\");\n  theMain.classList.remove(\"container\");\n  theRep.classList.add(\"container\");\n  })\n</script>\n\n\n    <noscript><div class=\"row profile\">\n<div class=\"col-md-6\">\n     \n   \n<p>We help Canadian farmers and businesses produce the best possible food and agriculture products. The department\u2019s programs and services support innovation, sustainable farming, business development, managing risk, trade and market development.</p>\n\n</div>\n\n<div class=\"col-md-6 mrgn-tp-0 hidden-sm hidden-xs\">\n<img src=\"https://www.agr.gc.ca/resources/prod/img/topic_programs_services.jpg\" class=\"img-responsive\" alt=\"\"><br>        \n</div>\n\n\n</div>\n</noscript>\n\n\n\t\t  <div class=\"clearfix\"></div>\n          \n<script src=\"https://ajax.googleapis.com/ajax/libs/jquery/2.2.4/jquery.js\"></script>\n<script>\n$( document ).ready( function() {\nvar h1 = document.getElementsByTagName(\"h1\")[0];\nh1.parentNode.removeChild(h1);\ndocument.getElementsByTagName(\"main\")[0].innerHTML = \n'<div class=\"container\"><div class=\"row profile\"><div class=\"col-md-6\"><h1>Agricultural programs and services<p>We help Canadian farmers and businesses produce the best possible food and agriculture products. The department&rsquo;s programs and services support innovation, sustainable farming, business development, managing risk, trade and market development. <div class=\"col-md-6 mrgn-tp-sm hidden-sm hidden-xs\"><img src=\"http://www.agr.gc.ca/resources/prod/img/topic_programs_services.jpg\" class=\"pull-right img-responsive thumbnail\" alt=\"\"><br/>'\n+ document.getElementsByTagName(\"main\")[0].innerHTML;\n})\n</script>\n   \n\n<!-- START FEATURED BOX  -->\n\n\n<div class=\"featured opct-90\">\n        <div class=\"container\">\n         <div class=\"col-lg-4 col-md-6 col-sm-6\">\n\t<ul class=\"list-unstyled\">\n\t\t<li class=\"mrgn-tp-sm\"><a class=\"a h5\" href=\"?id=1580243430344\">Search all programs and services</a></li>\n\t</ul>\n</div>\n\n<div class=\"col-lg-4 col-md-6 col-sm-6\">\n\t<ul class=\"list-unstyled\">\n\t\t<li class=\"mrgn-tp-sm\"><a class=\"a h5\" href=\"https://www.agr.gc.ca/eng/agricultural-programs-and-services/search-all-agricultural-programs-and-services/?id=1580243430344&amp;dt_app=Yes\">Programs accepting applications</a></li>\n\t</ul>\n</div>\n\n<div class=\"col-lg-4 col-md-6 col-sm-6\">\n\t<ul class=\"list-unstyled\">\n\t\t<li class=\"mrgn-tp-sm\"><a class=\"a h5\" href=\"?id=1210684614941\">Manage My AAFC Account</a></li>\n\t</ul>\n</div>\n        </div>\n</div>     \n\n<!-- END FEATURED BOX -->    \n\n    \n\n\n<!-- MOST REQUESTED START 000000000000000000000000000000000000000000  -->\n      <section class=\"most-requested well well-sm brdr-0\">\n        <div class=\"container\">\n          <div class=\"row\">\n            <div class=\"col-sm-12\">\n              <h2 class=\"mrgn-tp-md\">Most requested</h2>\n              <ul class=\"wb-eqht list-unstyled mrgn-tp-md mrgn-bttm-sm lst-spcd-2 list-responsive-3 wb-init wb-eqht-inited\" id=\"wb-auto-3\">\n                 <li><a href=\"?id=1588186409721\">Mandatory Isolation Support for Temporary Foreign Workers Program</a></li>\n                 <li><a href=\"?id=1542722711958\">Apply now for AgriStability</a></li>\n                 <li><a href=\"?id=1491935919994\">Dairy Farm Investment Program</a></li>\n                <li><a href=\"?id=1591291974693\"> Emergency Processing Fund </a></li>\n                <li><a href=\"?id=1291828779399\">AgriInvest</a></li>\n                <li><a href=\"?id=1600991301312\">Emergency On-Farm Support Fund</a></li>\n<!-- <li><a href=\"?id=1591298974329\">Surplus Food Rescue Program</a></li> -->\n                </ul>\n              \n            </div>\n          </div>\n        </div>\n      </section>\n<!--  MOST REQUESTED END  000000000000000000000000000000000000000 -->  \n      \n      \n\t\t  <div class=\"clearfix\"></div>      \n   \n   <div class=\"container\">       \n <div class=\"btn-group mrgn-tp-md mrgn-bttm-sm\">\n <button type=\"button\" class=\"btn btn-default wb-toggle\" data-toggle='{\"selector\": \"details\", \"parent\": \"#details-elements\", \"print\": \"on\", \"type\": \"on\"}'>Display All</button>\n<button type=\"button\" class=\"btn btn-default wb-toggle\" data-toggle='{\"selector\": \"details\", \"parent\": \"#details-elements\", \"type\": \"off\"}'>Collapse All</button>\n</div>\n</div>\n\n\t\t  <div class=\"clearfix\"></div>    \n          \n\n<div class=\"container\">\n\n<div class=\"wb-eqht row wb-init wb-eqht-inited mrgn-tp-md\" id=\"wb-auto-1\">\n    \n <div id=\"details-elements\">    \n \n       <div class=\"col-md-6\">\n      <details>\n        <summary>COVID-19 specific programs</summary>\n        <ul>\n          <li><a href=\"?id=1585855025072\">Emergency Food Security Fund</a></li>\n          <li><a href=\"?id=1600991301312\">Emergency On-Farm Support Fund</a></li>\n          <li><a href=\"?id=1591291974693\">Emergency Processing Fund</a></li>\n          <li><a href=\"?id=1588186409721\">Mandatory Isolation Support for  Temporary Foreign Workers Program</a></li>\n          <li><a href=\"?id=1591298974329\">Surplus Food Rescue Program</a></li>\n        </ul>\n      </details>\n      </div>\n      \n  <div class=\"col-md-6\">\n      <details>\n        <summary>Managing risk and finance</summary>\n        <p>Income protection, financial support, risk mitigation, disaster relief</p>\n        <ul>\n          <li><a href=\"?id=1462198969862\">Advance Payment Program</a></li>        \n          <li><a href=\"?id=1284665357886\">AgriInsurance</a></li>\n          <li><a href=\"?id=1291828779399\">AgriInvest</a></li>          \n          <li><a href=\"?id=1387480598562\">AgriRecovery</a></li>                                      \n          <li><a href=\"?id=1530816648717\">AgriRisk Initiatives -  Administrative Capacity Building Stream</a></li>        \n          <li><a href=\"?id=1522072838788\">AgriRisk Initiatives - Research  and Development Contribution Funding Stream</a></li>\n          <li><a href=\"?id=1291990433266\">AgriStability</a></li>\n          <li><a href=\"?id=1288035482429\">Canadian Agricultural Loans Act  Program</a></li>\n          <li><a href=\"?id=1536081857309\">Farm Debt Mediation Service</a></li>\n          <li><a href=\"?id=1463574780220\">Livestock Tax Deferral</a></li>\n\n\n\n        </ul>\n      </details>\n      </div> \n      \n      <div class=\"col-md-6\">\n      <details>\n        <summary>Business management</summary>\n        <p>Manage, maintain and protect your business, labour and workforce</p>\n        <ul>\n          <li><a href=\"?id=1517326808755\">AgriDiversity Program</a></li>\n          <li><a href=\"?id=1284665357886\">AgriInsurance</a></li>                                                      \n          <li><a href=\"?id=1291828779399\">AgriInvest</a></li>\n          <li><a href=\"?id=1291990433266\">AgriStability</a></li>\n<li><a href=\"?id=1600991301312\">Emergency On-Farm Support Fund</a></li>\n          <li><a href=\"?id=1591291974693\"> Emergency Processing Fund </a></li>\n          <li><a href=\"?id=1588186409721\">Mandatory Isolation Support for Temporary Foreign Workers Program</a></li>\n          <li><a href=\"?id=1289934791790\">Price Pooling Program</a></li>\n          <li><a href=\"?id=1557778999519\">Youth Employment and Skills Program</a></li>\n        </ul>\n      </details>\n      </div>      \n \n      <div class=\"col-md-6\">\n        <details>\n          <summary>Market development</summary>\n          <p>Expand business, market development, export and marketing support, sector development</p>\n          <ul>\n            <li><a href=\"?id=1517865477303\">AgriAssurance Small and  Medium-sized Enterprise Component</a></li>\n            <li><a href=\"?id=1517335776475\">AgriCompetitiveness Program</a></li>\n            <li><a href=\"?id=1432136045585\">Agri-Food Trade Services</a></li> <!-- 10438 -->\n            <li><a href=\"?id=1515092171804\">AgriMarketing Program</a></li>\n            <li><a href=\"https://marquecanadabrand.agr.gc.ca/intro/index-eng.html\">Canada Brand</a></li>            \n            <li><a href=\"?id=1549325740130\">Canadian Agricultural Strategic Priorities Program</a></li>\n            <li><a href=\"?id=1361290241756\">Canadian agri-food sector</a></li> <!-- 10438 -->\n            <li><a href=\"?id=1289934791790\">Price Pooling Program</a></li>\n<!--      <li><a href=\"?id=1410072148284\">Trade Commissioner Service</a></li>  -->\n            <li><a href=\"?id=1410072148325\">Trade show service</a></li>\n<!--      <li><a href=\"?id=1458757288711\">Single window contact for agri-food trade services</a></li> -->\n          </ul>\n        </details>\n      </div>\n      \n\n      \n      <div class=\"col-md-6\">\n      <details>\n        <summary>Innovation, research and development</summary>\n        <p>Funding for innovation, advancements, technology transfer and licensing</p>\n        <ul>\n          <li><a href=\"?id=1521202868490\">Agricultural Clean Technology  Program</a></li>\n          <li><a href=\"?id=1515010952950\">AgriAssurance Program: National  Industry Association</a></li>          \n          <li><a href=\"?id=1515682916298\">AgriInnovate Program</a></li>\n          <li><a href=\"?id=1531512971010\">AgriRisk Initiatives -  Microgrants</a></li>            \n          <li><a href=\"?id=1511185929317\">AgriScience Program - Clusters</a></li>\n          <li><a href=\"?id=1516993063537\">AgriScience Program - Projects</a></li>\n          <li><a href=\"?id=1497275166570\">Coordinated Agriculture Policy  Research Initiative</a></li>\n          <li><a href=\"?id=1541182326184\">Living Laboratories Initiative: Collaborative Program</a></li>\n          <li><a href=\"?id=1299270709562\">Saint-Hyacinthe Research and Development  Centre's Industrial Program</a></li>\n          <li><a href=\"?id=1196968351190\">Technology Transfer and  Licensing</a></li>\n        </ul>\n      </details>\n      </div>\n\n      \n      <div class=\"col-md-6\">\n      <details>\n        <summary>Sector specific programs</summary>\n        <p>Dairy producers, support for supply-management, Pari-Mutuel Agency permits, Local Food and Infrastructure Fund</p>\n        <ul>\n          <li><a href=\"?id=1204043533186\">Canadian Pari-Mutuel Agency</a></li>\n          <li><a href=\"?id=1566502074838\">Dairy Direct Payment Program</a></li>        \n          <li><a href=\"?id=1491935919994\">Dairy Farm Investment Program</a></li>          \n          <li><a href=\"?id=1491935288949\">Dairy Processing Investment  Fund</a></li>\n          <li><a href=\"?id=1560701480448\">Local Food Infrastructure Fund</a></li>\n<li><a href=\"?id=1591298974329\">Surplus Food Rescue Program</a></li>\n        </ul>\n      </details>\n      </div>      \n\n      \n      <div class=\"col-md-6\">\n      <details>\n        <summary>Sustainable Farming</summary>\n        <p>Protect the environment, land management, Drought Watch, weather, climate, pesticides</p>\n        <ul>\n          <li><a href=\"?id=1461247059955\">Agricultural Greenhouse Gases  Program</a></li>\n          <li><a href=\"http://sis.agr.gc.ca/cansis/\">Canadian Soil Information  Service</a></li>\n          <li><a href=\"?id=1461263317515\">Drought Watch</a></li>                    \n          <li><a href=\"?id=1343066456961\">Geospatial Products</a></li>\n          <li><a href=\"?id=1286197216280\">Minor Use Pesticide Program</a></li>          \n          <li><a href=\"?id=1288277891464\">Pesticide Risk Reduction  Program</a></li>\n        </ul>\n      </details>\n      </div>\n      \n\n      \n      <div class=\"col-md-6\">\n      <details>\n        <summary>Indigenous Peoples and agriculture</summary>\n        <ul>\n          <li><a href=\"?id=1542835055742\">Indigenous Agriculture and Food Systems Initiative</a></li>\n          <li><a href=\"?id=1525208767407\">Indigenous Pathfinder service</a></li>\n        </ul>\n      </details>\n      </div>    \n\n</div>\n\n</div>\n\n\n\n\n\n\n</div>\n\n<!-- END NEW CONTENT -->\n\n\n\n\n\n\n<!-- NEW CONTENT HERE -->\n <div class=\"container\">\n<div class=\"gc-prtts\">\n<section class=\"col-md-12 col-xs-12 pull-left\">\n\n<div class=\"wb-eqht row wb-init wb-eqht-inited\">\n\n<h2 class=\"col-md-6\">Features</h2>\n\n<div class=\"clearfix\"></div>\n\n<div class=\"col-md-4\">\n<a href=\"http://www.agpal.ca/index.html\">\n<figure>\n<figcaption>AgPal \u2013 program and service finder</figcaption><br>\n<img src=\"http://www.agr.gc.ca/resources/prod/CMS/Internet/Home-Accueil/agpal-eng.png\" alt=\"AgPal \u2013 program and service finder\" class=\"img-responsive thumbnail mrgn-bttm-sm\">\n<p>Get a list of federal, provincial and territorial programs and services tailored to your needs</p>\n</figure></a>\n</div>\n\n<div class=\"col-md-4\">\n<a href=\"?id=1490812852619\">\n<figure>\n<figcaption>Business Risk Management programs</figcaption>\n<img src=\"http://www.agr.gc.ca/resources/prod/img/bmr_feature.jpg\" alt=\"Agricultural business management\" class=\"img-responsive thumbnail mrgn-bttm-sm\">\n<p>Find resources and support to stay competitive and be prepared for unforeseen situations</p>\n</figure></a>\n</div>\n\n<div class=\"col-md-4\">\n<a href=\"?id=1391690826829\">\n<figure>\n<figcaption>Youth in agriculture</figcaption><br>\n<img src=\"http://www.agr.gc.ca/resources/prod/img/youth_in_ag_feature-eng.jpg\" alt=\"Youth in agriculture\" class=\"img-responsive thumbnail mrgn-bttm-sm\">\n<p>Find programs and services for farmers</p>\n</figure></a>\n</div>\n\n\n</div></section>\n</div>\n\n\n\n\n</div>\n\n\n<!-- END NEW CONTENT HERE -->\n\r\n    <!-- Fin du contenu -->\r\n  \r\n  <div class=\"pagedetails\" id=\"pgft\">\r\n    <div class=\"row\">\r\n\t  <div class=\"col-sm-6 col-md-5 col-lg-4\">\r\n\t    <details class=\"brdr-0\">\r\n\t\t<summary class=\"btn btn-default text-center\" onclick=\"getAntiSpamSeq('/eng/mail-handler/?anti-spam-sequence=true')\">Report a problem on this page</summary>\r\n\t\t<div class=\"clearfix\"></div>\r\n\t\t<div class=\"well row\">\r\n\t\t<div>\r\n\t\t  <div class=\"gc-rprt-prblm\">\r\n\t\t    <div class=\"gc-rprt-prblm-frm gc-rprt-prblm-tggl\">\r\n\t\t\t  \r\n\t\t\t<form id=\"report_a_problem_form\" action=\"/eng/mail-handler/#report_a_problem_form\" method=\"post\">\t\t\t\t   \t\t\t\r\n\r\n\t            \t <input type=\"hidden\" name=\"lang\" value=\"eng\">\r\n\t            \t <input type=\"hidden\" name=\"pageId\" value=\"1362151577626\">\r\n\t            \t <input type=\"hidden\" name=\"pageUrl\" value=\"http://www.agr.gc.ca/eng/agricultural-programs-and-services/?id=1362151577626\">\r\n\t\t\t\t\t <div id=\"report_a_problem_form_error\"></div>\r\n\t\t             <fieldset>\t\t\t\t\t    \r\n\t\t                <legend><span class=\"field-name\">Please select all that apply:</span></legend>\t\t                                 \r\n\t\t\t\t\t\t<div class=\"checkbox\">\r\n\t\t\t\t\t\t\t<label for=\"problem1\"><input name=\"problem1\" id=\"problem1\" type=\"checkbox\" value=\"Yes\">A link, button or video is not working</label>\r\n\t\t\t\t\t\t\t<input name=\"problem1\" type=\"hidden\" value=\"No\">\r\n\t\t\t\t\t\t</div>\r\n\t\t\t\t\t\t<div class=\"checkbox\">\r\n\t\t\t\t\t\t\t<label for=\"problem2\"><input name=\"problem2\" id=\"problem2\" type=\"checkbox\" value=\"Yes\">It has a spelling mistake</label>\r\n\t\t\t\t\t\t\t<input name=\"problem2\" type=\"hidden\" value=\"No\">\r\n\t\t\t\t\t\t</div>\r\n\t\t\t\t\t\t<div class=\"checkbox\">\r\n\t\t\t\t\t\t\t<label for=\"problem3\"><input name=\"problem3\" id=\"problem3\" type=\"checkbox\" value=\"Yes\">Information is missing</label>\r\n\t\t\t\t\t\t\t<input name=\"problem3\" type=\"hidden\" value=\"No\">\r\n\t\t\t\t\t   </div>\r\n\t\t\t\t\t\t<div class=\"checkbox\">\r\n\t\t\t\t\t\t\t<label for=\"problem4\"><input name=\"problem4\" id=\"problem4\" type=\"checkbox\" value=\"Yes\">Information is outdated or wrong</label>\r\n\t\t\t\t\t\t\t<input name=\"problem4\" type=\"hidden\" value=\"No\">\r\n\t\t\t\t\t\t</div>\r\n\t\t\t\t\t\t<div class=\"checkbox\">\r\n\t\t\t\t\t\t\t<label for=\"problem5\"><input name=\"problem5\" id=\"problem5\" type=\"checkbox\" value=\"Yes\">Login error when trying to access an account (e.g. My Service Canada Account)</label>\r\n\t\t\t\t\t\t\t<input name=\"problem5\" type=\"hidden\" value=\"No\">\r\n\t\t\t\t\t\t</div>\r\n\t\t\t\t\t\t\t<ul>\r\n\t\t\t\t\t\t\t<li class=\"checkbox\">\r\n\t\t\t\t\t\t\t\t<label for=\"problem6a\"><input name=\"problem6\" id=\"problem6a\" type=\"checkbox\" value=\"Yes\">GC Key access</label>\r\n\t\t\t\t\t\t\t\t<input name=\"problem6\" type=\"hidden\" value=\"No\">\r\n\t\t\t\t\t\t\t </li>\r\n\t\t\t\t\t\t\t<li class=\"checkbox\">\r\n\t\t\t\t\t\t\t\t<label for=\"problem7\"><input name=\"problem7\" id=\"problem7\" type=\"checkbox\" value=\"Yes\">SecureKey Concierge (Banking Credential) access </label>\r\n\t\t\t\t\t\t\t\t<input name=\"problem7\" type=\"hidden\" value=\"No\">\r\n\t\t\t\t\t\t\t </li>\r\n\t\t\t\t\t\t\t<li class=\"checkbox\">\r\n\t\t\t\t\t\t\t\t<label for=\"problem8\"><input name=\"problem8\" id=\"problem8\" type=\"checkbox\" value=\"Yes\">Personal Access Code (PAC) problems or EI Access Code (AC) problems</label>\r\n\t\t\t\t\t\t\t\t<input name=\"problem8\" type=\"hidden\" value=\"No\">\r\n\t\t\t\t\t\t\t </li>\t\r\n\t\t\t\t\t\t\t<li class=\"checkbox\">\r\n\t\t\t\t\t\t\t\t<label for=\"problem9\"><input name=\"problem9\" id=\"problem9\" type=\"checkbox\" value=\"Yes\">Social Insurance Number (SIN) validation problems</label>\r\n\t\t\t\t\t\t\t\t<input name=\"problem9\" type=\"hidden\" value=\"No\">\r\n\t\t\t\t\t\t\t </li>\t\t\t\t\t\t\t\t\r\n\t\t\t\t\t\t\t<li class=\"checkbox\">\r\n\t\t\t\t\t\t\t\t<label for=\"problem10\"><input name=\"problem10\" id=\"problem10\" type=\"checkbox\" value=\"Yes\">Other login error not in this list</label>\r\n\t\t\t\t\t\t\t\t<input name=\"problem10\" type=\"hidden\" value=\"No\">\r\n\t\t\t\t\t\t\t </li>\t\t \r\n\t\t\t\t\t\t\t </ul>\r\n\t\t\t\t\t\t<div class=\"checkbox\">\r\n\t\t\t\t\t\t\t<label for=\"problem11\"><input name=\"problem11\" id=\"problem11\" type=\"checkbox\" value=\"Yes\">I can't find what I'm looking for</label>\r\n\t\t\t\t\t\t\t<input name=\"problem11\" type=\"hidden\" value=\"No\">\r\n\t\t\t\t\t\t</div>\r\n\t\t\t\t\t\t<div class=\"checkbox\">\r\n\t\t\t\t\t\t\t<label for=\"problem12\"><input name=\"problem12\" id=\"problem12\" type=\"checkbox\" value=\"Yes\">Other issue not in this list</label>\r\n\t\t\t\t\t\t\t<input name=\"problem12\" type=\"hidden\" value=\"No\">\r\n\t\t\t\t\t\t</div>\t\t\t\t\t\t \t\t\t\t\t\t\t\t\t\t\t\t \r\n\t\t             </fieldset>\r\n\t\t\t\t\t <div>\r\n\t\t\t\t\t   <label for=\"aafc_ranstr\"><span id=\"fbch\"><br>Enter these characters <strong class=\"required\">(required)</strong>: </span><span id=\"ranstr\">U5S</span></label>\r\n\t\t\t           <input name=\"anti-spam-sequence\" id=\"aafc_ranstr\" size=\"4\" maxlength=\"3\" type=\"text\">\r\n\t\t\t\t\t </div>\t\r\n\r\n\t\t\t\t\t <br><input type=\"submit\" class=\"btn btn-primary\" value=\"Submit\">\r\n\t\t\t\t  </form>\r\n\t\t\t\t</div>\r\n\t\t\t</div>\t\t\t\r\n\t\t  </div>\r\n\t\t</div>\r\n\t\t</details>\r\n\t  </div>\r\n\t  <div class=\"wb-share col-sm-4 col-md-3 col-sm-offset-2 col-md-offset-4 col-lg-offset-5\" data-wb-share='{\"lnkClass\": \"btn btn-default btn-block\"}'></div>\r\n\t</div>\r\n\t<dl id=\"wb-dtmd\">\r\n\t  <dt>Date modified: </dt>\r\n\t  <dd><time property=\"dateModified\">2021-02-05</time></dd></dl></div>",
        "fr": "\r\n    \r\n    <!-- MainContentStart -->\r\n    <!-- D&eacute;but du contenu -->\r\n    <script src=\"https://ajax.googleapis.com/ajax/libs/jquery/2.2.4/jquery.js\"></script>\n<script>\n$(document).ready(function() {\n  var theMain = document.getElementById(\"wb-cont\");\n  var theRep = document.getElementById(\"pgft\");\n  theMain.classList.remove(\"container\");\n  theRep.classList.add(\"container\");\n  })\n</script>\n\n\n<noscript><div class=\"row profile\">\n<div class=\"col-md-6\">\n     \n    <p>Nous aidons les agriculteurs et les entreprises du Canada \u00e0 produire les meilleurs produits alimentaires et agricoles possible. Les programmes et services du Minist\u00e8re appuient l\u2019innovation, l\u2019agriculture durable, le d\u00e9veloppement d\u2019entreprises, la gestion du risque et le d\u00e9veloppement du commerce et des march\u00e9s.</p>\n\n</div>\n<div class=\"col-md-6 mrgn-tp-0 hidden-sm hidden-xs\">\n<img src=\"https://www.agr.gc.ca/resources/prod/img/topic_programs_services.jpg\" class=\"img-responsive\" alt=\"\"><br>   \n</div></div>\n</noscript>\n    \n<div class=\"clearfix\"></div>\n          \n<script src=\"https://ajax.googleapis.com/ajax/libs/jquery/2.2.4/jquery.js\"></script>\n<script>\n$( document ).ready( function() {\nvar h1 = document.getElementsByTagName(\"h1\")[0];\nh1.parentNode.removeChild(h1);\ndocument.getElementsByTagName(\"main\")[0].innerHTML = \n'<div class=\"container\"><div class=\"row profile\"><div class=\"col-md-6\"><h1>Programmes et services agricoles<p>Nous aidons les agriculteurs et les entreprises du Canada &agrave; produire les meilleurs produits alimentaires et agricoles possible. Les programmes et services du Minist&egrave;re appuient l&rsquo;innovation, l&rsquo;agriculture durable, le d&eacute;veloppement d&rsquo;entreprises, la gestion du risque et le d&eacute;veloppement du commerce et des march&eacute;s. <div class=\"col-md-6 mrgn-tp-sm hidden-sm hidden-xs\"><img src=\"http://www.agr.gc.ca/resources/prod/img/topic_programs_services.jpg\" class=\"pull-right img-responsive thumbnail\" alt=\"\"><br/>'\n+ document.getElementsByTagName(\"main\")[0].innerHTML;\n})\n</script>\n    \n<!-- START FEATURED BOX -->\n\n<div class=\"featured opct-90\">\n        <div class=\"container\">\n<div class=\"col-lg-5 col-md-6 col-sm-6\">\n\t<ul class=\"list-unstyled\">\n\t\t<li class=\"mrgn-tp-sm\"><a class=\"a h5 nowrap\" href=\"?id=1580243430344\">Recherche d'un programme ou d\u2019un service</a></li>\n\t</ul>\n</div>\n\n<div class=\"col-lg-4 col-md-6 col-sm-6\">\n\t<ul class=\"list-unstyled\">\n\t\t<li class=\"mrgn-tp-sm\"><a class=\"a h5 nowrap\" href=\"https://www.agr.gc.ca/fra/programmes-et-services-agricoles/trouver-un-programme-ou-un-service-agricole/?id=1580243430344&amp;dt_app=Oui\">Programmes acceptant des demandes</a></li>\n\t</ul>\n</div>\n\n<div class=\"col-lg-3 col-md-6 col-sm-6\">\n\t<ul class=\"list-unstyled\">\n\t\t<li class=\"mrgn-tp-sm\"><a class=\"a h5\" href=\"?id=1210684614941\">G\u00e9rer \u00ab\u00a0Mon dossier AAC\u00a0\u00bb</a></li>\n\t</ul>\n</div>\n        </div>\n</div>      \n\n<!-- END FEATURED BOX -->    \n\n    \n\n\n<!-- MOST REQUESTED START 000000000000000000000000000000000000000000  -->\n      <section class=\"most-requested well well-sm brdr-0\">\n        <div class=\"container\">\n          <div class=\"row\">\n            <div class=\"col-sm-12\">\n              <h2 class=\"mrgn-tp-md\">En demande</h2>\n            <ul class=\"wb-eqht list-unstyled mrgn-tp-md mrgn-bttm-sm lst-spcd-2 list-responsive-3 wb-init wb-eqht-inited\" id=\"wb-auto-3\">\n                 <li><a href=\"?id=1588186409721\">Programme d\u2019aide pour l\u2019isolement obligatoire des travailleurs \u00e9trangers temporaires</a></li>\n                 <li><a href=\"?id=1542722711958\">Inscrivez-vous maintenant \u00e0 Agri-stabilit\u00e9</a></li>\n                 <li><a href=\"?id=1491935919994\">Programme d'investissement pour fermes laiti\u00e8res</a></li>\n<li><a href=\"?id=1591291974693\">Fonds d\u2019urgence pour la transformation</a></li>\n<li><a href=\"?id=1291828779399\">Agri-investissement</a></li>\n<li><a href=\"?id=1600991301312\">Fonds d\u2019urgence pour les mesures de soutien \u00e0 la ferme</a></li>\n\n\n<!--  <li><a href=\"?id=1591298974329\">Programme de r&eacute;cup&eacute;ration d&rsquo;aliments exc&eacute;dentaires</a></li>  -->\n              </ul>\n\n              \n            </div>\n          </div>\n        </div>\n      </section>\n<!--  MOST REQUESTED END  000000000000000000000000000000000000000 -->  \n      \n      \n\t\t  <div class=\"clearfix\"></div>      \n   \n   <div class=\"container\">       \n <div class=\"btn-group mrgn-tp-md mrgn-bttm-sm\">\n <button type=\"button\" class=\"btn btn-default wb-toggle\" data-toggle='{\"selector\": \"details\", \"parent\": \"#details-elements\", \"print\": \"on\", \"type\": \"on\"}'>Agrandir tout</button>\n<button type=\"button\" class=\"btn btn-default wb-toggle\" data-toggle='{\"selector\": \"details\", \"parent\": \"#details-elements\", \"type\": \"off\"}'>R\u00e9duire tout</button>\n</div>\n</div>\n\t\t  <div class=\"clearfix\"></div>    \n          \n\n<div class=\"container\">\n\n<div class=\"wb-eqht row wb-init wb-eqht-inited mrgn-tp-md\" id=\"wb-auto-1\">\n    \n <div id=\"details-elements\">    \n \n      \n      <div class=\"col-md-6\">\n      <details>\n        <summary>Programmes li\u00e9s \u00e0 la COVID-19</summary>\n        <ul>\n          <li><a href=\"?id=1585855025072\">Fonds d'urgence pour la s\u00e9curit\u00e9 alimentaire</a></li>\n          <li><a href=\"?id=1591291974693\">Fonds d'urgence pour la transformation</a></li>\n<li><a href=\"?id=1600991301312\">Fonds d\u2019urgence pour les mesures de soutien \u00e0 la ferme</a></li>\n          <li><a href=\"?id=1588186409721\">Programme d'aide pour l'isolement obligatoire des travailleurs \u00e9trangers  temporaires</a></li>\n          <li><a href=\"?id=1591298974329\">Programme de r\u00e9cup\u00e9ration d'aliments exc\u00e9dentaires</a></li>\n        </ul>\n      </details>\n      </div>\n       \n  <div class=\"col-md-6\">\n      <details>\n        <summary>Finances et gestion des risques</summary>\n        <p>Protection des revenus, soutien financier, att\u00e9nuation des risques, aide en cas de catastrophe</p>\n        <ul>\n            <li><a href=\"?id=1291828779399\">Agri-investissement</a></li>\n             <li><a href=\"?id=1291990433266\">Agri-stabilit\u00e9</a></li>\n             <li><a href=\"?id=1463574780220\">Disposition de report de l'imp\u00f4t pour les \u00e9leveurs</a></li>\n             <li><a href=\"?id=1387480598562\">Initiatives Agri-relance</a></li>\n             <li><a href=\"?id=1522072838788\">Initiatives Agri-risques : Volet de financement par contribution de recherche et d\u00e9veloppement </a></li>\n             <li><a href=\"?id=1530816648717\">Initiatives Agri-risques : Volet de renforcement des capacit\u00e9s administratives</a></li>\n             <li><a href=\"?id=1284665357886\">Programme Agri-protection</a></li>\n             <li><a href=\"?id=1288035482429\">Programme de la Loi canadienne sur les pr\u00eats agricoles</a></li>\n             <li><a href=\"?id=1462198969862\">Programme de paiements anticip\u00e9s</a></li>\n             <li><a href=\"?id=1536081857309\">Service de m\u00e9diation en mati\u00e8re d'endettement agricole</a></li>\n        </ul>\n      </details>\n      </div> \n      \n      <div class=\"col-md-6\">\n      <details>\n        <summary>Gestion d\u2019entreprise</summary>\n        <p>G\u00e9rer, maintenir et prot\u00e9ger une entreprise, d\u00e9marrer une entreprise, travail et main-d\u2019\u0153uvre</p>\n        <ul>\n            <li><a href=\"?id=1291828779399\">Agri-investissement</a></li>\n             <li><a href=\"?id=1291990433266\">Agri-stabilit\u00e9</a></li>\n<li><a href=\"?id=1591291974693\">Fonds d\u2019urgence pour la transformation</a></li>\n<li><a href=\"?id=1600991301312\">Fonds d\u2019urgence pour les mesures de soutien \u00e0 la ferme</a></li>\n             <li><a href=\"?id=1517326808755\">Programme Agri-diversit\u00e9</a></li>\n             <li><a href=\"?id=1284665357886\">Programme Agri-protection</a></li>\n             <li><a href=\"?id=1588186409721\">Programme d\u2019aide pour l\u2019isolement obligatoire des travailleurs \u00e9trangers temporaires</a></li>\n             <li><a href=\"?id=1557778999519\">Programme d'emploi et de comp\u00e9tences des jeunes</a></li>\n             <li><a href=\"?id=1289934791790\">Programme de mise en commun des prix</a></li>\n        </ul>\n      </details>\n      </div>      \n \n      <div class=\"col-md-6\">\n        <details>\n          <summary>D\u00e9veloppement des march\u00e9s</summary>\n          <p>Expansion des activit\u00e9s commerciales, d\u00e9veloppement des march\u00e9s, soutien \u00e0 l\u2019exportation et \u00e0 la commercialisation</p>\n          <ul>\n     <!--    <li><a href=\"?id=1458757288711\">Guichet unique pour communiquer avec le Service d'exportation agroalimentaire</a></li> -->\n               <li><a href=\"https://marquecanadabrand.agr.gc.ca/intro/index-fra.html\">Marque Canada</a></li>\n               <li><a href=\"?id=1517865477303\">Programme Agri-assurance : Volet Petites et moyennes entreprises</a></li>\n               <li><a href=\"?id=1517335776475\">Programme Agri-comp\u00e9titivit\u00e9</a></li>\n               <li><a href=\"?id=1515092171804\">Programme Agri-marketing</a></li>\n               <li><a href=\"?id=1549325740130\">Programme canadien des priorit\u00e9s strat\u00e9giques de l\u2019agriculture</a></li>\n               <li><a href=\"?id=1289934791790\">Programme de mise en commun des prix</a></li>\n    <!--     <li><a href=\"?id=1410072148284\">Service des d&eacute;l&eacute;gu&eacute;s commerciaux du secteur</a></li> -->\n               <li><a href=\"?id=1361290241756\">Secteur agroalimentaire canadien</a></li> <!-- 10438 -->               \n               <li><a href=\"?id=1410072148325\">Service li\u00e9 aux salons professionnels</a></li>\n               <li><a href=\"?id=1432136045585\">Services d'exportation agroalimentaires</a></li> <!-- 10438 -->       \n          </ul>\n        </details>\n      </div>\n      \n\n      \n      <div class=\"col-md-6\">\n      <details>\n        <summary>Innovation, recherche et d\u00e9veloppement</summary>\n        <p>Financement pour l\u2019innovation, les progr\u00e8s, le transfert de technologie et l\u2019octroi de licences</p>\n        <ul>\n             <li><a href=\"?id=1497275166570\">Initiative Coordonn\u00e9e de Recherche sur les Politiques Agricoles</a></li>\n             <li><a href=\"?id=1541182326184\">Initiative des laboratoires vivants : Programme de collaboration</a></li>\n             <li><a href=\"?id=1531512971010\">Initiatives Agri-risques : Microsubventions</a></li>             \n             <li><a href=\"?id=1515010952950\">Programme Agri-assurance : Volet Associations nationales de l'industrie</a></li>             \n             <li><a href=\"?id=1515682916298\">Programme Agri-innover</a></li>\n             <li><a href=\"?id=1511185929317\">Programme Agri-science \u2013 grappes</a></li>\n             <li><a href=\"?id=1516993063537\">Programme Agri-science \u2013 projets</a></li>\n             <li><a href=\"?id=1521202868490\">Programme des technologies propres en agriculture</a></li>\n             <li><a href=\"?id=1299270709562\">Programme industriel du Centre de recherche et de d\u00e9veloppement</a></li>\n             <li><a href=\"?id=1196968351190\">Transfert et licences de technologie</a></li>\n</ul>\n      </details>\n      </div>\n\n      \n      <div class=\"col-md-6\">\n      <details>\n        <summary>Propre au secteur</summary>\n        <p>Producteurs laitiers, soutien \u00e0 la gestion de l\u2019offre, permis de l\u2019Agence canadienne du pari mutuel, Fonds des infrastructures alimentaires locales</p>\n        <ul>\n            <li><a href=\"?id=1204043533186\">Agence canadienne du pari mutuel</a></li>\n             <li><a href=\"?id=1566502074838\">Programme de paiements directs pour les producteurs laitiers</a></li>\n             <li><a href=\"?id=1491935919994\">Programme d'investissement pour fermes laiti\u00e8res</a></li>\n             <li><a href=\"?id=1560701480448\">Fonds des infrastructures alimentaires locales</a></li>\n             <li><a href=\"?id=1491935288949\">Fonds d'investissement dans la transformation des produits laitiers</a></li>\n<li><a href=\"?id=1591298974329\">Programme de r\u00e9cup\u00e9ration d\u2019aliments exc\u00e9dentaires</a></li>\n        </ul>\n      </details>\n      </div>      \n\n      \n      <div class=\"col-md-6\">\n      <details>\n        <summary>Agriculture durable</summary>\n        <p>Prot\u00e9ger l\u2019environnement, gestion des terres, surveillance de la s\u00e9cheresse, m\u00e9t\u00e9o, climat, pesticides</p>\n        <ul>\n            <li><a href=\"?id=1461263317515\">Guetter la s\u00e9cheresse</a></li>\n             <li><a href=\"?id=1288277891464\">La r\u00e9duction des risques li\u00e9s aux pesticides au Centre de la lutte antiparasitaire</a></li>\n             <li><a href=\"?id=1286197216280\">Les pesticides \u00e0 usage limit\u00e9 au Centre de la lutte antiparasitaire</a></li>\n             <li><a href=\"?id=1343066456961\">Produits g\u00e9ospatiaux</a></li>\n             <li><a href=\"?id=1461247059955\">Programme de lutte contre les gaz \u00e0 effet de serre en agriculture</a></li>\n             <li><a href=\"http://sis.agr.gc.ca/siscan/\">Syst\u00e8me d\u2019information sur les sols du Canada</a></li>\n        </ul>\n      </details>\n      </div>\n      \n\n      \n      <div class=\"col-md-6\">\n      <details>\n        <summary>Peuples autochtones et agriculture</summary>\n        <ul>\n          <li><a href=\"?id=1542835055742\">Initiative sur les syst\u00e8mes agricoles et alimentaires autochtones</a></li>\n          <li><a href=\"?id=1525208767407\">Service Explorateur pour les Autochtones</a></li>\n        </ul>\n      </details>\n      </div>    \n\n</div>\n\n</div>\n\n</div>\n\n<!-- END NEW CONTENT -->\n\n\n\n\n\n\n\n<!-- FEATURES START HERE -->\n <div class=\"container\">\n<div class=\"gc-prtts\">\n<section class=\"col-md-12 col-xs-12 pull-left\">\n\n<div class=\"wb-eqht row wb-init wb-eqht-inited\">\n\n<h2 class=\"col-md-6\">En vedette</h2>\n\n<div class=\"clearfix\"></div>\n\n\n<div class=\"col-md-4\">\n<a href=\"http://www.agpal.ca/accueil.html\">\n<figure>\n<figcaption>AgriGuichet \u2013 Chercheur de programmes et service</figcaption>\n<img src=\"http://www.agr.gc.ca/resources/prod/CMS/Internet/Home-Accueil/agpal-fra.png\" alt=\"AgriGuichet \u2013 Chercheur de programmes et service\" class=\"img-responsive thumbnail mrgn-bttm-sm\">\n<p>Consultez une liste des programmes et des services f\u00e9d\u00e9raux, provinciaux et territoriaux adapt\u00e9s \u00e0 vos besoins</p>\n</figure></a>\n</div>\n\n<div class=\"col-md-4\">\n<a href=\"?id=1490812852619\">\n<figure>\n<figcaption>Programmes de gestion des risques de l'entreprise</figcaption>\n<img src=\"http://www.agr.gc.ca/resources/prod/img/bmr_feature.jpg\" alt=\"Gestion des entreprises agricoles\" class=\"img-responsive thumbnail mrgn-bttm-sm\">\n<p>Trouvez des ressources et du soutien afin de demeurer concurrentiel et d'\u00eatre pr\u00e9par\u00e9 en cas de situations impr\u00e9vues</p>\n</figure></a>\n</div>\n\n<div class=\"col-md-4\">\n<a href=\"?id=1391690826829\">\n<figure>\n<figcaption>Les jeunes en agriculture</figcaption><br>\n<img src=\"http://www.agr.gc.ca/resources/prod/img/youth_in_ag_feature-eng.jpg\" alt=\"Les jeunes en agriculture\" class=\"img-responsive thumbnail mrgn-bttm-sm\">\n<p>Programmes et services pour les agriculteurs</p>\n</figure></a>\n</div>\n\n\n</div></section>\n</div>\n\n\n\n\n</div>\n<!-- FEATURES END HERE -->\n\n\r\n    <!-- Fin du contenu -->\r\n\t\r\n\t<div class=\"pagedetails\" id=\"pgft\">\r\n\t\t<div class=\"row\">\r\n\t\t  <div class=\"col-sm-6 col-md-5 col-lg-4\">\r\n\t\t    <details class=\"brdr-0\">\r\n\t\t\t<summary class=\"btn btn-default text-center\" onclick=\"getAntiSpamSeq('/fra/mail-handler/?anti-spam-sequence=true')\">Signaler un probl\u00e8me sur cette page</summary>\r\n\t\t\t<div class=\"well row\">\r\n\t\t\t  <div class=\"gc-rprt-prblm\">\r\n\t\t\t    <div class=\"gc-rprt-prblm-frm gc-rprt-prblm-tggl\">\r\n\t\t\t\t   <form id=\"report_a_problem_form\" action=\"/fra/mail-handler/\" method=\"post\">\r\n\t            \t <input type=\"hidden\" name=\"lang\" value=\"fra\">\r\n\t            \t <input type=\"hidden\" name=\"pageId\" value=\"1362151577626\">\r\n\t            \t <input type=\"hidden\" name=\"pageUrl\" value=\"http://www.agr.gc.ca/fra/programmes-et-services-agricoles/?id=1362151577626\">\r\n\t\t\t\t\t <div id=\"report_a_problem_form_error\"></div>\r\n\t\t             <fieldset>\t\t\t\t\t    \r\n\t\t                <legend><span class=\"field-name\">Veuillez cocher toutes les r\u00e9ponses pertinentes\u00a0:</span></legend>\r\n\t\t                 <div class=\"checkbox\">\r\n\t\t                    <label for=\"problem1\"><input name=\"problem1\" id=\"problem1\" type=\"checkbox\" value=\"Yes\">Un lien, un bouton ou une vid\u00e9o ne fonctionne pas</label>\r\n\t\t                    <input name=\"problem1\" type=\"hidden\" value=\"No\">\r\n\t\t                </div>\r\n\t\t                <div class=\"checkbox\">\r\n\t\t                    <label for=\"problem2\"><input name=\"problem2\" id=\"problem2\" type=\"checkbox\" value=\"Yes\">Il y a une erreur d'orthographe ou de grammaire</label>\r\n\t\t                    <input name=\"problem2\" type=\"hidden\" value=\"No\">\r\n\t\t                </div>\r\n\t\t   \t\t\t\t <div class=\"checkbox\">\r\n\t\t                    <label for=\"problem3\"><input name=\"problem3\" id=\"problem3\" type=\"checkbox\" value=\"Yes\">Les renseignements sont incomplets</label>\r\n\t\t                    <input name=\"problem3\" type=\"hidden\" value=\"No\">\r\n\t\t                </div>\r\n\t\t             \t\t<div class=\"checkbox\">\r\n\t\t                    <label for=\"problem4\"><input name=\"problem4\" id=\"problem4\" type=\"checkbox\" value=\"Yes\">L'information n'est plus \u00e0 jour ou est erron\u00e9e</label>\r\n\t\t                    <input name=\"problem4\" type=\"hidden\" value=\"No\">\r\n\t\t                </div>\t\t\t\t\t\t\r\n\t\t\t\t\t\t<div class=\"checkbox\">\r\n\t\t\t\t\t\t\t<label for=\"problem5\"><input name=\"problem5\" id=\"problem5\" type=\"checkbox\" value=\"Yes\">Message d'erreur \u00e0 l'ouverture de la session lorsque je tente d'acc\u00e9der \u00e0 un compte (ex. Mon dossier Service Canada)</label>\r\n\t\t\t\t\t\t\t<input name=\"problem5\" type=\"hidden\" value=\"No\">\r\n\t\t\t\t\t\t</div>\r\n\t\t\t\t\t\t\t<ul>\r\n\t\t\t\t\t\t\t<li class=\"checkbox\">\r\n\t\t\t\t\t\t\t\t<label for=\"problem6a\"><input name=\"problem6\" id=\"problem6a\" type=\"checkbox\" value=\"Yes\">Acc\u00e8s Cl\u00e9GC</label>\r\n\t\t\t\t\t\t\t\t<input name=\"problem6\" type=\"hidden\" value=\"No\">\r\n\t\t\t\t\t\t\t </li>\r\n\t\t\t\t\t\t\t<li class=\"checkbox\">\r\n\t\t\t\t\t\t\t\t<label for=\"problem7\"><input name=\"problem7\" id=\"problem7\" type=\"checkbox\" value=\"Yes\">Acc\u00e8s SecureKey Service de Concierge (justificatifs d'identit\u00e9 bancaires)</label>\r\n\t\t\t\t\t\t\t\t<input name=\"problem7\" type=\"hidden\" value=\"No\">\r\n\t\t\t\t\t\t\t </li>\r\n\t\t\t\t\t\t\t<li class=\"checkbox\">\r\n\t\t\t\t\t\t\t\t<label for=\"problem8\"><input name=\"problem8\" id=\"problem8\" type=\"checkbox\" value=\"Yes\">Probl\u00e8me avec le Code d'acc\u00e8s personnel (CAP) ou avec le Code d'acc\u00e8s (CA) de l'assurance emploi</label>\r\n\t\t\t\t\t\t\t\t<input name=\"problem8\" type=\"hidden\" value=\"No\">\r\n\t\t\t\t\t\t\t </li>\t\r\n\t\t\t\t\t\t\t<li class=\"checkbox\">\r\n\t\t\t\t\t\t\t\t<label for=\"problem9\"><input name=\"problem9\" id=\"problem9\" type=\"checkbox\" value=\"Yes\">Probl\u00e8me li\u00e9 \u00e0 la validation du num\u00e9ro d'assurance sociale (NAS)</label>\r\n\t\t\t\t\t\t\t\t<input name=\"problem9\" type=\"hidden\" value=\"No\">\r\n\t\t\t\t\t\t\t </li>\t\t\t\t\t\t\t\t\r\n\t\t\t\t\t\t\t<li class=\"checkbox\">\r\n\t\t\t\t\t\t\t\t<label for=\"problem10\"><input name=\"problem10\" id=\"problem10\" type=\"checkbox\" value=\"Yes\">Autre erreur lors de l'ouverture de session qui ne figure pas sur cette liste</label>\r\n\t\t\t\t\t\t\t\t<input name=\"problem10\" type=\"hidden\" value=\"No\">\r\n\t\t\t\t\t\t\t </li>\t\t \r\n\t\t\t\t\t\t\t </ul>\r\n\t\t\t\t\t\t<div class=\"checkbox\">\r\n\t\t\t\t\t\t\t<label for=\"problem11\"><input name=\"problem11\" id=\"problem11\" type=\"checkbox\" value=\"Yes\">Je n'arrive pas \u00e0 trouver ce que je cherche</label>\r\n\t\t\t\t\t\t\t<input name=\"problem11\" type=\"hidden\" value=\"No\">\r\n\t\t\t\t\t\t</div>\r\n\t\t\t\t\t\t<div class=\"checkbox\">\r\n\t\t\t\t\t\t\t<label for=\"problem12\"><input name=\"problem12\" id=\"problem12\" type=\"checkbox\" value=\"Yes\">Autre probl\u00e8me qui ne figure pas sur cette liste</label>\r\n\t\t\t\t\t\t\t<input name=\"problem12\" type=\"hidden\" value=\"No\">\r\n\t\t\t\t\t\t</div>\t\t\t\t\t\t\t\t\t\t\t\t\t\t\t\t\t\t\t\r\n\t\t             </fieldset>\r\n\t\t\t\t\t <div>\r\n\t\t\t\t        <label for=\"aafc_ranstr\"><span id=\"fbch\">Veuillez inscrire les caract\u00e8res suivants  <strong class=\"required\">(obligatoire)</strong>\u00a0: </span><span id=\"ranstr\">XXX</span></label>\r\n\t\t\t            <input name=\"anti-spam-sequence\" id=\"aafc_ranstr\" size=\"4\" maxlength=\"3\" type=\"text\">\r\n\t\t\t\t\t </div>\r\n\t\t\t\t\t <input type=\"submit\" class=\"btn btn-primary\" value=\"Soumettre\">\r\n\t\t\t\t  </form>\r\n\t\t\t\t</div>\r\n\t\t\t  </div>\r\n\t\t\t</div>\r\n\t\t</details>\r\n\t    </div>\r\n\t  <div class=\"wb-share col-sm-4 col-md-3 col-sm-offset-2 col-md-offset-4 col-lg-offset-5\" data-wb-share='{\"lnkClass\": \"btn btn-default btn-block\"}'></div>\r\n\t  </div>\r\n\t  <dl id=\"wb-dtmd\">\r\n\t    <dt>Date de modification\u00a0: </dt>\r\n\t      <dd><time property=\"dateModified\">2021-02-05</time></dd>\r\n\t  </dl>\r\n\t</div>\r\n\t\r\n  "
    }
}