{
    "dcr_id": "1344640294401",
    "title": {
        "en": "Design",
        "fr": "Conception"
    },
    "modified": "2017-07-14",
    "issued": "2012-10-30",
    "templatetype": "content page 1 column",
    "page_type": "1",
    "node_id": "1369771883566",
    "dc_date_created": "2012-10-30",
    "managing_branch": "PAB",
    "parent_node_id": "1354137773742",
    "label": {
        "en": "Design",
        "fr": "Conception"
    },
    "exturl": "",
    "teamsite_location": {
        "en": "/default/main/AAFC-AAC/Internet-Internet/Common-Commun/WORKAREA/Common-Commun/templatedata/comm-comm/gene-gene/data/08/agroforest_shltrblt_design_1344640294401_en",
        "fr": "/default/main/AAFC-AAC/Internet-Internet/Common-Commun/WORKAREA/Common-Commun/templatedata/comm-comm/gene-gene/data/08/agroforest_shltrblt_design_1344640294401_fr"
    },
    "type_name": "sitemapinit",
    "has_dcr_id": true,
    "breadcrumb": {
        "en": "Design",
        "fr": "Conception"
    },
    "layout_name": "content page 1 column",
    "lang": "en",
    "meta": {
        "issued": {
            "en": "2012-10-30",
            "fr": "2012-10-30"
        },
        "modified": {
            "en": "2017-07-14",
            "fr": "2017-07-14"
        },
        "format": {
            "en": "text/html",
            "fr": "text/html"
        },
        "title": {
            "en": "Design",
            "fr": "Conception"
        },
        "subject": {
            "en": "grasslands;programs;livestock",
            "fr": "plante nuisible;agriculture;b\u00e9tail"
        },
        "description": {
            "en": "When designing your shelterbelts the following are important considerations to identify: Note orientation (north) on the sketch pad Prevailing or troublesome winds Locate existing buildings or structures and any future developments Note all distances between structures Identify property lines fences and roads Locate existing trees (bluffs or planted rows) Identify power lines/utility service lines (include buried lines) Identify trouble areas where there is snow build up flooding soil problems steep slopes or lagoons Indicate landscape features (hills water areas stubble grass summerfallow) Include location of new tree rows species selection row",
            "fr": "Pour en savoir plus : Brise-vent de cour de ferme Brise-vent de champ Brise-vent de mares-r\u00e9servoirs Brise-vent de bord de route Brise-vent pour le b\u00e9tail Plantations pour la faune Plantations dans les zones riveraines Rideaux forestiers Id\u00e9alement les brise-vent sont compos\u00e9s de plusieurs essences d'arbres et d'arbustes pr\u00e9sentant diff\u00e9rentes caract\u00e9ristiques de croissance qui permettront d'obtenir un feuillage dense \u00e0 diverses hauteurs sur une p\u00e9riode de plusieurs ann\u00e9es."
        },
        "language": {
            "en": "eng",
            "fr": "fra"
        },
        "keywords": {
            "en": "height range;future developments;extent of downwind protection;shrub species characteristics;foliage density",
            "fr": "densit\u00e9 du brise-vent;rang\u00e9es d'arbres;pr\u00e8s du sol;feuillage dense;croissance rapide"
        },
        "audience": {
            "en": "gcaudience",
            "fr": "gcaudience"
        },
        "type": {
            "en": "organizational description",
            "fr": "publication"
        },
        "creator": {
            "en": "Agriculture and Agri-Food Canada;Government of Canada",
            "fr": "Agriculture et Agroalimentaire Canada;Gouvernement du Canada"
        },
        "spatial": {
            "en": "gcregions",
            "fr": "gcregions"
        },
        "service": {
            "en": "AAFC-AAC",
            "fr": "AAFC-AAC"
        },
        "accessRights": {
            "en": "2",
            "fr": "2"
        },
        "legalName": {
            "en": "agriculture_and_agri_food_canada",
            "fr": "agriculture_et_agroalimentaire_canada"
        },
        "areaServed": {
            "en": "Canada",
            "fr": "Canada"
        }
    },
    "body": {
        "en": "tart --&gt;\r\n    <!-- D&eacute;but du contenu -->\r\n    <p>A shelterbelt planting is a long-term investment, and careful planning can improve benefits and help avoid problems.</p>\n<p><b>Learn more on:</b></p>\n<ul>\n<li><a href=\"/eng/agriculture-and-the-environment/agricultural-practices/agroforestry/shelterbelt-planning-and-establishment/design/farmyard-shelterbelts/?id=1344641665558\">Farmyard Shelterbelts</a></li>\n<li><a href=\"/eng/agriculture-and-the-environment/agricultural-practices/agroforestry/shelterbelt-planning-and-establishment/design/field-shelterbelts/?id=1344878160778\">Field Shelterbelts</a></li>\n<li><a href=\"/eng/agriculture-and-the-environment/agricultural-practices/agroforestry/shelterbelt-planning-and-establishment/design/dugout-shelterbelts/?id=1344879527869\">Dugout Shelterbelts</a></li>\n<li><a href=\"/eng/agriculture-and-the-environment/agricultural-practices/agroforestry/shelterbelt-planning-and-establishment/design/roadside-shelterbelts/?id=1344882105190\">Roadside Shelterbelts</a></li>\n<li><a href=\"/eng/agriculture-and-the-environment/agricultural-practices/agroforestry/shelterbelt-planning-and-establishment/design/livestock-shelterbelts/?id=1344883127286\">Livestock Shelterbelts</a></li>\n<li><a href=\"/eng/agriculture-and-the-environment/agricultural-practices/agroforestry/shelterbelt-planning-and-establishment/design/wildlife-plantings/?id=1344887254019\">Wildlife Plantings</a></li>\n<li><a href=\"/eng/agriculture-and-the-environment/agricultural-practices/agroforestry/shelterbelt-planning-and-establishment/design/riparian-buffers/?id=1344888191892\">Riparian Buffers</a></li>\n<li><a href=\"/eng/agriculture-and-the-environment/agricultural-practices/agroforestry/shelterbelt-planning-and-establishment/design/forest-belts/?id=1344892729023\">Forest belts</a></li>\n</ul>\n<p>Shelterbelts require several kinds of trees and shrubs with different growth characteristics to provide foliage density at various heights over a period of years. As trees age, their form and crown characteristics change. The ability of a tree planting to provide protection depends on a combination of tree and shrub species characteristics such as shelterbelt height, density and longevity.</p>\n<p>Height influences the extent of the protected area. The taller the shelterbelt, the greater the area protected. For a quick effect, plant fast-growing trees that reach maximum height in a short time. Since fast growers are usually also short-lived, you should also plant slower-growing trees that mature later but remain functional for a long time. Density influences the extent of downwind protection.</p>\n<p>Young trees provide foliage density near the ground, at a height range of 0-3.0 metres (m). As the trees mature, density near the ground will have to be provided by thick growing shrub species. Most conifers have dense, compact tops that retain foliage throughout the year.</p>\n<p>In contrast, deciduous trees and shrubs lose foliage in the fall causing shelterbelts to have lower densities in winter than summer. Foliage density in the middle level of shelterbelts, 3.0-5.0 m, will be provided by the fast-growing broadleaf trees. As the broadleaf trees age and grow, conifers begin to assume the mid-level density function.</p>\n<p>An effective shelterbelt is composed of five rows of trees and shrubs. If limited space prevents planting five rows with adequate space between rows, it is better to plant fewer rows than to crowd the trees. Three rows, with room to grow, will result in better long-term results than five crowded rows.</p>\n<p>When there is not even enough room for three rows, a narrow shelterbelt of two rows of dense conifers, provides the most practical protection under the circumstances.</p>\n<p>Staggering the trees, so they are not directly behind the tree in the adjacent row will optimize protection.</p>\n<p>Developing a sketch of the planting area helps the planning process. When designing your shelterbelts the following are important considerations to identify:</p>\n<ul>\n<li>Note orientation (north) on the sketch pad</li>\n<li>Prevailing or troublesome winds</li>\n<li>Locate existing buildings or structures and any future developments</li>\n<li>Note all distances between structures</li>\n<li>Identify property lines, fences and roads</li>\n<li>Locate existing trees (bluffs or planted rows)</li>\n<li>Identify power lines/utility service lines (include buried lines)</li>\n<li>Identify trouble areas where there is snow build up, flooding, soil problems, steep slopes or lagoons</li>\n<li>Indicate landscape features (hills, water areas, stubble, grass, summerfallow)</li>\n<li>Include location of new tree rows, species selection, row spacing and length of rows</li>\n</ul>\n\n\r\n    <!-- Fin du contenu -->\r\n  \r\n  <div class=\"pagedetails\" id=\"pgft\">\r\n    <div class=\"row\">\r\n\t  <div class=\"col-sm-6 col-md-5 col-lg-4\">\r\n\t    <details class=\"brdr-0\">\r\n\t\t<summary class=\"btn btn-default text-center\" onclick=\"getAntiSpamSeq('/eng/mail-handler/?anti-spam-sequence=true')\">Report a problem on this page</summary>\r\n\t\t<div class=\"clearfix\"></div>\r\n\t\t<div class=\"well row\">\r\n\t\t<div>\r\n\t\t  <div class=\"gc-rprt-prblm\">\r\n\t\t    <div class=\"gc-rprt-prblm-frm gc-rprt-prblm-tggl\">\r\n\t\t\t  \r\n\t\t\t<form id=\"report_a_problem_form\" action=\"/eng/mail-handler/#report_a_problem_form\" method=\"post\">\t\t\t\t   \t\t\t\r\n\r\n\t            \t <input type=\"hidden\" name=\"lang\" value=\"eng\">\r\n\t            \t <input type=\"hidden\" name=\"pageId\" value=\"1344640294401\">\r\n\t            \t <input type=\"hidden\" name=\"pageUrl\" value=\"http://www.agr.gc.ca/eng/agriculture-and-the-environment/agricultural-practices/agroforestry/shelterbelt-planning-and-establishment/design/?id=1344640294401\">\r\n\t\t\t\t\t <div id=\"report_a_problem_form_error\"></div>\r\n\t\t             <fieldset>\t\t\t\t\t    \r\n\t\t                <legend><span class=\"field-name\">Please select all that apply:</span></legend>\t\t                                 \r\n\t\t\t\t\t\t<div class=\"checkbox\">\r\n\t\t\t\t\t\t\t<label for=\"problem1\"><input name=\"problem1\" id=\"problem1\" type=\"checkbox\" value=\"Yes\">A link, button or video is not working</label>\r\n\t\t\t\t\t\t\t<input name=\"problem1\" type=\"hidden\" value=\"No\">\r\n\t\t\t\t\t\t</div>\r\n\t\t\t\t\t\t<div class=\"checkbox\">\r\n\t\t\t\t\t\t\t<label for=\"problem2\"><input name=\"problem2\" id=\"problem2\" type=\"checkbox\" value=\"Yes\">It has a spelling mistake</label>\r\n\t\t\t\t\t\t\t<input name=\"problem2\" type=\"hidden\" value=\"No\">\r\n\t\t\t\t\t\t</div>\r\n\t\t\t\t\t\t<div class=\"checkbox\">\r\n\t\t\t\t\t\t\t<label for=\"problem3\"><input name=\"problem3\" id=\"problem3\" type=\"checkbox\" value=\"Yes\">Information is missing</label>\r\n\t\t\t\t\t\t\t<input name=\"problem3\" type=\"hidden\" value=\"No\">\r\n\t\t\t\t\t   </div>\r\n\t\t\t\t\t\t<div class=\"checkbox\">\r\n\t\t\t\t\t\t\t<label for=\"problem4\"><input name=\"problem4\" id=\"problem4\" type=\"checkbox\" value=\"Yes\">Information is outdated or wrong</label>\r\n\t\t\t\t\t\t\t<input name=\"problem4\" type=\"hidden\" value=\"No\">\r\n\t\t\t\t\t\t</div>\r\n\t\t\t\t\t\t<div class=\"checkbox\">\r\n\t\t\t\t\t\t\t<label for=\"problem5\"><input name=\"problem5\" id=\"problem5\" type=\"checkbox\" value=\"Yes\">Login error when trying to access an account (e.g. My Service Canada Account)</label>\r\n\t\t\t\t\t\t\t<input name=\"problem5\" type=\"hidden\" value=\"No\">\r\n\t\t\t\t\t\t</div>\r\n\t\t\t\t\t\t\t<ul>\r\n\t\t\t\t\t\t\t<li class=\"checkbox\">\r\n\t\t\t\t\t\t\t\t<label for=\"problem6a\"><input name=\"problem6\" id=\"problem6a\" type=\"checkbox\" value=\"Yes\">GC Key access</label>\r\n\t\t\t\t\t\t\t\t<input name=\"problem6\" type=\"hidden\" value=\"No\">\r\n\t\t\t\t\t\t\t </li>\r\n\t\t\t\t\t\t\t<li class=\"checkbox\">\r\n\t\t\t\t\t\t\t\t<label for=\"problem7\"><input name=\"problem7\" id=\"problem7\" type=\"checkbox\" value=\"Yes\">SecureKey Concierge (Banking Credential) access </label>\r\n\t\t\t\t\t\t\t\t<input name=\"problem7\" type=\"hidden\" value=\"No\">\r\n\t\t\t\t\t\t\t </li>\r\n\t\t\t\t\t\t\t<li class=\"checkbox\">\r\n\t\t\t\t\t\t\t\t<label for=\"problem8\"><input name=\"problem8\" id=\"problem8\" type=\"checkbox\" value=\"Yes\">Personal Access Code (PAC) problems or EI Access Code (AC) problems</label>\r\n\t\t\t\t\t\t\t\t<input name=\"problem8\" type=\"hidden\" value=\"No\">\r\n\t\t\t\t\t\t\t </li>\t\r\n\t\t\t\t\t\t\t<li class=\"checkbox\">\r\n\t\t\t\t\t\t\t\t<label for=\"problem9\"><input name=\"problem9\" id=\"problem9\" type=\"checkbox\" value=\"Yes\">Social Insurance Number (SIN) validation problems</label>\r\n\t\t\t\t\t\t\t\t<input name=\"problem9\" type=\"hidden\" value=\"No\">\r\n\t\t\t\t\t\t\t </li>\t\t\t\t\t\t\t\t\r\n\t\t\t\t\t\t\t<li class=\"checkbox\">\r\n\t\t\t\t\t\t\t\t<label for=\"problem10\"><input name=\"problem10\" id=\"problem10\" type=\"checkbox\" value=\"Yes\">Other login error not in this list</label>\r\n\t\t\t\t\t\t\t\t<input name=\"problem10\" type=\"hidden\" value=\"No\">\r\n\t\t\t\t\t\t\t </li>\t\t \r\n\t\t\t\t\t\t\t </ul>\r\n\t\t\t\t\t\t<div class=\"checkbox\">\r\n\t\t\t\t\t\t\t<label for=\"problem11\"><input name=\"problem11\" id=\"problem11\" type=\"checkbox\" value=\"Yes\">I can't find what I'm looking for</label>\r\n\t\t\t\t\t\t\t<input name=\"problem11\" type=\"hidden\" value=\"No\">\r\n\t\t\t\t\t\t</div>\r\n\t\t\t\t\t\t<div class=\"checkbox\">\r\n\t\t\t\t\t\t\t<label for=\"problem12\"><input name=\"problem12\" id=\"problem12\" type=\"checkbox\" value=\"Yes\">Other issue not in this list</label>\r\n\t\t\t\t\t\t\t<input name=\"problem12\" type=\"hidden\" value=\"No\">\r\n\t\t\t\t\t\t</div>\t\t\t\t\t\t \t\t\t\t\t\t\t\t\t\t\t\t \r\n\t\t             </fieldset>\r\n\t\t\t\t\t <div>\r\n\t\t\t\t\t   <label for=\"aafc_ranstr\"><span id=\"fbch\"><br>Enter these characters <strong class=\"required\">(required)</strong>: </span><span id=\"ranstr\">U5S</span></label>\r\n\t\t\t           <input name=\"anti-spam-sequence\" id=\"aafc_ranstr\" size=\"4\" maxlength=\"3\" type=\"text\">\r\n\t\t\t\t\t </div>\t\r\n\r\n\t\t\t\t\t <br><input type=\"submit\" class=\"btn btn-primary\" value=\"Submit\">\r\n\t\t\t\t  </form>\r\n\t\t\t\t</div>\r\n\t\t\t</div>\t\t\t\r\n\t\t  </div>\r\n\t\t</div>\r\n\t\t</details>\r\n\t  </div>\r\n\t  <div class=\"wb-share col-sm-4 col-md-3 col-sm-offset-2 col-md-offset-4 col-lg-offset-5\" data-wb-share='{\"lnkClass\": \"btn btn-default btn-block\"}'></div>\r\n\t</div>\r\n\t<dl id=\"wb-dtmd\">\r\n\t  <dt>Date modified: </dt>\r\n\t  <dd><time property=\"dateModified\">2017-07-14</time></dd></dl></div>",
        "fr": "\r\n    \r\n    <!-- MainContentStart -->\r\n    <!-- D&eacute;but du contenu -->\r\n    <p>L'\u00e9tablissement d'un brise-vent est un investissement \u00e0 long terme et doit \u00eatre soigneusement planifi\u00e9 pour en accro\u00eetre les b\u00e9n\u00e9fices et \u00e9viter les probl\u00e8mes.</p>\n \n<p><b>Pour en savoir plus :</b></p>\n<ul>\n<li><a href=\"/fra/agriculture-et-environnement/pratiques-agricoles/agroforesterie/planification-et-etablissement-des-brise-vent/conception/brise-vent-de-cour-de-ferme/?id=1344641665558\">Brise-vent de cour de ferme</a></li>\n<li><a href=\"/fra/agriculture-et-environnement/pratiques-agricoles/agroforesterie/planification-et-etablissement-des-brise-vent/conception/brise-vent-de-champ/?id=1344878160778\">Brise-vent de champ</a></li> <li><a href=\"/fra/agriculture-et-environnement/pratiques-agricoles/agroforesterie/planification-et-etablissement-des-brise-vent/conception/brise-vent-de-mares-reservoirs/?id=1344879527869\">Brise-vent de mares-r\u00e9servoirs</a></li>\n<li><a href=\"/fra/agriculture-et-environnement/pratiques-agricoles/agroforesterie/planification-et-etablissement-des-brise-vent/conception/brise-vent-de-bord-de-route/?id=1344882105190\">Brise-vent de bord de route</a></li>\n<li><a href=\"/fra/agriculture-et-environnement/pratiques-agricoles/agroforesterie/planification-et-etablissement-des-brise-vent/conception/brise-vent-pour-le-betail/?id=1344883127286\">Brise-vent pour le b\u00e9tail</a></li>\n<li><a href=\"/fra/agriculture-et-environnement/pratiques-agricoles/agroforesterie/planification-et-etablissement-des-brise-vent/conception/plantations-pour-la-faune/?id=1344887254019\">Plantations pour la faune</a></li>\n<li><a href=\"/fra/agriculture-et-environnement/pratiques-agricoles/agroforesterie/planification-et-etablissement-des-brise-vent/conception/bandes-riveraines/?id=1344888191892\">Plantations dans les zones riveraines</a></li> \n<li><a href=\"/fra/agriculture-et-environnement/pratiques-agricoles/agroforesterie/planification-et-etablissement-des-brise-vent/conception/rideaux-forestiers/?id=1344892729023\">Rideaux forestiers</a></li> </ul>  <p>Id\u00e9alement, les brise-vent sont compos\u00e9s de plusieurs essences d'arbres et d'arbustes pr\u00e9sentant diff\u00e9rentes caract\u00e9ristiques de croissance qui permettront d'obtenir un feuillage dense \u00e0 diverses hauteurs sur une p\u00e9riode de plusieurs ann\u00e9es. \u00c0 mesure que les arbres vieillissent, leur port et leur couronne changent. La capacit\u00e9 de protection d'un brise-vent d\u00e9pend de l'assortiment des caract\u00e9ristiques des arbres et arbustes facteurs comme la hauteur, la densit\u00e9 et la long\u00e9vit\u00e9.</p><p>La hauteur des arbres joue sur la largeur de la zone prot\u00e9g\u00e9e. Plus le brise-vent est haut, plus la zone prot\u00e9g\u00e9e sera large. Afin d'obtenir l'effet de brise-vent le plus rapidement possible, plantez des arbres \u00e0 croissance rapide, qui atteindront leur hauteur maximale dans un bref laps de temps. Comme les arbres \u00e0 croissance rapide ont aussi une courte dur\u00e9e de vie, vous devez pr\u00e9voir de planter \u00e9galement des arbres \u00e0 croissance lente. Ces arbres parviendront \u00e0 maturit\u00e9 plus tard, mais ils assureront leur r\u00f4le pendant plus longtemps. La densit\u00e9 du brise-vent influe sur l'efficacit\u00e9 de la protection sous le vent.</p> <p>Les jeunes arbres ont un feuillage dense pr\u00e8s du sol, soit de 0 \u00e0 3,0 m\u00e8tres (m). Lorsque les arbres grandissent, la densit\u00e9 du brise-vent pr\u00e8s du sol doit \u00eatre assur\u00e9e par des esp\u00e8ces d'arbustes au port dense. La plupart des conif\u00e8res pr\u00e9sentent une couronne dense et compacte et gardent leurs aiguilles toute l'ann\u00e9e.</p> <p>En revanche, les arbres et les arbustes feuillus perdent leur feuillage \u00e0 l'automne, ce qui r\u00e9duit la densit\u00e9 des brise-vent l'hiver venu. La densit\u00e9 du feuillage \u00e0 hauteur interm\u00e9diaire, entre 3,0 et 5,0 m, est d'abord assur\u00e9e par des arbres feuillus \u00e0 croissance rapide. \u00c0 mesure que ces arbres vieillissent, les conif\u00e8res prennent la rel\u00e8ve et fournissent la densit\u00e9 requise \u00e0 la mi-hauteur du brise-vent.</p><p>Pour \u00eatre pleinement efficaces, les brise-vent doivent \u00eatre compos\u00e9s de cinq rang\u00e9es d'arbres et d'arbustes. Si le manque d'espace emp\u00eache de planter cinq rang\u00e9es suffisamment espac\u00e9es, il est pr\u00e9f\u00e9rable de planter moins de rang\u00e9es que de trop rapprocher les arbres. La plantation de trois rang\u00e9es avec amplement d'espace pour la croissance des arbres donnera de meilleurs r\u00e9sultats \u00e0 long terme que cinq rang\u00e9es trop serr\u00e9es.</p><p>S'il n'y a pas assez de place pour trois rang\u00e9es, un brise-vent \u00e9troit compos\u00e9 de deux rang\u00e9es de conif\u00e8res denses offrira la meilleure protection dans les circonstances.</p><p>Le d\u00e9calage des arbres, pour qu'ils ne se trouvent pas directement en face de ceux de la deuxi\u00e8me rang\u00e9e, permettra d'obtenir une protection optimale.</p><p>La pr\u00e9paration d'un croquis de la zone de plantation facilitera le processus de planification. Voici d'importants \u00e9l\u00e9ments \u00e0 d\u00e9terminer pour concevoir un brise-vent :</p>\n \n<ul>\n<li>L'orientation du plan, au moyen d'une fl\u00e8che indiquant le nord.</li> <li>Les vents dominants ou probl\u00e9matiques.</li> <li>L'emplacement des b\u00e2timents et des structures en place et des \u00e9ventuelles constructions \u00e0 venir.</li> <li>Toutes les distances entre les b\u00e2timents et structures.</li> <li>Les limites de la propri\u00e9t\u00e9, les cl\u00f4tures et les routes.</li> <li>L'emplacement des arbres existants (bosquets ou rang\u00e9es d'arbres).</li> <li>Le trac\u00e9 des lignes \u00e9lectriques (a\u00e9riennes ou souterraines), des conduites d'eau, etc.  </li> <li>Les zones d'accumulation de neige, d'inondation et de probl\u00e8mes de sol, les pentes abruptes et les mares-r\u00e9servoirs.</li> <li>Les caract\u00e9ristiques du paysage (collines, plans d'eau, champs en chaume, zones enherb\u00e9es, jach\u00e8res).</li> <li>L'emplacement des rang\u00e9es d'arbres \u00e0 planter, les essences choisies, l'\u00e9cartement et la longueur des rang\u00e9es.</li> </ul> \n\r\n    <!-- Fin du contenu -->\r\n\t\r\n\t<div class=\"pagedetails\" id=\"pgft\">\r\n\t\t<div class=\"row\">\r\n\t\t  <div class=\"col-sm-6 col-md-5 col-lg-4\">\r\n\t\t    <details class=\"brdr-0\">\r\n\t\t\t<summary class=\"btn btn-default text-center\" onclick=\"getAntiSpamSeq('/fra/mail-handler/?anti-spam-sequence=true')\">Signaler un probl\u00e8me sur cette page</summary>\r\n\t\t\t<div class=\"well row\">\r\n\t\t\t  <div class=\"gc-rprt-prblm\">\r\n\t\t\t    <div class=\"gc-rprt-prblm-frm gc-rprt-prblm-tggl\">\r\n\t\t\t\t   <form id=\"report_a_problem_form\" action=\"/fra/mail-handler/\" method=\"post\">\r\n\t            \t <input type=\"hidden\" name=\"lang\" value=\"fra\">\r\n\t            \t <input type=\"hidden\" name=\"pageId\" value=\"1344640294401\">\r\n\t            \t <input type=\"hidden\" name=\"pageUrl\" value=\"http://www.agr.gc.ca/fra/agriculture-et-environnement/pratiques-agricoles/agroforesterie/planification-et-etablissement-des-brise-vent/conception/?id=1344640294401\">\r\n\t\t\t\t\t <div id=\"report_a_problem_form_error\"></div>\r\n\t\t             <fieldset>\t\t\t\t\t    \r\n\t\t                <legend><span class=\"field-name\">Veuillez cocher toutes les r\u00e9ponses pertinentes\u00a0:</span></legend>\r\n\t\t                 <div class=\"checkbox\">\r\n\t\t                    <label for=\"problem1\"><input name=\"problem1\" id=\"problem1\" type=\"checkbox\" value=\"Yes\">Un lien, un bouton ou une vid\u00e9o ne fonctionne pas</label>\r\n\t\t                    <input name=\"problem1\" type=\"hidden\" value=\"No\">\r\n\t\t                </div>\r\n\t\t                <div class=\"checkbox\">\r\n\t\t                    <label for=\"problem2\"><input name=\"problem2\" id=\"problem2\" type=\"checkbox\" value=\"Yes\">Il y a une erreur d'orthographe ou de grammaire</label>\r\n\t\t                    <input name=\"problem2\" type=\"hidden\" value=\"No\">\r\n\t\t                </div>\r\n\t\t   \t\t\t\t <div class=\"checkbox\">\r\n\t\t                    <label for=\"problem3\"><input name=\"problem3\" id=\"problem3\" type=\"checkbox\" value=\"Yes\">Les renseignements sont incomplets</label>\r\n\t\t                    <input name=\"problem3\" type=\"hidden\" value=\"No\">\r\n\t\t                </div>\r\n\t\t             \t\t<div class=\"checkbox\">\r\n\t\t                    <label for=\"problem4\"><input name=\"problem4\" id=\"problem4\" type=\"checkbox\" value=\"Yes\">L'information n'est plus \u00e0 jour ou est erron\u00e9e</label>\r\n\t\t                    <input name=\"problem4\" type=\"hidden\" value=\"No\">\r\n\t\t                </div>\t\t\t\t\t\t\r\n\t\t\t\t\t\t<div class=\"checkbox\">\r\n\t\t\t\t\t\t\t<label for=\"problem5\"><input name=\"problem5\" id=\"problem5\" type=\"checkbox\" value=\"Yes\">Message d'erreur \u00e0 l'ouverture de la session lorsque je tente d'acc\u00e9der \u00e0 un compte (ex. Mon dossier Service Canada)</label>\r\n\t\t\t\t\t\t\t<input name=\"problem5\" type=\"hidden\" value=\"No\">\r\n\t\t\t\t\t\t</div>\r\n\t\t\t\t\t\t\t<ul>\r\n\t\t\t\t\t\t\t<li class=\"checkbox\">\r\n\t\t\t\t\t\t\t\t<label for=\"problem6a\"><input name=\"problem6\" id=\"problem6a\" type=\"checkbox\" value=\"Yes\">Acc\u00e8s Cl\u00e9GC</label>\r\n\t\t\t\t\t\t\t\t<input name=\"problem6\" type=\"hidden\" value=\"No\">\r\n\t\t\t\t\t\t\t </li>\r\n\t\t\t\t\t\t\t<li class=\"checkbox\">\r\n\t\t\t\t\t\t\t\t<label for=\"problem7\"><input name=\"problem7\" id=\"problem7\" type=\"checkbox\" value=\"Yes\">Acc\u00e8s SecureKey Service de Concierge (justificatifs d'identit\u00e9 bancaires)</label>\r\n\t\t\t\t\t\t\t\t<input name=\"problem7\" type=\"hidden\" value=\"No\">\r\n\t\t\t\t\t\t\t </li>\r\n\t\t\t\t\t\t\t<li class=\"checkbox\">\r\n\t\t\t\t\t\t\t\t<label for=\"problem8\"><input name=\"problem8\" id=\"problem8\" type=\"checkbox\" value=\"Yes\">Probl\u00e8me avec le Code d'acc\u00e8s personnel (CAP) ou avec le Code d'acc\u00e8s (CA) de l'assurance emploi</label>\r\n\t\t\t\t\t\t\t\t<input name=\"problem8\" type=\"hidden\" value=\"No\">\r\n\t\t\t\t\t\t\t </li>\t\r\n\t\t\t\t\t\t\t<li class=\"checkbox\">\r\n\t\t\t\t\t\t\t\t<label for=\"problem9\"><input name=\"problem9\" id=\"problem9\" type=\"checkbox\" value=\"Yes\">Probl\u00e8me li\u00e9 \u00e0 la validation du num\u00e9ro d'assurance sociale (NAS)</label>\r\n\t\t\t\t\t\t\t\t<input name=\"problem9\" type=\"hidden\" value=\"No\">\r\n\t\t\t\t\t\t\t </li>\t\t\t\t\t\t\t\t\r\n\t\t\t\t\t\t\t<li class=\"checkbox\">\r\n\t\t\t\t\t\t\t\t<label for=\"problem10\"><input name=\"problem10\" id=\"problem10\" type=\"checkbox\" value=\"Yes\">Autre erreur lors de l'ouverture de session qui ne figure pas sur cette liste</label>\r\n\t\t\t\t\t\t\t\t<input name=\"problem10\" type=\"hidden\" value=\"No\">\r\n\t\t\t\t\t\t\t </li>\t\t \r\n\t\t\t\t\t\t\t </ul>\r\n\t\t\t\t\t\t<div class=\"checkbox\">\r\n\t\t\t\t\t\t\t<label for=\"problem11\"><input name=\"problem11\" id=\"problem11\" type=\"checkbox\" value=\"Yes\">Je n'arrive pas \u00e0 trouver ce que je cherche</label>\r\n\t\t\t\t\t\t\t<input name=\"problem11\" type=\"hidden\" value=\"No\">\r\n\t\t\t\t\t\t</div>\r\n\t\t\t\t\t\t<div class=\"checkbox\">\r\n\t\t\t\t\t\t\t<label for=\"problem12\"><input name=\"problem12\" id=\"problem12\" type=\"checkbox\" value=\"Yes\">Autre probl\u00e8me qui ne figure pas sur cette liste</label>\r\n\t\t\t\t\t\t\t<input name=\"problem12\" type=\"hidden\" value=\"No\">\r\n\t\t\t\t\t\t</div>\t\t\t\t\t\t\t\t\t\t\t\t\t\t\t\t\t\t\t\r\n\t\t             </fieldset>\r\n\t\t\t\t\t <div>\r\n\t\t\t\t        <label for=\"aafc_ranstr\"><span id=\"fbch\">Veuillez inscrire les caract\u00e8res suivants  <strong class=\"required\">(obligatoire)</strong>\u00a0: </span><span id=\"ranstr\">XXX</span></label>\r\n\t\t\t            <input name=\"anti-spam-sequence\" id=\"aafc_ranstr\" size=\"4\" maxlength=\"3\" type=\"text\">\r\n\t\t\t\t\t </div>\r\n\t\t\t\t\t <input type=\"submit\" class=\"btn btn-primary\" value=\"Soumettre\">\r\n\t\t\t\t  </form>\r\n\t\t\t\t</div>\r\n\t\t\t  </div>\r\n\t\t\t</div>\r\n\t\t</details>\r\n\t    </div>\r\n\t  <div class=\"wb-share col-sm-4 col-md-3 col-sm-offset-2 col-md-offset-4 col-lg-offset-5\" data-wb-share='{\"lnkClass\": \"btn btn-default btn-block\"}'></div>\r\n\t  </div>\r\n\t  <dl id=\"wb-dtmd\">\r\n\t    <dt>Date de modification\u00a0: </dt>\r\n\t      <dd><time property=\"dateModified\">2017-07-14</time></dd>\r\n\t  </dl>\r\n\t</div>\r\n\t\r\n  "
    }
}