{
    "dcr_id": "1384971854418",
    "title": {
        "en": "Price reports",
        "fr": "Rapports sur les prix"
    },
    "modified": "2020-10-27",
    "issued": "2011-01-30",
    "templatetype": "content page 1 column",
    "page_type": "1",
    "node_id": "1384971799965",
    "dc_date_created": "2011-01-30",
    "managing_branch": "MISB",
    "parent_node_id": "1354137773899",
    "label": {
        "en": "Prices",
        "fr": "Prix"
    },
    "exturl": "",
    "teamsite_location": {
        "en": "/default/main/AAFC-AAC/Internet-Internet/MISB-DGSIM/SDAD-DDAS/PE-VO/WORKAREA/PE-VO/templatedata/comm-comm/gene-gene/data/by_type_prices_1384971854418_en",
        "fr": "/default/main/AAFC-AAC/Internet-Internet/MISB-DGSIM/SDAD-DDAS/PE-VO/WORKAREA/PE-VO/templatedata/comm-comm/gene-gene/data/by_type_prices_1384971854418_fr"
    },
    "type_name": "sitemapinit",
    "has_dcr_id": true,
    "breadcrumb": {
        "en": "Prices",
        "fr": "Prix"
    },
    "layout_name": "content page 1 column",
    "lang": "en",
    "meta": {
        "issued": {
            "en": "2011-01-30",
            "fr": "2003-02-24"
        },
        "modified": {
            "en": "2020-10-27",
            "fr": "2020-10-27"
        },
        "format": {
            "en": "gcformat",
            "fr": "gcformat"
        },
        "title": {
            "en": "Price reports",
            "fr": "Rapports sur les prix"
        },
        "subject": {
            "en": "architectural heritage;architecture;statistics",
            "fr": "ressources p\u00e9dagogiques;m\u00e9dicament;engrais"
        },
        "description": {
            "en": "Canada's poultry and egg industry is mainly composed of the following sectors: chicken, ducks and geese, hatching eggs, table eggs, and turkey. Poultry and Egg Market Information \u2013 Canadian Industry provides weekly, monthly, and annual reports on: condemnations, egg production (processed and table eggs), hatcheries, imports and exports, inter-provincial movements, producer and retail prices, slaughter, storage stocks. Also includes product-based reports and information on chicken, ducks and geese, hatching eggs, table eggs, and turkey.",
            "fr": "L'industrie canadienne de la volaille et des oeufs comprend principalement les secteurs suivants : le poulet, le canard et l'oie, les oeufs d'incubation, les oeufs de consommation et le dindon. Information sur le march\u00e9 de la volaille et oeufs \u2013 Industrie canadienne Pr\u00e9sente des rapports hebdomadaires, mensuels et annuels sur les sujets suivants: condamnations, production d\u2019oeufs (oeufs transform\u00e9s et oeufs de consommation), couvoirs, importations / exportations, exp\u00e9ditions interprovinciales, producteurs et prix \u00e0 la consommation, abattages, stocks en entrep\u00f4t. Comprend \u00e9galement des rapports fond\u00e9s sur les produits ainsi que des renseignements sur le poulet, le canard et l'oie, les oeufs d'incubation, les oeufs de consommation et le dindon."
        },
        "language": {
            "en": "eng",
            "fr": "fra"
        },
        "keywords": {
            "en": "Price Reports;Historical Raw Data Files;Ducks;Turkey;Chicken;Table Eggs",
            "fr": "Rapports sur les prix;Fichiers de donn\u00e9es brutes;Canards;Dindons;Poulets;Oeufs de table"
        },
        "audience": {
            "en": "gcaudience",
            "fr": "gcaudience"
        },
        "type": {
            "en": "form",
            "fr": "mat\u00e9riel didactique"
        },
        "creator": {
            "en": "Market and Industry Services Branch;Agriculture and Agri-Food Canada;Government of Canada",
            "fr": "Direction g\u00e9n\u00e9rale des services \u00e0 l'industrie et aux march\u00e9s;Agriculture et Agroalimentaire Canada;Gouvernement du Canada"
        },
        "spatial": {
            "en": "gcregions",
            "fr": "gcregions"
        },
        "service": {
            "en": "AAFC-AAC",
            "fr": "AAFC-AAC"
        },
        "accessRights": {
            "en": "2",
            "fr": "2"
        },
        "legalName": {
            "en": "agriculture_and_agri_food_canada",
            "fr": "agriculture_et_agroalimentaire_canada"
        },
        "areaServed": {
            "en": "Canada",
            "fr": "Canada"
        }
    },
    "body": {
        "en": "tart --&gt;\r\n    <!-- D&eacute;but du contenu -->\r\n    <ul>\n<li><a href=\"#eggs\">Table eggs </a></li>\n<li><a href=\"#chicken\">Chicken</a></li>\n<li><a href=\"#turkey\">Turkey</a></li>\n<li><a href=\"#ducks\">Ducks</a></li>\n<li><a href=\"#rawdata\">Historical raw data files</a></li>\n<li><a href=\"#STC\">Statistics Canada retail price reports</a></li>\n</ul>\n<h2><a id=\"eggs\"></a>Table eggs </h2>\n<dl>\n<dt><a href=\"http://aimis-simia.agr.gc.ca/rp/index-eng.cfm?menupos=1.01.02&amp;r=116&amp;LANG=EN&amp;action=pR\">Weighted average retail poultry and table egg prices</a></dt>\n<dd>Report displays weighted average retail prices for poultry and table eggs by province, region or city by 4 week periods, for a selected year. For years 2009 to current.</dd>\n<dt><a href=\"http://aimis-simia.agr.gc.ca/rp/index-eng.cfm?action=pR&amp;r=15&amp;pdctc=\">Weekly table egg prices</a></dt>\n<dd>Report displays a producer price showing low, high and weighted average price by province and by grade, for a selected week.\u00a0 For years 1985 to current.<br>For years prior to 2009, retail prices are available showing low, high and weighted average prices by province and by grade. </dd>\n<dt><a href=\"http://aimis-simia.agr.gc.ca/rp/index-eng.cfm?action=pR&amp;r=16&amp;pdctc=\">Monthly and annual average egg prices</a></dt>\n<dd>Report displays the average price paid to producers, by province for a selected year and grade. For years (1985 - current). For years prior to 2009, a weighted average price to consumers by city is available. </dd>\n</dl>\n<h2><a id=\"chicken\"></a>Chicken </h2>\n<dl>\n<dt><a href=\"http://aimis-simia.agr.gc.ca/rp/index-eng.cfm?menupos=1.01.02&amp;r=116&amp;LANG=EN&amp;action=pR\">Weighted average retail poultry and table egg prices</a></dt>\n<dd>Report displays weighted average retail prices for poultry and table eggs by province, region or city by 4 week periods, for a selected year. For years 2009 to current.</dd>\n<dt><a href=\"http://aimis-simia.agr.gc.ca/rp/index-eng.cfm?action=pR&amp;r=17&amp;pdctc=\">Weekly poultry retail prices</a></dt>\n<dd>Report displays retail prices by province by species category, showing low, high and weighted average price, for a selected week. For years 1985 to 2008.</dd>\n<dt><a href=\"http://aimis-simia.agr.gc.ca/rp/index-eng.cfm?action=pR&amp;r=22&amp;pdctc=\">Average monthly weighted retail poultry prices</a></dt>\n<dd>Report displays Weighted Average Retail prices by month by province for whole birds and poultry parts, for a selected year. For years 1985 to 2008.</dd>\n<dt><a href=\"http://aimis-simia.agr.gc.ca/rp/index-eng.cfm?action=pR&amp;r=23&amp;pdctc=\">Chicken producer prices</a></dt>\n<dd>Report displays chicken producer prices by weight category for a selected week. It shows a Low, High and Average Price by province and a Most likely Price that is derived based on slaughter weight at the end of the allocation period. For years 2008 to current.</dd>\n<dt><a href=\"http://aimis-simia.agr.gc.ca/rp/index-eng.cfm?action=pR&amp;r=21&amp;pdctc=\">Annual most likely prices to chicken producers by allocation period</a></dt>\n<dd>Report displays Most likely Prices paid to chicken producers by province by allocation period. For years 2007 to current.</dd>\n<dt><a href=\"http://aimis-simia.agr.gc.ca/rp/index-eng.cfm?action=pR&amp;r=20&amp;pdctc=\">Monthly and annual average poultry producer prices</a></dt>\n<dd>Report displays the monthly and annual average prices paid to producers for chicken or turkey by weight category by province and for Canada, for a selected year. For years 2008 to current.</dd>\n<dd>For years prior to 2008, please send an e-mail to <a title=\"Send email to poultry Section, Animal Industry Division, Agricdlture and Agri-Food Canada\" href=\"mailto:aafc.poultry-volaille.aac@canada.ca\">aafc.poultry-volaille.aac@canada.ca</a></dd>\n</dl>\n<h2><a id=\"turkey\"></a>Turkey</h2>\n<dl>\n<dt><a href=\"http://aimis-simia.agr.gc.ca/rp/index-eng.cfm?menupos=1.01.02&amp;r=116&amp;LANG=EN&amp;action=pR\">Weighted average retail poultry and table egg prices</a></dt>\n<dd>Report displays weighted average retail prices for poultry and table eggs by province, region or city by 4 week periods, for a selected year. For years 2009 to current.</dd>\n<dt><a href=\"http://aimis-simia.agr.gc.ca/rp/index-eng.cfm?action=pR&amp;r=17&amp;pdctc=\">Weekly poultry retail prices</a></dt>\n<dd>Report displays retail prices by province by species category, showing low, high and weighted average price, for a selected week. For years 1985 to 2008.</dd>\n<dt><a href=\"http://aimis-simia.agr.gc.ca/rp/index-eng.cfm?action=pR&amp;r=22&amp;pdctc=\">Average monthly weighted retail poultry prices</a></dt>\n<dd>Report displays Weighted Average Retail prices by month by province for whole birds and poultry parts, for a selected year. For years to 1985 - 2008.</dd>\n<dt><a href=\"http://aimis-simia.agr.gc.ca/rp/index-eng.cfm?action=pR&amp;r=18&amp;pdctc=\">Turkey producer prices</a></dt>\n<dd>Report displays turkey producer prices by weight category, by province for Grade A category, for a selected week. For years 2008 to current.</dd>\n<dt><a href=\"http://aimis-simia.agr.gc.ca/rp/index-eng.cfm?action=pR&amp;r=20&amp;pdctc=\">Monthly and annual average poultry producer prices</a></dt>\n<dd>Report displays the monthly and annual average prices paid to producers for chicken or turkey by weight category by province and for Canada, for a selected year. For years 2008 to current.</dd>\n<dd>For years prior to 2008 please send an e-mail to <a title=\"Send email to poultry Sector, Animal Industry Divivision, Agricdlture and Agri-Food Canada\" href=\"mailto:aafc.poultry-volaille.aac@canada.ca\">aafc.poultry-volaille.aac@canada.ca</a></dd>\n</dl>\n<h2><a id=\"ducks\"></a>Ducks </h2>\n<dl>\n<dt><a href=\"http://aimis-simia.agr.gc.ca/rp/index-eng.cfm?menupos=1.01.02&amp;r=116&amp;LANG=EN&amp;action=pR\">Weighted average Rrtail poultry and table egg prices</a></dt>\n<dd>Report displays weighted average retail prices for poultry and table eggs by province, region or city by 4 week periods, for a selected year. For years (2009 - current)</dd>\n\n<dt><a href=\"http://aimis-simia.agr.gc.ca/rp/index-eng.cfm?action=pR&amp;r=17&amp;pdctc=\">Weekly poultry retail prices</a></dt>\n<dd>Report displays retail prices by province by species category, showing low, high and weighted average price, for a selected week. For years (1985 - 2008)</dd>\n<dt><a href=\"http://aimis-simia.agr.gc.ca/rp/index-eng.cfm?action=pR&amp;r=22&amp;pdctc=\">Average monthly weighted retail poultry prices</a></dt>\n<dd>Report displays Weighted Average Retail prices by month by province for whole birds and poultry parts, for a selected year. For years (1985 - 2008)</dd>\n</dl>\n\n\n<h2><a id=\"rawdata\"></a>Raw data files</h2>\n<dl>\n<dt><a href=\"http://aimis-simia.agr.gc.ca/rp/index-eng.cfm?action=pR&amp;r=25&amp;pdctc=\">Poultry prices raw data file</a></dt>\n<dd>Raw data prices for producer,\u00a0retail poultry, by selected year.</dd>\n</dl>\n<ul>\n<li><a href=\"/eng/animal-industry/poultry-and-egg-market-information/prices/poultry-data-file-structure/?id=1384971854419\">Poultry prices raw data file structure and explanation</a></li>\n</ul>\n<dl>\n<dt><a href=\"http://aimis-simia.agr.gc.ca/rp/index-eng.cfm?action=pR&amp;r=11&amp;pdctc=\">Egg prices raw data file</a></dt>\n<dd>Raw data prices for producer,\u00a0retail egg, by selected year.</dd></dl>\n<ul>\n<li><a href=\"/eng/animal-industry/poultry-and-egg-market-information/prices/egg-prices-raw-data-file-structure-and-explanation/?id=1384971854420\">Egg prices raw data file dtructure and explanation</a></li>\n</ul>\n\n\n\n<h2><a id=\"STC\"></a>Statistics Canada retail price reports</h2>\n<dl>\n<dt><a title=\"External link to Statistics Canada data table - Monthly average retail prices for food and other selected products\" href=\"https://www150.statcan.gc.ca/t1/tbl1/en/tv.action?pid=1810000201\" rel=\"external\">Monthly average retail prices for food and other selected products</a> (Monthly, Statistics Canada Table: 18-10-0002-01)</dt>\n<dd>Monthly average retail prices. Prices are presented for the current month and previous four months. Prices are in Canadian current dollars.</dd>\n<dt><a title=\"External link to Statistics Canada data table - Monthly average retail prices for selected products, by province\" href=\"https://www150.statcan.gc.ca/t1/tbl1/en/tv.action?pid=1810024501\" rel=\"external\">Monthly average retail prices for selected products, by province</a> (Monthly, Statistics Canada Table: 18-10-0245-01)</dt>\n<dd>Monthly average retail prices for selected products, by province. Prices are presented for the current month and the previous four months. Prices are based on transaction data from Canadian retailers, and are presented in Canadian current dollars.</dd>\n</dl>\n<div class=\"well\">\n<p>If you have any questions or require additional information, please send an e-mail to <a title=\"Email: Animal Industry Division - Market Information Section\" href=\"mailto:aafc.poultry-volaille.aac@canada.ca\"> aafc.poultry-volaille.aac@canada.ca </a></p>\n<h2>Our service standards</h2>\n<p>Service standards play a vital role in our market information program\u2019s commitment to planning, reporting and performance management. \nThey clearly define the level of service that contents can expect under normal circumstances.</p>\n<p>View the <a title=\"Service standards for poultry reports\" href=\"http://www.agr.gc.ca/eng/industry-markets-and-trade/statistics-and-market-information/by-product-sector/poultry-and-eggs/service-standards-for-poultry-and-egg-market-information/?id=1481029938239\">Service standards for poultry reports.</a></p>\n</div>\n<div class=\"clearfix\"></div>\n\n\r\n    <!-- Fin du contenu -->\r\n  \r\n  <div class=\"pagedetails\" id=\"pgft\">\r\n    <div class=\"row\">\r\n\t  <div class=\"col-sm-6 col-md-5 col-lg-4\">\r\n\t    <details class=\"brdr-0\">\r\n\t\t<summary class=\"btn btn-default text-center\" onclick=\"getAntiSpamSeq('/eng/mail-handler/?anti-spam-sequence=true')\">Report a problem on this page</summary>\r\n\t\t<div class=\"clearfix\"></div>\r\n\t\t<div class=\"well row\">\r\n\t\t<div>\r\n\t\t  <div class=\"gc-rprt-prblm\">\r\n\t\t    <div class=\"gc-rprt-prblm-frm gc-rprt-prblm-tggl\">\r\n\t\t\t  \r\n\t\t\t<form id=\"report_a_problem_form\" action=\"/eng/mail-handler/#report_a_problem_form\" method=\"post\">\t\t\t\t   \t\t\t\r\n\r\n\t            \t <input type=\"hidden\" name=\"lang\" value=\"eng\">\r\n\t            \t <input type=\"hidden\" name=\"pageId\" value=\"1384971854418\">\r\n\t            \t <input type=\"hidden\" name=\"pageUrl\" value=\"http://agr.gc.ca/eng/animal-industry/poultry-and-egg-market-information/prices/?id=1384971854418\">\r\n\t\t\t\t\t <div id=\"report_a_problem_form_error\"></div>\r\n\t\t             <fieldset>\t\t\t\t\t    \r\n\t\t                <legend><span class=\"field-name\">Please select all that apply:</span></legend>\t\t                                 \r\n\t\t\t\t\t\t<div class=\"checkbox\">\r\n\t\t\t\t\t\t\t<label for=\"problem1\"><input name=\"problem1\" id=\"problem1\" type=\"checkbox\" value=\"Yes\">A link, button or video is not working</label>\r\n\t\t\t\t\t\t\t<input name=\"problem1\" type=\"hidden\" value=\"No\">\r\n\t\t\t\t\t\t</div>\r\n\t\t\t\t\t\t<div class=\"checkbox\">\r\n\t\t\t\t\t\t\t<label for=\"problem2\"><input name=\"problem2\" id=\"problem2\" type=\"checkbox\" value=\"Yes\">It has a spelling mistake</label>\r\n\t\t\t\t\t\t\t<input name=\"problem2\" type=\"hidden\" value=\"No\">\r\n\t\t\t\t\t\t</div>\r\n\t\t\t\t\t\t<div class=\"checkbox\">\r\n\t\t\t\t\t\t\t<label for=\"problem3\"><input name=\"problem3\" id=\"problem3\" type=\"checkbox\" value=\"Yes\">Information is missing</label>\r\n\t\t\t\t\t\t\t<input name=\"problem3\" type=\"hidden\" value=\"No\">\r\n\t\t\t\t\t   </div>\r\n\t\t\t\t\t\t<div class=\"checkbox\">\r\n\t\t\t\t\t\t\t<label for=\"problem4\"><input name=\"problem4\" id=\"problem4\" type=\"checkbox\" value=\"Yes\">Information is outdated or wrong</label>\r\n\t\t\t\t\t\t\t<input name=\"problem4\" type=\"hidden\" value=\"No\">\r\n\t\t\t\t\t\t</div>\r\n\t\t\t\t\t\t<div class=\"checkbox\">\r\n\t\t\t\t\t\t\t<label for=\"problem5\"><input name=\"problem5\" id=\"problem5\" type=\"checkbox\" value=\"Yes\">Login error when trying to access an account (e.g. My Service Canada Account)</label>\r\n\t\t\t\t\t\t\t<input name=\"problem5\" type=\"hidden\" value=\"No\">\r\n\t\t\t\t\t\t</div>\r\n\t\t\t\t\t\t\t<ul>\r\n\t\t\t\t\t\t\t<li class=\"checkbox\">\r\n\t\t\t\t\t\t\t\t<label for=\"problem6a\"><input name=\"problem6\" id=\"problem6a\" type=\"checkbox\" value=\"Yes\">GC Key access</label>\r\n\t\t\t\t\t\t\t\t<input name=\"problem6\" type=\"hidden\" value=\"No\">\r\n\t\t\t\t\t\t\t </li>\r\n\t\t\t\t\t\t\t<li class=\"checkbox\">\r\n\t\t\t\t\t\t\t\t<label for=\"problem7\"><input name=\"problem7\" id=\"problem7\" type=\"checkbox\" value=\"Yes\">SecureKey Concierge (Banking Credential) access </label>\r\n\t\t\t\t\t\t\t\t<input name=\"problem7\" type=\"hidden\" value=\"No\">\r\n\t\t\t\t\t\t\t </li>\r\n\t\t\t\t\t\t\t<li class=\"checkbox\">\r\n\t\t\t\t\t\t\t\t<label for=\"problem8\"><input name=\"problem8\" id=\"problem8\" type=\"checkbox\" value=\"Yes\">Personal Access Code (PAC) problems or EI Access Code (AC) problems</label>\r\n\t\t\t\t\t\t\t\t<input name=\"problem8\" type=\"hidden\" value=\"No\">\r\n\t\t\t\t\t\t\t </li>\t\r\n\t\t\t\t\t\t\t<li class=\"checkbox\">\r\n\t\t\t\t\t\t\t\t<label for=\"problem9\"><input name=\"problem9\" id=\"problem9\" type=\"checkbox\" value=\"Yes\">Social Insurance Number (SIN) validation problems</label>\r\n\t\t\t\t\t\t\t\t<input name=\"problem9\" type=\"hidden\" value=\"No\">\r\n\t\t\t\t\t\t\t </li>\t\t\t\t\t\t\t\t\r\n\t\t\t\t\t\t\t<li class=\"checkbox\">\r\n\t\t\t\t\t\t\t\t<label for=\"problem10\"><input name=\"problem10\" id=\"problem10\" type=\"checkbox\" value=\"Yes\">Other login error not in this list</label>\r\n\t\t\t\t\t\t\t\t<input name=\"problem10\" type=\"hidden\" value=\"No\">\r\n\t\t\t\t\t\t\t </li>\t\t \r\n\t\t\t\t\t\t\t </ul>\r\n\t\t\t\t\t\t<div class=\"checkbox\">\r\n\t\t\t\t\t\t\t<label for=\"problem11\"><input name=\"problem11\" id=\"problem11\" type=\"checkbox\" value=\"Yes\">I can't find what I'm looking for</label>\r\n\t\t\t\t\t\t\t<input name=\"problem11\" type=\"hidden\" value=\"No\">\r\n\t\t\t\t\t\t</div>\r\n\t\t\t\t\t\t<div class=\"checkbox\">\r\n\t\t\t\t\t\t\t<label for=\"problem12\"><input name=\"problem12\" id=\"problem12\" type=\"checkbox\" value=\"Yes\">Other issue not in this list</label>\r\n\t\t\t\t\t\t\t<input name=\"problem12\" type=\"hidden\" value=\"No\">\r\n\t\t\t\t\t\t</div>\t\t\t\t\t\t \t\t\t\t\t\t\t\t\t\t\t\t \r\n\t\t             </fieldset>\r\n\t\t\t\t\t <div>\r\n\t\t\t\t\t   <label for=\"aafc_ranstr\"><span id=\"fbch\"><br>Enter these characters <strong class=\"required\">(required)</strong>: </span><span id=\"ranstr\">U5S</span></label>\r\n\t\t\t           <input name=\"anti-spam-sequence\" id=\"aafc_ranstr\" size=\"4\" maxlength=\"3\" type=\"text\">\r\n\t\t\t\t\t </div>\t\r\n\r\n\t\t\t\t\t <br><input type=\"submit\" class=\"btn btn-primary\" value=\"Submit\">\r\n\t\t\t\t  </form>\r\n\t\t\t\t</div>\r\n\t\t\t</div>\t\t\t\r\n\t\t  </div>\r\n\t\t</div>\r\n\t\t</details>\r\n\t  </div>\r\n\t  <div class=\"wb-share col-sm-4 col-md-3 col-sm-offset-2 col-md-offset-4 col-lg-offset-5\" data-wb-share='{\"lnkClass\": \"btn btn-default btn-block\"}'></div>\r\n\t</div>\r\n\t<dl id=\"wb-dtmd\">\r\n\t  <dt>Date modified: </dt>\r\n\t  <dd><time property=\"dateModified\">2020-10-27</time></dd></dl></div>",
        "fr": "\r\n    \r\n    <!-- MainContentStart -->\r\n    <!-- D&eacute;but du contenu -->\r\n    <!-- D&eacute;but du contenu --><!-- InstanceBeginEditable name=\"ContentTitle\" --><!-- InstanceEndEditable --><!-- InstanceBeginEditable name=\"Content\" -->\n\n\n<ul>\n<li><a href=\"#oeufs\">Oeufs de table</a></li>\n<li><a href=\"#poulet\">Poulets</a></li>\n<li><a href=\"#dindon\">Dindons</a></li>\n<li><a href=\"#canard\">Canards</a></li>\n<li><a href=\"#rawdata\">Fichiers de donn\u00e9es brutes</a></li>\n<li><a href=\"#STC\">Rapport de prix de d\u00e9tail de Statistique Canada</a></li>\n</ul>\n<h2><a id=\"oeufs\"></a>Oeufs de table</h2>\n<dl>\n<dt><a href=\"http://aimis-simia.agr.gc.ca/rp/index-fra.cfm?menupos=1.02.05&amp;r=616&amp;pdctc=&amp;LANG=FR&amp;action=pR\">Prix moyen pond\u00e9r\u00e9 de la volaille et des oeufs de table aux consommateurs</a></dt>\n<dd>Ce rapport affiche les prix moyen pond\u00e9r\u00e9s aux consommateurs pour la volaille et les oeufs de table par province, r\u00e9gion ou ville par p\u00e9riode de 4 semaines, pour l'ann\u00e9e s\u00e9lectionn\u00e9e. Disponible pour les ann\u00e9es (2009 \u00e0 ce jour)</dd>\n\n<dt><a href=\"http://aimis-simia.agr.gc.ca/rp/index-fra.cfm?action=pR&amp;r=515&amp;pdctc=\">Prix hebdomadaire des \u0153ufs de table</a></dt>\n<dd>Ce rapport affiche les prix aux producteurs, comprenant le prix le plus bas, le prix le plus haut et le prix moyen, par province et par grade, pour la semaine s\u00e9lectionn\u00e9e. Disponible pour les ann\u00e9es (1985 \u00e0 ce jour)<br>Pour les ann\u00e9es ant\u00e9rieures \u00e0 2009, les prix aux d\u00e9taillants, comprenant le prix le plus bas, le prix le plus haut et le prix moyen, sont disponibles.</dd>\n\n<dt><a href=\"http://aimis-simia.agr.gc.ca/rp/index-fra.cfm?action=pR&amp;r=516&amp;pdctc=\">Prix moyen mensuel et annuel des \u0153ufs par cat\u00e9gorie</a></dt>\n<dd>Ce rapport affiche les prix moyens pay\u00e9s aux producteurs par province, pour l'ann\u00e9e et la cat\u00e9gorie s\u00e9lectionn\u00e9e. Disponible pour les ann\u00e9es 1985 \u00e0 ce jour.<br>Pour les ann\u00e9es ant\u00e9rieures \u00e0 2009, un prix moyen pond\u00e9r\u00e9 aux consommateurs par ville est disponible.</dd>\n</dl>\n\n<h2><a id=\"poulet\"></a>Poulets</h2>\n<dl>\n<dt><a title=\"Prix moyen pond\u00e9r\u00e9 de la volaille et des oeufs de table aux consommateurs 031N\" href=\"http://aimis-simia.agr.gc.ca/rp/index-fra.cfm?menupos=1.02.05&amp;r=616&amp;pdctc=&amp;LANG=FR&amp;action=pR\">Prix moyen pond\u00e9r\u00e9 de la volaille et des oeufs de table aux consommateurs</a></dt>\n<dd>Ce rapport affiche les prix moyen pond\u00e9r\u00e9s aux consommateurs pour la volaille et les oeufs de table par province, r\u00e9gion ou ville par p\u00e9riode de 4 semaines, pour l'ann\u00e9e s\u00e9lectionn\u00e9e. Disponible pour les ann\u00e9es 2009 \u00e0 ce jour.</dd>\n\n<dt><a href=\"http://aimis-simia.agr.gc.ca/rp/index-fra.cfm?action=pR&amp;r=517&amp;pdctc=\">Prix hebdomadaire de volaille aux consommateurs</a></dt>\n<dd>Ce rapport affiche les prix aux consommateurs par province par cat\u00e9gorie d'esp\u00e8ces, indiquant le prix le plus bas, le prix le plus haut et le prix moyen pond\u00e9r\u00e9, pour la semaine s\u00e9lectionn\u00e9e. Disponible pour les ann\u00e9es 1985 \u00e0 2008.</dd>\n\n<dt><a href=\"http://aimis-simia.agr.gc.ca/rp/index-fra.cfm?action=pR&amp;r=522&amp;pdctc=\">Prix moyen pond\u00e9r\u00e9 mensuel de volailles aux consommateurs</a></dt>\n<dd>Ce rapport affiche les prix moyen pond\u00e9r\u00e9 aux consommateurs par mois par province pour les oiseaux entiers et pour les morceaux de volailles, pour l'ann\u00e9e s\u00e9lectionn\u00e9e. Disponible pour les ann\u00e9es 1985 \u00e0 2008. </dd>\n\n<dt><a href=\"http://aimis-simia.agr.gc.ca/rp/index-fra.cfm?action=pR&amp;r=523&amp;pdctc=\">Prix aux producteurs de poulet</a></dt>\n<dd>Ce rapport affiche les prix aux producteurs de poulet par cat\u00e9gorie de poids pour la semaine s\u00e9lectionn\u00e9e. Il affiche le prix le plus bas, le prix le plus haut et le prix moyen par province et le prix le plus fr\u00e9quent d\u00e9riv\u00e9 des poids d'abattages \u00e0 la fin de la p\u00e9riode d'allocation. Disponible pour les ann\u00e9es 2008 \u00e0 ce jour.</dd>\n\n<dt><a href=\"http://aimis-simia.agr.gc.ca/rp/index-fra.cfm?action=pR&amp;r=521&amp;pdctc=\">Prix le plus fr\u00e9quent pay\u00e9 aux producteurs de poulet par p\u00e9riode d'allocation</a></dt>\n<dd>Ce rapport affiche les prix les plus fr\u00e9quents pay\u00e9s aux producteurs de poulet par province par p\u00e9riode d'allocation. Disponible pour les ann\u00e9es 2007 \u00e0 ce jour.</dd>\n\n<dt><a href=\"http://aimis-simia.agr.gc.ca/rp/index-fra.cfm?action=pR&amp;r=520&amp;pdctc=\">Prix moyen mensuel et annuel de volailles aux producteurs</a></dt>\n<dd>Ce rapport affiche les prix moyens mensuels pay\u00e9s aux producteurs de poulet et de dindon, par cat\u00e9gorie de poids, par province et pour le Canada, pour l'ann\u00e9e s\u00e9lectionn\u00e9e. Disponible pour les ann\u00e9es 2008 \u00e0 ce jour. </dd>\n<dd>Pour obtenir les ann\u00e9es pr\u00e9c\u00e9dentes \u00e0 2008, s'il vous plait envoyer un courriel \u00e0 <a href=\"mailto:aafc.poultry-volaille.aac@canada.ca\">aafc.poultry-volaille.aac@canada.ca</a>.</dd>\n</dl>\n\n<h2><a id=\"dindon\"></a>Dindons</h2>\n<dl>\n<dt><a title=\"Prix moyen pond\u00e9r\u00e9 de la volaille et des oeufs de table aux consommateurs 031N\" href=\"http://aimis-simia.agr.gc.ca/rp/index-fra.cfm?menupos=1.02.05&amp;r=616&amp;pdctc=&amp;LANG=FR&amp;action=pR\">Prix moyen pond\u00e9r\u00e9 de la volaille et des oeufs de table aux consommateurs</a></dt>\n<dd>Ce rapport affiche les prix moyen pond\u00e9r\u00e9s aux consommateurs pour la volaille et les oeufs de table par province, r\u00e9gion ou ville par p\u00e9riode de 4 semaines, pour l'ann\u00e9e s\u00e9lectionn\u00e9e. Disponible pour les ann\u00e9es 2009 \u00e0 ce jour.</dd>\n\n<dt><a href=\"http://aimis-simia.agr.gc.ca/rp/index-fra.cfm?action=pR&amp;r=517&amp;pdctc=\">Prix hebdomadaire de volaille aux consommateurs</a></dt>\n<dd>Ce rapport affiche les prix aux consommateurs par province par cat\u00e9gorie d'esp\u00e8ces, indiquant le prix le plus bas, le prix le plus haut et le prix moyen pond\u00e9r\u00e9, pour la semaine s\u00e9lectionn\u00e9e. Disponible pour les ann\u00e9es 1985 \u00e0 2008.</dd>\n\n<dt><a title=\"Prix moyen pond\u00e9r\u00e9 mensuel de volailles aux consommateurs\" href=\"http://aimis-simia.agr.gc.ca/rp/index-fra.cfm?action=pR&amp;r=522&amp;pdctc=\">Prix moyen pond\u00e9r\u00e9 mensuel de volailles aux consommateurs</a></dt>\n<dd>Ce rapport affiche les prix moyen pond\u00e9r\u00e9 aux consommateurs par mois par province pour les oiseaux entiers et pour les morceaux de volailles, pour l'ann\u00e9e s\u00e9lectionn\u00e9e. Disponible pour les ann\u00e9es 1985 \u00e0 2008. </dd>\n\n<dt><a href=\"http://aimis-simia.agr.gc.ca/rp/index-fra.cfm?action=pR&amp;r=518&amp;pdctc=\">Prix aux producteurs de dindons</a></dt>\n<dd>Ce rapport affiche les prix aux producteurs de dindons par cat\u00e9gorie de poids, par province pour la cat\u00e9gorie Grade A, pour la semaine s\u00e9lectionn\u00e9e. Disponible pour les ann\u00e9es 2008 \u00e0 ce jour.</dd>\n\n<dt><a href=\"http://aimis-simia.agr.gc.ca/rp/index-fra.cfm?action=pR&amp;r=520&amp;pdctc=\">Prix moyen mensuel et annuel de volailles aux producteurs</a></dt>\n<dd>Ce rapport affiche les prix moyens mensuels pay\u00e9s aux producteurs de poulet et de dindon, par cat\u00e9gorie de poids, par province et pour le Canada, pour l'ann\u00e9e s\u00e9lectionn\u00e9e. Disponible pour les ann\u00e9es 2008 \u00e0 ce jour.</dd>\n<dd>Pour les ann\u00e9es pr\u00e9c\u00e9dentes \u00e0 2008, s'il vous plait envoyer un courriel \u00e0 <a href=\"mailto:aafc.poultry-volaille.aac@canada.ca\">aafc.poultry-volaille.aac@canada.ca</a>.</dd>\n</dl>\n\n<h2><a id=\"canard\"></a>Canards</h2>\n<dl>\n<dt><a title=\"Prix moyen pond\u00e9r\u00e9 de la volaille et des oeufs de table aux consommateurs 031N\" href=\"http://aimis-simia.agr.gc.ca/rp/index-fra.cfm?menupos=1.02.05&amp;r=616&amp;pdctc=&amp;LANG=FR&amp;action=pR\">Prix moyen pond\u00e9r\u00e9 de la volaille et des oeufs de table aux consommateurs</a></dt>\n<dd>Ce rapport affiche les prix moyen pond\u00e9r\u00e9s aux consommateurs pour la volaille et les oeufs de table par province, r\u00e9gion ou ville par p\u00e9riode de 4 semaines, pour l'ann\u00e9e s\u00e9lectionn\u00e9e. Disponible pour les ann\u00e9es (2009 \u00e0 ce jour)</dd>\n\n<dt><a title=\"Prix hebdomadaire de volaille aux consommateurs\" href=\"http://aimis-simia.agr.gc.ca/rp/index-fra.cfm?action=pR&amp;r=517&amp;pdctc=\">Prix hebdomadaire de volaille aux consommateurs</a></dt>\n<dd>Ce rapport affiche les prix aux consommateurs par province par cat\u00e9gorie d'esp\u00e8ces, indiquant le prix le plus bas, le prix le plus haut et le prix moyen pond\u00e9r\u00e9, pour la semaine s\u00e9lectionn\u00e9e. Disponible pour les ann\u00e9es 1985 \u00e0 2008.</dd>\n\n<dt><a title=\"Prix moyen pond\u00e9r\u00e9 mensuel de volailles aux consommateurs\" href=\"http://aimis-simia.agr.gc.ca/rp/index-fra.cfm?action=pR&amp;r=522&amp;pdctc=\">Prix moyen pond\u00e9r\u00e9 mensuel de volailles aux consommateurs</a></dt>\n<dd>Ce rapport affiche les prix moyen pond\u00e9r\u00e9 aux consommateurs par mois par province pour les oiseaux entiers et pour les morceaux de volailles, pour l'ann\u00e9e s\u00e9lectionn\u00e9e. Disponible pour les ann\u00e9es 1985 \u00e0 2008.</dd>\n</dl>\n\n<h2><a id=\"rawdata\"></a>Fichiers de donn\u00e9es brutes</h2>\n<dl>\n<dt><a href=\"http://aimis-simia.agr.gc.ca/rp/index-fra.cfm?action=pR&amp;r=525&amp;pdctc=\">Donn\u00e9es brutes sur les prix de la volaille (Rapport 038)</a></dt>\n<dd>Fichier de donn\u00e9es brutes des prix de la volaille aux producteurs, prix aux consommateurs pour l'ann\u00e9e s\u00e9lectionn\u00e9e.</dd>\n</dl>\n<ul>\n<li><a href=\"/fra/production-animale/information-sur-le-marche-de-la-volaille-et-des-oeufs/prix/structure-du-rapport-de-donnees-de-la-volaille/?id=1384971854419\">Structure et explication du fichier de donn\u00e9es brutes sur les prix de la volaille</a></li>\n</ul>\n\n\n<dl>\n<dt><a title=\"040 Fichier historique des prix des \u0153ufs\" href=\"http://aimis-simia.agr.gc.ca/rp/index-fra.cfm?action=pR&amp;r=511&amp;pdctc=\">Donn\u00e9es brutes sur les prix des \u0153ufs (Rapport 040)</a></dt>\n<dd>Fichier de donn\u00e9es brutes des prix des oeufs aux producteurs, prix aux consommateurs, pour l'ann\u00e9e s\u00e9lectionn\u00e9e.</dd>\n</dl>\n<ul>\n<li><a href=\"/fra/production-animale/information-sur-le-marche-de-la-volaille-et-des-oeufs/prix/structure-du-rapport-de-donnees-des-oeufs/?id=1384971854420\">Structure et explication du fichier de donn\u00e9es brutes sur le prix des \u0153ufs</a></li>\n</ul>\n\n\n\n\n<h2><a id=\"STC\"></a>Liens offert par Statistique Canada, pour des rapports de prix de d\u00e9tails</h2>\n<dl>\n<dt><a title=\"Liens externe du tableau de donn\u00e9e de statistique Canada - Prix de d\u00e9tail moyens mensuels pour les aliments et autres produits s\u00e9lectionn\u00e9s\" href=\"https://www150.statcan.gc.ca/t1/tbl1/fr/tv.action?pid=1810000201&amp;request_locale=fr\" rel=\"external\">Prix de d\u00e9tail moyens mensuels pour les aliments et autres produits s\u00e9lectionn\u00e9s</a> (mensuel, Statistique Canada Tableau : 18-10-0002-01)</dt>\n<dd>Moyennes mensuelles du prix de d\u00e9tail. Les prix sont pr\u00e9sent\u00e9s pour le mois actuel et les quatre mois pr\u00e9c\u00e9dents. Les prix sont indiqu\u00e9s en dollars canadiens courants.</dd>\n\n<dt><a title=\"Liens externe au tableau de donn\u00e9es de Statistique Canada - Prix de d\u00e9tail moyens mensuels pour certains produits, par province\" href=\"https://www150.statcan.gc.ca/t1/tbl1/fr/tv.action?pid=1810024501&amp;request_locale=fr\" rel=\"external\">Prix de d\u00e9tail moyens mensuels pour certains produits, par province</a> (mensuel, Statistics Canada Tableau : 18-10-0245-01)</dt>\n<dd>Moyennes mensuelles de prix de d\u00e9tail pour certains produits, par province. Les prix sont pr\u00e9sent\u00e9s pour le mois actuel et les quatre mois pr\u00e9c\u00e9dents. Les prix sont bas\u00e9s sur les donn\u00e9es de transactions de d\u00e9taillants canadiens, et sont pr\u00e9sent\u00e9s en dollars canadiens courants.</dd>\n</dl>\n\n\n\n<div class=\"well\">\n<p>Pour toute question ou information additionnelle, veuillez communiquer avec nous par courriel \u00e0 <a title=\"Courriel : Division de l'industrie animale, Section de l'information sur les march\u00e9s\" href=\"mailto:aafc.poultry-volaille.aac@canada.ca\"> aafc.poultry-volaille.aac@canada.ca</a></p>\n<h2>Nos normes de service</h2>\n<p>Les normes de service jouent un r\u00f4le cl\u00e9 dans les processus de gestion de la planification, des rapports et du rendement de notre programme d'information sur le march\u00e9. Elles d\u00e9finissent clairement le niveau de rendement auquel les clients peuvent s'attendre lorsqu'ils re\u00e7oivent un service dans des circonstances normales.</p>\n<p>Visionnez les  <a title=\"Normes de service relatives aux rapports sur la volaille\" href=\"http://www.agr.gc.ca/fra/industrie-marches-et-commerce/statistiques-et-information-sur-les-marches/par-produit-secteur/volaille-et-oeufs/normes-de-service-pour-l-information-sur-le-marche-de-la-volaille-et-des-ufs/?id=1481029938239\">Normes de service relatives aux rapports sur la volaille.</a></p>\n</div>\n<div class=\"clearfix\"></div>\n<!-- InstanceEndEditable --><!-- Fin du contenu -->\n\r\n    <!-- Fin du contenu -->\r\n\t\r\n\t<div class=\"pagedetails\" id=\"pgft\">\r\n\t\t<div class=\"row\">\r\n\t\t  <div class=\"col-sm-6 col-md-5 col-lg-4\">\r\n\t\t    <details class=\"brdr-0\">\r\n\t\t\t<summary class=\"btn btn-default text-center\" onclick=\"getAntiSpamSeq('/fra/mail-handler/?anti-spam-sequence=true')\">Signaler un probl\u00e8me sur cette page</summary>\r\n\t\t\t<div class=\"well row\">\r\n\t\t\t  <div class=\"gc-rprt-prblm\">\r\n\t\t\t    <div class=\"gc-rprt-prblm-frm gc-rprt-prblm-tggl\">\r\n\t\t\t\t   <form id=\"report_a_problem_form\" action=\"/fra/mail-handler/\" method=\"post\">\r\n\t            \t <input type=\"hidden\" name=\"lang\" value=\"fra\">\r\n\t            \t <input type=\"hidden\" name=\"pageId\" value=\"1384971854418\">\r\n\t            \t <input type=\"hidden\" name=\"pageUrl\" value=\"http://agr.gc.ca/fra/production-animale/information-sur-le-marche-de-la-volaille-et-des-oeufs/prix/?id=1384971854418\">\r\n\t\t\t\t\t <div id=\"report_a_problem_form_error\"></div>\r\n\t\t             <fieldset>\t\t\t\t\t    \r\n\t\t                <legend><span class=\"field-name\">Veuillez cocher toutes les r\u00e9ponses pertinentes\u00a0:</span></legend>\r\n\t\t                 <div class=\"checkbox\">\r\n\t\t                    <label for=\"problem1\"><input name=\"problem1\" id=\"problem1\" type=\"checkbox\" value=\"Yes\">Un lien, un bouton ou une vid\u00e9o ne fonctionne pas</label>\r\n\t\t                    <input name=\"problem1\" type=\"hidden\" value=\"No\">\r\n\t\t                </div>\r\n\t\t                <div class=\"checkbox\">\r\n\t\t                    <label for=\"problem2\"><input name=\"problem2\" id=\"problem2\" type=\"checkbox\" value=\"Yes\">Il y a une erreur d'orthographe ou de grammaire</label>\r\n\t\t                    <input name=\"problem2\" type=\"hidden\" value=\"No\">\r\n\t\t                </div>\r\n\t\t   \t\t\t\t <div class=\"checkbox\">\r\n\t\t                    <label for=\"problem3\"><input name=\"problem3\" id=\"problem3\" type=\"checkbox\" value=\"Yes\">Les renseignements sont incomplets</label>\r\n\t\t                    <input name=\"problem3\" type=\"hidden\" value=\"No\">\r\n\t\t                </div>\r\n\t\t             \t\t<div class=\"checkbox\">\r\n\t\t                    <label for=\"problem4\"><input name=\"problem4\" id=\"problem4\" type=\"checkbox\" value=\"Yes\">L'information n'est plus \u00e0 jour ou est erron\u00e9e</label>\r\n\t\t                    <input name=\"problem4\" type=\"hidden\" value=\"No\">\r\n\t\t                </div>\t\t\t\t\t\t\r\n\t\t\t\t\t\t<div class=\"checkbox\">\r\n\t\t\t\t\t\t\t<label for=\"problem5\"><input name=\"problem5\" id=\"problem5\" type=\"checkbox\" value=\"Yes\">Message d'erreur \u00e0 l'ouverture de la session lorsque je tente d'acc\u00e9der \u00e0 un compte (ex. Mon dossier Service Canada)</label>\r\n\t\t\t\t\t\t\t<input name=\"problem5\" type=\"hidden\" value=\"No\">\r\n\t\t\t\t\t\t</div>\r\n\t\t\t\t\t\t\t<ul>\r\n\t\t\t\t\t\t\t<li class=\"checkbox\">\r\n\t\t\t\t\t\t\t\t<label for=\"problem6a\"><input name=\"problem6\" id=\"problem6a\" type=\"checkbox\" value=\"Yes\">Acc\u00e8s Cl\u00e9GC</label>\r\n\t\t\t\t\t\t\t\t<input name=\"problem6\" type=\"hidden\" value=\"No\">\r\n\t\t\t\t\t\t\t </li>\r\n\t\t\t\t\t\t\t<li class=\"checkbox\">\r\n\t\t\t\t\t\t\t\t<label for=\"problem7\"><input name=\"problem7\" id=\"problem7\" type=\"checkbox\" value=\"Yes\">Acc\u00e8s SecureKey Service de Concierge (justificatifs d'identit\u00e9 bancaires)</label>\r\n\t\t\t\t\t\t\t\t<input name=\"problem7\" type=\"hidden\" value=\"No\">\r\n\t\t\t\t\t\t\t </li>\r\n\t\t\t\t\t\t\t<li class=\"checkbox\">\r\n\t\t\t\t\t\t\t\t<label for=\"problem8\"><input name=\"problem8\" id=\"problem8\" type=\"checkbox\" value=\"Yes\">Probl\u00e8me avec le Code d'acc\u00e8s personnel (CAP) ou avec le Code d'acc\u00e8s (CA) de l'assurance emploi</label>\r\n\t\t\t\t\t\t\t\t<input name=\"problem8\" type=\"hidden\" value=\"No\">\r\n\t\t\t\t\t\t\t </li>\t\r\n\t\t\t\t\t\t\t<li class=\"checkbox\">\r\n\t\t\t\t\t\t\t\t<label for=\"problem9\"><input name=\"problem9\" id=\"problem9\" type=\"checkbox\" value=\"Yes\">Probl\u00e8me li\u00e9 \u00e0 la validation du num\u00e9ro d'assurance sociale (NAS)</label>\r\n\t\t\t\t\t\t\t\t<input name=\"problem9\" type=\"hidden\" value=\"No\">\r\n\t\t\t\t\t\t\t </li>\t\t\t\t\t\t\t\t\r\n\t\t\t\t\t\t\t<li class=\"checkbox\">\r\n\t\t\t\t\t\t\t\t<label for=\"problem10\"><input name=\"problem10\" id=\"problem10\" type=\"checkbox\" value=\"Yes\">Autre erreur lors de l'ouverture de session qui ne figure pas sur cette liste</label>\r\n\t\t\t\t\t\t\t\t<input name=\"problem10\" type=\"hidden\" value=\"No\">\r\n\t\t\t\t\t\t\t </li>\t\t \r\n\t\t\t\t\t\t\t </ul>\r\n\t\t\t\t\t\t<div class=\"checkbox\">\r\n\t\t\t\t\t\t\t<label for=\"problem11\"><input name=\"problem11\" id=\"problem11\" type=\"checkbox\" value=\"Yes\">Je n'arrive pas \u00e0 trouver ce que je cherche</label>\r\n\t\t\t\t\t\t\t<input name=\"problem11\" type=\"hidden\" value=\"No\">\r\n\t\t\t\t\t\t</div>\r\n\t\t\t\t\t\t<div class=\"checkbox\">\r\n\t\t\t\t\t\t\t<label for=\"problem12\"><input name=\"problem12\" id=\"problem12\" type=\"checkbox\" value=\"Yes\">Autre probl\u00e8me qui ne figure pas sur cette liste</label>\r\n\t\t\t\t\t\t\t<input name=\"problem12\" type=\"hidden\" value=\"No\">\r\n\t\t\t\t\t\t</div>\t\t\t\t\t\t\t\t\t\t\t\t\t\t\t\t\t\t\t\r\n\t\t             </fieldset>\r\n\t\t\t\t\t <div>\r\n\t\t\t\t        <label for=\"aafc_ranstr\"><span id=\"fbch\">Veuillez inscrire les caract\u00e8res suivants  <strong class=\"required\">(obligatoire)</strong>\u00a0: </span><span id=\"ranstr\">XXX</span></label>\r\n\t\t\t            <input name=\"anti-spam-sequence\" id=\"aafc_ranstr\" size=\"4\" maxlength=\"3\" type=\"text\">\r\n\t\t\t\t\t </div>\r\n\t\t\t\t\t <input type=\"submit\" class=\"btn btn-primary\" value=\"Soumettre\">\r\n\t\t\t\t  </form>\r\n\t\t\t\t</div>\r\n\t\t\t  </div>\r\n\t\t\t</div>\r\n\t\t</details>\r\n\t    </div>\r\n\t  <div class=\"wb-share col-sm-4 col-md-3 col-sm-offset-2 col-md-offset-4 col-lg-offset-5\" data-wb-share='{\"lnkClass\": \"btn btn-default btn-block\"}'></div>\r\n\t  </div>\r\n\t  <dl id=\"wb-dtmd\">\r\n\t    <dt>Date de modification\u00a0: </dt>\r\n\t      <dd><time property=\"dateModified\">2020-10-27</time></dd>\r\n\t  </dl>\r\n\t</div>\r\n\t\r\n  "
    }
}