{
    "dcr_id": "1384971854389",
    "title": {
        "en": "Canada's poultry and egg industry profile",
        "fr": "Portrait de l'industrie canadienne de la volaille et des oeufs"
    },
    "modified": "2020-10-22",
    "issued": "2011-01-30",
    "templatetype": "content page 1 column",
    "page_type": "1",
    "node_id": "1384971799952",
    "dc_date_created": "2011-01-30",
    "managing_branch": "MISB",
    "parent_node_id": "1354137773899",
    "label": {
        "en": "Industry Profile",
        "fr": "Portrait de l'industrie"
    },
    "exturl": "",
    "teamsite_location": {
        "en": "/default/main/AAFC-AAC/Internet-Internet/MISB-DGSIM/SDAD-DDAS/PE-VO/WORKAREA/PE-VO/templatedata/comm-comm/gene-gene/data/industry_profile_1384971854389_en",
        "fr": "/default/main/AAFC-AAC/Internet-Internet/MISB-DGSIM/SDAD-DDAS/PE-VO/WORKAREA/PE-VO/templatedata/comm-comm/gene-gene/data/industry_profile_1384971854389_fr"
    },
    "type_name": "sitemapinit",
    "has_dcr_id": true,
    "breadcrumb": {
        "en": "Industry Profile",
        "fr": "Portrait de l'industrie"
    },
    "layout_name": "content page 1 column",
    "lang": "en",
    "meta": {
        "issued": {
            "en": "2011-01-30",
            "fr": "2003-02-24"
        },
        "modified": {
            "en": "2020-10-22",
            "fr": "2020-10-22"
        },
        "format": {
            "en": "gcformat",
            "fr": "gcformat"
        },
        "title": {
            "en": "Canada's poultry and egg industry profile",
            "fr": "Portrait de l'industrie canadienne de la volaille et des oeufs"
        },
        "subject": {
            "en": "architectural heritage;architecture;statistics",
            "fr": "\u0153uf;importation;bact\u00e9rie"
        },
        "description": {
            "en": "In 2012, Canada produced poultry products worth $3.8 billion, contributing 7.1% of cash receipts to farming operations. ",
            "fr": "En 2012, la production de produits avicoles du Canada s'\u00e9levait \u00e0 3,8 milliard de dollars, soit 7.1 % des recettes mon\u00e9taires tir\u00e9es d'activit\u00e9s agricoles."
        },
        "language": {
            "en": "eng",
            "fr": "fra"
        },
        "keywords": {
            "en": "Turkey;Table and processed eggs;Hatching eggs; Ducks and geese;Chicken;Canada's Poultry and Egg Industry",
            "fr": "Poulet;Oeufs d'incubation;Oeufs de consommation et de transformation; Dindon;Canards et oies;industrie canadienne de la volaille et des oeufs"
        },
        "audience": {
            "en": "gcaudience",
            "fr": "gcaudience"
        },
        "type": {
            "en": "geospatial material",
            "fr": "avis"
        },
        "creator": {
            "en": "Market and Industry Services Branch;Agriculture and Agri-Food Canada;Government of Canada",
            "fr": "Direction g\u00e9n\u00e9rale des services \u00e0 l'industrie et aux march\u00e9s;Agriculture et Agroalimentaire Canada;Gouvernement du Canada"
        },
        "spatial": {
            "en": "gcregions",
            "fr": "gcregions"
        },
        "service": {
            "en": "AAFC-AAC",
            "fr": "AAFC-AAC"
        },
        "accessRights": {
            "en": "2",
            "fr": "2"
        },
        "legalName": {
            "en": "agriculture_and_agri_food_canada",
            "fr": "agriculture_et_agroalimentaire_canada"
        },
        "areaServed": {
            "en": "Canada",
            "fr": "Canada"
        }
    },
    "body": {
        "en": "tart --&gt;\r\n    <!-- D&eacute;but du contenu -->\r\n    <div class=\"col-md-4 pull-right\" style=\"z-index: 1000\">\n<section class=\"panel panel-default\">\n<header class=\"panel-heading\">\n<h2 class=\"panel-title\">Other Sub-Sector Reports</h2>\n</header>\n<div class=\"panel-body\"><ul>\n<li><span style=\"color: #808080;\">Poultry and egg industry profile</span></li>\n<li><a href=\"/eng/?id=1384971854392\">Chicken</a></li>\n<li><a href=\"/eng/?id=1384971854398\">Turkey</a></li>\n<li><a href=\"/eng/?id=1384971854393\">Ducks and geese</a> </li>\n<li><a href=\"/eng/?id=1384971854396\">Table and processed eggs</a></li>\n<li><a href=\"/eng/?id=1384971854395\">Hatching eggs</a></li>\n</ul></div>\n</section>\n</div><!--Start content --><!-- InstanceBeginEditable name=\"ContentTitle\" --><!-- InstanceEndEditable --><!-- InstanceBeginEditable name=\"Content\" -->\n<h2>... at a glance</h2>\n<ul>\n<li>In 2019, Canada produced poultry and egg products worth $4.9 billion, contributing 7.4% of cash receipts to farming operations. </li>\n<li>In 2019, there were 2,821 regulated chicken producers and 523 registered turkey producers, 240 broiler hatching egg producers and 1,172 egg producers in Canada. In addition to the 4,756 commercial poultry and egg producers in Canada, there were a large number of businesses associated with these production activities.</li>\n<li>In 2019, Canada's commercial chicken and turkey meat production totaled 1.45 billion kilograms, eviscerated equivalent.</li>\n<li>In 2019, Canada produced 1.29 billion kilograms of chicken, 60.6% of which was produced in Quebec and Ontario. </li>\n<li>Food availability increased by 1.11% for chicken and 1.25% for eggs while food availability for turkey decreased by 8.2% from 2018. </li>\n<li>Chicken is the most consumed meat animal protein source. In 2019, 35.1 kg of chicken was available for every person in Canada, as well as 3.9 kg of turkey. </li>\n<li>Per capita availability of eggs reached 21.1 dozen in 2019. Supplying egg and poultry producers in 2019 were 59 hatcheries along with numerous feed manufacturers, feed supplement suppliers and drug suppliers. In addition, many processors, further processors, egg grading and egg processing establishments in Canada depend on the poultry industries for a portion of their business.</li>\n<li>In 2019, Canada exported over 13.1 million chicks and poults, worth $49.5 million to 29 countries. The United States was the largest market, representing 74% of our exports in Canadian dollars. Other countries included Brazil, China, Iran, Germany, Denmark and  Taiwan.</li>\n<li>In 2019, Canada exported over 40.7 million hatching eggs of different species, worth over 71.5 million dollars, to 27 countries. The United States was the largest market with 58% of our value exported heading south of the border, while other primary countries included Russia, Turkey and France.</li>\n<li>That same year, over 156 million kilograms of poultry meat and edible bi-products (fresh, chilled, frozen), worth $552.2 million were exported to 69 countries with largest importers being the United States, Philippines, Taiwan and South Africa. Other importing countries included Cuba, Jamaica and the Republic of Congo. </li>\n<li>In 2019, Canada exported over 4 million kilograms of processed eggs worth 11.2 million dollars and over 21 million shell eggs worth over 2.6 million dollars.</li>\n</ul>\n<h2>Statistics</h2>\n<ul>\n<li><a href=\"/eng/animal-industry/poultry-and-egg-market-information/industry-profile/provincial-poultry-facts/?id=1416334346829\">Provincial Poultry Facts</a></li>\n</ul>\n<p>\u00a0</p>\n<div class=\"well\">\n<p>If you have any questions or require additional information, please send an e-mail to <a title=\"Email: Animal Industry Division - Market Information Section\" href=\"mailto:aafc.poultry-volaille.aac@canada.ca\"> aafc.poultry-volaille.aac@canada.ca </a></p>\n<h2>Our service standards</h2>\n<p>Service standards play a vital role in our market information program\u2019s commitment to planning, reporting and performance management. \nThey clearly define the level of service that clients can expect under normal circumstances.</p>\n<p>View the <a title=\"Service standards for poultry reports\" href=\"http://www.agr.gc.ca/eng/industry-markets-and-trade/statistics-and-market-information/by-product-sector/poultry-and-eggs/service-standards-for-poultry-and-egg-market-information/?id=1481029938239\">Service standards for poultry reports.</a></p>\n</div>\n<div class=\"clearfix\"></div>\n<div class=\"clearfix\"></div>\n<!-- InstanceEndEditable -->",
        "fr": "\r\n    \r\n    <!-- MainContentStart -->\r\n    <!-- D&eacute;but du contenu -->\r\n    <div class=\"col-md-4 pull-right\" style=\"z-index: 1000\">\n<section class=\"panel panel-default\">\n<header class=\"panel-heading\">\n<h2 class=\"panel-title\">Rapports par sous-secteur</h2>\n</header>\n<div class=\"panel-body\"><ul>\n<li><span style=\"color: #808080;\">Volaille et oeufs portrait de l'industrie</span></li>\n\n<li><a href=\"/fra/?id=1384971854392\">Poulet</a>\n\n</li><li><a href=\"/fra/?id=1384971854398\">Dindon</a></li>\n\n<li><a href=\"/fra/?id=1384971854393\">Canards et oies</a> </li>\n\n<li><a href=\"/fra/?id=1384971854396\">Oeufs de consommation et de transformation</a></li>\n\n<li><a href=\"/fra/?id=1384971854395\">Oeufs d'incubation</a></li>\n\n</ul></div>\n</section>\n</div><!-- D&eacute;but du contenu -->             <!-- InstanceBeginEditable name=\"ContentTitle\" -->                        <!-- InstanceEndEditable --> <!-- InstanceBeginEditable name=\"Content\" -->\n<h2>... en un coup d'oeil</h2>\n<ul>\n<li>\tEn 2019, la production de produits avicoles au Canada s'\u00e9levait \u00e0 4,9 milliards de dollars, soit 7,4% des recettes mon\u00e9taires tir\u00e9es d'activit\u00e9s agricoles.</li>\n<li>\tEn 2019, le Canada comptait 2\u00a0821 producteurs de poulet r\u00e9glement\u00e9s, 523 producteurs de dindons, 240 producteurs d'oeufs d'incubation de poulet \u00e0 griller et 1\u00a0172 producteurs d'\u0153ufs. En plus des 4\u00a0756 producteurs commerciaux de volaille et d'oeufs au Canada, un grand nombre d'entreprises s'emploie \u00e0 des activit\u00e9s commerciales connexes.</li>\n<li>\tEn 2019, la production commerciale totale de viande de poulet et de dindon s'\u00e9levait \u00e0 1,45 milliard de kilogrammes, \u00e9quivalent de poids \u00e9visc\u00e9r\u00e9.</li>\n<li>\tEn 2019, la production de poulet au Canada s\u2019\u00e9levait \u00e0 1,29 milliard de kilogrammes dont 60,6% de la production totale provenait du Qu\u00e9bec et de l'Ontario. </li>\n<li>La disponibilit\u00e9 des aliments a augment\u00e9 de 1,11% pour le poulet et de 1,25% pour les \u0153ufs, tandis que la disponibilit\u00e9 des aliments pour la dinde a diminu\u00e9 de 8,2% par rapport \u00e0 2018.</li>\n<li>\tLe poulet est la prot\u00e9ine d\u2019origine animale la plus consomm\u00e9e au Canada.  En 2019, 35,1 kg de poulet \u00e9tait disponible \u00e0 la consommation par habitant ainsi que 3,9 kg de dindon.</li>\n<li>La disponibilit\u00e9 des \u0153ufs par habitant a atteint 21,1 douzaines en 2019. Les producteurs canadiens d'\u0153ufs et de volaille \u00e9taient approvisionn\u00e9s par 59 couvoirs ainsi que de nombreux fabricants d'aliments, fournisseurs de suppl\u00e9ments alimentaires et fournisseurs de m\u00e9dicaments. Ceux-ci s\u2019ajoutent aux transformateurs, sur-transformateurs,  postes de classement et transformateurs d\u2019oeufs dont une portion des activit\u00e9s d\u00e9pend des industries de volaille. </li>\n<li>En 2019, le Canada a export\u00e9 plus de 13,1 millions de poussins et de dindonneaux vers 29 pays pour une valeur totale de 49,5 millions de dollars. Le march\u00e9 des \u00c9tats-Unis s'est av\u00e9r\u00e9 le plus important, repr\u00e9sentant 74% des exportations du Canada. Le Br\u00e9sil, la Chine, Taiwan, l'Iran, l'Allemagne, le Danemark et Taiwan figurent parmi les pays importateurs.</li>\n<li>\tEn 2019, le Canada a export\u00e9 plus de 40,7 millions d'\u0153ufs d'incubation de diverses esp\u00e8ces vers 27 pays, pour une valeur marchande de plus de 71,5 millions de dollars. Le march\u00e9 des \u00c9tats-Unis s'est av\u00e9r\u00e9 le plus important, repr\u00e9sentant 58% des exportations du Canada. Les autres pays importateurs incluaient la Russie, la Turquie, et la France.</li>\n<li>\tDurant cette m\u00eame ann\u00e9e, 156millions de kilogrammes de chair de volaille et de sous-produits comestibles (frais, r\u00e9frig\u00e9r\u00e9s, congel\u00e9s), repr\u00e9sentant plus de 552,2 millions de dollars, ont \u00e9t\u00e9 export\u00e9s vers 69 pays dont les principaux \u00e9taient les \u00c9tats-Unis, les Philippines, Taiwan et l\u2019Afrique du Sud. Au nombre des autres pays importateurs figurent Cuba, la Jama\u00efque et la R\u00e9publique du Congo.</li>\n<li>\tEn 2019, le Canada a export\u00e9 4 millions de kilogrammes d'\u0153ufs transform\u00e9s pour une valeur totale de 11,2 millions de dollars et plus de 21 millions d'oeufs en coquille pour une valeur totale de plus de 2,6 millions de dollars. </li>\n</ul>\n<h2>Statistiques</h2>\n<ul>\n<li><a href=\"/fra/production-animale/information-sur-le-marche-de-la-volaille-et-des-oeufs/portrait-de-l-industrie/donnees-provinciales-sur-le-secteur-de-la-volaille/?id=1416334346829\">Faits provinciaux sur la volaille</a> </li>\n</ul>\n<div class=\"well\">\n<p>Pour toute question ou information additionnelle, veuillez communiquer avec nous par courriel \u00e0 <a title=\"Courriel : Division de l'industrie animale, Section de l'information sur les march\u00e9s\" href=\"mailto:aafc.poultry-volaille.aac@canada.ca\"> aafc.poultry-volaille.aac@canada.ca</a></p>\n<h2>Nos normes de service</h2>\n<p>Les normes de service jouent un r\u00f4le cl\u00e9 dans les processus de gestion de la planification, des rapports et du rendement de notre programme d'information sur le march\u00e9. Elles d\u00e9finissent clairement le niveau de rendement auquel les clients peuvent s'attendre lorsqu'ils re\u00e7oivent un service dans des circonstances normales.</p>\n<p>Visionnez les  <a title=\"Normes de service relatives aux rapports sur la volaille\" href=\"http://www.agr.gc.ca/fra/industrie-marches-et-commerce/statistiques-et-information-sur-les-marches/par-produit-secteur/volaille-et-oeufs/normes-de-service-pour-l-information-sur-le-marche-de-la-volaille-et-des-ufs/?id=1481029938239\">Normes de service relatives aux rapports sur la volaille.</a></p>\n</div>\n<div class=\"clearfix\"></div>\n<!-- InstanceEndEditable -->             <!-- Fin du contenu -->\n\r\n    <!-- Fin du contenu -->\r\n\t\r\n\t<div class=\"pagedetails\" id=\"pgft\">\r\n\t\t<div class=\"row\">\r\n\t\t  <div class=\"col-sm-6 col-md-5 col-lg-4\">\r\n\t\t    <details class=\"brdr-0\">\r\n\t\t\t<summary class=\"btn btn-default text-center\" onclick=\"getAntiSpamSeq('/fra/mail-handler/?anti-spam-sequence=true')\">Signaler un probl\u00e8me sur cette page</summary>\r\n\t\t\t<div class=\"well row\">\r\n\t\t\t  <div class=\"gc-rprt-prblm\">\r\n\t\t\t    <div class=\"gc-rprt-prblm-frm gc-rprt-prblm-tggl\">\r\n\t\t\t\t   <form id=\"report_a_problem_form\" action=\"/fra/mail-handler/\" method=\"post\">\r\n\t            \t <input type=\"hidden\" name=\"lang\" value=\"fra\">\r\n\t            \t <input type=\"hidden\" name=\"pageId\" value=\"1384971854389\">\r\n\t            \t <input type=\"hidden\" name=\"pageUrl\" value=\"http://agr.gc.ca/fra/production-animale/information-sur-le-marche-de-la-volaille-et-des-oeufs/portrait-de-l-industrie/?id=1384971854389\">\r\n\t\t\t\t\t <div id=\"report_a_problem_form_error\"></div>\r\n\t\t             <fieldset>\t\t\t\t\t    \r\n\t\t                <legend><span class=\"field-name\">Veuillez cocher toutes les r\u00e9ponses pertinentes\u00a0:</span></legend>\r\n\t\t                 <div class=\"checkbox\">\r\n\t\t                    <label for=\"problem1\"><input name=\"problem1\" id=\"problem1\" type=\"checkbox\" value=\"Yes\">Un lien, un bouton ou une vid\u00e9o ne fonctionne pas</label>\r\n\t\t                    <input name=\"problem1\" type=\"hidden\" value=\"No\">\r\n\t\t                </div>\r\n\t\t                <div class=\"checkbox\">\r\n\t\t                    <label for=\"problem2\"><input name=\"problem2\" id=\"problem2\" type=\"checkbox\" value=\"Yes\">Il y a une erreur d'orthographe ou de grammaire</label>\r\n\t\t                    <input name=\"problem2\" type=\"hidden\" value=\"No\">\r\n\t\t                </div>\r\n\t\t   \t\t\t\t <div class=\"checkbox\">\r\n\t\t                    <label for=\"problem3\"><input name=\"problem3\" id=\"problem3\" type=\"checkbox\" value=\"Yes\">Les renseignements sont incomplets</label>\r\n\t\t                    <input name=\"problem3\" type=\"hidden\" value=\"No\">\r\n\t\t                </div>\r\n\t\t             \t\t<div class=\"checkbox\">\r\n\t\t                    <label for=\"problem4\"><input name=\"problem4\" id=\"problem4\" type=\"checkbox\" value=\"Yes\">L'information n'est plus \u00e0 jour ou est erron\u00e9e</label>\r\n\t\t                    <input name=\"problem4\" type=\"hidden\" value=\"No\">\r\n\t\t                </div>\t\t\t\t\t\t\r\n\t\t\t\t\t\t<div class=\"checkbox\">\r\n\t\t\t\t\t\t\t<label for=\"problem5\"><input name=\"problem5\" id=\"problem5\" type=\"checkbox\" value=\"Yes\">Message d'erreur \u00e0 l'ouverture de la session lorsque je tente d'acc\u00e9der \u00e0 un compte (ex. Mon dossier Service Canada)</label>\r\n\t\t\t\t\t\t\t<input name=\"problem5\" type=\"hidden\" value=\"No\">\r\n\t\t\t\t\t\t</div>\r\n\t\t\t\t\t\t\t<ul>\r\n\t\t\t\t\t\t\t<li class=\"checkbox\">\r\n\t\t\t\t\t\t\t\t<label for=\"problem6a\"><input name=\"problem6\" id=\"problem6a\" type=\"checkbox\" value=\"Yes\">Acc\u00e8s Cl\u00e9GC</label>\r\n\t\t\t\t\t\t\t\t<input name=\"problem6\" type=\"hidden\" value=\"No\">\r\n\t\t\t\t\t\t\t </li>\r\n\t\t\t\t\t\t\t<li class=\"checkbox\">\r\n\t\t\t\t\t\t\t\t<label for=\"problem7\"><input name=\"problem7\" id=\"problem7\" type=\"checkbox\" value=\"Yes\">Acc\u00e8s SecureKey Service de Concierge (justificatifs d'identit\u00e9 bancaires)</label>\r\n\t\t\t\t\t\t\t\t<input name=\"problem7\" type=\"hidden\" value=\"No\">\r\n\t\t\t\t\t\t\t </li>\r\n\t\t\t\t\t\t\t<li class=\"checkbox\">\r\n\t\t\t\t\t\t\t\t<label for=\"problem8\"><input name=\"problem8\" id=\"problem8\" type=\"checkbox\" value=\"Yes\">Probl\u00e8me avec le Code d'acc\u00e8s personnel (CAP) ou avec le Code d'acc\u00e8s (CA) de l'assurance emploi</label>\r\n\t\t\t\t\t\t\t\t<input name=\"problem8\" type=\"hidden\" value=\"No\">\r\n\t\t\t\t\t\t\t </li>\t\r\n\t\t\t\t\t\t\t<li class=\"checkbox\">\r\n\t\t\t\t\t\t\t\t<label for=\"problem9\"><input name=\"problem9\" id=\"problem9\" type=\"checkbox\" value=\"Yes\">Probl\u00e8me li\u00e9 \u00e0 la validation du num\u00e9ro d'assurance sociale (NAS)</label>\r\n\t\t\t\t\t\t\t\t<input name=\"problem9\" type=\"hidden\" value=\"No\">\r\n\t\t\t\t\t\t\t </li>\t\t\t\t\t\t\t\t\r\n\t\t\t\t\t\t\t<li class=\"checkbox\">\r\n\t\t\t\t\t\t\t\t<label for=\"problem10\"><input name=\"problem10\" id=\"problem10\" type=\"checkbox\" value=\"Yes\">Autre erreur lors de l'ouverture de session qui ne figure pas sur cette liste</label>\r\n\t\t\t\t\t\t\t\t<input name=\"problem10\" type=\"hidden\" value=\"No\">\r\n\t\t\t\t\t\t\t </li>\t\t \r\n\t\t\t\t\t\t\t </ul>\r\n\t\t\t\t\t\t<div class=\"checkbox\">\r\n\t\t\t\t\t\t\t<label for=\"problem11\"><input name=\"problem11\" id=\"problem11\" type=\"checkbox\" value=\"Yes\">Je n'arrive pas \u00e0 trouver ce que je cherche</label>\r\n\t\t\t\t\t\t\t<input name=\"problem11\" type=\"hidden\" value=\"No\">\r\n\t\t\t\t\t\t</div>\r\n\t\t\t\t\t\t<div class=\"checkbox\">\r\n\t\t\t\t\t\t\t<label for=\"problem12\"><input name=\"problem12\" id=\"problem12\" type=\"checkbox\" value=\"Yes\">Autre probl\u00e8me qui ne figure pas sur cette liste</label>\r\n\t\t\t\t\t\t\t<input name=\"problem12\" type=\"hidden\" value=\"No\">\r\n\t\t\t\t\t\t</div>\t\t\t\t\t\t\t\t\t\t\t\t\t\t\t\t\t\t\t\r\n\t\t             </fieldset>\r\n\t\t\t\t\t <div>\r\n\t\t\t\t        <label for=\"aafc_ranstr\"><span id=\"fbch\">Veuillez inscrire les caract\u00e8res suivants  <strong class=\"required\">(obligatoire)</strong>\u00a0: </span><span id=\"ranstr\">XXX</span></label>\r\n\t\t\t            <input name=\"anti-spam-sequence\" id=\"aafc_ranstr\" size=\"4\" maxlength=\"3\" type=\"text\">\r\n\t\t\t\t\t </div>\r\n\t\t\t\t\t <input type=\"submit\" class=\"btn btn-primary\" value=\"Soumettre\">\r\n\t\t\t\t  </form>\r\n\t\t\t\t</div>\r\n\t\t\t  </div>\r\n\t\t\t</div>\r\n\t\t</details>\r\n\t    </div>\r\n\t  <div class=\"wb-share col-sm-4 col-md-3 col-sm-offset-2 col-md-offset-4 col-lg-offset-5\" data-wb-share='{\"lnkClass\": \"btn btn-default btn-block\"}'></div>\r\n\t  </div>\r\n\t  <dl id=\"wb-dtmd\">\r\n\t    <dt>Date de modification\u00a0: </dt>\r\n\t      <dd><time property=\"dateModified\">2020-10-22</time></dd>\r\n\t  </dl>\r\n\t</div>\r\n\t\r\n  "
    }
}