{
    "dcr_id": "1242752035499",
    "title": {
        "en": "On-farm biodiversity",
        "fr": "Biodiversit\u00e9 \u00e0 la ferme"
    },
    "modified": "2020-11-19",
    "issued": "2009-05-21",
    "templatetype": "content page 1 column",
    "page_type": "1",
    "node_id": "1399404684250",
    "dc_date_created": "2009-05-21",
    "managing_branch": "PAB",
    "parent_node_id": "1354137773751",
    "label": {
        "en": "Land Management through Grazing",
        "fr": "Gestion des sols par le p\u00e2turage"
    },
    "exturl": "",
    "teamsite_location": {
        "en": "/default/main/AAFC-AAC/Internet-Internet/Common-Commun/WORKAREA/Common-Commun/templatedata/comm-comm/gene-gene/data/05/soil-land_grazing-paturage_1242752035499_en",
        "fr": "/default/main/AAFC-AAC/Internet-Internet/Common-Commun/WORKAREA/Common-Commun/templatedata/comm-comm/gene-gene/data/05/soil-land_grazing-paturage_1242752035499_fr"
    },
    "type_name": "sitemapinit",
    "has_dcr_id": true,
    "breadcrumb": {
        "en": "Land Management through Grazing",
        "fr": "Gestion des sols par le p\u00e2turage"
    },
    "layout_name": "content page 1 column",
    "lang": "en",
    "meta": {
        "issued": {
            "en": "2009-05-21",
            "fr": "2009-05-21"
        },
        "modified": {
            "en": "2020-11-19",
            "fr": "2020-11-19"
        },
        "format": {
            "en": "text/html",
            "fr": "text/html"
        },
        "title": {
            "en": "On-farm biodiversity",
            "fr": "Biodiversit\u00e9 \u00e0 la ferme"
        },
        "subject": {
            "en": "grasslands;biological diversity;land management",
            "fr": "programme;p\u00e2turage;gestion des terres"
        },
        "description": {
            "en": "Not only do these lands provide fodder for livestock seeded pastures are also important for the many other ecological functions they perform on the landscape such as wildlife habitat regulation of flow and quality of water storing and sequestering carbon and protection of fragile soils from erosion.",
            "fr": "En plus de fournir les fourrages pour le b\u00e9tail les parcours ensemenc\u00e9s sont importants par leurs nombreuses fonctions \u00e9cologiques dans le paysage : habitat pour la faune r\u00e9gulation de l'\u00e9coulement et de la qualit\u00e9 des eaux s\u00e9questration du carbone et protection des sols fragiles contre l'\u00e9rosion."
        },
        "language": {
            "en": "eng",
            "fr": "fra"
        },
        "keywords": {
            "en": "historic livestock utilization soil type;Annual adjustments;other ecological functions;Agri-Food Canada;healthy state",
            "fr": "\u00e9l\u00e9ment important du secteur du p\u00e2turage;protection des sols fragiles;qualit\u00e9 des eaux;parcours naturels;bon \u00e9tat"
        },
        "audience": {
            "en": "gcaudience",
            "fr": "gcaudience"
        },
        "type": {
            "en": "frequently asked questions",
            "fr": "consultation"
        },
        "creator": {
            "en": "Agriculture and Agri-Food Canada;Government of Canada",
            "fr": "Agriculture et Agroalimentaire Canada;Gouvernement du Canada"
        },
        "spatial": {
            "en": "gcregions",
            "fr": "gcregions"
        },
        "service": {
            "en": "AAFC-AAC",
            "fr": "AAFC-AAC"
        },
        "accessRights": {
            "en": "2",
            "fr": "2"
        },
        "legalName": {
            "en": "agriculture_and_agri_food_canada",
            "fr": "agriculture_et_agroalimentaire_canada"
        },
        "areaServed": {
            "en": "Canada",
            "fr": "Canada"
        }
    },
    "body": {
        "en": "tart --&gt;\r\n    <!-- D&eacute;but du contenu -->\r\n    \n<p>Wildlife habitat capacity on farm land, soil covers, international conventions and collections.</p>\n<h2 class=\"h5\">Soil quality indicators</h2>\n<p>Discover how agri-environmental indicators are measuring the environmental sustainability of agriculture:</p>\n\n<ul>\n<li><a href=\"?id=1462893337151\">Soil erosion indicator</a></li>\n<li><a href=\"?id=1462905651688\">Soil organic matter indicator</a></li>\n<li><a href=\"?id=1462912470880\">Soil salinization indicator</a></li>\n</ul>\n<h2 class=\"h5\">Biodiversity indicators</h2>\n<p>Two agri-environmental indicators assess the  impact of agriculture on our biodiversity:</p>\n<ul>\n  <li><a href=\"?id=1462916293297\">Wildlife habitat capacity on  farmland indicator</a></li>\n  <li><a href=\"?id=1462489641309\">Soil cover indicator</a></li>\n</ul>\n\n\n<h2>Land management through grazing</h2>\n<p>Rangelands are a type of land on which the natural vegetation is dominated by grasses and shrubs and the land is managed as a natural ecosystem.</p>\n\n<p>Prairie rangeland supports agricultural activity through the grazing of livestock. These grasslands also provide habitat for native plants and animals, and support a broad range of economic benefits including recreational activity related to hunting and eco-tourism, and provision of genetic stock for biological research and the development of neutraceuticals.</p>\n\n<p>As a method of documenting and monitoring the resource use on the pastures, data on range condition, range condition trends, species composition, and a general inventory of rangeland resources is collected. This information is used in combination with pasture developments, historic livestock utilization, soil type and associated moisture conditions to calculate the carrying capacity of each pasture. Annual adjustments are made to stocking rates depending on local pasture conditions. During periods of drought, stocking rates are reduced to levels that will ensure the rangeland does not become overgrazed.</p>\n\n<p>Most of the native grassland on the Prairies has been cultivated or re-seeded to tame forage species but not all of these lands have shown long-term productivity increases. It is estimated that more than half of Prairie rangeland is in less than good condition. Good condition is the goal of many rangeland managers. The benefits of improved range management include: conservation of biodiversity, reduced soil degradation and potential for increased carbon sequestration. Research has shown that improvements in range condition by one class can increase livestock carrying capacity of native rangeland by as much as 25%.</p>\n\n<p>Grazing management varies regionally depending on traditional practices, vegetation, soils and climate. Management also changes over time as new knowledge, practices, incentive programs and technology are adopted by producers.</p>\n\n<p>In conjunction with the Census of Canada, Agriculture and Agri-Food Canada and Statistics Canada conduct a survey to measure changing trends in agricultural practice. \n<!--\nConsult the report <a href=\"/eng/?id=1287066862621\">Grazing Livestock Management: Farm Environmental Management Survey (FEMS) 2006</a> for more details.\n-->\n</p>\n\n\n<h2>Seeded pasture management</h2>\n\n<p>Whether managed as pasture for the long term or in rotation with annual crops, seeded pastures are an important component of the grazing industry. Not only do these lands provide fodder for livestock seeded pastures are also important for the many other ecological functions they perform on the landscape such as wildlife habitat, regulation of flow and quality of water, storing and sequestering carbon, and protection of fragile soils from erosion. The key to receiving these benefits is maintaining this resource in a healthy state.</p>\n\n\n<h2>Native pasture management</h2>\n\n<p>Native pastures, or rangeland, are an essential part of the beef cattle industry in Canada. These lands are principally used for livestock grazing, primarily beef. Rangeland is also important for the many other ecological functions that it performs on the landscape. Its value as habitat for wildlife, especially species at risk is well known. However, rangelands also functions to regulate flow and quality of water, store and sequester carbon, protect fragile soils from erosion and are an important repository of natural genomes. The key to receiving these benefits is maintaining this resource in a healthy state.</p>\n\n\r\n    <!-- Fin du contenu -->\r\n  \r\n  <div class=\"pagedetails\" id=\"pgft\">\r\n    <div class=\"row\">\r\n\t  <div class=\"col-sm-6 col-md-5 col-lg-4\">\r\n\t    <details class=\"brdr-0\">\r\n\t\t<summary class=\"btn btn-default text-center\" onclick=\"getAntiSpamSeq('/eng/mail-handler/?anti-spam-sequence=true')\">Report a problem on this page</summary>\r\n\t\t<div class=\"clearfix\"></div>\r\n\t\t<div class=\"well row\">\r\n\t\t<div>\r\n\t\t  <div class=\"gc-rprt-prblm\">\r\n\t\t    <div class=\"gc-rprt-prblm-frm gc-rprt-prblm-tggl\">\r\n\t\t\t  \r\n\t\t\t<form id=\"report_a_problem_form\" action=\"/eng/mail-handler/#report_a_problem_form\" method=\"post\">\t\t\t\t   \t\t\t\r\n\r\n\t            \t <input type=\"hidden\" name=\"lang\" value=\"eng\">\r\n\t            \t <input type=\"hidden\" name=\"pageId\" value=\"1242752035499\">\r\n\t            \t <input type=\"hidden\" name=\"pageUrl\" value=\"http://www5.agr.gc.ca/eng/agriculture-and-the-environment/agricultural-practices/soil-and-land/on-farm-biodiversity/?id=1242752035499\">\r\n\t\t\t\t\t <div id=\"report_a_problem_form_error\"></div>\r\n\t\t             <fieldset>\t\t\t\t\t    \r\n\t\t                <legend><span class=\"field-name\">Please select all that apply:</span></legend>\t\t                                 \r\n\t\t\t\t\t\t<div class=\"checkbox\">\r\n\t\t\t\t\t\t\t<label for=\"problem1\"><input name=\"problem1\" id=\"problem1\" type=\"checkbox\" value=\"Yes\">A link, button or video is not working</label>\r\n\t\t\t\t\t\t\t<input name=\"problem1\" type=\"hidden\" value=\"No\">\r\n\t\t\t\t\t\t</div>\r\n\t\t\t\t\t\t<div class=\"checkbox\">\r\n\t\t\t\t\t\t\t<label for=\"problem2\"><input name=\"problem2\" id=\"problem2\" type=\"checkbox\" value=\"Yes\">It has a spelling mistake</label>\r\n\t\t\t\t\t\t\t<input name=\"problem2\" type=\"hidden\" value=\"No\">\r\n\t\t\t\t\t\t</div>\r\n\t\t\t\t\t\t<div class=\"checkbox\">\r\n\t\t\t\t\t\t\t<label for=\"problem3\"><input name=\"problem3\" id=\"problem3\" type=\"checkbox\" value=\"Yes\">Information is missing</label>\r\n\t\t\t\t\t\t\t<input name=\"problem3\" type=\"hidden\" value=\"No\">\r\n\t\t\t\t\t   </div>\r\n\t\t\t\t\t\t<div class=\"checkbox\">\r\n\t\t\t\t\t\t\t<label for=\"problem4\"><input name=\"problem4\" id=\"problem4\" type=\"checkbox\" value=\"Yes\">Information is outdated or wrong</label>\r\n\t\t\t\t\t\t\t<input name=\"problem4\" type=\"hidden\" value=\"No\">\r\n\t\t\t\t\t\t</div>\r\n\t\t\t\t\t\t<div class=\"checkbox\">\r\n\t\t\t\t\t\t\t<label for=\"problem5\"><input name=\"problem5\" id=\"problem5\" type=\"checkbox\" value=\"Yes\">Login error when trying to access an account (e.g. My Service Canada Account)</label>\r\n\t\t\t\t\t\t\t<input name=\"problem5\" type=\"hidden\" value=\"No\">\r\n\t\t\t\t\t\t</div>\r\n\t\t\t\t\t\t\t<ul>\r\n\t\t\t\t\t\t\t<li class=\"checkbox\">\r\n\t\t\t\t\t\t\t\t<label for=\"problem6a\"><input name=\"problem6\" id=\"problem6a\" type=\"checkbox\" value=\"Yes\">GC Key access</label>\r\n\t\t\t\t\t\t\t\t<input name=\"problem6\" type=\"hidden\" value=\"No\">\r\n\t\t\t\t\t\t\t </li>\r\n\t\t\t\t\t\t\t<li class=\"checkbox\">\r\n\t\t\t\t\t\t\t\t<label for=\"problem7\"><input name=\"problem7\" id=\"problem7\" type=\"checkbox\" value=\"Yes\">SecureKey Concierge (Banking Credential) access </label>\r\n\t\t\t\t\t\t\t\t<input name=\"problem7\" type=\"hidden\" value=\"No\">\r\n\t\t\t\t\t\t\t </li>\r\n\t\t\t\t\t\t\t<li class=\"checkbox\">\r\n\t\t\t\t\t\t\t\t<label for=\"problem8\"><input name=\"problem8\" id=\"problem8\" type=\"checkbox\" value=\"Yes\">Personal Access Code (PAC) problems or EI Access Code (AC) problems</label>\r\n\t\t\t\t\t\t\t\t<input name=\"problem8\" type=\"hidden\" value=\"No\">\r\n\t\t\t\t\t\t\t </li>\t\r\n\t\t\t\t\t\t\t<li class=\"checkbox\">\r\n\t\t\t\t\t\t\t\t<label for=\"problem9\"><input name=\"problem9\" id=\"problem9\" type=\"checkbox\" value=\"Yes\">Social Insurance Number (SIN) validation problems</label>\r\n\t\t\t\t\t\t\t\t<input name=\"problem9\" type=\"hidden\" value=\"No\">\r\n\t\t\t\t\t\t\t </li>\t\t\t\t\t\t\t\t\r\n\t\t\t\t\t\t\t<li class=\"checkbox\">\r\n\t\t\t\t\t\t\t\t<label for=\"problem10\"><input name=\"problem10\" id=\"problem10\" type=\"checkbox\" value=\"Yes\">Other login error not in this list</label>\r\n\t\t\t\t\t\t\t\t<input name=\"problem10\" type=\"hidden\" value=\"No\">\r\n\t\t\t\t\t\t\t </li>\t\t \r\n\t\t\t\t\t\t\t </ul>\r\n\t\t\t\t\t\t<div class=\"checkbox\">\r\n\t\t\t\t\t\t\t<label for=\"problem11\"><input name=\"problem11\" id=\"problem11\" type=\"checkbox\" value=\"Yes\">I can't find what I'm looking for</label>\r\n\t\t\t\t\t\t\t<input name=\"problem11\" type=\"hidden\" value=\"No\">\r\n\t\t\t\t\t\t</div>\r\n\t\t\t\t\t\t<div class=\"checkbox\">\r\n\t\t\t\t\t\t\t<label for=\"problem12\"><input name=\"problem12\" id=\"problem12\" type=\"checkbox\" value=\"Yes\">Other issue not in this list</label>\r\n\t\t\t\t\t\t\t<input name=\"problem12\" type=\"hidden\" value=\"No\">\r\n\t\t\t\t\t\t</div>\t\t\t\t\t\t \t\t\t\t\t\t\t\t\t\t\t\t \r\n\t\t             </fieldset>\r\n\t\t\t\t\t <div>\r\n\t\t\t\t\t   <label for=\"aafc_ranstr\"><span id=\"fbch\"><br>Enter these characters <strong class=\"required\">(required)</strong>: </span><span id=\"ranstr\">U5S</span></label>\r\n\t\t\t           <input name=\"anti-spam-sequence\" id=\"aafc_ranstr\" size=\"4\" maxlength=\"3\" type=\"text\">\r\n\t\t\t\t\t </div>\t\r\n\r\n\t\t\t\t\t <br><input type=\"submit\" class=\"btn btn-primary\" value=\"Submit\">\r\n\t\t\t\t  </form>\r\n\t\t\t\t</div>\r\n\t\t\t</div>\t\t\t\r\n\t\t  </div>\r\n\t\t</div>\r\n\t\t</details>\r\n\t  </div>\r\n\t  <div class=\"wb-share col-sm-4 col-md-3 col-sm-offset-2 col-md-offset-4 col-lg-offset-5\" data-wb-share='{\"lnkClass\": \"btn btn-default btn-block\"}'></div>\r\n\t</div>\r\n\t<dl id=\"wb-dtmd\">\r\n\t  <dt>Date modified: </dt>\r\n\t  <dd><time property=\"dateModified\">2020-11-19</time></dd></dl></div>",
        "fr": "\r\n    \r\n    <!-- MainContentStart -->\r\n    <!-- D&eacute;but du contenu -->\r\n    \n<p>Capacit\u00e9 d'habitat faunique sur les terres agricoles, les couvertures du sol, les conventions internationales et les collections.</p>\n<h2 class=\"h5\">Indicateurs sur le sol</h2>\n<p>D\u00e9couvrez comment les indicateurs agroenvironnementaux sont utilis\u00e9s pour mesurer la durabilit\u00e9 \u00e9cologique de l'agriculture\u00a0:</p>\n\n<ul>\n<li><a href=\"?id=1462893337151\">Indicateur de l'\u00e9rosion du sol</a></li>\n<li><a href=\"?id=1462905651688\">Indicateur de la mati\u00e8re organique du sol</a></li>\n<li><a href=\"?id=1462912470880\">Indicateur du risque de salinisation du sol</a></li>\n</ul>\n<h2 class=\"h5\">Indicateurs sur la biodiversit\u00e9</h2>\n<p>Il y a deux indicateurs agroenvironnementaux pour \u00e9valuer l'impact de l'agriculture sur la biodiversit\u00e9\u00a0:</p>\n\n<ul>\n<li><a href=\"?id=1462916293297\">Indicateur de la capacit\u00e9 d'habitat faunique des terres agricoles</a></li>\n<li><a href=\"?id=1462489641309\">Indicateur de la couverture du sol</a></li>\n</ul>\n\n\n<h2>La gestion des sols par le p\u00e2turage</h2>\n\n<p>Les parcours naturels se distinguent par une v\u00e9g\u00e9tation domin\u00e9e par des herbes et des arbustes et qui est g\u00e9r\u00e9e comme un \u00e9cosyst\u00e8me naturel.</p>\n\n<p>Les parcours des Prairies viennent appuyer l'agriculture en permettant le p\u00e2turage du b\u00e9tail. Ces prairies offrent \u00e9galement un habitat pour la faune et la flore indig\u00e8ne et apportent un vaste \u00e9ventail d'avantages \u00e9conomiques, dont des activit\u00e9s de loisir li\u00e9es \u00e0 la chasse et \u00e0 l'\u00e9cotourisme, tout en fournissant du mat\u00e9riel g\u00e9n\u00e9tique pour la recherche biologique et le d\u00e9veloppement de nutraceutiques.</p>\n\n<p>Pour documenter et surveiller l'utilisation des ressources dans les p\u00e2turages, on recueille des donn\u00e9es sur l'\u00e9tat et l'\u00e9volution des parcours, la composition taxinomique et l'\u00e9ventail des ressources des parcours. Cette information est utilis\u00e9e en association avec des donn\u00e9es sur l'am\u00e9lioration des p\u00e2turages, l'utilisation historique du b\u00e9tail, les types de sol et les conditions d'humidit\u00e9 qui y sont associ\u00e9es, pour calculer la capacit\u00e9 de charge de chaque p\u00e2turage. On modifie chaque ann\u00e9e les taux de chargement en fonction de l'\u00e9tat des p\u00e2turages locaux. Pendant les p\u00e9riodes de s\u00e9cheresse, on r\u00e9duit les taux de chargement de fa\u00e7on que les peuplements d'herbes indig\u00e8nes ne souffrent pas de surp\u00e2turage.</p>\n\n<p>La plupart des parcours naturels de la r\u00e9gion des Prairies ont \u00e9t\u00e9 cultiv\u00e9s ou r\u00e9ensemenc\u00e9s en plantes fourrag\u00e8res cultiv\u00e9es, mais ces terres ne montrent pas toutes une hausse de productivit\u00e9 \u00e0 long terme. On estime en effet que plus de la moiti\u00e9 des parcours des Prairies sont en mauvais \u00e9tat. Les gestionnaires de parcours visent donc \u00e0 remettre les parcours en bon \u00e9tat. Les avantages d'une gestion am\u00e9lior\u00e9e des parcours sont la conservation de la biodiversit\u00e9, la r\u00e9duction de la d\u00e9gradation des sols et la possibilit\u00e9 d'une s\u00e9questration accrue du carbone. Les recherches d\u00e9montrent que le fait d'am\u00e9liorer d'une classe l'\u00e9tat d'un parcours naturel peut accro\u00eetre sa capacit\u00e9 de charge de b\u00e9tail dans une proportion pouvant atteindre 25\u00a0%.</p>\n\n<p>La gestion des p\u00e2turages varie selon les r\u00e9gions; elle d\u00e9pend des pratiques traditionnelles, de la v\u00e9g\u00e9tation, des sols et du climat. La gestion \u00e9volue aussi au fil du temps gr\u00e2ce aux nouvelles connaissances, aux pratiques, aux programmes de mesures incitatives et aux nouvelles technologies adopt\u00e9es par les producteurs.</p>\n\n<p>En m\u00eame temps que le Recensement du Canada, Agriculture et Agroalimentaire Canada et Statistique Canada m\u00e8nent une enqu\u00eate afin de mesurer les nouvelles tendances dans les pratiques agricoles. \n<!--\nLe document <a href=\"/fra/?id=1287066862621\">La gestion du b&eacute;tail de p&acirc;turage&nbsp;: Enqu&ecirc;te sur la gestion agroenvironnementale (EGA) 2006</a> offre plus de d&eacute;tails.\n-->\n</p>\n\n\n<h2>Gestion des p\u00e2turages naturels</h2>\n\n<p>Les p\u00e2turages ou parcours naturels repr\u00e9sentent un \u00e9l\u00e9ment essentiel de l'\u00e9levage des bovins au Canada. Ces terres sont destin\u00e9es surtout au p\u00e2turage, principalement des bovins. Les parcours jouent aussi un r\u00f4le important sur le plan \u00e9cologique dans le paysage. Leur importance en tant qu'habitat de la faune, surtout d'esp\u00e8ces en p\u00e9ril, est bien connue. Les parcours servent aussi \u00e0 r\u00e9guler l'\u00e9coulement et la qualit\u00e9 des eaux, \u00e0 s\u00e9questrer le carbone, \u00e0 prot\u00e9ger les sols fragiles contre l'\u00e9rosion. Ils constituent par ailleurs un bassin important de g\u00e9nomes naturels. Pour b\u00e9n\u00e9ficier de tous ces avantages, il est essentiel de maintenir cette ressource en bon \u00e9tat.</p>\n\n\n<h2>Gestion des parcours ensemenc\u00e9s</h2>\n\n<p>Qu'ils soient g\u00e9r\u00e9s en vue du p\u00e2turage \u00e0 long terme ou en rotation avec des cultures annuelles, les parcours ensemenc\u00e9s forment un \u00e9l\u00e9ment important du secteur du p\u00e2turage. En plus de fournir les fourrages pour le b\u00e9tail, les parcours ensemenc\u00e9s sont importants par leurs nombreuses fonctions \u00e9cologiques dans le paysage\u00a0: habitat pour la faune, r\u00e9gulation de l'\u00e9coulement et de la qualit\u00e9 des eaux, s\u00e9questration du carbone et protection des sols fragiles contre l'\u00e9rosion. Pour b\u00e9n\u00e9ficier de tous ces avantages, il est essentiel de maintenir cette ressource en bon \u00e9tat.</p>\n\n\r\n    <!-- Fin du contenu -->\r\n\t\r\n\t<div class=\"pagedetails\" id=\"pgft\">\r\n\t\t<div class=\"row\">\r\n\t\t  <div class=\"col-sm-6 col-md-5 col-lg-4\">\r\n\t\t    <details class=\"brdr-0\">\r\n\t\t\t<summary class=\"btn btn-default text-center\" onclick=\"getAntiSpamSeq('/fra/mail-handler/?anti-spam-sequence=true')\">Signaler un probl\u00e8me sur cette page</summary>\r\n\t\t\t<div class=\"well row\">\r\n\t\t\t  <div class=\"gc-rprt-prblm\">\r\n\t\t\t    <div class=\"gc-rprt-prblm-frm gc-rprt-prblm-tggl\">\r\n\t\t\t\t   <form id=\"report_a_problem_form\" action=\"/fra/mail-handler/\" method=\"post\">\r\n\t            \t <input type=\"hidden\" name=\"lang\" value=\"fra\">\r\n\t            \t <input type=\"hidden\" name=\"pageId\" value=\"1242752035499\">\r\n\t            \t <input type=\"hidden\" name=\"pageUrl\" value=\"http://www.agr.gc.ca/fra/agriculture-et-environnement/pratiques-agricoles/sols-et-terres/biodiversite-a-la-ferme/?id=1242752035499\">\r\n\t\t\t\t\t <div id=\"report_a_problem_form_error\"></div>\r\n\t\t             <fieldset>\t\t\t\t\t    \r\n\t\t                <legend><span class=\"field-name\">Veuillez cocher toutes les r\u00e9ponses pertinentes\u00a0:</span></legend>\r\n\t\t                 <div class=\"checkbox\">\r\n\t\t                    <label for=\"problem1\"><input name=\"problem1\" id=\"problem1\" type=\"checkbox\" value=\"Yes\">Un lien, un bouton ou une vid\u00e9o ne fonctionne pas</label>\r\n\t\t                    <input name=\"problem1\" type=\"hidden\" value=\"No\">\r\n\t\t                </div>\r\n\t\t                <div class=\"checkbox\">\r\n\t\t                    <label for=\"problem2\"><input name=\"problem2\" id=\"problem2\" type=\"checkbox\" value=\"Yes\">Il y a une erreur d'orthographe ou de grammaire</label>\r\n\t\t                    <input name=\"problem2\" type=\"hidden\" value=\"No\">\r\n\t\t                </div>\r\n\t\t   \t\t\t\t <div class=\"checkbox\">\r\n\t\t                    <label for=\"problem3\"><input name=\"problem3\" id=\"problem3\" type=\"checkbox\" value=\"Yes\">Les renseignements sont incomplets</label>\r\n\t\t                    <input name=\"problem3\" type=\"hidden\" value=\"No\">\r\n\t\t                </div>\r\n\t\t             \t\t<div class=\"checkbox\">\r\n\t\t                    <label for=\"problem4\"><input name=\"problem4\" id=\"problem4\" type=\"checkbox\" value=\"Yes\">L'information n'est plus \u00e0 jour ou est erron\u00e9e</label>\r\n\t\t                    <input name=\"problem4\" type=\"hidden\" value=\"No\">\r\n\t\t                </div>\t\t\t\t\t\t\r\n\t\t\t\t\t\t<div class=\"checkbox\">\r\n\t\t\t\t\t\t\t<label for=\"problem5\"><input name=\"problem5\" id=\"problem5\" type=\"checkbox\" value=\"Yes\">Message d'erreur \u00e0 l'ouverture de la session lorsque je tente d'acc\u00e9der \u00e0 un compte (ex. Mon dossier Service Canada)</label>\r\n\t\t\t\t\t\t\t<input name=\"problem5\" type=\"hidden\" value=\"No\">\r\n\t\t\t\t\t\t</div>\r\n\t\t\t\t\t\t\t<ul>\r\n\t\t\t\t\t\t\t<li class=\"checkbox\">\r\n\t\t\t\t\t\t\t\t<label for=\"problem6a\"><input name=\"problem6\" id=\"problem6a\" type=\"checkbox\" value=\"Yes\">Acc\u00e8s Cl\u00e9GC</label>\r\n\t\t\t\t\t\t\t\t<input name=\"problem6\" type=\"hidden\" value=\"No\">\r\n\t\t\t\t\t\t\t </li>\r\n\t\t\t\t\t\t\t<li class=\"checkbox\">\r\n\t\t\t\t\t\t\t\t<label for=\"problem7\"><input name=\"problem7\" id=\"problem7\" type=\"checkbox\" value=\"Yes\">Acc\u00e8s SecureKey Service de Concierge (justificatifs d'identit\u00e9 bancaires)</label>\r\n\t\t\t\t\t\t\t\t<input name=\"problem7\" type=\"hidden\" value=\"No\">\r\n\t\t\t\t\t\t\t </li>\r\n\t\t\t\t\t\t\t<li class=\"checkbox\">\r\n\t\t\t\t\t\t\t\t<label for=\"problem8\"><input name=\"problem8\" id=\"problem8\" type=\"checkbox\" value=\"Yes\">Probl\u00e8me avec le Code d'acc\u00e8s personnel (CAP) ou avec le Code d'acc\u00e8s (CA) de l'assurance emploi</label>\r\n\t\t\t\t\t\t\t\t<input name=\"problem8\" type=\"hidden\" value=\"No\">\r\n\t\t\t\t\t\t\t </li>\t\r\n\t\t\t\t\t\t\t<li class=\"checkbox\">\r\n\t\t\t\t\t\t\t\t<label for=\"problem9\"><input name=\"problem9\" id=\"problem9\" type=\"checkbox\" value=\"Yes\">Probl\u00e8me li\u00e9 \u00e0 la validation du num\u00e9ro d'assurance sociale (NAS)</label>\r\n\t\t\t\t\t\t\t\t<input name=\"problem9\" type=\"hidden\" value=\"No\">\r\n\t\t\t\t\t\t\t </li>\t\t\t\t\t\t\t\t\r\n\t\t\t\t\t\t\t<li class=\"checkbox\">\r\n\t\t\t\t\t\t\t\t<label for=\"problem10\"><input name=\"problem10\" id=\"problem10\" type=\"checkbox\" value=\"Yes\">Autre erreur lors de l'ouverture de session qui ne figure pas sur cette liste</label>\r\n\t\t\t\t\t\t\t\t<input name=\"problem10\" type=\"hidden\" value=\"No\">\r\n\t\t\t\t\t\t\t </li>\t\t \r\n\t\t\t\t\t\t\t </ul>\r\n\t\t\t\t\t\t<div class=\"checkbox\">\r\n\t\t\t\t\t\t\t<label for=\"problem11\"><input name=\"problem11\" id=\"problem11\" type=\"checkbox\" value=\"Yes\">Je n'arrive pas \u00e0 trouver ce que je cherche</label>\r\n\t\t\t\t\t\t\t<input name=\"problem11\" type=\"hidden\" value=\"No\">\r\n\t\t\t\t\t\t</div>\r\n\t\t\t\t\t\t<div class=\"checkbox\">\r\n\t\t\t\t\t\t\t<label for=\"problem12\"><input name=\"problem12\" id=\"problem12\" type=\"checkbox\" value=\"Yes\">Autre probl\u00e8me qui ne figure pas sur cette liste</label>\r\n\t\t\t\t\t\t\t<input name=\"problem12\" type=\"hidden\" value=\"No\">\r\n\t\t\t\t\t\t</div>\t\t\t\t\t\t\t\t\t\t\t\t\t\t\t\t\t\t\t\r\n\t\t             </fieldset>\r\n\t\t\t\t\t <div>\r\n\t\t\t\t        <label for=\"aafc_ranstr\"><span id=\"fbch\">Veuillez inscrire les caract\u00e8res suivants  <strong class=\"required\">(obligatoire)</strong>\u00a0: </span><span id=\"ranstr\">XXX</span></label>\r\n\t\t\t            <input name=\"anti-spam-sequence\" id=\"aafc_ranstr\" size=\"4\" maxlength=\"3\" type=\"text\">\r\n\t\t\t\t\t </div>\r\n\t\t\t\t\t <input type=\"submit\" class=\"btn btn-primary\" value=\"Soumettre\">\r\n\t\t\t\t  </form>\r\n\t\t\t\t</div>\r\n\t\t\t  </div>\r\n\t\t\t</div>\r\n\t\t</details>\r\n\t    </div>\r\n\t  <div class=\"wb-share col-sm-4 col-md-3 col-sm-offset-2 col-md-offset-4 col-lg-offset-5\" data-wb-share='{\"lnkClass\": \"btn btn-default btn-block\"}'></div>\r\n\t  </div>\r\n\t  <dl id=\"wb-dtmd\">\r\n\t    <dt>Date de modification\u00a0: </dt>\r\n\t      <dd><time property=\"dateModified\">2020-11-19</time></dd>\r\n\t  </dl>\r\n\t</div>\r\n\t\r\n  "
    }
}