{
    "dcr_id": "1449594974622",
    "title": {
        "en": "Parliamentary Secretary",
        "fr": "Secr\u00e9taire parlementaire"
    },
    "modified": "2019-12-12",
    "issued": "2015-12-08",
    "templatetype": "content page 1 column",
    "page_type": "1",
    "node_id": "1449762087449",
    "dc_date_created": "2015-12-08",
    "managing_branch": "PAB",
    "parent_node_id": "1354137774027",
    "label": {
        "en": "Parliamentary Secretary",
        "fr": "Secr\u00e9taire parlementaire"
    },
    "exturl": "",
    "teamsite_location": {
        "en": "/default/main/AAFC-AAC/Internet-Internet/CCB-DGCC/WORKAREA/CCB-DGCC/templatedata/comm-comm/gene-gene/data/sec-parl_parl-sec_1449594974622_en",
        "fr": "/default/main/AAFC-AAC/Internet-Internet/CCB-DGCC/WORKAREA/CCB-DGCC/templatedata/comm-comm/gene-gene/data/sec-parl_parl-sec_1449594974622_fr"
    },
    "type_name": "sitemapinit",
    "has_dcr_id": true,
    "breadcrumb": {
        "en": "Parliamentary Secretary",
        "fr": "Secr\u00e9taire parlementaire"
    },
    "layout_name": "content page 1 column",
    "lang": "en",
    "meta": {
        "issued": {
            "en": "2015-12-08",
            "fr": "2015-12-08"
        },
        "modified": {
            "en": "2019-12-12",
            "fr": "2019-12-12"
        },
        "format": {
            "en": "gcformat",
            "fr": "gcformat"
        },
        "title": {
            "en": "Parliamentary Secretary",
            "fr": "Secr\u00e9taire parlementaire"
        },
        "subject": {
            "en": "government information;agricultural workers;agri-food industry",
            "fr": "information gouvernementale;travailleur agricole;industrie agro-alimentaire"
        },
        "description": {
            "en": "Jean-Claude Poissant was born in Saint-Philippe, Quebec and has lived there all his life. He is well known as a very active member of the community in La Prairie. In addition to being a former municipal councillor and the Director of the Maison des jeunes de Saint-Philippe, he was also one of the founding members of Maison de r\u00e9pit, a rest home for farmers. He was the fourth generation to operate his family\u2019s dairy and grain farm. A father of two, he is very proud to see his son follow in his footsteps.",
            "fr": "Jean-Claude Poissant est n\u00e9 et a toujours habit\u00e9 Saint-Philippe, Qu\u00e9bec. Il est d'ailleurs un homme connu et tr\u00e8s impliqu\u00e9 dans sa communaut\u00e9. En plus d'\u00eatre anciennement conseiller municipal et administrateur de la maison des Jeunes de Saint-Philippe, il a \u00e9t\u00e9 l'un des fondateurs de la Maison de r\u00e9pit, la premi\u00e8re maison du genre \u00e0 l'intention des fermiers. Il repr\u00e9sente la quatri\u00e8me g\u00e9n\u00e9ration \u00e0 exploiter la ferme laiti\u00e8re et c\u00e9r\u00e9ali\u00e8re familiale. P\u00e8re de deux enfants, il est tr\u00e8s fier de voir son fils prendre la rel\u00e8ve."
        },
        "language": {
            "en": "eng",
            "fr": "fra"
        },
        "keywords": {
            "en": "Parliamentary Secretary to the Minister of Agriculture and Agri-Food",
            "fr": "Secr\u00e9taire parlementaire du ministre de l'Agriculture et de l'Agroalimentaire"
        },
        "audience": {
            "en": "gcaudience",
            "fr": "gcaudience"
        },
        "type": {
            "en": "biography",
            "fr": "biographie"
        },
        "creator": {
            "en": "Agriculture and Agri-Food Canada;Government of Canada",
            "fr": "Agriculture et Agroalimentaire Canada;Gouvernement du Canada"
        },
        "spatial": {
            "en": "gcregions",
            "fr": "gcregions"
        },
        "service": {
            "en": "AAFC-AAC",
            "fr": "AAFC-AAC"
        },
        "accessRights": {
            "en": "2",
            "fr": "2"
        },
        "legalName": {
            "en": "agriculture_and_agri_food_canada",
            "fr": "agriculture_et_agroalimentaire_canada"
        },
        "areaServed": {
            "en": "Canada",
            "fr": "Canada"
        }
    },
    "body": {
        "en": "tart --&gt;\r\n    <!-- D&eacute;but du contenu -->\r\n    <h2>Neil Ellis</h2>\n\n<div class=\"row\">\n <div class=\"col-md-2 pull-left\">\n  <img class=\"img-responsive\" src=\"https://www.agr.gc.ca/resources/prod/CMS/Internet/CCB-DGCC/neil_ellis.jpg\" alt=\"Neil Ellis\">\n</div>\n\n <div class=\"col-md-7\">\n\n<p>Riding: <a href=\"https://www.ourcommons.ca/Members/en/constituencies/bay-of-quinte(720)\">Bay of Quinte</a> (Ontario)</p>\n  \n<p>Neil Ellis was first elected as the Member of Parliament for the Bay of Quinte in 2015.</p>\n\n<p>Born and raised in Belleville, Ontario, Mr. Ellis has had a long history of contributing to the Bay of Quinte community. He owned and operated a successful local business for nearly 30 years, and served two terms as Mayor for the City of Belleville. He has been a strong advocate for local infrastructure investments, which he sees as a key to promoting economic growth and creating a better quality of life for local residents.</p>\n\n<p>In 2010, as Mayor of Belleville, Mr. Ellis championed the construction of the Veterans Memorial Bridge over the Moira River, named in honour of Canadian military veterans. In 2012, he was made a Honourary Major of the Hastings &amp; Prince Edward Regiment for his service to veterans in Belleville and the surrounding area.</p>\n\n<p>A committed leader, he also championed innovative strategies to address a shortage of family physicians and other health practitioners in the region, in addition to helping to improve local infrastructure.</p>\n\n<p>Mr. Ellis holds a Bachelor of Arts degree in Law and Psychology from Carleton University. He also received Chartered Director and Human Resources Compensation Committee Certification professional designations through The Directors College.</p>\n\n<p>He and his wife, Susan, have raised three children: Zachary, Maddison, and Abigail.</p>\n\n<h2>Contact information</h2>\n\n<ul class=\"list-unstyled\">\n<p>1341 Baseline Road<br>\nOttawa Ontario  K1A 0C5</p>\n\n<p><!--Telephone: 613-992-1084<br>\nFax: 613-992-1116<br>-->\nEmail: <a href=\"mailto:neil.ellis@parl.gc.ca\">neil.ellis@parl.gc.ca</a></p>\n\n<p><a href=\"?id=1369864009036\">Minister of Agriculture and Agri-Food</a></p>\n\n</ul></div>\n\n<div class=\"col-md-3 pull-right mrgn-tp-0\">\n\n<section>\n<h3 class=\"small\">Tweets by <a href=\"https://twitter.com/AAFC_Canada\">AAFC_Canada</a></h3>\n            <div class=\"wb-twitter\"><a class=\"twitter-timeline\" data-height=\"650\" href=\"http://twitter.com/AAFC_Canada\" data-chrome=\"noheader\">Tweets from : AAFC_Canada</a>\n<script>!function(d,s,id){var js,fjs=d.getElementsByTagName(s)[0],p=/^http:/.test(d.location)?'http':'https';if(!d.getElementById(id)){js=d.createElement(s);js.id=id;js.src=p+\"://platform.twitter.com/widgets.js\";fjs.parentNode.insertBefore(js,fjs);}}(document,\"script\",\"twitter-wjs\");</script>\n</div>\n</section> \n</div>\n</div>\n \n\r\n    <!-- Fin du contenu -->\r\n  \r\n  <div class=\"pagedetails\" id=\"pgft\">\r\n    <div class=\"row\">\r\n\t  <div class=\"col-sm-6 col-md-5 col-lg-4\">\r\n\t    <details class=\"brdr-0\">\r\n\t\t<summary class=\"btn btn-default text-center\" onclick=\"getAntiSpamSeq('/eng/mail-handler/?anti-spam-sequence=true')\">Report a problem on this page</summary>\r\n\t\t<div class=\"clearfix\"></div>\r\n\t\t<div class=\"well row\">\r\n\t\t<div>\r\n\t\t  <div class=\"gc-rprt-prblm\">\r\n\t\t    <div class=\"gc-rprt-prblm-frm gc-rprt-prblm-tggl\">\r\n\t\t\t  \r\n\t\t\t<form id=\"report_a_problem_form\" action=\"/eng/mail-handler/#report_a_problem_form\" method=\"post\">\t\t\t\t   \t\t\t\r\n\r\n\t            \t <input type=\"hidden\" name=\"lang\" value=\"eng\">\r\n\t            \t <input type=\"hidden\" name=\"pageId\" value=\"1449594974622\">\r\n\t            \t <input type=\"hidden\" name=\"pageUrl\" value=\"http://agr.gc.ca/eng/about-our-department/parliamentary-secretary/?id=1449594974622\">\r\n\t\t\t\t\t <div id=\"report_a_problem_form_error\"></div>\r\n\t\t             <fieldset>\t\t\t\t\t    \r\n\t\t                <legend><span class=\"field-name\">Please select all that apply:</span></legend>\t\t                                 \r\n\t\t\t\t\t\t<div class=\"checkbox\">\r\n\t\t\t\t\t\t\t<label for=\"problem1\"><input name=\"problem1\" id=\"problem1\" type=\"checkbox\" value=\"Yes\">A link, button or video is not working</label>\r\n\t\t\t\t\t\t\t<input name=\"problem1\" type=\"hidden\" value=\"No\">\r\n\t\t\t\t\t\t</div>\r\n\t\t\t\t\t\t<div class=\"checkbox\">\r\n\t\t\t\t\t\t\t<label for=\"problem2\"><input name=\"problem2\" id=\"problem2\" type=\"checkbox\" value=\"Yes\">It has a spelling mistake</label>\r\n\t\t\t\t\t\t\t<input name=\"problem2\" type=\"hidden\" value=\"No\">\r\n\t\t\t\t\t\t</div>\r\n\t\t\t\t\t\t<div class=\"checkbox\">\r\n\t\t\t\t\t\t\t<label for=\"problem3\"><input name=\"problem3\" id=\"problem3\" type=\"checkbox\" value=\"Yes\">Information is missing</label>\r\n\t\t\t\t\t\t\t<input name=\"problem3\" type=\"hidden\" value=\"No\">\r\n\t\t\t\t\t   </div>\r\n\t\t\t\t\t\t<div class=\"checkbox\">\r\n\t\t\t\t\t\t\t<label for=\"problem4\"><input name=\"problem4\" id=\"problem4\" type=\"checkbox\" value=\"Yes\">Information is outdated or wrong</label>\r\n\t\t\t\t\t\t\t<input name=\"problem4\" type=\"hidden\" value=\"No\">\r\n\t\t\t\t\t\t</div>\r\n\t\t\t\t\t\t<div class=\"checkbox\">\r\n\t\t\t\t\t\t\t<label for=\"problem5\"><input name=\"problem5\" id=\"problem5\" type=\"checkbox\" value=\"Yes\">Login error when trying to access an account (e.g. My Service Canada Account)</label>\r\n\t\t\t\t\t\t\t<input name=\"problem5\" type=\"hidden\" value=\"No\">\r\n\t\t\t\t\t\t</div>\r\n\t\t\t\t\t\t\t<ul>\r\n\t\t\t\t\t\t\t<li class=\"checkbox\">\r\n\t\t\t\t\t\t\t\t<label for=\"problem6a\"><input name=\"problem6\" id=\"problem6a\" type=\"checkbox\" value=\"Yes\">GC Key access</label>\r\n\t\t\t\t\t\t\t\t<input name=\"problem6\" type=\"hidden\" value=\"No\">\r\n\t\t\t\t\t\t\t </li>\r\n\t\t\t\t\t\t\t<li class=\"checkbox\">\r\n\t\t\t\t\t\t\t\t<label for=\"problem7\"><input name=\"problem7\" id=\"problem7\" type=\"checkbox\" value=\"Yes\">SecureKey Concierge (Banking Credential) access </label>\r\n\t\t\t\t\t\t\t\t<input name=\"problem7\" type=\"hidden\" value=\"No\">\r\n\t\t\t\t\t\t\t </li>\r\n\t\t\t\t\t\t\t<li class=\"checkbox\">\r\n\t\t\t\t\t\t\t\t<label for=\"problem8\"><input name=\"problem8\" id=\"problem8\" type=\"checkbox\" value=\"Yes\">Personal Access Code (PAC) problems or EI Access Code (AC) problems</label>\r\n\t\t\t\t\t\t\t\t<input name=\"problem8\" type=\"hidden\" value=\"No\">\r\n\t\t\t\t\t\t\t </li>\t\r\n\t\t\t\t\t\t\t<li class=\"checkbox\">\r\n\t\t\t\t\t\t\t\t<label for=\"problem9\"><input name=\"problem9\" id=\"problem9\" type=\"checkbox\" value=\"Yes\">Social Insurance Number (SIN) validation problems</label>\r\n\t\t\t\t\t\t\t\t<input name=\"problem9\" type=\"hidden\" value=\"No\">\r\n\t\t\t\t\t\t\t </li>\t\t\t\t\t\t\t\t\r\n\t\t\t\t\t\t\t<li class=\"checkbox\">\r\n\t\t\t\t\t\t\t\t<label for=\"problem10\"><input name=\"problem10\" id=\"problem10\" type=\"checkbox\" value=\"Yes\">Other login error not in this list</label>\r\n\t\t\t\t\t\t\t\t<input name=\"problem10\" type=\"hidden\" value=\"No\">\r\n\t\t\t\t\t\t\t </li>\t\t \r\n\t\t\t\t\t\t\t </ul>\r\n\t\t\t\t\t\t<div class=\"checkbox\">\r\n\t\t\t\t\t\t\t<label for=\"problem11\"><input name=\"problem11\" id=\"problem11\" type=\"checkbox\" value=\"Yes\">I can't find what I'm looking for</label>\r\n\t\t\t\t\t\t\t<input name=\"problem11\" type=\"hidden\" value=\"No\">\r\n\t\t\t\t\t\t</div>\r\n\t\t\t\t\t\t<div class=\"checkbox\">\r\n\t\t\t\t\t\t\t<label for=\"problem12\"><input name=\"problem12\" id=\"problem12\" type=\"checkbox\" value=\"Yes\">Other issue not in this list</label>\r\n\t\t\t\t\t\t\t<input name=\"problem12\" type=\"hidden\" value=\"No\">\r\n\t\t\t\t\t\t</div>\t\t\t\t\t\t \t\t\t\t\t\t\t\t\t\t\t\t \r\n\t\t             </fieldset>\r\n\t\t\t\t\t <div>\r\n\t\t\t\t\t   <label for=\"aafc_ranstr\"><span id=\"fbch\"><br>Enter these characters <strong class=\"required\">(required)</strong>: </span><span id=\"ranstr\">U5S</span></label>\r\n\t\t\t           <input name=\"anti-spam-sequence\" id=\"aafc_ranstr\" size=\"4\" maxlength=\"3\" type=\"text\">\r\n\t\t\t\t\t </div>\t\r\n\r\n\t\t\t\t\t <br><input type=\"submit\" class=\"btn btn-primary\" value=\"Submit\">\r\n\t\t\t\t  </form>\r\n\t\t\t\t</div>\r\n\t\t\t</div>\t\t\t\r\n\t\t  </div>\r\n\t\t</div>\r\n\t\t</details>\r\n\t  </div>\r\n\t  <div class=\"wb-share col-sm-4 col-md-3 col-sm-offset-2 col-md-offset-4 col-lg-offset-5\" data-wb-share='{\"lnkClass\": \"btn btn-default btn-block\"}'></div>\r\n\t</div>\r\n\t<dl id=\"wb-dtmd\">\r\n\t  <dt>Date modified: </dt>\r\n\t  <dd><time property=\"dateModified\">2019-12-12</time></dd></dl></div>",
        "fr": "\r\n    \r\n    <!-- MainContentStart -->\r\n    <!-- D&eacute;but du contenu -->\r\n    <h2>Neil Ellis</h2>\n\n<div class=\"row\">\n <div class=\"col-md-2 pull-left\">\n  <img class=\"img-responsive\" src=\"https://www.agr.gc.ca/resources/prod/CMS/Internet/CCB-DGCC/neil_ellis.jpg\" alt=\"Neil Ellis\">\n</div>\n\n <div class=\"col-md-7\">\n\n<p>Circonscription\u00a0: <a href=\"https://www.noscommunes.ca/Members/fr/constituencies/bay-of-quinte(720)\">Baie de Quinte</a> (Ontario)</p>\n  \n<p>Neil Ellis a \u00e9t\u00e9 \u00e9lu pour la premi\u00e8re fois d\u00e9put\u00e9 de Baie de Quinte en 2015.</p>\n\n<p>Originaire de Belleville, en Ontario, M. Ellis contribue depuis longtemps \u00e0 la communaut\u00e9 de Baie de Quinte. Il a \u00e9t\u00e9 propri\u00e9taire et exploitant d\u2019une entreprise locale pendant pr\u00e8s de 30 ans et a r\u00e9alis\u00e9 deux mandats comme maire de Belleville. Il a d\u00e9fendu avec ardeur l\u2019investissement dans l\u2019infrastructure locale, qu\u2019il consid\u00e8re comme \u00e9tant essentiel pour favoriser la croissance \u00e9conomique et offrir une meilleure qualit\u00e9 de vie aux gens de la communaut\u00e9.</p>\n\n<p>En 2010, \u00e0 titre de maire de Belleville, M. Ellis a encourag\u00e9 la construction du pont comm\u00e9moratif des anciens combattants, qui enjambe la rivi\u00e8re Moira et rend hommage aux anciens combattants de l\u2019arm\u00e9e canadienne. En 2012, il a \u00e9t\u00e9 fait major honoraire du Hastings &amp; Prince Edward Regiment pour ses services rendus aux anciens combattants de Belleville et de la r\u00e9gion.</p>\n\n<p>Leader engag\u00e9 et visionnaire, il a aussi milit\u00e9 en faveur de l\u2019\u00e9tablissement de strat\u00e9gies novatrices pour pallier la p\u00e9nurie de m\u00e9decins de famille et d\u2019autres professionnels de la sant\u00e9 dans la r\u00e9gion. Il est aussi \u00e0 l\u2019origine d\u2019am\u00e9liorations aux infrastructures locales.</p>\n\n<p>M. Ellis est titulaire d\u2019un baccalaur\u00e9at \u00e8s arts en droit et psychologie de la Carleton University. Il a \u00e9galement re\u00e7u les attestations professionnelles d'administrateur accr\u00e9dit\u00e9 et du comit\u00e9 de ressources humaines et de r\u00e9mun\u00e9ration du Directors College.</p>\n\n<p>M. Ellis et son \u00e9pouse Susan ont trois enfants : Zachary, Maddison et Abigail.</p>\n\n<h2>Pour nous joindre</h2>\n\n<p>1341 chemin Baseline<br>\nOttawa (Ontario)  K1A 0C5</p>\n\n<p><!--T&eacute;l&eacute;phone : 613-992-1084<br>\nT&eacute;l&eacute;copieur : 613-992-1116<br>-->\nCourriel : <a href=\"mailto:neil.ellis@parl.gc.ca\">neil.ellis@parl.gc.ca</a></p><p>\n\n</p><p><a href=\"?id=1369864009036\">Ministre de l'Agriculture et de l'Agroalimentaire</a></p>\n\n</div>\n\n <div class=\"col-md-3 pull-right mrgn-tp-0\">\n\n<section>\n<h3 class=\"small\">Gazouillis d'<a href=\"https://twitter.com/AAC_Canada\">AAC_Canada</a></h3>\n            <div class=\"wb-twitter\"><a class=\"twitter-timeline\" data-height=\"650\" href=\"http://twitter.com/AAC_Canada\" data-chrome=\"noheader\">Gazouillis d'AAC_Canada</a>\n<script>!function(d,s,id){var js,fjs=d.getElementsByTagName(s)[0],p=/^http:/.test(d.location)?'http':'https';if(!d.getElementById(id)){js=d.createElement(s);js.id=id;js.src=p+\"://platform.twitter.com/widgets.js\";fjs.parentNode.insertBefore(js,fjs);}}(document,\"script\",\"twitter-wjs\");</script>\n</div>\n</section> \n\n</div>\n</div>\n\r\n    <!-- Fin du contenu -->\r\n\t\r\n\t<div class=\"pagedetails\" id=\"pgft\">\r\n\t\t<div class=\"row\">\r\n\t\t  <div class=\"col-sm-6 col-md-5 col-lg-4\">\r\n\t\t    <details class=\"brdr-0\">\r\n\t\t\t<summary class=\"btn btn-default text-center\" onclick=\"getAntiSpamSeq('/fra/mail-handler/?anti-spam-sequence=true')\">Signaler un probl\u00e8me sur cette page</summary>\r\n\t\t\t<div class=\"well row\">\r\n\t\t\t  <div class=\"gc-rprt-prblm\">\r\n\t\t\t    <div class=\"gc-rprt-prblm-frm gc-rprt-prblm-tggl\">\r\n\t\t\t\t   <form id=\"report_a_problem_form\" action=\"/fra/mail-handler/\" method=\"post\">\r\n\t            \t <input type=\"hidden\" name=\"lang\" value=\"fra\">\r\n\t            \t <input type=\"hidden\" name=\"pageId\" value=\"1449594974622\">\r\n\t            \t <input type=\"hidden\" name=\"pageUrl\" value=\"http://agr.gc.ca/fra/a-propos-de-notre-ministere/secretaire-parlementaire/?id=1449594974622\">\r\n\t\t\t\t\t <div id=\"report_a_problem_form_error\"></div>\r\n\t\t             <fieldset>\t\t\t\t\t    \r\n\t\t                <legend><span class=\"field-name\">Veuillez cocher toutes les r\u00e9ponses pertinentes\u00a0:</span></legend>\r\n\t\t                 <div class=\"checkbox\">\r\n\t\t                    <label for=\"problem1\"><input name=\"problem1\" id=\"problem1\" type=\"checkbox\" value=\"Yes\">Un lien, un bouton ou une vid\u00e9o ne fonctionne pas</label>\r\n\t\t                    <input name=\"problem1\" type=\"hidden\" value=\"No\">\r\n\t\t                </div>\r\n\t\t                <div class=\"checkbox\">\r\n\t\t                    <label for=\"problem2\"><input name=\"problem2\" id=\"problem2\" type=\"checkbox\" value=\"Yes\">Il y a une erreur d'orthographe ou de grammaire</label>\r\n\t\t                    <input name=\"problem2\" type=\"hidden\" value=\"No\">\r\n\t\t                </div>\r\n\t\t   \t\t\t\t <div class=\"checkbox\">\r\n\t\t                    <label for=\"problem3\"><input name=\"problem3\" id=\"problem3\" type=\"checkbox\" value=\"Yes\">Les renseignements sont incomplets</label>\r\n\t\t                    <input name=\"problem3\" type=\"hidden\" value=\"No\">\r\n\t\t                </div>\r\n\t\t             \t\t<div class=\"checkbox\">\r\n\t\t                    <label for=\"problem4\"><input name=\"problem4\" id=\"problem4\" type=\"checkbox\" value=\"Yes\">L'information n'est plus \u00e0 jour ou est erron\u00e9e</label>\r\n\t\t                    <input name=\"problem4\" type=\"hidden\" value=\"No\">\r\n\t\t                </div>\t\t\t\t\t\t\r\n\t\t\t\t\t\t<div class=\"checkbox\">\r\n\t\t\t\t\t\t\t<label for=\"problem5\"><input name=\"problem5\" id=\"problem5\" type=\"checkbox\" value=\"Yes\">Message d'erreur \u00e0 l'ouverture de la session lorsque je tente d'acc\u00e9der \u00e0 un compte (ex. Mon dossier Service Canada)</label>\r\n\t\t\t\t\t\t\t<input name=\"problem5\" type=\"hidden\" value=\"No\">\r\n\t\t\t\t\t\t</div>\r\n\t\t\t\t\t\t\t<ul>\r\n\t\t\t\t\t\t\t<li class=\"checkbox\">\r\n\t\t\t\t\t\t\t\t<label for=\"problem6a\"><input name=\"problem6\" id=\"problem6a\" type=\"checkbox\" value=\"Yes\">Acc\u00e8s Cl\u00e9GC</label>\r\n\t\t\t\t\t\t\t\t<input name=\"problem6\" type=\"hidden\" value=\"No\">\r\n\t\t\t\t\t\t\t </li>\r\n\t\t\t\t\t\t\t<li class=\"checkbox\">\r\n\t\t\t\t\t\t\t\t<label for=\"problem7\"><input name=\"problem7\" id=\"problem7\" type=\"checkbox\" value=\"Yes\">Acc\u00e8s SecureKey Service de Concierge (justificatifs d'identit\u00e9 bancaires)</label>\r\n\t\t\t\t\t\t\t\t<input name=\"problem7\" type=\"hidden\" value=\"No\">\r\n\t\t\t\t\t\t\t </li>\r\n\t\t\t\t\t\t\t<li class=\"checkbox\">\r\n\t\t\t\t\t\t\t\t<label for=\"problem8\"><input name=\"problem8\" id=\"problem8\" type=\"checkbox\" value=\"Yes\">Probl\u00e8me avec le Code d'acc\u00e8s personnel (CAP) ou avec le Code d'acc\u00e8s (CA) de l'assurance emploi</label>\r\n\t\t\t\t\t\t\t\t<input name=\"problem8\" type=\"hidden\" value=\"No\">\r\n\t\t\t\t\t\t\t </li>\t\r\n\t\t\t\t\t\t\t<li class=\"checkbox\">\r\n\t\t\t\t\t\t\t\t<label for=\"problem9\"><input name=\"problem9\" id=\"problem9\" type=\"checkbox\" value=\"Yes\">Probl\u00e8me li\u00e9 \u00e0 la validation du num\u00e9ro d'assurance sociale (NAS)</label>\r\n\t\t\t\t\t\t\t\t<input name=\"problem9\" type=\"hidden\" value=\"No\">\r\n\t\t\t\t\t\t\t </li>\t\t\t\t\t\t\t\t\r\n\t\t\t\t\t\t\t<li class=\"checkbox\">\r\n\t\t\t\t\t\t\t\t<label for=\"problem10\"><input name=\"problem10\" id=\"problem10\" type=\"checkbox\" value=\"Yes\">Autre erreur lors de l'ouverture de session qui ne figure pas sur cette liste</label>\r\n\t\t\t\t\t\t\t\t<input name=\"problem10\" type=\"hidden\" value=\"No\">\r\n\t\t\t\t\t\t\t </li>\t\t \r\n\t\t\t\t\t\t\t </ul>\r\n\t\t\t\t\t\t<div class=\"checkbox\">\r\n\t\t\t\t\t\t\t<label for=\"problem11\"><input name=\"problem11\" id=\"problem11\" type=\"checkbox\" value=\"Yes\">Je n'arrive pas \u00e0 trouver ce que je cherche</label>\r\n\t\t\t\t\t\t\t<input name=\"problem11\" type=\"hidden\" value=\"No\">\r\n\t\t\t\t\t\t</div>\r\n\t\t\t\t\t\t<div class=\"checkbox\">\r\n\t\t\t\t\t\t\t<label for=\"problem12\"><input name=\"problem12\" id=\"problem12\" type=\"checkbox\" value=\"Yes\">Autre probl\u00e8me qui ne figure pas sur cette liste</label>\r\n\t\t\t\t\t\t\t<input name=\"problem12\" type=\"hidden\" value=\"No\">\r\n\t\t\t\t\t\t</div>\t\t\t\t\t\t\t\t\t\t\t\t\t\t\t\t\t\t\t\r\n\t\t             </fieldset>\r\n\t\t\t\t\t <div>\r\n\t\t\t\t        <label for=\"aafc_ranstr\"><span id=\"fbch\">Veuillez inscrire les caract\u00e8res suivants  <strong class=\"required\">(obligatoire)</strong>\u00a0: </span><span id=\"ranstr\">XXX</span></label>\r\n\t\t\t            <input name=\"anti-spam-sequence\" id=\"aafc_ranstr\" size=\"4\" maxlength=\"3\" type=\"text\">\r\n\t\t\t\t\t </div>\r\n\t\t\t\t\t <input type=\"submit\" class=\"btn btn-primary\" value=\"Soumettre\">\r\n\t\t\t\t  </form>\r\n\t\t\t\t</div>\r\n\t\t\t  </div>\r\n\t\t\t</div>\r\n\t\t</details>\r\n\t    </div>\r\n\t  <div class=\"wb-share col-sm-4 col-md-3 col-sm-offset-2 col-md-offset-4 col-lg-offset-5\" data-wb-share='{\"lnkClass\": \"btn btn-default btn-block\"}'></div>\r\n\t  </div>\r\n\t  <dl id=\"wb-dtmd\">\r\n\t    <dt>Date de modification\u00a0: </dt>\r\n\t      <dd><time property=\"dateModified\">2019-12-12</time></dd>\r\n\t  </dl>\r\n\t</div>\r\n\t\r\n  "
    }
}