{
    "dcr_id": "1410072148284",
    "title": {
        "en": "Agriculture and Food Trade Commissioner Service",
        "fr": "Service des d\u00e9l\u00e9gu\u00e9s commerciaux du secteur agroalimentaire"
    },
    "modified": "2021-01-26",
    "issued": "2010-10-20",
    "templatetype": "content page 1 column",
    "page_type": "1",
    "node_id": "1510319734503",
    "dc_date_created": "2010-10-20",
    "managing_branch": "MISB",
    "parent_node_id": "1579021837815",
    "label": {
        "en": "Agriculture and Food Trade Commissioner Service",
        "fr": "Service des d\u00e9l\u00e9gu\u00e9s commerciaux du secteur agroalimentaire"
    },
    "exturl": "",
    "teamsite_location": {
        "en": "/default/main/AAFC-AAC/Internet-Internet/MISB-DGSIM/ATS-SEA/ATS-SEA-s1/WORKAREA/ATS-SEA-s1/templatedata/comm-comm/gene-gene/data/exp_offices_abroad_1410072148284_en",
        "fr": "/default/main/AAFC-AAC/Internet-Internet/MISB-DGSIM/ATS-SEA/ATS-SEA-s1/WORKAREA/ATS-SEA-s1/templatedata/comm-comm/gene-gene/data/exp_offices_abroad_1410072148284_fr"
    },
    "type_name": "sitemapinit",
    "has_dcr_id": true,
    "breadcrumb": {
        "en": "Agriculture and Food Trade Commissioner Service",
        "fr": "Service des d\u00e9l\u00e9gu\u00e9s commerciaux du secteur agroalimentaire"
    },
    "layout_name": "content page 1 column",
    "lang": "en",
    "meta": {
        "issued": {
            "en": "2010-10-20",
            "fr": "2010-10-20"
        },
        "modified": {
            "en": "2021-01-26",
            "fr": "2021-01-26"
        },
        "format": {
            "en": "gcformat",
            "fr": "gcformat"
        },
        "title": {
            "en": "Agriculture and Food Trade Commissioner Service",
            "fr": "Service des d\u00e9l\u00e9gu\u00e9s commerciaux du secteur agroalimentaire"
        },
        "subject": {
            "en": "assessment;beverage industry;northern development",
            "fr": "analyse de march\u00e9"
        },
        "description": {
            "en": "Whether you're looking to export, invest abroad or seek technology and R&amp;D partnership, our international business professionals, market intelligence and expert advice are available when you need them. We have Trade Commissioners located in more than 150 cities worldwide and in Regional Offices across Canada",
            "fr": "Service des d\u00e9l\u00e9gu\u00e9s commerciaux du secteur. Nous pouvons vous informer des obstacles et de la r\u00e9glementationassoci\u00e9s \u00e0 votre entr\u00e9e dans une r\u00e9gion du monde pr\u00e9cise et vous tenir aucourant des nouveaux d\u00e9bouch\u00e9s. Nous sommes en mesure de vous fournir desrenseignements pertinents sur votre secteur d'activit\u00e9s.Conseils pour am\u00e9liorer votre strat\u00e9gie de d\u00e9veloppement de march\u00e9 -. Quevous d\u00e9siriez exporter ou investir \u00e0 l'\u00e9tranger ou que vous soyez \u00e0 larecherche de partenariats dans les domaines de la technologie et de larecherche-d\u00e9veloppement, nous pouvons vous aider \u00e0 \u00e9laborer une strat\u00e9gie ded\u00e9veloppement de march\u00e9 efficace. D\u00e9l\u00e9gu\u00e9e commerciale adjointe."
        },
        "language": {
            "en": "eng",
            "fr": "fra"
        },
        "keywords": {
            "en": " trade commissioners; directory; serive;commissioner",
            "fr": "certainsrenseignements;Canada.Trouvez;autorit\u00e9s.Haut"
        },
        "audience": {
            "en": "gcaudience",
            "fr": "gcaudience"
        },
        "type": {
            "en": "media release",
            "fr": "liste de r\u00e9f\u00e9rence"
        },
        "creator": {
            "en": " Agri-Food Trade Service; Branding Management; International Markets Bureau; Market and Industry Services Branch; Agriculture and Agri-Food Canada;Government of Canada",
            "fr": " Service d'exportation agroalimentaire; Gestion de l'image de marque; Bureau des march&eacute;s internationaux; Direction g&eacute;n&eacute;rale des services &agrave; l'industrie et aux march&eacute;s; Agriculture et Agroalimentaire Canada;Gouvernement du Canada"
        },
        "spatial": {
            "en": "gcregions",
            "fr": "gcregions"
        },
        "service": {
            "en": "AAFC-AAC",
            "fr": "AAFC-AAC"
        },
        "accessRights": {
            "en": "2",
            "fr": "2"
        },
        "legalName": {
            "en": "agriculture_and_agri_food_canada",
            "fr": "agriculture_et_agroalimentaire_canada"
        },
        "areaServed": {
            "en": "Canada",
            "fr": "Canada"
        }
    },
    "body": {
        "en": "tart --&gt;\r\n    <!-- D&eacute;but du contenu -->\r\n    <div class=\"row\">\n<section class=\"col-md-8\">\n<p>The Agriculture and Food Trade Commissioner Service (TCS) helps Canadian businesses succeed in markets around the world. Agri-Food Trade Commissioners are present in 15 markets, with 35 agents ready to help you succeed on the global scale.</p>\n\n<h2>How can Agri-Food Trade Commissioners help you succeed?</h2>\n\n<div class=\"row\">\n<div class=\"col-md-6\">\n<p><b>They play a key role by:</b></p>\n<ul class=\"list-unstyled mrgn-lft-0\">\n<li class=\"mrgn-bttm-md\">Helping ensure Canadian agriculture and food products have access to markets</li>\n<li class=\"mrgn-bttm-md\">Identifying and developing new opportunities for Canadian agri-food exporters</li>\n<li class=\"mrgn-bttm-md\">Advocating for the positive attributes of Canadian food products abroad</li>\n<li class=\"mrgn-bttm-md\">Bridging the gap between Canadian products and markets</li>\n</ul>\n</div>\n\n<div class=\"col-md-6\">\n<p><b>They offer services to help you:</b></p>\n<ul class=\"list-unstyled mrgn-lft-0\">\n<li class=\"mrgn-bttm-md\">Prepare for international markets by understanding your potential</li>\n<li class=\"mrgn-bttm-md\">Improve your export strategy by reviewing key market information</li>\n<li class=\"mrgn-bttm-md\">Find qualified contacts that know the market by building relationships with their network</li>\n<li class=\"mrgn-bttm-md\">Address business problems by advising you with expertise</li>\n</ul>\n</div>\n</div>\n\n<h2 class=\"mrgn-tp-lg\">Trade shows supported by our Trade Commissioners</h2>\n\n<p>View the <a href=\"http://tradecommissioner.gc.ca/events-evenements/results-resultats.aspx?date=&amp;sectors=2&amp;sectors=10&amp;sectors=28&amp;search=Submit&amp;lang=eng\">list of international agriculture and food trade events</a> for an up-to-date index of Trade Commissioner supported global events.</p>\n\n<p>Browse the <a href=\"http://tradecommissioner.gc.ca/webinars-webinaires/index.aspx?lang=eng\">Trade Commissioner Service webinars</a> page for the latest agriculture, food and business related webinars.</p>\n\n<h2 class=\"mrgn-tp-lg\">Find a Trade Commissioner in your market of interest</h2>\n\n<p>To get started, <a href=\"http://tradecommissioner.gc.ca/trade-commissioner-delegue-commercial/search-recherche.aspx?lang=eng\">find a trade commissioner</a> or contact a <a href=\"http://www.agr.gc.ca/eng/industry-markets-and-trade/export-agriculture-and-food-products-from-canada/agri-food-trade-services-for-exporters/agriculture-and-food-trade-contacts-for-exporters/agriculture-and-agri-food-canada-regional-offices/?id=1410072148298\">regional office of Agriculture and Agri-food Canada</a>.</p>\n</section>  \n\n<div class=\"col-md-4 pull-right\">\n<section class=\"panel panel-default\">\n<header class=\"panel-heading\">\n<h2 class=\"panel-title\">Trade Commissioner Service (TCS)</h2> \n</header>\n<div class=\"panel-body\">\n<p class=\"small\"><a href=\"?id=1436290552189\"><img src=\"http://www.agr.gc.ca/resources/prod/Internet-Internet/MISB-DGSIM/ATS-SEA/images/tcs002-eng.png\" alt=\"Video - Agri-food trade commissioners at your service\" class=\"mrgn-bttm-sm\"><br>Watch agri-food trade commissioners at your service</a> and learn how your company or organization can benefit from export advice and guidance to help you achieve your international business goals.</p>\n\n<h3 class=\"h4\">Market opportunities</h3>\n\n<p class=\"small\">Watch Trade Commissioners highlight international agri-food market opportunities in these videos:</p>\n\n<ul class=\"list-unstyled mrgn-lft-md small\">\n<li><a href=\"?id=1525272046056\">Canada Korea Free Trade Agreement (CKFTA)</a></li>\n<li><a href=\"?id=1491491999810\">India</a></li>\n<li><a href=\"?id=1477073967278\">South Korea</a></li>\n</ul>\n<p class=\"small\"><a href=\"https://www.linkedin.com/company/the-canadian-trade-commissioner-service\">Follow the TCS LinkedIn page!</a></p>\n</div> \n</section>\n</div>  \n</div> \n\n<div class=\"well well-sm mrgn-tp-lg\">\n<h2 class=\"mrgn-tp-sm mrgn-bttm-sm\">Global support from the Canadian Trade Commissioner Service</h2>\n\n<p>As a part of the larger Government of Canada Trade Commissioner Service, we are present in 161 cities worldwide. Get more details about the services offered and <a href=\"http://tradecommissioner.gc.ca/how-tcs-can-help-comment-sdc-peut-aider.aspx?lang=eng\">what the Canadian Trade Commissioner Service can do for you</a>.</p>\n\n<h2 class=\"mrgn-tp-sm mrgn-bttm-sm\">Want a guide about exporting?</h2> \n<p>The <a href=\"https://www.tradecommissioner.gc.ca/exporters-exportateurs/steps-etapes.aspx?lang=eng\">Step-by-Step Guide to Exporting</a> from the Canadian Trade Commissioner Service can help companies take their business to the world.</p>\n</div>\n\r\n    <!-- Fin du contenu -->\r\n  \r\n  <div class=\"pagedetails\" id=\"pgft\">\r\n    <div class=\"row\">\r\n\t  <div class=\"col-sm-6 col-md-5 col-lg-4\">\r\n\t    <details class=\"brdr-0\">\r\n\t\t<summary class=\"btn btn-default text-center\" onclick=\"getAntiSpamSeq('/eng/mail-handler/?anti-spam-sequence=true')\">Report a problem on this page</summary>\r\n\t\t<div class=\"clearfix\"></div>\r\n\t\t<div class=\"well row\">\r\n\t\t<div>\r\n\t\t  <div class=\"gc-rprt-prblm\">\r\n\t\t    <div class=\"gc-rprt-prblm-frm gc-rprt-prblm-tggl\">\r\n\t\t\t  \r\n\t\t\t<form id=\"report_a_problem_form\" action=\"/eng/mail-handler/#report_a_problem_form\" method=\"post\">\t\t\t\t   \t\t\t\r\n\r\n\t            \t <input type=\"hidden\" name=\"lang\" value=\"eng\">\r\n\t            \t <input type=\"hidden\" name=\"pageId\" value=\"1410072148284\">\r\n\t            \t <input type=\"hidden\" name=\"pageUrl\" value=\"http://agr.gc.ca/eng/international-trade/agriculture-and-food-trade-commissioner-service/?id=1410072148284\">\r\n\t\t\t\t\t <div id=\"report_a_problem_form_error\"></div>\r\n\t\t             <fieldset>\t\t\t\t\t    \r\n\t\t                <legend><span class=\"field-name\">Please select all that apply:</span></legend>\t\t                                 \r\n\t\t\t\t\t\t<div class=\"checkbox\">\r\n\t\t\t\t\t\t\t<label for=\"problem1\"><input name=\"problem1\" id=\"problem1\" type=\"checkbox\" value=\"Yes\">A link, button or video is not working</label>\r\n\t\t\t\t\t\t\t<input name=\"problem1\" type=\"hidden\" value=\"No\">\r\n\t\t\t\t\t\t</div>\r\n\t\t\t\t\t\t<div class=\"checkbox\">\r\n\t\t\t\t\t\t\t<label for=\"problem2\"><input name=\"problem2\" id=\"problem2\" type=\"checkbox\" value=\"Yes\">It has a spelling mistake</label>\r\n\t\t\t\t\t\t\t<input name=\"problem2\" type=\"hidden\" value=\"No\">\r\n\t\t\t\t\t\t</div>\r\n\t\t\t\t\t\t<div class=\"checkbox\">\r\n\t\t\t\t\t\t\t<label for=\"problem3\"><input name=\"problem3\" id=\"problem3\" type=\"checkbox\" value=\"Yes\">Information is missing</label>\r\n\t\t\t\t\t\t\t<input name=\"problem3\" type=\"hidden\" value=\"No\">\r\n\t\t\t\t\t   </div>\r\n\t\t\t\t\t\t<div class=\"checkbox\">\r\n\t\t\t\t\t\t\t<label for=\"problem4\"><input name=\"problem4\" id=\"problem4\" type=\"checkbox\" value=\"Yes\">Information is outdated or wrong</label>\r\n\t\t\t\t\t\t\t<input name=\"problem4\" type=\"hidden\" value=\"No\">\r\n\t\t\t\t\t\t</div>\r\n\t\t\t\t\t\t<div class=\"checkbox\">\r\n\t\t\t\t\t\t\t<label for=\"problem5\"><input name=\"problem5\" id=\"problem5\" type=\"checkbox\" value=\"Yes\">Login error when trying to access an account (e.g. My Service Canada Account)</label>\r\n\t\t\t\t\t\t\t<input name=\"problem5\" type=\"hidden\" value=\"No\">\r\n\t\t\t\t\t\t</div>\r\n\t\t\t\t\t\t\t<ul>\r\n\t\t\t\t\t\t\t<li class=\"checkbox\">\r\n\t\t\t\t\t\t\t\t<label for=\"problem6a\"><input name=\"problem6\" id=\"problem6a\" type=\"checkbox\" value=\"Yes\">GC Key access</label>\r\n\t\t\t\t\t\t\t\t<input name=\"problem6\" type=\"hidden\" value=\"No\">\r\n\t\t\t\t\t\t\t </li>\r\n\t\t\t\t\t\t\t<li class=\"checkbox\">\r\n\t\t\t\t\t\t\t\t<label for=\"problem7\"><input name=\"problem7\" id=\"problem7\" type=\"checkbox\" value=\"Yes\">SecureKey Concierge (Banking Credential) access </label>\r\n\t\t\t\t\t\t\t\t<input name=\"problem7\" type=\"hidden\" value=\"No\">\r\n\t\t\t\t\t\t\t </li>\r\n\t\t\t\t\t\t\t<li class=\"checkbox\">\r\n\t\t\t\t\t\t\t\t<label for=\"problem8\"><input name=\"problem8\" id=\"problem8\" type=\"checkbox\" value=\"Yes\">Personal Access Code (PAC) problems or EI Access Code (AC) problems</label>\r\n\t\t\t\t\t\t\t\t<input name=\"problem8\" type=\"hidden\" value=\"No\">\r\n\t\t\t\t\t\t\t </li>\t\r\n\t\t\t\t\t\t\t<li class=\"checkbox\">\r\n\t\t\t\t\t\t\t\t<label for=\"problem9\"><input name=\"problem9\" id=\"problem9\" type=\"checkbox\" value=\"Yes\">Social Insurance Number (SIN) validation problems</label>\r\n\t\t\t\t\t\t\t\t<input name=\"problem9\" type=\"hidden\" value=\"No\">\r\n\t\t\t\t\t\t\t </li>\t\t\t\t\t\t\t\t\r\n\t\t\t\t\t\t\t<li class=\"checkbox\">\r\n\t\t\t\t\t\t\t\t<label for=\"problem10\"><input name=\"problem10\" id=\"problem10\" type=\"checkbox\" value=\"Yes\">Other login error not in this list</label>\r\n\t\t\t\t\t\t\t\t<input name=\"problem10\" type=\"hidden\" value=\"No\">\r\n\t\t\t\t\t\t\t </li>\t\t \r\n\t\t\t\t\t\t\t </ul>\r\n\t\t\t\t\t\t<div class=\"checkbox\">\r\n\t\t\t\t\t\t\t<label for=\"problem11\"><input name=\"problem11\" id=\"problem11\" type=\"checkbox\" value=\"Yes\">I can't find what I'm looking for</label>\r\n\t\t\t\t\t\t\t<input name=\"problem11\" type=\"hidden\" value=\"No\">\r\n\t\t\t\t\t\t</div>\r\n\t\t\t\t\t\t<div class=\"checkbox\">\r\n\t\t\t\t\t\t\t<label for=\"problem12\"><input name=\"problem12\" id=\"problem12\" type=\"checkbox\" value=\"Yes\">Other issue not in this list</label>\r\n\t\t\t\t\t\t\t<input name=\"problem12\" type=\"hidden\" value=\"No\">\r\n\t\t\t\t\t\t</div>\t\t\t\t\t\t \t\t\t\t\t\t\t\t\t\t\t\t \r\n\t\t             </fieldset>\r\n\t\t\t\t\t <div>\r\n\t\t\t\t\t   <label for=\"aafc_ranstr\"><span id=\"fbch\"><br>Enter these characters <strong class=\"required\">(required)</strong>: </span><span id=\"ranstr\">U5S</span></label>\r\n\t\t\t           <input name=\"anti-spam-sequence\" id=\"aafc_ranstr\" size=\"4\" maxlength=\"3\" type=\"text\">\r\n\t\t\t\t\t </div>\t\r\n\r\n\t\t\t\t\t <br><input type=\"submit\" class=\"btn btn-primary\" value=\"Submit\">\r\n\t\t\t\t  </form>\r\n\t\t\t\t</div>\r\n\t\t\t</div>\t\t\t\r\n\t\t  </div>\r\n\t\t</div>\r\n\t\t</details>\r\n\t  </div>\r\n\t  <div class=\"wb-share col-sm-4 col-md-3 col-sm-offset-2 col-md-offset-4 col-lg-offset-5\" data-wb-share='{\"lnkClass\": \"btn btn-default btn-block\"}'></div>\r\n\t</div>\r\n\t<dl id=\"wb-dtmd\">\r\n\t  <dt>Date modified: </dt>\r\n\t  <dd><time property=\"dateModified\">2021-01-26</time></dd></dl></div>",
        "fr": "\r\n    \r\n    <!-- MainContentStart -->\r\n    <!-- D&eacute;but du contenu -->\r\n    <div class=\"row\">         \n<section class=\"col-md-8\">\n\n<p>Le Service des d\u00e9l\u00e9gu\u00e9s commerciaux du secteur agroalimentaire (SDC) aide les entreprises canadiennes \u00e0 r\u00e9ussir sur les march\u00e9s internationaux. Au total, 35\u00a0d\u00e9l\u00e9gu\u00e9s commerciaux du secteur agroalimentaire sont pr\u00e9sents dans 15\u00a0march\u00e9s pour vous aider \u00e0 r\u00e9ussir \u00e0 l'\u00e9chelle mondiale.</p>\n\n<h2>Comment les d\u00e9l\u00e9gu\u00e9s commerciaux du secteur agroalimentaire peuvent\u2011ils vous aider \u00e0 r\u00e9ussir?</h2>\n\n<div class=\"row\">\n<div class=\"col-md-6\">\n<p><b>Ils jouent un r\u00f4le de premier plan\u00a0:</b></p>\n<ul class=\"list-unstyled mrgn-lft-0\">\n<li class=\"mrgn-bttm-md\">En veillant \u00e0 ce que les produits agricoles et agroalimentaires canadiens aient acc\u00e8s aux march\u00e9s</li>\n<li class=\"mrgn-bttm-md\">En cernant et en d\u00e9veloppant de nouveaux d\u00e9bouch\u00e9s pour les exportateurs agroalimentaires canadiens</li>\n<li class=\"mrgn-bttm-md\">En promouvant les attributs positifs des produits alimentaires canadiens \u00e0 l'\u00e9tranger</li>\n<li class=\"mrgn-bttm-md\">En comblant l'\u00e9cart entre les produits canadiens et les march\u00e9s</li>\n</ul>\n</div>\n\n<div class=\"col-md-6\">\n<p><b>Ils offrent des services pour vous aider\u00a0:</b></p>\n<ul class=\"list-unstyled mrgn-lft-0\">\n<li class=\"mrgn-bttm-md\">\u00c0 vous pr\u00e9parer aux march\u00e9s internationaux en comprenant votre potentiel</li>\n<li class=\"mrgn-bttm-md\">\u00c0 am\u00e9liorer votre strat\u00e9gie d'exportation en examinant des renseignements cl\u00e9s sur les march\u00e9s</li>\n<li class=\"mrgn-bttm-md\">\u00c0 trouver des personnes\u2011ressources qualifi\u00e9es qui connaissent le march\u00e9 en tissant des liens avec leur r\u00e9seau</li>\n<li class=\"mrgn-bttm-md\">\u00c0 r\u00e9soudre des probl\u00e8mes commerciaux en vous conseillant et en vous offrant leur expertise</li>\n</ul>\n</div>\n</div>\n\n<h2 class=\"mrgn-tp-lg\">Salons professionnels soutenus par nos d\u00e9l\u00e9gu\u00e9s commerciaux</h2>\n\n<p>Consultez la <a href=\"http://deleguescommerciaux.gc.ca/events-evenements/results-resultats.aspx?lang=fra&amp;date=&amp;sectors=2,10,28&amp;search=Submit\">liste des \u00e9v\u00e9nements commerciaux dans le secteur agricole et agroalimentaire</a> pour voir les \u00e9v\u00e9nements soutenus par les d\u00e9l\u00e9gu\u00e9s commerciaux partout dans le monde.</p>\n\n<p>Allez aussi \u00e0 la page des <a href=\"http://tradecommissioner.gc.ca/webinars-webinaires/index.aspx?lang=eng\">webinaires du Service des d\u00e9l\u00e9gu\u00e9s commerciaux</a> pour voir la liste des tout derniers webinaires sur l'agriculture, l'alimentation et le commerce.</p>\n\n<h2 class=\"mrgn-tp-lg\">Trouvez un d\u00e9l\u00e9gu\u00e9 commercial dans le march\u00e9 qui vous int\u00e9resse</h2>\n\n<p>Pour commencer, <a href=\"http://deleguescommerciaux.gc.ca/trade-commissioner-delegue-commercial/search-recherche.aspx?lang=fra\">trouvez un d\u00e9l\u00e9gu\u00e9 commercial</a> ou communiquez avec un des <a href=\"http://www.agr.gc.ca/fra/industrie-marches-et-commerce/exportez-des-produits-agricoles-et-alimentaires-du-canada/services-aux-exportateurs-de-produits-agroalimentaires/contacts-pour-les-exportateurs-de-produits-agroalimentaires/bureaux-regionaux-d-agriculture-et-agroalimentaire-canada/?id=1410072148298\">bureaux r\u00e9gionaux d'Agriculture et Agroalimentaire Canada</a>.</p>\n\n</section>\n\n<div class=\"col-md-4 pull-right\">\n<section class=\"panel panel-default\">\n<header class=\"panel-heading\">\n<h2 class=\"panel-title\">Service des d\u00e9l\u00e9gu\u00e9s commerciaux (SDC)</h2>\n</header>\n<div class=\"panel-body\">\n<p class=\"small\"><a href=\"?id=1436290552189\"><img src=\"http://www.agr.gc.ca/resources/prod/Internet-Internet/MISB-DGSIM/ATS-SEA/images/tcs002-fra.png\" alt=\"Vid\u00e9o - Commerciaux du secteur agroalimentaire \u00e0 votre service\" class=\"mrgn-bttm-sm\"><br>Consultez la liste des d\u00e9l\u00e9gu\u00e9s commerciaux du secteur agroalimentaire \u00e0 votre service</a> et renseignez-vous sur les conseils et directives dont peut profiter votre entreprise ou votre organisation pour atteindre ses objectifs commerciaux internationaux en mati\u00e8re d'exportation.</p>\n\n<h3 class=\"h4\">D\u00e9bouch\u00e9s commerciaux</h3>\n\n<p class=\"small\">Dans les vid\u00e9os ci\u2011dessous, les d\u00e9l\u00e9gu\u00e9s commerciaux pr\u00e9sentent les d\u00e9bouch\u00e9s sur les march\u00e9s agroalimentaires\u00a0:</p>\n\n<ul class=\"list-unstyled mrgn-lft-md small\">\n<li><a href=\"?id=1525272046056\">Accord de libre-\u00e9change Canada Cor\u00e9e (ALECC)</a></li>\n<li><a href=\"?id=1491491999810\">Inde</a></li>\n<li><a href=\"?id=1477073967278\">Cor\u00e9e du Sud</a></li>\n</ul>\n\n<p class=\"small\"><a href=\"https://www.linkedin.com/company/the-canadian-trade-commissioner-service\">Suivez la page LinkedIn du SDC!</a></p>\n</div>\n</section>\n</div>\n</div>\n\n<div class=\"well well-sm mrgn-tp-lg\">\n<h2 class=\"h4 mrgn-tp-sm mrgn-bttm-sm\">Soutien du Service des d\u00e9l\u00e9gu\u00e9s commerciaux du Canada \u00e0 l'\u00e9chelle mondiale</h2> \n\n<p>Le Service des d\u00e9l\u00e9gu\u00e9s commerciaux du gouvernement du Canada est pr\u00e9sent dans 161 villes du monde entier. Obtenez des pr\u00e9cisions sur les services offerts et sur <a href=\"http://deleguescommerciaux.gc.ca/how-tcs-can-help-comment-sdc-peut-aider.aspx?lang=fra\">ce que le Service des d\u00e9l\u00e9gu\u00e9s commerciaux du Canada peut faire pour vous</a>.</p>\n\n<h2 class=\"h4 mrgn-tp-sm mrgn-bttm-sm\">Vous avez besoin d'un guide sur l'exportation?</h2> \n\n<p>Le <a href=\"https://www.deleguescommerciaux.gc.ca/exporters-exportateurs/steps-etapes.aspx?lang=fra\">Guide pas-\u00e0-pas \u00e0 l'exportation</a> du Service des d\u00e9l\u00e9gu\u00e9s commerciaux du Canada peut aider les entreprises \u00e0 faire des affaires avec le monde entier.</p>\n\n</div>\n\r\n    <!-- Fin du contenu -->\r\n\t\r\n\t<div class=\"pagedetails\" id=\"pgft\">\r\n\t\t<div class=\"row\">\r\n\t\t  <div class=\"col-sm-6 col-md-5 col-lg-4\">\r\n\t\t    <details class=\"brdr-0\">\r\n\t\t\t<summary class=\"btn btn-default text-center\" onclick=\"getAntiSpamSeq('/fra/mail-handler/?anti-spam-sequence=true')\">Signaler un probl\u00e8me sur cette page</summary>\r\n\t\t\t<div class=\"well row\">\r\n\t\t\t  <div class=\"gc-rprt-prblm\">\r\n\t\t\t    <div class=\"gc-rprt-prblm-frm gc-rprt-prblm-tggl\">\r\n\t\t\t\t   <form id=\"report_a_problem_form\" action=\"/fra/mail-handler/\" method=\"post\">\r\n\t            \t <input type=\"hidden\" name=\"lang\" value=\"fra\">\r\n\t            \t <input type=\"hidden\" name=\"pageId\" value=\"1410072148284\">\r\n\t            \t <input type=\"hidden\" name=\"pageUrl\" value=\"http://agr.gc.ca/fra/commerce-international/service-des-delegues-commerciaux-du-secteur-agroalimentaire/?id=1410072148284\">\r\n\t\t\t\t\t <div id=\"report_a_problem_form_error\"></div>\r\n\t\t             <fieldset>\t\t\t\t\t    \r\n\t\t                <legend><span class=\"field-name\">Veuillez cocher toutes les r\u00e9ponses pertinentes\u00a0:</span></legend>\r\n\t\t                 <div class=\"checkbox\">\r\n\t\t                    <label for=\"problem1\"><input name=\"problem1\" id=\"problem1\" type=\"checkbox\" value=\"Yes\">Un lien, un bouton ou une vid\u00e9o ne fonctionne pas</label>\r\n\t\t                    <input name=\"problem1\" type=\"hidden\" value=\"No\">\r\n\t\t                </div>\r\n\t\t                <div class=\"checkbox\">\r\n\t\t                    <label for=\"problem2\"><input name=\"problem2\" id=\"problem2\" type=\"checkbox\" value=\"Yes\">Il y a une erreur d'orthographe ou de grammaire</label>\r\n\t\t                    <input name=\"problem2\" type=\"hidden\" value=\"No\">\r\n\t\t                </div>\r\n\t\t   \t\t\t\t <div class=\"checkbox\">\r\n\t\t                    <label for=\"problem3\"><input name=\"problem3\" id=\"problem3\" type=\"checkbox\" value=\"Yes\">Les renseignements sont incomplets</label>\r\n\t\t                    <input name=\"problem3\" type=\"hidden\" value=\"No\">\r\n\t\t                </div>\r\n\t\t             \t\t<div class=\"checkbox\">\r\n\t\t                    <label for=\"problem4\"><input name=\"problem4\" id=\"problem4\" type=\"checkbox\" value=\"Yes\">L'information n'est plus \u00e0 jour ou est erron\u00e9e</label>\r\n\t\t                    <input name=\"problem4\" type=\"hidden\" value=\"No\">\r\n\t\t                </div>\t\t\t\t\t\t\r\n\t\t\t\t\t\t<div class=\"checkbox\">\r\n\t\t\t\t\t\t\t<label for=\"problem5\"><input name=\"problem5\" id=\"problem5\" type=\"checkbox\" value=\"Yes\">Message d'erreur \u00e0 l'ouverture de la session lorsque je tente d'acc\u00e9der \u00e0 un compte (ex. Mon dossier Service Canada)</label>\r\n\t\t\t\t\t\t\t<input name=\"problem5\" type=\"hidden\" value=\"No\">\r\n\t\t\t\t\t\t</div>\r\n\t\t\t\t\t\t\t<ul>\r\n\t\t\t\t\t\t\t<li class=\"checkbox\">\r\n\t\t\t\t\t\t\t\t<label for=\"problem6a\"><input name=\"problem6\" id=\"problem6a\" type=\"checkbox\" value=\"Yes\">Acc\u00e8s Cl\u00e9GC</label>\r\n\t\t\t\t\t\t\t\t<input name=\"problem6\" type=\"hidden\" value=\"No\">\r\n\t\t\t\t\t\t\t </li>\r\n\t\t\t\t\t\t\t<li class=\"checkbox\">\r\n\t\t\t\t\t\t\t\t<label for=\"problem7\"><input name=\"problem7\" id=\"problem7\" type=\"checkbox\" value=\"Yes\">Acc\u00e8s SecureKey Service de Concierge (justificatifs d'identit\u00e9 bancaires)</label>\r\n\t\t\t\t\t\t\t\t<input name=\"problem7\" type=\"hidden\" value=\"No\">\r\n\t\t\t\t\t\t\t </li>\r\n\t\t\t\t\t\t\t<li class=\"checkbox\">\r\n\t\t\t\t\t\t\t\t<label for=\"problem8\"><input name=\"problem8\" id=\"problem8\" type=\"checkbox\" value=\"Yes\">Probl\u00e8me avec le Code d'acc\u00e8s personnel (CAP) ou avec le Code d'acc\u00e8s (CA) de l'assurance emploi</label>\r\n\t\t\t\t\t\t\t\t<input name=\"problem8\" type=\"hidden\" value=\"No\">\r\n\t\t\t\t\t\t\t </li>\t\r\n\t\t\t\t\t\t\t<li class=\"checkbox\">\r\n\t\t\t\t\t\t\t\t<label for=\"problem9\"><input name=\"problem9\" id=\"problem9\" type=\"checkbox\" value=\"Yes\">Probl\u00e8me li\u00e9 \u00e0 la validation du num\u00e9ro d'assurance sociale (NAS)</label>\r\n\t\t\t\t\t\t\t\t<input name=\"problem9\" type=\"hidden\" value=\"No\">\r\n\t\t\t\t\t\t\t </li>\t\t\t\t\t\t\t\t\r\n\t\t\t\t\t\t\t<li class=\"checkbox\">\r\n\t\t\t\t\t\t\t\t<label for=\"problem10\"><input name=\"problem10\" id=\"problem10\" type=\"checkbox\" value=\"Yes\">Autre erreur lors de l'ouverture de session qui ne figure pas sur cette liste</label>\r\n\t\t\t\t\t\t\t\t<input name=\"problem10\" type=\"hidden\" value=\"No\">\r\n\t\t\t\t\t\t\t </li>\t\t \r\n\t\t\t\t\t\t\t </ul>\r\n\t\t\t\t\t\t<div class=\"checkbox\">\r\n\t\t\t\t\t\t\t<label for=\"problem11\"><input name=\"problem11\" id=\"problem11\" type=\"checkbox\" value=\"Yes\">Je n'arrive pas \u00e0 trouver ce que je cherche</label>\r\n\t\t\t\t\t\t\t<input name=\"problem11\" type=\"hidden\" value=\"No\">\r\n\t\t\t\t\t\t</div>\r\n\t\t\t\t\t\t<div class=\"checkbox\">\r\n\t\t\t\t\t\t\t<label for=\"problem12\"><input name=\"problem12\" id=\"problem12\" type=\"checkbox\" value=\"Yes\">Autre probl\u00e8me qui ne figure pas sur cette liste</label>\r\n\t\t\t\t\t\t\t<input name=\"problem12\" type=\"hidden\" value=\"No\">\r\n\t\t\t\t\t\t</div>\t\t\t\t\t\t\t\t\t\t\t\t\t\t\t\t\t\t\t\r\n\t\t             </fieldset>\r\n\t\t\t\t\t <div>\r\n\t\t\t\t        <label for=\"aafc_ranstr\"><span id=\"fbch\">Veuillez inscrire les caract\u00e8res suivants  <strong class=\"required\">(obligatoire)</strong>\u00a0: </span><span id=\"ranstr\">XXX</span></label>\r\n\t\t\t            <input name=\"anti-spam-sequence\" id=\"aafc_ranstr\" size=\"4\" maxlength=\"3\" type=\"text\">\r\n\t\t\t\t\t </div>\r\n\t\t\t\t\t <input type=\"submit\" class=\"btn btn-primary\" value=\"Soumettre\">\r\n\t\t\t\t  </form>\r\n\t\t\t\t</div>\r\n\t\t\t  </div>\r\n\t\t\t</div>\r\n\t\t</details>\r\n\t    </div>\r\n\t  <div class=\"wb-share col-sm-4 col-md-3 col-sm-offset-2 col-md-offset-4 col-lg-offset-5\" data-wb-share='{\"lnkClass\": \"btn btn-default btn-block\"}'></div>\r\n\t  </div>\r\n\t  <dl id=\"wb-dtmd\">\r\n\t    <dt>Date de modification\u00a0: </dt>\r\n\t      <dd><time property=\"dateModified\">2021-01-26</time></dd>\r\n\t  </dl>\r\n\t</div>\r\n\t\r\n  "
    }
}