{
    "dcr_id": "1535154033167",
    "title": {
        "en": "Pesticide risk reduction strategies",
        "fr": "Strat\u00e9gies de r\u00e9duction des risques li\u00e9s aux pesticides"
    },
    "modified": "2018-11-07",
    "issued": "2018-10-12",
    "templatetype": "content page 1 column",
    "page_type": "1",
    "node_id": "1535393199176",
    "dc_date_created": "2018-10-12",
    "managing_branch": "PAB",
    "parent_node_id": "1535122288495",
    "label": {
        "en": "Pesticide risk reduction strategies",
        "fr": "Strat\u00e9gies de r\u00e9duction des risques li\u00e9s aux pesticides"
    },
    "exturl": "",
    "teamsite_location": {
        "en": "/default/main/AAFC-AAC/Internet-Internet/Group-Ensemble/ProgServ-ProgServ/WORKAREA/ProgServ-ProgServ/templatedata/comm-comm/gene-gene/data/08/pesticide_risk_reduction_strategies_1535154033167_en",
        "fr": "/default/main/AAFC-AAC/Internet-Internet/Group-Ensemble/ProgServ-ProgServ/WORKAREA/ProgServ-ProgServ/templatedata/comm-comm/gene-gene/data/08/pesticide_risk_reduction_strategies_1535154033167_fr"
    },
    "type_name": "sitemapinit",
    "has_dcr_id": true,
    "breadcrumb": {
        "en": "Pesticide risk reduction strategies",
        "fr": "Strat\u00e9gies de r\u00e9duction des risques li\u00e9s aux pesticides"
    },
    "layout_name": "content page 1 column",
    "lang": "en",
    "meta": {
        "issued": {
            "en": "2018-10-12",
            "fr": "2018-10-12"
        },
        "modified": {
            "en": "2018-11-07",
            "fr": "2018-11-07"
        },
        "format": {
            "en": "text/html",
            "fr": "text/html"
        },
        "title": {
            "en": "Pesticide risk reduction strategies",
            "fr": "Strat\u00e9gies de r\u00e9duction des risques li\u00e9s aux pesticides"
        },
        "subject": {
            "en": "architectural heritage;architecture;statistics",
            "fr": "exportation;grain;m\u00e9dicament"
        },
        "description": {
            "en": "PRR-RRP Pesticide Risk Reduction Program pesticide_risk_reduction_strategies Pesticide risk reduction strategies. White mould disease in field crops. Fruit. Apple scab. Soil fumigant alternatives for soil borne pests. White mould disease in vegetable productions.",
            "fr": "PRR-RRP Programme de r\u00e9duction des risques li\u00e9s aux pesticides Strat\u00e9gies de r\u00e9duction des risques li\u00e9s aux pesticides. Fruit. Feu bact\u00e9rien de la pomme et de la poire. Ver fil-de-fer dans les culture de pommes de terre."
        },
        "language": {
            "en": "eng",
            "fr": "fra"
        },
        "keywords": {
            "en": "averages.Participation",
            "fr": "Blazer;Br\u00fblure"
        },
        "audience": {
            "en": "gcaudience",
            "fr": "gcaudience"
        },
        "type": {
            "en": "geospatial material",
            "fr": "avis"
        },
        "creator": {
            "en": "Agriculture and Agri-Food Canada;Government of Canada",
            "fr": "Agriculture et Agroalimentaire Canada;Gouvernement du Canada"
        },
        "spatial": {
            "en": "gcregions",
            "fr": "gcregions"
        },
        "service": {
            "en": "AAFC-AAC",
            "fr": "AAFC-AAC"
        },
        "accessRights": {
            "en": "2",
            "fr": "2"
        },
        "legalName": {
            "en": "agriculture_and_agri_food_canada",
            "fr": "agriculture_et_agroalimentaire_canada"
        },
        "areaServed": {
            "en": "Canada",
            "fr": "Canada"
        }
    },
    "body": {
        "en": "tart --&gt;\r\n    <!-- D&eacute;but du contenu -->\r\n     \n \n<p>A pesticide risk reduction strategy is a statement of risk reduction goals, and a detailed plan to achieving these goals to reduce risks to the environment associated with pesticide use in a specific crop pest management priority. \n<a href=\"?id=1288277891464\">Pesticide Risk Reduction</a> strategy coordinators at the <a href=\"?id=1466083437376\">Pest Management Centre</a> work with stakeholders to develop and implement pesticide risk reduction strategies, and then report on progress and outcomes of these strategies.</p>\n\n<ul>\n<li><a href=\"?id=1535408142996\">What is a pesticide risk reduction strategy?</a></li>\n<li><a href=\"?id=1535408578013\">Strategy development and implementation</a></li>\n</ul>\n\n \n<h2>Field crop</h2>\n\n<ul>\n<li><a href=\"?id=1535411664979\">Chickpea ascochyta blight</a></li>\n<li><a href=\"?id=1535411095238\">Fusarium head blight in wheat</a>\n</li>\n<li><a href=\"?id=1535410509296\">Grasshopper in field crops</a></li>\n<li><a href=\"?id=1535412695360\">Foliar insect pests of prairie field crops</a></li>\n<li><a href=\"?id=1535413607697\">White mould disease</a> in field crops</li>\n</ul>\n\n<h2>Fruit</h2>\n\n<ul>\n<li><a href=\"?id=1535412131432\">Apple scab</a></li>\n<li><a href=\"?id=1535412401300\">Apple and pear fire blight</a></li>\n<li><a href=\"?id=1535410025736\">Insect pests of berry crops</a></li>\n<li><a href=\"?id=1535414450267\">Insect pests of pome fruit</a></li>\n</ul>\n\n<h2>Ornamental</h2>\n<ul>\n<li><a href=\"?id=1535413380099\">Greenhouse floriculture</a></li>\n<li>Insect pests of outdoor nursery ornamentals</li>\n</ul>\n\n<h2>Vegetable</h2>\n\n<ul>\n<li><a href=\"?id=1535411322953\">Downy mildew in cucumber</a></li>\n<li><a href=\"?id=1535492374874\">Cabbage maggot in brassica crops</a></li>\n<li><a href=\"?id=1535490930516\">Integrated weed management in field vegetables</a></li>\n<li><a href=\"?id=1535489786665\">Root insect pests of carrot, parsnip and onion</a></li>\n<li><a href=\"?id=1535492165520\">Soil fumigant alternatives for soil borne pests: ginseng replant disease</a></li>\n<li><a href=\"?id=1535413607697\">White mould disease</a> in vegetable productions</li>\n<li><a href=\"?id=1535489338028\">Wireworm in potato</a></li>\n</ul>\n\n<p>For more information on any of the above listed strategies, please contact the <a href=\"?id=1466083437376\">Pest Management Centre</a>.</p>\n\r\n    <!-- Fin du contenu -->\r\n  \r\n  <div class=\"pagedetails\" id=\"pgft\">\r\n    <div class=\"row\">\r\n\t  <div class=\"col-sm-6 col-md-5 col-lg-4\">\r\n\t    <details class=\"brdr-0\">\r\n\t\t<summary class=\"btn btn-default text-center\" onclick=\"getAntiSpamSeq('/eng/mail-handler/?anti-spam-sequence=true')\">Report a problem on this page</summary>\r\n\t\t<div class=\"clearfix\"></div>\r\n\t\t<div class=\"well row\">\r\n\t\t<div>\r\n\t\t  <div class=\"gc-rprt-prblm\">\r\n\t\t    <div class=\"gc-rprt-prblm-frm gc-rprt-prblm-tggl\">\r\n\t\t\t  \r\n\t\t\t<form id=\"report_a_problem_form\" action=\"/eng/mail-handler/#report_a_problem_form\" method=\"post\">\t\t\t\t   \t\t\t\r\n\r\n\t            \t <input type=\"hidden\" name=\"lang\" value=\"eng\">\r\n\t            \t <input type=\"hidden\" name=\"pageId\" value=\"1535154033167\">\r\n\t            \t <input type=\"hidden\" name=\"pageUrl\" value=\"http://www.agr.gc.ca/eng/scientific-collaboration-and-research-in-agriculture/agriculture-and-agri-food-research-centres-and-collections/ontario/pest-management-centre/pesticide-risk-reduction-at-the-pest-management-centre/pesticide-risk-reduction-strategies/?id=1535154033167\">\r\n\t\t\t\t\t <div id=\"report_a_problem_form_error\"></div>\r\n\t\t             <fieldset>\t\t\t\t\t    \r\n\t\t                <legend><span class=\"field-name\">Please select all that apply:</span></legend>\t\t                                 \r\n\t\t\t\t\t\t<div class=\"checkbox\">\r\n\t\t\t\t\t\t\t<label for=\"problem1\"><input name=\"problem1\" id=\"problem1\" type=\"checkbox\" value=\"Yes\">A link, button or video is not working</label>\r\n\t\t\t\t\t\t\t<input name=\"problem1\" type=\"hidden\" value=\"No\">\r\n\t\t\t\t\t\t</div>\r\n\t\t\t\t\t\t<div class=\"checkbox\">\r\n\t\t\t\t\t\t\t<label for=\"problem2\"><input name=\"problem2\" id=\"problem2\" type=\"checkbox\" value=\"Yes\">It has a spelling mistake</label>\r\n\t\t\t\t\t\t\t<input name=\"problem2\" type=\"hidden\" value=\"No\">\r\n\t\t\t\t\t\t</div>\r\n\t\t\t\t\t\t<div class=\"checkbox\">\r\n\t\t\t\t\t\t\t<label for=\"problem3\"><input name=\"problem3\" id=\"problem3\" type=\"checkbox\" value=\"Yes\">Information is missing</label>\r\n\t\t\t\t\t\t\t<input name=\"problem3\" type=\"hidden\" value=\"No\">\r\n\t\t\t\t\t   </div>\r\n\t\t\t\t\t\t<div class=\"checkbox\">\r\n\t\t\t\t\t\t\t<label for=\"problem4\"><input name=\"problem4\" id=\"problem4\" type=\"checkbox\" value=\"Yes\">Information is outdated or wrong</label>\r\n\t\t\t\t\t\t\t<input name=\"problem4\" type=\"hidden\" value=\"No\">\r\n\t\t\t\t\t\t</div>\r\n\t\t\t\t\t\t<div class=\"checkbox\">\r\n\t\t\t\t\t\t\t<label for=\"problem5\"><input name=\"problem5\" id=\"problem5\" type=\"checkbox\" value=\"Yes\">Login error when trying to access an account (e.g. My Service Canada Account)</label>\r\n\t\t\t\t\t\t\t<input name=\"problem5\" type=\"hidden\" value=\"No\">\r\n\t\t\t\t\t\t</div>\r\n\t\t\t\t\t\t\t<ul>\r\n\t\t\t\t\t\t\t<li class=\"checkbox\">\r\n\t\t\t\t\t\t\t\t<label for=\"problem6a\"><input name=\"problem6\" id=\"problem6a\" type=\"checkbox\" value=\"Yes\">GC Key access</label>\r\n\t\t\t\t\t\t\t\t<input name=\"problem6\" type=\"hidden\" value=\"No\">\r\n\t\t\t\t\t\t\t </li>\r\n\t\t\t\t\t\t\t<li class=\"checkbox\">\r\n\t\t\t\t\t\t\t\t<label for=\"problem7\"><input name=\"problem7\" id=\"problem7\" type=\"checkbox\" value=\"Yes\">SecureKey Concierge (Banking Credential) access </label>\r\n\t\t\t\t\t\t\t\t<input name=\"problem7\" type=\"hidden\" value=\"No\">\r\n\t\t\t\t\t\t\t </li>\r\n\t\t\t\t\t\t\t<li class=\"checkbox\">\r\n\t\t\t\t\t\t\t\t<label for=\"problem8\"><input name=\"problem8\" id=\"problem8\" type=\"checkbox\" value=\"Yes\">Personal Access Code (PAC) problems or EI Access Code (AC) problems</label>\r\n\t\t\t\t\t\t\t\t<input name=\"problem8\" type=\"hidden\" value=\"No\">\r\n\t\t\t\t\t\t\t </li>\t\r\n\t\t\t\t\t\t\t<li class=\"checkbox\">\r\n\t\t\t\t\t\t\t\t<label for=\"problem9\"><input name=\"problem9\" id=\"problem9\" type=\"checkbox\" value=\"Yes\">Social Insurance Number (SIN) validation problems</label>\r\n\t\t\t\t\t\t\t\t<input name=\"problem9\" type=\"hidden\" value=\"No\">\r\n\t\t\t\t\t\t\t </li>\t\t\t\t\t\t\t\t\r\n\t\t\t\t\t\t\t<li class=\"checkbox\">\r\n\t\t\t\t\t\t\t\t<label for=\"problem10\"><input name=\"problem10\" id=\"problem10\" type=\"checkbox\" value=\"Yes\">Other login error not in this list</label>\r\n\t\t\t\t\t\t\t\t<input name=\"problem10\" type=\"hidden\" value=\"No\">\r\n\t\t\t\t\t\t\t </li>\t\t \r\n\t\t\t\t\t\t\t </ul>\r\n\t\t\t\t\t\t<div class=\"checkbox\">\r\n\t\t\t\t\t\t\t<label for=\"problem11\"><input name=\"problem11\" id=\"problem11\" type=\"checkbox\" value=\"Yes\">I can't find what I'm looking for</label>\r\n\t\t\t\t\t\t\t<input name=\"problem11\" type=\"hidden\" value=\"No\">\r\n\t\t\t\t\t\t</div>\r\n\t\t\t\t\t\t<div class=\"checkbox\">\r\n\t\t\t\t\t\t\t<label for=\"problem12\"><input name=\"problem12\" id=\"problem12\" type=\"checkbox\" value=\"Yes\">Other issue not in this list</label>\r\n\t\t\t\t\t\t\t<input name=\"problem12\" type=\"hidden\" value=\"No\">\r\n\t\t\t\t\t\t</div>\t\t\t\t\t\t \t\t\t\t\t\t\t\t\t\t\t\t \r\n\t\t             </fieldset>\r\n\t\t\t\t\t <div>\r\n\t\t\t\t\t   <label for=\"aafc_ranstr\"><span id=\"fbch\"><br>Enter these characters <strong class=\"required\">(required)</strong>: </span><span id=\"ranstr\">U5S</span></label>\r\n\t\t\t           <input name=\"anti-spam-sequence\" id=\"aafc_ranstr\" size=\"4\" maxlength=\"3\" type=\"text\">\r\n\t\t\t\t\t </div>\t\r\n\r\n\t\t\t\t\t <br><input type=\"submit\" class=\"btn btn-primary\" value=\"Submit\">\r\n\t\t\t\t  </form>\r\n\t\t\t\t</div>\r\n\t\t\t</div>\t\t\t\r\n\t\t  </div>\r\n\t\t</div>\r\n\t\t</details>\r\n\t  </div>\r\n\t  <div class=\"wb-share col-sm-4 col-md-3 col-sm-offset-2 col-md-offset-4 col-lg-offset-5\" data-wb-share='{\"lnkClass\": \"btn btn-default btn-block\"}'></div>\r\n\t</div>\r\n\t<dl id=\"wb-dtmd\">\r\n\t  <dt>Date modified: </dt>\r\n\t  <dd><time property=\"dateModified\">2018-11-07</time></dd></dl></div>",
        "fr": "\r\n    \r\n    <!-- MainContentStart -->\r\n    <!-- D&eacute;but du contenu -->\r\n    <p>Une strat\u00e9gie de r\u00e9duction des risques li\u00e9s aux pesticides permet d\u2019\u00e9noncer des objectifs de r\u00e9duction des risques pour l\u2019environnement li\u00e9s \u00e0 l\u2019utilisation des pesticides afin de r\u00e9soudre des probl\u00e8mes prioritaires particuliers concernant les ennemis des cultures. Les coordonnateurs de la strat\u00e9gie de <a href=\"?id=1288277891464\">r\u00e9duction des risques li\u00e9s aux pesticides</a> du <a href=\"?id=1466083437376\">Centre de la lutte antiparasitaire</a>  travaillent de concert avec les intervenants \u00e0 l\u2019\u00e9laboration et \u00e0 la mise en \u0153uvre de telles strat\u00e9gies et font rapport sur les progr\u00e8s et les r\u00e9sultats de celles-ci.</p>\n\n<ul class=\"mrgn-bttm-lg\">\n<li><a href=\"?id=1535408142996\">Qu'est-ce qu'une strat\u00e9gie de r\u00e9duction des risques li\u00e9s aux pesticides?</a></li>\n<li><a href=\"?id=1535408578013\">\u00c9laboration et mise en \u0153uvre des strat\u00e9gies</a></li>\n</ul>\n\n<h2>Cultures de champ</h2>\n<ul>\n<li><a href=\"?id=1535411664979\">Ascochytose du pois chiche</a></li>\n<li><a href=\"?id=1535411095238\">Br\u00fblure de l'\u00e9pi caus\u00e9e par le fusarium dans les cultures de bl\u00e9</a></li>\n\n<li><a href=\"?id=1535412695360\">Les insectes ravageurs des feuilles des grandes cultures dans les Prairies</a></li>\n\n<li><a href=\"?id=1535413607697\">Moisissure blanche</a> dans les cultures de grande production</li>\n<li><a href=\"?id=1535410509296\">Sauterelles dans les grandes cultures</a></li>\n</ul>\n\n<h2>Fruit</h2>\n<ul>\n<li><a href=\"?id=1535412401300\">Feu bact\u00e9rien de la pomme et de la poire</a></li>\n<li><a href=\"?id=1535414450267\">Les insectes nuisibles dans les vergers de fruits \u00e0 p\u00e9pins</a></li>\n<li><a href=\"?id=1535410025736\">Insectes nuisibles des petits fruits</a></li>\n<li><a href=\"?id=1535412131432\">Tavelure du pommier</a></li>\n</ul>\n\n<h2>L\u00e9gume</h2>\n\n<ul>\n<li><a href=\"?id=1535490930516\">La lutte int\u00e9gr\u00e9e contre les mauvaises herbes dans la production l\u00e9gumi\u00e8re</a></li>\n\n<li><a href=\"?id=1535489786665\">Insectes ravageurs des racines de la carotte, panais et oignons</a></li>\n\n<li><a href=\"?id=1535411322953\">Mildiou du concombre</a></li>\n\n<li><a href=\"?id=1535413607697\">Moisissure blanche</a> dans les cultures dans les productions l\u00e9gumi\u00e8res</li>\n\n<li><a href=\"?id=1535492374874\">Mouche du chou dans la production de crucif\u00e8res</a></li>\n<li><a href=\"?id=1535489338028\">Ver fil-de-fer dans les culture de pommes de terre</a></li>\n<li><a href=\"?id=1535492165520\">Solutions de rechange aux fumigants de sol contre les ravageurs terricoles : maladie de la replantation du ginseng</a></li>\n</ul>\n\n<h2>Plante Ornementale</h2>\n<ul>\n<li><a href=\"?id=1535413380099\">Floriculture en serre</a>\n</li>\n<li>Insectes nuisibles des plantes ornementales cultiv\u00e9es en p\u00e9pini\u00e8re ext\u00e9rieure</li>\n</ul>\n\n<p>Pour de plus amples renseignements, veuillez communiquer avec le <a href=\"?id=1466083437376\">Centre de la lutte antiparasitaire</a>.</p>\n\r\n    <!-- Fin du contenu -->\r\n\t\r\n\t<div class=\"pagedetails\" id=\"pgft\">\r\n\t\t<div class=\"row\">\r\n\t\t  <div class=\"col-sm-6 col-md-5 col-lg-4\">\r\n\t\t    <details class=\"brdr-0\">\r\n\t\t\t<summary class=\"btn btn-default text-center\" onclick=\"getAntiSpamSeq('/fra/mail-handler/?anti-spam-sequence=true')\">Signaler un probl\u00e8me sur cette page</summary>\r\n\t\t\t<div class=\"well row\">\r\n\t\t\t  <div class=\"gc-rprt-prblm\">\r\n\t\t\t    <div class=\"gc-rprt-prblm-frm gc-rprt-prblm-tggl\">\r\n\t\t\t\t   <form id=\"report_a_problem_form\" action=\"/fra/mail-handler/\" method=\"post\">\r\n\t            \t <input type=\"hidden\" name=\"lang\" value=\"fra\">\r\n\t            \t <input type=\"hidden\" name=\"pageId\" value=\"1535154033167\">\r\n\t            \t <input type=\"hidden\" name=\"pageUrl\" value=\"http://www.agr.gc.ca/fra/collaboration-scientifique-en-agriculture/centres-de-recherche-et-collections-sur-l-agriculture-et-l-agroalimentaire/ontario/centre-de-la-lutte-antiparasitaire/la-reduction-des-risques-lies-aux-pesticides-au-centre-de-la-lutte-antiparasitaire/strategies-de-reduction-des-risques-lies-aux-pesticides/?id=1535154033167\">\r\n\t\t\t\t\t <div id=\"report_a_problem_form_error\"></div>\r\n\t\t             <fieldset>\t\t\t\t\t    \r\n\t\t                <legend><span class=\"field-name\">Veuillez cocher toutes les r\u00e9ponses pertinentes\u00a0:</span></legend>\r\n\t\t                 <div class=\"checkbox\">\r\n\t\t                    <label for=\"problem1\"><input name=\"problem1\" id=\"problem1\" type=\"checkbox\" value=\"Yes\">Un lien, un bouton ou une vid\u00e9o ne fonctionne pas</label>\r\n\t\t                    <input name=\"problem1\" type=\"hidden\" value=\"No\">\r\n\t\t                </div>\r\n\t\t                <div class=\"checkbox\">\r\n\t\t                    <label for=\"problem2\"><input name=\"problem2\" id=\"problem2\" type=\"checkbox\" value=\"Yes\">Il y a une erreur d'orthographe ou de grammaire</label>\r\n\t\t                    <input name=\"problem2\" type=\"hidden\" value=\"No\">\r\n\t\t                </div>\r\n\t\t   \t\t\t\t <div class=\"checkbox\">\r\n\t\t                    <label for=\"problem3\"><input name=\"problem3\" id=\"problem3\" type=\"checkbox\" value=\"Yes\">Les renseignements sont incomplets</label>\r\n\t\t                    <input name=\"problem3\" type=\"hidden\" value=\"No\">\r\n\t\t                </div>\r\n\t\t             \t\t<div class=\"checkbox\">\r\n\t\t                    <label for=\"problem4\"><input name=\"problem4\" id=\"problem4\" type=\"checkbox\" value=\"Yes\">L'information n'est plus \u00e0 jour ou est erron\u00e9e</label>\r\n\t\t                    <input name=\"problem4\" type=\"hidden\" value=\"No\">\r\n\t\t                </div>\t\t\t\t\t\t\r\n\t\t\t\t\t\t<div class=\"checkbox\">\r\n\t\t\t\t\t\t\t<label for=\"problem5\"><input name=\"problem5\" id=\"problem5\" type=\"checkbox\" value=\"Yes\">Message d'erreur \u00e0 l'ouverture de la session lorsque je tente d'acc\u00e9der \u00e0 un compte (ex. Mon dossier Service Canada)</label>\r\n\t\t\t\t\t\t\t<input name=\"problem5\" type=\"hidden\" value=\"No\">\r\n\t\t\t\t\t\t</div>\r\n\t\t\t\t\t\t\t<ul>\r\n\t\t\t\t\t\t\t<li class=\"checkbox\">\r\n\t\t\t\t\t\t\t\t<label for=\"problem6a\"><input name=\"problem6\" id=\"problem6a\" type=\"checkbox\" value=\"Yes\">Acc\u00e8s Cl\u00e9GC</label>\r\n\t\t\t\t\t\t\t\t<input name=\"problem6\" type=\"hidden\" value=\"No\">\r\n\t\t\t\t\t\t\t </li>\r\n\t\t\t\t\t\t\t<li class=\"checkbox\">\r\n\t\t\t\t\t\t\t\t<label for=\"problem7\"><input name=\"problem7\" id=\"problem7\" type=\"checkbox\" value=\"Yes\">Acc\u00e8s SecureKey Service de Concierge (justificatifs d'identit\u00e9 bancaires)</label>\r\n\t\t\t\t\t\t\t\t<input name=\"problem7\" type=\"hidden\" value=\"No\">\r\n\t\t\t\t\t\t\t </li>\r\n\t\t\t\t\t\t\t<li class=\"checkbox\">\r\n\t\t\t\t\t\t\t\t<label for=\"problem8\"><input name=\"problem8\" id=\"problem8\" type=\"checkbox\" value=\"Yes\">Probl\u00e8me avec le Code d'acc\u00e8s personnel (CAP) ou avec le Code d'acc\u00e8s (CA) de l'assurance emploi</label>\r\n\t\t\t\t\t\t\t\t<input name=\"problem8\" type=\"hidden\" value=\"No\">\r\n\t\t\t\t\t\t\t </li>\t\r\n\t\t\t\t\t\t\t<li class=\"checkbox\">\r\n\t\t\t\t\t\t\t\t<label for=\"problem9\"><input name=\"problem9\" id=\"problem9\" type=\"checkbox\" value=\"Yes\">Probl\u00e8me li\u00e9 \u00e0 la validation du num\u00e9ro d'assurance sociale (NAS)</label>\r\n\t\t\t\t\t\t\t\t<input name=\"problem9\" type=\"hidden\" value=\"No\">\r\n\t\t\t\t\t\t\t </li>\t\t\t\t\t\t\t\t\r\n\t\t\t\t\t\t\t<li class=\"checkbox\">\r\n\t\t\t\t\t\t\t\t<label for=\"problem10\"><input name=\"problem10\" id=\"problem10\" type=\"checkbox\" value=\"Yes\">Autre erreur lors de l'ouverture de session qui ne figure pas sur cette liste</label>\r\n\t\t\t\t\t\t\t\t<input name=\"problem10\" type=\"hidden\" value=\"No\">\r\n\t\t\t\t\t\t\t </li>\t\t \r\n\t\t\t\t\t\t\t </ul>\r\n\t\t\t\t\t\t<div class=\"checkbox\">\r\n\t\t\t\t\t\t\t<label for=\"problem11\"><input name=\"problem11\" id=\"problem11\" type=\"checkbox\" value=\"Yes\">Je n'arrive pas \u00e0 trouver ce que je cherche</label>\r\n\t\t\t\t\t\t\t<input name=\"problem11\" type=\"hidden\" value=\"No\">\r\n\t\t\t\t\t\t</div>\r\n\t\t\t\t\t\t<div class=\"checkbox\">\r\n\t\t\t\t\t\t\t<label for=\"problem12\"><input name=\"problem12\" id=\"problem12\" type=\"checkbox\" value=\"Yes\">Autre probl\u00e8me qui ne figure pas sur cette liste</label>\r\n\t\t\t\t\t\t\t<input name=\"problem12\" type=\"hidden\" value=\"No\">\r\n\t\t\t\t\t\t</div>\t\t\t\t\t\t\t\t\t\t\t\t\t\t\t\t\t\t\t\r\n\t\t             </fieldset>\r\n\t\t\t\t\t <div>\r\n\t\t\t\t        <label for=\"aafc_ranstr\"><span id=\"fbch\">Veuillez inscrire les caract\u00e8res suivants  <strong class=\"required\">(obligatoire)</strong>\u00a0: </span><span id=\"ranstr\">XXX</span></label>\r\n\t\t\t            <input name=\"anti-spam-sequence\" id=\"aafc_ranstr\" size=\"4\" maxlength=\"3\" type=\"text\">\r\n\t\t\t\t\t </div>\r\n\t\t\t\t\t <input type=\"submit\" class=\"btn btn-primary\" value=\"Soumettre\">\r\n\t\t\t\t  </form>\r\n\t\t\t\t</div>\r\n\t\t\t  </div>\r\n\t\t\t</div>\r\n\t\t</details>\r\n\t    </div>\r\n\t  <div class=\"wb-share col-sm-4 col-md-3 col-sm-offset-2 col-md-offset-4 col-lg-offset-5\" data-wb-share='{\"lnkClass\": \"btn btn-default btn-block\"}'></div>\r\n\t  </div>\r\n\t  <dl id=\"wb-dtmd\">\r\n\t    <dt>Date de modification\u00a0: </dt>\r\n\t      <dd><time property=\"dateModified\">2018-11-07</time></dd>\r\n\t  </dl>\r\n\t</div>\r\n\t\r\n  "
    }
}