{
    "dcr_id": "1541775183356",
    "title": {
        "en": "Extreme Weather Indices",
        "fr": "Indices de conditions m\u00e9t\u00e9orologiques extr\u00eames"
    },
    "modified": "2020-09-29",
    "issued": "2019-04-08",
    "templatetype": "content page 1 column",
    "page_type": "1",
    "node_id": "1554729464654",
    "dc_date_created": "2019-04-08",
    "managing_branch": "PAB",
    "parent_node_id": "1463686976184",
    "label": {
        "en": "Extreme Weather Indices",
        "fr": "Indices de ph\u00e9nom\u00e8nes m\u00e9t\u00e9orologiques extr\u00eames "
    },
    "exturl": "",
    "teamsite_location": {
        "en": "/default/main/AAFC-AAC/Internet-Internet/Common-Commun/WORKAREA/Common-Commun/templatedata/comm-comm/gene-gene/data/11/extreme_weather_indices_1541775183356_en",
        "fr": "/default/main/AAFC-AAC/Internet-Internet/Common-Commun/WORKAREA/Common-Commun/templatedata/comm-comm/gene-gene/data/11/extreme_weather_indices_1541775183356_fr"
    },
    "type_name": "sitemapinit",
    "has_dcr_id": true,
    "breadcrumb": {
        "en": "Extreme Weather Indices",
        "fr": "Indices de ph\u00e9nom\u00e8nes m\u00e9t\u00e9orologiques extr\u00eames "
    },
    "layout_name": "content page 1 column",
    "lang": "en",
    "meta": {
        "issued": {
            "en": "2019-04-08",
            "fr": "2019-04-08"
        },
        "modified": {
            "en": "2020-09-29",
            "fr": "2020-09-29"
        },
        "format": {
            "en": "text/html",
            "fr": "text/html"
        },
        "title": {
            "en": "Extreme Weather Indices",
            "fr": "Indices de conditions m\u00e9t\u00e9orologiques extr\u00eames"
        },
        "subject": {
            "en": "agricultural economics;cooperatives;scientific information",
            "fr": "coop\u00e9rative;commerce ext\u00e9rieur;\u00e9conomie agricole"
        },
        "description": {
            "en": "DW-GS Drought Watch agroclimate_ar2013 2015 Annual Review of Agroclimate Conditions Across Canada. Figure 19: Temperature and precipitation 3-month forecast, February to April, 2016. These conditions prompted an early announcement of the federal livestock tax deferral provision available to producers who were forced to reduce herd sizes due to drought or excess moisture conditions.",
            "fr": "Par\u00a0: Karen Croteau, Kevin Driscoll, Jim Melanson, Christine Vaillancourt, le 25 f\u00e9vrier 2013. 3.2.5 Perception g\u00e9n\u00e9rale des \u00e9l\u00e9ments de proc\u00e9dure. Cette situation s'explique en partie par leur difficult\u00e9 \u00e0 distinguer clairement, d'une part, le r\u00f4le de la Commission \u00e0 titre de tribunal d'appel, et d'autre part, le r\u00f4le des organismes, qui sont responsables de l'application de la r\u00e9glementation."
        },
        "language": {
            "en": "eng",
            "fr": "fra"
        },
        "keywords": {
            "en": null,
            "fr": null
        },
        "audience": {
            "en": "gcaudience",
            "fr": "gcaudience"
        },
        "type": {
            "en": "media release",
            "fr": "foire aux questions"
        },
        "creator": {
            "en": "Agriculture and Agri-Food Canada;Government of Canada",
            "fr": "Agriculture et Agroalimentaire Canada;Gouvernement du Canada"
        },
        "spatial": {
            "en": "gcregions",
            "fr": "gcregions"
        },
        "service": {
            "en": "AAFC-AAC",
            "fr": "AAFC-AAC"
        },
        "accessRights": {
            "en": "2",
            "fr": "2"
        },
        "legalName": {
            "en": "agriculture_and_agri_food_canada",
            "fr": "agriculture_et_agroalimentaire_canada"
        },
        "areaServed": {
            "en": "Canada",
            "fr": "Canada"
        }
    },
    "body": {
        "en": "tart --&gt;\r\n    <!-- D&eacute;but du contenu -->\r\n    <div class=\"alert alert-info\">\n   <p>New Product! Let us know what you think. Send your comments to <a href=\"mailto:aafc.droughtwatch-guetterlasecheresse.aac@canada.ca\">aafc.droughtwatch-guetterlasecheresse.aac@canada.ca</a>.</p>\n</div>\n\n<p>A suite of extreme weather indices has been created to help with agricultural decision-making. The indices are short-term weekly forecasts (for up to a month ahead) that predict risks to agricultural production from extreme weather factors related to temperature, precipitation, heat, and wind. New users may want to start with the Learn About link below. More experienced users may want to go directly to View the Maps and Downlod Data links.</p>\n\n<p>Click on any of the four sections below to:</p>\n\n<ul>\n <li><a href=\"#a1\">Learn about the Extreme Weather Indices</a></li>\n  <li><a href=\"#a10\">View the Extreme Weather Indices and Probability maps</a></li>\n  <li><a href=\"#a12\">View the Map Production Schedule</a></li>\n  <li><a href=\"#a11\">Download the Indices Datasets</a></li> \n</ul>\n\n<!--p><a href=\"#schedule\">Extreme Weather Indices production schedule</a>: See when each forecasted index product is available</p-->\n\n<h2 id=\"a1\" class=\"h3 mrgn-tp-0\">Learn about the Extreme Weather Indices</h2>\n\n<ul class=\"list-unstyled\">\n<li>\n\t\t<details>\n\t\t\t<summary><h3 id=\"a2\" class=\"h4\">Temperature</h3></summary>\n\t\t\t<p>Air temperature is a key factor affecting the development, yield and quality of field crops. How crops respond to temperature is characterized by three cardinal temperature indices which describe the minimum, maximum, and optimum temperatures for plants to start, stop, and advance development.</p>\n\n<p>see <b>Additional Terminology</b> for crop definitions referred to below</p>\n            \n<dl class=\"dl-horizontal\">\n\n<dt>Frost Free Days:</dt> \n<dd><p>The number of days in the forecast period with a minimum temperature above the threshold temperature at which frost damage occurs. This index has widely been used as an estimate for the length of a growing season.</p>\n<p>The threshold temperature is \u22122\u00b0C for <b>cool season crops</b>, and 0\u00b0C for <b>warm season crops</b>.</p></dd>\n\n<dt>Cool Wave Days:</dt> \n<dd><p>The number of days in the forecast period with a minimum temperature below the lowest threshold temperature at which crop growth will begin (cardinal minimum temperature).</p>\n<p>The threshold temperature is 5\u00b0C for <b>cool season crops</b> and 10\u00b0C for <b>warm season crops</b>.</p></dd>\n\n<dt>Heat Wave Days:</dt> \n<dd><p>The number of days in the forecast period with a maximum temperature above the threshold temperature at which crop growth ceases (cardinal maximum temperature).</p>\n<p>The threshold temperature is 30\u00b0C for <b>cool season crops</b>, and 35\u00b0C for <b>warm season crops</b>.</p></dd>\n\n<dt>Ice Freeze Days:</dt> \n<dd><p>The number of days in the forecast period with a minimum threshold temperature below the frost temperature:</p>\n<ul class=\"list-unstyled\">\n\t<li class=\"mrgn-bttm-sm\">The threshold temperature is \u22122\u00b0C for herbaceous/woody crops during the growing season.</li>\n\t<li class=\"mrgn-bttm-sm\">The threshold temperature is \u22125\u00b0C for herbaceous crops and \u221210\u00b0C for woody crops (non-dormant over non-growing season).</li>\n\t<li class=\"mrgn-bttm-sm\">The threshold temperature is \u221215\u00b0C for herbaceous crops and \u221230\u00b0C for woody crops (dormant period).</li>\n</ul></dd>\n\t\t</dl></details>\n\t</li>\n    \n\t<li>\n\t\t<details>\n\t\t\t<summary><h3 id=\"a3\" class=\"h4\">Precipitation</h3></summary>\n\t\t\t<p>Precipitation establishes yield potential and quality of field crops. Both extremely dry and extremely wet conditions have the ability to inhibit proper crop growth. The greatest daily precipitation index covers the risk of excessive precipitation in the short term.</p>\n\n<p><b>Note</b> that when selecting this indicator using the tool below users must also select the minimum precipitation threshold in millimetres for the accompanying probability map</p>\n<dl class=\"dl-horizontal\">\n\n<dt>Greatest 10-day precipitation:</dt>\n<dd>The greatest 10-day precipitation total expected over 10\u00a0days.</dd>\n\n<dt>Greatest daily precipitation:</dt> \n<dd>The greatest daily precipitation over the forecast period.</dd>\n\n<dt>Total precipitation:</dt>\n<dd>The total precipitation over the forecast period.</dd>\n</dl>\n\t\t</details>\n\t</li>\n    \n\t<li>\n\t\t<details>\n\t\t\t<summary><h3 id=\"a4\" class=\"h4\">Heat</h3></summary>\n\t\t\t<p>Cumulative heat-energy is the fuel of crop growth and development and supports high yield and good quality of crop production.</p>\n<dl class=\"dl-horizontal\">\n\n<dt>Effective Growing Degree Days:</dt> \n<dd><p>The accumulated value of heat degrees that the daily average temperature is above a specified threshold temperature. This condition must be maintained for at least 5\u00a0consecutive days in order for effective growing degree days to be accumulated.</p>\n\n<p>The threshold temperature is 5\u00b0C for <b>cool season crops</b>, and 10\u00b0C for <b>warm season crops</b>.</p></dd>\n</dl>\n\t\t</details>\n\t</li>\n    \n\t\t<li>\n\t\t<details>\n\t\t\t<summary><h3 id=\"a5\" class=\"h4\">Wind</h3></summary>\n<p>Winds can significantly influence crop growth and yield mainly due to:  plant damage; greater plant water loss to the atmosphere; and the distribution of pests and diseases in the field. The maximum wind speed and the number of strong wind days over the forecast period represent short term and extended strong wind events respectively.</p>\n\n<p><b>Note</b> that when selecting the maximum wind speed indicator using the tool below users must also select the maximum wind speed in km/hr for the accompanying probability map</p>\n<dl class=\"dl-horizontal\">\n\n<dt>Number of strong wind days:</dt> \n<dd>The number of days during the forecast period with an average wind speed greater than 30\u00a0km/h.</dd>\n\n<dt>Maximum daily wind speed:</dt> \n<dd>The maximum wind speed during the forecast period.</dd>\n\n<dt>Number of Drying Days:</dt> \n<dd>The number of days during the forecast period with an average wind speed greater than 30\u00a0km/h and a maximum temperature above 30\u00b0C.</dd>\n</dl>\n\t\t</details>\t\t\n\t</li>\n    \n\t\t<li>\n\t\t<details>\n\t\t\t<summary><h3 class=\"h4\">Methodology</h3></summary>\n\t\t\t<h3 id=\"a7\" class=\"h5\">Collaboration with Environment and Climate Change Canada (ECCC)</h3>\n<p>Agriculture and Agri-Food Canada (AAFC) and Environment and Climate Change Canada (ECCC) have together developed a suite of extreme weather indices based on four main categories of weather factors significant to agriculture: temperature, precipitation, heat, and wind.  The extreme weather indices are intended as short-term prediction tools and generated using ECCC\u2019s medium range forecasts to create a weekly index product on a daily (week\u00a01 &amp; 2\u00a0products) and weekly (week\u00a03 &amp; 4\u00a0products) basis.</p>\n\n<h3 id=\"a8\" class=\"h5\">Methodology</h3>\n<p>The daily forecasts of weekly indices are generated using Environment and Climate Change Canada\u2019s Global  Ensemble Prediction System (GEPS) with 20+1\u00a0ensemble members. In all cases, the probabilities are calculated at each point by counting the number of members which forecast the event in question during the forecast period and dividing this by the total number of members.</p>\n\n<p>Environment and Climate Change Canada and Agriculture and Agri-food Canada  have assessed the skill level (predictability) of each forecasted extreme weather index by calculating the Heidke Skill Score (HSS) which compares the proportion of correct forecasts to a no skill random forecast.</p>\n\n<p>For a more comprehensive and detailed look at the methodology, please refer to the following published paper, \"<a href=\"http://www.nws.noaa.gov/ost/climate/STIP/38CDPW/38cdpw-AChipanshi.pdf\">The Prediction of extreme agrometeorological indices using the Canadian Meteorological Centre\u2019s medium range forecast (PDF)</a>\"</p>\n\t\t</details>\n\t\t</li>\n\t\t\n\t\t<li>\n\t\t<details>\n\t\t\t<summary><h3 id=\"a9\" class=\"h4\">Additional Terminology</h3></summary>\n\t\t\t<dl class=\"dl-horizontal\">\n            \n\t\t\t<dt>Cool season crops</dt>\n\t\t\t<dd>Require a relatively low temperature condition. Typical examples include wheat, barley, canola, oat, rye, pea, and potato. These crops normally grow in late spring and summer, and mature between the end of summer and early fall in the southern agricultural areas of Canada. The optimum temperature for such crops is 25\u00b0C.</dd>\n            \n\t\t\t<dt>Warm season crops</dt>\n\t\t\t<dd>Require a relatively warm temperature condition. Typical examples include bean, soybean, corn and sweet potato. These crops normally grow during the summer season and early fall, then ripen in late fall in southern Canada only. Other agricultural regions in Canada do not always experience sufficiently long growing seasons for these plants to achieve maturity. The optimum temperature for such crops is 30\u00b0C.</dd>\n            \n\t\t\t<dt>Over-wintering crops</dt> \n\t\t\t<dd>Are biennial and perennial field crops such as <b>herbaceous</b> plants (strawberry, alfalfa, timothy, and many other forage crops) and <b>woody</b> fruit trees (apple, pear, peach, cherry, plum, apricot, chestnut, pecan, grape, etc.). These crops normally grow and develop in the growing season and become dormant in the non-growing season. However, extreme weather and climate events such as cold waves in the growing season and ice freezing events during the winter are a major constraint for their success of production and survival in Canada. The winter survival of these plants depends largely on agrometeorological conditions from late autumn to early spring, especially ice-freezing damage during the winter season. The optimum temperature for such crops is 25\u00b0C.</dd>\n            \n\t\t\t<dt>Herbaceous crops</dt>\n\t\t\t<dd>Herbaceous crops include plants that have non-woody stems and their above-ground growth largely (roots and bulbs remain) or totally dies back in winter. Field crops are mainly herbaceous.</dd>            \n            \n\t\t\t<dt>Woody crops</dt>\n\t\t\t<dd>Woody crops plants that have wood stems and buds that survive above ground in winter. Fruit and berry crops are examples of woody crops.</dd>\n\t\t\t</dl>\n\t\t</details>\n\t\t</li>\t\n</ul>\n\n<h2 id=\"a10\" class=\"h3 mrgn-tp-0\">View Extreme Weather Indices and Probability maps</h2>\n\n<p>The tool below allows you to choose from among a dozen extreme weather index forecasts and view maps of both where the forecast is expected, and the forecast confidence.</p>\n\n<p>Make your choices using the drop down menus, and then view the selected forecasted index in the first map, and the confidence (probability) of that forecast being correct in the second map. Note that selection options change throughout the season; if a selection in the pull-down menu is grey it is currently not available, but it will be later in the season.</p>\n\n<p>Printable PDF maps of your choices can be downloaded using the link above the maps.</p>\n\n<!--p><b>*** Note to developer: Check source code for structure of Iframe content</b></p-->\n\n<!--\n<img src=\"https://www.agr.gc.ca/resources/prod/img/maps2.png\" alt=\"descriptive alt\" class=\"img-responsive\"/>\n-->\n\n<!-- Structure for the iframe\n<h3 tabindex=\"0\">Filter Daily Forecast as of: October 11, 2018</h3>\n\t<form code>\n\n<h3 tabindex=\"0\" id=\"map1-title\">Index Map: Frost-Free days (cool) < -2 degree</h3>\n\t<p><a href=\"#\"> Download Index Maps for the National Region (xyz format, size)</a></p>\n\t<div id=\"mapDivContainer1\" aria-labelledby=\"map1Title\" role=&rdquo;img&rdquo;> map here</div>\n \n<h3 tabindex=\"0\" id=\"map2-title\">Propability map: for Frost-free days (cool) > -2degree c</h3>\n\t<p><a href=\"#\"> Download Probability Maps for the National Region  (xyz format, size)</a></p>\n\t<div id=\"mapDivContainer2\" aria-labelledby=\"map2Title\" role=&rdquo;img&rdquo;> map here</div>\n -->\n\n<!-- OLD LINK: http://devproxyint.agr.gc.ca/atlas/API/apps/ewi/index.html?lang=en-->\n\n<iframe src=\"/atlas/API/apps/ewi/index.html\" name=\"ewi-iframe\" id=\"ewi-iframe\" title=\"Extreme Weather Indices Tool\" style=\"width:100%; height:1350px; border: 0;\">\n</iframe>\n\n\n<h2 id=\"a12\" class=\"h3 mrgn-tp-0\">View the Map Production Schedule</h2>\n\n<p>Refer to the schedule below to understand when each extreme weather index map is available on Drought Watch or Open Data. The availability of the indices changes throughout the year.</p>\n\n\n<ul class=\"list-unstyled\">\n<li>\n\t\t<details>\n\t\t\t<summary><h3 id=\"schedule\" class=\"h4\">Extreme weather indices: production schedule</h3></summary>\n\n<p>week 1 and week 2 forecasted maps produced daily<br>\nweek 3 and week 4 forecasted maps produced each Thursday</p>\n\n\n<h3>Temperature</h3>\n\t\t<dl>\n\t\t\t<dt>April 1 to October 31 (Growing Season)</dt>\n            \t<dd>\n\t\t\t\t<ul>\n\t\t\t\t\t<li>Frost-free days for warm season crops (&gt; 0\u00b0C)</li>\n\t\t\t\t\t<li>Frost free days for cool season / overwintering crops (&gt; \u22122\u00b0C)</li>\n\t\t\t\t\t<li>Cool wave days for warm season crops (&lt; 10\u00b0C)</li>\n\t\t\t\t\t<li>Cool wave days for cool/overwintering season crops (&lt; 5\u00b0C)</li>\n\t\t\t\t\t<li>Heat wave days for warm season crops (&gt; 35\u00b0C)</li>\n\t\t\t\t\t<li>Heat wave days for cool season crops (&gt; 30\u00b0C)</li>\n\t\t\t\t\t<li>Ice freeze days (woody or herbaceous crops) during growing season (&lt; \u22122\u00b0C)</li>\n\t\t\t\t</ul></dd>\n\n\t\t\t<dt>November 1 to March 31 (Winter Season)</dt>\n            \t<dd>\n\t\t\t\t<ul>                                                                                              <li>Ice freeze days (herbaceous  crops) in dormant period  (&lt; \u221215\u00b0C)</li>\n\t\t\t\t\t<li>Ice freeze days (woody crops) in dormant period (&lt; \u221230\u00b0C)</li>\n\t\t\t\t\t<li>Ice freeze days (herbaceous  crops) during non-growing season (&lt; \u22125\u00b0C)</li>\n<li>Ice freeze days (woody crops) during non-growing season (&lt; \u221210\u00b0C)</li>\n\t\t\t\t</ul></dd>\n\t\t\t</dl>\n\n<h3>Heat</h3>\n\t\t<dl>\n\t\t\t<dt>April 1 to October 31 (Growing Season)</dt>\n            \t<dd>\n\t\t\t\t<ul>\n\t\t\t\t\t<li>Effective growing season degree days for warm season crops (Daily only, 2 week forecast)</li>\n\t\t\t\t\t<li>Effective growing season degree days for cool season crops (Daily only, 2 week forecast)</li>\n\t\t\t\t</ul></dd>\n\t\t</dl>                \n\n<h3>Precipitation</h3>\n\t\t<dl>\n\t\t\t<dt>September 1 to August  31 (Agricultural Year)</dt>\n            \t<dd>\n\t\t\t\t<ul>\n\t\t\t\t\t<li>Greatest daily precipitation</li>\n\t\t\t\t\t<li>Total precipitation</li>\n\t\t\t\t\t<li>Greatest 10-day precipitation (Daily only, 10-day forecast)</li>\n\t\t\t\t</ul></dd>\n\t\t</dl>                \n\n<h3>Wind</h3>\n\t\t<dl>\n\t\t\t<dt>September 1 to August  31 (Agricultural Year)</dt>\n            \t<dd>\n\t\t\t\t<ul>\n\t\t\t\t\t<li>Number of strong wind days</li>\n\t\t\t\t\t<li>Number of drying days</li>\n\t\t\t\t\t<li>Maximum wind speed</li>\n\t\t\t\t</ul></dd>\n\t\t</dl>\n  </details>\n</li>\n</ul>\n\n\n<h2 id=\"a11\" class=\"h3 mrgn-tp-0\">Download the Indices Datasets</h2>\n\n<p>This option allows you to download the digital datasets. Select the Extreme Weather category below to access Extreme Weather Indices products and metadata on Open Data.</p>\n\n<ul class=\"list-unstyled\">\n\t<li><a href=\"//open.canada.ca/data/en/dataset?_keywords_limit=0&amp;sort=&amp;keywords=Temperature&amp;q=%22Extreme+Weather+Indices%22&amp;page=1\">Temperature</a></li>\n    <li><a href=\"//open.canada.ca/data/en/dataset?_keywords_limit=0&amp;sort=&amp;q=%22Extreme+Weather+Indices%22&amp;keywords=Precipitation\">Precipitation</a></li>\n    <li><a href=\"//open.canada.ca/data/en/dataset?_keywords_limit=0&amp;sort=&amp;keywords=Heating&amp;q=%22Extreme+Weather+Indices%22\">Heat</a></li>\n    <li><a href=\"//open.canada.ca/data/en/dataset?sort=&amp;_keywords_limit=0&amp;q=%22Extreme+Weather+Indices%22&amp;keywords=Wind\">Wind</a></li>\n</ul>    \n\n\r\n    <!-- Fin du contenu -->\r\n  \r\n  <div class=\"pagedetails\" id=\"pgft\">\r\n    <div class=\"row\">\r\n\t  <div class=\"col-sm-6 col-md-5 col-lg-4\">\r\n\t    <details class=\"brdr-0\">\r\n\t\t<summary class=\"btn btn-default text-center\" onclick=\"getAntiSpamSeq('/eng/mail-handler/?anti-spam-sequence=true')\">Report a problem on this page</summary>\r\n\t\t<div class=\"clearfix\"></div>\r\n\t\t<div class=\"well row\">\r\n\t\t<div>\r\n\t\t  <div class=\"gc-rprt-prblm\">\r\n\t\t    <div class=\"gc-rprt-prblm-frm gc-rprt-prblm-tggl\">\r\n\t\t\t  \r\n\t\t\t<form id=\"report_a_problem_form\" action=\"/eng/mail-handler/#report_a_problem_form\" method=\"post\">\t\t\t\t   \t\t\t\r\n\r\n\t            \t <input type=\"hidden\" name=\"lang\" value=\"eng\">\r\n\t            \t <input type=\"hidden\" name=\"pageId\" value=\"1541775183356\">\r\n\t            \t <input type=\"hidden\" name=\"pageUrl\" value=\"http://agr.gc.ca/eng/agriculture-and-the-environment/drought-watch/extreme-weather-indices/?id=1541775183356\">\r\n\t\t\t\t\t <div id=\"report_a_problem_form_error\"></div>\r\n\t\t             <fieldset>\t\t\t\t\t    \r\n\t\t                <legend><span class=\"field-name\">Please select all that apply:</span></legend>\t\t                                 \r\n\t\t\t\t\t\t<div class=\"checkbox\">\r\n\t\t\t\t\t\t\t<label for=\"problem1\"><input name=\"problem1\" id=\"problem1\" type=\"checkbox\" value=\"Yes\">A link, button or video is not working</label>\r\n\t\t\t\t\t\t\t<input name=\"problem1\" type=\"hidden\" value=\"No\">\r\n\t\t\t\t\t\t</div>\r\n\t\t\t\t\t\t<div class=\"checkbox\">\r\n\t\t\t\t\t\t\t<label for=\"problem2\"><input name=\"problem2\" id=\"problem2\" type=\"checkbox\" value=\"Yes\">It has a spelling mistake</label>\r\n\t\t\t\t\t\t\t<input name=\"problem2\" type=\"hidden\" value=\"No\">\r\n\t\t\t\t\t\t</div>\r\n\t\t\t\t\t\t<div class=\"checkbox\">\r\n\t\t\t\t\t\t\t<label for=\"problem3\"><input name=\"problem3\" id=\"problem3\" type=\"checkbox\" value=\"Yes\">Information is missing</label>\r\n\t\t\t\t\t\t\t<input name=\"problem3\" type=\"hidden\" value=\"No\">\r\n\t\t\t\t\t   </div>\r\n\t\t\t\t\t\t<div class=\"checkbox\">\r\n\t\t\t\t\t\t\t<label for=\"problem4\"><input name=\"problem4\" id=\"problem4\" type=\"checkbox\" value=\"Yes\">Information is outdated or wrong</label>\r\n\t\t\t\t\t\t\t<input name=\"problem4\" type=\"hidden\" value=\"No\">\r\n\t\t\t\t\t\t</div>\r\n\t\t\t\t\t\t<div class=\"checkbox\">\r\n\t\t\t\t\t\t\t<label for=\"problem5\"><input name=\"problem5\" id=\"problem5\" type=\"checkbox\" value=\"Yes\">Login error when trying to access an account (e.g. My Service Canada Account)</label>\r\n\t\t\t\t\t\t\t<input name=\"problem5\" type=\"hidden\" value=\"No\">\r\n\t\t\t\t\t\t</div>\r\n\t\t\t\t\t\t\t<ul>\r\n\t\t\t\t\t\t\t<li class=\"checkbox\">\r\n\t\t\t\t\t\t\t\t<label for=\"problem6a\"><input name=\"problem6\" id=\"problem6a\" type=\"checkbox\" value=\"Yes\">GC Key access</label>\r\n\t\t\t\t\t\t\t\t<input name=\"problem6\" type=\"hidden\" value=\"No\">\r\n\t\t\t\t\t\t\t </li>\r\n\t\t\t\t\t\t\t<li class=\"checkbox\">\r\n\t\t\t\t\t\t\t\t<label for=\"problem7\"><input name=\"problem7\" id=\"problem7\" type=\"checkbox\" value=\"Yes\">SecureKey Concierge (Banking Credential) access </label>\r\n\t\t\t\t\t\t\t\t<input name=\"problem7\" type=\"hidden\" value=\"No\">\r\n\t\t\t\t\t\t\t </li>\r\n\t\t\t\t\t\t\t<li class=\"checkbox\">\r\n\t\t\t\t\t\t\t\t<label for=\"problem8\"><input name=\"problem8\" id=\"problem8\" type=\"checkbox\" value=\"Yes\">Personal Access Code (PAC) problems or EI Access Code (AC) problems</label>\r\n\t\t\t\t\t\t\t\t<input name=\"problem8\" type=\"hidden\" value=\"No\">\r\n\t\t\t\t\t\t\t </li>\t\r\n\t\t\t\t\t\t\t<li class=\"checkbox\">\r\n\t\t\t\t\t\t\t\t<label for=\"problem9\"><input name=\"problem9\" id=\"problem9\" type=\"checkbox\" value=\"Yes\">Social Insurance Number (SIN) validation problems</label>\r\n\t\t\t\t\t\t\t\t<input name=\"problem9\" type=\"hidden\" value=\"No\">\r\n\t\t\t\t\t\t\t </li>\t\t\t\t\t\t\t\t\r\n\t\t\t\t\t\t\t<li class=\"checkbox\">\r\n\t\t\t\t\t\t\t\t<label for=\"problem10\"><input name=\"problem10\" id=\"problem10\" type=\"checkbox\" value=\"Yes\">Other login error not in this list</label>\r\n\t\t\t\t\t\t\t\t<input name=\"problem10\" type=\"hidden\" value=\"No\">\r\n\t\t\t\t\t\t\t </li>\t\t \r\n\t\t\t\t\t\t\t </ul>\r\n\t\t\t\t\t\t<div class=\"checkbox\">\r\n\t\t\t\t\t\t\t<label for=\"problem11\"><input name=\"problem11\" id=\"problem11\" type=\"checkbox\" value=\"Yes\">I can't find what I'm looking for</label>\r\n\t\t\t\t\t\t\t<input name=\"problem11\" type=\"hidden\" value=\"No\">\r\n\t\t\t\t\t\t</div>\r\n\t\t\t\t\t\t<div class=\"checkbox\">\r\n\t\t\t\t\t\t\t<label for=\"problem12\"><input name=\"problem12\" id=\"problem12\" type=\"checkbox\" value=\"Yes\">Other issue not in this list</label>\r\n\t\t\t\t\t\t\t<input name=\"problem12\" type=\"hidden\" value=\"No\">\r\n\t\t\t\t\t\t</div>\t\t\t\t\t\t \t\t\t\t\t\t\t\t\t\t\t\t \r\n\t\t             </fieldset>\r\n\t\t\t\t\t <div>\r\n\t\t\t\t\t   <label for=\"aafc_ranstr\"><span id=\"fbch\"><br>Enter these characters <strong class=\"required\">(required)</strong>: </span><span id=\"ranstr\">U5S</span></label>\r\n\t\t\t           <input name=\"anti-spam-sequence\" id=\"aafc_ranstr\" size=\"4\" maxlength=\"3\" type=\"text\">\r\n\t\t\t\t\t </div>\t\r\n\r\n\t\t\t\t\t <br><input type=\"submit\" class=\"btn btn-primary\" value=\"Submit\">\r\n\t\t\t\t  </form>\r\n\t\t\t\t</div>\r\n\t\t\t</div>\t\t\t\r\n\t\t  </div>\r\n\t\t</div>\r\n\t\t</details>\r\n\t  </div>\r\n\t  <div class=\"wb-share col-sm-4 col-md-3 col-sm-offset-2 col-md-offset-4 col-lg-offset-5\" data-wb-share='{\"lnkClass\": \"btn btn-default btn-block\"}'></div>\r\n\t</div>\r\n\t<dl id=\"wb-dtmd\">\r\n\t  <dt>Date modified: </dt>\r\n\t  <dd><time property=\"dateModified\">2020-09-29</time></dd></dl></div>",
        "fr": "\r\n    \r\n    <!-- MainContentStart -->\r\n    <!-- D&eacute;but du contenu -->\r\n    <div class=\"alert alert-info\">\n   <p>Nouveau produit! Dites-nous ce que vous en pensez. Envoyez vos commentaires \u00e0 <a href=\"mailto:aafc.droughtwatch-guetterlasecheresse.aac@canada.ca\">aafc.droughtwatch-guetterlasecheresse.aac@canada.ca</a>.</p>\n</div>\n\n<p>Une s\u00e9rie d\u2019indices de conditions m\u00e9t\u00e9orologiques extr\u00eames a \u00e9t\u00e9 \u00e9labor\u00e9e pour faciliter le processus d\u00e9cisionnel en agriculture. Ces indices sont des pr\u00e9visions hebdomadaires \u00e0 court terme (pour un mois) qui visent \u00e0 pr\u00e9dire les risques pour la production agricole d\u00e9coulant de facteurs m\u00e9t\u00e9orologiques extr\u00eames li\u00e9s \u00e0 la temp\u00e9rature, aux pr\u00e9cipitations, \u00e0 la chaleur et au vent. Les nouveaux utilisateurs peuvent commencer par se renseigner en consultant le lien ci dessous. Les utilisateurs plus exp\u00e9riment\u00e9s pourront consulter directement les liens permettant de voir les cartes et de t\u00e9l\u00e9charger les donn\u00e9es.</p>\n\n<p>Cliquez sur l\u2019une des quatre sections ci-dessous pour\u00a0:</p>\n\n<ul>\n <li><a href=\"#a1\">Se renseigner sur les indices de conditions m\u00e9t\u00e9orologiques extr\u00eames</a>\n </li><li><a href=\"#a10\">Voir les indices de conditions m\u00e9t\u00e9orologiques extr\u00eames et les cartes des probabilit\u00e9s</a></li>\n <li><a href=\"#a12\">Voir le calendrier de production des cartes</a></li>\n <li><a href=\"#a11\">T\u00e9l\u00e9charger les ensembles de donn\u00e9es sur les indices</a></li> \n</ul>\n\n\n<!--p><a href=\"#schedule\">Calendrier de production des indices de conditions m&eacute;t&eacute;orologiques extr&ecirc;mes</a>&nbsp;: D&eacute;couvrez &agrave; quel moment les indices de pr&eacute;vision seront disponibles</p-->\n\n<h2 id=\"a1\" class=\"h3 mrgn-tp-0\">Se renseigner sur les indices de conditions m\u00e9t\u00e9orologiques extr\u00eames</h2>\n\n<ul class=\"list-unstyled\">\n<li>\n\t\t<details>\n\t\t\t<summary><h3 id=\"a2\" class=\"h4\">Temp\u00e9rature</h3></summary>\n\t\t\t<p>La temp\u00e9rature de l\u2019air est un facteur cl\u00e9 qui influe sur le d\u00e9veloppement, le rendement et la qualit\u00e9 des grandes cultures. La fa\u00e7on dont les cultures r\u00e9agissent \u00e0 la temp\u00e9rature est caract\u00e9ris\u00e9e par trois indices de temp\u00e9rature cardinale qui d\u00e9crivent les temp\u00e9ratures minimales, maximales et optimales pour que les plantes commencent, arr\u00eatent et poursuivent leur d\u00e9veloppement.\n</p><p>Voir la <b>terminologie suppl\u00e9mentaire</b> pour les d\u00e9finitions des cultures mentionn\u00e9es ci-dessous</p>\n            \n<dl class=\"dl-horizontal\">\n\n<dt>Jours sans gel\u00a0:</dt> \n<dd><p>Nombre de jours durant la p\u00e9riode de pr\u00e9visions avec une temp\u00e9rature minimale sup\u00e9rieure au seuil de temp\u00e9rature dommageable pour les v\u00e9g\u00e9taux en raison du gel. Cet indice a \u00e9t\u00e9 largement utilis\u00e9 pour estimer la dur\u00e9e d\u2019une saison de croissance.</p>\n<p>Le seuil de temp\u00e9rature est de \u22122\u00a0\u00b0C pour les <b>cultures de saison fra\u00eeche</b> et de 0\u00a0\u00b0C pour les <b>cultures de saison chaude</b>.</p></dd>\n\n<dt>Jours de vague de fra\u00eecheur\u00a0:</dt> \n<dd><p>Nombre de jours durant la p\u00e9riode de pr\u00e9visions avec une temp\u00e9rature minimale inf\u00e9rieure au seuil de temp\u00e9rature le plus bas auquel les cultures entament leur croissance (temp\u00e9rature minimale cardinale).</p>\n<p>Le seuil de temp\u00e9rature est de 5\u00a0\u00b0C pour les <b>cultures de saison fra\u00eeche</b> et de 10\u00a0\u00b0C pour les <b>cultures de saison chaude</b>.</p></dd>\n\n<dt>Jours de vague de chaleur\u00a0:</dt>\n<dd><p>Nombre de jours durant la p\u00e9riode de pr\u00e9visions avec une temp\u00e9rature maximale sup\u00e9rieure au seuil de temp\u00e9rature auquel la croissance des cultures cesse (temp\u00e9rature maximale cardinale).</p>\n<p>Le seuil de temp\u00e9rature est de 30\u00a0\u00b0C pour les <b>cultures de saison fra\u00eeche</b> et de 35\u00a0\u00b0C pour les <b>cultures de saison chaude</b>.</p></dd>\n\n<dt>Jours de gel hivernal\u00a0:</dt>\n<dd><p>Nombre de jours durant la p\u00e9riode de pr\u00e9visions avec un seuil de temp\u00e9rature minimale inf\u00e9rieure \u00e0 la temp\u00e9rature de gel\u00a0:</p>\n<ul class=\"list-unstyled\">\n\t<li class=\"mrgn-bttm-sm\">Le seuil de temp\u00e9rature est de \u22122\u00a0\u00b0C pour les cultures herbac\u00e9es et ligneuses pendant la saison de croissance.</li>\n\t<li class=\"mrgn-bttm-sm\">Le seuil de temp\u00e9rature est de \u22125\u00a0\u00b0C pour les cultures herbac\u00e9es et de \u221210\u00a0\u00b0C pour les cultures ligneuses (non-dormance pendant la saison hors croissance).</li>\n\t<li class=\"mrgn-bttm-sm\">Le seuil de temp\u00e9rature est de \u221215\u00a0\u00b0C pour les cultures herbac\u00e9es et de \u221230\u00a0\u00b0C pour les cultures ligneuses (p\u00e9riode de dormance).</li>\n</ul>    \n</dd>\n\t\t</dl></details>\n\t</li>\n    \n\t<li>\n\t\t<details>\n\t\t\t<summary><h3 id=\"a3\" class=\"h4\">Pr\u00e9cipitations</h3></summary>\n\t\t\t<p>Les pr\u00e9cipitations \u00e9tablissent le potentiel de rendement et la qualit\u00e9 des grandes cultures. Les conditions extr\u00eamement s\u00e8ches et extr\u00eamement humides peuvent emp\u00eacher la bonne croissance des cultures. L\u2019indice quotidien de pr\u00e9cipitations maximales couvre le risque de pr\u00e9cipitations excessives \u00e0 court terme.</p>\n\n<p><b>Notez</b> que lorsque vous s\u00e9lectionnez cet indicateur \u00e0 l\u2019aide de l\u2019outil ci-dessous, vous devez \u00e9galement s\u00e9lectionner le seuil minimal de pr\u00e9cipitations en millim\u00e8tres pour obtenir la carte de probabilit\u00e9 qui l\u2019accompagne</p>\n<dl class=\"dl-horizontal\">\n\n<dt>Pr\u00e9cipitations maximales sur 10 jours\u00a0:</dt>\n<dd>Pr\u00e9cipitations maximales totales sur 10 jours attendues au cours de cette p\u00e9riode.</dd>\n\n<dt>Pr\u00e9cipitations quotidiennes maximales\u00a0:</dt> \n<dd>Pr\u00e9cipitations quotidiennes maximales au cours de la p\u00e9riode de pr\u00e9visions.</dd>\n\n<dt>Pr\u00e9cipitations totales\u00a0:</dt>\n<dd>Pr\u00e9cipitations totales au cours de la p\u00e9riode de pr\u00e9visions.</dd>\n</dl>\n\t\t</details>\n\t</li>\n    \n\t<li>\n\t\t<details>\n\t\t\t<summary><h3 id=\"a4\" class=\"h4\">Chaleur</h3></summary>\n\t\t\t<p>L\u2019\u00e9nergie thermique cumul\u00e9e est le moteur de croissance et de d\u00e9veloppement des grandes cultures et favorise un rendement \u00e9lev\u00e9 et la bonne qualit\u00e9 des produits agricoles.</p>\n<dl class=\"dl-horizontal\">\n\n<dt>Degr\u00e9s-jours de croissance effectifs\u00a0:</dt> \n<dd><p>Valeur accumul\u00e9e des degr\u00e9s de chaleur qui fait en sorte que la temp\u00e9rature moyenne quotidienne d\u00e9passe un seuil de temp\u00e9rature pr\u00e9cis\u00e9. Cette condition doit \u00eatre maintenue pendant au moins 5 jours cons\u00e9cutifs afin de cumuler les degr\u00e9s-jours de croissance effectifs.</p>\n\n<p>Le seuil de temp\u00e9rature est de 5\u00a0\u00b0C pour les <b>cultures de saison fra\u00eeche</b>, et de 10\u00a0\u00b0C pour les <b>cultures de saison chaude</b>.</p></dd>\n</dl>\n\t\t</details>\n\t</li>\n    \n\t\t<li>\n\t\t<details>\n\t\t\t<summary><h3 id=\"a5\" class=\"h4\">Vent</h3></summary>\n<p>Les vents peuvent influer consid\u00e9rablement sur la croissance et le rendement des cultures, principalement en raison de ce qui suit\u00a0: les dommages caus\u00e9s aux plantes, une plus grande perte d\u2019eau v\u00e9g\u00e9tale dans l\u2019atmosph\u00e8re et la r\u00e9partition des ravageurs et des maladies dans les champs. La vitesse maximale du vent et le nombre de jours de vent fort au cours de la p\u00e9riode de pr\u00e9visions repr\u00e9sentent respectivement les \u00e9pisodes de vent de courte dur\u00e9e et les \u00e9pisodes prolong\u00e9s de vent fort.</p>\n\n<p><b>Notez</b> que lorsque vous s\u00e9lectionnez l\u2019indicateur de la vitesse maximale du vent \u00e0 l\u2019aide de l\u2019outil ci-dessous, vous devez \u00e9galement s\u00e9lectionner la vitesse maximale du vent en km/h pour obtenir la carte de probabilit\u00e9 qui l\u2019accompagne</p>\n<dl class=\"dl-horizontal\">\n\n<dt>Nombre de jours de vent fort\u00a0:</dt> \n<dd>Nombre de jours durant la p\u00e9riode de pr\u00e9visions o\u00f9 la vitesse moyenne du vent est sup\u00e9rieure \u00e0 30\u00a0km/h.</dd>\n\n<dt>Vitesse quotidienne maximale du vent\u00a0:</dt> \n<dd>Vitesse maximale du vent durant la p\u00e9riode de pr\u00e9visions.</dd>\n\n<dt>Nombre de jours de s\u00e9cheresse\u00a0:</dt> \n<dd>Nombre de jours durant la p\u00e9riode de pr\u00e9visions o\u00f9 la vitesse moyenne du vent est sup\u00e9rieure \u00e0 30\u00a0km/h et o\u00f9 la temp\u00e9rature maximale d\u00e9passe 30\u00a0\u00b0C.</dd>\n</dl>\n\t\t</details>\t\t\n\t</li>\n    \n\t\t<li>\n\t\t<details>\n\t\t\t<summary><h3 id=\"a6\" class=\"h4\">M\u00e9thodologie</h3></summary>\n\t\t\t<h3 id=\"a7\" class=\"h5\">Collaboration avec Environnement et Changement climatique Canada (ECCC)</h3>\n<p>Agriculture et Agroalimentaire Canada (AAC) et Environnement et Changement climatique Canada (ECCC) ont conjointement \u00e9labor\u00e9 une s\u00e9rie d\u2019indices de conditions m\u00e9t\u00e9orologiques extr\u00eames reposant sur quatre cat\u00e9gories principales de facteurs m\u00e9t\u00e9orologiques qui rev\u00eatent une grande importance pour le secteur de l\u2019agriculture\u00a0: la temp\u00e9rature, les pr\u00e9cipitations, la chaleur et le vent. Les indices de conditions m\u00e9t\u00e9orologiques extr\u00eames se veulent des outils de pr\u00e9vision \u00e0 court terme et sont g\u00e9n\u00e9r\u00e9s \u00e0 l\u2019aide des pr\u00e9visions \u00e0 moyen terme d\u2019ECCC, en vue de cr\u00e9er chaque jour (produits des semaines\u00a01 et 2) et chaque semaine (produits des semaines\u00a03 et 4) des indices hebdomadaires.</p>\n\n<h3 id=\"a8\" class=\"h5\">M\u00e9thodologie</h3>\n<p>Les pr\u00e9visions quotidiennes des indices hebdomadaires sont g\u00e9n\u00e9r\u00e9es au moyen du Syst\u00e8me global de pr\u00e9vision d\u2019ensemble (SGPE) d\u2019Environnement et Changement climatique Canada, comptant 20\u00a0membres plus un. Dans tous les cas, les probabilit\u00e9s sont calcul\u00e9es \u00e0 chaque \u00e9tape en comptabilisant le nombre de membres qui pr\u00e9voient le ph\u00e9nom\u00e8ne en question durant la p\u00e9riode de pr\u00e9visions et en le divisant par le nombre total de membres.</p>\n\n<p>Environnement et Changement climatique Canada et Agriculture et Agroalimentaire Canada ont \u00e9valu\u00e9 la qualit\u00e9 (pr\u00e9visibilit\u00e9) de chaque pr\u00e9vision des indices de conditions m\u00e9t\u00e9orologiques extr\u00eames en calculant l\u2019indice de Heidke, qui compare la proportion de pr\u00e9visions correctes \u00e0 une pr\u00e9vision faite au hasard.</p>\n\n<p>Pour obtenir un aper\u00e7u plus complet et d\u00e9taill\u00e9 de la m\u00e9thodologie, veuillez vous reporter \u00e0 la publication suivante\u00a0: \u00ab\u00a0<a href=\"http://www.nws.noaa.gov/ost/climate/STIP/38CDPW/38cdpw-AChipanshi.pdf\">The Prediction of extreme agrometeorological indices using the Canadian Meteorological Centre\u2019s medium range forecast (en anglais seulement) (PDF)</a>\u00a0\u00bb.</p>\n\t\t</details>\n\t\t</li>\n\t\t\n\t\t<li>\n\t\t<details>\n\t\t\t<summary><h3 id=\"a9\" class=\"h4\">Autres termes</h3></summary>\n\t\t\t<dl class=\"dl-horizontal\">\n            \n\t\t\t<dt>Cultures de saison fra\u00eeche</dt> \n\t\t\t<dd>N\u00e9cessitent une temp\u00e9rature relativement basse. Parmi les exemples courants figurent le bl\u00e9, l\u2019orge, le canola, l\u2019avoine, le seigle, les pois et les pommes de terre. Ces cultures poussent habituellement \u00e0 la fin du printemps et en \u00e9t\u00e9, et m\u00fbrissent entre la fin de l\u2019\u00e9t\u00e9 et le d\u00e9but de l\u2019automne dans les r\u00e9gions agricoles m\u00e9ridionales du Canada. Pour ces cultures, la temp\u00e9rature optimale est de 25\u00a0\u00b0C.</dd>\n            \n\t\t\t<dt>Cultures de saison chaude</dt>\n\t\t\t<dd>N\u00e9cessitent une temp\u00e9rature relativement basse. Parmi les exemples courants figurent les haricots, le soja, le ma\u00efs et la patate douce. Ces cultures poussent habituellement au cours de l\u2019\u00e9t\u00e9 et au d\u00e9but de l\u2019automne, et m\u00fbrissent \u00e0 la fin de l\u2019automne dans le sud du Canada uniquement. D\u2019autres r\u00e9gions agricoles au pays ne connaissent pas toujours une saison de croissance suffisamment longue pour que ces cultures arrivent \u00e0 maturit\u00e9. Pour ces cultures, la temp\u00e9rature optimale est de 30\u00a0\u00b0C.</dd>\n            \n\t\t\t<dt>Cultures hibernantes</dt>\n\t\t\t<dd>Ce sont de grandes cultures bisannuelles et vivaces, comme les plantes <b>herbac\u00e9es</b> (fraisiers, luzerne, fl\u00e9ole des pr\u00e9s, et bien d\u2019autres cultures fourrag\u00e8res) et les <b>arbres</b> fruitiers (pommiers, poiriers, p\u00eachers, cerisiers, pruniers, abricotiers, ch\u00e2taigniers, pacaniers, vignes, etc.). Ces cultures poussent et se d\u00e9veloppent habituellement au cours de la saison de croissance et entrent en dormance hors de la saison de croissance. Toutefois, des ph\u00e9nom\u00e8nes m\u00e9t\u00e9orologiques et climatiques extr\u00eames, comme les vagues de froid survenant au cours de la saison de croissance et les \u00e9pisodes de gel durant l\u2019hiver, constituent un obstacle majeur \u00e0 la r\u00e9ussite de la production et \u00e0 la survie de ces cultures au Canada. La survie de ces v\u00e9g\u00e9taux \u00e0 l\u2019hiver d\u00e9pend grandement des conditions agrom\u00e9t\u00e9orologiques survenant de la fin de l\u2019automne au d\u00e9but du printemps, notamment des dommages caus\u00e9s par le gel durant l\u2019hiver. Pour ces cultures, la temp\u00e9rature optimale est de 25\u00a0\u00b0C.</dd>\n            \n\t\t\t<dt>Cultures herbac\u00e9es</dt>\n\t\t\t<dd>Les plantes herbac\u00e9es comprennent les plantes qui ont des tiges non ligneuses et les parties qui se d\u00e9veloppent au-dessus du sol meurent partiellement ou totalement en hiver (les racines et les bulbes restent.) Les grandes cultures sont principalement herbac\u00e9es.</dd>\n            \n\t\t\t<dt>Cultures ligneuses</dt>\n\t\t\t<dd>Les plantes ligneuses ont des tiges ligneuses et des bourgeons qui survivent au-dessus du sol en hiver. Les cultures de fruits et de petits fruits sont des exemples de cultures ligneuses.</dd>                        \n\t\t\t</dl>\n\t\t</details>\n\t\t</li>\t\n</ul>\n\n<h2 id=\"a10\" class=\"h3 mrgn-tp-0\">Voir les indices de conditions m\u00e9t\u00e9orologiques extr\u00eames et les cartes des probabilit\u00e9s</h2>\n\n<p>L\u2019outil ci-dessous vous permet de choisir parmi une  douzaine de pr\u00e9visions des indices de conditions m\u00e9t\u00e9orologiques extr\u00eames, et de consulter des cartes affichant les pr\u00e9visions et la fiabilit\u00e9 des pr\u00e9visions.</p>\n\n<p>Faites vos choix en utilisant les menus d\u00e9roulants, puis visualisez l\u2019indice pr\u00e9vu s\u00e9lectionn\u00e9 dans la premi\u00e8re carte, et la fiabilit\u00e9 (probabilit\u00e9) de cette pr\u00e9vision dans la deuxi\u00e8me carte. Veuillez prendre note que les options de s\u00e9lection changent au cours de la saison. Si une s\u00e9lection dans la liste d\u00e9roulante est grise, cette option n'est actuellement pas disponible, mais le sera plus tard dans la saison.</p>\n\n<p>Les cartes PDF imprimables de vos choix peuvent \u00eatre t\u00e9l\u00e9charg\u00e9es \u00e0 l\u2019aide du lien au-dessus des cartes.</p>\n\n\n<!--p><b>*** Note to developer: Check source code for structure of Iframe content</b></p-->\n\n\n<!-- OLD LINK: http://devproxyint.agr.gc.ca/atlas/API/apps/ewi/index.html?lang=fr-->\n\n<iframe src=\"/atlas/API/apps/ewi/index.html?lang=fr\" name=\"ewi-iframe\" id=\"ewi-iframe\" title=\"Outil d'indices de ph\u00e9nom\u00e8nes m\u00e9t\u00e9orologiques extr\u00eames\" style=\"width:100%; height:1375px; border: 0;\">\n</iframe>\n\n<!--\n<img src=\"https://www.agr.gc.ca/resources/prod/img/maps2.png\" alt=\"descriptive alt\" class=\"img-responsive\"/>\n-->\n\n\n<!-- Structure for the iframe\n<h3 tabindex=\"0\">Filter Daily Forecast as of: October 11, 2018</h3>\n\t<form code>\n\n<h3 tabindex=\"0\" id=\"map1-title\">Index Map: Frost-Free days (cool) < -2 degree</h3>\n\t<p><a href=\"#\"> Download Index Maps for the National Region (xyz format, size)</a></p>\n\t<div id=\"mapDivContainer1\" aria-labelledby=\"map1Title\" role=&rdquo;img&rdquo;> map here</div>\n \n<h3 tabindex=\"0\" id=\"map2-title\">Propability map: for Frost-free days (cool) > -2degree c</h3>\n\t<p><a href=\"#\"> Download Probability Maps for the National Region  (xyz format, size)</a></p>\n\t<div id=\"mapDivContainer2\" aria-labelledby=\"map2Title\" role=&rdquo;img&rdquo;> map here</div>\n -->\n\n\n\n<h2 id=\"a12\" class=\"h3 mrgn-tp-0\">Voir le calendrier de production des cartes</h2>\n\n<p>Reportez-vous au calendrier ci-dessous pour comprendre \u00e0 quel moment chaque carte de l\u2019indice de conditions m\u00e9t\u00e9orologiques extr\u00eames est disponible dans le syst\u00e8me de surveillance des s\u00e9cheresses ou dans les donn\u00e9es ouvertes. La disponibilit\u00e9 des indices change tout au long de l\u2019ann\u00e9e.</p>\n\n<ul class=\"list-unstyled\">\n<li>\n\t\t<details>\n\t\t\t<summary><h3 id=\"schedule\" class=\"h4\">Indices de conditions m\u00e9t\u00e9orologiques extr\u00eames\u00a0: Calendrier de production</h3></summary>\n\n<p>Les cartes des pr\u00e9visions des semaines\u00a01 et 2 sont produites quotidiennement.<br>\nLes cartes des pr\u00e9visions des semaines\u00a03 et 4 sont produites chaque jeudi.</p>\n\n\n<h3>Temp\u00e9rature</h3>\n\t\t<dl>\n\t\t\t<dt>1<sup>er</sup> avril au 31 octobre (saison de croissance)</dt>\n            \t<dd>\n\t\t\t\t<ul>\n\t\t\t\t\t<li>Jours sans gel pour les cultures de saison chaude (&gt;\u00a00\u00a0\u00b0C)</li>\n\t\t\t\t\t<li>Jours sans gel pour les cultures de saison fra\u00eeche et d\u2019hiver (&gt;\u00a0\u22122 \u00a0C)</li>\n\t\t\t\t\t<li>Jours de vague de fra\u00eecheur pour les cultures de saison chaude (&lt;\u00a010\u00a0\u00b0C)</li>\n\t\t\t\t\t<li>Jours de vague de fra\u00eecheur pour les cultures de saison fra\u00eeche et d\u2019hiver (&lt;\u00a05\u00a0\u00b0C)</li>\n\t\t\t\t\t<li>Jours de vague de chaleur pour les cultures de saison chaude (&gt;\u00a035\u00a0\u00b0C)</li>\n\t\t\t\t\t<li>Jours de vague de chaleur pour les cultures de saison fra\u00eeche (&gt;\u00a030\u00a0\u00b0C)</li>\n\t\t\t\t\t<li>Jours de gel hivernal (cultures ligneuses ou herbac\u00e9es) durant la saison de croissance (&lt;\u00a0\u22122\u00a0\u00b0C)</li>\n\t\t\t\t</ul></dd>\n            \n\t\t\t<dt>1<sup>er</sup> novembre au 31 mars (saison hivernale)</dt>\n            \t<dd>\n\t\t\t\t<ul>\t\n\t\t\t\t\t<li>Jours de gel hivernal (cultures herbac\u00e9es) en p\u00e9riode de dormance (&lt;\u00a0\u221215\u00a0\u00b0C)</li>\n\t\t\t\t\t<li>Jours de gel hivernal (cultures ligneuses) en p\u00e9riode de dormance (&lt;\u00a0\u221230\u00a0\u00b0C)</li>\n\t\t\t\t\t<li>Jours de gel hivernal (cultures herbac\u00e9es) en dehors de la saison de croissance (&lt;\u00a05\u00a0\u00b0C)</li>\n\t\t\t\t\t<li>Jours de gel hivernal (cultures ligneuses) en dehors de la saison de croissance (&lt;\u00a010\u00a0\u00b0C)</li>\t\n\t\t\t\t</ul></dd>\n\t\t\t</dl>\n            \n<h3>Chaleur</h3>\n\t\t<dl>\n\t\t\t<dt>1<sup>er</sup> avril au 31 octobre (saison de croissance)</dt>\n            \t<dd>\n\t\t\t\t<ul>\n\t\t\t\t\t<li>Degr\u00e9s-jours de croissance effectifs pour les cultures de saison chaude (Tous les jours, pr\u00e9visions \u00e0 2 semaines)</li>\n\t\t\t\t\t<li>Degr\u00e9s-jours de croissance effectifs pour les cultures de saison fra\u00eeche (Tous les jours, pr\u00e9visions \u00e0 2 semaines)</li>\n\t\t\t\t</ul></dd>\n\t\t\t</dl>\n\n<h3>Pr\u00e9cipitations</h3>\n\t\t<dl>\n\t\t\t<dt>1<sup>er</sup> septembre au 31 ao\u00fbt (campagne agricole)</dt>\n            \t<dd>\n\t\t\t\t<ul>\n\t\t\t\t\t<li>Pr\u00e9cipitations quotidiennes maximales</li>\n\t\t\t\t\t<li>Pr\u00e9cipitations totales</li>\n\t\t\t\t\t<li>Pr\u00e9cipitations maximales sur 10 jours (Tous les jours, pr\u00e9visions \u00e0 10 jours)</li>\n\t\t\t\t</ul></dd>\n\t\t\t</dl>\n\n<h3>Vent</h3>\n\t\t<dl>\n\t\t\t<dt>1<sup>er</sup> septembre au 31 ao\u00fbt (campagne agricole)</dt>\n            \t<dd>\n\t\t\t\t<ul>\n\t\t\t\t\t<li>Nombre de jours de vent fort</li>\n\t\t\t\t\t<li>Nombre de jours de s\u00e9cheresse</li>\n\t\t\t\t\t<li>Vitesse maximale du vent</li>\n\t\t\t\t</ul></dd>\n\t\t\t</dl>\n  </details>\n</li>\n</ul>\n\n\n<h2 id=\"a11\" class=\"h3 mrgn-tp-0\">T\u00e9l\u00e9charger les ensembles de donn\u00e9es sur les indices</h2>\n\n<p>Cette option vous permet de t\u00e9l\u00e9charger les ensembles de donn\u00e9es num\u00e9riques. S\u00e9lectionnez la cat\u00e9gorie \u00ab\u00a0Conditions m\u00e9t\u00e9orologiques extr\u00eames\u00a0\u00bb ci-dessous pour acc\u00e9der aux produits et aux m\u00e9tadonn\u00e9es des indices de conditions m\u00e9t\u00e9orologiques extr\u00eames sur les donn\u00e9es ouvertes.</p>\n\n<ul class=\"list-unstyled\">\n\t<li><a href=\"//ouvert.canada.ca/data/fr/dataset?_keywords_limit=0&amp;sort=&amp;keywords=Temperature&amp;q=%22Extreme+Weather+Indices%22&amp;page=1\">Temp\u00e9rature</a></li>\n    <li><a href=\"//ouvert.canada.ca/data/fr/dataset?_keywords_limit=0&amp;sort=&amp;q=%22Extreme+Weather+Indices%22&amp;keywords=Precipitation\">Pr\u00e9cipitations</a></li>\n\t<li><a href=\"//ouvert.canada.ca/data/fr/dataset?_keywords_limit=0&amp;sort=&amp;keywords=Heating&amp;q=%22Extreme+Weather+Indices%22\">Chaleur</a></li>\n\t<li><a href=\"//ouvert.canada.ca/data/fr/dataset?sort=&amp;_keywords_limit=0&amp;q=%22Extreme+Weather+Indices%22&amp;keywords=Wind\">Vent</a></li>\n</ul> \n\n\r\n    <!-- Fin du contenu -->\r\n\t\r\n\t<div class=\"pagedetails\" id=\"pgft\">\r\n\t\t<div class=\"row\">\r\n\t\t  <div class=\"col-sm-6 col-md-5 col-lg-4\">\r\n\t\t    <details class=\"brdr-0\">\r\n\t\t\t<summary class=\"btn btn-default text-center\" onclick=\"getAntiSpamSeq('/fra/mail-handler/?anti-spam-sequence=true')\">Signaler un probl\u00e8me sur cette page</summary>\r\n\t\t\t<div class=\"well row\">\r\n\t\t\t  <div class=\"gc-rprt-prblm\">\r\n\t\t\t    <div class=\"gc-rprt-prblm-frm gc-rprt-prblm-tggl\">\r\n\t\t\t\t   <form id=\"report_a_problem_form\" action=\"/fra/mail-handler/\" method=\"post\">\r\n\t            \t <input type=\"hidden\" name=\"lang\" value=\"fra\">\r\n\t            \t <input type=\"hidden\" name=\"pageId\" value=\"1541775183356\">\r\n\t            \t <input type=\"hidden\" name=\"pageUrl\" value=\"http://agr.gc.ca/fra/agriculture-et-environnement/guetter-la-secheresse/indices-de-conditions-meteorologiques-extremes/?id=1541775183356\">\r\n\t\t\t\t\t <div id=\"report_a_problem_form_error\"></div>\r\n\t\t             <fieldset>\t\t\t\t\t    \r\n\t\t                <legend><span class=\"field-name\">Veuillez cocher toutes les r\u00e9ponses pertinentes\u00a0:</span></legend>\r\n\t\t                 <div class=\"checkbox\">\r\n\t\t                    <label for=\"problem1\"><input name=\"problem1\" id=\"problem1\" type=\"checkbox\" value=\"Yes\">Un lien, un bouton ou une vid\u00e9o ne fonctionne pas</label>\r\n\t\t                    <input name=\"problem1\" type=\"hidden\" value=\"No\">\r\n\t\t                </div>\r\n\t\t                <div class=\"checkbox\">\r\n\t\t                    <label for=\"problem2\"><input name=\"problem2\" id=\"problem2\" type=\"checkbox\" value=\"Yes\">Il y a une erreur d'orthographe ou de grammaire</label>\r\n\t\t                    <input name=\"problem2\" type=\"hidden\" value=\"No\">\r\n\t\t                </div>\r\n\t\t   \t\t\t\t <div class=\"checkbox\">\r\n\t\t                    <label for=\"problem3\"><input name=\"problem3\" id=\"problem3\" type=\"checkbox\" value=\"Yes\">Les renseignements sont incomplets</label>\r\n\t\t                    <input name=\"problem3\" type=\"hidden\" value=\"No\">\r\n\t\t                </div>\r\n\t\t             \t\t<div class=\"checkbox\">\r\n\t\t                    <label for=\"problem4\"><input name=\"problem4\" id=\"problem4\" type=\"checkbox\" value=\"Yes\">L'information n'est plus \u00e0 jour ou est erron\u00e9e</label>\r\n\t\t                    <input name=\"problem4\" type=\"hidden\" value=\"No\">\r\n\t\t                </div>\t\t\t\t\t\t\r\n\t\t\t\t\t\t<div class=\"checkbox\">\r\n\t\t\t\t\t\t\t<label for=\"problem5\"><input name=\"problem5\" id=\"problem5\" type=\"checkbox\" value=\"Yes\">Message d'erreur \u00e0 l'ouverture de la session lorsque je tente d'acc\u00e9der \u00e0 un compte (ex. Mon dossier Service Canada)</label>\r\n\t\t\t\t\t\t\t<input name=\"problem5\" type=\"hidden\" value=\"No\">\r\n\t\t\t\t\t\t</div>\r\n\t\t\t\t\t\t\t<ul>\r\n\t\t\t\t\t\t\t<li class=\"checkbox\">\r\n\t\t\t\t\t\t\t\t<label for=\"problem6a\"><input name=\"problem6\" id=\"problem6a\" type=\"checkbox\" value=\"Yes\">Acc\u00e8s Cl\u00e9GC</label>\r\n\t\t\t\t\t\t\t\t<input name=\"problem6\" type=\"hidden\" value=\"No\">\r\n\t\t\t\t\t\t\t </li>\r\n\t\t\t\t\t\t\t<li class=\"checkbox\">\r\n\t\t\t\t\t\t\t\t<label for=\"problem7\"><input name=\"problem7\" id=\"problem7\" type=\"checkbox\" value=\"Yes\">Acc\u00e8s SecureKey Service de Concierge (justificatifs d'identit\u00e9 bancaires)</label>\r\n\t\t\t\t\t\t\t\t<input name=\"problem7\" type=\"hidden\" value=\"No\">\r\n\t\t\t\t\t\t\t </li>\r\n\t\t\t\t\t\t\t<li class=\"checkbox\">\r\n\t\t\t\t\t\t\t\t<label for=\"problem8\"><input name=\"problem8\" id=\"problem8\" type=\"checkbox\" value=\"Yes\">Probl\u00e8me avec le Code d'acc\u00e8s personnel (CAP) ou avec le Code d'acc\u00e8s (CA) de l'assurance emploi</label>\r\n\t\t\t\t\t\t\t\t<input name=\"problem8\" type=\"hidden\" value=\"No\">\r\n\t\t\t\t\t\t\t </li>\t\r\n\t\t\t\t\t\t\t<li class=\"checkbox\">\r\n\t\t\t\t\t\t\t\t<label for=\"problem9\"><input name=\"problem9\" id=\"problem9\" type=\"checkbox\" value=\"Yes\">Probl\u00e8me li\u00e9 \u00e0 la validation du num\u00e9ro d'assurance sociale (NAS)</label>\r\n\t\t\t\t\t\t\t\t<input name=\"problem9\" type=\"hidden\" value=\"No\">\r\n\t\t\t\t\t\t\t </li>\t\t\t\t\t\t\t\t\r\n\t\t\t\t\t\t\t<li class=\"checkbox\">\r\n\t\t\t\t\t\t\t\t<label for=\"problem10\"><input name=\"problem10\" id=\"problem10\" type=\"checkbox\" value=\"Yes\">Autre erreur lors de l'ouverture de session qui ne figure pas sur cette liste</label>\r\n\t\t\t\t\t\t\t\t<input name=\"problem10\" type=\"hidden\" value=\"No\">\r\n\t\t\t\t\t\t\t </li>\t\t \r\n\t\t\t\t\t\t\t </ul>\r\n\t\t\t\t\t\t<div class=\"checkbox\">\r\n\t\t\t\t\t\t\t<label for=\"problem11\"><input name=\"problem11\" id=\"problem11\" type=\"checkbox\" value=\"Yes\">Je n'arrive pas \u00e0 trouver ce que je cherche</label>\r\n\t\t\t\t\t\t\t<input name=\"problem11\" type=\"hidden\" value=\"No\">\r\n\t\t\t\t\t\t</div>\r\n\t\t\t\t\t\t<div class=\"checkbox\">\r\n\t\t\t\t\t\t\t<label for=\"problem12\"><input name=\"problem12\" id=\"problem12\" type=\"checkbox\" value=\"Yes\">Autre probl\u00e8me qui ne figure pas sur cette liste</label>\r\n\t\t\t\t\t\t\t<input name=\"problem12\" type=\"hidden\" value=\"No\">\r\n\t\t\t\t\t\t</div>\t\t\t\t\t\t\t\t\t\t\t\t\t\t\t\t\t\t\t\r\n\t\t             </fieldset>\r\n\t\t\t\t\t <div>\r\n\t\t\t\t        <label for=\"aafc_ranstr\"><span id=\"fbch\">Veuillez inscrire les caract\u00e8res suivants  <strong class=\"required\">(obligatoire)</strong>\u00a0: </span><span id=\"ranstr\">XXX</span></label>\r\n\t\t\t            <input name=\"anti-spam-sequence\" id=\"aafc_ranstr\" size=\"4\" maxlength=\"3\" type=\"text\">\r\n\t\t\t\t\t </div>\r\n\t\t\t\t\t <input type=\"submit\" class=\"btn btn-primary\" value=\"Soumettre\">\r\n\t\t\t\t  </form>\r\n\t\t\t\t</div>\r\n\t\t\t  </div>\r\n\t\t\t</div>\r\n\t\t</details>\r\n\t    </div>\r\n\t  <div class=\"wb-share col-sm-4 col-md-3 col-sm-offset-2 col-md-offset-4 col-lg-offset-5\" data-wb-share='{\"lnkClass\": \"btn btn-default btn-block\"}'></div>\r\n\t  </div>\r\n\t  <dl id=\"wb-dtmd\">\r\n\t    <dt>Date de modification\u00a0: </dt>\r\n\t      <dd><time property=\"dateModified\">2020-09-29</time></dd>\r\n\t  </dl>\r\n\t</div>\r\n\t\r\n  "
    }
}