{
    "dcr_id": "1374687910526",
    "title": {
        "en": "AgriInvest - Contact information",
        "fr": "Agri-investissement - Pour nous joindre"
    },
    "modified": "2019-10-22",
    "issued": "2019-10-22",
    "templatetype": "content page 1 column",
    "page_type": "1",
    "node_id": "1571321967034",
    "dc_date_created": "2019-10-22",
    "managing_branch": "PAB",
    "parent_node_id": "1571321713170",
    "label": {
        "en": "AgriInvest - Contact information",
        "fr": "Agri-investissement - Pour nous joindre"
    },
    "exturl": "",
    "teamsite_location": {
        "en": "/default/main/AAFC-AAC/Internet-Internet/Group-Ensemble/ProgServ-ProgServ/WORKAREA/ProgServ-ProgServ/templatedata/comm-comm/gene-gene/data/09/ai_contact_1374687910526_en",
        "fr": "/default/main/AAFC-AAC/Internet-Internet/Group-Ensemble/ProgServ-ProgServ/WORKAREA/ProgServ-ProgServ/templatedata/comm-comm/gene-gene/data/09/ai_contact_1374687910526_fr"
    },
    "type_name": "sitemapinit",
    "has_dcr_id": true,
    "breadcrumb": {
        "en": "AgriInvest - Contact information",
        "fr": "Agri-investissement - Pour nous joindre"
    },
    "layout_name": "content page 1 column",
    "lang": "en",
    "meta": {
        "issued": {
            "en": "2019-10-22",
            "fr": "2019-10-22"
        },
        "modified": {
            "en": "2019-10-22",
            "fr": "2019-10-22"
        },
        "format": {
            "en": "text/html",
            "fr": "text/html"
        },
        "title": {
            "en": "AgriInvest - Contact information",
            "fr": "Agri-investissement - Pour nous joindre"
        },
        "subject": {
            "en": "architecture;rural communities;consultations",
            "fr": "foresterie;finances;commerce ext\u00e9rieur"
        },
        "description": {
            "en": "AgriInvest-Agri-investissement AgriInvest contact_agriinvest_administration Contact AgriInvest Administration. According to the Office of the Privacy Commissioner of Canada, identity theft claims millions of victims across North America every year.Agriculture and Agri-Food Canada's Farm Income Programs Directorate is working to ensure you are protected when it comes to the release of your financial information.The. AgriInvest Account Statement \u2013 Opening or Closing balance, Fund 1 or Fund 2. If someone calls on your behalf (a spouse, for instance), but is not listed as a Contact Person, information cannot be released without verbal authority from you (the participant) to disclose the information or written authorization/permission.Thank you for your cooperation in confirming callers' identities.",
            "fr": "AgriInvest-Agri-investissement Agri-investissement Contactez l\u2019administration Agri-investissement. T\u00e9l\u00e9copieur\u00a0:204-259-5642. Relev\u00e9 de compte du programme Agri-investissement - solde d'ouverture ou de cl\u00f4ture, Fonds 1 ou 2. Si une personne appelle au nom du participant (un conjoint par exemple) mais n'est pas inscrite comme personne-ressource dans la demande, nous ne pourrons pas lui transmettre d'information sans avoir re\u00e7u une autorisation verbale ou une permission \u00e9crite du participant de divulguer ces renseignements.Nous vous remercions de votre coop\u00e9ration \u00e0 l'\u00e9gard de ces mesures de confirmation de l'identit\u00e9 des demandeurs; celles-ci nous permettrons de prot\u00e9ger les renseignements financiers vous concernant.Comment puis-je obtenir de l'information \u00e0 jour sur Agri-investissement?Pour \u00eatre inform\u00e9 des nouveaut\u00e9s concernant Agri-investissement et autres programmes financiers f\u00e9d\u00e9raux-provinciaux-territoriaux,abonnez-vous pour recevoir le Bulletin Agri-info."
        },
        "language": {
            "en": "eng",
            "fr": "fra"
        },
        "keywords": {
            "en": "p.m.CST Monday to Friday",
            "fr": "interdit de divulguer;divulguer ces renseignements.Nous vous remercions;HNC du lundi au vendredi"
        },
        "audience": {
            "en": "gcaudience",
            "fr": "gcaudience"
        },
        "type": {
            "en": "search interface",
            "fr": "fiche de renseignements"
        },
        "creator": {
            "en": "Agriculture and Agri-Food Canada;Government of Canada",
            "fr": "Agriculture et Agroalimentaire Canada;Gouvernement du Canada"
        },
        "spatial": {
            "en": "gcregions",
            "fr": "gcregions"
        },
        "service": {
            "en": "AAFC-AAC",
            "fr": "AAFC-AAC"
        },
        "accessRights": {
            "en": "2",
            "fr": "2"
        },
        "legalName": {
            "en": "agriculture_and_agri_food_canada",
            "fr": "agriculture_et_agroalimentaire_canada"
        },
        "areaServed": {
            "en": "Canada",
            "fr": "Canada"
        }
    },
    "body": {
        "en": "tart --&gt;\r\n    <!-- D&eacute;but du contenu -->\r\n    <script type=\"text/javascript\" src=\"//script.crazyegg.com/pages/scripts/0088/8871.js\" async=\"async\"></script>\n\n<div class=\"mrgn-tp-md mrgn-bttm-lg brdr-bttm\">\n\n<div class=\"row\">\n<ul class=\"toc lst-spcd col-md-12 list-unstyled\">\n<li class=\"col-md-4 col-sm-6\"><span class=\"list-group-item\"><a href=\"?id=1291828779399\">Step 1. What this program offers</a></span></li>\n<li class=\"col-md-4 col-sm-6\"><span class=\"list-group-item\"><a href=\"?id=1291836203250\">Step 2. Who is eligible</a></span></li>\n<li class=\"col-md-4 col-sm-6\"><span class=\"list-group-item\"><a href=\"?id=1463428090546\">Step 3. How to apply</a></span></li>\n<li class=\"col-md-4 col-sm-6 clr-lft-sm\"><span class=\"list-group-item\"><a href=\"?id=1549485507708\">Step 4. After you apply</a></span></li>\n<li class=\"col-md-4 col-sm-6\"><span class=\"list-group-item\"><a href=\"?id=1463488151850\">Step 5. Managing your account</a></span></li>\n<li class=\"col-md-4 col-sm-6\"><span class=\"list-group-item\"><a href=\"?id=1549485586652\">Resources</a></span></li>\n<li class=\"col-md-4 col-sm-6\"><span class=\"list-group-item active\">Contact information</span></li>\n</ul>\n</div>\n</div>\n\n\n<h2>Contact information</h2>\n\n<h3>Call</h3>\n   \n  <dl>\n   <dt><b>Hours of operation:</b></dt>\n   <dd class=\"mrgn-tp-0 mrgn-bttm-0\">8:00 a.m. to 5:00 p.m. CST, Monday to Friday</dd>\n  </dl>\n  \n  \n<details>\n<summary class=\"bg-info\"><h3 class=\"h5\">For your protection: Contact Centre requires confirmation of your identity</h3>\n</summary>\n  \n <div class=\"alert alert-info\">\n   <p>According to the Office of the Privacy Commissioner of Canada, identity theft claims millions of victims across North America every year.</p>\n    <p>Agriculture and Agri-Food Canada's Farm Income Programs Directorate is working to ensure you are protected when it comes to the release of your financial information.</p>\n    <p>The <cite>Privacy Act</cite> prohibits the release of personal information without consent except in certain specified circumstances; therefore, we are obligated to confirm your identity when you request financial details related to your account or application to one of our programs. To do this we will ask for specific information. This is for your protection.</p>\n    <p>You can help us by being prepared and having information on hand when you call.</p>\n     </div>\n    \n    <p><strong>If you are the participant, you will be asked for:</strong></p>\n   <ul class=\"mrgn-bttm-lg\">\n    <li>Your full name</li>\n    <li>Your Personal Identification Number (PIN)</li>\n    <li>Two figures from your most current application, AgriInvest Account Statement \u2013 Fund 1 or Fund 2 balance, withdrawal amount</li>\n   </ul>\n   <p><strong>If you are a Contact Person (listed on the application) calling us regarding financial information on a participant's behalf, you will be asked for:</strong></p>\n   <ul>\n    <li>Your full name and the participant's full name</li>\n    <li>The participant's PIN</li>\n    <li>Your address and phone number</li>\n    <li>Two figures from the participant's most current application, such as:\n    <ul>\n  <li>Statement A/T1163, Commodity Sales/Expense figure</li>\n  <li>AgriInvest Account Statement \u2013 Fund 1 or Fund 2 balance, withdrawal amount</li>\n    </ul>\n    </li>\n   </ul>\n   \n    <div class=\"alert alert-info\">\n   <p>If someone calls on your behalf (a spouse, for instance), but is not listed as a Contact Person, information cannot be released without verbal authority from you (the participant) to disclose the information or written authorization/permission. </p>\n</div>\n  \n</details>\n\n  <dl class=\"mrgn-tp-md\">   \n  <dt>Calling from Canada:</dt>\n  <dd class=\"mrgn-tp-0 mrgn-bttm-0\">Toll-free number: 1-866-367-8506</dd>\n  <dd class=\"mrgn-tp-0 mrgn-bttm-0\">Fax: 1-877-949-4885</dd>\n  <dd class=\"mrgn-tp-0\">TDD/TTY: 613-773-2600</dd>\n     \n  <dt>Calling from outside of Canada:</dt>\n  <dd class=\"mrgn-tp-0 mrgn-bttm-0\">Telephone: 204-926-9650</dd>\n   <dd class=\"mrgn-tp-0 mrgn-bttm-0\">Fax: 204-259-5642</dd>\n  </dl>\n\n\n\n<h3>Mail</h3>\n\n<dl>\n<dt>AgriInvest Administration</dt>\n<dd class=\"mrgn-tp-0 mrgn-bttm-0\">PO Box 3200</dd>\n<dd class=\"mrgn-tp-0 mrgn-bttm-0\">Winnipeg MB\u00a0\u00a0R3C 5R7</dd>\n</dl>\n\n\n\n  <div class=\"well well-small\"><p><b>Note:</b> AgriInvest is delivered by the federal government in all provinces except Quebec.</p>\n  <p>In Quebec, AgriInvest is delivered provincially by <a href=\"https://www.fadq.qc.ca/en/home.html\">La Financi\u00e8re agricole</a>.</p>\n  </div>\n\n\n<p><a href=\"?id=1530013156290\"><img src=\"https://www.agr.gc.ca/resources/prod/img/prog/1522073268316-image-eng.jpg\" alt=\"\"><br>\nSubmit your feedback</a></p>\n \n\n<nav>\n <h2 class=\"wb-inv\">Previous-next document navigation - bottom</h2>\n\n<div class=\"row\">\n<div class=\"col-md-12 mrgn-lft-0 mrgn-rght-0\">\n<ul class=\"pager\">\n<li class=\"previous\"><a href=\"?id=1549485586652\" rel=\"prev\" title=\"Resources\">Previous</a></li>\n</ul>\n</div>\n</div>\n</nav>\n\r\n    <!-- Fin du contenu -->\r\n  \r\n  <div class=\"pagedetails\" id=\"pgft\">\r\n    <div class=\"row\">\r\n\t  <div class=\"col-sm-6 col-md-5 col-lg-4\">\r\n\t    <details class=\"brdr-0\">\r\n\t\t<summary class=\"btn btn-default text-center\" onclick=\"getAntiSpamSeq('/eng/mail-handler/?anti-spam-sequence=true')\">Report a problem on this page</summary>\r\n\t\t<div class=\"clearfix\"></div>\r\n\t\t<div class=\"well row\">\r\n\t\t<div>\r\n\t\t  <div class=\"gc-rprt-prblm\">\r\n\t\t    <div class=\"gc-rprt-prblm-frm gc-rprt-prblm-tggl\">\r\n\t\t\t  \r\n\t\t\t<form id=\"report_a_problem_form\" action=\"/eng/mail-handler/#report_a_problem_form\" method=\"post\">\t\t\t\t   \t\t\t\r\n\r\n\t            \t <input type=\"hidden\" name=\"lang\" value=\"eng\">\r\n\t            \t <input type=\"hidden\" name=\"pageId\" value=\"1374687910526\">\r\n\t            \t <input type=\"hidden\" name=\"pageUrl\" value=\"http://www.agr.gc.ca/eng/agricultural-programs-and-services/agriinvest/contact-information/?id=1374687910526\">\r\n\t\t\t\t\t <div id=\"report_a_problem_form_error\"></div>\r\n\t\t             <fieldset>\t\t\t\t\t    \r\n\t\t                <legend><span class=\"field-name\">Please select all that apply:</span></legend>\t\t                                 \r\n\t\t\t\t\t\t<div class=\"checkbox\">\r\n\t\t\t\t\t\t\t<label for=\"problem1\"><input name=\"problem1\" id=\"problem1\" type=\"checkbox\" value=\"Yes\">A link, button or video is not working</label>\r\n\t\t\t\t\t\t\t<input name=\"problem1\" type=\"hidden\" value=\"No\">\r\n\t\t\t\t\t\t</div>\r\n\t\t\t\t\t\t<div class=\"checkbox\">\r\n\t\t\t\t\t\t\t<label for=\"problem2\"><input name=\"problem2\" id=\"problem2\" type=\"checkbox\" value=\"Yes\">It has a spelling mistake</label>\r\n\t\t\t\t\t\t\t<input name=\"problem2\" type=\"hidden\" value=\"No\">\r\n\t\t\t\t\t\t</div>\r\n\t\t\t\t\t\t<div class=\"checkbox\">\r\n\t\t\t\t\t\t\t<label for=\"problem3\"><input name=\"problem3\" id=\"problem3\" type=\"checkbox\" value=\"Yes\">Information is missing</label>\r\n\t\t\t\t\t\t\t<input name=\"problem3\" type=\"hidden\" value=\"No\">\r\n\t\t\t\t\t   </div>\r\n\t\t\t\t\t\t<div class=\"checkbox\">\r\n\t\t\t\t\t\t\t<label for=\"problem4\"><input name=\"problem4\" id=\"problem4\" type=\"checkbox\" value=\"Yes\">Information is outdated or wrong</label>\r\n\t\t\t\t\t\t\t<input name=\"problem4\" type=\"hidden\" value=\"No\">\r\n\t\t\t\t\t\t</div>\r\n\t\t\t\t\t\t<div class=\"checkbox\">\r\n\t\t\t\t\t\t\t<label for=\"problem5\"><input name=\"problem5\" id=\"problem5\" type=\"checkbox\" value=\"Yes\">Login error when trying to access an account (e.g. My Service Canada Account)</label>\r\n\t\t\t\t\t\t\t<input name=\"problem5\" type=\"hidden\" value=\"No\">\r\n\t\t\t\t\t\t</div>\r\n\t\t\t\t\t\t\t<ul>\r\n\t\t\t\t\t\t\t<li class=\"checkbox\">\r\n\t\t\t\t\t\t\t\t<label for=\"problem6a\"><input name=\"problem6\" id=\"problem6a\" type=\"checkbox\" value=\"Yes\">GC Key access</label>\r\n\t\t\t\t\t\t\t\t<input name=\"problem6\" type=\"hidden\" value=\"No\">\r\n\t\t\t\t\t\t\t </li>\r\n\t\t\t\t\t\t\t<li class=\"checkbox\">\r\n\t\t\t\t\t\t\t\t<label for=\"problem7\"><input name=\"problem7\" id=\"problem7\" type=\"checkbox\" value=\"Yes\">SecureKey Concierge (Banking Credential) access </label>\r\n\t\t\t\t\t\t\t\t<input name=\"problem7\" type=\"hidden\" value=\"No\">\r\n\t\t\t\t\t\t\t </li>\r\n\t\t\t\t\t\t\t<li class=\"checkbox\">\r\n\t\t\t\t\t\t\t\t<label for=\"problem8\"><input name=\"problem8\" id=\"problem8\" type=\"checkbox\" value=\"Yes\">Personal Access Code (PAC) problems or EI Access Code (AC) problems</label>\r\n\t\t\t\t\t\t\t\t<input name=\"problem8\" type=\"hidden\" value=\"No\">\r\n\t\t\t\t\t\t\t </li>\t\r\n\t\t\t\t\t\t\t<li class=\"checkbox\">\r\n\t\t\t\t\t\t\t\t<label for=\"problem9\"><input name=\"problem9\" id=\"problem9\" type=\"checkbox\" value=\"Yes\">Social Insurance Number (SIN) validation problems</label>\r\n\t\t\t\t\t\t\t\t<input name=\"problem9\" type=\"hidden\" value=\"No\">\r\n\t\t\t\t\t\t\t </li>\t\t\t\t\t\t\t\t\r\n\t\t\t\t\t\t\t<li class=\"checkbox\">\r\n\t\t\t\t\t\t\t\t<label for=\"problem10\"><input name=\"problem10\" id=\"problem10\" type=\"checkbox\" value=\"Yes\">Other login error not in this list</label>\r\n\t\t\t\t\t\t\t\t<input name=\"problem10\" type=\"hidden\" value=\"No\">\r\n\t\t\t\t\t\t\t </li>\t\t \r\n\t\t\t\t\t\t\t </ul>\r\n\t\t\t\t\t\t<div class=\"checkbox\">\r\n\t\t\t\t\t\t\t<label for=\"problem11\"><input name=\"problem11\" id=\"problem11\" type=\"checkbox\" value=\"Yes\">I can't find what I'm looking for</label>\r\n\t\t\t\t\t\t\t<input name=\"problem11\" type=\"hidden\" value=\"No\">\r\n\t\t\t\t\t\t</div>\r\n\t\t\t\t\t\t<div class=\"checkbox\">\r\n\t\t\t\t\t\t\t<label for=\"problem12\"><input name=\"problem12\" id=\"problem12\" type=\"checkbox\" value=\"Yes\">Other issue not in this list</label>\r\n\t\t\t\t\t\t\t<input name=\"problem12\" type=\"hidden\" value=\"No\">\r\n\t\t\t\t\t\t</div>\t\t\t\t\t\t \t\t\t\t\t\t\t\t\t\t\t\t \r\n\t\t             </fieldset>\r\n\t\t\t\t\t <div>\r\n\t\t\t\t\t   <label for=\"aafc_ranstr\"><span id=\"fbch\"><br>Enter these characters <strong class=\"required\">(required)</strong>: </span><span id=\"ranstr\">U5S</span></label>\r\n\t\t\t           <input name=\"anti-spam-sequence\" id=\"aafc_ranstr\" size=\"4\" maxlength=\"3\" type=\"text\">\r\n\t\t\t\t\t </div>\t\r\n\r\n\t\t\t\t\t <br><input type=\"submit\" class=\"btn btn-primary\" value=\"Submit\">\r\n\t\t\t\t  </form>\r\n\t\t\t\t</div>\r\n\t\t\t</div>\t\t\t\r\n\t\t  </div>\r\n\t\t</div>\r\n\t\t</details>\r\n\t  </div>\r\n\t  <div class=\"wb-share col-sm-4 col-md-3 col-sm-offset-2 col-md-offset-4 col-lg-offset-5\" data-wb-share='{\"lnkClass\": \"btn btn-default btn-block\"}'></div>\r\n\t</div>\r\n\t<dl id=\"wb-dtmd\">\r\n\t  <dt>Date modified: </dt>\r\n\t  <dd><time property=\"dateModified\">2019-10-22</time></dd></dl></div>",
        "fr": "\r\n    \r\n    <!-- MainContentStart -->\r\n    <!-- D&eacute;but du contenu -->\r\n    <div class=\"mrgn-tp-md mrgn-bttm-lg brdr-bttm\">\n\n<div class=\"row\">\n<ul class=\"toc lst-spcd col-md-12 list-unstyled\">\n<li class=\"col-md-3 col-sm-6\"><span class=\"list-group-item\"><a href=\"?id=1291828779399\">\u00c9tape 1. Ce qu'offre ce programme</a></span></li>\n<li class=\"col-md-3 col-sm-6\"><span class=\"list-group-item\"><a href=\"?id=1291836203250\">\u00c9tape 2. Qui est admissible</a></span></li>\n<li class=\"col-md-3 col-sm-6\"><span class=\"list-group-item\"><a href=\"?id=1463428090546\">\u00c9tape 3. Comment pr\u00e9senter une demande</a></span></li>\n<li class=\"col-md-3 col-sm-6 clr-lft-sm\"><span class=\"list-group-item\"><a href=\"?id=1549485507708\">\u00c9tape 4. Apr\u00e8s avoir pr\u00e9sent\u00e9 votre demande</a></span></li>\n<li class=\"col-md-3 col-sm-6\"><span class=\"list-group-item\"><a href=\"?id=1463488151850\">\u00c9tape 5. G\u00e9rer votre compte</a></span></li>\n<li class=\"col-md-3 col-sm-6\"><span class=\"list-group-item\"><a href=\"?id=1549485586652\">Ressources</a></span></li>\n<li class=\"col-md-3 col-sm-6\"><span class=\"list-group-item active\">Pour nous joindre</span></li>\n</ul>\n</div>\n</div>\n\n\n<h2>Pour nous joindre</h2>\n\n<h3>Appeler</h3>\n   \n  <dl>\n   <dt><b>Heures d'ouverture\u00a0:</b></dt>\n   <dd class=\"mrgn-tp-0 mrgn-bttm-0\">8 h - 17 h, HNC, du lundi au vendredi</dd>\n  </dl>\n  \n  \n<details>\n<summary class=\"bg-info\"><h3 class=\"h5\">Mesures de protection : le centre d'appel exigera une confirmation de l'identit\u00e9</h3>\n</summary>\n  \n <div class=\"alert alert-info\">\n   <p>Le Commissariat \u00e0 la protection de la vie priv\u00e9e du Canada affirme que chaque ann\u00e9e, des millions de personnes en Am\u00e9rique du Nord sont victimes d'un vol d'identit\u00e9.</p>\n    <p>La Direction des programmes du revenu agricole d'Agriculture et Agroalimentaire Canada prend des mesures pour assurer la protection de renseignements financiers \u00e0 votre sujet.</p>\n    <p>Selon la <cite>Loi sur la protection des renseignements personnels</cite>, il est interdit de divulguer des renseignements personnels sans autorisation, sauf dans des circonstances tr\u00e8s pr\u00e9cises. Nous devons donc exiger une confirmation de votre identit\u00e9 lorsque vous demandez des renseignements financiers au sujet de votre compte ou de votre demande de participation \u00e0 l'un de nos programmes. Afin d'assurer la protection de vos renseignements personnels, nous vous demanderons des donn\u00e9es pr\u00e9cises.</p>\n    <p>Lorsque vous appelez \u00e0 nos bureaux, soyez pr\u00eats et ayez en main les renseignements suivants.</p>\n     </div>\n    \n    <p><strong>Si vous \u00eates le participant au programme, nous vous demanderons\u00a0:</strong></p>\n   <ul class=\"mrgn-bttm-lg\">\n    <li>votre nom complet;</li>\n    <li>votre num\u00e9ro d'identification personnel (NIP);</li>\n    <li>deux donn\u00e9es de votre plus r\u00e9cente demande, par exemple\u00a0:  Relev\u00e9 de compte du programme Agri-investissement \u2013 solde du Fonds\u00a01 ou du Fonds\u00a02, montant de retrait.</li>\n   </ul>\n   <p><strong>Si vous \u00eates une personne-ressource (mentionn\u00e9e dans la demande) et appelez au nom du participant pour avoir des renseignements financiers, nous vous demanderons\u00a0:</strong></p>\n   <ul>\n    <li>votre nom complet, ainsi que celui du participant;</li>\n    <li>le NIP du participant;</li>\n    <li>votre adresse et num\u00e9ro de telephone;</li>\n    <li>deux donn\u00e9es de la plus r\u00e9cente demande du participant, par exemple\u00a0:\n    <ul>\n  <li>Relev\u00e9 A/T1163, ventes de produits / d\u00e9penses;</li>\n  <li>Relev\u00e9 de compte du programme Agri-investissement - solde d'ouverture ou de cl\u00f4ture, Fonds\u00a01 ou\u00a02, montant de retrait.</li>\n    </ul>\n    </li>\n   </ul>\n   \n    <div class=\"alert alert-info\">\n   <p>Si une personne appelle au nom du participant (un conjoint par exemple) mais n'est pas inscrite comme personne-ressource dans la demande, nous ne pourrons pas lui transmettre d'information sans avoir re\u00e7u une autorisation verbale ou une permission \u00e9crite du participant de divulguer ces renseignements.</p>\n</div>\n  \n</details>\n\n  <dl class=\"mrgn-tp-md\">   \n  <dt>Si vous appelez au Canada\u00a0:</dt>\n  <dd class=\"mrgn-tp-0 mrgn-bttm-0\">Sans frais d'interurbain\u00a0: 1-866-367-8506</dd>\n  <dd class=\"mrgn-tp-0 mrgn-bttm-0\">T\u00e9l\u00e9copieur  (sans frais)\u00a0: 1-877-949-4885</dd>\n  <dd class=\"mrgn-tp-0\">ATME/ATS\u00a0: 613-773-2600</dd>\n     \n  <dt>Si vous appelez hors du Canada\u00a0:</dt>\n  <dd class=\"mrgn-tp-0 mrgn-bttm-0\">T\u00e9l\u00e9phone\u00a0: 204-926-9650</dd>\n   <dd class=\"mrgn-tp-0 mrgn-bttm-0\">T\u00e9l\u00e9copieur\u00a0: 204-259-5642</dd>\n  </dl>\n\n\n\n<h3>Courrier</h3>\n\n<dl>\n<dt>Administration du programme Agri-investissement</dt>\n<dd class=\"mrgn-tp-0 mrgn-bttm-0\">CP 3200</dd>\n<dd class=\"mrgn-tp-0 mrgn-bttm-0\"> Winnipeg MB\u00a0\u00a0R3C 5R7</dd>\n</dl>\n\n  <div class=\"well well-small\"><p><b>Note:</b> Le programme Agri-investissement est mis en \u0153uvre par le gouvernement f\u00e9d\u00e9ral dans toutes les provinces, sauf au Qu\u00e9bec.</p>\n  <p>Au Qu\u00e9bec, le programme Agri-investissement est mis en \u0153uvre par <a href=\"https://www.fadq.qc.ca/fr/accueil/\">La Financi\u00e8re agricole</a>.</p>\n  </div>\n\n\n<p><a href=\"?id=1530013156290\"><img src=\"https://www.agr.gc.ca/resources/prod/img/prog/1522073268316-image-fra.jpg\" alt=\"\"><br>\nSoumettre votre r\u00e9troaction</a></p>\n \n\n<nav>\n <h2 class=\"wb-inv\">Navigation du document - pr\u00e9c\u00e9dente-suivante - bas</h2>\n\n<div class=\"row\">\n<div class=\"col-md-12 mrgn-lft-0 mrgn-rght-0\">\n<ul class=\"pager\">\n<li class=\"previous\"><a href=\"?id=1549485586652\" rel=\"prev\" title=\"Ressources\">Pr\u00e9c\u00e9dente</a></li>\n</ul>\n</div>\n</div>\n</nav>\n\r\n    <!-- Fin du contenu -->\r\n\t\r\n\t<div class=\"pagedetails\" id=\"pgft\">\r\n\t\t<div class=\"row\">\r\n\t\t  <div class=\"col-sm-6 col-md-5 col-lg-4\">\r\n\t\t    <details class=\"brdr-0\">\r\n\t\t\t<summary class=\"btn btn-default text-center\" onclick=\"getAntiSpamSeq('/fra/mail-handler/?anti-spam-sequence=true')\">Signaler un probl\u00e8me sur cette page</summary>\r\n\t\t\t<div class=\"well row\">\r\n\t\t\t  <div class=\"gc-rprt-prblm\">\r\n\t\t\t    <div class=\"gc-rprt-prblm-frm gc-rprt-prblm-tggl\">\r\n\t\t\t\t   <form id=\"report_a_problem_form\" action=\"/fra/mail-handler/\" method=\"post\">\r\n\t            \t <input type=\"hidden\" name=\"lang\" value=\"fra\">\r\n\t            \t <input type=\"hidden\" name=\"pageId\" value=\"1374687910526\">\r\n\t            \t <input type=\"hidden\" name=\"pageUrl\" value=\"http://agr.gc.ca/fra/programmes-et-services-agricoles/agri-investissement/agri-investissement-pour-nous-joindre/?id=1374687910526\">\r\n\t\t\t\t\t <div id=\"report_a_problem_form_error\"></div>\r\n\t\t             <fieldset>\t\t\t\t\t    \r\n\t\t                <legend><span class=\"field-name\">Veuillez cocher toutes les r\u00e9ponses pertinentes\u00a0:</span></legend>\r\n\t\t                 <div class=\"checkbox\">\r\n\t\t                    <label for=\"problem1\"><input name=\"problem1\" id=\"problem1\" type=\"checkbox\" value=\"Yes\">Un lien, un bouton ou une vid\u00e9o ne fonctionne pas</label>\r\n\t\t                    <input name=\"problem1\" type=\"hidden\" value=\"No\">\r\n\t\t                </div>\r\n\t\t                <div class=\"checkbox\">\r\n\t\t                    <label for=\"problem2\"><input name=\"problem2\" id=\"problem2\" type=\"checkbox\" value=\"Yes\">Il y a une erreur d'orthographe ou de grammaire</label>\r\n\t\t                    <input name=\"problem2\" type=\"hidden\" value=\"No\">\r\n\t\t                </div>\r\n\t\t   \t\t\t\t <div class=\"checkbox\">\r\n\t\t                    <label for=\"problem3\"><input name=\"problem3\" id=\"problem3\" type=\"checkbox\" value=\"Yes\">Les renseignements sont incomplets</label>\r\n\t\t                    <input name=\"problem3\" type=\"hidden\" value=\"No\">\r\n\t\t                </div>\r\n\t\t             \t\t<div class=\"checkbox\">\r\n\t\t                    <label for=\"problem4\"><input name=\"problem4\" id=\"problem4\" type=\"checkbox\" value=\"Yes\">L'information n'est plus \u00e0 jour ou est erron\u00e9e</label>\r\n\t\t                    <input name=\"problem4\" type=\"hidden\" value=\"No\">\r\n\t\t                </div>\t\t\t\t\t\t\r\n\t\t\t\t\t\t<div class=\"checkbox\">\r\n\t\t\t\t\t\t\t<label for=\"problem5\"><input name=\"problem5\" id=\"problem5\" type=\"checkbox\" value=\"Yes\">Message d'erreur \u00e0 l'ouverture de la session lorsque je tente d'acc\u00e9der \u00e0 un compte (ex. Mon dossier Service Canada)</label>\r\n\t\t\t\t\t\t\t<input name=\"problem5\" type=\"hidden\" value=\"No\">\r\n\t\t\t\t\t\t</div>\r\n\t\t\t\t\t\t\t<ul>\r\n\t\t\t\t\t\t\t<li class=\"checkbox\">\r\n\t\t\t\t\t\t\t\t<label for=\"problem6a\"><input name=\"problem6\" id=\"problem6a\" type=\"checkbox\" value=\"Yes\">Acc\u00e8s Cl\u00e9GC</label>\r\n\t\t\t\t\t\t\t\t<input name=\"problem6\" type=\"hidden\" value=\"No\">\r\n\t\t\t\t\t\t\t </li>\r\n\t\t\t\t\t\t\t<li class=\"checkbox\">\r\n\t\t\t\t\t\t\t\t<label for=\"problem7\"><input name=\"problem7\" id=\"problem7\" type=\"checkbox\" value=\"Yes\">Acc\u00e8s SecureKey Service de Concierge (justificatifs d'identit\u00e9 bancaires)</label>\r\n\t\t\t\t\t\t\t\t<input name=\"problem7\" type=\"hidden\" value=\"No\">\r\n\t\t\t\t\t\t\t </li>\r\n\t\t\t\t\t\t\t<li class=\"checkbox\">\r\n\t\t\t\t\t\t\t\t<label for=\"problem8\"><input name=\"problem8\" id=\"problem8\" type=\"checkbox\" value=\"Yes\">Probl\u00e8me avec le Code d'acc\u00e8s personnel (CAP) ou avec le Code d'acc\u00e8s (CA) de l'assurance emploi</label>\r\n\t\t\t\t\t\t\t\t<input name=\"problem8\" type=\"hidden\" value=\"No\">\r\n\t\t\t\t\t\t\t </li>\t\r\n\t\t\t\t\t\t\t<li class=\"checkbox\">\r\n\t\t\t\t\t\t\t\t<label for=\"problem9\"><input name=\"problem9\" id=\"problem9\" type=\"checkbox\" value=\"Yes\">Probl\u00e8me li\u00e9 \u00e0 la validation du num\u00e9ro d'assurance sociale (NAS)</label>\r\n\t\t\t\t\t\t\t\t<input name=\"problem9\" type=\"hidden\" value=\"No\">\r\n\t\t\t\t\t\t\t </li>\t\t\t\t\t\t\t\t\r\n\t\t\t\t\t\t\t<li class=\"checkbox\">\r\n\t\t\t\t\t\t\t\t<label for=\"problem10\"><input name=\"problem10\" id=\"problem10\" type=\"checkbox\" value=\"Yes\">Autre erreur lors de l'ouverture de session qui ne figure pas sur cette liste</label>\r\n\t\t\t\t\t\t\t\t<input name=\"problem10\" type=\"hidden\" value=\"No\">\r\n\t\t\t\t\t\t\t </li>\t\t \r\n\t\t\t\t\t\t\t </ul>\r\n\t\t\t\t\t\t<div class=\"checkbox\">\r\n\t\t\t\t\t\t\t<label for=\"problem11\"><input name=\"problem11\" id=\"problem11\" type=\"checkbox\" value=\"Yes\">Je n'arrive pas \u00e0 trouver ce que je cherche</label>\r\n\t\t\t\t\t\t\t<input name=\"problem11\" type=\"hidden\" value=\"No\">\r\n\t\t\t\t\t\t</div>\r\n\t\t\t\t\t\t<div class=\"checkbox\">\r\n\t\t\t\t\t\t\t<label for=\"problem12\"><input name=\"problem12\" id=\"problem12\" type=\"checkbox\" value=\"Yes\">Autre probl\u00e8me qui ne figure pas sur cette liste</label>\r\n\t\t\t\t\t\t\t<input name=\"problem12\" type=\"hidden\" value=\"No\">\r\n\t\t\t\t\t\t</div>\t\t\t\t\t\t\t\t\t\t\t\t\t\t\t\t\t\t\t\r\n\t\t             </fieldset>\r\n\t\t\t\t\t <div>\r\n\t\t\t\t        <label for=\"aafc_ranstr\"><span id=\"fbch\">Veuillez inscrire les caract\u00e8res suivants  <strong class=\"required\">(obligatoire)</strong>\u00a0: </span><span id=\"ranstr\">XXX</span></label>\r\n\t\t\t            <input name=\"anti-spam-sequence\" id=\"aafc_ranstr\" size=\"4\" maxlength=\"3\" type=\"text\">\r\n\t\t\t\t\t </div>\r\n\t\t\t\t\t <input type=\"submit\" class=\"btn btn-primary\" value=\"Soumettre\">\r\n\t\t\t\t  </form>\r\n\t\t\t\t</div>\r\n\t\t\t  </div>\r\n\t\t\t</div>\r\n\t\t</details>\r\n\t    </div>\r\n\t  <div class=\"wb-share col-sm-4 col-md-3 col-sm-offset-2 col-md-offset-4 col-lg-offset-5\" data-wb-share='{\"lnkClass\": \"btn btn-default btn-block\"}'></div>\r\n\t  </div>\r\n\t  <dl id=\"wb-dtmd\">\r\n\t    <dt>Date de modification\u00a0: </dt>\r\n\t      <dd><time property=\"dateModified\">2019-10-22</time></dd>\r\n\t  </dl>\r\n\t</div>\r\n\t\r\n  "
    }
}