{
    "dcr_id": "1580153237101",
    "title": {
        "en": "Agriculture and the environment",
        "fr": "Agriculture et environnement"
    },
    "modified": "2020-12-22",
    "issued": "2020-01-31",
    "templatetype": "content page 1 column",
    "page_type": "1",
    "node_id": "1579021667014",
    "dc_date_created": "2020-01-31",
    "managing_branch": "PAB",
    "parent_node_id": "1354137773675",
    "label": {
        "en": "Agriculture and climate",
        "fr": "Agriculture et climat"
    },
    "exturl": "",
    "teamsite_location": {
        "en": "/default/main/AAFC-AAC/Internet-Internet/CCB-DGCC/WORKAREA/CCB-DGCC/templatedata/comm-comm/gene-gene/data/agriculture_and_climate_1580153237101_en",
        "fr": "/default/main/AAFC-AAC/Internet-Internet/CCB-DGCC/WORKAREA/CCB-DGCC/templatedata/comm-comm/gene-gene/data/agriculture_and_climate_1580153237101_fr"
    },
    "type_name": "sitemapinit",
    "has_dcr_id": true,
    "breadcrumb": {
        "en": "Agriculture and climate",
        "fr": "Agriculture et climat"
    },
    "layout_name": "content page 1 column",
    "lang": "en",
    "meta": {
        "issued": {
            "en": "2020-01-31",
            "fr": "2020-01-31"
        },
        "modified": {
            "en": "2021-02-11",
            "fr": "2021-02-11"
        },
        "format": {
            "en": "gcformat",
            "fr": "gcformat"
        },
        "title": {
            "en": "Agriculture and the environment",
            "fr": "Agriculture et environnement"
        },
        "subject": {
            "en": "environmental protection",
            "fr": "protection de l'environnement;pr\u00e9servation des sols"
        },
        "description": {
            "en": "Weather, climate, drought, geospatial products, soil, water, climate change, indicators, greenhouse gases, biodiversity",
            "fr": "M\u00e9t\u00e9o, climat, s\u00e9cheresse, produits g\u00e9ospatiaux, des sols, l\u2019eau, le changement climatique, les indicateurs, les gaz \u00e0 effet de serre, la biodiversit\u00e9"
        },
        "language": {
            "en": "eng",
            "fr": "fra"
        },
        "keywords": {
            "en": " protecting the environment; land; water; soil;drought watch",
            "fr": " protection de l'environnement; terres; l\u2019eau;Guetter la s\u00e9cheresse"
        },
        "audience": {
            "en": "gcaudience",
            "fr": "gcaudience"
        },
        "type": {
            "en": "administrative page",
            "fr": "page administrative"
        },
        "creator": {
            "en": "Agriculture and Agri-Food Canada",
            "fr": "Agriculture et Agroalimentaire Canada"
        },
        "spatial": {
            "en": "gcregions",
            "fr": "gcregions"
        },
        "service": {
            "en": "AAFC-AAC",
            "fr": "AAFC-AAC"
        },
        "accessRights": {
            "en": "2",
            "fr": "2"
        },
        "legalName": {
            "en": "agriculture_and_agri_food_canada",
            "fr": "agriculture_et_agroalimentaire_canada"
        },
        "areaServed": {
            "en": "Canada",
            "fr": "Canada"
        }
    },
    "body": {
        "en": "tart --&gt;\r\n    <!-- D&eacute;but du contenu -->\r\n    <noscript>\n<div class=\"row profile\">\n<div class=\"col-md-6\">\n     \n        <p>Information on weather and climate relevant to the agricultural sector, Drought Watch, interactive maps, geospatial data and tools, soil data and land resource information, water quality and supply related to farming.</p>\n\n\n <!-- START Social Buttons -->\n<div class=\"pull-left\">\n<section class=\"followus mrgn-tp-0\"> \n   <h2>Follow:</h2> \n   <ul> \n    <li><a href=\"https://www.facebook.com/CanadianAgriculture/\" class=\"facebook gl-follow\" rel=\"external\"> <span class=\"wb-inv\">Facebook</span></a></li> \n    <li><a href=\"https://twitter.com/AAFC_Canada\" class=\"twitter gl-follow\" rel=\"external\"> <span class=\"wb-inv\">Twitter</span></a></li> \n    \n    <li><a href=\"https://www.linkedin.com/company/aafc-aac/?viewAsMember=true\" class=\"linkedin gl-follow\" rel=\"external\"><span class=\"wb-inv\">LinkedIn</span></a></li>    \n    \n    <li><a href=\"https://www.youtube.com/user/AgricultureCanadaEng\" class=\"youtube gl-follow\" rel=\"external\"><span class=\"wb-inv\">YouTube</span></a></li> \n   </ul> \n  </section>\n</div>\n<!-- END Social Buttons -->\n</div>\n<div class=\"col-md-6 mrgn-tp-sm hidden-sm hidden-xs\">\n<img src=\"https://www-uat.agr.gc.ca/resources/prod/img/topic_climate.jpg\" class=\"img-responsive\" alt=\"\"><br>\n</div></div>\n</noscript>\n\n\n<script src=\"https://ajax.googleapis.com/ajax/libs/jquery/2.2.4/jquery.js\"></script>\n<script>\n$( document ).ready( function() {\nvar h1 = document.getElementsByTagName(\"h1\")[0];\nh1.parentNode.removeChild(h1);\ndocument.getElementsByTagName(\"main\")[0].innerHTML = \n'<div class=\"row profile\"><div class=\"col-md-6\"><h1>Agriculture and the environment<p>Information on weather and climate relevant to the agricultural sector, Drought Watch, interactive maps, geospatial data and tools, soil data and land resource information, water quality and supply related to farming.<!-- START Social Buttons --><div class=\"pull-left\"><section class=\"followus mrgn-tp-0\"><h2>Follow:<ul><li><a href=\"https://www.facebook.com/CanadianAgriculture/\" class=\"facebook gl-follow\" rel=\"external\"> <span class=\"wb-inv\">Facebook <li><a href=\"https://twitter.com/AAFC_Canada\" class=\"twitter gl-follow\" rel=\"external\"> <span class=\"wb-inv\">Twitter <li><a href=\"https://www.linkedin.com/company/aafc-aac/?viewAsMember=true\" class=\"linkedin gl-follow\" rel=\"external\"><span class=\"wb-inv\">LinkedIn    <li><a href=\"https://www.youtube.com/user/AgricultureCanadaEng\" class=\"youtube gl-follow\" rel=\"external\"><span class=\"wb-inv\">YouTube <!-- END Social Buttons --><div class=\"col-md-6 mrgn-tp-sm hidden-sm hidden-xs\"><img src=\"https://www.agr.gc.ca/resources/prod/img/topic_climate.jpg\" class=\"pull-right img-responsive thumbnail\" alt=\"\"/><br/>'\n+ document.getElementsByTagName(\"main\")[0].innerHTML;\n})\n</script>\n\n\n\n<div class=\"clearfix\"></div>\n\n\n<div class=\"row\">\n<section class=\"col-md-4 col-xs-12 pull-right lnkbx\">\n<h2>Most requested</h2>\n<ul>\n  <li><a href=\"?id=1346179616865\">Pruning trees and shrubs</a></li>\n  <li><a href=\"?id=1329321981630#c\">Climate scenarios for agriculture</a></li>\n  <li><a href=\"?id=1463575104513\">Canadian  Drought Monitor</a></li>\n</ul>\n</section>\n\n<section class=\"col-md-8 col-xs-12 pull-left\">\n\n\n<div class=\"wb-eqht row wb-init wb-eqht-inited\" id=\"wb-auto-1\">\n\n\n<h2 class=\"col-md-6 nowrap\">Services and information</h2>\n\n<div class=\"clearfix\"></div>\n\n<div class=\"col-md-6\">\n<h3 class=\"h5\">Agroclimate and air quality</h3>\n<ul><li><a href=\"?id=1461263317515\">Drought watch</a></li>\n  <li><b>Air quality indicators</b>\n    <ul>\n      <li><a href=\"?id=1461268525553\">Ammonia Indicator</a></li>\n      <li><a href=\"?id=1462392213883\">Particulate Matter Indicator</a></li>\n      </ul>\n  </li>\n</ul>\n</div>\n\n<div class=\"col-md-6\">\n<h3 class=\"h5\"><a href=\"?id=1370345323701\">Soil and land</a></h3>\n<p>CanSIS, geospatial products, national soil database,  realtime in-situ monitoring </p>\n</div>\n\n<div class=\"clearfix\"></div>\n\n\n<div class=\"col-md-6\">\n<h3 class=\"h5\"><a href=\"?id=1187702145201\">Agriculture and water</a></h3>\n<p>Quality indicators in an agricultural context </p>\n</div>\n\n\n\n<div class=\"col-md-6\">\n<h3 class=\"h5\"><a href=\"?id=1242752035499\">On-farm biodiversity</a></h3>\n<p>Wildlife habitat capacity on farm land, soil covers, international conventions and collections</p>\n</div>\n\n<div class=\"clearfix\"></div>\n\n\n<div class=\"col-md-6\">\n<h3 class=\"h5\"><a href=\"?id=1329321967651\">Climate change and agriculture</a></h3> \n<p>Greenhouse gases, climate change scenarios, weather effects on agriculture</p>\n</div>\n\n<div class=\"col-md-6\">\n<h3 class=\"h5\"><a href=\"?id=1551383721157\">Living Laboratories Initiative</a></h3> \n<p>Agricultural innovation, practical technologies, sustainable farming practices</p>\n</div>\n\n<div class=\"clearfix\"></div>\n\n<div class=\"col-md-6\">\n<h3 class=\"h5\"><a href=\"?id=1467307820931\">Environmental indicators</a> </h3>\n<p>Global report and indicators</p>\n</div>\n\n\n\n<div class=\"col-md-6\">\n<h3 class=\"h5\"><a href=\"?id=1176486531148\">Pest Management</a></h3>\n<p>Crops profile </p>\n</div>\n\n<div class=\"clearfix\"></div>\n\n\n</div></section>\n\n<div class=\"pull-right col-xs-12 col-md-4\">\n<section class=\"lnkbx\">\n\n<h2>Contributors</h2>\n\n<ul>\n    <li><a href=\"?id=1395690825741\">Agriculture and Agri-Food Canada</a></li>\n    <li><a href=\"http://www.inspection.gc.ca/eng/1297964599443/1297965645317\">Canadian Food Inspection Agency</a></li>\n</ul>\n\n</section></div></div>\n\n<div class=\"clearfix\"></div>\n\n\n<h2>Related information</h2>\n<ul><li><a href=\"https://www.inspection.gc.ca/plant-health/fertilizers/eng/1299165827648/1299165914316\">Fertilizers</a></li>\n  <li><a href=\"https://www.canada.ca/en/services/environment/wildlife-plants-species.html\">Biodiversity, plants and species and climate change</a></li>\n  <li><a href=\"?id=1343066456961\">Geospatial products</a></li>\n  <li><a href=\"?id=1208366237788\">Research Projects</a></li>\n</ul>\n\n<h3>Open data  </h3>\n\n    <ul>\n    <li><a href=\"http://open.canada.ca/en/apps/biomass-inventory-mapping-and-analysis-tool?_ga=1.123395459.907347264.1477511162\">Biomass Inventory Mapping       and Analysis Tool </a></li>\n    <li><a href=\"http://open.canada.ca/en/apps/soils-canada?_ga=1.129285636.907347264.1477511162\">Soils of Canada </a></li>\n    <li><a href=\"http://open.canada.ca/en/apps/agrimap?_ga=1.129285636.907347264.1477511162\">AgriMap </a></li>\n    <li><a href=\"http://open.canada.ca/data/en/dataset?organization=aafc-aac&amp;_ga=2.72860243.1764260954.1495727627-1052300347.1494593010&amp;_subject_limit=0\">All related open data</a></li>\n  </ul>\n\n\n\r\n    <!-- Fin du contenu -->\r\n  \r\n  <div class=\"pagedetails\" id=\"pgft\">\r\n    <div class=\"row\">\r\n\t  <div class=\"col-sm-6 col-md-5 col-lg-4\">\r\n\t    <details class=\"brdr-0\">\r\n\t\t<summary class=\"btn btn-default text-center\" onclick=\"getAntiSpamSeq('/eng/mail-handler/?anti-spam-sequence=true')\">Report a problem on this page</summary>\r\n\t\t<div class=\"clearfix\"></div>\r\n\t\t<div class=\"well row\">\r\n\t\t<div>\r\n\t\t  <div class=\"gc-rprt-prblm\">\r\n\t\t    <div class=\"gc-rprt-prblm-frm gc-rprt-prblm-tggl\">\r\n\t\t\t  \r\n\t\t\t<form id=\"report_a_problem_form\" action=\"/eng/mail-handler/#report_a_problem_form\" method=\"post\">\t\t\t\t   \t\t\t\r\n\r\n\t            \t <input type=\"hidden\" name=\"lang\" value=\"eng\">\r\n\t            \t <input type=\"hidden\" name=\"pageId\" value=\"1580153237101\">\r\n\t            \t <input type=\"hidden\" name=\"pageUrl\" value=\"http://www.agr.gc.ca/eng/agriculture-and-the-environment/?id=1580153237101\">\r\n\t\t\t\t\t <div id=\"report_a_problem_form_error\"></div>\r\n\t\t             <fieldset>\t\t\t\t\t    \r\n\t\t                <legend><span class=\"field-name\">Please select all that apply:</span></legend>\t\t                                 \r\n\t\t\t\t\t\t<div class=\"checkbox\">\r\n\t\t\t\t\t\t\t<label for=\"problem1\"><input name=\"problem1\" id=\"problem1\" type=\"checkbox\" value=\"Yes\">A link, button or video is not working</label>\r\n\t\t\t\t\t\t\t<input name=\"problem1\" type=\"hidden\" value=\"No\">\r\n\t\t\t\t\t\t</div>\r\n\t\t\t\t\t\t<div class=\"checkbox\">\r\n\t\t\t\t\t\t\t<label for=\"problem2\"><input name=\"problem2\" id=\"problem2\" type=\"checkbox\" value=\"Yes\">It has a spelling mistake</label>\r\n\t\t\t\t\t\t\t<input name=\"problem2\" type=\"hidden\" value=\"No\">\r\n\t\t\t\t\t\t</div>\r\n\t\t\t\t\t\t<div class=\"checkbox\">\r\n\t\t\t\t\t\t\t<label for=\"problem3\"><input name=\"problem3\" id=\"problem3\" type=\"checkbox\" value=\"Yes\">Information is missing</label>\r\n\t\t\t\t\t\t\t<input name=\"problem3\" type=\"hidden\" value=\"No\">\r\n\t\t\t\t\t   </div>\r\n\t\t\t\t\t\t<div class=\"checkbox\">\r\n\t\t\t\t\t\t\t<label for=\"problem4\"><input name=\"problem4\" id=\"problem4\" type=\"checkbox\" value=\"Yes\">Information is outdated or wrong</label>\r\n\t\t\t\t\t\t\t<input name=\"problem4\" type=\"hidden\" value=\"No\">\r\n\t\t\t\t\t\t</div>\r\n\t\t\t\t\t\t<div class=\"checkbox\">\r\n\t\t\t\t\t\t\t<label for=\"problem5\"><input name=\"problem5\" id=\"problem5\" type=\"checkbox\" value=\"Yes\">Login error when trying to access an account (e.g. My Service Canada Account)</label>\r\n\t\t\t\t\t\t\t<input name=\"problem5\" type=\"hidden\" value=\"No\">\r\n\t\t\t\t\t\t</div>\r\n\t\t\t\t\t\t\t<ul>\r\n\t\t\t\t\t\t\t<li class=\"checkbox\">\r\n\t\t\t\t\t\t\t\t<label for=\"problem6a\"><input name=\"problem6\" id=\"problem6a\" type=\"checkbox\" value=\"Yes\">GC Key access</label>\r\n\t\t\t\t\t\t\t\t<input name=\"problem6\" type=\"hidden\" value=\"No\">\r\n\t\t\t\t\t\t\t </li>\r\n\t\t\t\t\t\t\t<li class=\"checkbox\">\r\n\t\t\t\t\t\t\t\t<label for=\"problem7\"><input name=\"problem7\" id=\"problem7\" type=\"checkbox\" value=\"Yes\">SecureKey Concierge (Banking Credential) access </label>\r\n\t\t\t\t\t\t\t\t<input name=\"problem7\" type=\"hidden\" value=\"No\">\r\n\t\t\t\t\t\t\t </li>\r\n\t\t\t\t\t\t\t<li class=\"checkbox\">\r\n\t\t\t\t\t\t\t\t<label for=\"problem8\"><input name=\"problem8\" id=\"problem8\" type=\"checkbox\" value=\"Yes\">Personal Access Code (PAC) problems or EI Access Code (AC) problems</label>\r\n\t\t\t\t\t\t\t\t<input name=\"problem8\" type=\"hidden\" value=\"No\">\r\n\t\t\t\t\t\t\t </li>\t\r\n\t\t\t\t\t\t\t<li class=\"checkbox\">\r\n\t\t\t\t\t\t\t\t<label for=\"problem9\"><input name=\"problem9\" id=\"problem9\" type=\"checkbox\" value=\"Yes\">Social Insurance Number (SIN) validation problems</label>\r\n\t\t\t\t\t\t\t\t<input name=\"problem9\" type=\"hidden\" value=\"No\">\r\n\t\t\t\t\t\t\t </li>\t\t\t\t\t\t\t\t\r\n\t\t\t\t\t\t\t<li class=\"checkbox\">\r\n\t\t\t\t\t\t\t\t<label for=\"problem10\"><input name=\"problem10\" id=\"problem10\" type=\"checkbox\" value=\"Yes\">Other login error not in this list</label>\r\n\t\t\t\t\t\t\t\t<input name=\"problem10\" type=\"hidden\" value=\"No\">\r\n\t\t\t\t\t\t\t </li>\t\t \r\n\t\t\t\t\t\t\t </ul>\r\n\t\t\t\t\t\t<div class=\"checkbox\">\r\n\t\t\t\t\t\t\t<label for=\"problem11\"><input name=\"problem11\" id=\"problem11\" type=\"checkbox\" value=\"Yes\">I can't find what I'm looking for</label>\r\n\t\t\t\t\t\t\t<input name=\"problem11\" type=\"hidden\" value=\"No\">\r\n\t\t\t\t\t\t</div>\r\n\t\t\t\t\t\t<div class=\"checkbox\">\r\n\t\t\t\t\t\t\t<label for=\"problem12\"><input name=\"problem12\" id=\"problem12\" type=\"checkbox\" value=\"Yes\">Other issue not in this list</label>\r\n\t\t\t\t\t\t\t<input name=\"problem12\" type=\"hidden\" value=\"No\">\r\n\t\t\t\t\t\t</div>\t\t\t\t\t\t \t\t\t\t\t\t\t\t\t\t\t\t \r\n\t\t             </fieldset>\r\n\t\t\t\t\t <div>\r\n\t\t\t\t\t   <label for=\"aafc_ranstr\"><span id=\"fbch\"><br>Enter these characters <strong class=\"required\">(required)</strong>: </span><span id=\"ranstr\">U5S</span></label>\r\n\t\t\t           <input name=\"anti-spam-sequence\" id=\"aafc_ranstr\" size=\"4\" maxlength=\"3\" type=\"text\">\r\n\t\t\t\t\t </div>\t\r\n\r\n\t\t\t\t\t <br><input type=\"submit\" class=\"btn btn-primary\" value=\"Submit\">\r\n\t\t\t\t  </form>\r\n\t\t\t\t</div>\r\n\t\t\t</div>\t\t\t\r\n\t\t  </div>\r\n\t\t</div>\r\n\t\t</details>\r\n\t  </div>\r\n\t  <div class=\"wb-share col-sm-4 col-md-3 col-sm-offset-2 col-md-offset-4 col-lg-offset-5\" data-wb-share='{\"lnkClass\": \"btn btn-default btn-block\"}'></div>\r\n\t</div>\r\n\t<dl id=\"wb-dtmd\">\r\n\t  <dt>Date modified: </dt>\r\n\t  <dd><time property=\"dateModified\">2021-02-11</time></dd></dl></div>",
        "fr": "\r\n    \r\n    <!-- MainContentStart -->\r\n    <!-- D&eacute;but du contenu -->\r\n    <noscript>\n<div class=\"row profile\">\n<div class=\"col-md-6\">\n     \n        <p>Information sur les conditions m\u00e9t\u00e9orologiques pertinentes au secteur agricole, surveillance de la s\u00e9cheresse, cartes interactives, donn\u00e9es et outils g\u00e9ospatiaux, donn\u00e9es sur les sols et information sur les terres, qualit\u00e9 de l'eau et approvisionnement en eau dans le contexte de l'agriculture.</p>\n\n\n<!-- START Social Buttons -->\n<div class=\"pull-left\">\n<section class=\"followus mrgn-tp-0\"> \n <h2>Suivez\u00a0:</h2> \n <ul> \n    <li><a href=\"https://www.facebook.com/AgricultureCanadienne\" class=\"facebook gl-follow\" rel=\"external\"> <span class=\"wb-inv\">Facebook</span></a></li> \n    <li><a href=\"https://twitter.com/AAC_Canada\" class=\"twitter gl-follow\" rel=\"external\"> <span class=\"wb-inv\">Twitter</span></a></li> \n    \n    <li><a href=\"https://www.linkedin.com/company/aafc-aac/?viewAsMember=true\" class=\"linkedin gl-follow\" rel=\"external\"><span class=\"wb-inv\">LinkedIn</span></a></li>\n    \n    <li><a href=\"https://www.youtube.com/user/AgricultureCanadaFra\" class=\"youtube gl-follow\" rel=\"external\"><span class=\"wb-inv\">YouTube</span></a></li> \n </ul> \n  </section> \n  </div>\n<!-- END Social Buttons -->    \n</div>\n<div class=\"col-md-6 mrgn-tp-sm hidden-sm hidden-xs\">\n<img src=\"https://www.agr.gc.ca/resources/prod/img/topic_climate.jpg\" class=\"img-responsive\" alt=\"\"><br>\n</div></div></noscript>\n\n<script src=\"https://ajax.googleapis.com/ajax/libs/jquery/2.2.4/jquery.js\"></script>\n<script>\n$( document ).ready( function() {\nvar h1 = document.getElementsByTagName(\"h1\")[0];\nh1.parentNode.removeChild(h1);\ndocument.getElementsByTagName(\"main\")[0].innerHTML = \n'<div class=\"row profile\"><div class=\"col-md-6\"><h1>Agriculture et environnement<p>Information sur les conditions m&eacute;t&eacute;orologiques pertinentes au secteur agricole, surveillance de la s&eacute;cheresse, cartes interactives, donn&eacute;es et outils g&eacute;ospatiaux, donn&eacute;es sur les sols et information sur les terres, qualit&eacute; de l&rsquo;eau et approvisionnement en eau dans le contexte de l&rsquo;agriculture. <!-- START Social Buttons --> <div class=\"pull-left\"> <section class=\"followus mrgn-tp-0\"> <h2>Suivez&nbsp;: <ul> <li><a href=\"https://www.facebook.com/AgricultureCanadienne\" class=\"facebook gl-follow\" rel=\"external\"> <span class=\"wb-inv\">Facebook <li><a href=\"https://twitter.com/AAC_Canada\" class=\"twitter gl-follow\" rel=\"external\"> <span class=\"wb-inv\">Twitter <li><a href=\"https://www.linkedin.com/company/aafc-aac/?viewAsMember=true\" class=\"linkedin gl-follow\" rel=\"external\"><span class=\"wb-inv\">LinkedIn <li><a href=\"https://www.youtube.com/user/AgricultureCanadaFra\" class=\"youtube gl-follow\" rel=\"external\"><span class=\"wb-inv\">YouTube    <!-- END Social Buttons -->  <div class=\"col-md-6 mrgn-tp-sm hidden-sm hidden-xs\"> <img src=\"https://www.agr.gc.ca/resources/prod/img/topic_climate.jpg\" class=\"pull-right img-responsive thumbnail\" alt=\"\"/><br/>'\n+ document.getElementsByTagName(\"main\")[0].innerHTML;\n})\n</script>\n\n\n<div class=\"clearfix\"></div>\n\n\n<div class=\"row\">\n<section class=\"col-md-4 col-xs-12 pull-right lnkbx\">\n<h2>En demande</h2>\n<ul>\n  <li><a href=\"?id=1189695164631\">Comment fonctionne la filtration?</a></li>\n  <li><a href=\"?id=1371491033072\">Agriculture et la qualit\u00e9 de l\u2019eau</a></li>\n  <li><a href=\"?id=1463575104513\">Outil de surveillance des  s\u00e9cheresses au Canada</a></li>\n</ul>\n</section>\n\n<section class=\"col-md-8 col-xs-12 pull-left\">\n\n<div class=\"wb-eqht row wb-init wb-eqht-inited\" id=\"wb-auto-1\">\n\n<h2 class=\"col-md-6 nowrap\">Services et renseignements</h2>\n\n<div class=\"clearfix\"></div>\n\n<div class=\"col-md-6\">\n<h3 class=\"h5\">Agroclimat et qualit\u00e9 de l'air</h3>\n<ul><li><a href=\"?id=1461263317515\">Guetter la s\u00e9cheresse </a></li>\n<li><b>Indicateurs de la qualit\u00e9 de l'air</b>\n    <ul>\n      <li><a href=\"?id=1461268525553\">Indicateur de l'ammoniac d'origine agricole</a></li>\n      <li><a href=\"?id=1462392213883\">Indicateur des \u00e9missions de particules </a></li>\n      </ul>\n  </li>\n</ul>\n</div>\n\n<div class=\"col-md-6\">\n<h3 class=\"h5\"><a href=\"?id=1370345323701\">Sols et terres</a></h3>\n<p>SISCan,  produits g\u00e9ospatiaux, base  nationale de donn\u00e9es sur les sols, surveillance  in situ en temps r\u00e9el </p>\n</div>\n\n<div class=\"clearfix\"></div>\n\n\n<div class=\"col-md-6\">\n<h3 class=\"h5\"><a href=\"?id=1187702145201\">Eau et agriculture</a></h3>\n<p>Indicateurs de la qualit\u00e9 dans un contexte  agricole</p>\n</div>\n\n\n\n<div class=\"col-md-6\">\n<h3 class=\"h5\"><a href=\"?id=1242752035499\">Biodiversit\u00e9 \u00e0 la ferme \n</a></h3>\n<p>Capacit\u00e9 d'habitat faunique sur les terres agricoles, les couvertures du sol, les conventions internationales et les collections</p>\n</div>\n\n\n<div class=\"col-md-6\">\n<h3 class=\"h5\"><a href=\"?id=1329321967651\">Changements climatiques et agriculture</a></h3>\n<p>Gaz \u00e0 effet de serre, sc\u00e9narios de changements climatiques, les effets de la m\u00e9t\u00e9o sur l'agriculture</p>\n</div>\n\n<div class=\"col-md-6\">\n<h3 class=\"h5\"><a href=\"?id=1551383721157\">Initiative des laboratoires vivants </a></h3>\n<p>Innovation en agriculture, technologies pratiques, pratiques agricoles durables</p>\n</div>\n\n\n<div class=\"clearfix\"></div>\n\n<div class=\"col-md-6\">\n<h3 class=\"h5\"><a href=\"?id=1467307820931\">Indicateurs environnementaux</a> </h3>\n<p>Rapport global et indicateurs</p>\n</div>\n\n\n\n<div class=\"col-md-6\">\n<h3 class=\"h5\"><a href=\"?id=1176486531148\">Lutte antiparasitaire </a></h3>\n<p>Profils de  culture </p>\n</div>\n\n<div class=\"clearfix\"></div>\n\n\n</div></section>\n\n<div class=\"pull-right col-xs-12 col-md-4\">\n<section class=\"lnkbx\">\n\n<h2>Collaborateurs</h2>\n<ul>\n    <li><a href=\"?id=1395690825741\">Agriculture et Agroalimentaire Canada</a></li>\n    <li><a href=\"http://www.inspection.gc.ca/fra/1297964599443/1297965645317\">Agence canadienne d'inspection des aliments</a></li>\n</ul>\n\n</section></div></div>\n\n<div class=\"clearfix\"></div>\n\n\n<h2>Renseignements Connexes</h2>\n<ul><li><a href=\"https://www.inspection.gc.ca/protection-des-vegetaux/engrais/fra/1299165827648/1299165914316\">Engrais</a> \n</li>\n  <li><a href=\"https://www.canada.ca/fr/services/environnement/faune-flore-especes.html\"> La biodiversit\u00e9, Faune, flore et esp\u00e8ces et changements climatiques</a></li>\n  <li><a href=\"?id=1343066456961\">Produits g\u00e9ospatiaux</a></li>\n  <li><a href=\"?id=1208366237788\">Projets de recherch\u00e9  </a></li>\n</ul>\n\n<h3>Donn\u00e9es ouvertes</h3>\n\n    <ul>\n    <li><a href=\"http://ouvert.canada.ca/fr/apps/outil-cartographique-dinventaire-biomasse?_ga=1.155457843.907347264.1477511162\">Outil cartographique d'inventaire de la biomasse</a></li>\n    <li><a href=\"http://ouvert.canada.ca/fr/apps/sols-du-canada?_ga=1.155457843.907347264.1477511162\">Les sols du Canada</a></li>\n    <li><a href=\"http://ouvert.canada.ca/fr/apps/agricarte?_ga=1.155457843.907347264.1477511162\">AgriCarte</a></li>\n    <li><a href=\"http://ouvert.canada.ca/data/fr/dataset?organization%253Daafc-aac%2526_ga%253D2.72860243.1764260954.1495727627-1052300347.1494593010%2526_subject_limit%253D0=&amp;organization=aafc-aac\">Toutes les donn\u00e9es ouvertes connexes</a></li></ul>\n\n\n\r\n    <!-- Fin du contenu -->\r\n\t\r\n\t<div class=\"pagedetails\" id=\"pgft\">\r\n\t\t<div class=\"row\">\r\n\t\t  <div class=\"col-sm-6 col-md-5 col-lg-4\">\r\n\t\t    <details class=\"brdr-0\">\r\n\t\t\t<summary class=\"btn btn-default text-center\" onclick=\"getAntiSpamSeq('/fra/mail-handler/?anti-spam-sequence=true')\">Signaler un probl\u00e8me sur cette page</summary>\r\n\t\t\t<div class=\"well row\">\r\n\t\t\t  <div class=\"gc-rprt-prblm\">\r\n\t\t\t    <div class=\"gc-rprt-prblm-frm gc-rprt-prblm-tggl\">\r\n\t\t\t\t   <form id=\"report_a_problem_form\" action=\"/fra/mail-handler/\" method=\"post\">\r\n\t            \t <input type=\"hidden\" name=\"lang\" value=\"fra\">\r\n\t            \t <input type=\"hidden\" name=\"pageId\" value=\"1580153237101\">\r\n\t            \t <input type=\"hidden\" name=\"pageUrl\" value=\"http://www5.agr.gc.ca/fra/agriculture-et-environnement/?id=1580153237101\">\r\n\t\t\t\t\t <div id=\"report_a_problem_form_error\"></div>\r\n\t\t             <fieldset>\t\t\t\t\t    \r\n\t\t                <legend><span class=\"field-name\">Veuillez cocher toutes les r\u00e9ponses pertinentes\u00a0:</span></legend>\r\n\t\t                 <div class=\"checkbox\">\r\n\t\t                    <label for=\"problem1\"><input name=\"problem1\" id=\"problem1\" type=\"checkbox\" value=\"Yes\">Un lien, un bouton ou une vid\u00e9o ne fonctionne pas</label>\r\n\t\t                    <input name=\"problem1\" type=\"hidden\" value=\"No\">\r\n\t\t                </div>\r\n\t\t                <div class=\"checkbox\">\r\n\t\t                    <label for=\"problem2\"><input name=\"problem2\" id=\"problem2\" type=\"checkbox\" value=\"Yes\">Il y a une erreur d'orthographe ou de grammaire</label>\r\n\t\t                    <input name=\"problem2\" type=\"hidden\" value=\"No\">\r\n\t\t                </div>\r\n\t\t   \t\t\t\t <div class=\"checkbox\">\r\n\t\t                    <label for=\"problem3\"><input name=\"problem3\" id=\"problem3\" type=\"checkbox\" value=\"Yes\">Les renseignements sont incomplets</label>\r\n\t\t                    <input name=\"problem3\" type=\"hidden\" value=\"No\">\r\n\t\t                </div>\r\n\t\t             \t\t<div class=\"checkbox\">\r\n\t\t                    <label for=\"problem4\"><input name=\"problem4\" id=\"problem4\" type=\"checkbox\" value=\"Yes\">L'information n'est plus \u00e0 jour ou est erron\u00e9e</label>\r\n\t\t                    <input name=\"problem4\" type=\"hidden\" value=\"No\">\r\n\t\t                </div>\t\t\t\t\t\t\r\n\t\t\t\t\t\t<div class=\"checkbox\">\r\n\t\t\t\t\t\t\t<label for=\"problem5\"><input name=\"problem5\" id=\"problem5\" type=\"checkbox\" value=\"Yes\">Message d'erreur \u00e0 l'ouverture de la session lorsque je tente d'acc\u00e9der \u00e0 un compte (ex. Mon dossier Service Canada)</label>\r\n\t\t\t\t\t\t\t<input name=\"problem5\" type=\"hidden\" value=\"No\">\r\n\t\t\t\t\t\t</div>\r\n\t\t\t\t\t\t\t<ul>\r\n\t\t\t\t\t\t\t<li class=\"checkbox\">\r\n\t\t\t\t\t\t\t\t<label for=\"problem6a\"><input name=\"problem6\" id=\"problem6a\" type=\"checkbox\" value=\"Yes\">Acc\u00e8s Cl\u00e9GC</label>\r\n\t\t\t\t\t\t\t\t<input name=\"problem6\" type=\"hidden\" value=\"No\">\r\n\t\t\t\t\t\t\t </li>\r\n\t\t\t\t\t\t\t<li class=\"checkbox\">\r\n\t\t\t\t\t\t\t\t<label for=\"problem7\"><input name=\"problem7\" id=\"problem7\" type=\"checkbox\" value=\"Yes\">Acc\u00e8s SecureKey Service de Concierge (justificatifs d'identit\u00e9 bancaires)</label>\r\n\t\t\t\t\t\t\t\t<input name=\"problem7\" type=\"hidden\" value=\"No\">\r\n\t\t\t\t\t\t\t </li>\r\n\t\t\t\t\t\t\t<li class=\"checkbox\">\r\n\t\t\t\t\t\t\t\t<label for=\"problem8\"><input name=\"problem8\" id=\"problem8\" type=\"checkbox\" value=\"Yes\">Probl\u00e8me avec le Code d'acc\u00e8s personnel (CAP) ou avec le Code d'acc\u00e8s (CA) de l'assurance emploi</label>\r\n\t\t\t\t\t\t\t\t<input name=\"problem8\" type=\"hidden\" value=\"No\">\r\n\t\t\t\t\t\t\t </li>\t\r\n\t\t\t\t\t\t\t<li class=\"checkbox\">\r\n\t\t\t\t\t\t\t\t<label for=\"problem9\"><input name=\"problem9\" id=\"problem9\" type=\"checkbox\" value=\"Yes\">Probl\u00e8me li\u00e9 \u00e0 la validation du num\u00e9ro d'assurance sociale (NAS)</label>\r\n\t\t\t\t\t\t\t\t<input name=\"problem9\" type=\"hidden\" value=\"No\">\r\n\t\t\t\t\t\t\t </li>\t\t\t\t\t\t\t\t\r\n\t\t\t\t\t\t\t<li class=\"checkbox\">\r\n\t\t\t\t\t\t\t\t<label for=\"problem10\"><input name=\"problem10\" id=\"problem10\" type=\"checkbox\" value=\"Yes\">Autre erreur lors de l'ouverture de session qui ne figure pas sur cette liste</label>\r\n\t\t\t\t\t\t\t\t<input name=\"problem10\" type=\"hidden\" value=\"No\">\r\n\t\t\t\t\t\t\t </li>\t\t \r\n\t\t\t\t\t\t\t </ul>\r\n\t\t\t\t\t\t<div class=\"checkbox\">\r\n\t\t\t\t\t\t\t<label for=\"problem11\"><input name=\"problem11\" id=\"problem11\" type=\"checkbox\" value=\"Yes\">Je n'arrive pas \u00e0 trouver ce que je cherche</label>\r\n\t\t\t\t\t\t\t<input name=\"problem11\" type=\"hidden\" value=\"No\">\r\n\t\t\t\t\t\t</div>\r\n\t\t\t\t\t\t<div class=\"checkbox\">\r\n\t\t\t\t\t\t\t<label for=\"problem12\"><input name=\"problem12\" id=\"problem12\" type=\"checkbox\" value=\"Yes\">Autre probl\u00e8me qui ne figure pas sur cette liste</label>\r\n\t\t\t\t\t\t\t<input name=\"problem12\" type=\"hidden\" value=\"No\">\r\n\t\t\t\t\t\t</div>\t\t\t\t\t\t\t\t\t\t\t\t\t\t\t\t\t\t\t\r\n\t\t             </fieldset>\r\n\t\t\t\t\t <div>\r\n\t\t\t\t        <label for=\"aafc_ranstr\"><span id=\"fbch\">Veuillez inscrire les caract\u00e8res suivants  <strong class=\"required\">(obligatoire)</strong>\u00a0: </span><span id=\"ranstr\">XXX</span></label>\r\n\t\t\t            <input name=\"anti-spam-sequence\" id=\"aafc_ranstr\" size=\"4\" maxlength=\"3\" type=\"text\">\r\n\t\t\t\t\t </div>\r\n\t\t\t\t\t <input type=\"submit\" class=\"btn btn-primary\" value=\"Soumettre\">\r\n\t\t\t\t  </form>\r\n\t\t\t\t</div>\r\n\t\t\t  </div>\r\n\t\t\t</div>\r\n\t\t</details>\r\n\t    </div>\r\n\t  <div class=\"wb-share col-sm-4 col-md-3 col-sm-offset-2 col-md-offset-4 col-lg-offset-5\" data-wb-share='{\"lnkClass\": \"btn btn-default btn-block\"}'></div>\r\n\t  </div>\r\n\t  <dl id=\"wb-dtmd\">\r\n\t    <dt>Date de modification\u00a0: </dt>\r\n\t      <dd><time property=\"dateModified\">2021-02-11</time></dd>\r\n\t  </dl>\r\n\t</div>\r\n\t\r\n  "
    }
}