{
    "dcr_id": "1411999466585",
    "title": {
        "en": "Fields of Science",
        "fr": "Champs scientifiques"
    },
    "modified": "2021-01-27",
    "issued": "2014-10-03",
    "templatetype": "content page 1 column",
    "page_type": "1",
    "node_id": "1580484509368",
    "dc_date_created": "2014-10-03",
    "managing_branch": "PAB",
    "parent_node_id": "1579021708622",
    "label": {
        "en": "Fields of Science",
        "fr": "Champs scientifique"
    },
    "exturl": "",
    "teamsite_location": {
        "en": "/default/main/AAFC-AAC/Internet-Internet/CCB-DGCC/WORKAREA/CCB-DGCC/templatedata/comm-comm/gene-gene/data/discover_ag_decouvrez_ag_1411999466585_en",
        "fr": "/default/main/AAFC-AAC/Internet-Internet/CCB-DGCC/WORKAREA/CCB-DGCC/templatedata/comm-comm/gene-gene/data/discover_ag_decouvrez_ag_1411999466585_fr"
    },
    "type_name": "sitemapinit",
    "has_dcr_id": true,
    "breadcrumb": {
        "en": "Fields of Science",
        "fr": "Champs scientifique"
    },
    "layout_name": "content page 1 column",
    "lang": "en",
    "meta": {
        "issued": {
            "en": "2014-10-03",
            "fr": "2014-10-03"
        },
        "modified": {
            "en": "2021-02-08",
            "fr": "2021-02-08"
        },
        "format": {
            "en": "gcformat",
            "fr": "gcformat"
        },
        "title": {
            "en": "Fields of Science",
            "fr": "Champs scientifiques"
        },
        "subject": {
            "en": "agriculture;food",
            "fr": "agriculture;aliment"
        },
        "description": {
            "en": "Learn about Agriculture and Agri-Food Canada's (AAFC) scientists and how they make sure the food you eat is safe, high quality, and produced in sustainable ways.",
            "fr": "Vous pourrez vous renseigner sur les chercheurs d'Agriculture et Agroalimentaire Canada (AAC) et comment ils s'assurent que les aliments que vous consommez sont salubres, haute qualit\u00e9 et produits de mani\u00e8re durable."
        },
        "language": {
            "en": "eng",
            "fr": "fra"
        },
        "keywords": {
            "en": " producers and exporters;commodities",
            "fr": " producteurs et exportateurs;Principales productions"
        },
        "audience": {
            "en": "gcaudience",
            "fr": "gcaudience"
        },
        "type": {
            "en": "resource list",
            "fr": "liste de r\u00e9f\u00e9rence"
        },
        "creator": {
            "en": "Agriculture and Agri-Food Canada;Government of Canada",
            "fr": "Agriculture et Agroalimentaire Canada;Gouvernement du Canada"
        },
        "spatial": {
            "en": "gcregions",
            "fr": "gcregions"
        },
        "service": {
            "en": "AAFC-AAC",
            "fr": "AAFC-AAC"
        },
        "accessRights": {
            "en": "2",
            "fr": "2"
        },
        "legalName": {
            "en": "agriculture_and_agri_food_canada",
            "fr": "agriculture_et_agroalimentaire_canada"
        },
        "areaServed": {
            "en": "Canada",
            "fr": "Canada"
        }
    },
    "body": {
        "en": "tart --&gt;\r\n    <!-- D&eacute;but du contenu -->\r\n    <section>\n<div class=\"wb-tabs carousel-s2 playing slow\"> \n<ul role=\"tablist\">\n<li role=\"presentation\" class=\"active\"><a href=\"#panel1\" tabindex=\"0\" role=\"tab\" aria-selected=\"true\" aria-controls=\"panel1\" id=\"panel1-lnk\"><img src=\"https://www.agr.gc.ca/resources/prod/img/science/images/agawareness/carrousel_josetorres-eng.jpg\" alt=\"tab 1\"></a></li>\n<li role=\"presentation\" class=\"\"><a href=\"#panel2\" tabindex=\"-1\" role=\"tab\" aria-selected=\"false\" aria-controls=\"panel2\" id=\"panel2-lnk\"><img src=\"https://www.agr.gc.ca/resources/prod/img/science/images/agawareness/carrousel_helentai-eng.jpg\" alt=\"tab 2\"></a></li>\n<li role=\"presentation\" class=\"\"><a href=\"#panel3\" tabindex=\"-1\" role=\"tab\" aria-selected=\"false\" aria-controls=\"panel3\" id=\"panel3-lnk\"><img src=\"https://www.agr.gc.ca/resources/prod/img/science/images/agawareness/carrousel_tonysavard-eng.jpg\" alt=\"tab 3\"></a></li>\n</ul>\n\n<!-- Panels START -->\n<div class=\"tabpanels\">\n<div role=\"tabpanel\" id=\"panel1\" class=\"in fade\">  \n<figure>\n<img src=\"https://www.agr.gc.ca/resources/prod/img/science/images/agawareness/carrousel_josetorres-eng.jpg\" alt=\"Dr. Jos\u00e9 Ram\u00f3n \u00darbez-Torres: From the vineyard to your basket. We cover a lot of ground.\">\n  </figure> \n  </div>\n<div role=\"tabpanel\" id=\"panel2\" class=\"fade out noheight\" tabindex=\"-1\" aria-hidden=\"true\" aria-expanded=\"false\" aria-labelledby=\"panel2-lnk\">\n<figure>\n<img src=\"https://www.agr.gc.ca/resources/prod/img/science/images/agawareness/carrousel_helentai-eng.jpg\" alt=\"Helen Tai: From the field to your basket. We cover a lot of ground.\">\n  </figure> \n  </div>\n<div role=\"tabpanel\" id=\"panel3\" class=\"fade out noheight\" tabindex=\"-1\" aria-hidden=\"true\" aria-expanded=\"false\" aria-labelledby=\"panel3-lnk\">\n<figure>\n<img src=\"https://www.agr.gc.ca/resources/prod/img/science/images/agawareness/carrousel_tonysavard-eng.jpg\" alt=\"Dr. Tony Savard: From the field to your basket. We cover a lot of ground.\">\n  </figure> \n  </div>\n</div>\n<!-- Panels END -->\n\n</div>\n</section>\n\n<p class=\"mrgn-tp-md\">Welcome to our Fields of  Science page \u2013 where you will learn about Agriculture and Agri-Food Canada's  (AAFC) scientists and how they make sure the food you eat is safe, high  quality, and produced in sustainable ways.</p>\n\n<section class=\"gc-prtts\">\n<h2>Meet our scientists</h2>\n\t\n<p>Learn why they are passionate about their research.</p>\t\n\t\n<div class=\"row\">\n\n<div class=\"col-md-3 mrgn-bttm-md\">\n<figure>\n<a href=\"?id=1611687792239\"><img src=\"http://multimedia.agr.gc.ca/pack/img/avatar_candido_pomar.jpg\" alt=\"Dr. Candido Pomar\" class=\"img-responsive brdr-0\"></a>\n<figcaption class=\"text-center\"><a href=\"?id=1611687792239\"><b>Dr. Candido Pomar</b></a><br class=\"nowrap\">\nSystem Analysis<br>\nPrecision Nutrition and Modelling<br>\n<span class=\"glyphicon glyphicon-map-marker mrgn-rght-sm\" aria-hidden=\"true\"></span><b><a href=\"https://profils-profiles.science.gc.ca/en/research-centre/sherbrooke-research-and-development-centre\">Sherbrooke Research and Development Centre</a></b></figcaption>\t\n</figure>\n</div>\n\n<div class=\"col-md-3 mrgn-bttm-md\">\n<figure>\n<a href=\"?id=1610997878919\"><img src=\"http://multimedia.agr.gc.ca/pack/img/avatar-christopher-garnham.jpg\" alt=\"Dr. Christopher Garnham\" class=\"img-responsive brdr-0\"></a>\n<figcaption class=\"text-center\"><a href=\"?id=1610997878919\"><b>Dr. Christopher Garnham</b></a><br class=\"nowrap\">\nResearch Scientist<br>\nProtein Biochemist<br>\n<span class=\"glyphicon glyphicon-map-marker mrgn-rght-sm\" aria-hidden=\"true\"></span><b><a href=\"https://profils-profiles.science.gc.ca/en/research-centre/london-research-and-development-centre\">London Research and Development Centre</a></b></figcaption>\t\n</figure>\n</div>\n\n<div class=\"col-md-3 mrgn-bttm-md\">\n<figure>\n<a href=\"?id=1606933989358\"><img src=\"http://multimedia.agr.gc.ca/pack/img/heather_mcnairn.png\" alt=\"Dr. Heather McNairn\" class=\"img-responsive brdr-0\"></a>\n<figcaption class=\"text-center\"><a href=\"?id=1606933989358\"><b>Dr. Heather McNairn</b></a><br class=\"nowrap\">\nResearch Scientist<br> \nRemote Sensing Specialist<br>\n<span class=\"glyphicon glyphicon-map-marker mrgn-rght-sm\" aria-hidden=\"true\"></span><b><a href=\"https://profils-profiles.science.gc.ca/en/research-centre/ottawa-research-and-development-centre\">Ottawa Research and Development Centre</a></b></figcaption>\t\n</figure>\n</div>\n\n<div class=\"col-md-3 mrgn-bttm-md\">\n<figure>\n<a href=\"?id=1583183613915\"><img src=\"https://www.agr.gc.ca/resources/prod/img/science/images/agawareness/avatars_karen_beauchemin.png\" alt=\"Dr. Karen Beauchemin\" class=\"img-responsive mrgn-bttm-sm brdr-0\"></a>\n<figcaption class=\"text-center\"><a href=\"?id=1583183613915\"><b>Dr. Karen Beauchemin</b></a><br>\nResearch Scientist<br>\nRuminant Nutrition<br>\n<span class=\"glyphicon glyphicon-map-marker mrgn-rght-sm\" aria-hidden=\"true\"></span><b><a href=\"https://profils-profiles.science.gc.ca/en/research-centre/lethbridge-research-and-development-centre\">Lethbridge, Alberta</a></b></figcaption>\t\n</figure>\n</div>\n</div>\n\n\n<div class=\"row\">\n\n<div class=\"col-md-3 mrgn-bttm-md\">\n<figure>\n<a href=\"?id=1572979188633\"><img src=\"https://www.agr.gc.ca/resources/prod/img/science/images/agawareness/avatars_juliebrassard_lesswhite.png\" alt=\"Dr. Julie Brassard\" class=\"img-responsive mrgn-bttm-sm brdr-0\"></a>\n<figcaption class=\"text-center\"><a href=\"?id=1572979188633\"><b>Dr. Julie Brassard</b></a><br>\nResearch Scientist<br>\nFood and Environmental Virology<br>\n<span class=\"glyphicon glyphicon-map-marker mrgn-rght-sm\" aria-hidden=\"true\"></span><b><a href=\"https://profils-profiles.science.gc.ca/en/research-centre/saint-hyacinthe-research-and-development-centre\">Saint-Hyacinthe, Quebec</a></b></figcaption>\t\n</figure>\n</div>\n\n<div class=\"col-md-3 mrgn-bttm-md\">\n<figure>\n<a href=\"?id=1580134069967\"><img src=\"https://www.agr.gc.ca/resources/prod/img/science/images/agawareness/avatars_charlesforney_lesswhite.png\" alt=\"Dr. Charles Forney\" class=\"img-responsive mrgn-bttm-sm brdr-0\"></a>\n<figcaption class=\"text-center\"><a href=\"?id=1580134069967\"><b>Dr. Charles Forney</b></a><br>\nResearch Scientist<br>\nPostharvest Physiology<br>\n<span class=\"glyphicon glyphicon-map-marker mrgn-rght-sm\" aria-hidden=\"true\"></span><b><a href=\"https://profils-profiles.science.gc.ca/en/research-centre/kentville-research-and-development-centre\">Kentville, Nova Scotia</a></b></figcaption>\t\n</figure>\n</div>\n\n<div class=\"col-md-3 mrgn-bttm-md\">\n<figure>\n<a href=\"https://www.agr.gc.ca/eng/canadas-agriculture-sectors/fields-of-science/dr-helen-tai/?id=1580138354018\"><img src=\"https://www.agr.gc.ca/resources/prod/img/science/images/agawareness/avatars_helentai_lesswhite.png\" alt=\"Dr. Helen Tai\" class=\"img-responsive mrgn-bttm-sm brdr-0\"></a>\n<figcaption class=\"text-center\"><a href=\"https://www.agr.gc.ca/eng/canadas-agriculture-sectors/fields-of-science/dr-helen-tai/?id=1580138354018\"><b>Dr. Helen Tai</b></a><br>\nResearch Scientist<br>\nPlant Genetics and Genomics<br>\n<span class=\"glyphicon glyphicon-map-marker mrgn-rght-sm\" aria-hidden=\"true\"></span><b><a href=\"https://profils-profiles.science.gc.ca/en/research-centre/fredericton-research-and-development-centre\">Fredericton,<br> New Brunswick</a></b></figcaption>\t\n</figure>\n</div>\n\n<div class=\"col-md-3 mrgn-bttm-md\">\n<figure>\n<a href=\"?id=1580135354473\"><img src=\"https://www.agr.gc.ca/resources/prod/img/science/images/agawareness/avatars_josetorres_lesswhite.png\" alt=\"Dr. Jos\u00e9 Ram\u00f3n \u00darbez-Torres\" class=\"img-responsive mrgn-bttm-sm brdr-0\"></a>\n<figcaption class=\"text-center\"><a href=\"?id=1580135354473\"><b>Dr. Jos\u00e9 Ram\u00f3n \u00darbez-Torres</b></a><br>\nResearch Scientist<br>\nPlant Pathology<br>\n<span class=\"glyphicon glyphicon-map-marker mrgn-rght-sm\" aria-hidden=\"true\"></span><b><a href=\"https://profils-profiles.science.gc.ca/en/research-centre/summerland-research-and-development-centre\">Summerland,<br> British Columbia</a></b></figcaption>\t\n</figure>\n</div>\n</div>\n</section>\n\n\n\n<h2 class=\"h4\">Test your agri-knowledge</h2>\n\n\n<div class=\"row wb-eqht\">\n<div class=\"col-md-3\">\n\t\n\t<figure>\n<img src=\"https://www.agr.gc.ca/resources/prod/img/science/images/agawareness/quiz_icon_question-1.jpg\" alt=\"\" class=\"img-responsive mrgn-bttm-sm\">\n<figcaption>1. True or False: Agriculture and Agri Food Canada is the largest single provider of agricultural research in Canada.</figcaption>\n\n<select class=\"form-control mrgn-tp-md\">\n<option>Select an answer</option>\n<option>True</option>\n<option>False</option>\n</select>\t\n</figure>\n\n<details class=\"mrgn-tp-lg\">\n<summary class=\"bg-success\"><b>Answer</b></summary>\n<p>Answer: True.</p>\n<p>AAFC works with industry leaders, academics, international organizations, provincial and territorial governments, and more. Using agricultural research and innovation, we support the growth and development of Canada's agricultural sector and create better opportunities for farmers and Canadians.</p>\n</details>\n\n\t\n</div>\t\n\n\n\t\n<div class=\"col-md-3\">\n\t\n<figure>\n<img src=\"https://www.agr.gc.ca/resources/prod/img/science/images/agawareness/quiz_icon_question-2.jpg\" alt=\"\" class=\"img-responsive mrgn-bttm-sm\">\n<figcaption>2. True or False: The name \"canola\" comes from combining the words \"Canada\" and \"oil.\" </figcaption>\n\n<select class=\"form-control mrgn-tp-lg\">\n<option>Select an answer</option>\n<option>True</option>\n<option>False</option>\n</select>\t\n</figure>\n\n<details class=\"mrgn-tp-lg\">\n<summary class=\"bg-success\"><b>Answer</b></summary>\n<p>Answer: True.</p>\n<p>Canola, one of Canada's largest crops, was developed by Canadian scientists in the 1960s. Today, Canada is the number one canola-producing and exporting country in the world. We produce approximately 20 million tonnes of canola yearly, of which more than half is exported worldwide.</p>\n</details>\t\n  </div>\t\n<div class=\"col-md-3\">\n\t\n<figure>\n<img src=\"https://www.agr.gc.ca/resources/prod/img/science/images/agawareness/quiz_icon_question-3.jpg\" alt=\"\" class=\"img-responsive mrgn-bttm-sm\">\n<figcaption>3.True or False: AAFC found a fungus that can be used as a natural weed killer.</figcaption>\n\n<select class=\"form-control mrgn-tp-lg\">\n<option>Select an answer</option>\n<option>True</option>\n<option>False</option>\n</select>\t\n</figure>\n\n<details class=\"mrgn-tp-lg\">\n<summary class=\"bg-success\"><b>Answer</b></summary>\n<p>Answer: True</p>\n<p>Phoma macrostoma is fungus that can be used as a bioherbicide - a natural weed killer. It is absorbed into the soil, enters weed roots, and infects the plant, which turns white and dies. The fungus doesn't affect your grass and because it occurs naturally, it poses less risk to animals, plants, and the environment.</p>\n</details>\n\n\t\n  </div>\n\n<div class=\"col-md-3\">\n\t\n\t<figure>\n<img src=\"https://www.agr.gc.ca/resources/prod/img/science/images/agawareness/quiz_icon_question-4.jpg\" alt=\"\" class=\"img-responsive mrgn-bttm-sm\">\n<figcaption>4. Pulses are a category of crops that include dry beans, peas, lentils, and chickpeas. Pulses provide many benefits. Which of the following is not a benefit of pulses?</figcaption>\n\n<select class=\"form-control mrgn-tp-md\">\n<option>Select an answer</option>\n<option>a) Helps control blood sugar</option>\n<option>b) Improves soil quality</option>\n<option>c) Cures food intolerances and sensitivities</option>\n<option>d) Reduces risk of heart disease</option>\n</select>\t\n</figure>\n\n<details class=\"mrgn-tp-md\">\n<summary class=\"bg-success\"><b>Answer</b></summary>\n<p>Answer: C</p>\n<p>Pulses cannot cure food intolerances and sensitivities, but they can provide more food options for those with food intolerances and gluten sensitivities. Pulse ingredients can be used in foods Canadians already eat, such as bread. Breads containing pulses have slower digestible starch. Slowly digestible starch improves gut health, the absorption of glucose, and helps stabilize blood sugar levels. </p>\n</details>\n\n\t\n</div>\t\n\n\t\n</div>\n\n\t<div class=\"clearfix\"></div>\n\n<details>\n<summary>More quiz questions</summary>\n\n\n\n<div class=\"row wb-eqht\">\n\t\n<div class=\"col-md-3\">\n\t\n<figure>\n<img src=\"https://www.agr.gc.ca/resources/prod/img/science/images/agawareness/quiz_icon_question-5.jpg\" alt=\"\" class=\"img-responsive mrgn-bttm-sm\">\n<figcaption>5. How many AAFC research and development centres are there across Canada?</figcaption>\n\n<select class=\"form-control mrgn-tp-md\">\n<option>Select an answer</option>\n<option>a) 12</option>\n<option>b) 20</option>\n<option>c) 5</option>\n<option>d) 2</option>\n</select>\t\n</figure>\n\n<details class=\"mrgn-tp-md\">\n<summary class=\"bg-success\"><b>Answer</b></summary>\n<p>Answer: B</p>\n<p>There are 20 research and development centres across Canada. AAFC scientists and researchers across the country work on projects to benefit Canadian farmers, industry, and Canadians. We also maintain biological collections and resources, such as the Canadian National Collection of Insects, Arachnids and Nematodes. Check out our <a href=\"\">research centres and collections</a>.</p>\n</details>\t\n\t</div>\t\n<div class=\"col-md-3\">\n\t\n<figure>\n<img src=\"https://www.agr.gc.ca/resources/prod/img/science/images/agawareness/quiz_icon_question-6.jpg\" alt=\"\" class=\"img-responsive mrgn-bttm-sm\">\n<figcaption>6. Research conducted by AAFC scientists has led to many new discoveries. Which of the following discoveries have AAFC scientists worked on?</figcaption>\n\n<select class=\"form-control mrgn-tp-md\">\n<option>Select an answer</option>\n<option>a) A precision feeding system for pigs that lowers feed costs and positively impacts the environment</option>\n<option>b) A preservation method to improve the natural flavour and maintain the texture of frozen vegetables</option>\n<option>c) A pest control method that uses Canadian mustard as an environmentally friendly pesticide</option>\n<option>d) All of the above Answer</option>\n</select>\t\n</figure>\n\n<details class=\"mrgn-tp-md\">\n<summary class=\"bg-success\"><b>Answer</b></summary>\n<p>Answer: D</p>\n<p>AAFC research scientists have worked on many projects to benefit Canadian farmers, industry, and Canadians. These are just a small number of them. All this research drives innovation in Canada's agriculture and agri-food sector.</p>\n</details>\n</div>\n\n<div class=\"col-md-3\">\n\t\n\t<figure>\n<img src=\"https://www.agr.gc.ca/resources/prod/img/science/images/agawareness/quiz_icon_question-7.jpg\" alt=\"\" class=\"img-responsive mrgn-bttm-sm\">\n<figcaption>7. True or False? Potatoes can be made into biodegradable plastics.</figcaption>\n\n<select class=\"form-control mrgn-tp-md\">\n<option>Select an answer</option>\n<option>True</option>\n<option>False</option>\n</select>\t\n</figure>\n\n<details class=\"mrgn-tp-md\">\n<summary class=\"bg-success\"><b>Answer</b></summary>\n<p>Answer: True</p>\n<p>Yes, both your fries and your fork can be made from potatoes! Biodegradable plastics made from potato starches decompose in approximately two months.</p>\n</details>\n</div>\n</div>\n\n</details>\n<div class=\"clearfix\"></div>\n\n\n\n<section class=\"gc-prtts\">\n<h2>More agriculture and agri-food science</h2>\n<div class=\"row\">\n\n<div class=\"col-lg-4 col-md-6 mrgn-bttm-md\">\n<a href=\"?id=1611687792239\">\n<figure>\n<figcaption>Meet Dr. Candido Pomar</figcaption>\n<img src=\"http://multimedia.agr.gc.ca/pack/img/meet_candido_pomar.jpg\" alt=\"Dr. Candido Pomar\" class=\"img-responsive thumbnail mrgn-bttm-sm\">\n<p>Learn how a new feeding system helps Canadian pigs get the right amount of nutrients in every meal, which impacts animal well being, is more beneficial to the environment and produces top-quality pork.</p>\n</figure>\n</a>\n</div>\n\n<div class=\"col-lg-4 col-md-6 mrgn-bttm-md\">\n<a href=\"?id=1610997878919\">\n<figure>\n<figcaption>Meet Dr. Christopher Garnham</figcaption>\n<img src=\"http://multimedia.agr.gc.ca/pack/img/christopher-garnham-in-the-lab.jfif\" alt=\"Dr. Christopher Garnham\" class=\"img-responsive thumbnail mrgn-bttm-sm\">\n<p>Find out how scientists are working to transform crop diseases into harmless anti toxins to better protect your food.</p>\n</figure>\n</a>\n</div>\n\n<div class=\"col-lg-4 col-md-6 mrgn-bttm-md\">\n<a href=\"?id=1583183613915\">\n<figure>\n<figcaption>Meet Dr. Karen Beauchemin</figcaption> \n\t<img src=\"https://www.agr.gc.ca/resources/prod/img/science/images/agawareness/homepage_features_karen_beauchemin.jpg\" alt=\"Karen Beauchemin\" class=\"img-responsive thumbnail mrgn-bttm-sm\">\n<p>Learn how scientists are researching ways that a cow's genetics and diet can lower methane emissions.</p>\n</figure>\n</a>\n</div>\n\n\n<!--\n\n<div class=\"col-lg-4 col-md-6 mrgn-bttm-md\">\n<a href=\"\">\n<figure>\n<figcaption>Scientific achievements in agriculture</figcaption>\n<img src=\"https://www.agr.gc.ca/resources/prod/img/science/images/agawareness/homepage_features-science_achievement.jpg\" alt=\"xxx\" class=\"img-responsive thumbnail mrgn-bttm-sm\"/>\n<p>Learn about recent scientific discoveries, new technologies and successes.</p>\n</figure>\n</a>\n</div>\n-->\n\n\n</div>\n</section>\n\n<p class=\"small\"><b>Note</b>: All footage and images were gathered prior to the Government of Canada's physical distancing guidelines. Canadians are encouraged to continue to follow COVID-19 safety guidelines.</p>\n\n<h2 class=\"h4\">Science bites</h2>\n\n\n<section class=\"panel panel-info\">\n  <header class=\"panel-heading\">\n   <h3 class=\"h5 panel-title\" id=\"a\">Our scientists at Agriculture and Agri-Food Canada are outstanding in their fields</h3>\n  </header>\n  <div class=\"panel-body\">\n  <div class=\"col-md-9\">\n\n<p>What do they do?</p>\n\n<p>Their goal is simple \u2014 making sure the foods you eat are safe, high quality, and produced in sustainable ways.</p>\n\n<p>Dr. Julie Brassard: Research Scientist,  Food and Environmental Virology (Saint-Hyacinthe, Quebec)</p>\n\n<p>Dr. Jos\u00e9 Ram\u00f3n \u00darbez-Torres: Research Scientist, Plant Pathology (Summerland, British Columbia)</p>\n\n<p>Dr. Helen Tai: Research Scientist, Plant Genetics and Genomics (Fredericton, New Brunswick)</p>\n\n<p>They conduct about half of all agriculture related research in Canada.</p>\n\n<p>They work at 20 research centres across the country.</p>\n\n<p>They use climate-controlled growth chambers, facilities for insect production, weather-monitoring stations, biology labs and even a small winery.</p>\n\n<p>They help farmers improve and protect their crops and produce food for Canadians in an environmentally friendly way.</p>\n\n</div>\n  <div class=\"col-md-3 well\">\n<p><img alt=\"\" src=\"https://www.agr.gc.ca/resources/prod/img/science/images/agawareness/infographic_generic_field_science-eng.jpg\" class=\"img-responsive\"></p>\n<p><a href=\"https://www.agr.gc.ca/resources/prod/pdf/discover-decouvrez/infographic_generic_fields_science-eng.pdf\">Download the \"Our scientists at Agriculture and Agri-Food Canada are outstanding in their fields\" infographic (PDF, 279\u00a0KB)</a></p>\n</div>\n  </div>\n</section>\n\n<section class=\"panel panel-success\">\n  <header class=\"panel-heading\">\n   <h3 class=\"h5 panel-title\" id=\"b\">A taste of our science</h3>\n  </header>\n  <div class=\"panel-body\">\n  <div class=\"col-md-9\">\n\n<p>Our scientists work to ensure food products are safe, high quality, and produced in sustainable ways. Here are four agricultural scientists you may find at our research centres and how they work for you.</p>\n\n<p>Dr. Julie Brassard \u2013 Saint-Hyacinthe, Quebec<br>\nFood and Environmental Virologist:<br> \nFrom farm to table, Dr. Brassard studies how viruses travel between humans, animals and the environment and develops strategies to stop their spread.</p>\n\n<p>Dr. Jos\u00e9 Ram\u00f3n \u00darbez-Torres \u2013 Summerland, British Columbia<br>\nPlant Pathologist: <br>\nHealthy plants produce more food. Dr. \u00darbez-Torres studies the causes of plant diseases and how to fight them so we can have high-quality, safe to eat crops.</p>\n\n<p>Dr. Heather McNairn \u2013 Ottawa, Ontario<br>\nRemote Sensing Specialist: <br>\nUnderstanding plant environments will help to grow better crops. Dr. McNairn uses satellite images to monitor crops and their soil conditions.</p>\n\n<p>Dr. Sylvie Cloutier \u2013 Ottawa, Ontario<br>\nMolecular Geneticist: <br>\nGood food starts at the microscopic level. Dr. Cloutier creates smarter crops by identifying which genes help plants adapt to climate change.</p>\n\n</div>\n  <div class=\"col-md-3 well\">\n<p><img alt=\"\" src=\"https://www.agr.gc.ca/resources/prod/img/science/images/agawareness/infographic_types_agri_science-eng.jpg\" class=\"img-responsive\"></p>\n<p><a href=\"https://www.agr.gc.ca/resources/prod/pdf/discover-decouvrez/infographic_types_ag_science-eng.pdf\">Download the A taste of our science infographic (PDF, 326\u00a0KB)</a>\n</p>\n</div>\n  </div>\n</section>\n\n\r\n    <!-- Fin du contenu -->\r\n  \r\n  <div class=\"pagedetails\" id=\"pgft\">\r\n    <div class=\"row\">\r\n\t  <div class=\"col-sm-6 col-md-5 col-lg-4\">\r\n\t    <details class=\"brdr-0\">\r\n\t\t<summary class=\"btn btn-default text-center\" onclick=\"getAntiSpamSeq('/eng/mail-handler/?anti-spam-sequence=true')\">Report a problem on this page</summary>\r\n\t\t<div class=\"clearfix\"></div>\r\n\t\t<div class=\"well row\">\r\n\t\t<div>\r\n\t\t  <div class=\"gc-rprt-prblm\">\r\n\t\t    <div class=\"gc-rprt-prblm-frm gc-rprt-prblm-tggl\">\r\n\t\t\t  \r\n\t\t\t<form id=\"report_a_problem_form\" action=\"/eng/mail-handler/#report_a_problem_form\" method=\"post\">\t\t\t\t   \t\t\t\r\n\r\n\t            \t <input type=\"hidden\" name=\"lang\" value=\"eng\">\r\n\t            \t <input type=\"hidden\" name=\"pageId\" value=\"1411999466585\">\r\n\t            \t <input type=\"hidden\" name=\"pageUrl\" value=\"http://www.agr.gc.ca/eng/canadas-agriculture-sectors/fields-of-science/?id=1411999466585\">\r\n\t\t\t\t\t <div id=\"report_a_problem_form_error\"></div>\r\n\t\t             <fieldset>\t\t\t\t\t    \r\n\t\t                <legend><span class=\"field-name\">Please select all that apply:</span></legend>\t\t                                 \r\n\t\t\t\t\t\t<div class=\"checkbox\">\r\n\t\t\t\t\t\t\t<label for=\"problem1\"><input name=\"problem1\" id=\"problem1\" type=\"checkbox\" value=\"Yes\">A link, button or video is not working</label>\r\n\t\t\t\t\t\t\t<input name=\"problem1\" type=\"hidden\" value=\"No\">\r\n\t\t\t\t\t\t</div>\r\n\t\t\t\t\t\t<div class=\"checkbox\">\r\n\t\t\t\t\t\t\t<label for=\"problem2\"><input name=\"problem2\" id=\"problem2\" type=\"checkbox\" value=\"Yes\">It has a spelling mistake</label>\r\n\t\t\t\t\t\t\t<input name=\"problem2\" type=\"hidden\" value=\"No\">\r\n\t\t\t\t\t\t</div>\r\n\t\t\t\t\t\t<div class=\"checkbox\">\r\n\t\t\t\t\t\t\t<label for=\"problem3\"><input name=\"problem3\" id=\"problem3\" type=\"checkbox\" value=\"Yes\">Information is missing</label>\r\n\t\t\t\t\t\t\t<input name=\"problem3\" type=\"hidden\" value=\"No\">\r\n\t\t\t\t\t   </div>\r\n\t\t\t\t\t\t<div class=\"checkbox\">\r\n\t\t\t\t\t\t\t<label for=\"problem4\"><input name=\"problem4\" id=\"problem4\" type=\"checkbox\" value=\"Yes\">Information is outdated or wrong</label>\r\n\t\t\t\t\t\t\t<input name=\"problem4\" type=\"hidden\" value=\"No\">\r\n\t\t\t\t\t\t</div>\r\n\t\t\t\t\t\t<div class=\"checkbox\">\r\n\t\t\t\t\t\t\t<label for=\"problem5\"><input name=\"problem5\" id=\"problem5\" type=\"checkbox\" value=\"Yes\">Login error when trying to access an account (e.g. My Service Canada Account)</label>\r\n\t\t\t\t\t\t\t<input name=\"problem5\" type=\"hidden\" value=\"No\">\r\n\t\t\t\t\t\t</div>\r\n\t\t\t\t\t\t\t<ul>\r\n\t\t\t\t\t\t\t<li class=\"checkbox\">\r\n\t\t\t\t\t\t\t\t<label for=\"problem6a\"><input name=\"problem6\" id=\"problem6a\" type=\"checkbox\" value=\"Yes\">GC Key access</label>\r\n\t\t\t\t\t\t\t\t<input name=\"problem6\" type=\"hidden\" value=\"No\">\r\n\t\t\t\t\t\t\t </li>\r\n\t\t\t\t\t\t\t<li class=\"checkbox\">\r\n\t\t\t\t\t\t\t\t<label for=\"problem7\"><input name=\"problem7\" id=\"problem7\" type=\"checkbox\" value=\"Yes\">SecureKey Concierge (Banking Credential) access </label>\r\n\t\t\t\t\t\t\t\t<input name=\"problem7\" type=\"hidden\" value=\"No\">\r\n\t\t\t\t\t\t\t </li>\r\n\t\t\t\t\t\t\t<li class=\"checkbox\">\r\n\t\t\t\t\t\t\t\t<label for=\"problem8\"><input name=\"problem8\" id=\"problem8\" type=\"checkbox\" value=\"Yes\">Personal Access Code (PAC) problems or EI Access Code (AC) problems</label>\r\n\t\t\t\t\t\t\t\t<input name=\"problem8\" type=\"hidden\" value=\"No\">\r\n\t\t\t\t\t\t\t </li>\t\r\n\t\t\t\t\t\t\t<li class=\"checkbox\">\r\n\t\t\t\t\t\t\t\t<label for=\"problem9\"><input name=\"problem9\" id=\"problem9\" type=\"checkbox\" value=\"Yes\">Social Insurance Number (SIN) validation problems</label>\r\n\t\t\t\t\t\t\t\t<input name=\"problem9\" type=\"hidden\" value=\"No\">\r\n\t\t\t\t\t\t\t </li>\t\t\t\t\t\t\t\t\r\n\t\t\t\t\t\t\t<li class=\"checkbox\">\r\n\t\t\t\t\t\t\t\t<label for=\"problem10\"><input name=\"problem10\" id=\"problem10\" type=\"checkbox\" value=\"Yes\">Other login error not in this list</label>\r\n\t\t\t\t\t\t\t\t<input name=\"problem10\" type=\"hidden\" value=\"No\">\r\n\t\t\t\t\t\t\t </li>\t\t \r\n\t\t\t\t\t\t\t </ul>\r\n\t\t\t\t\t\t<div class=\"checkbox\">\r\n\t\t\t\t\t\t\t<label for=\"problem11\"><input name=\"problem11\" id=\"problem11\" type=\"checkbox\" value=\"Yes\">I can't find what I'm looking for</label>\r\n\t\t\t\t\t\t\t<input name=\"problem11\" type=\"hidden\" value=\"No\">\r\n\t\t\t\t\t\t</div>\r\n\t\t\t\t\t\t<div class=\"checkbox\">\r\n\t\t\t\t\t\t\t<label for=\"problem12\"><input name=\"problem12\" id=\"problem12\" type=\"checkbox\" value=\"Yes\">Other issue not in this list</label>\r\n\t\t\t\t\t\t\t<input name=\"problem12\" type=\"hidden\" value=\"No\">\r\n\t\t\t\t\t\t</div>\t\t\t\t\t\t \t\t\t\t\t\t\t\t\t\t\t\t \r\n\t\t             </fieldset>\r\n\t\t\t\t\t <div>\r\n\t\t\t\t\t   <label for=\"aafc_ranstr\"><span id=\"fbch\"><br>Enter these characters <strong class=\"required\">(required)</strong>: </span><span id=\"ranstr\">U5S</span></label>\r\n\t\t\t           <input name=\"anti-spam-sequence\" id=\"aafc_ranstr\" size=\"4\" maxlength=\"3\" type=\"text\">\r\n\t\t\t\t\t </div>\t\r\n\r\n\t\t\t\t\t <br><input type=\"submit\" class=\"btn btn-primary\" value=\"Submit\">\r\n\t\t\t\t  </form>\r\n\t\t\t\t</div>\r\n\t\t\t</div>\t\t\t\r\n\t\t  </div>\r\n\t\t</div>\r\n\t\t</details>\r\n\t  </div>\r\n\t  <div class=\"wb-share col-sm-4 col-md-3 col-sm-offset-2 col-md-offset-4 col-lg-offset-5\" data-wb-share='{\"lnkClass\": \"btn btn-default btn-block\"}'></div>\r\n\t</div>\r\n\t<dl id=\"wb-dtmd\">\r\n\t  <dt>Date modified: </dt>\r\n\t  <dd><time property=\"dateModified\">2021-02-08</time></dd></dl></div>",
        "fr": "\r\n    \r\n    <!-- MainContentStart -->\r\n    <!-- D&eacute;but du contenu -->\r\n    <section>\n<div class=\"wb-tabs carousel-s2 playing slow\"> \n<ul role=\"tablist\">\n<li role=\"presentation\" class=\"active\"><a href=\"#panel1\" tabindex=\"0\" role=\"tab\" aria-selected=\"true\" aria-controls=\"panel1\" id=\"panel1-lnk\"><img src=\"https://www.agr.gc.ca/resources/prod/img/science/images/agawareness/carrousel_josetorres-fra.jpg\" alt=\"tab 1\"></a></li>\n<li role=\"presentation\" class=\"\"><a href=\"#panel2\" tabindex=\"-1\" role=\"tab\" aria-selected=\"false\" aria-controls=\"panel2\" id=\"panel2-lnk\"><img src=\"https://www.agr.gc.ca/resources/prod/img/science/images/agawareness/carrousel_helentai-fra.jpg\" alt=\"tab 2\"></a></li>\n<li role=\"presentation\" class=\"\"><a href=\"#panel3\" tabindex=\"-1\" role=\"tab\" aria-selected=\"false\" aria-controls=\"panel3\" id=\"panel3-lnk\"><img src=\"https://www.agr.gc.ca/resources/prod/img/science/images/agawareness/carrousel_tonysavard-fra.jpg\" alt=\"tab 3\"></a></li>\n</ul>\n\n<!-- Panels START -->\n<div class=\"tabpanels\">\n<div role=\"tabpanel\" id=\"panel1\" class=\"in fade\">  \n<figure>\n<img src=\"https://www.agr.gc.ca/resources/prod/img/science/images/agawareness/carrousel_josetorres-fra.jpg\" alt=\"Jos\u00e9 Ram\u00f3n \u00darbez-Torres, Ph.D. Texte : Du vignoble \u00e0 votre panier. Nous avons un grand champ d'action.\">\n  </figure> \n  </div>\n<div role=\"tabpanel\" id=\"panel2\" class=\"fade out noheight\" tabindex=\"-1\" aria-hidden=\"true\" aria-expanded=\"false\" aria-labelledby=\"panel2-lnk\">\n<figure>\n<img src=\"https://www.agr.gc.ca/resources/prod/img/science/images/agawareness/carrousel_helentai-fra.jpg\" alt=\"Helen Tai, Ph.D. Texte : Du champs \u00e0 votre panier. Nous avons un grand champ d'action.\">\n  </figure> \n  </div>\n<div role=\"tabpanel\" id=\"panel3\" class=\"fade out noheight\" tabindex=\"-1\" aria-hidden=\"true\" aria-expanded=\"false\" aria-labelledby=\"panel3-lnk\">\n<figure>\n<img src=\"https://www.agr.gc.ca/resources/prod/img/science/images/agawareness/carrousel_tonysavard-fra.jpg\" alt=\"Tony Savard, Ph.D. Texte : Du champs \u00e0 votre panier. Nous avons un grand champ d'action.\">\n  </figure> \n  </div>\n</div>\n<!-- Panels END -->\n\n</div>\n</section>\n\n<p class=\"mrgn-tp-md\">Bienvenue sur notre page de campagne Champs  scientifiques \u2013 o\u00f9 vous pourrez vous renseigner sur les chercheurs d'Agriculture et Agroalimentaire Canada (AAC) et comment ils s'assurent que les aliments que vous consommez sont salubres, haute qualit\u00e9 et produits de mani\u00e8re durable.</p>\n\n\n\n<section class=\"gc-prtts\">\n<h2>Nous vous pr\u00e9sentons nos scientifiques</h2>\n\t\n<p>Apprenez pourquoi ils sont passionn\u00e9s par leurs recherches.</p>\t\n\t\n<div class=\"row\">\n\n<div class=\"col-md-3 mrgn-bttm-md\">\n<figure>\n<a href=\"?id=1611687792239\"><img src=\"http://multimedia.agr.gc.ca/pack/img/avatar_candido_pomar.jpg\" alt=\"Candido Pomar, Ph. D.\" class=\"img-responsive brdr-0\"></a>\n<figcaption class=\"text-center\"><a href=\"?id=1611687792239\"><b>Candido Pomar, Ph.\u00a0D.</b></a><br class=\"nowrap\">\nSp\u00e9cialiste en nutrition<br>\n de pr\u00e9cision et mod\u00e9lisation<br>\n<span class=\"glyphicon glyphicon-map-marker mrgn-rght-sm\" aria-hidden=\"true\"></span><b><a href=\"https://profils-profiles.science.gc.ca/fr/centre-recherche/centre-de-recherche-et-de-developpement-de-sherbrooke?destination=research-centre/sherbrooke-research-and-development-centre\">Centre de recherche et de d\u00e9veloppement de Sherbrooke</a></b></figcaption>\t\n</figure>\n</div>\n\n<div class=\"col-md-3 mrgn-bttm-md\">\n<figure>\n<a href=\"?id=1610997878919\"><img src=\"http://multimedia.agr.gc.ca/pack/img/avatar-christopher-garnham.jpg\" alt=\"Christopher Garnham, Ph. D.\" class=\"img-responsive brdr-0\"></a>\n<figcaption class=\"text-center\"><a href=\"?id=1610997878919\"><b>Christopher Garnham, Ph.\u00a0D.</b></a><br>\nChercheur scientifique<br>\nBiochimiste  sp\u00e9cialiste des prot\u00e9ines<br>\n<span class=\"glyphicon glyphicon-map-marker mrgn-rght-sm\" aria-hidden=\"true\"></span><b><a href=\"https://profils-profiles.science.gc.ca/fr/centre-recherche/centre-de-recherche-et-de-developpement-de-london\">Centre de recherche et de d\u00e9veloppement de London</a></b></figcaption>\t\n</figure>\n</div>\n\n<div class=\"col-md-3 mrgn-bttm-md\">\n<figure>\n<a href=\"?id=1606933989358\"><img src=\"http://multimedia.agr.gc.ca/pack/img/heather_mcnairn.png\" alt=\"Heather McNairn, Ph. D.\" class=\"img-responsive brdr-0\"></a>\n<figcaption class=\"text-center\"><a href=\"?id=1606933989358\"><b>Heather McNairn, Ph.\u00a0D.</b></a><br>\nChercheuse scientifique\n<br>Sp\u00e9cialiste de la t\u00e9l\u00e9d\u00e9tection<br>\n<span class=\"glyphicon glyphicon-map-marker mrgn-rght-sm\" aria-hidden=\"true\"></span><b><a href=\"https://profils-profiles.science.gc.ca/fr/centre-recherche/centre-de-recherche-et-de-developpement-dottawa\">Centre de recherche et de d\u00e9veloppement d'Ottawa </a></b></figcaption>\t\n</figure>\n</div>\n\n\n<div class=\"col-md-3 mrgn-bttm-md\">\n<figure>\n<a href=\"?id=1583183613915\"><img src=\"https://www.agr.gc.ca/resources/prod/img/science/images/agawareness/avatars_karen_beauchemin.png\" alt=\"Karen Beauchemin Ph. D.\" class=\"img-responsive mrgn-bttm-sm brdr-0\"></a>\n<figcaption class=\"text-center\"><a href=\"?id=1583183613915\"><b>Karen Beauchemin, Ph.\u00a0D.</b></a><br>\nChercheuse scientifique<br>\nNutrition des ruminants<br>\n<span class=\"glyphicon glyphicon-map-marker mrgn-rght-sm\" aria-hidden=\"true\"></span><b><a href=\"https://profils-profiles.science.gc.ca/fr/centre-recherche/centre-de-recherche-et-de-developpement-de-lethbridge\">Lethbridge (Alberta)</a></b></figcaption>\t\n</figure>\n</div>\n</div>\n\n\n\n<div class=\"row\">\n\n<div class=\"col-md-3 mrgn-bttm-md\">\n<figure>\n<a href=\"?id=1572979188633\"><img src=\"https://www.agr.gc.ca/resources/prod/img/science/images/agawareness/avatars_juliebrassard_lesswhite.png\" alt=\"Julie Brassard, Ph.D.\" class=\"img-responsive mrgn-bttm-sm brdr-0\"></a>\n<figcaption class=\"text-center\"><a href=\"?id=1572979188633\"><b>Julie Brassard, Ph.\u00a0D.</b></a><br>\nChercheuse scientifique<br>\nVirologie alimentaire et environnementale<br>\n<span class=\"glyphicon glyphicon-map-marker mrgn-rght-sm\" aria-hidden=\"true\"></span><b><a href=\"https://profils-profiles.science.gc.ca/fr/centre-recherche/centre-de-recherche-et-de-developpement-de-saint-hyacinthe\">Saint-Hyacinthe (Qu\u00e9bec)</a></b></figcaption>\t\n</figure>\n</div>\n\n<div class=\"col-md-3 mrgn-bttm-md\">\n<figure>\n<a href=\"?id=1580134069967\"><img src=\"https://www.agr.gc.ca/resources/prod/img/science/images/agawareness/avatars_charlesforney_lesswhite.png\" alt=\"Charles Forney, Ph.D.\" class=\"img-responsive mrgn-bttm-sm brdr-0\"></a>\n<figcaption class=\"text-center\"><a href=\"?id=1580134069967\"><b>Charles Forney, Ph.\u00a0D.</b></a><br>\nChercheur scientifique<br>\nPhysiologie post-r\u00e9colte<br>\n<span class=\"glyphicon glyphicon-map-marker mrgn-rght-sm\" aria-hidden=\"true\"></span><b><a href=\"https://profils-profiles.science.gc.ca/fr/centre-recherche/centre-de-recherche-et-de-developpement-de-kentville\">Kentville<br> (Nouvelle-\u00c9cosse)</a></b></figcaption>\t\n</figure>\n</div>\n\n<div class=\"col-md-3 mrgn-bttm-md\">\n<figure>\n<a href=\"?id=1580138354018\"><img src=\"https://www.agr.gc.ca/resources/prod/img/science/images/agawareness/avatars_helentai_lesswhite.png\" alt=\"Helen Tai, Ph.D.\" class=\"img-responsive mrgn-bttm-sm brdr-0\"></a>\n<figcaption class=\"text-center\"><a href=\"?id=1580138354018\"><b>Helen Tai, Ph.\u00a0D.</b></a><br>\nChercheuse scientifique<br>\nG\u00e9n\u00e9tique  et g\u00e9nomique des v\u00e9g\u00e9taux<br>\n<span class=\"glyphicon glyphicon-map-marker mrgn-rght-sm\" aria-hidden=\"true\"></span><b><a href=\"https://profils-profiles.science.gc.ca/fr/centre-recherche/centre-de-recherche-et-de-developpement-de-fredericton\">Fredericton<br> (Nouveau-Brunswick)</a></b></figcaption>\t\n</figure>\n</div>\n\n\n<div class=\"col-md-3 mrgn-bttm-md\">\n<figure>\n<a href=\"?id=1580135354473\"><img src=\"https://www.agr.gc.ca/resources/prod/img/science/images/agawareness/avatars_josetorres_lesswhite.png\" alt=\"Jos\u00e9 Ram\u00f3n \u00darbez-Torres, Ph.D.\" class=\"img-responsive mrgn-bttm-sm brdr-0\"></a>\n<figcaption class=\"text-center\"><a href=\"?id=1580135354473\"><b>Jos\u00e9 Ram\u00f3n \u00darbez-Torres, Ph.\u00a0D.</b></a><br>\nChercheur scientifique<br>\nPhytopathologie<br>\n<span class=\"glyphicon glyphicon-map-marker mrgn-rght-sm\" aria-hidden=\"true\"></span><b><a href=\"https://profils-profiles.science.gc.ca/fr/centre-recherche/centre-de-recherche-et-de-developpement-de-summerland\">Summerland<br> (Colombie-Britannique)</a></b></figcaption>\t\n</figure>\n</div>\n\n</div>\n</section>\n\n\n\n<h2 class=\"h4\">V\u00e9rifiez vos agri-connaissances</h2>\n\n\n<div class=\"row wb-eqht\">\n<div class=\"col-md-3\">\n\t\n\t<figure>\n<img src=\"https://www.agr.gc.ca/resources/prod/img/science/images/agawareness/quiz_icon_question-1.jpg\" alt=\"\" class=\"img-responsive mrgn-bttm-sm\">\n<figcaption>1. Vrai ou faux\u00a0: Agriculture et Agroalimentaire Canada (AAC) est le plus important organisme canadien menant des travaux de recherche agricole.</figcaption>\n\n<select class=\"form-control mrgn-tp-lg\">\n<option>Choisir une r\u00e9ponse</option>\n<option>Vrai</option>\n<option>Faux</option>\n</select>\t\n</figure>\n\n<details class=\"mrgn-tp-lg\">\n<summary class=\"bg-success\"><b>R\u00e9ponse</b></summary>\n<p>R\u00e9ponse\u00a0: Vrai.</p>\n<p>AAC collabore entre autres avec les chefs de l'industrie, le milieu universitaire, les organismes internationaux ainsi que les gouvernements provinciaux et territoriaux. Gr\u00e2ce \u00e0 la recherche et \u00e0 l'innovation, nous favorisons la croissance et le d\u00e9veloppement du secteur canadien agricole et nous cr\u00e9ons de meilleures possibilit\u00e9s pour les agriculteurs et les Canadiens.</p>\n</details>\n\n\t\n</div>\t\n\t\n<div class=\"col-md-3\">\n\t\n<figure>\n<img src=\"https://www.agr.gc.ca/resources/prod/img/science/images/agawareness/quiz_icon_question-2.jpg\" alt=\"\" class=\"img-responsive mrgn-bttm-sm\">\n<figcaption>2. Vrai ou faux\u00a0: Le nom \u00ab\u00a0canola\u00a0\u00bb vient de la combinaison des mots \u00ab\u00a0Canada\u00a0\u00bb et \u00ab\u00a0huile\u00a0\u00bb.</figcaption>\n\n<select class=\"form-control mrgn-tp-lg\">\n<option>Choisir une r\u00e9ponse</option>\n<option>Vrai</option>\n<option>Faux</option>\n</select>\t\n</figure>\n\n<details class=\"mrgn-tp-lg\">\n<summary class=\"bg-success\"><b>R\u00e9ponse</b></summary>\n<p>R\u00e9ponse\u00a0: Vrai.</p>\n<p>Le canola, l'une des cultures les plus importantes du Canada, a \u00e9t\u00e9 mis au point par des chercheurs canadiens dans les ann\u00e9es 1960. Aujourd'hui, le Canada est le premier pays producteur et exportateur de canola au monde. Nous produisons environ 20\u00a0millions de tonnes de canola par an, dont plus de la moiti\u00e9 est export\u00e9e \u00e0 l'\u00e9chelle mondiale.</p>\n</details>\t\n  </div>\t\n<div class=\"col-md-3\">\n\t\n<figure>\n<img src=\"https://www.agr.gc.ca/resources/prod/img/science/images/agawareness/quiz_icon_question-3.jpg\" alt=\"\" class=\"img-responsive mrgn-bttm-sm\">\n<figcaption>3. Vrai ou faux\u00a0: AAC a trouv\u00e9 un champignon microscopique pouvant servir d'herbicide naturel.</figcaption>\n\n<select class=\"form-control mrgn-tp-lg\">\n<option>Choisir une r\u00e9ponse</option>\n<option>Vrai</option>\n<option>Faux</option>\n</select>\t\n</figure>\n\n<details class=\"mrgn-tp-lg\">\n<summary class=\"bg-success\"><b>R\u00e9ponse</b></summary>\n<p>R\u00e9ponse\u00a0: Vrai</p>\n<p>Le Phoma macrostoma est un champignon microscopique qui peut \u00eatre utilis\u00e9 comme bioherbicide naturel pour \u00e9liminer les mauvaises herbes. Lorsqu'il est absorb\u00e9 par le sol, il s'introduit dans les racines des mauvaises herbes et infecte la plante, qui devient blanche et meurt. Le champignon ne nuit pas au gazon et comme on le trouve normalement dans la nature, il pr\u00e9sente moins de risques pour les animaux, les plantes et l'environnement.</p>\n</details>\n</div>\n\n<div class=\"col-md-3\">\n\t\n\t<figure>\n<img src=\"https://www.agr.gc.ca/resources/prod/img/science/images/agawareness/quiz_icon_question-4.jpg\" alt=\"\" class=\"img-responsive mrgn-bttm-sm\">\n<figcaption>4. Les l\u00e9gumineuses sont une cat\u00e9gorie de plantes qui comprend les haricots secs, les petits pois, les lentilles et les pois chiches. Ces produits offrent de nombreux bienfaits. Lequel des suivants ne repr\u00e9sente pas un bienfait des l\u00e9gumineuses?</figcaption>\n\n<select class=\"form-control mrgn-tp-md\">\n<option>Choisir une r\u00e9ponse</option>\n<option>a) Aident \u00e0 ma\u00eetriser la glyc\u00e9mie.</option>\n<option>b) Am\u00e9liorent la qualit\u00e9 du sol.</option>\n<option>c) Gu\u00e9rissent les intol\u00e9rances et les sensibilit\u00e9s alimentaires.</option>\n<option>d) R\u00e9duisent les risques de maladie cardiaque.</option>\n</select>\t\n</figure>\n\n<details class=\"mrgn-tp-md\">\n<summary class=\"bg-success\"><b>R\u00e9ponse</b></summary>\n<p>R\u00e9ponse\u00a0: C</p>\n<p>Les l\u00e9gumineuses ne peuvent pas gu\u00e9rir les intol\u00e9rances ni les sensibilit\u00e9s alimentaires, mais elles peuvent offrir des solutions \u00e0 ceux qui pr\u00e9sentent des intol\u00e9rances alimentaires ou une sensibilit\u00e9 au gluten. Les l\u00e9gumineuses peuvent servir d'ingr\u00e9dients dans la pr\u00e9paration d'aliments que les Canadiens mangent d\u00e9j\u00e0, comme le pain. En effet, les pains faits avec des l\u00e9gumineuses contiennent un amidon qui se dig\u00e8re plus lentement. L'amidon \u00e0 digestion plus lente am\u00e9liore la sant\u00e9 intestinale et l'absorption du glucose, et aide \u00e0 stabiliser la glyc\u00e9mie.</p>\n</details>\n</div>\t\n</div>\n\n\t<div class=\"clearfix\"></div>\n\n\n<details>\n<summary>Plus de questions</summary>\n\n<div class=\"row wb-eqht\">\n\n<div class=\"col-md-3\">\n<figure>\n<img src=\"https://www.agr.gc.ca/resources/prod/img/science/images/agawareness/quiz_icon_question-5.jpg\" alt=\"\" class=\"img-responsive mrgn-bttm-sm\">\n<figcaption>5. Combien y a-t-il de centres de recherche et de d\u00e9veloppement d'AAC au Canada?</figcaption>\n\n<select class=\"form-control mrgn-tp-md\">\n<option>Choisir une r\u00e9ponse</option>\n<option>a) 12</option>\n<option>b) 20</option>\n<option>c) 5</option>\n<option>d) 2</option>\n</select>\t\n</figure>\n\n<details class=\"mrgn-tp-md\">\n<summary class=\"bg-success\"><b>R\u00e9ponse</b></summary>\n<p>R\u00e9ponse\u00a0: B</p>\n<p>AAC compte 20 centres de recherche et d\u00e9veloppement au Canada. Les scientifiques et les chercheurs d'AAC d'un bout \u00e0 l'autre du pays travaillent \u00e0 des projets qui visent \u00e0 aider les agriculteurs, l'industrie et les Canadiens. Nous maintenons \u00e9galement des ressources et des collections biologiques, comme la Collection nationale canadienne d'insectes, d'arachnides et de n\u00e9matodes. Jetez un coup d'\u0153il \u00e0 nos <a href=\"?id=1181591790641\">centres de recherche et collections</a>.</p>\n</details>\t\n\t</div>\t\n<div class=\"col-md-3\">\n\t\n<figure>\n<img src=\"https://www.agr.gc.ca/resources/prod/img/science/images/agawareness/quiz_icon_question-6.jpg\" alt=\"\" class=\"img-responsive mrgn-bttm-sm\">\n<figcaption>6. La recherche men\u00e9e par le personnel scientifique d'AAC a abouti \u00e0 de nombreuses d\u00e9couvertes. Parmi les suivantes, lesquelles peuvent \u00eatre attribu\u00e9es aux scientifiques d'AAC?</figcaption>\n\n<select class=\"form-control mrgn-tp-md\">\n<option>Choisir une r\u00e9ponse</option>\n<option>a) Un syst\u00e8me d'alimentation de pr\u00e9cision pour les porcs qui permet de diminuer le co\u00fbt des aliments tout en ayant un effet positif sur l'environnement.</option>\n<option>b) Une m\u00e9thode de conservation qui permet d'am\u00e9liorer la saveur naturelle et de maintenir la texture des l\u00e9gumes congel\u00e9s.</option>\n<option>c) Une m\u00e9thode de lutte contre les organismes nuisibles qui utilise la moutarde canadienne comme pesticide \u00e9cologique.</option>\n<option>d) Toutes ces r\u00e9ponses.</option>\n</select>\t\n</figure>\n\n<details class=\"mrgn-tp-md\">\n<summary class=\"bg-success\"><b>R\u00e9ponse</b></summary>\n<p>R\u00e9ponse\u00a0: D</p>\n<p>Les scientifiques d'AAC ont contribu\u00e9 \u00e0 de nombreux projets dans l'int\u00e9r\u00eat des agriculteurs, de l'industrie et des Canadiens. Les travaux mentionn\u00e9s ne sont que quelques exemples parmi tant d'autres. Toute cette recherche favorise l'innovation au sein du secteur canadien de l'agriculture et de l'agroalimentaire.</p>\n</details>\n</div>\n\n<div class=\"col-md-3\">\n<figure>\n<img src=\"https://www.agr.gc.ca/resources/prod/img/science/images/agawareness/quiz_icon_question-7.jpg\" alt=\"\" class=\"img-responsive mrgn-bttm-sm\">\n<figcaption>7. Vrai ou faux\u00a0: Les pommes de terre peuvent \u00eatre transform\u00e9es en plastique biod\u00e9gradable.</figcaption>\n\n<select class=\"form-control mrgn-tp-md\">\n<option>Choisir une r\u00e9ponse</option>\n<option>Vrai</option>\n<option>Faux</option>\n</select>\t\n</figure>\n\n<details class=\"mrgn-tp-md\">\n<summary class=\"bg-success\"><b>R\u00e9ponse</b></summary>\n<p>R\u00e9ponse\u00a0: Vrai</p>\n<p>Oui, vos frites et votre fourchette peuvent \u00eatre fabriqu\u00e9es \u00e0 partir de pommes de terre! Les plastiques biod\u00e9gradables faits d'amidons de pomme de terre mettent environ deux mois \u00e0 se d\u00e9composer.</p>\n</details>\n</div>\t\n\t\n</div>\n\n</details>\n<div class=\"clearfix\"></div>\n\n\n<section class=\"gc-prtts\">\n<h2>Autres travaux scientifiques en agriculture et agroalimentaire</h2>\n\n<div class=\"row\">\n\n<div class=\"col-lg-4 col-md-6 mrgn-bttm-md\">\n<a href=\"?id=1611687792239\">\n<figure>\n<figcaption>Nous vous pr\u00e9sentons Candido Pomar (Ph.D.)</figcaption>\n<img src=\"http://multimedia.agr.gc.ca/pack/img/meet_candido_pomar.jpg\" alt=\"Candido Pomar (Ph.D.)\" class=\"img-responsive thumbnail mrgn-bttm-sm\">\n<p>D\u00e9couvrez comment un nouveau syst\u00e8me d\u2019alimentation aide \u00e0 donner aux porcs canadiens la bonne quantit\u00e9 de nutriments \u00e0 chaque repas, ce qui am\u00e9liore le bien-\u00eatre animal, est meilleur pour l\u2019environnement et produit une viande de porc de qualit\u00e9 sup\u00e9rieure.</p>\n</figure>\n</a>\n</div>\n\n<div class=\"col-lg-4 col-md-6 mrgn-bttm-md\">\n<a href=\"?id=1610997878919\">\n<figure>\n<figcaption>Nous vous pr\u00e9sentons Christopher Garnham (Ph.D.)</figcaption>\n<img src=\"http://multimedia.agr.gc.ca/pack/img/christopher-garnham-in-the-lab.jfif\" alt=\"Christopher Garnham (Ph.D.)\" class=\"img-responsive thumbnail mrgn-bttm-sm\">\n<p>D\u00e9couvrez comment les scientifiques cherchent \u00e0 transformer certaines maladies des cultures en antitoxines inoffensives pour mieux prot\u00e9ger nos aliments.</p>\n</figure>\n</a>\n</div>\n\n\n<div class=\"col-lg-4 col-md-6 mrgn-bttm-md\">\n<a href=\"?id=1583183613915\">\n<figure>\n<figcaption>Nous vous pr\u00e9sentons Karen Beauchemin (Ph.D.)</figcaption> \n\t<img src=\"https://www.agr.gc.ca/resources/prod/img/science/images/agawareness/homepage_features_karen_beauchemin.jpg\" alt=\"Karen Beauchemin\" class=\"img-responsive thumbnail mrgn-bttm-sm\">\n<p>D\u00e9couvrez comment des scientifiques \u00e9tudient les moyens de r\u00e9duire les \u00e9missions de m\u00e9thane par la g\u00e9n\u00e9tique et le r\u00e9gime alimentaire de la vache.</p>\n</figure>\n</a>\n</div>\n\n\n</div>\n</section>\n\n<p class=\"small\"><b>Note</b> : Toutes les s\u00e9quences et images ont \u00e9t\u00e9 rassembl\u00e9es avant la mise en place des mesures d'\u00e9loignement sanitaire du gouvernement du Canada. Les Canadiens sont invit\u00e9s \u00e0 continuer de suivre les directives de s\u00e9curit\u00e9 li\u00e9es \u00e0 la COVID-19.</p>\n\n<h2 class=\"h4\">Capsules scientifiques</h2>\n\n\n<section class=\"panel panel-info\">\n  <header class=\"panel-heading\">\n   <h3 class=\"h5 panel-title\" id=\"a\">Les scientifiques d'Agriculture et Agroalimentaire Canada\u00a0: Excellents dans leurs domaines</h3>\n  </header>\n  <div class=\"panel-body\">\n  <div class=\"col-md-9\">\n\n<p>Que font-ils?</p>\n\n<p>Leur objectif est simple \u2013 veiller \u00e0 ce que les aliments que vous consommez soient salubres, de haute qualit\u00e9 et produits de fa\u00e7on \u00e9cologique.</p>\n\n<p>Julie Brassard (<span class=\"nowrap\">Ph. D.</span>)\u00a0: Chercheuse scientifique, virologie alimentaire et environnementale (Saint Hyacinthe, Qu\u00e9bec)</p>\n\n<p>Jos\u00e9 Ramon \u00darbez-Torres (<span class=\"nowrap\">Ph. D.</span>)\u00a0: Chercheur scientifique, phytopathologie (Summerland, Colombie Britannique)</p>\n\t  \n<p>Helen Tai (<span class=\"nowrap\">Ph. D.</span>)\u00a0: Chercheuse scientifique, g\u00e9n\u00e9tique et g\u00e9nomique des v\u00e9g\u00e9taux (Fredericton, Nouveau-Brunswick)</p>\n\n<p>Ils r\u00e9alisent environ la moiti\u00e9 de toutes les recherches qui se font au Canada dans le domaine agricole.</p>\n\n<p>Ils travaillent dans 20 centres de recherche au pays.</p>\n\n<p>Ils utilisent des chambres de croissance \u00e0 ambiance contr\u00f4l\u00e9e, des installations d'\u00e9levage d'insectes, des stations de surveillance m\u00e9t\u00e9orologique et m\u00eame de petites unit\u00e9s vinicoles.</p>\n\n<p>Ils aident les agriculteurs \u00e0 am\u00e9liorer et \u00e0 prot\u00e9ger leurs cultures et \u00e0 produire de la nourriture pour les Canadiens de fa\u00e7on \u00e9cologique.</p>\n\n</div>\n  <div class=\"col-md-3 well\">\n<p><img alt=\"\" src=\"https://www.agr.gc.ca/resources/prod/img/science/images/agawareness/infographic_generic_fields_science-fra.jpg\" class=\"img-responsive\"></p>\n<p>\n  <a href=\"https://www.agr.gc.ca/resources/prod/pdf/discover-decouvrez/infographic_generic_fields_science-fra.pdf\">T\u00e9l\u00e9charger l'infographie \u00ab\u00a0Les scientifiques d'Agriculture et Agroalimentaire Canada\u00a0: Excellent dans leurs domaines\u00a0\u00bb (PDF, 282\u00a0Ko)</a></p>\n</div>\n  </div>\n</section>\n\n<section class=\"panel panel-success\">\n  <header class=\"panel-heading\">\n   <h3 class=\"h5 panel-title\" id=\"b\">Notre science a bon go\u00fbt</h3>\n  </header>\n  <div class=\"panel-body\">\n  <div class=\"col-md-9\">\n\n<p>Nos scientifiques travaillent afin de s'assurer que les aliments que nous consommons sont sains, de haute qualit\u00e9 et produits de mani\u00e8re durable. Voici quatre chercheurs en agriculture que vous pouvez croiser dans nos centres de recherche et le travail qu'ils accomplissent pour vous.</p>\n\n<p>Julie Brassard (Ph.\u00a0D.) \u2013 Saint Hyacinthe, Qu\u00e9bec<br>\nVirologiste alimentaire et environnementale\u00a0:<br> \nMme Brassard \u00e9tudie la fa\u00e7on dont les virus sont transmis entre les humains, les animaux et l'environnement et \u00e9labore des strat\u00e9gies pour enrayer leur propagation de la ferme \u00e0 l'assiette.</p>\n\n<p>Jos\u00e9 Ram\u00f3n \u00darbez-Torres (Ph.\u00a0D.) \u2013 Summerland, Colombie-Britannique<br>\nPhytopathologiste\u00a0:<br>\nDes plantes saines produisent des aliments sains. M. \u00darbez-Torres \u00e9tudie les causes des maladies des plantes et les fa\u00e7ons de combattre celles-ci afin que nous ayons des aliments sains et de grande qualit\u00e9 \u00e0 consommer.</p>\n\n<p>Heather McNairn (Ph.\u00a0D.) \u2013 Ottawa, Ontario<br>\nSp\u00e9cialiste de la t\u00e9l\u00e9d\u00e9tection\u00a0:<br>\nUne meilleure compr\u00e9hension des environnements des plantes aidera \u00e0 produire de meilleurs aliments. Mme McNairn utilise des images satellitales pour surveiller les cultures et les conditions de leurs sols.</p>\n\n<p>Sylvie Cloutier (Ph.\u00a0D.) \u2013 Ottawa, Ontario<br>\nG\u00e9n\u00e9ticienne mol\u00e9culaire\u00a0:<br>\nLa production d'aliments de qualit\u00e9 commence \u00e0 l'\u00e9chelle microscopique. Mme Cloutier d\u00e9veloppe des cultures plus intelligentes en identifiant les g\u00e8nes qui aident les plantes \u00e0 s'adapter aux changements climatiques.</p>\n\n</div>\n  <div class=\"col-md-3 well\">\n<p><img alt=\"\" src=\"https://www.agr.gc.ca/resources/prod/img/science/images/agawareness/infographic_types_ag_science-fra.jpg\" class=\"img-responsive\"></p>\n<p><a href=\"https://www.agr.gc.ca/resources/prod/pdf/discover-decouvrez/infographic_types_ag_science-fra.pdf\">T\u00e9l\u00e9charger l'infographie \u00ab\u00a0Notre science a bon go\u00fbt\u00a0\u00bb (PDF, 328\u00a0Ko)</a></p>\n</div>\n  </div>\n</section>\n\r\n    <!-- Fin du contenu -->\r\n\t\r\n\t<div class=\"pagedetails\" id=\"pgft\">\r\n\t\t<div class=\"row\">\r\n\t\t  <div class=\"col-sm-6 col-md-5 col-lg-4\">\r\n\t\t    <details class=\"brdr-0\">\r\n\t\t\t<summary class=\"btn btn-default text-center\" onclick=\"getAntiSpamSeq('/fra/mail-handler/?anti-spam-sequence=true')\">Signaler un probl\u00e8me sur cette page</summary>\r\n\t\t\t<div class=\"well row\">\r\n\t\t\t  <div class=\"gc-rprt-prblm\">\r\n\t\t\t    <div class=\"gc-rprt-prblm-frm gc-rprt-prblm-tggl\">\r\n\t\t\t\t   <form id=\"report_a_problem_form\" action=\"/fra/mail-handler/\" method=\"post\">\r\n\t            \t <input type=\"hidden\" name=\"lang\" value=\"fra\">\r\n\t            \t <input type=\"hidden\" name=\"pageId\" value=\"1411999466585\">\r\n\t            \t <input type=\"hidden\" name=\"pageUrl\" value=\"http://www.agr.gc.ca/fra/secteurs-agricoles-du-canada/champs-scientifiques/?id=1411999466585\">\r\n\t\t\t\t\t <div id=\"report_a_problem_form_error\"></div>\r\n\t\t             <fieldset>\t\t\t\t\t    \r\n\t\t                <legend><span class=\"field-name\">Veuillez cocher toutes les r\u00e9ponses pertinentes\u00a0:</span></legend>\r\n\t\t                 <div class=\"checkbox\">\r\n\t\t                    <label for=\"problem1\"><input name=\"problem1\" id=\"problem1\" type=\"checkbox\" value=\"Yes\">Un lien, un bouton ou une vid\u00e9o ne fonctionne pas</label>\r\n\t\t                    <input name=\"problem1\" type=\"hidden\" value=\"No\">\r\n\t\t                </div>\r\n\t\t                <div class=\"checkbox\">\r\n\t\t                    <label for=\"problem2\"><input name=\"problem2\" id=\"problem2\" type=\"checkbox\" value=\"Yes\">Il y a une erreur d'orthographe ou de grammaire</label>\r\n\t\t                    <input name=\"problem2\" type=\"hidden\" value=\"No\">\r\n\t\t                </div>\r\n\t\t   \t\t\t\t <div class=\"checkbox\">\r\n\t\t                    <label for=\"problem3\"><input name=\"problem3\" id=\"problem3\" type=\"checkbox\" value=\"Yes\">Les renseignements sont incomplets</label>\r\n\t\t                    <input name=\"problem3\" type=\"hidden\" value=\"No\">\r\n\t\t                </div>\r\n\t\t             \t\t<div class=\"checkbox\">\r\n\t\t                    <label for=\"problem4\"><input name=\"problem4\" id=\"problem4\" type=\"checkbox\" value=\"Yes\">L'information n'est plus \u00e0 jour ou est erron\u00e9e</label>\r\n\t\t                    <input name=\"problem4\" type=\"hidden\" value=\"No\">\r\n\t\t                </div>\t\t\t\t\t\t\r\n\t\t\t\t\t\t<div class=\"checkbox\">\r\n\t\t\t\t\t\t\t<label for=\"problem5\"><input name=\"problem5\" id=\"problem5\" type=\"checkbox\" value=\"Yes\">Message d'erreur \u00e0 l'ouverture de la session lorsque je tente d'acc\u00e9der \u00e0 un compte (ex. Mon dossier Service Canada)</label>\r\n\t\t\t\t\t\t\t<input name=\"problem5\" type=\"hidden\" value=\"No\">\r\n\t\t\t\t\t\t</div>\r\n\t\t\t\t\t\t\t<ul>\r\n\t\t\t\t\t\t\t<li class=\"checkbox\">\r\n\t\t\t\t\t\t\t\t<label for=\"problem6a\"><input name=\"problem6\" id=\"problem6a\" type=\"checkbox\" value=\"Yes\">Acc\u00e8s Cl\u00e9GC</label>\r\n\t\t\t\t\t\t\t\t<input name=\"problem6\" type=\"hidden\" value=\"No\">\r\n\t\t\t\t\t\t\t </li>\r\n\t\t\t\t\t\t\t<li class=\"checkbox\">\r\n\t\t\t\t\t\t\t\t<label for=\"problem7\"><input name=\"problem7\" id=\"problem7\" type=\"checkbox\" value=\"Yes\">Acc\u00e8s SecureKey Service de Concierge (justificatifs d'identit\u00e9 bancaires)</label>\r\n\t\t\t\t\t\t\t\t<input name=\"problem7\" type=\"hidden\" value=\"No\">\r\n\t\t\t\t\t\t\t </li>\r\n\t\t\t\t\t\t\t<li class=\"checkbox\">\r\n\t\t\t\t\t\t\t\t<label for=\"problem8\"><input name=\"problem8\" id=\"problem8\" type=\"checkbox\" value=\"Yes\">Probl\u00e8me avec le Code d'acc\u00e8s personnel (CAP) ou avec le Code d'acc\u00e8s (CA) de l'assurance emploi</label>\r\n\t\t\t\t\t\t\t\t<input name=\"problem8\" type=\"hidden\" value=\"No\">\r\n\t\t\t\t\t\t\t </li>\t\r\n\t\t\t\t\t\t\t<li class=\"checkbox\">\r\n\t\t\t\t\t\t\t\t<label for=\"problem9\"><input name=\"problem9\" id=\"problem9\" type=\"checkbox\" value=\"Yes\">Probl\u00e8me li\u00e9 \u00e0 la validation du num\u00e9ro d'assurance sociale (NAS)</label>\r\n\t\t\t\t\t\t\t\t<input name=\"problem9\" type=\"hidden\" value=\"No\">\r\n\t\t\t\t\t\t\t </li>\t\t\t\t\t\t\t\t\r\n\t\t\t\t\t\t\t<li class=\"checkbox\">\r\n\t\t\t\t\t\t\t\t<label for=\"problem10\"><input name=\"problem10\" id=\"problem10\" type=\"checkbox\" value=\"Yes\">Autre erreur lors de l'ouverture de session qui ne figure pas sur cette liste</label>\r\n\t\t\t\t\t\t\t\t<input name=\"problem10\" type=\"hidden\" value=\"No\">\r\n\t\t\t\t\t\t\t </li>\t\t \r\n\t\t\t\t\t\t\t </ul>\r\n\t\t\t\t\t\t<div class=\"checkbox\">\r\n\t\t\t\t\t\t\t<label for=\"problem11\"><input name=\"problem11\" id=\"problem11\" type=\"checkbox\" value=\"Yes\">Je n'arrive pas \u00e0 trouver ce que je cherche</label>\r\n\t\t\t\t\t\t\t<input name=\"problem11\" type=\"hidden\" value=\"No\">\r\n\t\t\t\t\t\t</div>\r\n\t\t\t\t\t\t<div class=\"checkbox\">\r\n\t\t\t\t\t\t\t<label for=\"problem12\"><input name=\"problem12\" id=\"problem12\" type=\"checkbox\" value=\"Yes\">Autre probl\u00e8me qui ne figure pas sur cette liste</label>\r\n\t\t\t\t\t\t\t<input name=\"problem12\" type=\"hidden\" value=\"No\">\r\n\t\t\t\t\t\t</div>\t\t\t\t\t\t\t\t\t\t\t\t\t\t\t\t\t\t\t\r\n\t\t             </fieldset>\r\n\t\t\t\t\t <div>\r\n\t\t\t\t        <label for=\"aafc_ranstr\"><span id=\"fbch\">Veuillez inscrire les caract\u00e8res suivants  <strong class=\"required\">(obligatoire)</strong>\u00a0: </span><span id=\"ranstr\">XXX</span></label>\r\n\t\t\t            <input name=\"anti-spam-sequence\" id=\"aafc_ranstr\" size=\"4\" maxlength=\"3\" type=\"text\">\r\n\t\t\t\t\t </div>\r\n\t\t\t\t\t <input type=\"submit\" class=\"btn btn-primary\" value=\"Soumettre\">\r\n\t\t\t\t  </form>\r\n\t\t\t\t</div>\r\n\t\t\t  </div>\r\n\t\t\t</div>\r\n\t\t</details>\r\n\t    </div>\r\n\t  <div class=\"wb-share col-sm-4 col-md-3 col-sm-offset-2 col-md-offset-4 col-lg-offset-5\" data-wb-share='{\"lnkClass\": \"btn btn-default btn-block\"}'></div>\r\n\t  </div>\r\n\t  <dl id=\"wb-dtmd\">\r\n\t    <dt>Date de modification\u00a0: </dt>\r\n\t      <dd><time property=\"dateModified\">2021-02-08</time></dd>\r\n\t  </dl>\r\n\t</div>\r\n\t\r\n  "
    }
}