{
    "dcr_id": "1591389940557",
    "title": {
        "en": "Emergency Processing Fund: Step 3. How to apply",
        "fr": "Fonds d\u2019urgence pour la transformation : \u00c9tape 3. Comment pr\u00e9senter une demande"
    },
    "modified": "2020-08-05",
    "issued": "2020-06-12",
    "templatetype": "content page 1 column",
    "page_type": "1",
    "node_id": "1591888360953",
    "dc_date_created": "2020-06-12",
    "managing_branch": "PAB",
    "parent_node_id": "1591299458283",
    "label": {
        "en": "Emergency Processing Fund - Step 3. How to apply",
        "fr": "Fonds d\u2019urgence pour la transformation - \u00c9tape 3. Comment pr\u00e9senter une demande"
    },
    "exturl": "",
    "teamsite_location": {
        "en": "/default/main/AAFC-AAC/Internet-Internet/Group-Ensemble/ProgServ-ProgServ/WORKAREA/ProgServ-ProgServ/templatedata/comm-comm/gene-gene/data/06/epf-fut_step3_how_1591389940557_en",
        "fr": "/default/main/AAFC-AAC/Internet-Internet/Group-Ensemble/ProgServ-ProgServ/WORKAREA/ProgServ-ProgServ/templatedata/comm-comm/gene-gene/data/06/epf-fut_step3_how_1591389940557_fr"
    },
    "type_name": "sitemapinit",
    "has_dcr_id": true,
    "breadcrumb": {
        "en": "Emergency Processing Fund - Step 3. How to apply",
        "fr": "Fonds d\u2019urgence pour la transformation - \u00c9tape 3. Comment pr\u00e9senter une demande"
    },
    "layout_name": "content page 1 column",
    "lang": "en",
    "meta": {
        "issued": {
            "en": "2020-06-12",
            "fr": "2020-06-12"
        },
        "modified": {
            "en": "2020-08-05",
            "fr": "2020-08-05"
        },
        "format": {
            "en": "text/html",
            "fr": "text/html"
        },
        "title": {
            "en": "Emergency Processing Fund: Step 3. How to apply",
            "fr": "Fonds d\u2019urgence pour la transformation : \u00c9tape 3. Comment pr\u00e9senter une demande"
        },
        "subject": {
            "en": "trade;architectural heritage;architecture",
            "fr": "entreprise;actif;engrais"
        },
        "description": {
            "en": "Applicant Guide. Step 1.What this program offers. 7.0 Contact Us. Annex A: Application Process. (This $11 million includes the R&D, Micro Grants and ACB Streams).Cost sharing.",
            "fr": "Guide du demandeur. \u00c9tape 1.Ce qu\u2019offre ce programme. 1.0 Partenariat canadien pour l\u2019agriculture. groupes autochtones.Autre\u00a0:Si aucun des choix pr\u00e9c\u00e9dents ne s\u2019applique, s\u00e9lectionnez \u00ab\u00a0Autre\u00a0\u00bb et pr\u00e9cisez votre type d\u2019organisation.Remarque\u00a0:Pour \u00eatre admissible, un demandeur doit \u00eatre une entit\u00e9 juridique habilit\u00e9e \u00e0 conclure des accords juridiquement contraignants.Les\u00a0PME doivent exercer leurs activit\u00e9s dans les secteurs de l\u2019agriculture, de l\u2019agroalimentaire et des produits agro\u2011industriels y compris le secteur du poisson et des fruits de mer."
        },
        "language": {
            "en": "eng",
            "fr": "fra"
        },
        "keywords": {
            "en": "disabilities.The;A.Funding",
            "fr": null
        },
        "audience": {
            "en": "gcaudience",
            "fr": "gcaudience"
        },
        "type": {
            "en": "fact sheet",
            "fr": "accord"
        },
        "creator": {
            "en": "Agriculture and Agri-Food Canada;Government of Canada",
            "fr": "Agriculture et Agroalimentaire Canada;Gouvernement du Canada"
        },
        "spatial": {
            "en": "gcregions",
            "fr": "gcregions"
        },
        "service": {
            "en": "AAFC-AAC",
            "fr": "AAFC-AAC"
        },
        "accessRights": {
            "en": "2",
            "fr": "2"
        },
        "legalName": {
            "en": "agriculture_and_agri_food_canada",
            "fr": "agriculture_et_agroalimentaire_canada"
        },
        "areaServed": {
            "en": "Canada",
            "fr": "Canada"
        }
    },
    "body": {
        "en": "tart --&gt;\r\n    <!-- D&eacute;but du contenu -->\r\n    <div class=\"mrgn-tp-md mrgn-bttm-lg brdr-bttm\">\n\n<div class=\"row\">\n<ul class=\"toc lst-spcd col-md-12 list-unstyled\">\n<li class=\"col-md-4 col-sm-6\"><span class=\"list-group-item\">Step 1. <a href=\"?id=1591291974693\">What this program offers</a></span></li>\n\n<li class=\"col-md-4 col-sm-6\"><span class=\"list-group-item\">Step 2. <a href=\"?id=1591389613517\">Who is eligible</a></span></li>\n\n<li class=\"col-md-4 col-sm-6 clr-lft-sm\"><span class=\"list-group-item active\">Step 3. How to apply</span></li>\n\t\n<li class=\"col-md-4 col-sm-6 clr-lft-sm\"><span class=\"list-group-item\">Step 4. <a href=\"?id=1591391495884\">After you apply</a></span></li>\t\n\n<li class=\"col-md-4 col-sm-6\"><span class=\"list-group-item\"><a href=\"?id=1591390848110\">Applicant guide</a></span></li>\n\n<li class=\"col-md-4 col-sm-6\"><span class=\"list-group-item\"><a href=\"?id=1591391668059\">Contact information</a></span></li>\n</ul>\n</div>\n</div>\n\n<h2>Step 3. How to apply</h2>\n\n<section class=\"alert alert-info\">\n\t<p>The application intake period for the Emergency Processing Fund is now closed.</p>\n</section>\n\n<p>Before you apply, please read the <a href=\"?id=1591390848110\">Applicant guide</a> for detailed information on eligibility criteria and the application process.</p>\n\n<p>Applications requesting $100,000 or more will be accepted on a continuous basis from the program's launch until <strong>11:59\u00a0p.m.\u00a0EDT Friday, July\u00a031,\u00a02020</strong> or earlier if funding is fully allocated before that date.</p>\n\n<details>\n<summary><h3>If you are requesting less than $100,000</h3></summary>\n\n<p>Contact the organization in the province/territory of the project location to apply.</p>\n\n<ul class=\"lst-spcd\">\n\t<li><b>Newfoundland and Labrador, Nova Scotia, Prince Edward Island, New Brunswick</b><br> \n<a href=\"https://www.perennia.ca/coronavirus/\">Perennia Food and Agriculture Inc.</a><br>\nTelephone: 902-678-7722<br>\nToll-free number: 1-877-710-5210<br>\nEmail: <a href=\"mailto:programs@perennia.ca\">programs@perennia.ca</a></li>\n\t<li><b>Quebec</b><br>\n<a href=\"http://www.conseiltaq.com/fondsurgence\">Conseil de la transformation alimentaire du Qu\u00e9bec (in French only)</a><br> \t\nTelephone: 1-888-984-2251<br>\nEmail: <a href=\"mailto:fondsurgencecovid@conseiltaq.com\">fondsurgencecovid@conseiltaq.com</a></li>\n\t<li><b>Ontario, Manitoba and Nunavut</b><br>\n<a href=\"https://adaptcouncil.org/program/epf/\">Agricultural Adaptation Council</a><br>\t\nTelephone: 519-822-7554<br>\nEmail: <a href=\"mailto:epf@adaptcouncil.org\">epf@adaptcouncil.org</a></li>\n\t<li><b>Alberta, Saskatchewan, British Columbia, Yukon and Northwest Territories</b><br>\n<a href=\"http://www.iafbc.ca/\">Investment Agriculture Foundation of BC</a><sup id=\"fn1-rf\"><a class=\"fn-lnk\" href=\"#fn1\"><span class=\"wb-inv\">Footnote </span>1</a></sup><br>\t\nTelephone: 250-940-6150<br>\nEmail: <a href=\"mailto:info@iafbc.ca\">info@iafbc.ca</a></li>\n</ul>\t\n\n<aside class=\"wb-fnote\" role=\"note\">\n    <h2 id=\"fn\">Footnote</h2>\n    <dl>\n        <dt>Footnote 1</dt>\n        <dd id=\"fn1\">\n        <p>The organization will work with Western Economic Diversification Canada to promote and coordinate the program in Saskatchewan and Alberta.</p>\n        <p class=\"fn-rtn\"><a href=\"#fn1-rf\"><span class=\"wb-inv\">Return to footnote </span>1<span class=\"wb-inv\"> referrer</span></a></p>\n        </dd>\n    </dl>\n</aside>\n</details>\t\n  \n\n<details>\n<summary><h3>If you are requesting $100,000 or more</h3></summary>\n\n<p>Apply directly to Agriculture and Agri-Food Canada and complete the following steps.</p>\n\n<h4>1. Complete the Screening checklist</h4>\n\n<ol class=\"lst-upr-alph\">\n\t<li>Complete the <a href=\"?id=1591828212802\">Screening checklist</a> as an initial assessment of your eligibility based on the mandatory program criteria</li>\n\t<li>If you decide you are eligible and want to submit an application under the program, go to Step 2.</li>\n</ol>\n\t\n<section class=\"mrgn-tp-lg\" id=\"pdfforms\">\n<div class=\"alert alert-warning\">\n\n<h5>PDF forms</h5>\n\n<p>If you have problems opening a PDF form in your Internet browser, you need to:</p>\n<ul class=\"mrgn-tp-md\">\n <li>Use your computer. <strong>The forms may not open on mobile devices (iPads, tablets, mobile phones)</strong>.</li>\n <li>Make sure you have Adobe Reader 11 (or higher) already installed on your computer. If not, download <a href=\"http://get.adobe.com/reader/otherversions/\" rel=\"external\">Adobe Reader 11 or higher</a> for free. Adobe has help for <a href=\"https://helpx.adobe.com/ca/acrobat/kb/cant-view-pdf-web.html\" rel=\"external\">solving common issues</a>.</li>\n <li>You must <strong>save the file on your computer</strong> in a place you can remember.</li>\n<li>Open the file on your computer using <a href=\"http://get.adobe.com/reader/otherversions/\" rel=\"external\">Adobe Reader 11 or higher</a>.</li>\n<li>If you can\u2019t open the form with Adobe Reader 11 or higher, <a href=\"?id=1591391668059\">contact the program</a>.</li>\n</ul>\n\n\n    <h6 class=\"lead mrgn-bttm-0\">How to download and open a PDF form</h6>\n<!-- <p>To download and open a PDF form, you need to have <a href=\"http://get.adobe.com/reader/otherversions/\" rel=\"external\">Adobe Reader 11 or higher</a> installed.</p> -->\n\n<ul class=\"list-unstyled\">\n\n\n\t<li>\n<details class=\"mrgn-tp-sm\">\n    <summary>Microsoft Windows Operating System computers using \u201cInternet Explorer\u201d or \u201cMicrosoft Edge\u201d as your browser</summary>\n    <ol>\n      <li>Right-click on the link you want to save</li>\n      <li>Select \u201cSave target as\u201d or \u201cSave link as\u201d</li>\n      <li>Choose the location on your computer where you would like to save the file</li>\n      <li>Select \u201cSave\u201d</li>\n      <li>Open Adobe Reader 11 or higher</li>\n      <li>Select \u201cFile\u201d</li> \n      <li>Select \u201cOpen\u201d</li>\n      <li>Go to the location where you saved the file</li> \n      <li>Select the PDF file</li>\n      <li>Select \u201cOpen\u201d</li>\n    </ol>\n    </details>\n</li>\n\n<li>\n<details class=\"mrgn-tp-sm\">\n<summary>Microsoft Windows Operating System or Apple computers using \u201cChrome\u201d or Firefox\u201d as your browser</summary>\n    <ol>\n      <li>Right-click on the link you want to save</li>\n      <li>When the option menu appears, choose \"Download link file\" or \"Download link file as\"</li>\n      <li>Choose the location on your computer where you would like to save  the file. Your computer will start the download once you have selected a  location.</li>\n<li>Open Adobe Reader 11 or higher</li>\n      <li>Go to the location where you saved the file</li> \n      <li>Select the PDF file</li>\n      <li>Select \u201cOpen\u201d</li>\n    </ol>\n    </details>\n</li>\n</ul>\n\n</div>\n</section>\n\t \n<h4>2. Complete the AAFC application form(s) and required documents</h4>\n\t\n<p><strong>Note:</strong> You may submit an application form for <strong>one or both</strong> objectives of the program. The same form is used for both objectives. Objective 1 will be the initial priority for funding under the program.</p>\n\n<ul class=\"lst-spcd mrgn-lft-lg\">\n\t<li>Objective 1 - Emergency COVID Response (non-repayable contributions)</li>\n\t<li>Objective 2 - Strategic Investments (repayable contributions)</li>\n</ul>\t\n\n<p>To apply, complete the following forms:</p>\n\n<ul>\n<li><!-- <a href=\"http://multimedia.agr.gc.ca/pack/pdf/epf-fut_proj-app-form-eng.pdf\"> -->Project application form (PDF) (required)</li>\n<li><a href=\"?id=1591828212802\">Screening checklist</a>  (required)</li>\n<li><a href=\"?id=1591801221322\">Signature of applicant authorized representative form</a>  (required)</li>\n<li><a href=\"?id=1592234872261\">Consent to disclose/copyright form</a>  (required)</li>\n<li>Audited or Review Engagement Financial statements for the past two years  (required)</li>\n<li>Applicant\u2019s Certificate or Articles of Incorporation  (required)</li>\n<li><span class=\"badge\">Recommended:</span> Letter of support from the applicant\u2019s union or health and safety committee (if applicable)</li>\n</ul>\n\n<div class=\"well\">\n<p>If you are applying for <b>Objective 2 \u2013 Strategic Investments</b>, you will also need to provide:</p>\n<ul>\n\t<li>quotes, estimates and/or contracts provided by suppliers for all construction, renovations or equipment and technology to be purchased and installed.</li>\n\t<li>an additional (third) year of Audited or Review Engagement Financial statements. Financial statements to include an income statement, a balance sheet, cash flow statement and the most recent interim financial statements</li>\n</ul>\t\n</div>\n\t\n<p>Find details on the supporting documents in <a href=\"?id=1591390848110#annexc\">Annex C</a> of the Applicant guide.</p>\n\n<h4>3. Submit your complete AAFC application</h4>\n\n<p>Use your AAFC application form(s) to submit your complete application.</p>\n\n<section class=\"alert alert-info\">\n\t<h5>Important note</h5>\n\t<p>Review the list of supporting documents outlined in <a href=\"?id=1591390848110#annexc\">Annex C</a> of the Applicant guide to ensure that you include all required documents in your complete application. <strong>Your application must be complete in order to be fully assessed.</strong></p>\n\n\t<p>If your submitted application is assessed as incomplete, you will be notified by program officials to provide the missing information in a timely manner. An invitation to submit a full application does not constitute an offer of funding.</p>\n</section>\n</details>\n\n\n\n<div class=\"row\">\n<div class=\"col-md-12 mrgn-lft-0 mrgn-rght-0\">\n<ul class=\"pager\">\t\n<li class=\"previous\"><a href=\"?id=1591389613517\" rel=\"prev\" title=\"Who is eligible\">Previous</a></li>\t\n<li class=\"next\"><a href=\"?id=1591391495884\" rel=\"next\" title=\"After you apply\">Next</a></li>\t\n</ul>\n</div>\n</div>\n\n\r\n    <!-- Fin du contenu -->\r\n  \r\n  <div class=\"pagedetails\" id=\"pgft\">\r\n    <div class=\"row\">\r\n\t  <div class=\"col-sm-6 col-md-5 col-lg-4\">\r\n\t    <details class=\"brdr-0\">\r\n\t\t<summary class=\"btn btn-default text-center\" onclick=\"getAntiSpamSeq('/eng/mail-handler/?anti-spam-sequence=true')\">Report a problem on this page</summary>\r\n\t\t<div class=\"clearfix\"></div>\r\n\t\t<div class=\"well row\">\r\n\t\t<div>\r\n\t\t  <div class=\"gc-rprt-prblm\">\r\n\t\t    <div class=\"gc-rprt-prblm-frm gc-rprt-prblm-tggl\">\r\n\t\t\t  \r\n\t\t\t<form id=\"report_a_problem_form\" action=\"/eng/mail-handler/#report_a_problem_form\" method=\"post\">\t\t\t\t   \t\t\t\r\n\r\n\t            \t <input type=\"hidden\" name=\"lang\" value=\"eng\">\r\n\t            \t <input type=\"hidden\" name=\"pageId\" value=\"1591389940557\">\r\n\t            \t <input type=\"hidden\" name=\"pageUrl\" value=\"http://agr.gc.ca/eng/agricultural-programs-and-services/emergency-processing-fund/step-3-how-to-apply/?id=1591389940557\">\r\n\t\t\t\t\t <div id=\"report_a_problem_form_error\"></div>\r\n\t\t             <fieldset>\t\t\t\t\t    \r\n\t\t                <legend><span class=\"field-name\">Please select all that apply:</span></legend>\t\t                                 \r\n\t\t\t\t\t\t<div class=\"checkbox\">\r\n\t\t\t\t\t\t\t<label for=\"problem1\"><input name=\"problem1\" id=\"problem1\" type=\"checkbox\" value=\"Yes\">A link, button or video is not working</label>\r\n\t\t\t\t\t\t\t<input name=\"problem1\" type=\"hidden\" value=\"No\">\r\n\t\t\t\t\t\t</div>\r\n\t\t\t\t\t\t<div class=\"checkbox\">\r\n\t\t\t\t\t\t\t<label for=\"problem2\"><input name=\"problem2\" id=\"problem2\" type=\"checkbox\" value=\"Yes\">It has a spelling mistake</label>\r\n\t\t\t\t\t\t\t<input name=\"problem2\" type=\"hidden\" value=\"No\">\r\n\t\t\t\t\t\t</div>\r\n\t\t\t\t\t\t<div class=\"checkbox\">\r\n\t\t\t\t\t\t\t<label for=\"problem3\"><input name=\"problem3\" id=\"problem3\" type=\"checkbox\" value=\"Yes\">Information is missing</label>\r\n\t\t\t\t\t\t\t<input name=\"problem3\" type=\"hidden\" value=\"No\">\r\n\t\t\t\t\t   </div>\r\n\t\t\t\t\t\t<div class=\"checkbox\">\r\n\t\t\t\t\t\t\t<label for=\"problem4\"><input name=\"problem4\" id=\"problem4\" type=\"checkbox\" value=\"Yes\">Information is outdated or wrong</label>\r\n\t\t\t\t\t\t\t<input name=\"problem4\" type=\"hidden\" value=\"No\">\r\n\t\t\t\t\t\t</div>\r\n\t\t\t\t\t\t<div class=\"checkbox\">\r\n\t\t\t\t\t\t\t<label for=\"problem5\"><input name=\"problem5\" id=\"problem5\" type=\"checkbox\" value=\"Yes\">Login error when trying to access an account (e.g. My Service Canada Account)</label>\r\n\t\t\t\t\t\t\t<input name=\"problem5\" type=\"hidden\" value=\"No\">\r\n\t\t\t\t\t\t</div>\r\n\t\t\t\t\t\t\t<ul>\r\n\t\t\t\t\t\t\t<li class=\"checkbox\">\r\n\t\t\t\t\t\t\t\t<label for=\"problem6a\"><input name=\"problem6\" id=\"problem6a\" type=\"checkbox\" value=\"Yes\">GC Key access</label>\r\n\t\t\t\t\t\t\t\t<input name=\"problem6\" type=\"hidden\" value=\"No\">\r\n\t\t\t\t\t\t\t </li>\r\n\t\t\t\t\t\t\t<li class=\"checkbox\">\r\n\t\t\t\t\t\t\t\t<label for=\"problem7\"><input name=\"problem7\" id=\"problem7\" type=\"checkbox\" value=\"Yes\">SecureKey Concierge (Banking Credential) access </label>\r\n\t\t\t\t\t\t\t\t<input name=\"problem7\" type=\"hidden\" value=\"No\">\r\n\t\t\t\t\t\t\t </li>\r\n\t\t\t\t\t\t\t<li class=\"checkbox\">\r\n\t\t\t\t\t\t\t\t<label for=\"problem8\"><input name=\"problem8\" id=\"problem8\" type=\"checkbox\" value=\"Yes\">Personal Access Code (PAC) problems or EI Access Code (AC) problems</label>\r\n\t\t\t\t\t\t\t\t<input name=\"problem8\" type=\"hidden\" value=\"No\">\r\n\t\t\t\t\t\t\t </li>\t\r\n\t\t\t\t\t\t\t<li class=\"checkbox\">\r\n\t\t\t\t\t\t\t\t<label for=\"problem9\"><input name=\"problem9\" id=\"problem9\" type=\"checkbox\" value=\"Yes\">Social Insurance Number (SIN) validation problems</label>\r\n\t\t\t\t\t\t\t\t<input name=\"problem9\" type=\"hidden\" value=\"No\">\r\n\t\t\t\t\t\t\t </li>\t\t\t\t\t\t\t\t\r\n\t\t\t\t\t\t\t<li class=\"checkbox\">\r\n\t\t\t\t\t\t\t\t<label for=\"problem10\"><input name=\"problem10\" id=\"problem10\" type=\"checkbox\" value=\"Yes\">Other login error not in this list</label>\r\n\t\t\t\t\t\t\t\t<input name=\"problem10\" type=\"hidden\" value=\"No\">\r\n\t\t\t\t\t\t\t </li>\t\t \r\n\t\t\t\t\t\t\t </ul>\r\n\t\t\t\t\t\t<div class=\"checkbox\">\r\n\t\t\t\t\t\t\t<label for=\"problem11\"><input name=\"problem11\" id=\"problem11\" type=\"checkbox\" value=\"Yes\">I can't find what I'm looking for</label>\r\n\t\t\t\t\t\t\t<input name=\"problem11\" type=\"hidden\" value=\"No\">\r\n\t\t\t\t\t\t</div>\r\n\t\t\t\t\t\t<div class=\"checkbox\">\r\n\t\t\t\t\t\t\t<label for=\"problem12\"><input name=\"problem12\" id=\"problem12\" type=\"checkbox\" value=\"Yes\">Other issue not in this list</label>\r\n\t\t\t\t\t\t\t<input name=\"problem12\" type=\"hidden\" value=\"No\">\r\n\t\t\t\t\t\t</div>\t\t\t\t\t\t \t\t\t\t\t\t\t\t\t\t\t\t \r\n\t\t             </fieldset>\r\n\t\t\t\t\t <div>\r\n\t\t\t\t\t   <label for=\"aafc_ranstr\"><span id=\"fbch\"><br>Enter these characters <strong class=\"required\">(required)</strong>: </span><span id=\"ranstr\">U5S</span></label>\r\n\t\t\t           <input name=\"anti-spam-sequence\" id=\"aafc_ranstr\" size=\"4\" maxlength=\"3\" type=\"text\">\r\n\t\t\t\t\t </div>\t\r\n\r\n\t\t\t\t\t <br><input type=\"submit\" class=\"btn btn-primary\" value=\"Submit\">\r\n\t\t\t\t  </form>\r\n\t\t\t\t</div>\r\n\t\t\t</div>\t\t\t\r\n\t\t  </div>\r\n\t\t</div>\r\n\t\t</details>\r\n\t  </div>\r\n\t  <div class=\"wb-share col-sm-4 col-md-3 col-sm-offset-2 col-md-offset-4 col-lg-offset-5\" data-wb-share='{\"lnkClass\": \"btn btn-default btn-block\"}'></div>\r\n\t</div>\r\n\t<dl id=\"wb-dtmd\">\r\n\t  <dt>Date modified: </dt>\r\n\t  <dd><time property=\"dateModified\">2020-08-05</time></dd></dl></div>",
        "fr": "\r\n    \r\n    <!-- MainContentStart -->\r\n    <!-- D&eacute;but du contenu -->\r\n    <div class=\"mrgn-tp-md mrgn-bttm-lg brdr-bttm\">\n\n<div class=\"row\">\n<ul class=\"toc lst-spcd col-md-12 list-unstyled\">\n<li class=\"col-md-4 col-sm-6\"><span class=\"list-group-item\">\u00c9tape 1. <a href=\"?id=1591291974693\">Ce qu\u2019offre ce programme</a></span></li>\n\n<li class=\"col-md-4 col-sm-6\"><span class=\"list-group-item\">\u00c9tape 2. <a href=\"?id=1591389613517\">Qui est admissible</a></span></li>\n\n<li class=\"col-md-4 col-sm-6 clr-lft-sm\"><span class=\"list-group-item active\">\u00c9tape 3. Comment pr\u00e9senter une demande</span></li>\n\t\n<li class=\"col-md-4 col-sm-6 clr-lft-sm\"><span class=\"list-group-item\">\u00c9tape 4. <a href=\"?id=1591391495884\">Apr\u00e8s avoir pr\u00e9sent\u00e9 votre demande</a></span></li>\t\n\n<li class=\"col-md-4 col-sm-6\"><span class=\"list-group-item\"><a href=\"?id=1591390848110\">Guide du demandeur</a></span></li>\n\n<li class=\"col-md-4 col-sm-6\"><span class=\"list-group-item\"><a href=\"?id=1591391668059\">Pour nous joindre</a></span></li>\n</ul>\n</div>\n</div>\n\n<h2>\u00c9tape 3. Comment pr\u00e9senter une demande</h2>\n\n<section class=\"alert alert-info\">\n\t<p>La p\u00e9riode de demande pour le Fonds d\u2019urgence pour la transformation est maintenant ferm\u00e9e.</p>\n</section>\n\n<p>Avant de pr\u00e9senter votre demande, veuillez lire le <a href=\"?id=1591390848110\">guide du demandeur</a> pour obtenir des renseignements d\u00e9taill\u00e9s sur les crit\u00e8res d'admissibilit\u00e9 et le processus de demande.</p>\n\n<p>Les demandes de 100\u00a0000\u00a0$ ou plus seront accept\u00e9es jusqu'\u00e0 <strong>23\u00a0h\u00a059\u00a0(HAE) le vendredi 31\u00a0juillet\u00a02020</strong>. Sachez que le financement peut avoir \u00e9t\u00e9 enti\u00e8rement distribu\u00e9 avant cette date.</p>\n\n<details>\n<summary><h3>Si vous pr\u00e9sentez une demande de moins de 100\u00a0000\u00a0$</h3></summary>\n\n<p>Communiquez avec l'organisation provinciale ou territoriale d\u00e9sign\u00e9e selon l'emplacement du projet pour pr\u00e9senter une demande.</p>\n\n<ul class=\"lst-spcd\">\n\t<li><b>Terre-Neuve-et-Labrador, Nouvelle-\u00c9cosse, \u00cele-du-Prince-\u00c9douard, Nouveau-Brunswick</b><br> \n<a href=\"https://www.perennia.ca/coronavirus#FRENCH\">Perennia Food and Agriculture Inc.</a><br>\n<!--<strong>Le service en fran&ccedil;ais est disponible par :</strong><br /> -->\nT\u00e9l\u00e9phone\u00a0: 902-678-7722<br>\nNum\u00e9ro sans frais\u00a0:1-877-710-5210<br>\nCourriel\u00a0: <a href=\"mailto:programs@perennia.ca\">programs@perennia.ca</a></li>\n\t<li><b>Qu\u00e9bec</b><br>\n<a href=\"http://www.conseiltaq.com/fondsurgence\">Conseil de la transformation alimentaire du Qu\u00e9bec</a><br> \t\nT\u00e9l\u00e9phone\u00a0: 1-888-984-2251<br>\nCourriel\u00a0: <a href=\"mailto:fondsurgencecovid@conseiltaq.com\">fondsurgencecovid@conseiltaq.com</a></li>\n\t<li><b>Ontario, Manitoba et Nunavut </b><br>\n<a href=\"https://adaptcouncil.org/program/fut/\">Conseil de l'adaptation agricole </a><br>\t\nT\u00e9l\u00e9phone\u00a0: 519-822-7554<br>\nCourriel\u00a0: <a href=\"mailto:epf@adaptcouncil.org\">epf@adaptcouncil.org</a></li>\n\t<li><b>Alberta, Saskatchewan, Colombie-Britannique, Yukon et Territoires du Nord-Ouest</b><br>\n<a href=\"http://www.iafbc.ca/\">Investment Agriculture Foundation of BC (en anglais seulement)</a> <sup id=\"fn1-rf\"><a class=\"fn-lnk\" href=\"#fn1\"><span class=\"wb-inv\">Note de bas de page </span>1</a></sup><br>\t\nT\u00e9l\u00e9phone\u00a0: 250-940-6150<br>\nCourriel\u00a0: <a href=\"mailto:info@iafbc.ca\">info@iafbc.ca</a></li>\n</ul>\t\n\n<aside class=\"wb-fnote\" role=\"note\">\n    <h2 id=\"fn\">Note de bas de page</h2>\n    <dl>\n        <dt>Note de bas de page 1</dt>\n        <dd id=\"fn1\">\n        <p>L\u2019organisation collaborera avec Diversification de l\u2019\u00e9conomie de l\u2019Ouest Canada afin de promouvoir et coordonner le programme en Saskatchewan et en Alberta.</p>\n        <p class=\"fn-rtn\"><a href=\"#fn1-rf\"><span class=\"wb-inv\">Retourner \u00e0 la note de bas de page  </span>1</a></p>\n        </dd>\n    </dl>\n</aside>\n</details>\t\n  \n\n<details>\n<summary><h3>Si vous pr\u00e9sentez une demande de 100\u00a0000\u00a0$ ou plus</h3></summary>\n\n<p>Pr\u00e9sentez directement votre demande \u00e0 Agriculture et Agroalimentaire Canada (AAC) en suivant les \u00e9tapes ci-dessous.</p>\n\n<h4>1. Remplir la liste de v\u00e9rification</h4>\n\n<ol class=\"lst-upr-alph\">\n\t<li>Remplissez la <a href=\"?id=1591828212802\">Liste de v\u00e9rification</a>, laquelle constitue une premi\u00e8re \u00e9valuation de votre admissibilit\u00e9 en fonction des crit\u00e8res obligatoires du programme.</li>\n\t<li>Si vous estimez \u00eatre admissible et souhaitez pr\u00e9senter une ou des demande(s) dans le cadre du programme, passez \u00e0 l'\u00e9tape 2.</li>\n</ol>\n\t\n<section class=\"mrgn-tp-lg\" id=\"pdfforms\">\n<div class=\"alert alert-warning\">\n  <h3>Formulaires en format PDF</h3>\n<p>Si vous avez de la difficult\u00e9 \u00e0 ouvrir un formulaire PDF dans votre navigateur Internet, vous devez\u00a0:</p>\n<ul class=\"mrgn-tp-md\">\n <li>utiliser votre ordinateur. <strong>Il est possible que les formulaires ne s'ouvrent pas sur des appareils mobiles (iPad, tablettes, t\u00e9l\u00e9phones cellulaires)</strong>.</li>\n  <li>vous assurer que la version 11 (ou une version ult\u00e9rieure) d'Adobe Reader est d\u00e9j\u00e0 install\u00e9e sur votre ordinateur. Si ce n'est pas le cas, t\u00e9l\u00e9chargez gratuitement <a href=\"http://get.adobe.com/fr/reader/otherversions/\" rel=\"external\">Adobe Reader 11 ou une version ult\u00e9rieure</a>. Adobe offre des <a href=\"https://helpx.adobe.com/fr/acrobat/kb/cant-view-pdf-web.html\" rel=\"external\">solutions aux principaux probl\u00e8mes d'affichage</a>;</li>\n <li><strong>sauvegarder le fichier sur votre ordinateur</strong> \u00e0 un endroit dont vous vous souviendrez;</li>\n <li>ouvrir le fichier sur votre ordinateur \u00e0 l'aide d'<a href=\"http://get.adobe.com/fr/reader/otherversions/\" rel=\"external\">Adobe Reader 11 ou une version ult\u00e9rieure</a>.</li>\n <li>Si vous ne parvenez pas \u00e0 ouvrir le formulaire avec Adobe Reader 11 ou une version ult\u00e9rieure, <a href=\"?id=1591391668059\">veuillez contacter le programme</a>.</li>\n</ul>\n\n\n    <h6 class=\"lead mrgn-bttm-0\">Comment t\u00e9l\u00e9charger et ouvrir un formulaire au format PDF?</h6>\n  <!--  <p>Pour t&eacute;l&eacute;charger et ouvrir un formulaire au format PDF, vous devez installer <a href=\"http://get.adobe.com/fr/reader/otherversions/\" rel=\"external\">Adobe Reader 11 ou une version ult&eacute;rieure</a>.</p> -->\n\n<ul class=\"list-unstyled\">\n\t<li>\n<details class=\"mrgn-tp-md\">\n    <summary>Les ordinateurs utilisant le syst\u00e8me d'exploitation Microsoft Windows et se servant de  \u201cInternet Explorer\u201d ou \u201cMicrosoft Edge\u201d comme fureteur</summary>\n     <ol>\n      <li>Cliquez sur le lien que vous voulez enregistrer avec le bouton droit de la souris;</li>\n      <li>S\u00e9lectionnez \u00ab Enregistrer la cible sous \u00bb ou \u00ab Enregistrer le lien sous \u00bb;</li>\n      <li>Choisissez l'emplacement o\u00f9 vous souhaitez enregistrer le fichier sur votre ordinateur;</li>\n      <li>S\u00e9lectionnez \u00ab Enregistrer \u00bb;</li>\n      <li>Ouvrissiez Adobe Reader 11 ou une version ult\u00e9rieure;</li>\n      <li>S\u00e9lectionnez \u00ab Fichier \u00bb;</li>\n      <li>S\u00e9lectionnez \u00ab Ouvrez \u00bb;</li>\n      <li>Acc\u00e9dez \u00e0 l'emplacement o\u00f9 vous avez enregistr\u00e9 le fichier;</li>\n      <li>Choisissez le formulaire PDF;</li>\n      <li>S\u00e9lectionnez \u00ab Ouvrez \u00bb.</li>\n    </ol>\n    </details>\n</li>\n\n<li>\n<details class=\"mrgn-tp-md\">\n<summary>Les ordinateurs utilisant le syst\u00e8me d'exploitation Microsoft Windows ou Apple et se servant de \u201cChrome\u201d ou \"Firefox\u201d comme fureteur</summary>\n        <ol>\n      <li>Cliquez sur le lien que vous voulez enregistrer avec le bouton droit de la souris;</li>\n      <li>Quand le menu d'options s'affiche, s\u00e9lectionnez \"T\u00e9l\u00e9charger le fichier li\u00e9\" ou \"T\u00e9l\u00e9charger le fichier li\u00e9 sous\"</li>\n      <li>Choisissez l'emplacement o\u00f9 vous souhaitez enregistrer le fichier  sur votre ordinateur. Le t\u00e9l\u00e9chargement commencera une fois que vous  aurez choisi un emplacement;</li>\n  <li>Ouvrissiez Adobe Reader 11 ou une version ult\u00e9rieure;</li>\n      <li>Acc\u00e9dez \u00e0 l'emplacement o\u00f9 vous avez enregistr\u00e9 le fichier;</li>\n      <li>Choisissez le formulaire PDF;</li>\n      <li>S\u00e9lectionnez \u00ab\u00a0Ouvrez\u00a0\u00bb.</li>\n    </ol>\n    </details>\n</li>\n</ul>\n\n</div>\n</section>\n\n\t \n<h4>2. Remplir les formulaires de demande d'AAC et documents \u00e0 l'appui</h4>\n\n\n<p><strong>Remarque\u00a0:</strong> Vous pouvez soumettre un formulaire de demande pour <strong>l'un ou les deux</strong> objectifs du programme. Le m\u00eame formulaire PDF est utilis\u00e9 pour les deux objectifs. L'objectif 1 constituera la priorit\u00e9 initiale du programme.</p>\n\n\n<ul class=\"lst-spcd mrgn-lft-lg\">\n\t<li>Objectif 1 \u2013  Intervention d'urgence li\u00e9e \u00e0 la COVID-19 (contributions non remboursables)</li>\n\t<li>Objectif 2 \u2013 Investissements strat\u00e9giques (contributions remboursables)</li>\n</ul>\t\n\n\n<p>Pour postuler, remplissez les formulaires suivants :</p>\n\n<ul>\n<li><!-- <a href=\"http://multimedia.agr.gc.ca/pack/pdf/epf-fut_proj-app-form-fra.pdf\"> -->Formulaire de demande de projet (PDF) (requis)</li>\n<li><a href=\"?id=1591828212802\">Liste de v\u00e9rification</a> (requis)</li>\n<li><a href=\"?id=1591801221322\">Autorisation par signature du repr\u00e9sentant d\u00e9sign\u00e9 du demandeur</a> (requis)</li>\n<li><a href=\"?id=1592234872261\">Formulaire du consentement \u00e0 l'utilisation et \u00e0 la divulgation de renseignement</a> (requis)</li>\n<li>\u00c9tats financiers v\u00e9rifi\u00e9s ou ayant fait l\u2019objet d\u2019une mission d\u2019examen pour les deux derni\u00e8res ann\u00e9es (requis)</li>\n<li>Certificat ou statuts constitutifs du demandeur  (requis)</li>\n<li><span class=\"badge\">Recommandation :</span> Lettre de soutien du syndicat ou du comit\u00e9 de sant\u00e9 et de s\u00e9curit\u00e9 du demandeur (le cas \u00e9ch\u00e9ant)</li>\n\n\n\n</ul>\n\n<div class=\"well\">\n<p>Si vous pr\u00e9sentez une demande au titre de l\u2019<b>Objectif 2 \u2014 Investissements strat\u00e9giques</b>, vous devrez \u00e9galement fournir :</p>\n<ul>\n\t<li>des listes de prix, des estimations ou des contrats remis par les fournisseurs pour tous les travaux de construction, de r\u00e9novation ou les \u00e9quipements et technologies \u00e0 acheter et \u00e0 installer;</li>\n\t<li>les \u00e9tats financiers v\u00e9rifi\u00e9s ou ayant fait l\u2019objet d\u2019une mission d\u2019examen pour une ann\u00e9e suppl\u00e9mentaire (troisi\u00e8me). Les \u00e9tats financiers doivent comprendre un \u00e9tat des r\u00e9sultats, un bilan, un \u00e9tat des flux de tr\u00e9sorerie et les plus r\u00e9cents \u00e9tats financiers provisoires.</li>\n</ul>\t\n</div>\n\n\t\n<p>Tous les documents \u00e0 l'appui d\u00e9crits \u00e0 l'<a href=\"?id=1591390848110#annexec\">Annexe C</a> du guide du demandeur.</p>\n\n<h4>3. Soumettre votre demande \u00e0 AAC</h4>\n\n<p>Utilisez les formulaires de demande d'AAC pour soumettre votre demande compl\u00e8te.</p>\n\n<section class=\"alert alert-info\">\n\t<h5>Remarque importante</h5>\n\t<p>Passez en revue la liste des documents \u00e0 l'appui figurant \u00e0 l'<a href=\"?id=1591390848110#annexec\">Annexe C</a> du guide du demandeur pour vous assurer d'inclure tous les documents requis dans votre demande compl\u00e8te. <strong>Votre demande doit \u00eatre compl\u00e8te pour \u00eatre int\u00e9gralement \u00e9valu\u00e9e.</strong></p>\n\t<p>Si la demande soumise est consid\u00e9r\u00e9e comme incompl\u00e8te, les repr\u00e9sentants du programme vous demanderont de fournir rapidement les renseignements manquants. Une invitation \u00e0 pr\u00e9senter une demande compl\u00e8te ne constitue pas une offre de financement.</p>\n</section>\n</details>\n\n\n\n<nav>\n  <h2 class=\"wb-inv\">Navigation du document - pr\u00e9c\u00e9dente-suivante - bas</h2>\n\n<div class=\"row\">\n<div class=\"col-md-12 mrgn-lft-0 mrgn-rght-0\">\n<ul class=\"pager\">\t\n<li class=\"previous\"><a href=\"?id=1591389613517\" rel=\"prev\" title=\"Qui est admissible\">Pr\u00e9c\u00e9dente</a></li>\t\n<li class=\"next\"><a href=\"?id=1591391495884\" rel=\"next\" title=\"Apr\u00e8s avoir pr\u00e9sent\u00e9 votre demande\">Suivante</a></li>\t\n</ul>\n</div>\n</div>\n</nav>\n\r\n    <!-- Fin du contenu -->\r\n\t\r\n\t<div class=\"pagedetails\" id=\"pgft\">\r\n\t\t<div class=\"row\">\r\n\t\t  <div class=\"col-sm-6 col-md-5 col-lg-4\">\r\n\t\t    <details class=\"brdr-0\">\r\n\t\t\t<summary class=\"btn btn-default text-center\" onclick=\"getAntiSpamSeq('/fra/mail-handler/?anti-spam-sequence=true')\">Signaler un probl\u00e8me sur cette page</summary>\r\n\t\t\t<div class=\"well row\">\r\n\t\t\t  <div class=\"gc-rprt-prblm\">\r\n\t\t\t    <div class=\"gc-rprt-prblm-frm gc-rprt-prblm-tggl\">\r\n\t\t\t\t   <form id=\"report_a_problem_form\" action=\"/fra/mail-handler/\" method=\"post\">\r\n\t            \t <input type=\"hidden\" name=\"lang\" value=\"fra\">\r\n\t            \t <input type=\"hidden\" name=\"pageId\" value=\"1591389940557\">\r\n\t            \t <input type=\"hidden\" name=\"pageUrl\" value=\"http://agr.gc.ca/fra/programmes-et-services-agricoles/fonds-durgence-pour-la-transformation/etape-3-comment-presenter-une-demande/?id=1591389940557\">\r\n\t\t\t\t\t <div id=\"report_a_problem_form_error\"></div>\r\n\t\t             <fieldset>\t\t\t\t\t    \r\n\t\t                <legend><span class=\"field-name\">Veuillez cocher toutes les r\u00e9ponses pertinentes\u00a0:</span></legend>\r\n\t\t                 <div class=\"checkbox\">\r\n\t\t                    <label for=\"problem1\"><input name=\"problem1\" id=\"problem1\" type=\"checkbox\" value=\"Yes\">Un lien, un bouton ou une vid\u00e9o ne fonctionne pas</label>\r\n\t\t                    <input name=\"problem1\" type=\"hidden\" value=\"No\">\r\n\t\t                </div>\r\n\t\t                <div class=\"checkbox\">\r\n\t\t                    <label for=\"problem2\"><input name=\"problem2\" id=\"problem2\" type=\"checkbox\" value=\"Yes\">Il y a une erreur d'orthographe ou de grammaire</label>\r\n\t\t                    <input name=\"problem2\" type=\"hidden\" value=\"No\">\r\n\t\t                </div>\r\n\t\t   \t\t\t\t <div class=\"checkbox\">\r\n\t\t                    <label for=\"problem3\"><input name=\"problem3\" id=\"problem3\" type=\"checkbox\" value=\"Yes\">Les renseignements sont incomplets</label>\r\n\t\t                    <input name=\"problem3\" type=\"hidden\" value=\"No\">\r\n\t\t                </div>\r\n\t\t             \t\t<div class=\"checkbox\">\r\n\t\t                    <label for=\"problem4\"><input name=\"problem4\" id=\"problem4\" type=\"checkbox\" value=\"Yes\">L'information n'est plus \u00e0 jour ou est erron\u00e9e</label>\r\n\t\t                    <input name=\"problem4\" type=\"hidden\" value=\"No\">\r\n\t\t                </div>\t\t\t\t\t\t\r\n\t\t\t\t\t\t<div class=\"checkbox\">\r\n\t\t\t\t\t\t\t<label for=\"problem5\"><input name=\"problem5\" id=\"problem5\" type=\"checkbox\" value=\"Yes\">Message d'erreur \u00e0 l'ouverture de la session lorsque je tente d'acc\u00e9der \u00e0 un compte (ex. Mon dossier Service Canada)</label>\r\n\t\t\t\t\t\t\t<input name=\"problem5\" type=\"hidden\" value=\"No\">\r\n\t\t\t\t\t\t</div>\r\n\t\t\t\t\t\t\t<ul>\r\n\t\t\t\t\t\t\t<li class=\"checkbox\">\r\n\t\t\t\t\t\t\t\t<label for=\"problem6a\"><input name=\"problem6\" id=\"problem6a\" type=\"checkbox\" value=\"Yes\">Acc\u00e8s Cl\u00e9GC</label>\r\n\t\t\t\t\t\t\t\t<input name=\"problem6\" type=\"hidden\" value=\"No\">\r\n\t\t\t\t\t\t\t </li>\r\n\t\t\t\t\t\t\t<li class=\"checkbox\">\r\n\t\t\t\t\t\t\t\t<label for=\"problem7\"><input name=\"problem7\" id=\"problem7\" type=\"checkbox\" value=\"Yes\">Acc\u00e8s SecureKey Service de Concierge (justificatifs d'identit\u00e9 bancaires)</label>\r\n\t\t\t\t\t\t\t\t<input name=\"problem7\" type=\"hidden\" value=\"No\">\r\n\t\t\t\t\t\t\t </li>\r\n\t\t\t\t\t\t\t<li class=\"checkbox\">\r\n\t\t\t\t\t\t\t\t<label for=\"problem8\"><input name=\"problem8\" id=\"problem8\" type=\"checkbox\" value=\"Yes\">Probl\u00e8me avec le Code d'acc\u00e8s personnel (CAP) ou avec le Code d'acc\u00e8s (CA) de l'assurance emploi</label>\r\n\t\t\t\t\t\t\t\t<input name=\"problem8\" type=\"hidden\" value=\"No\">\r\n\t\t\t\t\t\t\t </li>\t\r\n\t\t\t\t\t\t\t<li class=\"checkbox\">\r\n\t\t\t\t\t\t\t\t<label for=\"problem9\"><input name=\"problem9\" id=\"problem9\" type=\"checkbox\" value=\"Yes\">Probl\u00e8me li\u00e9 \u00e0 la validation du num\u00e9ro d'assurance sociale (NAS)</label>\r\n\t\t\t\t\t\t\t\t<input name=\"problem9\" type=\"hidden\" value=\"No\">\r\n\t\t\t\t\t\t\t </li>\t\t\t\t\t\t\t\t\r\n\t\t\t\t\t\t\t<li class=\"checkbox\">\r\n\t\t\t\t\t\t\t\t<label for=\"problem10\"><input name=\"problem10\" id=\"problem10\" type=\"checkbox\" value=\"Yes\">Autre erreur lors de l'ouverture de session qui ne figure pas sur cette liste</label>\r\n\t\t\t\t\t\t\t\t<input name=\"problem10\" type=\"hidden\" value=\"No\">\r\n\t\t\t\t\t\t\t </li>\t\t \r\n\t\t\t\t\t\t\t </ul>\r\n\t\t\t\t\t\t<div class=\"checkbox\">\r\n\t\t\t\t\t\t\t<label for=\"problem11\"><input name=\"problem11\" id=\"problem11\" type=\"checkbox\" value=\"Yes\">Je n'arrive pas \u00e0 trouver ce que je cherche</label>\r\n\t\t\t\t\t\t\t<input name=\"problem11\" type=\"hidden\" value=\"No\">\r\n\t\t\t\t\t\t</div>\r\n\t\t\t\t\t\t<div class=\"checkbox\">\r\n\t\t\t\t\t\t\t<label for=\"problem12\"><input name=\"problem12\" id=\"problem12\" type=\"checkbox\" value=\"Yes\">Autre probl\u00e8me qui ne figure pas sur cette liste</label>\r\n\t\t\t\t\t\t\t<input name=\"problem12\" type=\"hidden\" value=\"No\">\r\n\t\t\t\t\t\t</div>\t\t\t\t\t\t\t\t\t\t\t\t\t\t\t\t\t\t\t\r\n\t\t             </fieldset>\r\n\t\t\t\t\t <div>\r\n\t\t\t\t        <label for=\"aafc_ranstr\"><span id=\"fbch\">Veuillez inscrire les caract\u00e8res suivants  <strong class=\"required\">(obligatoire)</strong>\u00a0: </span><span id=\"ranstr\">XXX</span></label>\r\n\t\t\t            <input name=\"anti-spam-sequence\" id=\"aafc_ranstr\" size=\"4\" maxlength=\"3\" type=\"text\">\r\n\t\t\t\t\t </div>\r\n\t\t\t\t\t <input type=\"submit\" class=\"btn btn-primary\" value=\"Soumettre\">\r\n\t\t\t\t  </form>\r\n\t\t\t\t</div>\r\n\t\t\t  </div>\r\n\t\t\t</div>\r\n\t\t</details>\r\n\t    </div>\r\n\t  <div class=\"wb-share col-sm-4 col-md-3 col-sm-offset-2 col-md-offset-4 col-lg-offset-5\" data-wb-share='{\"lnkClass\": \"btn btn-default btn-block\"}'></div>\r\n\t  </div>\r\n\t  <dl id=\"wb-dtmd\">\r\n\t    <dt>Date de modification\u00a0: </dt>\r\n\t      <dd><time property=\"dateModified\">2020-08-05</time></dd>\r\n\t  </dl>\r\n\t</div>\r\n\t\r\n  "
    }
}