{
    "dcr_id": "1365097663644",
    "title": {
        "en": "AgriStability:  Resources",
        "fr": "Agri-stabilit\u00e9  :  Ressources"
    },
    "modified": "2020-12-21",
    "issued": "2020-07-13",
    "templatetype": "content page 1 column",
    "page_type": "1",
    "node_id": "1594037384895",
    "dc_date_created": "2020-07-13",
    "managing_branch": "PAB",
    "parent_node_id": "1594037318839",
    "label": {
        "en": "AgriStability: Resources",
        "fr": "Agri-stabilit\u00e9  :  Ressources"
    },
    "exturl": "",
    "teamsite_location": {
        "en": "/default/main/AAFC-AAC/Internet-Internet/Group-Ensemble/ProgServ-ProgServ/WORKAREA/ProgServ-ProgServ/templatedata/comm-comm/gene-gene/data/05/as_step6_resources_1365097663644_en",
        "fr": "/default/main/AAFC-AAC/Internet-Internet/Group-Ensemble/ProgServ-ProgServ/WORKAREA/ProgServ-ProgServ/templatedata/comm-comm/gene-gene/data/05/as_step6_resources_1365097663644_fr"
    },
    "type_name": "sitemapinit",
    "has_dcr_id": true,
    "breadcrumb": {
        "en": "AgriStability: Resources",
        "fr": "Agri-stabilit\u00e9  :  Ressources"
    },
    "layout_name": "content page 1 column",
    "lang": "en",
    "meta": {
        "issued": {
            "en": "2020-07-13",
            "fr": "2020-07-13"
        },
        "modified": {
            "en": "2021-02-12",
            "fr": "2021-02-12"
        },
        "format": {
            "en": "text/html",
            "fr": "text/html"
        },
        "title": {
            "en": "AgriStability:  Resources",
            "fr": "Agri-stabilit\u00e9  :  Ressources"
        },
        "subject": {
            "en": "meat;architectural heritage;architecture",
            "fr": "g\u00e9n\u00e9tique;environnement;changement climatique"
        },
        "description": {
            "en": "Applicant guide. Step 1.What this program offers. 12.8 Collection and use of Applicant's Business Information. 2.0 Are you eligible?Applicants must ensure that they meet all eligibility criteria before applying.Under DFIP Phase 2,eligible applicants.",
            "fr": "30 mars 2017. Table des Mati\u00e8res. Tableau 12 \u2013 Types de syst\u00e8mes avanc\u00e9s ou achev\u00e9s. Tableau 13 \u2013 Modifications au Protocole d'entente sur l'expertise technique d'Agriculture et Agroalimentaire Canada et de l'Agence canadienne d'inspection des aliments. Programme de reconnaissance de la salubrit\u00e9 des aliments."
        },
        "language": {
            "en": "eng",
            "fr": "fra"
        },
        "keywords": {
            "en": "disabilities.The;A.Funding",
            "fr": "handicap\u00e9s.Le;doutils.Le"
        },
        "audience": {
            "en": "gcaudience",
            "fr": "gcaudience"
        },
        "type": {
            "en": "fact sheet",
            "fr": "description du programme ou du service"
        },
        "creator": {
            "en": "Agriculture and Agri-Food Canada;Government of Canada",
            "fr": "Agriculture et Agroalimentaire Canada;Gouvernement du Canada"
        },
        "spatial": {
            "en": "gcregions",
            "fr": "gcregions"
        },
        "service": {
            "en": "AAFC-AAC",
            "fr": "AAFC-AAC"
        },
        "accessRights": {
            "en": "2",
            "fr": "2"
        },
        "legalName": {
            "en": "agriculture_and_agri_food_canada",
            "fr": "agriculture_et_agroalimentaire_canada"
        },
        "areaServed": {
            "en": "Canada",
            "fr": "Canada"
        }
    },
    "body": {
        "en": "tart --&gt;\r\n    <!-- D&eacute;but du contenu -->\r\n      <div class=\"mrgn-tp-md mrgn-bttm-lg brdr-bttm\">\n\n<div class=\"row\">\n<ul class=\"toc lst-spcd col-md-12 list-unstyled\">\n<li class=\"col-md-3 col-sm-6\"><span class=\"list-group-item\"><a href=\"?id=1291990433266\">Step 1. What this program offers</a></span></li>\n<li class=\"col-md-3 col-sm-6\"><span class=\"list-group-item\"><a href=\"?id=1292604126317\">Step 2. Who is eligible</a></span></li>\n<li class=\"col-md-3 col-sm-6\"><span class=\"list-group-item\"><a href=\"?id=1590782492871\">Step 3. How to apply</a></span></li>\n<li class=\"col-md-3 col-sm-6\"><span class=\"list-group-item\"><a href=\"?id=1590783300936\">Step 4. After you apply</a></span></li>\n<li class=\"col-md-3 col-sm-6 clr-lft-lg\"><span class=\"list-group-item\"><a href=\"?id=1590784259836\">Step 5. Managing your account</a></span></li>\n<li class=\"col-md-3 col-sm-6\"><span class=\"list-group-item active\">Resources</span></li>\n<li class=\"col-md-3 col-sm-6\"><span class=\"list-group-item\"><a href=\"?id=1374758661655\">Contact information</a></span></li>\n</ul>\n</div>\n</div>\n\n <section id=\"details-elements\">\n<h2 id=\"details\">Resources</h2>\n<div class=\"btn-group mrgn-bttm-lg\">\n <button type=\"button\" class=\"btn btn-default wb-toggle mrgn-rght-sm\" data-toggle='{\"selector\": \"details\", \"parent\": \"#details-elements\", \"print\": \"on\", \"type\": \"on\"}'>Display All</button>\n<button type=\"button\" class=\"btn btn-default wb-toggle\" data-toggle='{\"selector\": \"details\", \"parent\": \"#details-elements\", \"type\": \"off\"}'>Collapse All</button>\n</div>\n\n\n\t\t<details>\n<summary><h3 class=\"h4\" id=\"guides\">Guidelines and handbooks</h3></summary>\n\n<!-- 1365089821219 - Guidelines and handbooks -->\n <ul class=\"list-unstyled\">\n  <li>AgriStability Canadian Agricultural Partnership (2018-2022 program years)\n  <ul>\n <li><a href=\"?id=1538583591187\">Canadian Agricultural Partnership - AgriStability Program Consolidated Guidelines</a>\n<ul>\n<li><a href=\"?id=1524094438028\">Canadian Agricultural Partnership - AgriStability Program Guidelines</a></li>\n<li><a href=\"?id=1568044297244\">Canadian Agricultural Partnership - AgriStability Program Handbook</a></li>\n </ul>\n</li>\n</ul>\n</li>\n\n<li>AgriStability Growing Forward 2 (2013-2017 program years)\n  <ul>\n <li><a href=\"?id=1398198173518\">Growing Forward 2 \u2013 Consolidated Guidelines</a>\n<ul>\n<li><a href=\"?id=1366309611983\">Growing Forward 2 \u2013 Guidelines</a></li>\n<li><a href=\"?id=1362577209732\">Growing Forward 2 \u2013 Handbook</a></li>\n</ul>\n</li>\n</ul>\n</li>\n\n<li>AgriStability Growing Forward 1 (2008-2012 program years)\n<ul>\n<li><a href=\"?id=1360020227806\">Growing Forward 1 \u2013 Consolidated Guidelines</a>\n<ul>\n<li><a href=\"?id=1294425615711\">Growing Forward 1 \u2013 Guidelines</a></li>\n<li><a href=\"?id=1294427843421\">Growing Forward 1 \u2013 Handbook</a></li>\n</ul>\n</li>\n</ul>\n</li>\n</ul>\n\n</details>\n\n\t\t<details>\n<summary><h3 class=\"h4\" id=\"fctsht\">Fact sheets</h3></summary>\n\n<p>Fact sheets are companions to the Handbooks and provide detailed information.</p>\n\n<ul>\n<li class=\"mrgn-bttm-sm\"><a href=\"?id=1292436388653#a1\">What is cross compliance?</a></li>\n<li class=\"mrgn-bttm-sm\"><a href=\"?id=1292436388653#a11a\">Is your production eligible?</a></li>\n<li class=\"mrgn-bttm-sm\"><a href=\"?id=1292436388653#a2\">How is your fee calculated?</a></li>\n<li class=\"mrgn-bttm-sm\"><a href=\"?id=1292436388653#a3\">What is late participation?</a></li>\n<li class=\"mrgn-bttm-sm\"><a href=\"?id=1590782492871#a3\">What form do you need to complete?</a></li>\n<li class=\"mrgn-bttm-sm\"><a href=\"?id=1292436388653#a5\">How are production margins calculated?</a></li>\n<li class=\"mrgn-bttm-sm\"><a href=\"?id=1292436388653#a6\">How are reference margins calculated?</a></li>\n<li class=\"mrgn-bttm-sm\"><a href=\"?id=1292436388653#a7\">How is your payment calculated?</a></li>\n<li class=\"mrgn-bttm-sm\"><a href=\"?id=1292436388653#a8\">How are structural change adjustments calculated?</a></li>\n<li class=\"mrgn-bttm-sm\"><a href=\"?id=1292436388653#a9\">What is whole farm combining?</a></li>\n<li class=\"mrgn-bttm-sm\"><a href=\"?id=1292436388653#a10\">How are interim payments and targeted advance payments calculated?</a></li>\n<li class=\"mrgn-bttm-sm\"><a href=\"?id=1292436388653#a11\">How do you make an adjustment to your form?</a></li>\n<li class=\"mrgn-bttm-sm\"><a href=\"?id=1292436388653#a12\">How do you submit an appeal?</a></li>\n<li class=\"mrgn-bttm-sm\"><a href=\"?id=1292436388653#a13\">Can an estate participate in AgriStability?</a></li>\n        </ul>\n </details>\n\n\t\t<details>\n<summary><h3 class=\"h4\" id=\"pubs-forms\">Publications and forms</h3></summary>\n\n<details>\n<summary><h4 class=\"h5\" id=\"prog2021\"><span class=\"text-success\">2021 Program Year</span></h4></summary>\n\n <ul>\n<li><a href=\"?id=1590782492871\">AgriStability 2021 new and rejoining participant information</a>\n<ul>\n<li><a href=\"?id=1519685699261\">2021 AgriStability information guide for new and rejoining participants</a></li>\n<li><a href=\"?id=1519418550645\">2021 AgriStability new and rejoining participant information form</a></li>\n</ul>\n</li>\n\n<li><a href=\"?id=1604963401827\">AgriStability 2021  Interim Payment Application</a>\n<ul>\n<li><a href=\"?id=1604963697821\">AgriStability 2021  Interim Payment Application Guide</a></li>\n<li><a href=\"?id=1604963970299\">2021 AgriStability  Interim Payment Application Form</a></li>\n<li><a href=\"?id=1604964493511\">AgriStability 2021  Interim Payment Application \u2013 Schedule 1 Additional Information</a></li>\n<li><a href=\"?id=1604965037806\">2021 AgriStability  Interim Application Schedule 2 \u2013 Worksheet for 2020 Reference Margin</a></li>\n</ul>\n</li>\n\n<li><a href=\"?id=1611844611404\">2021 AgriStability Program \u2013 Corporation/Co-operative and Special Individual Harmonized Guide</a></li>\n<ul>\n  <li><a href=\"?id=1612052559436\">AgriStability: 2021 Statement A \u2013 Corporation/Co-operative and Special Individual</a></li>\n  <li><a href=\"?id=1612140442589\">AgriStability: 2021 Statement B \u2013 Corporation/Co-operative and Special Individual</a></li>\n  <li><a href=\"?id=1612197190988\">2021 AgriStability and AgriInvest Additional Information and Adjustment Request</a></li>\n</ul>\n\n</ul> \n\n \t\t</details>\n \n \t\t<details>\n<summary><h4 class=\"h5\" id=\"prog2020\"><span class=\"text-success\">2020 Program Year</span></h4></summary>\n\n <ul>\n <li><a href=\"?id=1601676891645\">AgriStability: Cash Reference Margin Pilot 2020 Program Year Consent Form</a></li> \n<li><a href=\"?id=1574359523000\">AgriStability 2020  Interim Payment Application</a>\n<ul>\n<li><a href=\"?id=1574362675895\">AgriStability 2020  Interim Payment Application Guide</a></li>\n<li><a href=\"?id=1574363161672\">2020 AgriStability  Interim Payment Application Form</a></li>\n<li><a href=\"?id=1574364748139\">AgriStability 2020  Interim Payment Application \u2013 Schedule 1 Additional Information</a></li>\n<li><a href=\"?id=1574364995297\">2020 AgriStability  Interim Application Schedule 2 \u2013 Worksheet for 2019 Reference Margin</a></li>\n</ul>\n</li>\n</ul>\n\n<ul class=\"list-unstyled\">  \n   <li><b>For individuals</b>\n     <ul>\n       <li><a href=\"https://www.canada.ca/en/revenue-agency/services/forms-publications/publications/rc4408.html\">2020 RC4408 AgriStability and AgriInvest Programs Harmonized Guide</a></li>\n         \n     <li><a href=\"https://www.canada.ca/en/revenue-agency/services/forms-publications/forms/t1273.html\">2020 T1273 Statement A - Harmonized  AgriStability and AgriInvest Program Information and Statement of Farming  activities for individuals</a></li>\n    <li><a href=\"https://www.canada.ca/en/revenue-agency/services/forms-publications/forms/t1274.html\">2020 T1274 Statement B - Harmonized  AgriStability and AgriInvest Program Information and Statement of Farming activities for individuals</a></li>\n     <li><a href=\"https://www.canada.ca/en/revenue-agency/services/forms-publications/forms/t1275.html\">2020 T1275 AgriStability and AgriInvest  Programs Additional Information and Adjustment Request</a></li>\n            </ul>\n  </li>\n</ul> \n <ul class=\"list-unstyled\">  \n   <li><b>For corporations, co-operatives and special individuals</b>\n <ul>\n<li><a href=\"?id=1579205053428\">2020  AgriStability Program \u2013 Corporation/Co-operative and Special Individual  Harmonized Guide</a>\n<ul>\n<li><a href=\"?id=1579809835725\">AgriStability: 2020  Statement A \u2013 Corporation/Co-operative and Special Individual</a></li>\n<li><a href=\"?id=1579810153105\">AgriStability: 2020  Statement B \u2013 Corporation/Co-operative and Special Individual</a></li>\n<li><a href=\"?id=1579810409615\">2020 AgriStability  and AgriInvest Additional Information and Adjustment Request</a></li>\n</ul>\n</li>\n</ul> \n   \n\t\t</li></ul></details>\n \n <details>\n<summary><h4 class=\"h5\" id=\"prog2019\"><span class=\"text-success\">2019 Program Year - Archived</span></h4></summary>\n\n <ul class=\"list-unstyled\">  \n   <li><b>For individuals</b>\n     <ul>\n       <li><a href=\"https://www.canada.ca/en/revenue-agency/services/forms-publications/previous-year-forms-publications/archived-rc4408.html\">2019 RC4408 AgriStability and AgriInvest Programs Harmonized Guide</a></li>\n         \n     <li><a href=\"https://www.canada.ca/en/revenue-agency/services/forms-publications/previous-year-forms-publications/archived-t1273.html\">2019 T1273 Statement A - Harmonized  AgriStability and AgriInvest Program Information and Statement of Farming  activities for individuals</a></li>\n    <li><a href=\"https://www.canada.ca/en/revenue-agency/services/forms-publications/previous-year-forms-publications/archived-t1274.html\">2019 T1274 Statement B - Harmonized  AgriStability and AgriInvest Program Information and Statement of Farming activities for individuals</a></li>\n     <li><a href=\"https://www.canada.ca/en/revenue-agency/services/forms-publications/previous-year-forms-publications/archived-t1275.html\">2019 T1275 AgriStability and AgriInvest  Programs Additional Information and Adjustment Request</a></li>\n            </ul>\n  </li>\n \n  \n   <li><b>For corporations, co-operatives and special individuals</b>\n   <ul>\n<li><a href=\"?id=1547079895152\">2019 AgriStability and AgriInvest Program Corporation/Co-operative and Special Individual Harmonized Form and Guide (AgriStability)</a></li>\n\n<li><a href=\"?id=1547500647396\">2019 AgriStability Program \u2013  Corporation/Co-operative and Special Individual Harmonized Guide</a>\n     <ul>\n<li><a href=\"?id=1547503875516\">2019 AgriStability Program \u2013  Corporation/Co-operative and Special Individual Harmonized Guide \u2013  Commodity List and Program Payment List</a></li>\n<li><a href=\"?id=1547506772475\">2019 AgriStability Program \u2013  Corporation/Co-operative and Special Individual Harmonized Guide \u2013  Inventory Code List</a></li>\n<li><a href=\"?id=1547507207390\">2019 AgriStability Program \u2013  Corporation/Co-operative and Special Individual Harmonized Guide \u2013  Regional Code List, Units of Measure and Expense Code Lists, Productive  Capacity List</a></li>\n       </ul>\n   </li>\n   \n   <li><a href=\"?id=1547492645759\">2019 Statement A \u2013 Corporation/Co-operative and  Special Individual</a></li>\n   <li><a href=\"?id=1547500364259\">2019 Statement B \u2013 Corporation/Co-operative and  Special Individual</a></li>\n   <li><a href=\"?id=1547579278152\">2019 AgriStability and AgriInvest Additional  Information and Adjustment Request</a></li>\n </ul>\n</li></ul>\n\n        </details>   \n\n \n<details>\n<summary><h4 class=\"h5\" id=\"formplu\">Other publications and forms</h4></summary> \n\n<ul class=\"list-unstyled\">\n<li class=\"mrgn-tp-md\"><a href=\"?id=1560863815179\">AgriStability and AgriInvest Address Change form</a></li>\n<li><a href=\"?id=1567715193737\">AgriStability and AgriInvest : Additional Contact Person Form</a></li>\n<li><a href=\"http://www.agr.gc.ca/fa-ad/nppform/excelD_en.php\">AgriStability and AgriInvest Forms in Excel</a></li>\n<li><a href=\"?id=1296666632793\">AgriStability Program Appeal Submission Form</a></li>\n<li><a href=\"?id=1408459736053\">AgriStability Direct Deposit Registration Form</a></li>\n<li><a href=\"?id=1532532321494\">AgriStability New Participant Identification Number Request Form</a></li>\n</ul>\n</details>\n</details>\n\n\t\t<details>\n<summary><h3 class=\"h4\" id=\"pricelist\">Price Lists</h3></summary>\n\n\n<p>The <a href=\"?id=1558469918856\">AgriStability Program Price Lists</a> will be used to value your crop and livestock inventory of commodities. </p>\n</details>\n\n\n\n<!--\n\t\t<details>\n\t\t\t<summary><h3 class=\"h4\" id=\"as_est\">AgriStability Estimator</h3></summary>\n <p>Use the <a href=\"/?id=10447\">AgriStability Benefit Estimator</a> to help you understand how the program works and  to calculate an estimated benefit. </p>\n <ul>\n<li><a href=\"?id=10447\">AgriStability Quick Estimator - Help Guide</a></li>\n<li><a href=\"?id=10447\">AgriStability Detailed Estimator - Help Guide</a></li>\n</ul>\n \n\n</details>\n\n-->\n\t\t<details>\n<summary><h3 class=\"h4\" id=\"indadv\">Industry advisories</h3></summary>\n \n\n<ul>\n<li><a href=\"?id=1590805482178\">2020 AgriStability enrolment deadline extended to July 3, 2020</a></li>\n<li><a href=\"?id=1586466427048\">Important changes to AgriStability for 2020</a></li>\n<li><a href=\"?id=1525436557780\">What's New for AgriStability and AgriInvest</a>  (2018)</li>\n<li><a href=\"?id=1525356462679\">My AAFC Account and AgriStability</a> (2018)</li>\n<li><a href=\"?id=1490818685320\">New for 2016: AgriStability and AgriInvest PIN Required to File Forms Electronically to CRA</a></li>\n</ul>\n </details>\n\n\n<!--\n\t\n\n\t\t<details>\n\t\t\t<summary><h3 class=\"h4\" id=\"appeal\">Appeal process</h3></summary>\n<ul>\n <li><a href=\"?id=1296666233764\">AgriStability Appeal Process</a></li>\n <li><a href=\"?id=1296666632793\">AgriStability: Appeal Submission Form</a></li>\n</ul>\n</details>\n\n\n-->\n\n\n<details>\n<summary><h3 class=\"h4\" id=\"serv-stats\">Service standard statistics</h3></summary>\n\n\n<ul class=\"list-unstyled\">\n<li><a href=\"?id=1292006524995#a1\">AgriStability Contact Centre statistics</a></li>\n<li><a href=\"?id=1292006524995#a2\">AgriStability processing statistics</a></li>\n</ul>\n\n\n <p class=\"mrgn-tp-md\">AAFC is committed to developing and delivering client-focused, results-based programs and services. Performance against service standards will be tracked and the results will be made available to clients on a <a href=\"?id=1481057048109#agristab\">quarterly basis</a>.</p>\n</details>\n\n<details>\n<summary><h3 class=\"h4\" id=\"sub-prognews\">Subscribe to Agri-info</h3></summary>\n<p>To receive the latest news about AgriStability and other federal-provincial-territorial financial programs, <a href=\"?id=1519913793675\">subscribe to Agri-info</a>. Agri-info is a free email service issued regularly to subscribers. You may unsubscribe at any time. Learn more about the <a href=\"?id=1419351635969\">Agri-info</a>.</p>\n</details>\n\n</section> \n\n\n\n <h2 class=\"wb-inv\">Previous-next document navigation - bottom</h2>\n\n<div class=\"row\">\n<div class=\"col-md-12 mrgn-lft-0 mrgn-rght-0\">\n<ul class=\"pager\">\n<li class=\"previous\"><a href=\"?id=1590784259836\" rel=\"prev\" title=\"Managing your account\">Previous</a></li>\n<li class=\"next\"><a href=\"?id=1374758661655\" rel=\"next\" title=\"Contact information\">Next</a></li>\n</ul>\n</div>\n</div>\n\r\n    <!-- Fin du contenu -->\r\n  \r\n  <div class=\"pagedetails\" id=\"pgft\">\r\n    <div class=\"row\">\r\n\t  <div class=\"col-sm-6 col-md-5 col-lg-4\">\r\n\t    <details class=\"brdr-0\">\r\n\t\t<summary class=\"btn btn-default text-center\" onclick=\"getAntiSpamSeq('/eng/mail-handler/?anti-spam-sequence=true')\">Report a problem on this page</summary>\r\n\t\t<div class=\"clearfix\"></div>\r\n\t\t<div class=\"well row\">\r\n\t\t<div>\r\n\t\t  <div class=\"gc-rprt-prblm\">\r\n\t\t    <div class=\"gc-rprt-prblm-frm gc-rprt-prblm-tggl\">\r\n\t\t\t  \r\n\t\t\t<form id=\"report_a_problem_form\" action=\"/eng/mail-handler/#report_a_problem_form\" method=\"post\">\t\t\t\t   \t\t\t\r\n\r\n\t            \t <input type=\"hidden\" name=\"lang\" value=\"eng\">\r\n\t            \t <input type=\"hidden\" name=\"pageId\" value=\"1365097663644\">\r\n\t            \t <input type=\"hidden\" name=\"pageUrl\" value=\"http://www.agr.gc.ca/eng/agricultural-programs-and-services/agristability/resources/?id=1365097663644\">\r\n\t\t\t\t\t <div id=\"report_a_problem_form_error\"></div>\r\n\t\t             <fieldset>\t\t\t\t\t    \r\n\t\t                <legend><span class=\"field-name\">Please select all that apply:</span></legend>\t\t                                 \r\n\t\t\t\t\t\t<div class=\"checkbox\">\r\n\t\t\t\t\t\t\t<label for=\"problem1\"><input name=\"problem1\" id=\"problem1\" type=\"checkbox\" value=\"Yes\">A link, button or video is not working</label>\r\n\t\t\t\t\t\t\t<input name=\"problem1\" type=\"hidden\" value=\"No\">\r\n\t\t\t\t\t\t</div>\r\n\t\t\t\t\t\t<div class=\"checkbox\">\r\n\t\t\t\t\t\t\t<label for=\"problem2\"><input name=\"problem2\" id=\"problem2\" type=\"checkbox\" value=\"Yes\">It has a spelling mistake</label>\r\n\t\t\t\t\t\t\t<input name=\"problem2\" type=\"hidden\" value=\"No\">\r\n\t\t\t\t\t\t</div>\r\n\t\t\t\t\t\t<div class=\"checkbox\">\r\n\t\t\t\t\t\t\t<label for=\"problem3\"><input name=\"problem3\" id=\"problem3\" type=\"checkbox\" value=\"Yes\">Information is missing</label>\r\n\t\t\t\t\t\t\t<input name=\"problem3\" type=\"hidden\" value=\"No\">\r\n\t\t\t\t\t   </div>\r\n\t\t\t\t\t\t<div class=\"checkbox\">\r\n\t\t\t\t\t\t\t<label for=\"problem4\"><input name=\"problem4\" id=\"problem4\" type=\"checkbox\" value=\"Yes\">Information is outdated or wrong</label>\r\n\t\t\t\t\t\t\t<input name=\"problem4\" type=\"hidden\" value=\"No\">\r\n\t\t\t\t\t\t</div>\r\n\t\t\t\t\t\t<div class=\"checkbox\">\r\n\t\t\t\t\t\t\t<label for=\"problem5\"><input name=\"problem5\" id=\"problem5\" type=\"checkbox\" value=\"Yes\">Login error when trying to access an account (e.g. My Service Canada Account)</label>\r\n\t\t\t\t\t\t\t<input name=\"problem5\" type=\"hidden\" value=\"No\">\r\n\t\t\t\t\t\t</div>\r\n\t\t\t\t\t\t\t<ul>\r\n\t\t\t\t\t\t\t<li class=\"checkbox\">\r\n\t\t\t\t\t\t\t\t<label for=\"problem6a\"><input name=\"problem6\" id=\"problem6a\" type=\"checkbox\" value=\"Yes\">GC Key access</label>\r\n\t\t\t\t\t\t\t\t<input name=\"problem6\" type=\"hidden\" value=\"No\">\r\n\t\t\t\t\t\t\t </li>\r\n\t\t\t\t\t\t\t<li class=\"checkbox\">\r\n\t\t\t\t\t\t\t\t<label for=\"problem7\"><input name=\"problem7\" id=\"problem7\" type=\"checkbox\" value=\"Yes\">SecureKey Concierge (Banking Credential) access </label>\r\n\t\t\t\t\t\t\t\t<input name=\"problem7\" type=\"hidden\" value=\"No\">\r\n\t\t\t\t\t\t\t </li>\r\n\t\t\t\t\t\t\t<li class=\"checkbox\">\r\n\t\t\t\t\t\t\t\t<label for=\"problem8\"><input name=\"problem8\" id=\"problem8\" type=\"checkbox\" value=\"Yes\">Personal Access Code (PAC) problems or EI Access Code (AC) problems</label>\r\n\t\t\t\t\t\t\t\t<input name=\"problem8\" type=\"hidden\" value=\"No\">\r\n\t\t\t\t\t\t\t </li>\t\r\n\t\t\t\t\t\t\t<li class=\"checkbox\">\r\n\t\t\t\t\t\t\t\t<label for=\"problem9\"><input name=\"problem9\" id=\"problem9\" type=\"checkbox\" value=\"Yes\">Social Insurance Number (SIN) validation problems</label>\r\n\t\t\t\t\t\t\t\t<input name=\"problem9\" type=\"hidden\" value=\"No\">\r\n\t\t\t\t\t\t\t </li>\t\t\t\t\t\t\t\t\r\n\t\t\t\t\t\t\t<li class=\"checkbox\">\r\n\t\t\t\t\t\t\t\t<label for=\"problem10\"><input name=\"problem10\" id=\"problem10\" type=\"checkbox\" value=\"Yes\">Other login error not in this list</label>\r\n\t\t\t\t\t\t\t\t<input name=\"problem10\" type=\"hidden\" value=\"No\">\r\n\t\t\t\t\t\t\t </li>\t\t \r\n\t\t\t\t\t\t\t </ul>\r\n\t\t\t\t\t\t<div class=\"checkbox\">\r\n\t\t\t\t\t\t\t<label for=\"problem11\"><input name=\"problem11\" id=\"problem11\" type=\"checkbox\" value=\"Yes\">I can't find what I'm looking for</label>\r\n\t\t\t\t\t\t\t<input name=\"problem11\" type=\"hidden\" value=\"No\">\r\n\t\t\t\t\t\t</div>\r\n\t\t\t\t\t\t<div class=\"checkbox\">\r\n\t\t\t\t\t\t\t<label for=\"problem12\"><input name=\"problem12\" id=\"problem12\" type=\"checkbox\" value=\"Yes\">Other issue not in this list</label>\r\n\t\t\t\t\t\t\t<input name=\"problem12\" type=\"hidden\" value=\"No\">\r\n\t\t\t\t\t\t</div>\t\t\t\t\t\t \t\t\t\t\t\t\t\t\t\t\t\t \r\n\t\t             </fieldset>\r\n\t\t\t\t\t <div>\r\n\t\t\t\t\t   <label for=\"aafc_ranstr\"><span id=\"fbch\"><br>Enter these characters <strong class=\"required\">(required)</strong>: </span><span id=\"ranstr\">U5S</span></label>\r\n\t\t\t           <input name=\"anti-spam-sequence\" id=\"aafc_ranstr\" size=\"4\" maxlength=\"3\" type=\"text\">\r\n\t\t\t\t\t </div>\t\r\n\r\n\t\t\t\t\t <br><input type=\"submit\" class=\"btn btn-primary\" value=\"Submit\">\r\n\t\t\t\t  </form>\r\n\t\t\t\t</div>\r\n\t\t\t</div>\t\t\t\r\n\t\t  </div>\r\n\t\t</div>\r\n\t\t</details>\r\n\t  </div>\r\n\t  <div class=\"wb-share col-sm-4 col-md-3 col-sm-offset-2 col-md-offset-4 col-lg-offset-5\" data-wb-share='{\"lnkClass\": \"btn btn-default btn-block\"}'></div>\r\n\t</div>\r\n\t<dl id=\"wb-dtmd\">\r\n\t  <dt>Date modified: </dt>\r\n\t  <dd><time property=\"dateModified\">2021-02-12</time></dd></dl></div>",
        "fr": "\r\n    \r\n    <!-- MainContentStart -->\r\n    <!-- D&eacute;but du contenu -->\r\n    \n<div class=\"mrgn-tp-md mrgn-bttm-lg brdr-bttm\">\n\n<div class=\"row\">\n<ul class=\"toc lst-spcd col-md-12 list-unstyled\">\n<li class=\"col-md-3 col-sm-6\"><span class=\"list-group-item\"><a href=\"?id=1291990433266\">\u00c9tape 1. Ce qu'offre ce programme</a></span></li>\n<li class=\"col-md-3 col-sm-6\"><span class=\"list-group-item\"><a href=\"?id=1292604126317\">\u00c9tape 2. Qui est admissible</a></span></li>\n<li class=\"col-md-3 col-sm-6\"><span class=\"list-group-item\"><a href=\"?id=1590782492871\">\u00c9tape 3. Comment pr\u00e9senter une demande</a></span></li>\n<li class=\"col-md-3 col-sm-6 clr-lft-sm\"><span class=\"list-group-item\"><a href=\"?id=1590783300936\">\u00c9tape 4. Apr\u00e8s avoir pr\u00e9sent\u00e9 votre demande</a></span></li>\n<li class=\"col-md-3 col-sm-6\"><span class=\"list-group-item\"><a href=\"?id=1590784259836\">\u00c9tape 5. G\u00e9rer votre compte</a></span></li>\n<li class=\"col-md-3 col-sm-6\"><span class=\"list-group-item active\">Ressources</span></li>\n<li class=\"col-md-3 col-sm-6\"><span class=\"list-group-item\"><a href=\"?id=1374758661655\">Pour nous joindre</a></span></li>\n</ul>\n</div>\n</div>\n\n\n<section id=\"details-elements\">\n<h2 id=\"details\">Ressources</h2>\n<div class=\"btn-group mrgn-bttm-lg\">\n <button type=\"button\" class=\"btn btn-default wb-toggle mrgn-rght-sm\" data-toggle='{\"selector\": \"details\", \"parent\": \"#details-elements\", \"print\": \"on\", \"type\": \"on\"}'>Agrandir tout</button>\n<button type=\"button\" class=\"btn btn-default wb-toggle\" data-toggle='{\"selector\": \"details\", \"parent\": \"#details-elements\", \"type\": \"off\"}'>R\u00e9duire tout </button>\n</div>\n\n\n\t\t<details>\n<summary><h3 class=\"h4\" id=\"guides\">Lignes directrices et manuel</h3></summary>\n\n<!-- 1365089821219 - Guidelines and handbooks -->\n\n <ul class=\"list-unstyled\">\n  <li>Agri-stabilit\u00e9 Partenariat canadien pour l\u2019agriculture (2018-2022 ann\u00e9es de programme)\n  <ul>\n <li><a href=\"?id=1538583591187\">Partenariat canadien pour l\u2019agriculture - Agri-stabilit\u00e9 - lignes directrices du programme - version consolid\u00e9e</a>\n <ul>\n <li><a href=\"?id=1524094438028\">Partenariat canadien pour l\u2019agriculture - Agri-stabilit\u00e9 - lignes directrices du programme</a></li>\n <li><a href=\"?id=1568044297244\">Partenariat canadien pour l\u2019agriculture - Agri-stabilit\u00e9 - Manuel du programme</a></li>\n  </ul>\n  </li>\n  </ul>\n  </li>\n \n  <li>Agri-stabilit\u00e9 Cultivons l\u2019avenir 2 (2013-2017  ann\u00e9es de programme)\n    <ul>\n      <li><a href=\"/?id=1398198173518\">Cultivons l\u2019avenir\u00a02 - Refonte des lignes directrices</a>\n      <ul>\n      <li><a href=\"/?id=1366309611983\">Cultivons l\u2019avenir 2 - Lignes directrices du programme</a></li>\n      <li><a href=\"/?id=1362577209732\">Cultivons l\u2019avenir 2 - Manuel du programme</a></li>\n    </ul>\n</li>\n</ul>\n</li>\n\n  <li>Agri-stabilit\u00e9 Cultivons l\u2019avenir 1 (2008-2012  ann\u00e9es de programme)\n <ul>\n   <li><a href=\"/?id=1360020227806\">Cultivons l\u2019avenir 1 - Refonte des lignes directrices</a>\n   <ul>\n   <li><a href=\"/?id=1294425615711\">Cultivons l\u2019avenir 1 - Lignes directrices du programme</a></li>\n   <li><a href=\"/?id=1294427843421\">Cultivons l\u2019avenir 1 - Manuel du programme</a></li>\n </ul>\n </li>\n </ul>\n </li>\n </ul>\n  </details>\n\n\t\t<details>\n<summary><h3 class=\"h4\" id=\"fctsht\">Fiches de renseignements</h3></summary>\n\n<p>Les feuillets de renseignements accompagnent les guides et fournissent des informations d\u00e9taill\u00e9es.</p>\n\n<ul>\n <li class=\"mrgn-bttm-sm\"><a href=\"?id=1292436388653#a1\">Qu\u2019est-ce que la conditionnalit\u00e9?</a></li>\n <li class=\"mrgn-bttm-sm\"><a href=\"?id=1292436388653#a11a\">Votre production est-elle admissible?</a></li>\n <li class=\"mrgn-bttm-sm\"><a href=\"?id=1292436388653#a2\">Comment vos droits sont-ils calcul\u00e9s?</a></li>\n <li class=\"mrgn-bttm-sm\"><a href=\"?id=1292436388653#a3\">Qu\u2019est-ce que la participation tardive?</a></li>\n <li class=\"mrgn-bttm-sm\"><a href=\"?id=1590782492871#a3\">Quel formulaire devez-vous remplir?</a></li>\n <li class=\"mrgn-bttm-sm\"><a href=\"?id=1292436388653#a5\">Comment les marges de production sont-elles calcul\u00e9es?</a></li>\n<li class=\"mrgn-bttm-sm\"><a href=\"?id=1292436388653#a6\">Comment les marges de r\u00e9f\u00e9rence sont-elles calcul\u00e9es?</a></li>\n<li class=\"mrgn-bttm-sm\"><a href=\"?id=1292436388653#a7\">Comment votre paiement est-il calcul\u00e9?</a></li>\n<li class=\"mrgn-bttm-sm\"><a href=\"?id=1292436388653#a8\">Comment les rajustements suivant un changement structurel sont-ils calcul\u00e9s?</a></li>\n<li class=\"mrgn-bttm-sm\"><a href=\"?id=1292436388653#a9\">Qu\u2019est-ce que le regroupement d\u2019exploitations?</a></li>\n<li class=\"mrgn-bttm-sm\"><a href=\"?id=1292436388653#a10\">Comment les paiements provisoires et les avances cibl\u00e9es sont-ils calcul\u00e9s?</a></li>\n<li class=\"mrgn-bttm-sm\"><a href=\"?id=1292436388653#a11\">Comment pouvez-vous apporter une modification \u00e0 votre demande?</a></li>\n<li class=\"mrgn-bttm-sm\"><a href=\"?id=1292436388653#a12\">Comment devez-vous vous y prendre pour pr\u00e9senter un appel?</a></li>\n<li class=\"mrgn-bttm-sm\"><a href=\"?id=1292436388653#a13\">Une succession peut-elle participer au programme Agri-stabilit\u00e9?</a></li>\n        </ul>\n </details>\n\n \n <details>\n<summary><h3 class=\"h4\" id=\"pubs-forms\">Publications et formulaires</h3></summary>\n\n <details>\n<summary><h4 class=\"h5\" id=\"prog2021\"><span class=\"text-success\">Ann\u00e9e de programme 2021</span></h4></summary>\n\n <ul>\n<li><a href=\"?id=1590782492871\">Renseignements du nouveau participant et du participant r\u00e9inscrit de 2021</a>\n<ul>\n<li><a href=\"?id=1519685699261\">Programme Agri-stabilit\u00e9 2021 - Guide d\u2019information des nouveaux participants et des participants r\u00e9inscrits</a></li>\n<li><a href=\"?id=1519418550645\">Formulaire de renseignements du nouveau participant et du participant r\u00e9inscrit de 2021</a></li>\n</ul>\n</li>\n\n <li><a href=\"?id=1604963401827\">Agri-stabilit\u00e9 :  2021 Demande de paiement  provisoire</a>\n<ul>\n<li><a href=\"?id=1604963697821\">Guide pour remplir  la demande de paiement provisoire du programme Agri-stabilit\u00e9 pour 2021</a></li>\n<li><a href=\"?id=1604963970299\">Formulaire de  demande de paiement provisoire au titre d'Agri-stabilit\u00e9 2021</a></li>\n<li><a href=\"?id=1604964493511\">Demande de paiement  provisoire au titre d'Agri-stabilit\u00e9 2021 Annexe 1 \u2013 Renseignements  suppl\u00e9mentaires</a></li>\n<li><a href=\"?id=1604965037806\">Demande de paiement  provisoire au titre d'Agri-stabilit\u00e9 2021 Annexe 2 \u2013 Fiche de renseignements  sur la marge de r\u00e9f\u00e9rence de 2020</a></li>\n</ul>\n</li>\n\n<li><a href=\"?id=1611844611404\">Programmes d'Agri-stabilit\u00e9 et d'Agri-investissement en 2021 \u2013 Guide harmonis\u00e9 pour les soci\u00e9t\u00e9, le coop\u00e9rative et le particulier de cat\u00e9gorie sp\u00e9ciale</a>\n<ul>\n  <li><a href=\"?id=1612052559436\">Agri-stabilit\u00e9 : \u00c9tat A 2021 \u2013 Soci\u00e9t\u00e9, coop\u00e9rative et particulier de cat\u00e9gorie sp\u00e9ciale</a></li>\n  <li><a href=\"?id=1612140442589\">Agri-stabilit\u00e9 : \u00c9tat B 2021 \u2013 Soci\u00e9t\u00e9, coop\u00e9rative et particulier de cat\u00e9gorie sp\u00e9ciale</a></li>\n  <li><a href=\"?id=1612197190988\">2021 Renseignements suppl\u00e9mentaires et de demande de redressement d'Agri-stabilit\u00e9 et d'Agri-investissement</a></li>\n</ul>\n</li>\n</ul>\n               </details>\n\n\n \n<details>\n<summary><h4 class=\"h5\" id=\"prog2020\"><span class=\"text-success\">Ann\u00e9e de programme 2020</span></h4></summary>\n\n <ul>\n <li><a href=\"?id=1601676891645\">Agri-stabilit\u00e9 : Projet pilote de marge de r\u00e9f\u00e9rence bas\u00e9e sur la comptabilit\u00e9 de caisse - Formulaire de consentement pour l\u2019ann\u00e9e de programme 2020</a></li> \n<li><a href=\"?id=1574359523000\">Agri-stabilit\u00e9 :  2020 Demande de paiement  provisoire</a>\n<ul>\n<li><a href=\"?id=1574362675895\">Guide pour remplir  la demande de paiement provisoire du programme Agri-stabilit\u00e9 pour 2020</a></li>\n<li><a href=\"?id=1574363161672\">Formulaire de  demande de paiement provisoire au titre d'Agri-stabilit\u00e9 2020</a></li>\n<li><a href=\"?id=1574364748139\">Demande de paiement  provisoire au titre d'Agri-stabilit\u00e9 2020 Annexe 1 \u2013 Renseignements  suppl\u00e9mentaires</a></li>\n<li><a href=\"?id=1574364995297\">Demande de paiement  provisoire au titre d'Agri-stabilit\u00e9 2020 Annexe 2 \u2013 Fiche de renseignements  sur la marge de r\u00e9f\u00e9rence de 2019</a></li>\n</ul>\n</li>\n</ul>\n\n<ul class=\"list-unstyled\">  \n   <li><b>Pour particuliers</b>\n     <ul>\n       <li><a href=\"https://www.canada.ca/fr/agence-revenu/services/formulaires-publications/publications/rc4408.html\">2020 RC4408 Guide harmonis\u00e9 des revenus d'agriculture et des programmes Agri-stabilit\u00e9 et Agri-investissement</a></li>\n         \n     <li><a href=\"https://www.canada.ca/fr/agence-revenu/services/formulaires-publications/formulaires/t1273.html\">2020 T1273 \u00c9tat A - Renseignements harmonis\u00e9s pour les programmes Agri-stabilit\u00e9 et Agri-investissement et \u00e9tat des r\u00e9sultats des activit\u00e9s d'une entreprise agricole pour particuliers</a></li>\n    <li><a href=\"https://www.canada.ca/fr/agence-revenu/services/formulaires-publications/formulaires/t1274.html\">2020 T1274 \u00c9tat B - Renseignements harmonis\u00e9s pour les programmes Agri-stabilit\u00e9 et Agri-investissement et \u00e9tat des r\u00e9sultats des activit\u00e9s d'une entreprise agricole suppl\u00e9mentaire</a></li>\n     <li><a href=\"https://www.canada.ca/fr/agence-revenu/services/formulaires-publications/formulaires/t1275.html\">2020 T1275 Renseignements suppl\u00e9mentaires sur les programmes Agri-stabilit\u00e9 et Agri-investissement et demande de redressement</a></li>\n            </ul>\n  </li>\n</ul> \n\n <ul class=\"list-unstyled\">  \n   <li><b>Pour les soci\u00e9t\u00e9s, les coop\u00e9ratives et les particuliers de cat\u00e9gorie sp\u00e9ciale</b>\n <ul>\n<li><a href=\"?id=1579205053428\">Programmes  d'Agri-stabilit\u00e9 et d'Agri-investissement en 2020 \u2013 Guide harmonis\u00e9 pour les  soci\u00e9t\u00e9, le coop\u00e9rative et le particulier de cat\u00e9gorie sp\u00e9ciale</a>\n<ul>\n<li><a href=\"?id=1579809835725\">Agri-stabilit\u00e9 :  \u00c9tat A 2020 \u2013 Soci\u00e9t\u00e9, coop\u00e9rative et particulier de cat\u00e9gorie sp\u00e9ciale</a></li>\n<li><a href=\"?id=1579810153105\">Agri-stabilit\u00e9 :  \u00c9tat B 2020 \u2013 Soci\u00e9t\u00e9, coop\u00e9rative et particulier de cat\u00e9gorie sp\u00e9ciale</a></li>\n<li><a href=\"?id=1579810409615\">2020 Renseignements  suppl\u00e9mentaires et de demande de redressement d'Agri-stabilit\u00e9 et  d'Agri-investissement</a></li>\n</ul>\n</li>\n</ul> \n\n               </li></ul></details>\n \n<details>\n<summary><h4 class=\"h5\" id=\"prog2019\"><span class=\"text-success\">Ann\u00e9e de programme 2019 \u2013 Archiv\u00e9e</span></h4></summary>\n\n\n <ul class=\"list-unstyled\">\n <li><b>Pour particuliers </b>\n     <ul>\n <li><a href=\"https://www.canada.ca/fr/agence-revenu/services/formulaires-publications/formulaires-publications-annees-passees/archivee-rc4408.html\">2019 RC4408 Guide harmonis\u00e9 des revenus d'agriculture et des programmes Agri-stabilit\u00e9 et Agri-investissement</a></li>\n<li><a href=\"https://www.canada.ca/fr/agence-revenu/services/formulaires-publications/formulaires-publications-annees-passees/archivee-t1273.html\">2019 T1273 \u00c9tat A - Renseignements harmonis\u00e9s pour les programmes Agri-stabilit\u00e9 et Agri-investissement et \u00e9tat des r\u00e9sultats des activit\u00e9s d'une entreprise agricole pour particuliers</a></li>\n<li><a href=\"https://www.canada.ca/fr/agence-revenu/services/formulaires-publications/formulaires-publications-annees-passees/archivee-t1274.html\">2019 T1274 \u00c9tat B - Renseignements harmonis\u00e9s pour les programmes Agri-stabilit\u00e9 et Agri-investissement et \u00e9tat des r\u00e9sultats des activit\u00e9s d'une entreprise agricole suppl\u00e9mentaire</a></li>\n<li><a href=\"https://www.canada.ca/fr/agence-revenu/services/formulaires-publications/formulaires-publications-annees-passees/archivee-t1275.html\">2019 T1275 Renseignements suppl\u00e9mentaires sur les programmes Agri-stabilit\u00e9 et Agri-investissement et demande de redressement</a></li>\n       </ul>\n </li> \n   \n   \n <li><b>Pour les soci\u00e9t\u00e9s, les coop\u00e9ratives et les particuliers de cat\u00e9gorie sp\u00e9ciale </b>\n     <ul>\n\n<li><a href=\"?id=1547079895152\">Programmes d'Agri-stabilit\u00e9 et d'Agri-investissement en 2019 : Guide et formulaire harmonis\u00e9s pour les soci\u00e9t\u00e9s, les coop\u00e9ratives et les particuliers de cat\u00e9gorie sp\u00e9ciale</a></li>\n\n<li><a href=\"?id=1547500647396\">Programmes Agri-stabilit\u00e9 et Agri-investissement 2019 \u2013 Guide harmonis\u00e9 pour les soci\u00e9t\u00e9, les coop\u00e9rative et les particulier de cat\u00e9gorie sp\u00e9ciale</a>\n\n\n         <ul>\n<li><a href=\"?id=1548433832383\">Programmes d'Agri-investissement en 2019 \u2013 Guide et formulaire harmonis\u00e9s pour les soci\u00e9t\u00e9s, les coop\u00e9ratives et les particuliers de cat\u00e9gorie sp\u00e9ciale \u2013 Liste de produits</a></li>\n\n<li><a href=\"?id=1547506772475\">Programmes d'Agri-stabilit\u00e9 en 2019 \u2013 Guide et formulaire harmonis\u00e9s pour les soci\u00e9t\u00e9s, les coop\u00e9ratives et les particuliers de cat\u00e9gorie sp\u00e9ciale \u2013 Liste des codes de stocks</a></li>\n<li><a href=\"?id=1547507207390\">Programmes d'Agri-stabilit\u00e9 en 2019 \u2013 Guide et formulaire harmonis\u00e9s pour les soci\u00e9t\u00e9s, les coop\u00e9ratives et les particuliers de cat\u00e9gorie sp\u00e9ciale \u2013 Liste des codes de r\u00e9gion, liste de codes des unit\u00e9s de mesure, liste des codes de d\u00e9penses, liste concernant la capacit\u00e9</a></li>\n          </ul>\n        </li>\n<li><a href=\"?id=1547492645759\">\u00c9tat A 2019 \u2013 Soci\u00e9t\u00e9, coop\u00e9rative et particulier de cat\u00e9gorie sp\u00e9ciale</a></li>\n<li><a href=\"?id=1547500364259\">\u00c9tat B 2019 \u2013 Soci\u00e9t\u00e9, coop\u00e9rative et particulier de cat\u00e9gorie sp\u00e9ciale</a></li>\n<li><a href=\"?id=1547579278152\">2019 Renseignements suppl\u00e9mentaires et de demande de redressement d'Agri-stabilit\u00e9 et d'Agri-investissement</a></li>\n      </ul>\n   </li>   \n   \n </ul> \n        </details>   \n\n\t\t\n \n<details>\n<summary><h4 class=\"h5\" id=\"autre\">Autres publications et formulaires</h4></summary>\n \n \n  <ul>   \n<li id=\"formplus\" class=\"mrgn-tp-md\"><a href=\"?id=1560863815179\">Formulaire de changement d\u2019adresse pour Agri-stabilit\u00e9 et Agri-investissement</a></li>\n<li><a href=\"?id=1567715193737\">Agri-stabilit\u00e9 et Agri-investissement : Formulaire pour personne-ressource suppl\u00e9mentaire</a></li>\n<li><a href=\"http://www.agr.gc.ca/fa-ad/nppform/excelD_fr.php\">Formulaires d'Agri-stabilit\u00e9 et d'Agri-investissement en Excel</a></li>\n<li><a href=\"?id=1296666632793\">Agri-stabilit\u00e9\u00a0: Formulaire de pr\u00e9sentation d'un appel</a></li>\n<li><a href=\"?id=1408459736053\">Formulaire d'inscription au d\u00e9p\u00f4t direct des paiements d'Agri-stabilit\u00e9</a></li>\n<li><a href=\"?id=1532532321494\">Formulaire de demande de num\u00e9ro d'identification du participant</a></li>\n</ul>\n</details>\n</details>\n\n\n\t\t<details>\n<summary><h3 class=\"h4\" id=\"pricelist\">Listes de prix</h3></summary>\n\n\n<p>Les <a href=\"?id=1558469918856\">listes de prix du programme Agri-stabilit\u00e9</a> serviront \u00e0  \u00e9valuer vos stocks de cultures et d\u2019animaux d\u2019\u00e9levage.</p>\n</details>\n\n\n<!--\n\t\t<details>\n\t\t\t<summary><h3 class=\"h4\" id=\"agbest\">AgriStability Benefit Estimator</h3></summary>\n\n<ul class=\"list-unstyled\">\n<li><a href=\"?id=\">The AgriStability Benefit Estimator</a>\n<ul>\n<li><a href=\"?id=\">AgriStability Quick Estimator - Help Guide</a></li>\n<li><a href=\"?id=\">AgriStability Detailed Estimator - Help Guide</a></li>\n</ul>\n</li>\n</ul>\n\n</details>\n\n\t\t<details>\n\t\t\t<summary><h3 class=\"h4\" id=\"as_est\">Estimateur de paiements d&rsquo;Agri-stabilit&eacute;</h3></summary>\n <p>Utilisez l&rsquo;<a href=\"?id=\">estimateur de paiements d&rsquo;Agri-stabilit&eacute;</a> pour comprendre comment le programme fonctionne  et calculer un paiement estimatif.<strong> </strong></p>\n</details>\n\n-->\n\n\n\n\n\n\t\t<details>\n\t\t  <summary><h3 class=\"h4\" id=\"indadv\">Avis \u00e0 l\u2019industrie</h3></summary>\n  \n\n\n<ul>\n<li><a href=\"?id=1590805482178\">Inscription au programme Agri-stabilit\u00e9 2020 d\u00e9lai report\u00e9 au 3 juillet 2020</a></li>\n<li><a href=\"?id=1586466427048\">Modifications importantes apport\u00e9es \u00e0 Agri-stabilit\u00e9 pour l'ann\u00e9e 2020</a></li>\n   <li><a href=\"?id=1525436557780\">Nouveaut\u00e9s concernant Agri-stabilit\u00e9 et Agri-investissement</a>  (2018)</li>\n   <li><a href=\"?id=1525356462679\">Agri-stabilit\u00e9 est maintenant offert sur Mon dossier AAC</a> (2018)</li>\n   <li><a href=\"?id=1490818685320\">Nouveaut\u00e9 pour Agri-stabilit\u00e9 et Agri-investissement 2016 : NIP       requis pour produire des formulaires \u00e0 l\u2019ARC par voie \u00e9lectronique</a></li>\n</ul>\n \n</details>\n\n\n\n\n<!--\n\t\n\n\t\t<details>\n\t\t\t<summary><h3 class=\"h4\" id=\"appeal\">Appeal process</h3></summary>\n<ul>\n <li><a href=\"?id=1296666233764\">AgriStability Appeal Process</a></li>\n <li><a href=\"?id=1296666632793\">AgriStability: Appeal Submission Form</a></li>\n</ul>\n</details>\n\n\n-->\n\n\n\t\t<details>\n<summary><h3 class=\"h4\" id=\"serv-stats\">Statistiques sur les normes de service</h3></summary>\n\n<ul class=\"list-unstyled\">\n<li><a href=\"?id=1292006524995#a1\">Statistiques du centre d'appels pour le programme Agri-stabilit\u00e9</a></li>\n<li><a href=\"?id=1292006524995#a2\">Statistiques relatives au traitement du programme Agri-stabilit\u00e9</a></li>\n   </ul>\n  \n <p>AAC est d\u00e9termin\u00e9 \u00e0  \u00e9laborer et \u00e0 offrir des programmes et des services ax\u00e9s sur la client\u00e8le et  fond\u00e9s sur les r\u00e9sultats. Le rendement par rapport aux normes de service fera  l\u2019objet d\u2019un suivi et les r\u00e9sultats seront mis \u00e0 la disposition des clients sur  une <a href=\"http://www.agr.gc.ca/fra/programmes-et-services-agricoles/agri-investissement/ressources/?id=1481057048109#agriinv\">base trimestrielle</a>.</p>\n</details>\n\n\n\n\n\n\t\t<details>\n\t\t  <summary><h3 class=\"h4\" id=\"sub-prognews\">Abonnement au Agri-info</h3></summary>\n<p>Pour recevoir les  derni\u00e8res nouvelles au sujet d\u2019Agri-stabilit\u00e9 et d\u2019autres programmes de soutien  f\u00e9d\u00e9raux, provinciaux et territoriaux, <a href=\"http://www.agr.gc.ca/fra/programmes-et-services-agricoles/agri-investissement/ressources/?id=1519913793675\">abonnez-vous au Agri-info</a>. Agri-info est un  service de courriel offert gratuitement aux abonn\u00e9s. Vous pouvez vous  d\u00e9sabonner \u00e0 tout moment. Apprenez-en davantage sur le <a href=\"http://www.agr.gc.ca/fra/programmes-et-services-agricoles/agri-investissement/ressources/?id=1419351635969\">Agri-info</a>.</p>\n</details>\n\n</section>\n\n\n\n<h2 class=\"wb-inv\">Navigation du document - pr\u00e9c\u00e9dente-suivante - bas</h2>\n\n<div class=\"row\">\n<div class=\"col-md-12 mrgn-lft-0 mrgn-rght-0\">\n<ul class=\"pager\">\n<li class=\"previous\"><a href=\"?id=1590784259836\" rel=\"prev\" title=\"G\u00e9rer votre compte\">Pr\u00e9c\u00e9dente</a></li>\n<li class=\"next\"><a href=\"?id=1374758661655\" rel=\"next\" title=\"Pour nous joindre\">Suivante</a></li>\n</ul>\n</div>\n</div>\n\n\n\n\r\n    <!-- Fin du contenu -->\r\n\t\r\n\t<div class=\"pagedetails\" id=\"pgft\">\r\n\t\t<div class=\"row\">\r\n\t\t  <div class=\"col-sm-6 col-md-5 col-lg-4\">\r\n\t\t    <details class=\"brdr-0\">\r\n\t\t\t<summary class=\"btn btn-default text-center\" onclick=\"getAntiSpamSeq('/fra/mail-handler/?anti-spam-sequence=true')\">Signaler un probl\u00e8me sur cette page</summary>\r\n\t\t\t<div class=\"well row\">\r\n\t\t\t  <div class=\"gc-rprt-prblm\">\r\n\t\t\t    <div class=\"gc-rprt-prblm-frm gc-rprt-prblm-tggl\">\r\n\t\t\t\t   <form id=\"report_a_problem_form\" action=\"/fra/mail-handler/\" method=\"post\">\r\n\t            \t <input type=\"hidden\" name=\"lang\" value=\"fra\">\r\n\t            \t <input type=\"hidden\" name=\"pageId\" value=\"1365097663644\">\r\n\t            \t <input type=\"hidden\" name=\"pageUrl\" value=\"http://www5.agr.gc.ca/fra/programmes-et-services-agricoles/agri-stabilite/ressources/?id=1365097663644\">\r\n\t\t\t\t\t <div id=\"report_a_problem_form_error\"></div>\r\n\t\t             <fieldset>\t\t\t\t\t    \r\n\t\t                <legend><span class=\"field-name\">Veuillez cocher toutes les r\u00e9ponses pertinentes\u00a0:</span></legend>\r\n\t\t                 <div class=\"checkbox\">\r\n\t\t                    <label for=\"problem1\"><input name=\"problem1\" id=\"problem1\" type=\"checkbox\" value=\"Yes\">Un lien, un bouton ou une vid\u00e9o ne fonctionne pas</label>\r\n\t\t                    <input name=\"problem1\" type=\"hidden\" value=\"No\">\r\n\t\t                </div>\r\n\t\t                <div class=\"checkbox\">\r\n\t\t                    <label for=\"problem2\"><input name=\"problem2\" id=\"problem2\" type=\"checkbox\" value=\"Yes\">Il y a une erreur d'orthographe ou de grammaire</label>\r\n\t\t                    <input name=\"problem2\" type=\"hidden\" value=\"No\">\r\n\t\t                </div>\r\n\t\t   \t\t\t\t <div class=\"checkbox\">\r\n\t\t                    <label for=\"problem3\"><input name=\"problem3\" id=\"problem3\" type=\"checkbox\" value=\"Yes\">Les renseignements sont incomplets</label>\r\n\t\t                    <input name=\"problem3\" type=\"hidden\" value=\"No\">\r\n\t\t                </div>\r\n\t\t             \t\t<div class=\"checkbox\">\r\n\t\t                    <label for=\"problem4\"><input name=\"problem4\" id=\"problem4\" type=\"checkbox\" value=\"Yes\">L'information n'est plus \u00e0 jour ou est erron\u00e9e</label>\r\n\t\t                    <input name=\"problem4\" type=\"hidden\" value=\"No\">\r\n\t\t                </div>\t\t\t\t\t\t\r\n\t\t\t\t\t\t<div class=\"checkbox\">\r\n\t\t\t\t\t\t\t<label for=\"problem5\"><input name=\"problem5\" id=\"problem5\" type=\"checkbox\" value=\"Yes\">Message d'erreur \u00e0 l'ouverture de la session lorsque je tente d'acc\u00e9der \u00e0 un compte (ex. Mon dossier Service Canada)</label>\r\n\t\t\t\t\t\t\t<input name=\"problem5\" type=\"hidden\" value=\"No\">\r\n\t\t\t\t\t\t</div>\r\n\t\t\t\t\t\t\t<ul>\r\n\t\t\t\t\t\t\t<li class=\"checkbox\">\r\n\t\t\t\t\t\t\t\t<label for=\"problem6a\"><input name=\"problem6\" id=\"problem6a\" type=\"checkbox\" value=\"Yes\">Acc\u00e8s Cl\u00e9GC</label>\r\n\t\t\t\t\t\t\t\t<input name=\"problem6\" type=\"hidden\" value=\"No\">\r\n\t\t\t\t\t\t\t </li>\r\n\t\t\t\t\t\t\t<li class=\"checkbox\">\r\n\t\t\t\t\t\t\t\t<label for=\"problem7\"><input name=\"problem7\" id=\"problem7\" type=\"checkbox\" value=\"Yes\">Acc\u00e8s SecureKey Service de Concierge (justificatifs d'identit\u00e9 bancaires)</label>\r\n\t\t\t\t\t\t\t\t<input name=\"problem7\" type=\"hidden\" value=\"No\">\r\n\t\t\t\t\t\t\t </li>\r\n\t\t\t\t\t\t\t<li class=\"checkbox\">\r\n\t\t\t\t\t\t\t\t<label for=\"problem8\"><input name=\"problem8\" id=\"problem8\" type=\"checkbox\" value=\"Yes\">Probl\u00e8me avec le Code d'acc\u00e8s personnel (CAP) ou avec le Code d'acc\u00e8s (CA) de l'assurance emploi</label>\r\n\t\t\t\t\t\t\t\t<input name=\"problem8\" type=\"hidden\" value=\"No\">\r\n\t\t\t\t\t\t\t </li>\t\r\n\t\t\t\t\t\t\t<li class=\"checkbox\">\r\n\t\t\t\t\t\t\t\t<label for=\"problem9\"><input name=\"problem9\" id=\"problem9\" type=\"checkbox\" value=\"Yes\">Probl\u00e8me li\u00e9 \u00e0 la validation du num\u00e9ro d'assurance sociale (NAS)</label>\r\n\t\t\t\t\t\t\t\t<input name=\"problem9\" type=\"hidden\" value=\"No\">\r\n\t\t\t\t\t\t\t </li>\t\t\t\t\t\t\t\t\r\n\t\t\t\t\t\t\t<li class=\"checkbox\">\r\n\t\t\t\t\t\t\t\t<label for=\"problem10\"><input name=\"problem10\" id=\"problem10\" type=\"checkbox\" value=\"Yes\">Autre erreur lors de l'ouverture de session qui ne figure pas sur cette liste</label>\r\n\t\t\t\t\t\t\t\t<input name=\"problem10\" type=\"hidden\" value=\"No\">\r\n\t\t\t\t\t\t\t </li>\t\t \r\n\t\t\t\t\t\t\t </ul>\r\n\t\t\t\t\t\t<div class=\"checkbox\">\r\n\t\t\t\t\t\t\t<label for=\"problem11\"><input name=\"problem11\" id=\"problem11\" type=\"checkbox\" value=\"Yes\">Je n'arrive pas \u00e0 trouver ce que je cherche</label>\r\n\t\t\t\t\t\t\t<input name=\"problem11\" type=\"hidden\" value=\"No\">\r\n\t\t\t\t\t\t</div>\r\n\t\t\t\t\t\t<div class=\"checkbox\">\r\n\t\t\t\t\t\t\t<label for=\"problem12\"><input name=\"problem12\" id=\"problem12\" type=\"checkbox\" value=\"Yes\">Autre probl\u00e8me qui ne figure pas sur cette liste</label>\r\n\t\t\t\t\t\t\t<input name=\"problem12\" type=\"hidden\" value=\"No\">\r\n\t\t\t\t\t\t</div>\t\t\t\t\t\t\t\t\t\t\t\t\t\t\t\t\t\t\t\r\n\t\t             </fieldset>\r\n\t\t\t\t\t <div>\r\n\t\t\t\t        <label for=\"aafc_ranstr\"><span id=\"fbch\">Veuillez inscrire les caract\u00e8res suivants  <strong class=\"required\">(obligatoire)</strong>\u00a0: </span><span id=\"ranstr\">XXX</span></label>\r\n\t\t\t            <input name=\"anti-spam-sequence\" id=\"aafc_ranstr\" size=\"4\" maxlength=\"3\" type=\"text\">\r\n\t\t\t\t\t </div>\r\n\t\t\t\t\t <input type=\"submit\" class=\"btn btn-primary\" value=\"Soumettre\">\r\n\t\t\t\t  </form>\r\n\t\t\t\t</div>\r\n\t\t\t  </div>\r\n\t\t\t</div>\r\n\t\t</details>\r\n\t    </div>\r\n\t  <div class=\"wb-share col-sm-4 col-md-3 col-sm-offset-2 col-md-offset-4 col-lg-offset-5\" data-wb-share='{\"lnkClass\": \"btn btn-default btn-block\"}'></div>\r\n\t  </div>\r\n\t  <dl id=\"wb-dtmd\">\r\n\t    <dt>Date de modification\u00a0: </dt>\r\n\t      <dd><time property=\"dateModified\">2021-02-12</time></dd>\r\n\t  </dl>\r\n\t</div>\r\n\t\r\n  "
    }
}