{
    "dcr_id": "1573046428342",
    "title": {
        "en": "Dairy Direct Payment Program: Step 3. How to register",
        "fr": "Programme de paiements directs pour les producteurs laitiers : \u00c9tape 3. Comment s\u2019inscrire"
    },
    "modified": "2021-01-21",
    "issued": "2019-11-21",
    "templatetype": "content page 1 column",
    "page_type": "1",
    "node_id": "1610544567692",
    "dc_date_created": "2019-11-21",
    "managing_branch": "PAB",
    "parent_node_id": "1566817855922",
    "label": {
        "en": "Dairy Direct Payment Program: Step 3. How to register",
        "fr": "Programme de paiements directs pour les producteurs laitiers : \u00c9tape 3. Comment s\u2019inscrire"
    },
    "exturl": "",
    "teamsite_location": {
        "en": "/default/main/AAFC-AAC/Internet-Internet/Group-Ensemble/ProgServ-ProgServ/WORKAREA/ProgServ-ProgServ/templatedata/comm-comm/gene-gene/data/11/ddpp-pdpl_3_1573046428342_en",
        "fr": "/default/main/AAFC-AAC/Internet-Internet/Group-Ensemble/ProgServ-ProgServ/WORKAREA/ProgServ-ProgServ/templatedata/comm-comm/gene-gene/data/11/ddpp-pdpl_3_1573046428342_fr"
    },
    "type_name": "sitemapinit",
    "has_dcr_id": true,
    "breadcrumb": {
        "en": "Dairy Direct Payment Program: Step 3. How to register",
        "fr": "Programme de paiements directs pour les producteurs laitiers : \u00c9tape 3. Comment s\u2019inscrire"
    },
    "layout_name": "content page 1 column",
    "lang": "en",
    "meta": {
        "issued": {
            "en": "2019-11-21",
            "fr": "2019-11-21"
        },
        "modified": {
            "en": "2021-01-21",
            "fr": "2021-01-21"
        },
        "format": {
            "en": "text/html",
            "fr": "text/html"
        },
        "title": {
            "en": "Dairy Direct Payment Program: Step 3. How to register",
            "fr": "Programme de paiements directs pour les producteurs laitiers : \u00c9tape 3. Comment s\u2019inscrire"
        },
        "subject": {
            "en": "meat;architectural heritage;architecture",
            "fr": "consultation;communaut\u00e9 rurale;viande"
        },
        "description": {
            "en": "Applicant guide. Step 1.What this program offers. 12.8 Collection and use of Applicant's Business Information. 2.0 Are you eligible?Applicants must ensure that they meet all eligibility criteria before applying.Under DFIP Phase 2,eligible applicants.",
            "fr": "\u00c9tape 2. Qui est admissible. \u00c9tape 1.Ce qu\u2019offre ce programme. Foire aux questions. Pour nous joindre. \u00c9tape 2. Qui est admissible."
        },
        "language": {
            "en": "eng",
            "fr": "fra"
        },
        "keywords": {
            "en": "disabilities.The;A.Funding",
            "fr": "doutils.Le"
        },
        "audience": {
            "en": "gcaudience",
            "fr": "gcaudience"
        },
        "type": {
            "en": "fact sheet",
            "fr": "foire aux questions"
        },
        "creator": {
            "en": "Agriculture and Agri-Food Canada;Government of Canada",
            "fr": "Agriculture et Agroalimentaire Canada;Gouvernement du Canada"
        },
        "spatial": {
            "en": "gcregions",
            "fr": "gcregions"
        },
        "service": {
            "en": "AAFC-AAC",
            "fr": "AAFC-AAC"
        },
        "accessRights": {
            "en": "2",
            "fr": "2"
        },
        "legalName": {
            "en": "agriculture_and_agri_food_canada",
            "fr": "agriculture_et_agroalimentaire_canada"
        },
        "areaServed": {
            "en": "Canada",
            "fr": "Canada"
        }
    },
    "body": {
        "en": "tart --&gt;\r\n    <!-- D&eacute;but du contenu -->\r\n    <div class=\"mrgn-tp-md mrgn-bttm-lg brdr-bttm\">\n\n<div class=\"row\">\n<ul class=\"toc lst-spcd col-md-12 list-unstyled\">\n<li class=\"col-md-4 col-sm-6\"><span class=\"list-group-item\">Step 1. <a href=\"?id=1566502074838\">What this program offers</a></span></li>\n\n<li class=\"col-md-4 col-sm-6\"><span class=\"list-group-item\">Step 2. <a href=\"?id=1573046379363\">Who is eligible</a></span></li>\n\n<li class=\"col-md-4 col-sm-6 clr-lft-sm\"><span class=\"list-group-item active\">Step 3. How to register</span></li>\n\n<li class=\"col-md-4 col-sm-6\"><span class=\"list-group-item\">Step 4. <a href=\"?id=1573046464904\">After you register</a></span></li>\n\n<li class=\"col-md-4 col-sm-6\"><span class=\"list-group-item\"><a href=\"?id=1566502457316\">Frequently asked questions</a></span></li>\n\n<li class=\"col-md-4 col-sm-6\"><span class=\"list-group-item\"><a href=\"?id=1573046497738\">Contact information</a></span></li>\n</ul>\n</div>\n</div>\n\n\n<h2>Step 3. How to register</h2>\n\n<p>Eligible producers will receive a letter in the mail confirming their eligibility and detailed instructions on how to register.</p>\n\n<div class=\"alert alert-info\">\n<p>To receive a payment, eligible producers must register with the program each year. Completed registrations must be signed and returned no later than March 31 of each year.</p>\n<p>When registering with the Dairy Direct Payment Program, eligible producers will have the option to receive their payment by direct deposit or by cheque.</p>\n</div>\n\n<p>Registrations can be completed online or using the PDF form.</p>\n\n<section class=\"alert alert-info\">\n  <h3>Register online</h3>\n<p>Read the letter and pamphlet you received in the mail then log in to the <a href=\"https://application.cdc-ccl.gc.ca/ddpp-ppdpl/Live/login.php?lang=en\">Dairy Direct Payment Program portal</a> to register. </p>\n</section>\n\n\n<!--\n\n<h3 id=\"register\">Register online</h3>\n\n<p>Read the letter and pamphlet you received in the mail then log in to the <a href=\"https://application.cdc-ccl.gc.ca/ddpp-ppdpl/Live/login.php?lang=en\">Dairy Direct Payment Program portal</a> to register. </p>\n\n-->\n\n<h3 id=\"registerpdf\">Register using the PDF form</h3>\n\n<section class=\"mrgn-tp-lg\" id=\"pdfforms\">\n<div class=\"alert alert-warning\">\n\n<h4>PDF forms</h4>\n\n<p>If you have problems opening a PDF form in your Internet browser, you need to:</p>\n<ul class=\"mrgn-tp-md\">\n <li>Use your computer. <strong>The forms may not open on mobile devices (iPads, tablets, mobile phones)</strong></li>\n <li>Make sure you have Adobe Reader 11 (or higher) already installed on your computer. If not, download <a href=\"http://get.adobe.com/reader/otherversions/\" rel=\"external\">Adobe Reader 11 or higher</a> for free. Adobe has help for <a href=\"https://helpx.adobe.com/ca/acrobat/kb/cant-view-pdf-web.html\" rel=\"external\">solving common issues</a></li>\n <li>You <strong>must save the file on your computer</strong> in a place you can remember</li>\n<li>Open the file on your computer using <a href=\"http://get.adobe.com/reader/otherversions/\" rel=\"external\">Adobe Reader 11 or higher</a></li>\n<li>If you can\u2019t open the form with Adobe Reader 11 or higher, <a href=\"?id=1573046497738\">contact the program</a></li>\n</ul>\n\n\n    <h6 class=\"lead mrgn-bttm-0\">How to download and open a PDF form</h6>\n<!--  <p>To download and open a PDF form, you need to have <a href=\"http://get.adobe.com/reader/otherversions/\" rel=\"external\">Adobe Reader 11 or higher</a> installed.</p> -->\n\n<ul class=\"list-unstyled\">\n\n\n\t<li>\n<details class=\"mrgn-tp-sm\">\n    <summary>Microsoft Windows Operating System computers using \u201cInternet Explorer\u201d or \u201cMicrosoft Edge\u201d as your browser</summary>\n    <ol>\n      <li>Right-click on the link you want to save</li>\n      <li>Select \u201cSave target as\u201d or \u201cSave link as\u201d</li>\n      <li>Choose the location on your computer where you would like to save the file</li>\n      <li>Select \u201cSave\u201d</li>\n      <li>Open Adobe Reader 11 or higher</li>\n      <li>Select \u201cFile\u201d</li> \n      <li>Select \u201cOpen\u201d</li>\n      <li>Go to the location where you saved the file</li> \n      <li>Select the PDF file</li>\n      <li>Select \u201cOpen\u201d</li>\n    </ol>\n    </details>\n</li>\n\n<li>\n<details class=\"mrgn-tp-sm\">\n<summary>Microsoft Windows Operating System or Apple computers using \u201cChrome\u201d or Firefox\u201d as your browser</summary>\n    <ol>\n      <li>Right-click on the link you want to save</li>\n      <li>When the option menu appears, choose \"Download link file\" or \"Download link file as\"</li>\n      <li>Choose the location on your computer where you would like to save  the file. Your computer will start the download once you have selected a  location.</li>\n<li>Open Adobe Reader 11 or higher</li>\n      <li>Go to the location where you saved the file</li> \n      <li>Select the PDF file</li>\n      <li>Select \u201cOpen\u201d</li>\n    </ol>\n    </details>\n</li>\n</ul>\n\n</div>\n</section>\n\n<ol>\n<li>Download the <a href=\"https://application.cdc-ccl.gc.ca/ddpp-ppdpl/Live/assets/DDPP-Form-v6-English.pdf\">registration form (PDF)</a> or contact the program at 1-877-246-4682 (TTY 613-773-2600) to receive the form by mail</li>\n<li>Print and send the completed form by mail or fax.\n\n<ul class=\"list-unstyled\">\n<li class=\"mrgn-tp-md\"><b>Mail</b><br>\nDairy Direct Payment Program<br>\nCanadian Dairy Commission<br>\nBuilding 55<br>\nCentral Experimental Farm<br>\n960 Carling Avenue<br>\nOttawa ON  K1A 0Z2\n</li>\n<li class=\"mrgn-tp-md\"><b>Fax</b>: <span class=\"badge\">Updated</span> 613-366-3076</li>\n</ul>\n</li>\n</ol>\n\n\n\n<nav>\n  <h2 class=\"wb-inv\">Previous-next document navigation - bottom</h2>\n\n<div class=\"row\">\n<div class=\"col-md-12 mrgn-lft-0 mrgn-rght-0\">\n<ul class=\"pager\">\t\n<li class=\"previous\"><a href=\"?id=1573046379363\" rel=\"prev\" title=\"Who is eligible\">Previous</a></li>\t\n<li class=\"next\"><a href=\"?id=1573046464904\" rel=\"next\" title=\"After you register\">Next</a></li>\t\n</ul>\n</div>\n</div>\n</nav>\n\r\n    <!-- Fin du contenu -->\r\n  \r\n  <div class=\"pagedetails\" id=\"pgft\">\r\n    <div class=\"row\">\r\n\t  <div class=\"col-sm-6 col-md-5 col-lg-4\">\r\n\t    <details class=\"brdr-0\">\r\n\t\t<summary class=\"btn btn-default text-center\" onclick=\"getAntiSpamSeq('/eng/mail-handler/?anti-spam-sequence=true')\">Report a problem on this page</summary>\r\n\t\t<div class=\"clearfix\"></div>\r\n\t\t<div class=\"well row\">\r\n\t\t<div>\r\n\t\t  <div class=\"gc-rprt-prblm\">\r\n\t\t    <div class=\"gc-rprt-prblm-frm gc-rprt-prblm-tggl\">\r\n\t\t\t  \r\n\t\t\t<form id=\"report_a_problem_form\" action=\"/eng/mail-handler/#report_a_problem_form\" method=\"post\">\t\t\t\t   \t\t\t\r\n\r\n\t            \t <input type=\"hidden\" name=\"lang\" value=\"eng\">\r\n\t            \t <input type=\"hidden\" name=\"pageId\" value=\"1573046428342\">\r\n\t            \t <input type=\"hidden\" name=\"pageUrl\" value=\"http://www.agr.gc.ca/eng/agricultural-programs-and-services/dairy-direct-payment-program/step-3-how-to-register/?id=1573046428342\">\r\n\t\t\t\t\t <div id=\"report_a_problem_form_error\"></div>\r\n\t\t             <fieldset>\t\t\t\t\t    \r\n\t\t                <legend><span class=\"field-name\">Please select all that apply:</span></legend>\t\t                                 \r\n\t\t\t\t\t\t<div class=\"checkbox\">\r\n\t\t\t\t\t\t\t<label for=\"problem1\"><input name=\"problem1\" id=\"problem1\" type=\"checkbox\" value=\"Yes\">A link, button or video is not working</label>\r\n\t\t\t\t\t\t\t<input name=\"problem1\" type=\"hidden\" value=\"No\">\r\n\t\t\t\t\t\t</div>\r\n\t\t\t\t\t\t<div class=\"checkbox\">\r\n\t\t\t\t\t\t\t<label for=\"problem2\"><input name=\"problem2\" id=\"problem2\" type=\"checkbox\" value=\"Yes\">It has a spelling mistake</label>\r\n\t\t\t\t\t\t\t<input name=\"problem2\" type=\"hidden\" value=\"No\">\r\n\t\t\t\t\t\t</div>\r\n\t\t\t\t\t\t<div class=\"checkbox\">\r\n\t\t\t\t\t\t\t<label for=\"problem3\"><input name=\"problem3\" id=\"problem3\" type=\"checkbox\" value=\"Yes\">Information is missing</label>\r\n\t\t\t\t\t\t\t<input name=\"problem3\" type=\"hidden\" value=\"No\">\r\n\t\t\t\t\t   </div>\r\n\t\t\t\t\t\t<div class=\"checkbox\">\r\n\t\t\t\t\t\t\t<label for=\"problem4\"><input name=\"problem4\" id=\"problem4\" type=\"checkbox\" value=\"Yes\">Information is outdated or wrong</label>\r\n\t\t\t\t\t\t\t<input name=\"problem4\" type=\"hidden\" value=\"No\">\r\n\t\t\t\t\t\t</div>\r\n\t\t\t\t\t\t<div class=\"checkbox\">\r\n\t\t\t\t\t\t\t<label for=\"problem5\"><input name=\"problem5\" id=\"problem5\" type=\"checkbox\" value=\"Yes\">Login error when trying to access an account (e.g. My Service Canada Account)</label>\r\n\t\t\t\t\t\t\t<input name=\"problem5\" type=\"hidden\" value=\"No\">\r\n\t\t\t\t\t\t</div>\r\n\t\t\t\t\t\t\t<ul>\r\n\t\t\t\t\t\t\t<li class=\"checkbox\">\r\n\t\t\t\t\t\t\t\t<label for=\"problem6a\"><input name=\"problem6\" id=\"problem6a\" type=\"checkbox\" value=\"Yes\">GC Key access</label>\r\n\t\t\t\t\t\t\t\t<input name=\"problem6\" type=\"hidden\" value=\"No\">\r\n\t\t\t\t\t\t\t </li>\r\n\t\t\t\t\t\t\t<li class=\"checkbox\">\r\n\t\t\t\t\t\t\t\t<label for=\"problem7\"><input name=\"problem7\" id=\"problem7\" type=\"checkbox\" value=\"Yes\">SecureKey Concierge (Banking Credential) access </label>\r\n\t\t\t\t\t\t\t\t<input name=\"problem7\" type=\"hidden\" value=\"No\">\r\n\t\t\t\t\t\t\t </li>\r\n\t\t\t\t\t\t\t<li class=\"checkbox\">\r\n\t\t\t\t\t\t\t\t<label for=\"problem8\"><input name=\"problem8\" id=\"problem8\" type=\"checkbox\" value=\"Yes\">Personal Access Code (PAC) problems or EI Access Code (AC) problems</label>\r\n\t\t\t\t\t\t\t\t<input name=\"problem8\" type=\"hidden\" value=\"No\">\r\n\t\t\t\t\t\t\t </li>\t\r\n\t\t\t\t\t\t\t<li class=\"checkbox\">\r\n\t\t\t\t\t\t\t\t<label for=\"problem9\"><input name=\"problem9\" id=\"problem9\" type=\"checkbox\" value=\"Yes\">Social Insurance Number (SIN) validation problems</label>\r\n\t\t\t\t\t\t\t\t<input name=\"problem9\" type=\"hidden\" value=\"No\">\r\n\t\t\t\t\t\t\t </li>\t\t\t\t\t\t\t\t\r\n\t\t\t\t\t\t\t<li class=\"checkbox\">\r\n\t\t\t\t\t\t\t\t<label for=\"problem10\"><input name=\"problem10\" id=\"problem10\" type=\"checkbox\" value=\"Yes\">Other login error not in this list</label>\r\n\t\t\t\t\t\t\t\t<input name=\"problem10\" type=\"hidden\" value=\"No\">\r\n\t\t\t\t\t\t\t </li>\t\t \r\n\t\t\t\t\t\t\t </ul>\r\n\t\t\t\t\t\t<div class=\"checkbox\">\r\n\t\t\t\t\t\t\t<label for=\"problem11\"><input name=\"problem11\" id=\"problem11\" type=\"checkbox\" value=\"Yes\">I can't find what I'm looking for</label>\r\n\t\t\t\t\t\t\t<input name=\"problem11\" type=\"hidden\" value=\"No\">\r\n\t\t\t\t\t\t</div>\r\n\t\t\t\t\t\t<div class=\"checkbox\">\r\n\t\t\t\t\t\t\t<label for=\"problem12\"><input name=\"problem12\" id=\"problem12\" type=\"checkbox\" value=\"Yes\">Other issue not in this list</label>\r\n\t\t\t\t\t\t\t<input name=\"problem12\" type=\"hidden\" value=\"No\">\r\n\t\t\t\t\t\t</div>\t\t\t\t\t\t \t\t\t\t\t\t\t\t\t\t\t\t \r\n\t\t             </fieldset>\r\n\t\t\t\t\t <div>\r\n\t\t\t\t\t   <label for=\"aafc_ranstr\"><span id=\"fbch\"><br>Enter these characters <strong class=\"required\">(required)</strong>: </span><span id=\"ranstr\">U5S</span></label>\r\n\t\t\t           <input name=\"anti-spam-sequence\" id=\"aafc_ranstr\" size=\"4\" maxlength=\"3\" type=\"text\">\r\n\t\t\t\t\t </div>\t\r\n\r\n\t\t\t\t\t <br><input type=\"submit\" class=\"btn btn-primary\" value=\"Submit\">\r\n\t\t\t\t  </form>\r\n\t\t\t\t</div>\r\n\t\t\t</div>\t\t\t\r\n\t\t  </div>\r\n\t\t</div>\r\n\t\t</details>\r\n\t  </div>\r\n\t  <div class=\"wb-share col-sm-4 col-md-3 col-sm-offset-2 col-md-offset-4 col-lg-offset-5\" data-wb-share='{\"lnkClass\": \"btn btn-default btn-block\"}'></div>\r\n\t</div>\r\n\t<dl id=\"wb-dtmd\">\r\n\t  <dt>Date modified: </dt>\r\n\t  <dd><time property=\"dateModified\">2021-01-21</time></dd></dl></div>",
        "fr": "\r\n    \r\n    <!-- MainContentStart -->\r\n    <!-- D&eacute;but du contenu -->\r\n     <div class=\"mrgn-tp-md mrgn-bttm-lg brdr-bttm\">\n\n<div class=\"row\">\n<ul class=\"toc lst-spcd col-md-12 list-unstyled\">\n<li class=\"col-md-4 col-sm-6\"><span class=\"list-group-item\">\u00c9tape 1. <a href=\"?id=1566502074838\">Ce qu\u2019offre ce programme</a></span></li>\n\n<li class=\"col-md-4 col-sm-6\"><span class=\"list-group-item\">\u00c9tape 2. <a href=\"?id=1573046379363\">Qui est admissible</a></span></li>\n\n<li class=\"col-md-4 col-sm-6 clr-lft-sm\"><span class=\"list-group-item active\">\u00c9tape 3. Comment s\u2019inscrire</span></li>\n\n<li class=\"col-md-4 col-sm-6\"><span class=\"list-group-item\">\u00c9tape 4. <a href=\"?id=1573046464904\">Apr\u00e8s l\u2019inscription</a></span></li>\n\n<li class=\"col-md-4 col-sm-6\"><span class=\"list-group-item\"><a href=\"?id=1566502457316\">Foire aux questions</a></span></li>\n\n<li class=\"col-md-4 col-sm-6\"><span class=\"list-group-item\"><a href=\"?id=1573046497738\">Pour nous joindre</a></span></li>\n</ul>\n</div>\n</div>\n\n<h2>\u00c9tape 3. Comment s\u2019inscrire</h2>\n\n<p>Les producteurs admissibles vont recevoir une lettre par la poste confirmant leur admissibilit\u00e9 au programme ainsi que les instructions d\u00e9taill\u00e9es sur la fa\u00e7on de s\u2019inscrire.</p>\n\n<div class=\"alert alert-info\">\n<p>Pour recevoir un paiement, les producteurs admissibles doivent s\u2019inscrire au programme chaque ann\u00e9e. Les inscriptions doivent \u00eatre sign\u00e9es et retourn\u00e9es au plus tard le 31\u00a0mars de chaque ann\u00e9e.</p>\n<p>En s\u2019inscrivant au Programme de paiements directs pour les producteurs laitiers, les producteurs admissibles pourront s\u00e9lectionner la m\u00e9thode de paiement privil\u00e9gi\u00e9e, soit par d\u00e9p\u00f4t direct ou par ch\u00e8que.</p>\n</div>\n\n<p>On peut s\u2019inscrire en ligne ou au moyen du formulaire PDF.</p>\n\n<section class=\"alert alert-info\">\n  <h3>S'inscrire en ligne</h3>\n<p>Consultez la lettre et le d\u00e9pliant que vous avez re\u00e7us par la poste et ouvrez une sessions sur le portail du <a href=\"https://application.cdc-ccl.gc.ca/ddpp-ppdpl/Live/login.php?lang=fr\">Programme de paiements directs pour les producteurs laitiers</a>.</p>\n</section>\n\n<!--\n\n<h3 id=\"register\">S'inscrire en ligne</h3>\n\n<p>Consultez la lettre et le d&eacute;pliant que vous avez re&ccedil;us par la poste et ouvrez une sessions sur le portail du <a href=\"https://application.cdc-ccl.gc.ca/ddpp-ppdpl/Live/login.php?lang=fr\">Programme de paiements directs pour les producteurs laitiers</a>.</p>\n\n-->\n\n<h3 id=\"registerpdf\">S\u2019inscrire au moyen du formulaire PDF</h3>\n\n<section class=\"mrgn-tp-lg\" id=\"pdfforms\">\n<div class=\"alert alert-warning\">\n  <h4>Formulaires en format PDF</h4>\n<p>Si vous avez de la difficult\u00e9 \u00e0 ouvrir un formulaire PDF dans votre navigateur Internet, vous devez\u00a0:</p>\n<ul class=\"mrgn-tp-md\">\n <li>utiliser votre ordinateur. <strong>Il est possible que les formulaires ne s'ouvrent pas sur des appareils mobiles (iPad, tablettes, t\u00e9l\u00e9phones cellulaires)</strong>;</li>\n  <li>vous assurer que la version 11 (ou une version ult\u00e9rieure) d'Adobe Reader est d\u00e9j\u00e0 install\u00e9e sur votre ordinateur. Si ce n'est pas le cas, t\u00e9l\u00e9chargez gratuitement <a href=\"http://get.adobe.com/fr/reader/otherversions/\" rel=\"external\">Adobe Reader 11 ou une version ult\u00e9rieure</a>. Adobe offre des <a href=\"https://helpx.adobe.com/fr/acrobat/kb/cant-view-pdf-web.html\" rel=\"external\">solutions aux principaux probl\u00e8mes d'affichage</a>;</li>\n <li><strong>sauvegarder le fichier sur votre ordinateur</strong> \u00e0 un endroit dont vous vous souviendrez;</li>\n <li>ouvrir le fichier sur votre ordinateur \u00e0 l'aide d'<a href=\"http://get.adobe.com/fr/reader/otherversions/\" rel=\"external\">Adobe Reader 11 ou une version ult\u00e9rieure</a>.</li>\n <li>Si vous ne parvenez pas \u00e0 ouvrir le formulaire avec Adobe Reader 11 ou une version ult\u00e9rieure, <a href=\"?id=1573046497738\">veuillez contacter le programme</a>.</li>\n</ul>\n\n\n    <h6 class=\"lead mrgn-bttm-0\">Comment t\u00e9l\u00e9charger et ouvrir un formulaire au format PDF</h6>\n  <!--  <p>Pour t&eacute;l&eacute;charger et ouvrir un formulaire au format PDF, vous devez installer <a href=\"http://get.adobe.com/fr/reader/otherversions/\" rel=\"external\">Adobe Reader 11 ou une version ult&eacute;rieure</a>.</p> -->\n\n<ul class=\"list-unstyled\">\n\t<li>\n<details class=\"mrgn-tp-sm\">\n    <summary>Les ordinateurs utilisant le syst\u00e8me d'exploitation Microsoft Windows et se servant de  \u201cInternet Explorer\u201d ou \u201cMicrosoft Edge\u201d comme fureteur</summary>\n     <ol>\n      <li>Cliquez sur le lien que vous voulez enregistrer avec le bouton droit de la souris;</li>\n      <li>S\u00e9lectionnez \u00ab\u00a0Enregistrer la cible sous\u00a0\u00bb ou \u00ab\u00a0Enregistrer le lien sous\u00a0\u00bb;</li>\n      <li>Choisissez l'emplacement o\u00f9 vous souhaitez enregistrer le fichier sur votre ordinateur;</li>\n      <li>S\u00e9lectionnez \u00ab\u00a0Enregistrer\u00a0\u00bb;</li>\n      <li>Ouvrissiez Adobe Reader 11 ou une version ult\u00e9rieure;</li>\n      <li>S\u00e9lectionnez \u00ab\u00a0Fichier\u00a0\u00bb;</li>\n      <li>S\u00e9lectionnez \u00ab\u00a0Ouvrez\u00a0\u00bb;</li>\n      <li>Acc\u00e9dez \u00e0 l'emplacement o\u00f9 vous avez enregistr\u00e9 le fichier;</li>\n      <li>Choisissez le formulaire PDF;</li>\n      <li>S\u00e9lectionnez \u00ab\u00a0Ouvrez\u00a0\u00bb.</li>\n    </ol>\n    </details>\n</li>\n\n<li>\n<details class=\"mrgn-tp-sm\">\n<summary>Les ordinateurs utilisant le syst\u00e8me d'exploitation Microsoft Windows ou Apple et se servant de \u201cChrome\u201d ou \"Firefox\u201d comme fureteur</summary>\n        <ol>\n      <li>Cliquez sur le lien que vous voulez enregistrer avec le bouton droit de la souris;</li>\n      <li>Quand le menu d'options s'affiche, s\u00e9lectionnez \u00ab T\u00e9l\u00e9charger le fichier li\u00e9 \u00bb ou \u00ab T\u00e9l\u00e9charger le fichier li\u00e9 sous \u00bb;</li> \n      <li>Choisissez l'emplacement o\u00f9 vous souhaitez enregistrer le fichier  sur votre ordinateur; Le t\u00e9l\u00e9chargement commencera une fois que vous  aurez choisi un emplacement;</li>\n  <li>Ouvrissiez Adobe Reader 11 ou une version ult\u00e9rieure;</li>\n      <li>Acc\u00e9dez \u00e0 l'emplacement o\u00f9 vous avez enregistr\u00e9 le fichier;</li>\n      <li>Choisissez le formulaire PDF;</li>\n      <li>S\u00e9lectionnez \u00ab\u00a0Ouvrez\u00a0\u00bb.</li>\n    </ol>\n    </details>\n</li>\n</ul>\n\n</div>\n</section>\n\n\n<ol>\n<li>T\u00e9l\u00e9chargez le <a href=\"https://application.cdc-ccl.gc.ca/ddpp-ppdpl/Live/assets/DDPP-Form-v6-French.pdf\">formulaire  d\u2019inscription (PDF)</a> ou communiquez avec les responsables du programme au 1\u2011877\u2011246\u20114682  (ATS 613\u2011773\u20112600) pour recevoir le formulaire par la poste.</li>\n<li>Imprimez et envoyez le formulaire rempli par la poste ou par t\u00e9l\u00e9copieur.\n\n<ul class=\"list-unstyled\">\n<li class=\"mrgn-tp-md\"><b>Poste</b><br>\nProgramme de paiements directs pour les producteurs laitiers<br>\nCommission canadienne du lait<br>\n\u00c9difice 55<br>\nFerme exp\u00e9rimentale centrale<br>\n960, avenue Carling<br>\nOttawa (Ontario)  K1A 0Z2\n</li>\n<li class=\"mrgn-tp-md\"><b>T\u00e9l\u00e9copieur</b> : <span class=\"badge\">Mise \u00e0 jour</span> 613-366-3076</li>\n</ul>\n</li>\n</ol>\n<nav>\n  <h2 class=\"wb-inv\">Navigation du document - pr\u00e9c\u00e9dente-suivante - bas</h2>\n\n<div class=\"row\">\n<div class=\"col-md-12 mrgn-lft-0 mrgn-rght-0\">\n<ul class=\"pager\">\t\n<li class=\"previous\"><a href=\"?id=1573046379363\" rel=\"prev\" title=\"Qui est admissible\">Pr\u00e9c\u00e9dente</a></li>\t\n<li class=\"next\"><a href=\"?id=1573046464904\" rel=\"next\" title=\"Apr\u00e8s l\u2019inscription\">Suivante</a></li>\t\n</ul>\n</div>\n</div>\n</nav>\n\r\n    <!-- Fin du contenu -->\r\n\t\r\n\t<div class=\"pagedetails\" id=\"pgft\">\r\n\t\t<div class=\"row\">\r\n\t\t  <div class=\"col-sm-6 col-md-5 col-lg-4\">\r\n\t\t    <details class=\"brdr-0\">\r\n\t\t\t<summary class=\"btn btn-default text-center\" onclick=\"getAntiSpamSeq('/fra/mail-handler/?anti-spam-sequence=true')\">Signaler un probl\u00e8me sur cette page</summary>\r\n\t\t\t<div class=\"well row\">\r\n\t\t\t  <div class=\"gc-rprt-prblm\">\r\n\t\t\t    <div class=\"gc-rprt-prblm-frm gc-rprt-prblm-tggl\">\r\n\t\t\t\t   <form id=\"report_a_problem_form\" action=\"/fra/mail-handler/\" method=\"post\">\r\n\t            \t <input type=\"hidden\" name=\"lang\" value=\"fra\">\r\n\t            \t <input type=\"hidden\" name=\"pageId\" value=\"1573046428342\">\r\n\t            \t <input type=\"hidden\" name=\"pageUrl\" value=\"http://www.agr.gc.ca/fra/programmes-et-services-agricoles/programme-de-paiements-directs-pour-les-producteurs-laitiers/etape-3-comment-sinscrire/?id=1573046428342\">\r\n\t\t\t\t\t <div id=\"report_a_problem_form_error\"></div>\r\n\t\t             <fieldset>\t\t\t\t\t    \r\n\t\t                <legend><span class=\"field-name\">Veuillez cocher toutes les r\u00e9ponses pertinentes\u00a0:</span></legend>\r\n\t\t                 <div class=\"checkbox\">\r\n\t\t                    <label for=\"problem1\"><input name=\"problem1\" id=\"problem1\" type=\"checkbox\" value=\"Yes\">Un lien, un bouton ou une vid\u00e9o ne fonctionne pas</label>\r\n\t\t                    <input name=\"problem1\" type=\"hidden\" value=\"No\">\r\n\t\t                </div>\r\n\t\t                <div class=\"checkbox\">\r\n\t\t                    <label for=\"problem2\"><input name=\"problem2\" id=\"problem2\" type=\"checkbox\" value=\"Yes\">Il y a une erreur d'orthographe ou de grammaire</label>\r\n\t\t                    <input name=\"problem2\" type=\"hidden\" value=\"No\">\r\n\t\t                </div>\r\n\t\t   \t\t\t\t <div class=\"checkbox\">\r\n\t\t                    <label for=\"problem3\"><input name=\"problem3\" id=\"problem3\" type=\"checkbox\" value=\"Yes\">Les renseignements sont incomplets</label>\r\n\t\t                    <input name=\"problem3\" type=\"hidden\" value=\"No\">\r\n\t\t                </div>\r\n\t\t             \t\t<div class=\"checkbox\">\r\n\t\t                    <label for=\"problem4\"><input name=\"problem4\" id=\"problem4\" type=\"checkbox\" value=\"Yes\">L'information n'est plus \u00e0 jour ou est erron\u00e9e</label>\r\n\t\t                    <input name=\"problem4\" type=\"hidden\" value=\"No\">\r\n\t\t                </div>\t\t\t\t\t\t\r\n\t\t\t\t\t\t<div class=\"checkbox\">\r\n\t\t\t\t\t\t\t<label for=\"problem5\"><input name=\"problem5\" id=\"problem5\" type=\"checkbox\" value=\"Yes\">Message d'erreur \u00e0 l'ouverture de la session lorsque je tente d'acc\u00e9der \u00e0 un compte (ex. Mon dossier Service Canada)</label>\r\n\t\t\t\t\t\t\t<input name=\"problem5\" type=\"hidden\" value=\"No\">\r\n\t\t\t\t\t\t</div>\r\n\t\t\t\t\t\t\t<ul>\r\n\t\t\t\t\t\t\t<li class=\"checkbox\">\r\n\t\t\t\t\t\t\t\t<label for=\"problem6a\"><input name=\"problem6\" id=\"problem6a\" type=\"checkbox\" value=\"Yes\">Acc\u00e8s Cl\u00e9GC</label>\r\n\t\t\t\t\t\t\t\t<input name=\"problem6\" type=\"hidden\" value=\"No\">\r\n\t\t\t\t\t\t\t </li>\r\n\t\t\t\t\t\t\t<li class=\"checkbox\">\r\n\t\t\t\t\t\t\t\t<label for=\"problem7\"><input name=\"problem7\" id=\"problem7\" type=\"checkbox\" value=\"Yes\">Acc\u00e8s SecureKey Service de Concierge (justificatifs d'identit\u00e9 bancaires)</label>\r\n\t\t\t\t\t\t\t\t<input name=\"problem7\" type=\"hidden\" value=\"No\">\r\n\t\t\t\t\t\t\t </li>\r\n\t\t\t\t\t\t\t<li class=\"checkbox\">\r\n\t\t\t\t\t\t\t\t<label for=\"problem8\"><input name=\"problem8\" id=\"problem8\" type=\"checkbox\" value=\"Yes\">Probl\u00e8me avec le Code d'acc\u00e8s personnel (CAP) ou avec le Code d'acc\u00e8s (CA) de l'assurance emploi</label>\r\n\t\t\t\t\t\t\t\t<input name=\"problem8\" type=\"hidden\" value=\"No\">\r\n\t\t\t\t\t\t\t </li>\t\r\n\t\t\t\t\t\t\t<li class=\"checkbox\">\r\n\t\t\t\t\t\t\t\t<label for=\"problem9\"><input name=\"problem9\" id=\"problem9\" type=\"checkbox\" value=\"Yes\">Probl\u00e8me li\u00e9 \u00e0 la validation du num\u00e9ro d'assurance sociale (NAS)</label>\r\n\t\t\t\t\t\t\t\t<input name=\"problem9\" type=\"hidden\" value=\"No\">\r\n\t\t\t\t\t\t\t </li>\t\t\t\t\t\t\t\t\r\n\t\t\t\t\t\t\t<li class=\"checkbox\">\r\n\t\t\t\t\t\t\t\t<label for=\"problem10\"><input name=\"problem10\" id=\"problem10\" type=\"checkbox\" value=\"Yes\">Autre erreur lors de l'ouverture de session qui ne figure pas sur cette liste</label>\r\n\t\t\t\t\t\t\t\t<input name=\"problem10\" type=\"hidden\" value=\"No\">\r\n\t\t\t\t\t\t\t </li>\t\t \r\n\t\t\t\t\t\t\t </ul>\r\n\t\t\t\t\t\t<div class=\"checkbox\">\r\n\t\t\t\t\t\t\t<label for=\"problem11\"><input name=\"problem11\" id=\"problem11\" type=\"checkbox\" value=\"Yes\">Je n'arrive pas \u00e0 trouver ce que je cherche</label>\r\n\t\t\t\t\t\t\t<input name=\"problem11\" type=\"hidden\" value=\"No\">\r\n\t\t\t\t\t\t</div>\r\n\t\t\t\t\t\t<div class=\"checkbox\">\r\n\t\t\t\t\t\t\t<label for=\"problem12\"><input name=\"problem12\" id=\"problem12\" type=\"checkbox\" value=\"Yes\">Autre probl\u00e8me qui ne figure pas sur cette liste</label>\r\n\t\t\t\t\t\t\t<input name=\"problem12\" type=\"hidden\" value=\"No\">\r\n\t\t\t\t\t\t</div>\t\t\t\t\t\t\t\t\t\t\t\t\t\t\t\t\t\t\t\r\n\t\t             </fieldset>\r\n\t\t\t\t\t <div>\r\n\t\t\t\t        <label for=\"aafc_ranstr\"><span id=\"fbch\">Veuillez inscrire les caract\u00e8res suivants  <strong class=\"required\">(obligatoire)</strong>\u00a0: </span><span id=\"ranstr\">XXX</span></label>\r\n\t\t\t            <input name=\"anti-spam-sequence\" id=\"aafc_ranstr\" size=\"4\" maxlength=\"3\" type=\"text\">\r\n\t\t\t\t\t </div>\r\n\t\t\t\t\t <input type=\"submit\" class=\"btn btn-primary\" value=\"Soumettre\">\r\n\t\t\t\t  </form>\r\n\t\t\t\t</div>\r\n\t\t\t  </div>\r\n\t\t\t</div>\r\n\t\t</details>\r\n\t    </div>\r\n\t  <div class=\"wb-share col-sm-4 col-md-3 col-sm-offset-2 col-md-offset-4 col-lg-offset-5\" data-wb-share='{\"lnkClass\": \"btn btn-default btn-block\"}'></div>\r\n\t  </div>\r\n\t  <dl id=\"wb-dtmd\">\r\n\t    <dt>Date de modification\u00a0: </dt>\r\n\t      <dd><time property=\"dateModified\">2021-01-21</time></dd>\r\n\t  </dl>\r\n\t</div>\r\n\t\r\n  "
    }
}