{
    "dcr_id": "1410072148368",
    "title": {
        "en": "Trade Show Marketing and Communications",
        "fr": "Marketing et communications pour le salon professionnel"
    },
    "modified": "2011-08-24",
    "issued": "2011-08-24",
    "dcr_type": "comm-comm/gene-gene",
    "templatetype": "content page 2 column",
    "page_type": "0",
    "node_id": "1410070965129",
    "dc_date_created": "2011-08-24",
    "managing_branch": "MISB",
    "teamsite_location": {
        "en": "/default/main/AAFC-AAC/Internet-Internet/MISB-DGSIM/ATS-SEA/ATS-SEA-s1/WORKAREA/ATS-SEA-s1/templatedata/comm-comm/gene-gene/data/eve_trade_show_marketing_1410072148368_en",
        "fr": "/default/main/AAFC-AAC/Internet-Internet/MISB-DGSIM/ATS-SEA/ATS-SEA-s1/WORKAREA/ATS-SEA-s1/templatedata/comm-comm/gene-gene/data/eve_trade_show_marketing_1410072148368_fr"
    },
    "layout_name": "content page 2 column",
    "type_name": "comm-comm/gene-gene",
    "lang": "en"
}