{
    "dcr_id": "1466623979688",
    "title": {
        "en": "Pine Creek Farms Manitoba <abbr title=\"Limited\">Ltd.</abbr> fined $60,000.00 for offences under the <i>Meat Inspection Act</i>",
        "fr": "<span lang=\"en\">Pine Creek Farms Manitoba <abbr title=\"Limited\">Ltd.</abbr></span> re\u00e7oit une amende de 60 000 $ en raison d'infractions \u00e0 la <i>Loi sur l\u2019inspection des viandes</i>"
    },
    "html_modified": "2024-01-26 2:23:17 PM",
    "modified": "2016-06-22",
    "issued": "2016-06-22",
    "teamsite_location": {
        "en": "/default/main/inspection/cont-cont/pros-judi/STAGING/templatedata/comn-comn/pros-judi/data/20160622_1466623979688_eng",
        "fr": "/default/main/inspection/cont-cont/pros-judi/STAGING/templatedata/comn-comn/pros-judi/data/20160622_1466623979688_fra"
    },
    "ia_id": "1466623982056",
    "parent_ia_id": "1299852705293",
    "chronicletopic": {
        "en": "",
        "fr": ""
    },
    "chroniclecontent": {
        "en": "",
        "fr": ""
    },
    "chronicleaudience": {
        "en": "",
        "fr": ""
    },
    "sfcrdocumenttype": {
        "en": "",
        "fr": ""
    },
    "sfcraudience": {
        "en": "",
        "fr": ""
    },
    "sfcrmethodofproduction": {
        "en": "",
        "fr": ""
    },
    "activity": {
        "en": "",
        "fr": ""
    },
    "commodity": {
        "en": "",
        "fr": ""
    },
    "program": {
        "en": "",
        "fr": ""
    },
    "search_type": "other",
    "parent_node_id": "1299852705293",
    "layout_name": "content page 1 column",
    "breadcrumb": {
        "en": "Pine Creek Farms Manitoba <abbr title=\"Limited\">Ltd.</abbr> fined $60,000.00 for offences under the <i>Meat Inspection Act</i>",
        "fr": "<span lang=\"en\">Pine Creek Farms Manitoba <abbr title=\"Limited\">Ltd.</abbr></span> re\u00e7oit une amende de 60 000 $ en raison d'infractions \u00e0 la <i>Loi sur l\u2019inspection des viandes</i>"
    },
    "label": {
        "en": "Pine Creek Farms Manitoba <abbr title=\"Limited\">Ltd.</abbr> fined $60,000.00 for offences under the <i>Meat Inspection Act</i>",
        "fr": "<span lang=\"en\">Pine Creek Farms Manitoba <abbr title=\"Limited\">Ltd.</abbr></span> re\u00e7oit une amende de 60 000 $ en raison d'infractions \u00e0 la <i>Loi sur l\u2019inspection des viandes</i>"
    },
    "templatetype": "content page 1 column",
    "node_id": "1466623982056",
    "managing_branch": "comn",
    "type_name": "pros-judi",
    "dcr_type": "pros-judi",
    "parent_dcr_id": "1298575869119",
    "has_dcr_id": true,
    "lang": "en",
    "could_not_load": 0,
    "refaire": false,
    "interwoven_url": {
        "en": "/about-cfia/media-relations/prosecution-bulletins/2016-06-22/",
        "fr": "/a-propos-de-l-acia/relations-avec-les-medias/bulletins-judiciaires/2016-06-22/"
    },
    "meta": {
        "viewport": {
            "en": "width=device-width,initial-scale=1",
            "fr": "width=device-width,initial-scale=1"
        },
        "service": {
            "en": "CFIA-ACIA",
            "fr": "CFIA-ACIA"
        },
        "accessRights": {
            "en": "2",
            "fr": "2"
        },
        "title": {
            "en": "Pine Creek Farms Manitoba Ltd. fined $60,000.00 for offences under the Meat Inspection Act",
            "fr": "Pine Creek Farms Manitoba Ltd. re\u00e7oit une amende de 60 000 $ en raison d'infractions \u00e0 la Loi sur l\u2019inspection des viandes"
        },
        "description": {
            "en": "On March 14, 2016, in Manitoba Provincial Court in Winnipeg, Pine Creek Farms Manitoba Ltd. entered a guilty plea to one count of contravening subsection 10(2)(a) of the Meat Inspection Act.",
            "fr": "Le 14 mars 2016, \u00e0 la cour provinciale du Manitoba \u00e0 Winnipeg, Pine Creek Farms Manitoba Ltd. a plaid\u00e9 coupable d\u2019un chef d\u2019accusation pour avoir enfreint l\u2019alin\u00e9a 10(2)a) de la Loi sur l\u2019inspection des viandes."
        },
        "keywords": {
            "en": "prosecution bulletin, Pine Creek Farms Manitoba Ltd., Meat Inspection Act, Meat",
            "fr": "bulletins judiciaires, Pine Creek Farms Manitoba Ltd., Loi sur l\u2019inspection des viandes"
        },
        "dcterms.subject": {
            "en": "food,court decisions,imports,legislation,consumer protection,regulation,meat",
            "fr": "aliment,d\u00e9cision du tribunal,importation,l\u00e9gislation,protection du consommateur,r\u00e9glementation,viande"
        },
        "creator": {
            "en": "Government of Canada,Canadian Food Inspection Agency",
            "fr": "Government of Canada,Canadian Food Inspection Agency"
        },
        "language": {
            "en": "eng",
            "fr": "fra"
        },
        "issued": {
            "en": "2016-06-22",
            "fr": "2016-06-22"
        },
        "modified": {
            "en": "2016-06-22",
            "fr": "2016-06-22"
        },
        "type": {
            "en": "media release,reference material",
            "fr": "diffusion aupr\u00e8s des m\u00e9dias,mat\u00e9riel de r\u00e9f\u00e9rence"
        },
        "name": {
            "en": "Government of Canada",
            "fr": "Gouvernement du Canada"
        },
        "areaServed": {
            "en": "Canada",
            "fr": "Canada"
        }
    },
    "h1": {
        "en": "Pine Creek Farms Manitoba Ltd. fined $60,000.00 for offences under the Meat Inspection Act",
        "fr": "Pine Creek Farms Manitoba Ltd. re\u00e7oit une amende de 60 000 $ en raison d'infractions \u00e0 la Loi sur l\u2019inspection des viandes"
    },
    "body": {
        "en": "        \r\n        \n<section id=\"archived\" class=\"alert alert-warning wb-inview\" data-inview=\"archived-bnr\">\n<h2>This page has been archived</h2>\n<p>Information identified as archived is provided for reference, research or record-keeping purposes. It is not subject to the Government of Canada Web Standards and has not been altered or updated since it was archived. Please contact us to request a format other than those available.</p>\n</section>\n\n<section id=\"archived-bnr\" class=\"wb-overlay modal-content overlay-def wb-bar-t\">\n<header>\n<h2 class=\"wb-inv\">Archived</h2>\n</header>\n<p><a href=\"#archived\">This page has been archived.</a></p>\n</section>\n<p>June 22, 2016, Ottawa: On March 14, 2016, in Manitoba Provincial Court in Winnipeg, Pine Creek Farms Manitoba <abbr title=\"Limited\">Ltd.</abbr> entered a guilty plea to one count of contravening subsection 10(2)(a) of the <i>Meat Inspection Act</i>. On May 30, 2016, a joint recommended sentence was accepted, and Pine Creek Farms Manitoba <abbr title=\"Limited\">Ltd.</abbr> was ordered to pay a fine of $60,000.00.</p>\n<p>The Canadian Food Inspection Agency's (CFIA's) investigation determined that between May 10, 2007, and October 6, 2011, Pine Creek Farms Manitoba <abbr title=\"Limited\">Ltd.</abbr> sold turkeys and chickens and illegally transported them between Manitoba and Saskatchewan, in contravention of subsection 10(2)(a) of the <i>Meat Inspection Act</i>.</p>\n<p>Subsection 10(2)(a) of the <i>Meat Inspection Act</i> indicates that no person shall advertise or sell, or have in their possession meat products that do not comply with prescribed\u00a0 standards and that have been conveyed from one province to another.</p>\n<p>Pine Creek Farms Manitoba <abbr title=\"Limited\">Ltd.</abbr> is not a federally registered facility and, as such, under the <i>Meat Inspection Act </i>and <i>Regulations</i>, cannot legally transport chickens and turkeys from one province to another.</p>\n<p>The <abbr title=\"Canadian Food Inspection Agency\">CFIA</abbr> is responsible for administering and enforcing federal legislation, acts and regulations, including the <i>Meat Inspection Act</i> and <i>Regulations.</i></p>\n<p>The <abbr title=\"Canadian Food Inspection Agency\">CFIA</abbr> is dedicated to safeguarding food, animal, and plant health, which enhances the health and well-being of Canada's people, environment, and economy.</p>\n<h2>Media Inquiries:</h2>\n<p><abbr title=\"Canadian Food Inspection Agency\">CFIA</abbr> Media Relations 613-773-6600</p>\r\n\r\n\r\n\r\n\r\n<div class=\"row\">\r\n \r\n\t\r\n\t\t\t\r\n\r\n<div class=\"col-xm-12 pagedetails container\">\r\n\t\t\t\t\r\n\r\n</div>\r\n\t\r\n</div>",
        "fr": "\r\n        \r\n        \n<section id=\"archived\" class=\"alert alert-warning wb-inview\" data-inview=\"archived-bnr\">\n<h2>Cette page a \u00e9t\u00e9 archiv\u00e9e</h2>\n<p>L'information dont il est indiqu\u00e9 qu'elle est archiv\u00e9e est fournie \u00e0 des fins de r\u00e9f\u00e9rence, de recherche ou de tenue de documents. Elle n'est pas assujettie aux normes Web du gouvernement du Canada et elle n'a pas \u00e9t\u00e9 modifi\u00e9e ou mise \u00e0 jour depuis son archivage. Pour obtenir cette information dans un autre format, veuillez communiquer avec nous.</p>\n</section>\n\n<section id=\"archived-bnr\" class=\"wb-overlay modal-content overlay-def wb-bar-t\">\n<header>\n<h2 class=\"wb-inv\">Archiv\u00e9e</h2>\n</header>\n<p><a href=\"#archived\">Cette page a \u00e9t\u00e9 archiv\u00e9e.</a></p>\n</section>\n<p>Le 22 juin 2016, Ottawa : Le 14 mars 2016, \u00e0 la cour provinciale du Manitoba \u00e0 Winnipeg, <span lang=\"en\">Pine Creek Farms Manitoba <abbr title=\"Limited\">Ltd.</abbr></span> a plaid\u00e9 coupable d'un chef d'accusation pour avoir enfreint l'alin\u00e9a 10(2)a) de la <i>Loi sur l'inspection des viandes</i>. Le 30 mai 2016, une recommandation conjointe a \u00e9t\u00e9 accept\u00e9e et <span lang=\"en\">Pine Creek Farms Manitoba <abbr title=\"Limited\">Ltd.</abbr></span> a re\u00e7u l'ordre de payer une amende de 60 000 $.</p>\n<p>L'enqu\u00eate de l'Agence canadienne d'inspection des aliments (ACIA) a r\u00e9v\u00e9l\u00e9 qu'entre le 10 mai 2007 et le 6 octobre 2011, <span lang=\"en\">Pine Creek Farms Manitoba <abbr title=\"Limited\">Ltd.</abbr></span> a vendu des dindons et des poulets et les a transport\u00e9s ill\u00e9galement entre le Manitoba et la Saskatchewan, en contravention de l'alin\u00e9a 10(2)a) de la <i>Loi sur l'inspection des viandes</i>.</p>\n<p>L'alin\u00e9a 10(2)a) de la <i>Loi sur l'inspection des viandes</i> interdit d'annoncer au moyen de publicit\u00e9, de vendre ou d'avoir en sa possession des produits de viande qui ne sont pas conformes aux normes r\u00e9glementaires et qui ont \u00e9t\u00e9 transport\u00e9s d'une province \u00e0 une autre.</p>\n<p><span lang=\"en\">Pine Creek Farms Manitoba <abbr title=\"Limited\">Ltd.</abbr></span> n'est pas un \u00e9tablissement agr\u00e9\u00e9 par le gouvernement f\u00e9d\u00e9ral, et ne peut donc pas, selon la <i>Loi sur l'inspection des viandes</i> et le r\u00e8glement d'application, l\u00e9galement transporter des poulets et des dindons d'une province \u00e0 l'autre.</p>\n<p>L'<abbr title=\"Agence canadienne d'inspection des aliments\">ACIA</abbr> contr\u00f4le l'application d'un ensemble de lois et r\u00e8glements f\u00e9d\u00e9raux, dont la <i>Loi sur l'inspection des viandes</i> et son r\u00e8glement d'application.</p>\n<p>L'<abbr title=\"Agence canadienne d'inspection des aliments\">ACIA</abbr> a pour mandat de veiller \u00e0 la salubrit\u00e9 des aliments, de pr\u00e9server la sant\u00e9 des animaux et de prot\u00e9ger les v\u00e9g\u00e9taux afin de contribuer \u00e0 la sant\u00e9 et au bien-\u00eatre de la population canadienne, de prot\u00e9ger l'environnement et de veiller \u00e0 la viabilit\u00e9 de l'\u00e9conomie.</p>\n\n<h2>Demandes de renseignements des m\u00e9dias\u00a0:</h2>\n<p>Relations avec les m\u00e9dias \u2013 <abbr title=\"Agence canadienne d'inspection des aliments\">ACIA</abbr>, 613-773-6600</p>\r\n\r\n\r\n<div class=\"row\">\r\n \r\n\t\t\t\r\n\t\t\t\r\n\r\n\t\t\r\n\t\r\n</div>"
    },
    "js": {
        "en": "",
        "fr": ""
    },
    "success": true,
    "chat_wizard": false
}