{
    "dcr_id": "1478189360279",
    "title": {
        "en": "Robert Kropelnicki and Gordon P. Kropelnicki Fined $1,000 each for Offences Under the <i>Health of Animals Regulations</i>",
        "fr": "Robert Kropelnicki et Gordon P. Kropelnicki tous deux frapp\u00e9 d'une amende de 1\u00a0000\u00a0$ pour avoir enfreint le <i>R\u00e8glement sur la sant\u00e9 des animaux</i>"
    },
    "html_modified": "2024-01-26 2:23:28 PM",
    "modified": "2016-11-03",
    "issued": "2016-11-03",
    "teamsite_location": {
        "en": "/default/main/inspection/cont-cont/pros-judi/STAGING/templatedata/comn-comn/pros-judi/data/20161103_1478189360279_eng",
        "fr": "/default/main/inspection/cont-cont/pros-judi/STAGING/templatedata/comn-comn/pros-judi/data/20161103_1478189360279_fra"
    },
    "ia_id": "1478189360945",
    "parent_ia_id": "1299852705293",
    "chronicletopic": {
        "en": "",
        "fr": ""
    },
    "chroniclecontent": {
        "en": "",
        "fr": ""
    },
    "chronicleaudience": {
        "en": "",
        "fr": ""
    },
    "sfcrdocumenttype": {
        "en": "",
        "fr": ""
    },
    "sfcraudience": {
        "en": "",
        "fr": ""
    },
    "sfcrmethodofproduction": {
        "en": "",
        "fr": ""
    },
    "activity": {
        "en": "",
        "fr": ""
    },
    "commodity": {
        "en": "",
        "fr": ""
    },
    "program": {
        "en": "",
        "fr": ""
    },
    "search_type": "other",
    "parent_node_id": "1299852705293",
    "layout_name": "content page 1 column",
    "breadcrumb": {
        "en": "Robert Kropelnicki and Gordon P. Kropelnicki Fined $1,000 each for Offences Under the <i>Health of Animals Regulations</i>",
        "fr": "Robert Kropelnicki et Gordon P. Kropelnicki tous deux frapp\u00e9 d'une amende de 1\u00a0000\u00a0$ pour avoir enfreint le <i>R\u00e8glement sur la sant\u00e9 des animaux</i>"
    },
    "label": {
        "en": "Robert Kropelnicki and Gordon P. Kropelnicki Fined $1,000 each for Offences Under the <i>Health of Animals Regulations</i>",
        "fr": "Robert Kropelnicki et Gordon P. Kropelnicki tous deux frapp\u00e9 d'une amende de 1\u00a0000\u00a0$ pour avoir enfreint le <i>R\u00e8glement sur la sant\u00e9 des animaux</i>"
    },
    "templatetype": "content page 1 column",
    "node_id": "1478189360945",
    "managing_branch": "comn",
    "type_name": "pros-judi",
    "dcr_type": "pros-judi",
    "parent_dcr_id": "1298575869119",
    "has_dcr_id": true,
    "lang": "en",
    "could_not_load": 0,
    "refaire": false,
    "interwoven_url": {
        "en": "/about-cfia/media-relations/prosecution-bulletins/2016-11-03/",
        "fr": "/a-propos-de-l-acia/relations-avec-les-medias/bulletins-judiciaires/2016-11-03/"
    },
    "meta": {
        "viewport": {
            "en": "width=device-width,initial-scale=1",
            "fr": "width=device-width,initial-scale=1"
        },
        "service": {
            "en": "CFIA-ACIA",
            "fr": "CFIA-ACIA"
        },
        "accessRights": {
            "en": "2",
            "fr": "2"
        },
        "title": {
            "en": "Robert Kropelnicki and Gordon P. Kropelnicki Fined $1,000 each for Offences Under the Health of Animals Regulations",
            "fr": "Robert Kropelnicki et Gordon P. Kropelnicki tous deux frapp\u00e9 d'une amende de 1\u00a0000\u00a0$ pour avoir enfreint le R\u00e8glement sur la sant\u00e9 des animaux"
        },
        "description": {
            "en": "On September 29, 2016, at the Manitoba Provincial Court in Dauphin, Manitoba, Robert Kropelnicki and Gordon P. Kropelnicki entered a guilty plea to one count each of contravening subsection 138(2)(a) of the Health of Animals Regulations and were ordered to pay a fine of $1,000 each.",
            "fr": "Le 29 septembre 2016, devant la Cour provinciale du Manitoba \u00e0 Dauphin, au Manitoba, Robert Kropelnicki et Gordon P. Kropelnicki ont plaid\u00e9 coupable d'un chef d'accusation pour avoir enfreint l'alin\u00e9a 138(2)a) du R\u00e8glement sur la sant\u00e9 des animaux et se sont vus imposer une amende de 1 000 $ chacun."
        },
        "keywords": {
            "en": "prosecution bulletin, Robert Kropelnicki, Gordon P. Kropelnicki, Health of Animals Regulations, Dauphin, transport, cows",
            "fr": "bulletins judiciaires, Robert Kropelnicki, Gordon P. Kropelnicki, R\u00e8glement sur la sant\u00e9 des animaux, Dauphin, vaches, transportation"
        },
        "dcterms.subject": {
            "en": "court decisions,legislation,regulation,animal health",
            "fr": "d\u00e9cision du tribunal,l\u00e9gislation,r\u00e9glementation,sant\u00e9 animale"
        },
        "creator": {
            "en": "Government of Canada,Canadian Food Inspection Agency",
            "fr": "Gouvernement du Canada,Agence canadienne d'inspection des aliments"
        },
        "language": {
            "en": "eng",
            "fr": "fra"
        },
        "issued": {
            "en": "2016-11-03",
            "fr": "2016-11-03"
        },
        "modified": {
            "en": "2016-11-03",
            "fr": "2016-11-03"
        },
        "audience": {
            "en": "business,government,general public,media",
            "fr": "entreprises,gouvernement,grand public,m\u00e9dia"
        },
        "name": {
            "en": "Government of Canada",
            "fr": "Gouvernement du Canada"
        },
        "areaServed": {
            "en": "Canada",
            "fr": "Canada"
        }
    },
    "h1": {
        "en": "Robert Kropelnicki and Gordon P. Kropelnicki Fined $1,000 each for Offences Under the Health of Animals Regulations",
        "fr": "Robert Kropelnicki et Gordon P. Kropelnicki tous deux frapp\u00e9 d'une amende de 1\u00a0000\u00a0$ pour avoir enfreint le R\u00e8glement sur la sant\u00e9 des animaux"
    },
    "body": {
        "en": "        \r\n        \n<section id=\"archived\" class=\"alert alert-warning wb-inview\" data-inview=\"archived-bnr\">\n<h2>This page has been archived</h2>\n<p>Information identified as archived is provided for reference, research or record-keeping purposes. It is not subject to the Government of Canada Web Standards and has not been altered or updated since it was archived. Please contact us to request a format other than those available.</p>\n</section>\n\n<section id=\"archived-bnr\" class=\"wb-overlay modal-content overlay-def wb-bar-t\">\n<header>\n<h2 class=\"wb-inv\">Archived</h2>\n</header>\n<p><a href=\"#archived\">This page has been archived.</a></p>\n</section>\n\n<p>November 3, 2016, Ottawa: On September 29, 2016, at the Manitoba Provincial Court in Dauphin, Manitoba, Robert Kropelnicki and Gordon P. Kropelnicki entered a guilty plea to one count each of contravening subsection 138(2)(a) of the <i>Health of Animals Regulations</i> and were ordered to pay a fine of $1,000 each.</p> \n\n<p>The <abbr title=\"Canadian Food Inspection Agency\">CFIA</abbr>'s investigation determined that on or between January 8, 2015 and January 9, 2015, at or between Sifton and Carman, Manitoba, Robert Kropelnicki and Gordon P. Kropelnicki loaded and transported cows that were not suitable for transport, contrary to paragraph 138(2)(a) of the <i>Health of Animals Regulations</i>.</p>\n\n<p>Subsection 138(2)(a) of the <i>Health of Animals Regulations</i> indicates that subject to subsection (3), no person shall load or cause to be loaded on any railway car, motor vehicle, aircraft or vessel and no one shall transport or cause to be transported an animal that by reason of infirmity, illness, injury, fatigue or any other cause cannot be transported without undue suffering during the expected journey.</p> \n\n<p>The <abbr title=\"Canadian Food Inspection Agency\">CFIA</abbr> is responsible for the administration and enforcement of federal legislation, acts and regulations, including the <i>Health of Animals Act</i> and <i>Regulations</i>. The <abbr title=\"Canadian Food Inspection Agency\">CFIA</abbr> is dedicated to safeguarding food, animal, and plant health, which enhances the health and well-being of Canada's people, environment, and economy.</p>\n\n<h2>Media Inquiries:</h2>\n\n<p><abbr title=\"Canadian Food Inspection Agency\">CFIA</abbr> Media Relations<br> 613-773-6600</p>\r\n\r\n\r\n\r\n\r\n<div class=\"row\">\r\n \r\n\t\r\n\t\t\t\r\n\r\n<div class=\"col-xm-12 pagedetails container\">\r\n\t\t\t\t\r\n\r\n</div>\r\n\t\r\n</div>",
        "fr": "\r\n        \r\n        \n<section id=\"archived\" class=\"alert alert-warning wb-inview\" data-inview=\"archived-bnr\">\n<h2>Cette page a \u00e9t\u00e9 archiv\u00e9e</h2>\n<p>L'information dont il est indiqu\u00e9 qu'elle est archiv\u00e9e est fournie \u00e0 des fins de r\u00e9f\u00e9rence, de recherche ou de tenue de documents. Elle n'est pas assujettie aux normes Web du gouvernement du Canada et elle n'a pas \u00e9t\u00e9 modifi\u00e9e ou mise \u00e0 jour depuis son archivage. Pour obtenir cette information dans un autre format, veuillez communiquer avec nous.</p>\n</section>\n\n<section id=\"archived-bnr\" class=\"wb-overlay modal-content overlay-def wb-bar-t\">\n<header>\n<h2 class=\"wb-inv\">Archiv\u00e9e</h2>\n</header>\n<p><a href=\"#archived\">Cette page a \u00e9t\u00e9 archiv\u00e9e.</a></p>\n</section>\n\n<p>Le 3 novembre 2016, Ottawa : Le 29 septembre 2016, devant la Cour provinciale du Manitoba \u00e0 Dauphin, au Manitoba, Robert Kropelnicki et Gordon P. Kropelnicki ont plaid\u00e9 coupable d'un chef d'accusation pour avoir enfreint l'alin\u00e9a 138(2)a) du <i>R\u00e8glement sur la sant\u00e9 des animaux</i> et se sont vus imposer une amende de 1\u00a0000\u00a0$ chacun.</p>\n\n<p>L'enqu\u00eate de l'Agence canadienne d'inspection des aliments (ACIA) a r\u00e9v\u00e9l\u00e9 que le 8\u00a0janvier\u00a02015 ou entre le 8 et le 9\u00a0janvier\u00a02015, \u00e0 Sifton ou entre Sifton et Carman, au Manitoba, Robert Kropelnicki et Gordon P. Kropelnicki ont charg\u00e9 et transport\u00e9 des vaches qui n'\u00e9taient pas aptes au transport, ce qui constitue une infraction \u00e0 l'alin\u00e9a 138(2)a) du <i>R\u00e8glement sur la sant\u00e9 des animaux</i>.</p>\n\n<p>Selon l'alin\u00e9a 138(2)a) du <i>R\u00e8glement sur la sant\u00e9 des animaux</i>, \u00ab\u00a0sous r\u00e9serve du paragraphe (3), il est interdit de charger ou de faire charger, ou de transporter ou de faire transporter, \u00e0 bord d'un wagon de chemin de fer, d'un v\u00e9hicule \u00e0 moteur, d'un a\u00e9ronef ou d'un navire un animal qui, pour des raisons d'infirmit\u00e9, de maladie, de blessure, de fatigue ou pour toute autre cause, ne peut \u00eatre transport\u00e9 sans souffrances indues au cours du voyage pr\u00e9vu.\u00a0\u00bb</p>\n\n<p>L'<abbr title=\"Agence canadienne d'inspection des aliments\">ACIA</abbr> est charg\u00e9e de l'application de lois et de r\u00e8glements f\u00e9d\u00e9raux, y compris la <i>Loi sur la sant\u00e9 des animaux</i> et son r\u00e8glement d'application. Elle veille \u00e0 la sant\u00e9 et au bien-\u00eatre des Canadiens et \u00e0 la protection de l'environnement et de l'\u00e9conomie en pr\u00e9servant la salubrit\u00e9 des aliments et la sant\u00e9 des animaux et en prot\u00e9geant les v\u00e9g\u00e9taux.</p>\n\n<h2>Demandes des m\u00e9dias\u00a0:</h2>\n\n<p>Relations avec les m\u00e9dias de l'<abbr title=\"Agence canadienne d'inspection des aliments\">ACIA</abbr><br> \n</p>\r\n\r\n\r\n<div class=\"row\">\r\n \r\n\t\t\t\r\n\t\t\t\r\n\r\n\t\t\r\n\t\r\n</div>"
    },
    "js": {
        "en": "",
        "fr": ""
    },
    "success": true,
    "chat_wizard": false
}