{
    "dcr_id": "1300208455751",
    "title": {
        "en": "Plants with Novel Traits Which Are Under Review or Have Been Approved for Confined or Unconfined Release in Canada",
        "fr": "V\u00e9g\u00e9taux \u00e0 caract\u00e8res nouveaux qui ont \u00e9t\u00e9 approuv\u00e9s aux fins de diss\u00e9mination dans l'environnement au Canada, tant en conditions confin\u00e9es qu'en milieu ouvert"
    },
    "html_modified": "2015-04-02 09:18",
    "modified": "2-4-2015",
    "issued": "2-4-2015",
    "teamsite_location": {
        "en": "/default/main/inspection/cont-cont/cfiaadmin-adminacia/WORKAREA/cfiaadmin-adminacia/templatedata/comn-comn/gene-gene/data/plan_pnts_approv_1300208455751_eng",
        "fr": "/default/main/inspection/cont-cont/cfiaadmin-adminacia/WORKAREA/cfiaadmin-adminacia/templatedata/comn-comn/gene-gene/data/plan_pnts_approv_1300208455751_fra"
    },
    "parent_ia_id": "1300137939635",
    "ia_id": "1300208520765",
    "parent_node_id": "1300137939635",
    "layout_name": "content page 1 column",
    "breadcrumb": {
        "en": "Plants with Novel Traits Which Are Under Review or Have Been Approved for Confined or Unconfined Release in Canada",
        "fr": "V\u00e9g\u00e9taux \u00e0 caract\u00e8res nouveaux qui ont \u00e9t\u00e9 approuv\u00e9s aux fins de diss\u00e9mination dans l'environnement au Canada, tant en conditions confin\u00e9es qu'en milieu ouvert"
    },
    "label": {
        "en": "Plants with Novel Traits Which Are Under Review or Have Been Approved for Confined or Unconfined Release in Canada",
        "fr": "V\u00e9g\u00e9taux \u00e0 caract\u00e8res nouveaux qui ont \u00e9t\u00e9 approuv\u00e9s aux fins de diss\u00e9mination dans l'environnement au Canada, tant en conditions confin\u00e9es qu'en milieu ouvert"
    },
    "templatetype": "content page 1 column",
    "node_id": "1300208520765",
    "managing_branch": "comn",
    "type_name": "sitemapinit",
    "dcr_type": "gene-gene",
    "parent_dcr_id": "1300137887237",
    "orig_type_name": "sitemapinit",
    "has_dcr_id": true,
    "lang": "en",
    "could_not_load": 0,
    "refaire": false,
    "interwoven_url": {
        "en": "/plant-varieties/plants-with-novel-traits/approved-under-review/",
        "fr": "/varietes-vegetales/vegetaux-a-caracteres-nouveaux/approuves-cours-d-evaluation/"
    },
    "meta": {
        "viewport": {
            "en": "width=device-width,initial-scale=1",
            "fr": "width=device-width,initial-scale=1"
        },
        "service": {
            "en": "CFIA-ACIA",
            "fr": "CFIA-ACIA"
        },
        "accessRights": {
            "en": "2",
            "fr": "2"
        },
        "title": {
            "en": "Plants with Novel Traits Which Are Under Review or Have Been Approved for Confined or Unconfined Release in Canada",
            "fr": "V\u00e9g\u00e9taux \u00e0 caract\u00e8res nouveaux qui ont \u00e9t\u00e9 approuv\u00e9s aux fins de diss\u00e9mination dans l'environnement au Canada, tant en conditions confin\u00e9es qu'en milieu ouvert"
        },
        "description": {
            "en": "Information on PNTs Which Are Under Review or Have Been Approved for Confined or Unconfined Release in CanadaPNTs: Approved and Under Review Summary and detailed tables of all previously approved confined research field trials of PNTs.",
            "fr": "VCN approuv\u00e9s pour \u00eatre diss\u00e9min\u00e9s : VCN qui ont \u00e9t\u00e9 produits dans le cadre dessais au champ en conditions confin\u00e9es VCN approuv\u00e9s pour \u00eatre diss\u00e9min\u00e9s en milieu ouvert Base de donn\u00e9es des VCN approuv\u00e9s au Canada Documents des d\u00e9cisions pour les VCN approuv\u00e9s R\u00e9glementation de la diss\u00e9mination en milieu ouvert des produits v\u00e9g\u00e9taux pr\u00e9sentant des caract\u00e8res empil\u00e9s au Canada VCN en cours d\u00e9tude : Avis sur le projet de demandes dapprobation de l ACIA"
        },
        "keywords": {
            "en": "Under Review Summary, approved confined research field trial, Approved PNTs Database of Approved PNT, Canada PNTs, Have Been Approved",
            "fr": "conditions confin\u00e9es, essais de recherche, caract\u00e8res nouveaux, milieu ouvert, Base de donn\u00e9es des VCN"
        },
        "dcterms.subject": {
            "en": "insects,inspection,plant diseases,plants",
            "fr": "insecte,inspection,maladie des plantes,plante"
        },
        "creator": {
            "en": "Government of Canada,Canadian Food Inspection Agency,Plant Health and Biosecurity Directorate",
            "fr": "Gouvernement du Canada,Agence canadienne d'inspection des aliments,Direction de la protection des v\u00e9g\u00e9taux et bios\u00e9curit\u00e9"
        },
        "language": {
            "en": "eng",
            "fr": "fra"
        },
        "issued": {
            "en": "2015-04-02 09:18:44",
            "fr": "2015-04-02 09:18:44"
        },
        "modified": {
            "en": "2015-04-02",
            "fr": "2015-04-02"
        },
        "type": {
            "en": "reference material",
            "fr": "mat\u00e9riel de r\u00e9f\u00e9rence"
        },
        "audience": {
            "en": "business,government,general public",
            "fr": "entreprises,gouvernement,grand public"
        },
        "name": {
            "en": "Government of Canada",
            "fr": "Gouvernement du Canada"
        },
        "areaServed": {
            "en": "Canada",
            "fr": "Canada"
        }
    },
    "h1": {
        "en": "Plants with Novel Traits Which Are Under Review or Have Been Approved for Confined or Unconfined Release in Canada",
        "fr": "V\u00e9g\u00e9taux \u00e0 caract\u00e8res nouveaux qui ont \u00e9t\u00e9 approuv\u00e9s aux fins de diss\u00e9mination dans l'environnement au Canada, tant en conditions confin\u00e9es qu'en milieu ouvert"
    },
    "js": {
        "en": "",
        "fr": ""
    },
    "body": {
        "en": "        \r\n        \n\n<h2>PNTs approved for release</h2>\n\n<p>Summary and detailed tables of all previously approved confined research field trials of PNTs. Terms and conditions imposed on approved confined research field trials.</p>\n\n<ul>\n<li><a href=\"/plant-varieties/plants-with-novel-traits/approved-under-review/field-trials/eng/1313872595333/1313873672306\">PNTs Which Have Been Grown in Confined Research Field Trials</a></li>\n<li>PNTs Which Have Been Approved for Unconfined Environmental Release\n<ul>\n<li><a href=\"/plant-varieties/plants-with-novel-traits/approved-under-review/decision-documents/eng/1303704378026/1303704484236\">Decision Documents for Approved PNTs</a></li>\n<li><a href=\"/active/netapp/plantnoveltraitpnt-vegecarnouvcn/pntvcne.aspx\">Database of Approved PNTs in Canada</a></li>\n<li><a href=\"/plant-varieties/plants-with-novel-traits/approved-under-review/stacked-traits/eng/1337653008661/1337653513037\">Regulating the Environmental Release of Stacked Plant Products in Canada</a></li>\n</ul>\n\n</li>\n</ul>\n\n<h2>PNTs under review</h2>\n\n<p>The CFIA and Health Canada post \"notices of submission\" on the CFIA website that describe the product and the data they receive from certain product developers who have requested safety assessments of plants with novel traits (PNTs) for unconfined release and safety assessments of novel feeds and novel foods derived from PNTs.</p>\n\n<ul>\n<li><a href=\"/plant-varieties/plants-with-novel-traits/notices-of-submission/eng/1300143491851/\">Notices of Submissions Project</a></li>\n</ul>\n\n<h2>Insect Resistance Management</h2>\n\n<p>Information related to the insect resistance management requirements for plants expressing novel insect resistance.</p>\n\n<ul>\n<li><a href=\"/plant-varieties/plants-with-novel-traits/approved-under-review/bt-corn-hybrids/eng/1337841721387/1337841777712\">Bt corn hybrids provide producers with an effective management tool against insect pests such as European corn borer and corn rootworm</a></li>\n<li><a href=\"/plant-varieties/plants-with-novel-traits/approved-under-review/bt-corn-irm/eng/1337537826332/1337537939113\">Insect Resistance Management of Bt Corn in Canada</a></li>\n<li><a href=\"/plant-varieties/plants-with-novel-traits/approved-under-review/irm-bt-potatoes/eng/1337453695625/1337533683592\">Insect Resistance Management Plan for Bt Potatoes Grown in Canada</a></li>\n</ul>\n\n<p>Access <a href=\"http://webarchive.bac-lac.gc.ca/?lang=en\">older reports relating to Bt Crops</a> through the Library and Archives Canada Government of Canada Web Archive</p>\n\r\n        \r\n\r\n\r\n\r\n<div class=\"row\">\r\n \r\n\t\r\n\t\t\t\r\n\r\n<div class=\"col-xm-12 pagedetails container\">\r\n\t\t\t\t\r\n\r\n</div>\r\n\t\r\n</div>",
        "fr": "\r\n        \r\n        \n\n\n<h2>VCN approuv\u00e9s pour \u00eatre diss\u00e9min\u00e9s</h2>\nR\u00e9sum\u00e9 et tableaux d\u00e9taill\u00e9s de tous les essais de recherche au champ en conditions confin\u00e9es auparavant approuv\u00e9s de v\u00e9g\u00e9taux \u00e0 caract\u00e8res nouveaux (VCN). Conditions particuli\u00e8res impos\u00e9es sur les essais de recherche au champ en conditions confin\u00e9es.\n<ul>\n<li><a href=\"/varietes-vegetales/vegetaux-a-caracteres-nouveaux/approuves-cours-d-evaluation/essais-au-champ/fra/1313872595333/1313873672306\">VCN qui ont \u00e9t\u00e9 produits dans le cadre d'essais au champ en conditions confin\u00e9es</a></li>\n<li>VCN approuv\u00e9s pour \u00eatre diss\u00e9min\u00e9s en milieu ouvert\n<ul>\n<li><a href=\"/active/netapp/plantnoveltraitpnt-vegecarnouvcn/pntvcnf.aspx\">Base de donn\u00e9es des VCN approuv\u00e9s au Canada</a></li>\n<li><a href=\"/varietes-vegetales/vegetaux-a-caracteres-nouveaux/approuves-cours-d-evaluation/documents-des-decisions/fra/1303704378026/1303704484236\">Documents des d\u00e9cisions pour les VCN approuv\u00e9s</a></li>\n<li><a href=\"/varietes-vegetales/vegetaux-a-caracteres-nouveaux/approuves-cours-d-evaluation/caracteres-empiles/fra/1337653008661/1337653513037\">R\u00e9glementation de la diss\u00e9mination en milieu ouvert des produits v\u00e9g\u00e9taux pr\u00e9sentant des caract\u00e8res empil\u00e9s au Canada</a></li>\n</ul>\n\n</li>\n</ul>\n\n<h2>VCN en cours d'\u00e9tude</h2>\n\n<p>L'ACIA et Sant\u00e9 Canada affichent sur leurs sites Web, des \u00ab\u00a0avis de demande d'approbation\u00a0\u00bb ces avis d\u00e9crivent le produit et les donn\u00e9es re\u00e7ues par certains concepteurs lors de la soumission de leurs demandes d'approbation pour la diss\u00e9mination en milieu ouvert dans l'environnement de v\u00e9g\u00e9taux \u00e0 caract\u00e8res nouveaux (VCN) ainsi de leur utilisation comme aliments nouveau destin\u00e9s \u00e0 la consommation animale et \u00e0 la consommation humaine.</p>\n\n<ul>\n<li><a href=\"/varietes-vegetales/vegetaux-a-caracteres-nouveaux/avis-de-demande-d-approbation/fra/1300143491851/\">Avis sur le projet de demandes d'approbation</a></li>\n</ul>\n\n<h2>Gestion de la r\u00e9sistance des insectes</h2>\n\n<p>Renseignements sur les exigences de gestion de la r\u00e9sistance aux insectes chez les v\u00e9g\u00e9taux qui montrent une r\u00e9sistance nouvelle aux insectes.</p>\n\n<ul>\n<li><a href=\"/varietes-vegetales/vegetaux-a-caracteres-nouveaux/approuves-cours-d-evaluation/mais-bt-gri/fra/1337537826332/1337537939113\">Gestion de la r\u00e9sistance des insectes au ma\u00efs Bt au Canada</a></li>\n<li><a href=\"/varietes-vegetales/vegetaux-a-caracteres-nouveaux/approuves-cours-d-evaluation/mais-hybrides-bt/fra/1337841721387/1337841777712\">Les ma\u00efs hybrides Bt fournissent aux producteurs un outil de gestion efficace contre la pyrale et la chrysom\u00e8le du ma\u00efs</a></li>\n<li><a href=\"/varietes-vegetales/vegetaux-a-caracteres-nouveaux/approuves-cours-d-evaluation/pomme-de-terre-bt-gri/fra/1337453695625/1337533683592\">Plan de gestion de la r\u00e9sistance des insectes (GRI) pour la culture de la pomme de terre Bt au Canada</a></li>\n</ul>\n\n<p><a href=\"http://webarchive.bac-lac.gc.ca/?lang=fr\">Consulter les rapports ant\u00e9rieurs sur les cultures Bt</a> dans les Archives du Web du gouvernement du Canada de Biblioth\u00e8que et Archives Canada.</p>\n\r\n        \r\n\r\n<div class=\"row\">\r\n \r\n\t\t\t\r\n\t\t\t\r\n\r\n\t\t\r\n\t\r\n</div>"
    },
    "success": true,
    "chat_wizard": false
}