{
    "dcr_id": "1388152325341",
    "title": {
        "en": "Allergen-free, gluten-free and cross contamination statements",
        "fr": "All\u00e9gations <span class=\"nowrap\">\u00ab\u00a0sans allerg\u00e8ne\u00a0\u00bb</span>, <span class=\"nowrap\">\u00ab\u00a0sans gluten\u00a0\u00bb</span> et mise en garde sur la contamination crois\u00e9e"
    },
    "html_modified": "2013-12-27 08:52",
    "modified": "15-9-2023",
    "issued": "27-12-2013",
    "teamsite_location": {
        "en": "/default/main/inspection/cont-cont/food-aliments/WORKAREA/food-aliments/templatedata/comn-comn/manuals-manuels/data/lble_industry_claims_allergen_gluten_1388152325341_eng",
        "fr": "/default/main/inspection/cont-cont/food-aliments/WORKAREA/food-aliments/templatedata/comn-comn/manuals-manuels/data/lble_industry_claims_allergen_gluten_1388152325341_fra"
    },
    "parent_ia_id": "1383607344939",
    "ia_id": "1388152326591",
    "parent_node_id": "1383607344939",
    "layout_name": "content page 1 column",
    "breadcrumb": {
        "en": "Allergen-free, gluten-free and cross contamination statements",
        "fr": "All\u00e9gations <span class=\"nowrap\">\u00ab\u00a0sans allerg\u00e8ne\u00a0\u00bb</span>, <span class=\"nowrap\">\u00ab\u00a0sans gluten\u00a0\u00bb</span> et mise en garde sur la contamination crois\u00e9e"
    },
    "label": {
        "en": "Allergen-free, gluten-free and cross contamination statements",
        "fr": "All\u00e9gations <span class=\"nowrap\">\u00ab\u00a0sans allerg\u00e8ne\u00a0\u00bb</span>, <span class=\"nowrap\">\u00ab\u00a0sans gluten\u00a0\u00bb</span> et mise en garde sur la contamination crois\u00e9e"
    },
    "templatetype": "content page 1 column",
    "node_id": "1388152326591",
    "managing_branch": "comn",
    "type_name": "sitemapinit",
    "dcr_type": "manuals-manuels",
    "parent_dcr_id": "1383607266489",
    "orig_type_name": "manuals-manuels",
    "has_dcr_id": true,
    "lang": "en",
    "could_not_load": 0,
    "refaire": false,
    "interwoven_url": {
        "en": "/food-labels/labelling/industry/allergens-and-gluten/",
        "fr": "/etiquetage-des-aliments/etiquetage/industrie/allergenes-et-gluten/"
    },
    "meta": {
        "viewport": {
            "en": "width=device-width,initial-scale=1",
            "fr": "width=device-width,initial-scale=1"
        },
        "service": {
            "en": "CFIA-ACIA",
            "fr": "CFIA-ACIA"
        },
        "accessRights": {
            "en": "2",
            "fr": "2"
        },
        "title": {
            "en": "Allergen-free, gluten-free and cross contamination statements",
            "fr": "All\u00e9gations \u00ab\u00a0sans allerg\u00e8ne\u00a0\u00bb, \u00ab\u00a0sans gluten\u00a0\u00bb et mise en garde sur la contamination crois\u00e9e"
        },
        "description": {
            "en": "A mandatory allergen and gluten declaration is required on a prepackaged food label when the allergen or gluten source is added to the food. A cross contamination statement can only be used when an allergen is not deliberately added to a food.",
            "fr": "Les allerg\u00e8nes alimentaires et source de gluten pr\u00e9sents dans un produit pr\u00e9emball\u00e9  doivent figurer sur l'\u00e9tiquette. La mise en garde sur la contamination crois\u00e9e peut  \u00eatre utilis\u00e9e lorsqu'il y a pr\u00e9sence non d\u00e9lib\u00e9r\u00e9e d'allerg\u00e8nes dans l'aliment."
        },
        "keywords": {
            "en": "nutrition labeling, place of business, brand name, dealer, retailer, manufacturer, processor, producer",
            "fr": "l'\u00e9tiquetage nutritionnel, \u00e9tablissement, nom de marque, distributeur, d\u00e9taillant, producteur, transformateur, producteur"
        },
        "dcterms.subject": {
            "en": "agri-food products,consumer protection,food,food inspection,food labeling",
            "fr": "produit agro-alimentaire,protection du consommateur,aliment,inspection des aliments,\u00e9tiquetage des aliments"
        },
        "creator": {
            "en": "Government of Canada,Canadian Food Inspection Agency",
            "fr": "Gouvernement du Canada,Agence canadienne d'inspection des aliments"
        },
        "language": {
            "en": "eng",
            "fr": "fra"
        },
        "issued": {
            "en": "2013-12-27 08:52:06",
            "fr": "2013-12-27 08:52:06"
        },
        "modified": {
            "en": "2023-09-15",
            "fr": "2023-09-15"
        },
        "type": {
            "en": "reference material",
            "fr": "mat\u00e9riel de r\u00e9f\u00e9rence"
        },
        "audience": {
            "en": "business,general public,government",
            "fr": "entreprises,grand public,gouvernement"
        },
        "name": {
            "en": "Government of Canada",
            "fr": "Gouvernement du Canada"
        },
        "areaServed": {
            "en": "Canada",
            "fr": "Canada"
        }
    },
    "h1": {
        "en": "Allergen-free, gluten-free and cross contamination statements",
        "fr": "All\u00e9gations \u00ab\u00a0sans allerg\u00e8ne\u00a0\u00bb, \u00ab\u00a0sans gluten\u00a0\u00bb et mise en garde sur la contamination crois\u00e9e"
    },
    "js": {
        "en": "",
        "fr": ""
    },
    "body": {
        "en": "        \r\n        \n\n\r\n\r\n\r\n\r\n\r\n\r\n<p class=\"small text-right\"><a href=\"/food-labels/labelling/industry/allergens-and-gluten/eng/1388152325341/1388152326591?chap=0\">Complete text</a></p>\r\n\r\n\r\n<h2>On this page</h2>\r\n<ul class=\"list-unstyled col-md-offset-1 mrgn-tp-md mrgn-bttm-md\">\r\n\r\n<li>\r\n<a href=\"/food-labels/labelling/industry/allergens-and-gluten/eng/1388152325341/1388152326591?chap=1\">Overview</a>\r\n\r\n</li>\r\n\r\n<li>\r\n<a href=\"/food-labels/labelling/industry/allergens-and-gluten/eng/1388152325341/1388152326591?chap=2\">Gluten-free claims</a>\r\n\r\n<ul class=\"list-unstyled col-md-offset-1 mrgn-bttm-md\">\r\n\r\n<li>\r\n<a href=\"/food-labels/labelling/industry/allergens-and-gluten/eng/1388152325341/1388152326591?chap=2#s1c2\">Gluten-free versus wheat-free</a>\r\n\r\n</li>\r\n\r\n<li>\r\n<a href=\"/food-labels/labelling/industry/allergens-and-gluten/eng/1388152325341/1388152326591?chap=2#s2c2\">Gluten-free and oats</a>\r\n\r\n</li>\r\n\r\n<li>\r\n<a href=\"/food-labels/labelling/industry/allergens-and-gluten/eng/1388152325341/1388152326591?chap=2#s3c2\">Gluten-free and canary seed</a>\r\n\r\n</li>\r\n\r\n<li>\r\n<a href=\"/food-labels/labelling/industry/allergens-and-gluten/eng/1388152325341/1388152326591?chap=2#s4c2\">Quantitative statements</a>\r\n\r\n</li>\r\n\r\n<li>\r\n<a href=\"/food-labels/labelling/industry/allergens-and-gluten/eng/1388152325341/1388152326591?chap=2#s5c2\">Low gluten or reduced gluten claims</a>\r\n\r\n</li>\r\n\r\n<li>\r\n<a href=\"/food-labels/labelling/industry/allergens-and-gluten/eng/1388152325341/1388152326591?chap=2#s6c2\">Gluten-free beer</a>\r\n\r\n</li>\r\n\r\n<li>\r\n<a href=\"/food-labels/labelling/industry/allergens-and-gluten/eng/1388152325341/1388152326591?chap=2#s7c2\">Gluten-free and vodka</a>\r\n\r\n</li>\r\n\r\n</ul>\r\n\r\n</li>\r\n\r\n<li>\r\n<a href=\"/food-labels/labelling/industry/allergens-and-gluten/eng/1388152325341/1388152326591?chap=3\">Fortification of gluten-free foods</a>\r\n\r\n<ul class=\"list-unstyled col-md-offset-1 mrgn-bttm-md\">\r\n\r\n<li>\r\n<a href=\"/food-labels/labelling/industry/allergens-and-gluten/eng/1388152325341/1388152326591?chap=3#s8c3\">Advertising of gluten-free foods to the general public</a>\r\n\r\n</li>\r\n\r\n</ul>\r\n\r\n</li>\r\n\r\n<li>\r\n<a href=\"/food-labels/labelling/industry/allergens-and-gluten/eng/1388152325341/1388152326591?chap=4\">Food allergen cross contamination (or precautionary) statements</a>\r\n\r\n<ul class=\"list-unstyled col-md-offset-1 mrgn-bttm-md\">\r\n\r\n<li>\r\n<a href=\"/food-labels/labelling/industry/allergens-and-gluten/eng/1388152325341/1388152326591?chap=4#s9c4\">Precautionary labelling of food ingredients</a>\r\n\r\n</li>\r\n\r\n</ul>\r\n\r\n</li>\r\n\r\n<li>\r\n<a href=\"/food-labels/labelling/industry/allergens-and-gluten/eng/1388152325341/1388152326591?chap=5\">Allergen-free claims</a>\r\n\r\n<ul class=\"list-unstyled col-md-offset-1 mrgn-bttm-md\">\r\n\r\n<li>\r\n<a href=\"/food-labels/labelling/industry/allergens-and-gluten/eng/1388152325341/1388152326591?chap=5#s10c5\">\"(Naming the food allergen)-free\" claims</a>\r\n\r\n</li>\r\n\r\n<li>\r\n<a href=\"/food-labels/labelling/industry/allergens-and-gluten/eng/1388152325341/1388152326591?chap=5#s11c5\">Allergen-free claims in conjunction with precautionary labelling</a>\r\n\r\n</li>\r\n\r\n<li>\r\n<a href=\"/food-labels/labelling/industry/allergens-and-gluten/eng/1388152325341/1388152326591?chap=5#s12c5\">General \"allergen-free\" or \"no allergens\" claims</a>\r\n\r\n</li>\r\n\r\n<li>\r\n<a href=\"/food-labels/labelling/industry/allergens-and-gluten/eng/1388152325341/1388152326591?chap=5#s13c5\">\"(Naming the food allergen source)-free\" symbols</a>\r\n\r\n</li>\r\n\r\n<li>\r\n<a href=\"/food-labels/labelling/industry/allergens-and-gluten/eng/1388152325341/1388152326591?chap=5#s14c5\">Wheat-free claims on products containing canary seed</a>\r\n\r\n</li>\r\n\r\n<li>\r\n<a href=\"/food-labels/labelling/industry/allergens-and-gluten/eng/1388152325341/1388152326591?chap=5#s15c5\">\"Does not contain nuts\" claims on products containing coconut</a>\r\n\r\n</li>\r\n\r\n</ul>\r\n\r\n</li>\r\n\r\n<li>\r\n<a href=\"/food-labels/labelling/industry/allergens-and-gluten/eng/1388152325341/1388152326591?chap=6\">Additional information </a>\r\n\r\n<ul class=\"list-unstyled col-md-offset-1 mrgn-bttm-md\">\r\n\r\n<li>\r\n<a href=\"/food-labels/labelling/industry/allergens-and-gluten/eng/1388152325341/1388152326591?chap=6#s16c6\">Information letters/Policy updates </a>\r\n\r\n</li>\r\n\r\n</ul>\r\n\r\n</li>\r\n\r\n</ul>\r\n\r\n\r\n\n\n\r\n        \r\n\r\n\r\n\r\n<div class=\"row\">\r\n \r\n\t\r\n\t\t\t\r\n\r\n<div class=\"col-xm-12 pagedetails container\">\r\n\t\t\t\t\r\n\r\n</div>\r\n\t\r\n</div>",
        "fr": "\r\n        \r\n        \n\n\r\n\r\n\r\n\r\n\r\n\r\n<p class=\"small text-right\"><a href=\"/etiquetage-des-aliments/etiquetage/industrie/allergenes-et-gluten/fra/1388152325341/1388152326591?chap=0\">Texte complet</a></p>\r\n\r\n\r\n<h2>Sur cette page</h2>\r\n<ul class=\"list-unstyled col-md-offset-1 mrgn-tp-md mrgn-bttm-md\">\r\n\r\n<li>\r\n<a href=\"/etiquetage-des-aliments/etiquetage/industrie/allergenes-et-gluten/fra/1388152325341/1388152326591?chap=1\">Aper\u00e7u</a>\r\n\r\n</li>\r\n\r\n<li>\r\n<a href=\"/etiquetage-des-aliments/etiquetage/industrie/allergenes-et-gluten/fra/1388152325341/1388152326591?chap=2\">All\u00e9gations \u00ab\u00a0sans gluten\u00a0\u00bb</a>\r\n\r\n<ul class=\"list-unstyled col-md-offset-1 mrgn-bttm-md\">\r\n\r\n<li>\r\n<a href=\"/etiquetage-des-aliments/etiquetage/industrie/allergenes-et-gluten/fra/1388152325341/1388152326591?chap=2#s1c2\">\u00ab\u00a0Sans gluten\u00a0\u00bb ou \u00ab\u00a0sans bl\u00e9\u00a0\u00bb</a>\r\n\r\n</li>\r\n\r\n<li>\r\n<a href=\"/etiquetage-des-aliments/etiquetage/industrie/allergenes-et-gluten/fra/1388152325341/1388152326591?chap=2#s2c2\">All\u00e9gations \u00ab\u00a0sans gluten\u00a0\u00bb et avoine</a>\r\n\r\n</li>\r\n\r\n<li>\r\n<a href=\"/etiquetage-des-aliments/etiquetage/industrie/allergenes-et-gluten/fra/1388152325341/1388152326591?chap=2#s3c2\">All\u00e9gations \u00ab\u00a0sans gluten\u00a0\u00bb et les graines d'alpiste des Canaries</a>\r\n\r\n</li>\r\n\r\n<li>\r\n<a href=\"/etiquetage-des-aliments/etiquetage/industrie/allergenes-et-gluten/fra/1388152325341/1388152326591?chap=2#s4c2\">Mentions quantitatives</a>\r\n\r\n</li>\r\n\r\n<li>\r\n<a href=\"/etiquetage-des-aliments/etiquetage/industrie/allergenes-et-gluten/fra/1388152325341/1388152326591?chap=2#s5c2\">All\u00e9gations \u00ab\u00a0faible teneur en gluten\u00a0\u00bb et \u00ab\u00a0teneur r\u00e9duite en gluten\u00a0\u00bb</a>\r\n\r\n</li>\r\n\r\n<li>\r\n<a href=\"/etiquetage-des-aliments/etiquetage/industrie/allergenes-et-gluten/fra/1388152325341/1388152326591?chap=2#s6c2\">Bi\u00e8re sans gluten</a>\r\n\r\n</li>\r\n\r\n<li>\r\n<a href=\"/etiquetage-des-aliments/etiquetage/industrie/allergenes-et-gluten/fra/1388152325341/1388152326591?chap=2#s7c2\">All\u00e9gations \u00ab\u00a0sans gluten\u00a0\u00bb et la vodka</a>\r\n\r\n</li>\r\n\r\n</ul>\r\n\r\n</li>\r\n\r\n<li>\r\n<a href=\"/etiquetage-des-aliments/etiquetage/industrie/allergenes-et-gluten/fra/1388152325341/1388152326591?chap=3\">Enrichissement d'aliments sans gluten</a>\r\n\r\n<ul class=\"list-unstyled col-md-offset-1 mrgn-bttm-md\">\r\n\r\n<li>\r\n<a href=\"/etiquetage-des-aliments/etiquetage/industrie/allergenes-et-gluten/fra/1388152325341/1388152326591?chap=3#s8c3\">Publicit\u00e9 sur les aliments sans gluten aupr\u00e8s du public</a>\r\n\r\n</li>\r\n\r\n</ul>\r\n\r\n</li>\r\n\r\n<li>\r\n<a href=\"/etiquetage-des-aliments/etiquetage/industrie/allergenes-et-gluten/fra/1388152325341/1388152326591?chap=4\">Mises en garde sur la contamination crois\u00e9e par des allerg\u00e8nes alimentaires</a>\r\n\r\n<ul class=\"list-unstyled col-md-offset-1 mrgn-bttm-md\">\r\n\r\n<li>\r\n<a href=\"/etiquetage-des-aliments/etiquetage/industrie/allergenes-et-gluten/fra/1388152325341/1388152326591?chap=4#s9c4\">Mises en garde sur les allerg\u00e8nes pour les ingr\u00e9dients alimentaires</a>\r\n\r\n</li>\r\n\r\n</ul>\r\n\r\n</li>\r\n\r\n<li>\r\n<a href=\"/etiquetage-des-aliments/etiquetage/industrie/allergenes-et-gluten/fra/1388152325341/1388152326591?chap=5\">All\u00e9gations \u00ab\u00a0sans allerg\u00e8ne\u00a0\u00bb</a>\r\n\r\n<ul class=\"list-unstyled col-md-offset-1 mrgn-bttm-md\">\r\n\r\n<li>\r\n<a href=\"/etiquetage-des-aliments/etiquetage/industrie/allergenes-et-gluten/fra/1388152325341/1388152326591?chap=5#s10c5\">All\u00e9gations \u00ab\u00a0sans (nom de l'allerg\u00e8ne alimentaire)\u00a0\u00bb</a>\r\n\r\n</li>\r\n\r\n<li>\r\n<a href=\"/etiquetage-des-aliments/etiquetage/industrie/allergenes-et-gluten/fra/1388152325341/1388152326591?chap=5#s11c5\">All\u00e9gations \u00ab\u00a0sans allerg\u00e8ne\u00a0\u00bb combin\u00e9es avec les mises en garde sur les allerg\u00e8nes</a>\r\n\r\n</li>\r\n\r\n<li>\r\n<a href=\"/etiquetage-des-aliments/etiquetage/industrie/allergenes-et-gluten/fra/1388152325341/1388152326591?chap=5#s12c5\">All\u00e9gations g\u00e9n\u00e9rales \u00ab\u00a0sans allerg\u00e8ne\u00a0\u00bb ou \u00ab\u00a0exempt d'allerg\u00e8ne\u00a0\u00bb</a>\r\n\r\n</li>\r\n\r\n<li>\r\n<a href=\"/etiquetage-des-aliments/etiquetage/industrie/allergenes-et-gluten/fra/1388152325341/1388152326591?chap=5#s13c5\">Symboles \u00ab\u00a0sans (nom de l'allerg\u00e8ne alimentaire)\u00a0\u00bb</a>\r\n\r\n</li>\r\n\r\n<li>\r\n<a href=\"/etiquetage-des-aliments/etiquetage/industrie/allergenes-et-gluten/fra/1388152325341/1388152326591?chap=5#s14c5\">All\u00e9gations \u00ab\u00a0sans bl\u00e9\u00a0\u00bb sur les produits contenant des graines d'alpiste des Canaries</a>\r\n\r\n</li>\r\n\r\n<li>\r\n<a href=\"/etiquetage-des-aliments/etiquetage/industrie/allergenes-et-gluten/fra/1388152325341/1388152326591?chap=5#s15c5\">All\u00e9gations \u00ab\u00a0ne contient pas de noix\u00a0\u00bb sur des produits contenant de la noix de coco</a>\r\n\r\n</li>\r\n\r\n</ul>\r\n\r\n</li>\r\n\r\n<li>\r\n<a href=\"/etiquetage-des-aliments/etiquetage/industrie/allergenes-et-gluten/fra/1388152325341/1388152326591?chap=6\">Renseignements additionnels </a>\r\n\r\n<ul class=\"list-unstyled col-md-offset-1 mrgn-bttm-md\">\r\n\r\n<li>\r\n<a href=\"/etiquetage-des-aliments/etiquetage/industrie/allergenes-et-gluten/fra/1388152325341/1388152326591?chap=6#s16c6\">Lettres d'information / Mises \u00e0 jour des politiques </a>\r\n\r\n</li>\r\n\r\n</ul>\r\n\r\n</li>\r\n\r\n</ul>\r\n\r\n\r\n<div class=\"clear\"></div>\r\n\n\n\r\n        \r\n\r\n<div class=\"row\">\r\n \r\n\t\t\t\r\n\t\t\t\r\n\r\n\t\t\r\n\t\r\n</div>"
    },
    "success": true,
    "chat_wizard": false
}