{
    "dcr_id": "1523631948798",
    "title": {
        "en": "Proposed national disease control program for equine infectious anemia: Closed consultation",
        "fr": "Programme de lutte contre l'an\u00e9mie infectieuse des \u00e9quid\u00e9s propos\u00e9 par l'<abbr title=\"Agence canadienne d'inspection des aliments\">ACIA</abbr> : Consultation ferm\u00e9e"
    },
    "html_modified": "6-6-2023",
    "modified": "22-11-2018",
    "issued": "18-7-2012",
    "teamsite_location": {
        "en": "/default/main/inspection/cont-cont/aboutcfia-sujetacia/WORKAREA/aboutcfia-sujetacia/templatedata/comn-comn/gene-gene/data/eia_prog_comment_proposal_1523631948798_eng",
        "fr": "/default/main/inspection/cont-cont/aboutcfia-sujetacia/WORKAREA/aboutcfia-sujetacia/templatedata/comn-comn/gene-gene/data/eia_prog_comment_proposal_1523631948798_fra"
    },
    "parent_ia_id": "1330978369105",
    "ia_id": "1523631949344",
    "parent_node_id": "1330978369105",
    "layout_name": "content page 1 column",
    "breadcrumb": {
        "en": "Proposed national disease control program for equine infectious anemia: Closed consultation",
        "fr": "Programme de lutte contre l'an\u00e9mie infectieuse des \u00e9quid\u00e9s propos\u00e9 par l'<abbr title=\"Agence canadienne d'inspection des aliments\">ACIA</abbr> : Consultation ferm\u00e9e"
    },
    "label": {
        "en": "Proposed national disease control program for equine infectious anemia: Closed consultation",
        "fr": "Programme de lutte contre l'an\u00e9mie infectieuse des \u00e9quid\u00e9s propos\u00e9 par l'<abbr title=\"Agence canadienne d'inspection des aliments\">ACIA</abbr> : Consultation ferm\u00e9e"
    },
    "templatetype": "content page 1 column",
    "node_id": "1523631949344",
    "managing_branch": "comn",
    "type_name": "sitemapinit",
    "dcr_type": "gene-gene",
    "parent_dcr_id": "1330978174872",
    "orig_type_name": "sitemapinit",
    "has_dcr_id": true,
    "lang": "en",
    "could_not_load": 0,
    "refaire": false,
    "interwoven_url": {
        "en": "/about-cfia/transparency/consultations-and-engagement/completed/eia-disease-control-program/",
        "fr": "/a-propos-de-l-acia/transparence/consultations-et-participation/terminees/programme-lutte-contre-l-aie/"
    },
    "meta": {
        "viewport": {
            "en": "width=device-width,initial-scale=1",
            "fr": "width=device-width,initial-scale=1"
        },
        "service": {
            "en": "CFIA-ACIA",
            "fr": "CFIA-ACIA"
        },
        "accessRights": {
            "en": "2",
            "fr": "2"
        },
        "title": {
            "en": "Proposed national disease control program for equine infectious anemia: Closed consultation",
            "fr": "Programme de lutte contre l'an\u00e9mie infectieuse des \u00e9quid\u00e9s propos\u00e9 par l'ACIA : Consultation ferm\u00e9e"
        },
        "description": {
            "en": "Consultation is a key activity of the Canadian Food Inspection Agency (CFIA). It supports open and transparent government.",
            "fr": "La consultation est une activit\u00e9 importante \u00e0 l'Agence canadienne d'inspection des aliments (ACIA). Elle contribue \u00e0 l'ouverture et \u00e0 la transparence du gouvernement."
        },
        "keywords": {
            "en": "information, Consultation, public, transparent government, Comment on Proposal, National Equine Infectious Anemia, Disease Control Program, EIA",
            "fr": "information, Consultation, publique, transparence du gouvernement, Commentez , Proposition de programme national, l'an\u00e9mie infectieuse des \u00e9quid\u00e9s, AIE"
        },
        "dcterms.subject": {
            "en": "consumers,government information,inspection,consumer protection,government publication,food safety",
            "fr": "consommateur,information gouvernementale,inspection,protection du consommateur,publication gouvernementale,salubrit\u00e9 des aliments"
        },
        "creator": {
            "en": "Government of Canada,Canadian Food Inspection Agency",
            "fr": "Gouvernement du Canada,Agence canadienne d'inspection des aliments,Direction sant\u00e9 des animaux"
        },
        "language": {
            "en": "eng",
            "fr": "fra"
        },
        "issued": {
            "en": "2023-06-06",
            "fr": "2023-06-06"
        },
        "modified": {
            "en": "2018-11-22",
            "fr": "2018-11-22"
        },
        "type": {
            "en": "reference material",
            "fr": "mat\u00e9riel de r\u00e9f\u00e9rence"
        },
        "audience": {
            "en": "business,government,general public",
            "fr": "entreprises,gouvernement,grand public"
        },
        "name": {
            "en": "Government of Canada",
            "fr": "Gouvernement du Canada"
        },
        "areaServed": {
            "en": "Canada",
            "fr": "Canada"
        }
    },
    "h1": {
        "en": "Archived - Proposed national disease control program for equine infectious anemia: Closed consultation",
        "fr": "Archiv\u00e9e - Programme de lutte contre l'an\u00e9mie infectieuse des \u00e9quid\u00e9s propos\u00e9 par l'ACIA : Consultation ferm\u00e9e"
    },
    "body": {
        "en": "        \r\n        \n<section id=\"archived\" class=\"alert alert-warning wb-inview\" data-inview=\"archived-bnr\">\r\n<h2>This page has been archived</h2>\r\n<p>Information identified as archived is provided for reference, research or record-keeping purposes. It is not subject to the Government of Canada Web Standards and has not been altered or updated since it was archived. Please contact us to request a format other than those available.</p>\r\n</section>\r\n\r\n<section id=\"archived-bnr\" class=\"wb-overlay modal-content overlay-def wb-bar-t\">\r\n<header>\r\n<h2 class=\"wb-inv\">Archived</h2>\r\n</header>\r\n<p><a href=\"#archived\">This page has been archived.</a></p>\r\n</section>\r\n\r\n<section class=\"alert alert-warning\">\n<h2>Current status: Closed</h2>\n<p>This consultation ran from April 19 to <span class=\"nowrap\">June 30, 2018</span>. See the <a href=\"/about-cfia/transparency/consultations-and-engagement/completed/eia-disease-control-program/what-we-heard-report/eng/1542911384028/1542911384333\">what we heard report</a> for a summary of the findings.</p>\n</section>\n\n<h2>About the consultation</h2>\n<p>The Canadian Food Inspection Agency (CFIA) has completed the public consultation on a proposed new National Equine Infectious Anemia (EIA) Disease Control Program.</p>\n<h2>Objective</h2>\n<p>The <abbr title=\"Canadian Food Inspection Agency\">CFIA</abbr> has been collaborating with provincial, territorial and equine industry representatives, among others, over the past few years to develop a new approach to address program issues. One of the main issues has been the low volume of owner-requested testing (surveillance) among western Canada equine owners, even though many positive cases of <abbr title=\"Equine Infectious Anemia\">EIA</abbr> have been identified in that area. As a result, a key recommendation from the <abbr title=\"Equine Infectious Anemia\">EIA</abbr> working group was for the <abbr title=\"Canadian Food Inspection Agency\">CFIA</abbr> to develop a program that includes some mandatory <abbr title=\"Equine Infectious Anemia\">EIA</abbr> testing requirements for certain movements of horses in western Canada.</p>\n<p>Stakeholders were asked to comment on the proposed program, including:</p>\n<ul>\n<li>details about zoning Canada for <abbr title=\"Equine Infectious Anemia\">EIA</abbr></li>\n<li>the movement control system</li>\n<li>changes to how the <abbr title=\"Canadian Food Inspection Agency\">CFIA</abbr> would respond to <abbr title=\"Equine Infectious Anemia\">EIA</abbr>, and</li>\n<li>how the full program would be implemented.</li>\n</ul>\n<p>If support is received, the <abbr title=\"Canadian Food Inspection Agency\">CFIA</abbr> will proceed with planning the implementation of this program.</p>\n\n<h2>Who was the focus of this consultation</h2>\n<p>The <abbr title=\"Canadian Food Inspection Agency\">CFIA</abbr> sought feedback from all equine stakeholders, including:</p>\n<ul>\n<li>horse owners and riders</li>\n<li>land and stable owners</li>\n<li>equine event organizers</li>\n<li>veterinarians</li>\n<li>equine transporters</li>\n</ul>\n\n<h2>Related information</h2>\n<ul>\n<li><a href=\"/about-cfia/transparency/consultations-and-engagement/completed/eia-disease-control-program/consultation/eng/1523535587075/1523535587621\">Proposed National Equine Infectious Anemia Disease Control Program</a></li>\n<li><a href=\"/english/reg/jredirect2.shtml?heasanr\">Health of Animals Regulations</a></li>\n<li><a href=\"/english/reg/jredirect2.shtml?heasana\">Health of Animals Act</a></li>\n</ul>\n<h2 id=\"a1\">Contact us</h2>\n<p>Email: <a href=\"mailto:EIA-AIE@inspection.gc.ca\">EIA-AIE@inspection.gc.ca</a></p>\n<p><abbr title=\"Doctor\">Dr.</abbr> Carolyn James<br>\n<br>\n<br>\n<br>\n</p>\r\n        \r\n\r\n\r\n\r\n<div class=\"row\">\r\n \r\n\t\r\n\t\t\t\r\n\r\n<div class=\"col-xm-12 pagedetails container\">\r\n\t\t\t\t\r\n\r\n</div>\r\n\t\r\n</div>",
        "fr": "\r\n        \r\n        \n<section id=\"archived\" class=\"alert alert-warning wb-inview\" data-inview=\"archived-bnr\">\r\n<h2>Cette page a \u00e9t\u00e9 archiv\u00e9e</h2>\r\n<p>L'information dont il est indiqu\u00e9 qu'elle est archiv\u00e9e est fournie \u00e0 des fins de r\u00e9f\u00e9rence, de recherche ou de tenue de documents. Elle n'est pas assujettie aux normes Web du gouvernement du Canada et elle n'a pas \u00e9t\u00e9 modifi\u00e9e ou mise \u00e0 jour depuis son archivage. Pour obtenir cette information dans un autre format, veuillez communiquer avec nous.</p>\r\n</section>\r\n\r\n<section id=\"archived-bnr\" class=\"wb-overlay modal-content overlay-def wb-bar-t\">\r\n<header>\r\n<h2 class=\"wb-inv\">Archiv\u00e9e</h2>\r\n</header>\r\n<p><a href=\"#archived\">Cette page a \u00e9t\u00e9 archiv\u00e9e.</a></p>\r\n</section><section class=\"alert alert-warning\">\n<h2>\u00c9tat actuel\u00a0: Ferm\u00e9</h2>\n<p>Cette consultation s'est d\u00e9roul\u00e9e du 19 avril au <span class=\"nowrap\">30 juin 2018</span>. Consulter le <a href=\"/a-propos-de-l-acia/transparence/consultations-et-participation/terminees/programme-lutte-contre-l-aie/rapport-sur-ce-que-nous-avons-entendu/fra/1542911384028/1542911384333\">rapport sur ce que nous  avons entendu</a> pour lire les r\u00e9sultats retenus.</p>\n</section>\n\n<h2>Description de la consultation</h2>\n<p>L'Agence canadienne d'inspection des aliments (ACIA) a lanc\u00e9 une consultation publique sur un nouveau Programme national de lutte contre l'an\u00e9mie infectieuse des \u00e9quid\u00e9s qu'elle propose. </p>\n<h2>Objectif</h2>\n<p>Au cours des derni\u00e8res ann\u00e9es, l'<abbr title=\"Agence canadienne d'inspection des aliments\">ACIA</abbr> a collabor\u00e9 notamment avec les repr\u00e9sentants des provinces, des territoires et de l'industrie \u00e9quine pour \u00e9laborer une nouvelle approche pour faire face aux probl\u00e8mes li\u00e9s \u00e0 la sant\u00e9 des \u00e9quid\u00e9s. Un des principaux probl\u00e8mes est le petit nombre de d\u00e9pistages (\u00e0 des fins de surveillance) qui sont faits \u00e0 la demande des propri\u00e9taires de l'Ouest canadien, bien que de nombreux cas d'an\u00e9mie infectieuse des \u00e9quid\u00e9s (AIE) aient \u00e9t\u00e9 observ\u00e9s dans cette r\u00e9gion. Par cons\u00e9quent, une des recommandations cl\u00e9s du groupe de travail sur l'<abbr title=\"an\u00e9mie infectieuse des \u00e9quid\u00e9s\">AIE</abbr> \u00e9tait d'\u00e9laborer un programme pr\u00e9voyant des d\u00e9pistages obligatoires de l'<abbr title=\"an\u00e9mie infectieuse des \u00e9quid\u00e9s\">AIE</abbr> lors de certains d\u00e9placements de chevaux dans l'Ouest canadien.</p>\n<p>Les intervenants ont \u00e9t\u00e9 invit\u00e9s \u00e0 commenter sur le programme propos\u00e9, y compris sur\u00a0:</p>\n<ul>\n<li>les d\u00e9tails concernant la d\u00e9termination des zones d'<abbr title=\"an\u00e9mie infectieuse des \u00e9quid\u00e9s\">AIE</abbr> au Canada</li>\n<li>le syst\u00e8me de contr\u00f4le des d\u00e9placements; ou</li>\n<li>proposer des changements \u00e0 la fa\u00e7on dont l'<abbr title=\"Agence canadienne d'inspection des aliments\">ACIA</abbr> entend intervenir pour faire face \u00e0 l'<abbr title=\"an\u00e9mie infectieuse des \u00e9quid\u00e9s\">AIE</abbr>; et</li>\n<li>mettre en oeuvre le programme.</li>\n</ul>\n<p>Si le programme propos\u00e9 est accueilli favorablement, l'<abbr title=\"Agence canadienne d'inspection des aliments\">ACIA</abbr> entreprendra la planification de sa mise en \u0153uvre.</p>\n<h2>Qui cette consultation vise-t-elle?</h2>\n<p>L'<abbr title=\"Agence canadienne d'inspection des aliments\">ACIA</abbr> a demand\u00e9 des commentaires de tous les intervenants du secteur \u00e9quin, y compris\u00a0:</p>\n<ul>\n<li>propri\u00e9taires de chevaux et \u00e9cuyers</li>\n<li>propri\u00e9taires de terres et d'\u00e9curies</li>\n<li>organisateurs d'\u00e9v\u00e9nements \u00e9questres</li>\n<li>v\u00e9t\u00e9rinaires</li>\n<li>transporteurs de chevaux</li>\n</ul>\n\n<h2>Renseignements connexes</h2>\n<ul>\n<li><a href=\"/a-propos-de-l-acia/transparence/consultations-et-participation/terminees/programme-lutte-contre-l-aie/consultation/fra/1523535587075/1523535587621\">Proposition de programme national de lutte contre l'an\u00e9mie infectieuse des \u00e9quid\u00e9s</a></li>\n<li><a href=\"/francais/reg/jredirect2.shtml?heasanr\">R\u00e8glement sur la sant\u00e9 des animaux</a></li>\n<li><a href=\"/francais/reg/jredirect2.shtml?heasana\">Loi sur la sant\u00e9 des animaux</a></li>\n</ul>\n<h2 id=\"a1\">Communiquez avec nous</h2>\n<p>Courriel\u00a0: <a href=\"mailto:EIA-AIE@inspection.gc.ca\">EIA-AIE@inspection.gc.ca</a></p>\n<p>Carolyn James<br>\n<br>\n<br>\n<br>\n</p>\r\n        \r\n\r\n<div class=\"row\">\r\n \r\n\t\t\t\r\n\t\t\t\r\n\r\n\t\t\r\n\t\r\n</div>"
    },
    "js": {
        "en": "",
        "fr": ""
    },
    "success": true,
    "chat_wizard": false
}