{
    "dcr_id": "1348240784372",
    "title": {
        "en": "Children's Food Project Report 2009-2010",
        "fr": "Rapport du Projet sur les aliments destin\u00e9s aux enfants 2009-2010"
    },
    "html_modified": "2024-01-26 2:21:15 PM",
    "modified": "2014-11-12",
    "issued": "2018-06-05",
    "teamsite_location": {
        "en": "/default/main/inspection/cont-cont/food-aliments/STAGING/templatedata/comn-comn/forms-formes/data/chem_residue_reports_2009-2010_childrenfood_1348240784372_eng",
        "fr": "/default/main/inspection/cont-cont/food-aliments/STAGING/templatedata/comn-comn/forms-formes/data/chem_residue_reports_2009-2010_childrenfood_1348240784372_fra"
    },
    "ia_id": "1348241294879",
    "parent_ia_id": "1453327843364",
    "chronicletopic": {
        "en": "",
        "fr": ""
    },
    "chroniclecontent": {
        "en": "",
        "fr": ""
    },
    "chronicleaudience": {
        "en": "",
        "fr": ""
    },
    "sfcrdocumenttype": {
        "en": "",
        "fr": ""
    },
    "sfcraudience": {
        "en": "",
        "fr": ""
    },
    "sfcrmethodofproduction": {
        "en": "",
        "fr": ""
    },
    "activity": {
        "en": "",
        "fr": ""
    },
    "commodity": {
        "en": "",
        "fr": ""
    },
    "program": {
        "en": "",
        "fr": ""
    },
    "search_type": "other",
    "parent_node_id": "1453327843364",
    "layout_name": "content page 1 column",
    "breadcrumb": {
        "en": "Children's Food Project Report 2009-2010",
        "fr": "Rapport du Projet sur les aliments destin\u00e9s aux enfants 2009-2010"
    },
    "label": {
        "en": "Children's Food Project Report 2009-2010",
        "fr": "Rapport du Projet sur les aliments destin\u00e9s aux enfants 2009-2010"
    },
    "templatetype": "content page 1 column",
    "node_id": "1348241294879",
    "managing_branch": "comn",
    "type_name": "forms-formes",
    "dcr_type": "forms-formes",
    "parent_dcr_id": "1453324778043",
    "has_dcr_id": true,
    "lang": "en",
    "could_not_load": 0,
    "refaire": false,
    "interwoven_url": {
        "en": "/food-safety-for-industry/food-chemistry-and-microbiology/food-safety-testing-reports-and-journal-articles/children-s-food-project/",
        "fr": "/salubrite-alimentaire-pour-l-industrie/chimie-et-microbiologie-alimentaires/rapports-d-analyse-et-articles-de-revues-sur-la-sa/projet-sur-les-aliments-destines-aux-enfants/"
    },
    "meta": {
        "viewport": {
            "en": "width=device-width,initial-scale=1",
            "fr": "width=device-width,initial-scale=1"
        },
        "service": {
            "en": "CFIA-ACIA",
            "fr": "CFIA-ACIA"
        },
        "accessRights": {
            "en": "2",
            "fr": "2"
        },
        "title": {
            "en": "Children's Food Project Report 2009-2010",
            "fr": "Rapport du Projet sur les aliments destin\u00e9s aux enfants 2009-2010"
        },
        "description": {
            "en": "The main objectives of the 2009 ? 2010 Children's Food Project (CFP) were to assess the compliance status for pesticide residues in foods consumed by children aged 2 ? 15 years.",
            "fr": "Les principaux objectifs du Projet sur les aliments destin\u00e9s aux enfants (PAE) de 2009 ? 2010 sont les suivants l'\u00e9valuer le niveau de conformit\u00e9 aux limites \u00e9tablies  l'\u00e9gard des r\u00e9sidus de pesticides dans les aliments consomm\u00e9s par des enfants \u00e2g\u00e9s de 2 ans \u00e0 15 ans."
        },
        "keywords": {
            "en": "chemical residues, testing, sampling, reporting, children food project, pesticides, children,",
            "fr": "R\u00e9sidus chimiques, essai, pr\u00e9l\u00e8vement, \u00a0rapports, Projet sur les aliments destin\u00e9s aux enfants, enfants, pesticides"
        },
        "dcterms.subject": {
            "en": "agri-food products,assessment,food inspection,food safety,inspection,scientific research",
            "fr": "produit agro-alimentaire,\u00e9valuation,inspection des aliments,salubrit\u00e9 des aliments,inspection,recherche scientifique"
        },
        "creator": {
            "en": "Government of Canada,Canadian Food Inspection Agency,Food Safety Science Directorate",
            "fr": "Gouvernement du Canada,Agence canadienne d'inspection des aliments,Direction des sciences de la salubrit\u00e9 des aliments"
        },
        "language": {
            "en": "eng",
            "fr": "fra"
        },
        "issued": {
            "en": "2018-06-05",
            "fr": "2018-06-05"
        },
        "modified": {
            "en": "2014-11-12",
            "fr": "2014-11-12"
        },
        "type": {
            "en": "reference material,report",
            "fr": "mat\u00e9riel de r\u00e9f\u00e9rence,rapport"
        },
        "audience": {
            "en": "business,general public,government,scientists",
            "fr": "entreprises,grand public,gouvernement,Scientifiques"
        },
        "name": {
            "en": "Government of Canada",
            "fr": "Gouvernement du Canada"
        },
        "areaServed": {
            "en": "Canada",
            "fr": "Canada"
        }
    },
    "h1": {
        "en": "Children's Food Project Report 2009-2010",
        "fr": "Rapport du Projet sur les aliments destin\u00e9s aux enfants 2009-2010"
    },
    "js": {
        "en": "<script>\n    document.frmPublication.strTitle.value = document.getElementsByTagName(\"title\")[0].innerHTML;\n    document.frmPublication.strUrl.value = document.URL;\n</script>/* --------------------- MORE JAVASCRIPT ------------------- */<script>\n$(document).ready (function(){\n\tif($(\"#strPaper\").checked || $(\"#strBraille\").checked)\n\t{\n\t\tPaperBrailleChecked();\n\t}\n});\n\n$(document).on(\"change\", \"#strBraille\", function(){\n\tif($(\"#strBraille\").is(\":checked\"))\n\t{\n\t\tPaperBrailleChecked();\n\t}\n\telse if(!($(\"#strPaper\").is(\":checked\")))\n\t{\n\t\tPaperBrailleUnChecked();\n\t}\n});\n\n$(document).on(\"change\", \"#strPaper\", function(){\n\tif($(\"#strPaper\").is(\":checked\"))\n\t{\n\t\tPaperBrailleChecked();\n\t}\n\telse if(!($(\"#strBraille\").is(\":checked\")))\n\t{\n\t\tPaperBrailleUnChecked();\n\t}\n});\n\nfunction PaperBrailleChecked()\n{\n\t$(\"#strAddress1\").attr(\"required\", \"true\");\n\t$(\"#strCity\").attr(\"required\", \"true\");\n\t$(\"#strProvince\").attr(\"required\", \"true\");\n\t$(\"#strCountry\").attr(\"required\", \"true\");\n\t$(\"#strPostal\").attr(\"required\", \"true\");\n}\n\nfunction PaperBrailleUnChecked()\n{\n\t$(\"#strAddress1\").removeAttr(\"required\");\n\t$(\"#strCity\").removeAttr(\"required\");\n\t$(\"#strProvince\").removeAttr(\"required\");\n\t$(\"#strCountry\").removeAttr(\"required\");\n\t$(\"#strPostal\").removeAttr(\"required\");\n}\n</script>",
        "fr": "<script>\n    document.frmPublication.strTitle.value = document.getElementsByTagName(\"title\")[0].innerHTML;\n    document.frmPublication.strUrl.value = document.URL;\n</script>/* --------------------- MORE JAVASCRIPT ------------------- */<script>\n$(document).ready (function(){\n\tif($(\"#strPaper\").checked || $(\"#strBraille\").checked)\n\t{\n\t\tPaperBrailleChecked();\n\t}\n});\n\n$(document).on(\"change\", \"#strBraille\", function(){\n\tif($(\"#strBraille\").is(\":checked\"))\n\t{\n\t\tPaperBrailleChecked();\n\t}\n\telse if(!($(\"#strPaper\").is(\":checked\")))\n\t{\n\t\tPaperBrailleUnChecked();\n\t}\n});\n\n$(document).on(\"change\", \"#strPaper\", function(){\n\tif($(\"#strPaper\").is(\":checked\"))\n\t{\n\t\tPaperBrailleChecked();\n\t}\n\telse if(!($(\"#strBraille\").is(\":checked\")))\n\t{\n\t\tPaperBrailleUnChecked();\n\t}\n});\n\nfunction PaperBrailleChecked()\n{\n\t$(\"#strAddress1\").attr(\"required\", \"true\");\n\t$(\"#strCity\").attr(\"required\", \"true\");\n\t$(\"#strProvince\").attr(\"required\", \"true\");\n\t$(\"#strCountry\").attr(\"required\", \"true\");\n\t$(\"#strPostal\").attr(\"required\", \"true\");\n}\n\nfunction PaperBrailleUnChecked()\n{\n\t$(\"#strAddress1\").removeAttr(\"required\");\n\t$(\"#strCity\").removeAttr(\"required\");\n\t$(\"#strProvince\").removeAttr(\"required\");\n\t$(\"#strCountry\").removeAttr(\"required\");\n\t$(\"#strPostal\").removeAttr(\"required\");\n}\n</script>"
    },
    "mode_html": "no_editor_full",
    "body": {
        "en": "        \r\n        \n<h2>Summary</h2>\n<p>The main objectives of the 2009 \u2013 2010 Children's Food Project (CFP) were:</p>\n<ul>\n<li>to assess the compliance status for pesticide residues in foods consumed by children aged 2 \u2013 15 years;</li>\n<li>to provide data to Health Canada that can be used for health risk assessment of foods consumed by children;</li>\n<li>to gather preliminary pesticide data from a new scope of pesticide residues in foods commonly consumed by children aged 2 \u2013 15 years.</li>\n</ul>\n<p>In the 2009 \u2013 2010 <abbr title=\"Children's Food Project\">CFP</abbr>, a total of 821 processed and manufactured food samples were purchased in the Ottawa \u2013 Gatineau area. Samples included a variety of candy, cereals, chocolate, dairy products, juice, meat products, nuts and seeds and processed fruit and vegetable products. The samples were obtained from national grocery stores, small local grocery stores and drugstores. The samples were analyzed for pesticide residues and metals. A total of 2530 analytical tests were performed which corresponds to more than 223 750 results.</p>\n<p>The scope of pesticide residue analysis encompasses over 400 pesticide residues. Most samples were analyzed for pesticide residues. The methods included an <abbr title=\"liquid chromatography electrospray ionization mass spectrometry\">LC/ESI-MS-MS</abbr> multi-residue method (142 analytes) introduced in the 2008 \u2013 2009 <abbr title=\"Children's Food Project\">CFP</abbr>; a multi-residue <abbr title=\"gas chromatography-mass spectrometry\">GC-MS</abbr> method that detects carbamate, organochlorine or organophosphate compounds (299 analytes) or a multi-residue method that detects pesticide residues in dairy products (32 analytes); and single-residue method used to detect benomyl (carbendazim residues), ethylenebisdithiocarbamate (EBDC) fungicides, ethylene thiourea (ETU), formetanate and thiabendazole in selected samples. All 821 samples were analyzed for metals using an analytical method capable of detecting 18 different metals \u2013 aluminium, antimony, arsenic, beryllium, boron, cadmium, chromium, copper, iron, mercury, manganese, molybdenum, nickel, lead, selenium, tin, titanium, and zinc.</p>\n<p>Of the 803 samples tested for pesticide residues, 643 (80.1%) contained no detected pesticide residues. The remaining 160 samples (19.9%) had detected levels of pesticide residues, with 57 (7.1%) containing more than one specific analyte. Of the 160 samples with detected pesticide residues, 11 (1.4% of all samples) contained pesticide residue levels in excess of established <abbr title=\"Maximum Residue Limits\">MRLs</abbr> or the 0.1 <abbr title=\"parts per million\">ppm</abbr> General Maximum Residue Limit (GMRL) and were therefore in violation of paragraph 4(d) of the Food and Drugs Act (FDA). The violative products are unlikely to pose a significant risk to the health of children. The majority of the pesticide residue results (98.6 %) were in compliance with Canadian <abbr title=\"Maximum Residue Limits\">MRLs</abbr>.</p>\n<p>Heavy metals that may pose the greatest inherent risk to human health at low levels include arsenic, cadmium, mercury and lead. The levels of most metals detected in this study were below established <abbr title=\"Maximum Residue Limits\">MRLs</abbr> and tolerances. Consistent with previous year's results, higher arsenic levels were found in several rice-based and seafood products. All of the metals detected were within the range of typical background concentrations observed in similar foods.</p>\r\n<style>\n/* required style */\n    .keyValue{\n\tdisplay: none !important;\n        visibility: hidden !important;\n</style>\n<h2>Request of Complete Report</h2>\n<p>The complete text of this report is available upon request.</p>\n\n<div class=\"wb-frmvld\">\n\n<form class=\"form-horizontal\" role=\"form\" method=\"post\" action=\"/active/netapp/comment/publicationposte.aspx#wb-cont\" name=\"frmPublication\">\n<input id=\"emailad0\" name=\"to\" class=\"hidden\" type=\"hidden\" aria-hidden=\"true\" value=\"wqdtATT2AQVSaniG/ewtxCWdRgDtQxuDGdu7Sgz8w7zjksTI1RFpGjtBN/0fa09XPyS8yYJ04x6OjERopYjSGc0+PWXwVEMrrQX+MWHyb+I=\">\n<input name=\"strLang\" type=\"hidden\" value=\"English\">\n<input name=\"strSubject\" type=\"hidden\" value=\"Chemical Residues / Microbiology Report Request\">\n<input name=\"strTitle\" type=\"hidden\" value=\"title\">\n<input name=\"strUrl\" type=\"hidden\" value=\"url\">\n<script type=\"text/javascript\">\n    document.frmPublication.strTitle.value = document.getElementsByTagName(\"title\")[0].innerHTML;\n    document.frmPublication.strUrl.value = document.URL;\n</script>\n        \n<fieldset class=\"mrgn-tp-md mrgn-bttm-lg\">\t\t\n\n<legend class=\"field-name required\"><span class=\"field-name\">The format in which you would like to receive the report</span> <strong class=\"required\">(required)</strong></legend>\n\n<div class=\"checkbox\">\n<label for=\"strPdf\"><input type=\"checkbox\" name=\"formatsent\" id=\"strPdf\" value=\"pdf\" required=\"required\">PDF (Portable Document Format) electronic file sent to you by email</label>\n</div>\n\n<div class=\"checkbox\">\n<label for=\"strText\"><input type=\"checkbox\" name=\"formatsent\" id=\"strText\" value=\"text\">RTF (Rich Text Format) electronic file sent to you by email</label>\n</div>\n\n<div class=\"checkbox\">\n<label for=\"strBraille\"><input type=\"checkbox\" name=\"formatsent\" id=\"strBraille\" value=\"braille\">Braille copy sent to you by mail</label>\n</div>\n\n<div class=\"checkbox\">\n<label for=\"strPaper\"><input type=\"checkbox\" name=\"formatsent\" id=\"strPaper\" value=\"paper\">Paper copy sent to you by mail</label>\n</div>\n\n</fieldset>\t\n\n<fieldset class=\"mrgn-tp-md mrgn-bttm-lg\">\t\t\n\n<legend class=\"field-name\">Your contact information</legend>\n\n<label class=\"keyValue\" for=\"name\"></label>\n<input class=\"keyValue\" autocomplete=\"off\" type=\"text\" id=\"name\" name=\"name\">\n<label class=\"keyValue\" for=\"email\"></label>\n<input class=\"keyValue\" autocomplete=\"off\" type=\"email\" id=\"email\" name=\"email\"> \n\n<div class=\"form-group\">\n<label for=\"strFirstName\" class=\"required col-md-4 control-label\"><span class=\"field-name\">First name:</span> <strong class=\"required\">(required)</strong></label>\n<div class=\"col-md-8\">\n<input class=\"form-control\" id=\"strFirstName\" name=\"strFirstName\" type=\"text\" required=\"required\" pattern=\".{2,}\" data-rule-minlength=\"2\">\n</div>\n</div>\n            \n<div class=\"form-group\">\n<label for=\"strLastName\" class=\"required col-md-4 control-label\"><span class=\"field-name\">Last name:</span> <strong class=\"required\">(required)</strong></label>\n<div class=\"col-md-8\">\n<input class=\"form-control\" id=\"strLastName\" name=\"strLastName\" type=\"text\" required=\"required\" pattern=\".{2,}\" data-rule-minlength=\"2\">\n</div>\n</div>\n\n<div class=\"form-group\">\n<label for=\"strEmail\" class=\"required col-md-4 control-label\"><span class=\"field-name\">Email address:</span>  <strong class=\"required\">(required)</strong></label>\n<div class=\"col-md-8\">\n<input class=\"form-control\" id=\"strEmail\" name=\"strEmail\" type=\"email\" required=\"required\">\n</div>\n</div>\n\n<div class=\"form-group\">\n<label for=\"strConfirmEmail\" class=\"required col-md-4 control-label\"><span class=\"field-name\">Confirm email address:</span>  <strong class=\"required\">(required)</strong></label>\n<div class=\"col-md-8\">\n<input class=\"form-control\" id=\"strConfirmEmail\" name=\"strConfirmEmail\" type=\"email\" data-rule-equalto=\"#strEmail\" required=\"required\">\n</div>\n</div>\n\n<div class=\"form-group mrgn-tp-md\">\n<label for=\"lstdescribe\" class=\"required col-md-4 control-label\"><span class=\"field-name\">How would you describe yourself?</span> <strong class=\"required\">(required)</strong></label>\n<div class=\"col-md-8\">\n<select class=\"form-control\" id=\"lstdescribe\" name=\"lstdescribe\" required=\"required\">\n<option label=\"Select from this list\"></option>\n<option value=\"Academia\">Academia</option>\n<option value=\"Consumer Association\">Consumer Association</option>\n<option value=\"Consumer/General Public\">Consumer / General Public</option>\n<option value=\"Industry Association\">Industry Association</option>\n<option value=\"Industry/Commercial Sector\">Industry / Commercial Sector</option>\n<option value=\"Other Government Departments\">Other Government Departments</option>\t\t\t\n</select>\n</div>\n</div>\t\n\n<div class=\"form-group\">\n<label for=\"strAddress1\" class=\"col-md-4 control-label\"><span class=\"field-name\">Address 1:</span></label>\n<div class=\"col-md-8\">\n<input class=\"form-control\" id=\"strAddress1\" name=\"strAddress1\" type=\"text\">\n</div>\n</div>\n\n<div class=\"form-group\">\n<label for=\"strAddress2\" class=\"col-md-4 control-label\"><span class=\"field-name\">Address 2:</span></label>\n<div class=\"col-md-8\">\n<input class=\"form-control\" id=\"strAddress2\" name=\"strAddress2\" type=\"text\">\n</div>\n</div>\n\n<div class=\"form-group\">\n<label for=\"strCity\" class=\"col-md-4 control-label\"><span class=\"field-name\">City:</span></label>\n<div class=\"col-md-8\">\n<input class=\"form-control\" id=\"strCity\" name=\"strCity\" type=\"text\">\n</div>\n</div>\n\n<div class=\"form-group\">\n<label for=\"strProvince\" class=\"col-md-4 control-label\"><span class=\"field-name\">Province:</span></label>\n<div class=\"col-md-8\">\n<input class=\"form-control\" id=\"strProvince\" name=\"strProvince\" type=\"text\">\n</div>\n</div>\n\n<div class=\"form-group\">\n<label for=\"strCountry\" class=\"col-md-4 control-label\"><span class=\"field-name\">Country:</span></label>\n<div class=\"col-md-8\">\n<input class=\"form-control\" id=\"strCountry\" name=\"strCountry\" type=\"text\">\n</div>\n</div>\n\n<div class=\"form-group\">\n<label for=\"strPostal\" class=\"col-md-4 control-label\"><span class=\"field-name\">Postal Code:</span></label>\n<div class=\"col-md-8\">\n<input class=\"form-control\" id=\"strPostal\" name=\"strPostal\" type=\"text\">\n</div>\n</div>\n\n</fieldset>\t\n\n<input value=\"Submit Your Request\" id=\"btnSubmit\" name=\"btnSubmit\" class=\"btn btn-primary\" type=\"submit\"> \n<input value=\"Clear All Information\" id=\"btnReset\" name=\"btnReset\" class=\"btn btn-default\" type=\"reset\">\n\n</form>\n</div>\n<script src=\"https://ajax.googleapis.com/ajax/libs/jquery/2.1.1/jquery.min.js\"></script>\n<script type=\"text/javascript\">\n$(document).ready (function(){\n\tif($(\"#strPaper\").checked || $(\"#strBraille\").checked)\n\t{\n\t\tPaperBrailleChecked();\n\t}\n});\n\n$(document).on(\"change\", \"#strBraille\", function(){\n\tif($(\"#strBraille\").is(\":checked\"))\n\t{\n\t\tPaperBrailleChecked();\n\t}\n\telse if(!($(\"#strPaper\").is(\":checked\")))\n\t{\n\t\tPaperBrailleUnChecked();\n\t}\n});\n\n$(document).on(\"change\", \"#strPaper\", function(){\n\tif($(\"#strPaper\").is(\":checked\"))\n\t{\n\t\tPaperBrailleChecked();\n\t}\n\telse if(!($(\"#strBraille\").is(\":checked\")))\n\t{\n\t\tPaperBrailleUnChecked();\n\t}\n});\n\nfunction PaperBrailleChecked()\n{\n\t$(\"#strAddress1\").attr(\"required\", \"true\");\n\t$(\"#strCity\").attr(\"required\", \"true\");\n\t$(\"#strProvince\").attr(\"required\", \"true\");\n\t$(\"#strCountry\").attr(\"required\", \"true\");\n\t$(\"#strPostal\").attr(\"required\", \"true\");\n}\n\nfunction PaperBrailleUnChecked()\n{\n\t$(\"#strAddress1\").removeAttr(\"required\");\n\t$(\"#strCity\").removeAttr(\"required\");\n\t$(\"#strProvince\").removeAttr(\"required\");\n\t$(\"#strCountry\").removeAttr(\"required\");\n\t$(\"#strPostal\").removeAttr(\"required\");\n}\n</script>\r\n\r\n\r\n\r\n<div class=\"row\">\r\n \r\n\t\r\n\t\t\t\r\n\r\n<div class=\"col-xm-12 pagedetails container\">\r\n\t\t\t\t\r\n\r\n</div>\r\n\t\r\n</div>",
        "fr": "\r\n        \r\n        \n<h2>R\u00e9sum\u00e9</h2>\n<p>Les principaux objectifs du Projet sur les aliments destin\u00e9s aux enfants (PAE) de<br> 2009 \u2013 2010 sont les suivants\u00a0:</p>\n<ul>\n<li>\u00e9valuer le niveau de conformit\u00e9 aux limites \u00e9tablies \u00e0 l'\u00e9gard des r\u00e9sidus de pesticides dans les aliments consomm\u00e9s par des enfants \u00e2g\u00e9s de 2 ans \u00e0 15 ans;</li>\n<li>fournir, \u00e0 Sant\u00e9 Canada, des donn\u00e9es qui peuvent \u00eatre utilis\u00e9es pour \u00e9valuer les risques pour la sant\u00e9 associ\u00e9s aux aliments consomm\u00e9s par les enfants;</li>\n<li>recueillir de l'information pr\u00e9liminaire sur une nouvelle liste de r\u00e9sidus de pesticides pouvant \u00eatre d\u00e9cel\u00e9s dans les aliments couramment consomm\u00e9s par les enfants \u00e2g\u00e9s de 2 \u00e0 15 ans.</li>\n</ul>\n<p>Dans le cadre du <abbr title=\"Projet sur les aliments destin\u00e9s aux enfants\">PAE</abbr> de 2009 \u2013 2010, un total de 821\u00a0\u00e9chantillons d'aliments transform\u00e9s et manufactur\u00e9s ont \u00e9t\u00e9 achet\u00e9s dans la r\u00e9gion d'Ottawa-Gatineau. Les \u00e9chantillons comprenaient une vari\u00e9t\u00e9 de bonbons, de c\u00e9r\u00e9ales, de chocolat, de produits laitiers, de produits de viande, de noix et de graines, et de produits de fruits et l\u00e9gumes transform\u00e9s. Les \u00e9chantillons ont \u00e9t\u00e9 achet\u00e9s dans des \u00e9piceries nationales, des \u00e9piceries locales et des pharmacies. Les \u00e9chantillons ont fait l'objet d'analyses visant la d\u00e9tection de r\u00e9sidus de pesticides et de m\u00e9taux. En tout, 2\u00a0530\u00a0analyses ont \u00e9t\u00e9 effectu\u00e9es, ce qui correspond \u00e0 plus de 223\u00a0750 r\u00e9sultats.</p>\n<p>La port\u00e9e des analyses de r\u00e9sidus de pesticides vise plus de 400\u00a0r\u00e9sidus de pesticides. La majorit\u00e9 des \u00e9chantillons ont \u00e9t\u00e9 analys\u00e9s \u00e0 l'\u00e9gard des r\u00e9sidus de pesticides. Parmi les m\u00e9thodes d'analyse utilis\u00e9es compte la m\u00e9thode multi-r\u00e9sidus <abbr title=\"liquid chromatography electrospray ionization mass spectrometry\" lang=\"en\">CPL/ESI-SM-SM</abbr> (142\u00a0substances), utilis\u00e9e pour la premi\u00e8re fois dans le cadre du <abbr title=\"Projet sur les aliments destin\u00e9s aux enfants\">PAE</abbr> de 2008 \u2013 2009, une m\u00e9thode d'analyse multi-r\u00e9sidus <abbr title=\"couplage entre la chromatographie en phase gazeuse et la spectrom\u00e9trie de masse\">CG-SM</abbr> qui d\u00e9tecte les compos\u00e9s de carbamates, organochlor\u00e9s ou organophosphor\u00e9s (299 substances), une m\u00e9thode d'analyse multi-r\u00e9sidus qui d\u00e9tecte les r\u00e9sidus de pesticides dans les produits laitiers (32 substances), et des m\u00e9thodes d'analyse d'un seul r\u00e9sidu visant la d\u00e9tection de b\u00e9nomyl (r\u00e9sidus de carbendazim), de fongicides \u00e0 base d'\u00e9thyl\u00e8ne-bis (dithiocarbamate), d'imidazolidine\u20112\u2011thione, de form\u00e9tanate et de thiabendazole dans certains \u00e9chantillons. Les 821\u00a0\u00e9chantillons ont \u00e9t\u00e9 analys\u00e9s \u00e0 l'\u00e9gard des m\u00e9taux au moyen d'une m\u00e9thode d'analyse pouvant d\u00e9tecter 18\u00a0m\u00e9taux diff\u00e9rents (aluminium, antimoine, arsenic, b\u00e9ryllium, bore, cadmium, chrome, cuivre, fer, mercure, mangan\u00e8se, molybd\u00e8ne, nickel, plomb, s\u00e9l\u00e9nium, \u00e9tain, titane et zinc).</p>\n<p>Sur les 803\u00a0\u00e9chantillons analys\u00e9s \u00e0 l'\u00e9gard des r\u00e9sidus de pesticides, 643 (80,1\u00a0%) ne contenaient aucun r\u00e9sidu de pesticide. Les 160\u00a0autres \u00e9chantillons (19,9\u00a0%) contenaient des concentrations d\u00e9tectables de r\u00e9sidus de pesticides, dont 57\u00a0(7,1\u00a0%) qui renfermaient plus d'une substance sp\u00e9cifique. Sur les 160\u00a0\u00e9chantillons contenant des r\u00e9sidus de pesticides, 11 (1,4\u00a0% de tous les \u00e9chantillons) renfermaient des concentrations de r\u00e9sidus de pesticides sup\u00e9rieurs \u00e0 la limite maximale des r\u00e9sidus (LMR) \u00e9tablie ou \u00e0 la <abbr title=\"limite maximale des r\u00e9sidus\">LMR</abbr> g\u00e9n\u00e9rale de\u00a00,1\u00a0<abbr title=\"partie par million\">ppm</abbr> et contrevenaient \u00e0 l'alin\u00e9a 4d) de la Loi sur les aliments et drogues (LAD). Les produits en infraction sont peu susceptibles de poser un risque important pour la sant\u00e9 des enfants. La majorit\u00e9 des r\u00e9sultats concernant les r\u00e9sidus de pesticides (98,6\u00a0%) \u00e9tait conforme aux <abbr title=\"limite maximale des r\u00e9sidus\">LMR</abbr> du Canada.</p>\n<p>Les m\u00e9taux lourds qui peuvent repr\u00e9senter le risque intrins\u00e8que le plus \u00e9lev\u00e9 pour la sant\u00e9 humaine sont l'arsenic, le cadmium, le mercure et le plomb. Les concentrations de la plupart des m\u00e9taux d\u00e9tect\u00e9s dans le cadre de l'\u00e9tude se situent sous les limites maximales des r\u00e9sidus (LMR) et les seuils de tol\u00e9rance \u00e9tablis. Comme l'an dernier, on a d\u00e9cel\u00e9 des concentrations plus \u00e9lev\u00e9es d'arsenic dans plusieurs produits \u00e0 base de riz et de fruits de mer. Tous les m\u00e9taux d\u00e9tect\u00e9s se situaient dans les limites des concentrations habituelles observ\u00e9es dans des aliments semblables.</p>\r\n<style>\n/* required style */\n    .keyValue{\n\tdisplay: none !important;\n        visibility: hidden !important;\n</style>\n<h2>Demande de rapport complet</h2>\n<p>La version int\u00e9grale du pr\u00e9sent rapport est disponible sur demande.</p>\n\n<div class=\"wb-frmvld\">\n\n<form class=\"form-horizontal\" role=\"form\" method=\"post\" action=\"/active/netapp/comment/publicationposte.aspx#wb-cont\" name=\"frmPublication\">\n\n<input id=\"emailad0\" name=\"to\" class=\"hidden\" type=\"hidden\" aria-hidden=\"true\" value=\"3bzB9cN05sqpQaJBgqN1GIay9LqT9uARu2A7DHf9ibsLmHB5SN6sLaL6ehdhpjNnO3auAGsAUo82bvfd/TtUVwrjj4j/PqzEnaI9KxCNduo=\">\n<input name=\"strLang\" type=\"hidden\" value=\"Francais\">\n<input name=\"strSubject\" type=\"hidden\" value=\"Demande de rapport de r\u00e9sidus chimiques / microbiologie\">\n<input name=\"strTitle\" type=\"hidden\" value=\"title\">\n<input name=\"strUrl\" type=\"hidden\" value=\"url\">\n<script type=\"text/javascript\">\n    document.frmPublication.strTitle.value = document.getElementsByTagName(\"title\")[0].innerHTML;\n    document.frmPublication.strUrl.value = document.URL;\n</script>\n        \n<fieldset class=\"mrgn-tp-md mrgn-bttm-lg\">\t\t\n\n<legend class=\"field-name required\"><span class=\"field-name\">Le format dans lequel vous souhaitez recevoir le rapport</span> <strong class=\"required\">(obligatoire)</strong></legend>\n\n<div class=\"checkbox\">\n<label for=\"strPdf\"><input type=\"checkbox\" name=\"formatsent\" id=\"strPdf\" value=\"pdf\" required=\"required\">Fichier \u00e9lectronique PDF (format de document portable) envoy\u00e9 par courriel</label>\n</div>\n\n<div class=\"checkbox\">\n<label for=\"strText\"><input type=\"checkbox\" name=\"formatsent\" id=\"strText\" value=\"text\">Fichier \u00e9lectronique RTF (<span lang=\"en\">Rich Text Format</span>) envoy\u00e9 par courriel</label>\n</div>\n\n<div class=\"checkbox\">\n<label for=\"strBraille\"><input type=\"checkbox\" name=\"formatsent\" id=\"strBraille\" value=\"braille\">Copie braille envoy\u00e9e par la poste</label>\n</div>\n\n<div class=\"checkbox\">\n<label for=\"strPaper\"><input type=\"checkbox\" name=\"formatsent\" id=\"strPaper\" value=\"paper\">Copie papier envoy\u00e9e par la poste</label>\n</div>\n\n</fieldset>\t\n\n<fieldset class=\"mrgn-tp-md mrgn-bttm-lg\">\t\t\n\n<legend class=\"field-name\">Vos coordonn\u00e9es</legend>\n\n<label class=\"keyValue\" for=\"name\"></label>\n<input class=\"keyValue\" autocomplete=\"off\" type=\"text\" id=\"name\" name=\"name\">\n<label class=\"keyValue\" for=\"email\"></label>\n<input class=\"keyValue\" autocomplete=\"off\" type=\"email\" id=\"email\" name=\"email\"> \n\n<div class=\"form-group\">\n<label for=\"strFirstName\" class=\"required col-md-4 control-label\"><span class=\"field-name\">Pr\u00e9nom :</span> <strong class=\"required\">(obligatoire)</strong></label>\n<div class=\"col-md-8\">\n<input class=\"form-control\" id=\"strFirstName\" name=\"strFirstName\" type=\"text\" required=\"required\" pattern=\".{2,}\" data-rule-minlength=\"2\">\n</div>\n</div>\n            \n<div class=\"form-group\">\n<label for=\"strLastName\" class=\"required col-md-4 control-label\"><span class=\"field-name\">Nom :</span> <strong class=\"required\">(obligatoire)</strong></label>\n<div class=\"col-md-8\">\n<input class=\"form-control\" id=\"strLastName\" name=\"strLastName\" type=\"text\" required=\"required\" pattern=\".{2,}\" data-rule-minlength=\"2\">\n</div>\n</div>\n\n<div class=\"form-group\">\n<label for=\"strEmail\" class=\"required col-md-4 control-label\"><span class=\"field-name\">Adresse de courriel :</span> \u00a0<strong class=\"required\">(obligatoire)</strong></label>\n<div class=\"col-md-8\">\n<input class=\"form-control\" id=\"strEmail\" name=\"strEmail\" type=\"email\" required=\"required\">\n</div>\n</div>\n\n<div class=\"form-group\">\n<label for=\"strConfirmEmail\" class=\"required col-md-4 control-label\"><span class=\"field-name\">Confirmer Adresse de courriel :</span>  <strong class=\"required\">(obligatoire)</strong></label>\n<div class=\"col-md-8\">\n<input class=\"form-control\" id=\"strConfirmEmail\" name=\"strConfirmEmail\" type=\"email\" data-rule-equalto=\"#strEmail\" required=\"required\">\n</div>\n</div>\n\n<div class=\"form-group mrgn-tp-md\">\n<label for=\"lstdescribe\" class=\"required col-md-4 control-label\"><span class=\"field-name\">Comment vous vous d\u00e9criviez?</span> <strong class=\"required\">(obligatoire)</strong></label>\n<div class=\"col-md-8\">\n<select class=\"form-control\" id=\"lstdescribe\" name=\"lstdescribe\" required=\"required\">\n<option label=\"Choisir parmi la liste\"></option>\n<option value=\"Acad\u00e9mie\">Acad\u00e9mie</option>\n<option value=\"Association sectorielle\">Association sectorielle</option>  \n<option value=\"Autres institutions du gouvernement\">Autres institutions du gouvernement</option>\n<option value=\"Consommateur/Grand public\">Consommateur / Grand public</option>\n<option value=\"Groupe de consommateur\">Groupe de consommateur</option>\n<option value=\"Industrie/Secteur commercial\">Industrie / Secteur commercial</option>\n</select>\n</div>\n</div>\t\n\n<div class=\"form-group\">\n<label for=\"strAddress1\" class=\"col-md-4 control-label\"><span class=\"field-name\">Adresse 1 :</span></label>\n<div class=\"col-md-8\">\n<input class=\"form-control\" id=\"strAddress1\" name=\"strAddress1\" type=\"text\">\n</div>\n</div>\n\n<div class=\"form-group\">\n<label for=\"strAddress2\" class=\"col-md-4 control-label\"><span class=\"field-name\">Adresse 2 :</span></label>\n<div class=\"col-md-8\">\n<input class=\"form-control\" id=\"strAddress2\" name=\"strAddress2\" type=\"text\">\n</div>\n</div>\n\n<div class=\"form-group\">\n<label for=\"strCity\" class=\"col-md-4 control-label\"><span class=\"field-name\">Ville :</span></label>\n<div class=\"col-md-8\">\n<input class=\"form-control\" id=\"strCity\" name=\"strCity\" type=\"text\">\n</div>\n</div>\n\n<div class=\"form-group\">\n<label for=\"strProvince\" class=\"col-md-4 control-label\"><span class=\"field-name\">Province :</span></label>\n<div class=\"col-md-8\">\n<input class=\"form-control\" id=\"strProvince\" name=\"strProvince\" type=\"text\">\n</div>\n</div>\n\n<div class=\"form-group\">\n<label for=\"strCountry\" class=\"col-md-4 control-label\"><span class=\"field-name\">Pays : </span></label>\n<div class=\"col-md-8\">\n<input class=\"form-control\" id=\"strCountry\" name=\"strCountry\" type=\"text\">\n</div>\n</div>\n\n<div class=\"form-group\">\n<label for=\"strPostal\" class=\"col-md-4 control-label\"><span class=\"field-name\">Code postal : </span></label>\n<div class=\"col-md-8\">\n<input class=\"form-control\" id=\"strPostal\" name=\"strPostal\" type=\"text\">\n</div>\n</div>\n\n</fieldset>\t\n\n<input value=\"Soumettre votre demande\" id=\"btnSubmit\" name=\"btnSubmit\" class=\"btn btn-primary\" type=\"submit\"> \n<input value=\"Effacez tous les renseignements\" id=\"btnReset\" name=\"btnReset\" class=\"btn btn-default\" type=\"reset\">\n\n</form>\n</div>\n<script src=\"https://ajax.googleapis.com/ajax/libs/jquery/2.1.1/jquery.min.js\"></script>\n<script type=\"text/javascript\">\n$(document).ready (function(){\n\tif($(\"#strPaper\").checked || $(\"#strBraille\").checked)\n\t{\n\t\tPaperBrailleChecked();\n\t}\n});\n\n$(document).on(\"change\", \"#strBraille\", function(){\n\tif($(\"#strBraille\").is(\":checked\"))\n\t{\n\t\tPaperBrailleChecked();\n\t}\n\telse if(!($(\"#strPaper\").is(\":checked\")))\n\t{\n\t\tPaperBrailleUnChecked();\n\t}\n});\n\n$(document).on(\"change\", \"#strPaper\", function(){\n\tif($(\"#strPaper\").is(\":checked\"))\n\t{\n\t\tPaperBrailleChecked();\n\t}\n\telse if(!($(\"#strBraille\").is(\":checked\")))\n\t{\n\t\tPaperBrailleUnChecked();\n\t}\n});\n\nfunction PaperBrailleChecked()\n{\n\t$(\"#strAddress1\").attr(\"required\", \"true\");\n\t$(\"#strCity\").attr(\"required\", \"true\");\n\t$(\"#strProvince\").attr(\"required\", \"true\");\n\t$(\"#strCountry\").attr(\"required\", \"true\");\n\t$(\"#strPostal\").attr(\"required\", \"true\");\n}\n\nfunction PaperBrailleUnChecked()\n{\n\t$(\"#strAddress1\").removeAttr(\"required\");\n\t$(\"#strCity\").removeAttr(\"required\");\n\t$(\"#strProvince\").removeAttr(\"required\");\n\t$(\"#strCountry\").removeAttr(\"required\");\n\t$(\"#strPostal\").removeAttr(\"required\");\n}\n</script>\r\n\r\n<div class=\"row\">\r\n \r\n\t\t\t\r\n\t\t\t\r\n\r\n\t\t\r\n\t\r\n</div>"
    },
    "success": true,
    "chat_wizard": false
}