{
    "dcr_id": "1415838181260",
    "title": {
        "en": "National Chemical Residue Monitoring Program Annual Report 2012-2013",
        "fr": "Rapport annuel du Programme national de surveillance des r\u00e9sidus chimiques 2012-2013"
    },
    "html_modified": "2024-01-26 2:22:42 PM",
    "modified": "2018-09-04",
    "issued": "2018-06-05",
    "teamsite_location": {
        "en": "/default/main/inspection/cont-cont/food-aliments/STAGING/templatedata/comn-comn/forms-formes/data/chem_residue_reports_2012-2013_annualreport_1415838181260_eng",
        "fr": "/default/main/inspection/cont-cont/food-aliments/STAGING/templatedata/comn-comn/forms-formes/data/chem_residue_reports_2012-2013_annualreport_1415838181260_fra"
    },
    "ia_id": "1415838265896",
    "parent_ia_id": "1453327843364",
    "chronicletopic": {
        "en": "",
        "fr": ""
    },
    "chroniclecontent": {
        "en": "",
        "fr": ""
    },
    "chronicleaudience": {
        "en": "",
        "fr": ""
    },
    "sfcrdocumenttype": {
        "en": "",
        "fr": ""
    },
    "sfcraudience": {
        "en": "",
        "fr": ""
    },
    "sfcrmethodofproduction": {
        "en": "",
        "fr": ""
    },
    "activity": {
        "en": "",
        "fr": ""
    },
    "commodity": {
        "en": "",
        "fr": ""
    },
    "program": {
        "en": "",
        "fr": ""
    },
    "search_type": "other",
    "parent_node_id": "1453327843364",
    "layout_name": "content page 1 column",
    "breadcrumb": {
        "en": "National Chemical Residue Monitoring Program Annual Report 2012-2013",
        "fr": "Rapport annuel du Programme national de surveillance des r\u00e9sidus chimiques 2012-2013"
    },
    "label": {
        "en": "National Chemical Residue Monitoring Program Annual Report 2012-2013",
        "fr": "Rapport annuel du Programme national de surveillance des r\u00e9sidus chimiques 2012-2013"
    },
    "templatetype": "content page 1 column",
    "node_id": "1415838265896",
    "managing_branch": "comn",
    "type_name": "forms-formes",
    "dcr_type": "forms-formes",
    "parent_dcr_id": "1453324778043",
    "has_dcr_id": true,
    "lang": "en",
    "could_not_load": 0,
    "refaire": false,
    "interwoven_url": {
        "en": "/food-safety-for-industry/food-chemistry-and-microbiology/food-safety-testing-reports-and-journal-articles/national-chemical-residue-monitoring-program-annua/",
        "fr": "/salubrite-alimentaire-pour-l-industrie/chimie-et-microbiologie-alimentaires/rapports-d-analyse-et-articles-de-revues-sur-la-sa/rapport-annuel-du-programme-national-de-surveillan/"
    },
    "meta": {
        "viewport": {
            "en": "width=device-width,initial-scale=1",
            "fr": "width=device-width,initial-scale=1"
        },
        "service": {
            "en": "CFIA-ACIA",
            "fr": "CFIA-ACIA"
        },
        "accessRights": {
            "en": "2",
            "fr": "2"
        },
        "title": {
            "en": "National Chemical Residue Monitoring Program Annual Report 2012-2013",
            "fr": "Rapport annuel du Programme national de surveillance des r\u00e9sidus chimiques 2012-2013"
        },
        "description": {
            "en": "The Canadian Food Inspection Agency (CFIA) is responsible for monitoring the food supply for chemical residues and contaminants, and determination of compliance with maximum residue limits (MRLs) and maximum levels established by Health Canada. This report describes the monitoring activities undertaken by the CFIA between April 1, 2012 and March 31, 2013 (hereafter referred to as 2012-2013) as part of the National Chemical Residue Monitoring Program (NCRMP).",
            "fr": "L?Agence canadienne d?inspection des aliments (ACIA) surveille la pr\u00e9sence de r\u00e9sidus chimiques et de contaminants dans l?approvisionnement alimentaire et d\u00e9termine la conformit\u00e9 des produits aux limites maximales de r\u00e9sidus (LMR) et aux concentrations maximales \u00e9tablies par Sant\u00e9 Canada. Le pr\u00e9sent rapport d\u00e9crit les activit\u00e9s de surveillance mises en ?uvre par l?ACIA entre le 1er avril 2012 et le 31 mars 2013 (p\u00e9riode ci-apr\u00e8s appel\u00e9e 2012-2013) dans le cadre du Programme national de surveillance des r\u00e9sidus chimiques (PNSRC)."
        },
        "keywords": {
            "en": "chemical residues, testing, sampling, reporting, annual report, monitoring program, contaminants, maximum residue limits, executive summary",
            "fr": "R\u00e9sidus chimiques, essai, pr\u00e9l\u00e8vement,  rapports, rapport annuel, programme national de surveillance, contaminants, limites maximales de r\u00e9sidus, sommaire"
        },
        "dcterms.subject": {
            "en": "assessment,inspection,food inspection,veterinary medicine,agri-food products,scientific research,food safety",
            "fr": "\u00e9valuation,inspection,inspection des aliments,m\u00e9decine v\u00e9t\u00e9rinaire,produit agro-alimentaire,recherche scientifique,salubrit\u00e9 des aliments"
        },
        "creator": {
            "en": "Government of Canada,Canadian Food Inspection Agency",
            "fr": "Gouvernement du Canada,Agence canadienne d'inspection des aliments"
        },
        "language": {
            "en": "eng",
            "fr": "fra"
        },
        "issued": {
            "en": "2018-06-05",
            "fr": "2018-06-05"
        },
        "modified": {
            "en": "2018-09-04",
            "fr": "2018-09-04"
        },
        "type": {
            "en": "reference material",
            "fr": "mat\u00e9riel de r\u00e9f\u00e9rence"
        },
        "audience": {
            "en": "business,government,general public,scientists",
            "fr": "entreprises,gouvernement,grand public,Scientifiques"
        },
        "name": {
            "en": "Government of Canada",
            "fr": "Gouvernement du Canada"
        },
        "areaServed": {
            "en": "Canada",
            "fr": "Canada"
        }
    },
    "h1": {
        "en": "National Chemical Residue Monitoring Program Annual Report 2012-2013",
        "fr": "Rapport annuel du Programme national de surveillance des r\u00e9sidus chimiques 2012-2013"
    },
    "js": {
        "en": "<script>\n    document.frmPublication.strTitle.value = document.getElementsByTagName(\"title\")[0].innerHTML;\n    document.frmPublication.strUrl.value = document.URL;\n</script>/* --------------------- MORE JAVASCRIPT ------------------- */<script>\n$(document).ready (function(){\n\tif($(\"#strPaper\").checked || $(\"#strBraille\").checked)\n\t{\n\t\tPaperBrailleChecked();\n\t}\n});\n\n$(document).on(\"change\", \"#strBraille\", function(){\n\tif($(\"#strBraille\").is(\":checked\"))\n\t{\n\t\tPaperBrailleChecked();\n\t}\n\telse if(!($(\"#strPaper\").is(\":checked\")))\n\t{\n\t\tPaperBrailleUnChecked();\n\t}\n});\n\n$(document).on(\"change\", \"#strPaper\", function(){\n\tif($(\"#strPaper\").is(\":checked\"))\n\t{\n\t\tPaperBrailleChecked();\n\t}\n\telse if(!($(\"#strBraille\").is(\":checked\")))\n\t{\n\t\tPaperBrailleUnChecked();\n\t}\n});\n\nfunction PaperBrailleChecked()\n{\n\t$(\"#strAddress1\").attr(\"required\", \"true\");\n\t$(\"#strCity\").attr(\"required\", \"true\");\n\t$(\"#strProvince\").attr(\"required\", \"true\");\n\t$(\"#strCountry\").attr(\"required\", \"true\");\n\t$(\"#strPostal\").attr(\"required\", \"true\");\n}\n\nfunction PaperBrailleUnChecked()\n{\n\t$(\"#strAddress1\").removeAttr(\"required\");\n\t$(\"#strCity\").removeAttr(\"required\");\n\t$(\"#strProvince\").removeAttr(\"required\");\n\t$(\"#strCountry\").removeAttr(\"required\");\n\t$(\"#strPostal\").removeAttr(\"required\");\n}\n</script>",
        "fr": "<script>\n    document.frmPublication.strTitle.value = document.getElementsByTagName(\"title\")[0].innerHTML;\n    document.frmPublication.strUrl.value = document.URL;\n</script>/* --------------------- MORE JAVASCRIPT ------------------- */<script>\n$(document).ready (function(){\n\tif($(\"#strPaper\").checked || $(\"#strBraille\").checked)\n\t{\n\t\tPaperBrailleChecked();\n\t}\n});\n\n$(document).on(\"change\", \"#strBraille\", function(){\n\tif($(\"#strBraille\").is(\":checked\"))\n\t{\n\t\tPaperBrailleChecked();\n\t}\n\telse if(!($(\"#strPaper\").is(\":checked\")))\n\t{\n\t\tPaperBrailleUnChecked();\n\t}\n});\n\n$(document).on(\"change\", \"#strPaper\", function(){\n\tif($(\"#strPaper\").is(\":checked\"))\n\t{\n\t\tPaperBrailleChecked();\n\t}\n\telse if(!($(\"#strBraille\").is(\":checked\")))\n\t{\n\t\tPaperBrailleUnChecked();\n\t}\n});\n\nfunction PaperBrailleChecked()\n{\n\t$(\"#strAddress1\").attr(\"required\", \"true\");\n\t$(\"#strCity\").attr(\"required\", \"true\");\n\t$(\"#strProvince\").attr(\"required\", \"true\");\n\t$(\"#strCountry\").attr(\"required\", \"true\");\n\t$(\"#strPostal\").attr(\"required\", \"true\");\n}\n\nfunction PaperBrailleUnChecked()\n{\n\t$(\"#strAddress1\").removeAttr(\"required\");\n\t$(\"#strCity\").removeAttr(\"required\");\n\t$(\"#strProvince\").removeAttr(\"required\");\n\t$(\"#strCountry\").removeAttr(\"required\");\n\t$(\"#strPostal\").removeAttr(\"required\");\n}\n</script>"
    },
    "mode_html": "no_editor_full",
    "body": {
        "en": "        \r\n        \n<h2>Summary</h2>  \n\n<p>The Canadian Food Inspection Agency (CFIA) is responsible for monitoring the food supply for chemical residues and contaminants, and determination of compliance with maximum residue limits (MRLs) and maximum levels established by Health Canada. This report describes the monitoring activities undertaken by the <abbr title=\"Canadian Food Inspection Agency\">CFIA</abbr> between April 1, 2012 and March 31, 2013 (hereafter referred to as 2012-2013) as part of the National Chemical Residue Monitoring Program (NCRMP).</p>\n\n<p>The <abbr title=\"National Chemical Residue Monitoring Program\">NCRMP</abbr> has operated annually since 1978. Information obtained through this program enables the <abbr title=\"Canadian Food Inspection Agency\">CFIA</abbr> to verify compliance with Canadian <abbr title=\"maximum residue limits\">MRLs</abbr> and maximum levels and take appropriate follow-up action. It also allows the <abbr title=\"Canadian Food Inspection Agency\">CFIA</abbr> to identify trends over time, gauge the effectiveness of policies and programs, and develop strategic plans to minimize potential health risks to Canadians. The <abbr title=\"National Chemical Residue Monitoring Program\">NCRMP</abbr> sampling plans are developed in accordance with internationally accepted Codex Alimentarius principles and guidelines. Samples are analyzed for various chemical residues and contaminants using validated multi-residue and single residue methods by <abbr title=\"Canadian Food Inspection Agency\">CFIA</abbr> laboratories and accredited laboratories under contract with the Government of Canada. The results are assessed for compliance with established Canadian  <abbr title=\"maximum residue limits\">MRLs</abbr> and maximum levels; follow-up and enforcement action is taken as necessary.</p>\n\n<p>In the context of the 2012-2013 <abbr title=\"National Chemical Residue Monitoring Program\">NCRMP</abbr>, over 120 000 tests for residues of veterinary drugs, pesticides, metals and other contaminants were performed on over 19 000 monitoring samples of domestic and imported dairy products, eggs, honey, meat products, fresh fruit and vegetables, processed products, and maple products. These tests produced over three million results. The results of these analyses are summarized and discussed in this report.</p>\n\n<p>All detected chemical residues and contaminants were evaluated to determine if they were compliant with Canadian <abbr title=\"maximum residue limits\">MRLs</abbr> and maximum levels. Overall sample compliance rates were high for all commodities tested and the results observed were consistent with those seen in previous years. Similar results were observed for domestic and imported products, and there was no clear relationship between compliance rate and country of origin.</p> \n\n<p>Foods of plant and animal origin were tested for pesticide residues and the overall sample compliance rate was 97.38%. Most pesticide residue violations were associated with pesticides that did not have a specific <abbr title=\"maximum residue limit\">MRL</abbr> established and exceeded the general <abbr title=\"maximum residue limit\">MRL</abbr>.</p> \n\n<p>Foods of animal origin (dairy products, eggs, honey, meat products) were tested for veterinary drug residues. The overall sample compliance rate was 97.45%. The majority of violations were for commodity-drug combinations for which no <abbr title=\"maximum residue limit\">MRL</abbr> has been established.</p> \n\n<p>Foods of animal and plant origin were tested for up to 20 different metals and elements. As there are few <abbr title=\"maximum residue limits\">MRLs</abbr> or maximum levels established by Health Canada for metals or elements in food, compliance rates were not calculated. The results for the metals of high toxicological importance with respect to human health (arsenic, cadmium, mercury and lead) are described in detail in this report. Samples containing higher concentrations of metals and elements than historically reported were assessed and no human health concerns were identified.</p> \n\n<p>A number of foods of animal and plant origin were tested for various contaminants including melamine, mycotoxins and polycyclic aromatic hydrocarbons (PAH). Melamine was not detected in any of the domestic or imported eggs or dairy products tested. Dairy products were tested for the mycotoxin aflatoxin M1 and levels detected were below the Codex maximum level. In all samples tested for <abbr title=\"polycyclic aromatic hydrocarbon\">PAH</abbr>s, one or more <abbr title=\"polycyclic aromatic hydrocarbon\">PAH</abbr>s were detected. Foods of animal origin were tested for dioxins, furans and polychlorinated biphenyls (PCBs). Samples containing higher than historically reported levels of these contaminants were assessed and no human health concerns were identified.</p> \n\n<p>All violations were assessed to determine the appropriate follow-up action. These actions can include notification of the producer or importer, follow-up inspections or further directed sampling according to a surveillance plan. Follow-up actions vary according to the magnitude of the health risk, with the objective of preventing any repeat occurrence or further distribution of the product in the marketplace. If Health Canada determines that the product could pose a health risk to consumers or certain segments of the population, a product recall may be initiated.</p>\r\n<style>\n/* required style */\n    .keyValue{\n\tdisplay: none !important;\n        visibility: hidden !important;\n</style>\n<h2>Request of Complete Report</h2>\n<p>The complete text of this report is available upon request.</p>\n\n<div class=\"wb-frmvld\">\n\n<form class=\"form-horizontal\" role=\"form\" method=\"post\" action=\"/active/netapp/comment/publicationposte.aspx#wb-cont\" name=\"frmPublication\">\n<input id=\"emailad0\" name=\"to\" class=\"hidden\" type=\"hidden\" aria-hidden=\"true\" value=\"E2AoPYmWHNyYbq88ojDGDSeI4sm/2/RGDkdzcFK8iBU8cyMGfyW2Mw35fQ6tsZIZq4DOa1Kxxl5Hb9S8H8ZDSbTwyhtua+/xVje+1AyMbHk=\">\n<input name=\"strLang\" type=\"hidden\" value=\"English\">\n<input name=\"strSubject\" type=\"hidden\" value=\"Chemical Residues / Microbiology Report Request\">\n<input name=\"strTitle\" type=\"hidden\" value=\"title\">\n<input name=\"strUrl\" type=\"hidden\" value=\"url\">\n<script type=\"text/javascript\">\n    document.frmPublication.strTitle.value = document.getElementsByTagName(\"title\")[0].innerHTML;\n    document.frmPublication.strUrl.value = document.URL;\n</script>\n        \n<fieldset class=\"mrgn-tp-md mrgn-bttm-lg\">\t\t\n\n<legend class=\"field-name required\"><span class=\"field-name\">The format in which you would like to receive the report</span> <strong class=\"required\">(required)</strong></legend>\n\n<div class=\"checkbox\">\n<label for=\"strPdf\"><input type=\"checkbox\" name=\"formatsent\" id=\"strPdf\" value=\"pdf\" required=\"required\">PDF (Portable Document Format) electronic file sent to you by email</label>\n</div>\n\n<div class=\"checkbox\">\n<label for=\"strText\"><input type=\"checkbox\" name=\"formatsent\" id=\"strText\" value=\"text\">RTF (Rich Text Format) electronic file sent to you by email</label>\n</div>\n\n<div class=\"checkbox\">\n<label for=\"strBraille\"><input type=\"checkbox\" name=\"formatsent\" id=\"strBraille\" value=\"braille\">Braille copy sent to you by mail</label>\n</div>\n\n<div class=\"checkbox\">\n<label for=\"strPaper\"><input type=\"checkbox\" name=\"formatsent\" id=\"strPaper\" value=\"paper\">Paper copy sent to you by mail</label>\n</div>\n\n</fieldset>\t\n\n<fieldset class=\"mrgn-tp-md mrgn-bttm-lg\">\t\t\n\n<legend class=\"field-name\">Your contact information</legend>\n\n<label class=\"keyValue\" for=\"name\"></label>\n<input class=\"keyValue\" autocomplete=\"off\" type=\"text\" id=\"name\" name=\"name\">\n<label class=\"keyValue\" for=\"email\"></label>\n<input class=\"keyValue\" autocomplete=\"off\" type=\"email\" id=\"email\" name=\"email\"> \n\n<div class=\"form-group\">\n<label for=\"strFirstName\" class=\"required col-md-4 control-label\"><span class=\"field-name\">First name:</span> <strong class=\"required\">(required)</strong></label>\n<div class=\"col-md-8\">\n<input class=\"form-control\" id=\"strFirstName\" name=\"strFirstName\" type=\"text\" required=\"required\" pattern=\".{2,}\" data-rule-minlength=\"2\">\n</div>\n</div>\n            \n<div class=\"form-group\">\n<label for=\"strLastName\" class=\"required col-md-4 control-label\"><span class=\"field-name\">Last name:</span> <strong class=\"required\">(required)</strong></label>\n<div class=\"col-md-8\">\n<input class=\"form-control\" id=\"strLastName\" name=\"strLastName\" type=\"text\" required=\"required\" pattern=\".{2,}\" data-rule-minlength=\"2\">\n</div>\n</div>\n\n<div class=\"form-group\">\n<label for=\"strEmail\" class=\"required col-md-4 control-label\"><span class=\"field-name\">Email address:</span>  <strong class=\"required\">(required)</strong></label>\n<div class=\"col-md-8\">\n<input class=\"form-control\" id=\"strEmail\" name=\"strEmail\" type=\"email\" required=\"required\">\n</div>\n</div>\n\n<div class=\"form-group\">\n<label for=\"strConfirmEmail\" class=\"required col-md-4 control-label\"><span class=\"field-name\">Confirm email address:</span>  <strong class=\"required\">(required)</strong></label>\n<div class=\"col-md-8\">\n<input class=\"form-control\" id=\"strConfirmEmail\" name=\"strConfirmEmail\" type=\"email\" data-rule-equalto=\"#strEmail\" required=\"required\">\n</div>\n</div>\n\n<div class=\"form-group mrgn-tp-md\">\n<label for=\"lstdescribe\" class=\"required col-md-4 control-label\"><span class=\"field-name\">How would you describe yourself?</span> <strong class=\"required\">(required)</strong></label>\n<div class=\"col-md-8\">\n<select class=\"form-control\" id=\"lstdescribe\" name=\"lstdescribe\" required=\"required\">\n<option label=\"Select from this list\"></option>\n<option value=\"Academia\">Academia</option>\n<option value=\"Consumer Association\">Consumer Association</option>\n<option value=\"Consumer/General Public\">Consumer / General Public</option>\n<option value=\"Industry Association\">Industry Association</option>\n<option value=\"Industry/Commercial Sector\">Industry / Commercial Sector</option>\n<option value=\"Other Government Departments\">Other Government Departments</option>\t\t\t\n</select>\n</div>\n</div>\t\n\n<div class=\"form-group\">\n<label for=\"strAddress1\" class=\"col-md-4 control-label\"><span class=\"field-name\">Address 1:</span></label>\n<div class=\"col-md-8\">\n<input class=\"form-control\" id=\"strAddress1\" name=\"strAddress1\" type=\"text\">\n</div>\n</div>\n\n<div class=\"form-group\">\n<label for=\"strAddress2\" class=\"col-md-4 control-label\"><span class=\"field-name\">Address 2:</span></label>\n<div class=\"col-md-8\">\n<input class=\"form-control\" id=\"strAddress2\" name=\"strAddress2\" type=\"text\">\n</div>\n</div>\n\n<div class=\"form-group\">\n<label for=\"strCity\" class=\"col-md-4 control-label\"><span class=\"field-name\">City:</span></label>\n<div class=\"col-md-8\">\n<input class=\"form-control\" id=\"strCity\" name=\"strCity\" type=\"text\">\n</div>\n</div>\n\n<div class=\"form-group\">\n<label for=\"strProvince\" class=\"col-md-4 control-label\"><span class=\"field-name\">Province:</span></label>\n<div class=\"col-md-8\">\n<input class=\"form-control\" id=\"strProvince\" name=\"strProvince\" type=\"text\">\n</div>\n</div>\n\n<div class=\"form-group\">\n<label for=\"strCountry\" class=\"col-md-4 control-label\"><span class=\"field-name\">Country:</span></label>\n<div class=\"col-md-8\">\n<input class=\"form-control\" id=\"strCountry\" name=\"strCountry\" type=\"text\">\n</div>\n</div>\n\n<div class=\"form-group\">\n<label for=\"strPostal\" class=\"col-md-4 control-label\"><span class=\"field-name\">Postal Code:</span></label>\n<div class=\"col-md-8\">\n<input class=\"form-control\" id=\"strPostal\" name=\"strPostal\" type=\"text\">\n</div>\n</div>\n\n</fieldset>\t\n\n<input value=\"Submit Your Request\" id=\"btnSubmit\" name=\"btnSubmit\" class=\"btn btn-primary\" type=\"submit\"> \n<input value=\"Clear All Information\" id=\"btnReset\" name=\"btnReset\" class=\"btn btn-default\" type=\"reset\">\n\n</form>\n</div>\n<script src=\"https://ajax.googleapis.com/ajax/libs/jquery/2.1.1/jquery.min.js\"></script>\n<script type=\"text/javascript\">\n$(document).ready (function(){\n\tif($(\"#strPaper\").checked || $(\"#strBraille\").checked)\n\t{\n\t\tPaperBrailleChecked();\n\t}\n});\n\n$(document).on(\"change\", \"#strBraille\", function(){\n\tif($(\"#strBraille\").is(\":checked\"))\n\t{\n\t\tPaperBrailleChecked();\n\t}\n\telse if(!($(\"#strPaper\").is(\":checked\")))\n\t{\n\t\tPaperBrailleUnChecked();\n\t}\n});\n\n$(document).on(\"change\", \"#strPaper\", function(){\n\tif($(\"#strPaper\").is(\":checked\"))\n\t{\n\t\tPaperBrailleChecked();\n\t}\n\telse if(!($(\"#strBraille\").is(\":checked\")))\n\t{\n\t\tPaperBrailleUnChecked();\n\t}\n});\n\nfunction PaperBrailleChecked()\n{\n\t$(\"#strAddress1\").attr(\"required\", \"true\");\n\t$(\"#strCity\").attr(\"required\", \"true\");\n\t$(\"#strProvince\").attr(\"required\", \"true\");\n\t$(\"#strCountry\").attr(\"required\", \"true\");\n\t$(\"#strPostal\").attr(\"required\", \"true\");\n}\n\nfunction PaperBrailleUnChecked()\n{\n\t$(\"#strAddress1\").removeAttr(\"required\");\n\t$(\"#strCity\").removeAttr(\"required\");\n\t$(\"#strProvince\").removeAttr(\"required\");\n\t$(\"#strCountry\").removeAttr(\"required\");\n\t$(\"#strPostal\").removeAttr(\"required\");\n}\n</script>\r\n\r\n\r\n\r\n<div class=\"row\">\r\n \r\n\t\r\n\t\t\t\r\n\r\n<div class=\"col-xm-12 pagedetails container\">\r\n\t\t\t\t\r\n\r\n</div>\r\n\t\r\n</div>",
        "fr": "\r\n        \r\n        \n<h2>R\u00e9sum\u00e9</h2>\n\n<p>L'Agence canadienne d'inspection des aliments (ACIA) surveille la pr\u00e9sence de r\u00e9sidus chimiques et de contaminants dans l'approvisionnement alimentaire et d\u00e9termine la conformit\u00e9 des produits aux limites maximales de r\u00e9sidus (LMR) et aux concentrations maximales \u00e9tablies par Sant\u00e9 Canada. Le pr\u00e9sent rapport d\u00e9crit les activit\u00e9s de surveillance mises en \u0153uvre par l'<abbr title=\"Agence canadienne d'inspection des aliments\">ACIA</abbr> entre le 1er avril 2012 et le 31 mars 2013 (p\u00e9riode ci-apr\u00e8s appel\u00e9e 2012-2013) dans le cadre du Programme national de surveillance des r\u00e9sidus chimiques (PNSRC).</p>\n\n<p>Le <abbr title=\"Programme national de surveillance des r\u00e9sidus chimiques\">PNSRC</abbr> est ex\u00e9cut\u00e9 chaque ann\u00e9e depuis 1978. Gr\u00e2ce aux renseignements obtenus par ce programme, l'<abbr title=\"Agence canadienne d'inspection des aliments\">ACIA</abbr> peut v\u00e9rifier la conformit\u00e9 des aliments aux <abbr title=\"limites maximales de r\u00e9sidus\">LMR</abbr> et aux concentrations maximales canadiennes, et prendre des mesures de suivi appropri\u00e9es. Ces renseignements permettent \u00e9galement \u00e0 l'<abbr title=\"Agence canadienne d'inspection des aliments\">ACIA</abbr> de d\u00e9gager des tendances au fil du temps, d'\u00e9valuer l'efficacit\u00e9 des politiques et des programmes et, enfin, d'\u00e9laborer des plans strat\u00e9giques pour limiter les risques pour la sant\u00e9 des Canadiens. Les plans d'\u00e9chantillonnage du <abbr title=\"Programme national de surveillance des r\u00e9sidus chimiques\">PNSRC</abbr> sont \u00e9labor\u00e9s conform\u00e9ment aux principes et aux lignes directrices du Codex Alimentarius accept\u00e9s \u00e0 l'\u00e9chelle internationale. Les \u00e9chantillons sont analys\u00e9s \u00e0 l'\u00e9gard de divers r\u00e9sidus chimiques et contaminants \u00e0 l'aide de m\u00e9thodes d'analyse d'un seul r\u00e9sidu et multi-r\u00e9sidus valid\u00e9es par les laboratoires de l'<abbr title=\"Agence canadienne d'inspection des aliments\">ACIA</abbr> et les laboratoires accr\u00e9dit\u00e9s li\u00e9s par contrat avec le gouvernement du Canada. On \u00e9value les r\u00e9sultats pour v\u00e9rifier s'ils sont conformes aux <abbr title=\"limites maximales de r\u00e9sidus\">LMR</abbr> et aux concentrations maximales canadiennes \u00e9tablies, et des mesures de suivi et d'application de la loi sont mises en \u0153uvre, s'il y a lieu.</p>\n\n<p>Dans le cadre du <abbr title=\"Programme national de surveillance des r\u00e9sidus chimiques\">PNSRC</abbr> de 2012-2013, on a men\u00e9 plus de 120 000 analyses ciblant des r\u00e9sidus de m\u00e9dicaments v\u00e9t\u00e9rinaires, de pesticides, de m\u00e9taux et d'autres contaminants dans plus de 19 000 \u00e9chantillons de surveillance issus de produits laitiers, d'\u0153ufs, de miel, de produits de viande, de fruits et l\u00e9gumes frais, de produits transform\u00e9s et de produits de l'\u00e9rable canadiens et import\u00e9s. Ces analyses ont permis d'obtenir plus de trois millions de r\u00e9sultats, lesquels sont r\u00e9sum\u00e9s et examin\u00e9s dans le pr\u00e9sent rapport.</p>\n\n<p>Tous les r\u00e9sultats mettant en \u00e9vidence des r\u00e9sidus chimiques ou des contaminants ont \u00e9t\u00e9 \u00e9valu\u00e9s par rapport aux <abbr title=\"limites maximales de r\u00e9sidus\">LMR</abbr> et aux concentrations maximales canadiennes \u00e9tablies. Dans l'ensemble, les taux de conformit\u00e9 des \u00e9chantillons \u00e9taient \u00e9lev\u00e9s pour tous les produits analys\u00e9s, et les r\u00e9sultats observ\u00e9s correspondaient \u00e0 ceux obtenus les ann\u00e9es pr\u00e9c\u00e9dentes. Des r\u00e9sultats semblables ont \u00e9t\u00e9 observ\u00e9s dans le cas des denr\u00e9es canadiennes et import\u00e9es, et aucun rapport clair n'a \u00e9t\u00e9 \u00e9tabli entre le taux de conformit\u00e9 et le pays d'origine.</p>\n\n<p>Les aliments d'origine v\u00e9g\u00e9tale et animale ont fait l'objet d'analyses ciblant des r\u00e9sidus de pesticides et le taux de conformit\u00e9 global des \u00e9chantillons \u00e9tait de 97,38 %. La majorit\u00e9 des non-conformit\u00e9s relev\u00e9es concernaient des r\u00e9sidus de pesticides pour lesquels aucune <abbr title=\"limites maximales de r\u00e9sidus\">LMR</abbr> n'avait \u00e9t\u00e9 \u00e9tablie et dont les concentrations d\u00e9passaient la <abbr title=\"limites maximales de r\u00e9sidus g\u00e9n\u00e9rale\">LMRG</abbr>.</p>\n\n<p>Les aliments d'origine animale (produits laitiers, \u0153ufs, miel, produits de viande) ont fait l'objet d'analyses ciblant des r\u00e9sidus de m\u00e9dicaments v\u00e9t\u00e9rinaires et le taux de conformit\u00e9 global des \u00e9chantillons \u00e9tait de 97,45 %. La majorit\u00e9 des infractions observ\u00e9es visaient des combinaisons de produits et de m\u00e9dicaments pour lesquelles aucune <abbr title=\"limites maximales de r\u00e9sidus\">LMR</abbr> n'avait \u00e9t\u00e9 \u00e9tablie.</p>\n\n<p>Les aliments d'origine v\u00e9g\u00e9tale et animale ont fait l'objet d'analyses ciblant jusqu'\u00e0 20 diff\u00e9rents m\u00e9taux et \u00e9l\u00e9ments. \u00c9tant donn\u00e9 que peu de <abbr title=\"limites maximales de r\u00e9sidus\">LMR</abbr> ou de concentrations maximales ont \u00e9t\u00e9 \u00e9tablies par Sant\u00e9 Canada pour les m\u00e9taux ou \u00e9l\u00e9ments pr\u00e9sents dans les aliments, aucun taux conformit\u00e9 n'a \u00e9t\u00e9 calcul\u00e9. Les r\u00e9sultats pour les m\u00e9taux de haute importance toxicologique \u00e0 l'\u00e9gard de la sant\u00e9 humaine (arsenic, cadmium, mercure et plomb) sont d\u00e9crits en d\u00e9tail dans le pr\u00e9sent rapport. Les \u00e9chantillons pr\u00e9sentant des concentrations plus \u00e9lev\u00e9es de m\u00e9taux et d'\u00e9l\u00e9ments que celles observ\u00e9es par le pass\u00e9 ont \u00e9t\u00e9 \u00e9valu\u00e9s, et il ressort des r\u00e9sultats d'analyse que ces concentrations ne posent aucun risque pour la sant\u00e9 humaine.</p>\n\n<p>Un certain nombre d'aliments d'origine v\u00e9g\u00e9tale et animale ont fait l'objet d'analyses ciblant divers contaminants, y compris la m\u00e9lamine, les mycotoxines et les hydrocarbures aromatiques polycycliques (HAP). La m\u00e9lamine n'a pas \u00e9t\u00e9 d\u00e9cel\u00e9e dans les \u0153ufs ni dans les produits laitiers canadiens ou import\u00e9s. Les produits laitiers ont fait l'objet d'analyses ciblant l'aflatoxine M1, une mycotoxine, et les concentrations d\u00e9cel\u00e9es durant ces analyses \u00e9taient inf\u00e9rieures \u00e0 la concentration maximale \u00e9tablie par le Codex. Dans tous les \u00e9chantillons ayant fait l'objet d'analyses ciblant les <abbr title=\"hydrocarbures aromatiques polycycliques\">HAP</abbr>, un ou plusieurs <abbr title=\"hydrocarbures aromatiques polycycliques\">HAP</abbr> ont \u00e9t\u00e9 d\u00e9tect\u00e9s. Les aliments d'origine animale ont fait l'objet d'analyses ciblant les dioxines, les furanes et les biph\u00e9nyles polychlor\u00e9s (BPC). Les \u00e9chantillons pr\u00e9sentant des concentrations plus \u00e9lev\u00e9es de ces contaminants que celles observ\u00e9es par le pass\u00e9 ont \u00e9t\u00e9 \u00e9valu\u00e9s, et il ressort des r\u00e9sultats d'analyse que ces concentrations ne posent aucun risque pour la sant\u00e9 humaine.</p>\n\n<p>Toutes les non-conformit\u00e9s ont \u00e9t\u00e9 \u00e9valu\u00e9es afin de d\u00e9terminer les mesures de suivi appropri\u00e9es \u00e0 prendre. Parmi ces mesures, mentionnons l'envoi d'avis au producteur ou \u00e0 l'importateur, des inspections de suivi ou d'autres \u00e9chantillonnages dirig\u00e9s effectu\u00e9s selon un plan de surveillance. Les mesures de suivi sont prises en fonction de l'importance du risque pour la sant\u00e9 et ont pour objectif de pr\u00e9venir toute nouvelle occurrence ou d'arr\u00eater la distribution de produits sur le march\u00e9. Si Sant\u00e9 Canada d\u00e9termine que des produits peuvent pr\u00e9senter un risque pour la sant\u00e9 des consommateurs ou certains segments de la population, un rappel peut \u00eatre lanc\u00e9.</p>\r\n<style>\n/* required style */\n    .keyValue{\n\tdisplay: none !important;\n        visibility: hidden !important;\n</style>\n<h2>Demande de rapport complet</h2>\n<p>La version int\u00e9grale du pr\u00e9sent rapport est disponible sur demande.</p>\n\n<div class=\"wb-frmvld\">\n\n<form class=\"form-horizontal\" role=\"form\" method=\"post\" action=\"/active/netapp/comment/publicationposte.aspx#wb-cont\" name=\"frmPublication\">\n\n<input id=\"emailad0\" name=\"to\" class=\"hidden\" type=\"hidden\" aria-hidden=\"true\" value=\"41bTgz3dpDaOBIlV1o2vLkdh9H/BBBiufPWlvoasouNGNIT3BeBQpK/3AUQU6Gk3GJzv2SLq/0RW73QRb0UX+uYG4m6jM2679ZqdzYR2MiM=\">\n<input name=\"strLang\" type=\"hidden\" value=\"Francais\">\n<input name=\"strSubject\" type=\"hidden\" value=\"Demande de rapport de r\u00e9sidus chimiques / microbiologie\">\n<input name=\"strTitle\" type=\"hidden\" value=\"title\">\n<input name=\"strUrl\" type=\"hidden\" value=\"url\">\n<script type=\"text/javascript\">\n    document.frmPublication.strTitle.value = document.getElementsByTagName(\"title\")[0].innerHTML;\n    document.frmPublication.strUrl.value = document.URL;\n</script>\n        \n<fieldset class=\"mrgn-tp-md mrgn-bttm-lg\">\t\t\n\n<legend class=\"field-name required\"><span class=\"field-name\">Le format dans lequel vous souhaitez recevoir le rapport</span> <strong class=\"required\">(obligatoire)</strong></legend>\n\n<div class=\"checkbox\">\n<label for=\"strPdf\"><input type=\"checkbox\" name=\"formatsent\" id=\"strPdf\" value=\"pdf\" required=\"required\">Fichier \u00e9lectronique PDF (format de document portable) envoy\u00e9 par courriel</label>\n</div>\n\n<div class=\"checkbox\">\n<label for=\"strText\"><input type=\"checkbox\" name=\"formatsent\" id=\"strText\" value=\"text\">Fichier \u00e9lectronique RTF (<span lang=\"en\">Rich Text Format</span>) envoy\u00e9 par courriel</label>\n</div>\n\n<div class=\"checkbox\">\n<label for=\"strBraille\"><input type=\"checkbox\" name=\"formatsent\" id=\"strBraille\" value=\"braille\">Copie braille envoy\u00e9e par la poste</label>\n</div>\n\n<div class=\"checkbox\">\n<label for=\"strPaper\"><input type=\"checkbox\" name=\"formatsent\" id=\"strPaper\" value=\"paper\">Copie papier envoy\u00e9e par la poste</label>\n</div>\n\n</fieldset>\t\n\n<fieldset class=\"mrgn-tp-md mrgn-bttm-lg\">\t\t\n\n<legend class=\"field-name\">Vos coordonn\u00e9es</legend>\n\n<label class=\"keyValue\" for=\"name\"></label>\n<input class=\"keyValue\" autocomplete=\"off\" type=\"text\" id=\"name\" name=\"name\">\n<label class=\"keyValue\" for=\"email\"></label>\n<input class=\"keyValue\" autocomplete=\"off\" type=\"email\" id=\"email\" name=\"email\"> \n\n<div class=\"form-group\">\n<label for=\"strFirstName\" class=\"required col-md-4 control-label\"><span class=\"field-name\">Pr\u00e9nom :</span> <strong class=\"required\">(obligatoire)</strong></label>\n<div class=\"col-md-8\">\n<input class=\"form-control\" id=\"strFirstName\" name=\"strFirstName\" type=\"text\" required=\"required\" pattern=\".{2,}\" data-rule-minlength=\"2\">\n</div>\n</div>\n            \n<div class=\"form-group\">\n<label for=\"strLastName\" class=\"required col-md-4 control-label\"><span class=\"field-name\">Nom :</span> <strong class=\"required\">(obligatoire)</strong></label>\n<div class=\"col-md-8\">\n<input class=\"form-control\" id=\"strLastName\" name=\"strLastName\" type=\"text\" required=\"required\" pattern=\".{2,}\" data-rule-minlength=\"2\">\n</div>\n</div>\n\n<div class=\"form-group\">\n<label for=\"strEmail\" class=\"required col-md-4 control-label\"><span class=\"field-name\">Adresse de courriel :</span> \u00a0<strong class=\"required\">(obligatoire)</strong></label>\n<div class=\"col-md-8\">\n<input class=\"form-control\" id=\"strEmail\" name=\"strEmail\" type=\"email\" required=\"required\">\n</div>\n</div>\n\n<div class=\"form-group\">\n<label for=\"strConfirmEmail\" class=\"required col-md-4 control-label\"><span class=\"field-name\">Confirmer Adresse de courriel :</span>  <strong class=\"required\">(obligatoire)</strong></label>\n<div class=\"col-md-8\">\n<input class=\"form-control\" id=\"strConfirmEmail\" name=\"strConfirmEmail\" type=\"email\" data-rule-equalto=\"#strEmail\" required=\"required\">\n</div>\n</div>\n\n<div class=\"form-group mrgn-tp-md\">\n<label for=\"lstdescribe\" class=\"required col-md-4 control-label\"><span class=\"field-name\">Comment vous vous d\u00e9criviez?</span> <strong class=\"required\">(obligatoire)</strong></label>\n<div class=\"col-md-8\">\n<select class=\"form-control\" id=\"lstdescribe\" name=\"lstdescribe\" required=\"required\">\n<option label=\"Choisir parmi la liste\"></option>\n<option value=\"Acad\u00e9mie\">Acad\u00e9mie</option>\n<option value=\"Association sectorielle\">Association sectorielle</option>  \n<option value=\"Autres institutions du gouvernement\">Autres institutions du gouvernement</option>\n<option value=\"Consommateur/Grand public\">Consommateur / Grand public</option>\n<option value=\"Groupe de consommateur\">Groupe de consommateur</option>\n<option value=\"Industrie/Secteur commercial\">Industrie / Secteur commercial</option>\n</select>\n</div>\n</div>\t\n\n<div class=\"form-group\">\n<label for=\"strAddress1\" class=\"col-md-4 control-label\"><span class=\"field-name\">Adresse 1 :</span></label>\n<div class=\"col-md-8\">\n<input class=\"form-control\" id=\"strAddress1\" name=\"strAddress1\" type=\"text\">\n</div>\n</div>\n\n<div class=\"form-group\">\n<label for=\"strAddress2\" class=\"col-md-4 control-label\"><span class=\"field-name\">Adresse 2 :</span></label>\n<div class=\"col-md-8\">\n<input class=\"form-control\" id=\"strAddress2\" name=\"strAddress2\" type=\"text\">\n</div>\n</div>\n\n<div class=\"form-group\">\n<label for=\"strCity\" class=\"col-md-4 control-label\"><span class=\"field-name\">Ville :</span></label>\n<div class=\"col-md-8\">\n<input class=\"form-control\" id=\"strCity\" name=\"strCity\" type=\"text\">\n</div>\n</div>\n\n<div class=\"form-group\">\n<label for=\"strProvince\" class=\"col-md-4 control-label\"><span class=\"field-name\">Province :</span></label>\n<div class=\"col-md-8\">\n<input class=\"form-control\" id=\"strProvince\" name=\"strProvince\" type=\"text\">\n</div>\n</div>\n\n<div class=\"form-group\">\n<label for=\"strCountry\" class=\"col-md-4 control-label\"><span class=\"field-name\">Pays : </span></label>\n<div class=\"col-md-8\">\n<input class=\"form-control\" id=\"strCountry\" name=\"strCountry\" type=\"text\">\n</div>\n</div>\n\n<div class=\"form-group\">\n<label for=\"strPostal\" class=\"col-md-4 control-label\"><span class=\"field-name\">Code postal : </span></label>\n<div class=\"col-md-8\">\n<input class=\"form-control\" id=\"strPostal\" name=\"strPostal\" type=\"text\">\n</div>\n</div>\n\n</fieldset>\t\n\n<input value=\"Soumettre votre demande\" id=\"btnSubmit\" name=\"btnSubmit\" class=\"btn btn-primary\" type=\"submit\"> \n<input value=\"Effacez tous les renseignements\" id=\"btnReset\" name=\"btnReset\" class=\"btn btn-default\" type=\"reset\">\n\n</form>\n</div>\n<script src=\"https://ajax.googleapis.com/ajax/libs/jquery/2.1.1/jquery.min.js\"></script>\n<script type=\"text/javascript\">\n$(document).ready (function(){\n\tif($(\"#strPaper\").checked || $(\"#strBraille\").checked)\n\t{\n\t\tPaperBrailleChecked();\n\t}\n});\n\n$(document).on(\"change\", \"#strBraille\", function(){\n\tif($(\"#strBraille\").is(\":checked\"))\n\t{\n\t\tPaperBrailleChecked();\n\t}\n\telse if(!($(\"#strPaper\").is(\":checked\")))\n\t{\n\t\tPaperBrailleUnChecked();\n\t}\n});\n\n$(document).on(\"change\", \"#strPaper\", function(){\n\tif($(\"#strPaper\").is(\":checked\"))\n\t{\n\t\tPaperBrailleChecked();\n\t}\n\telse if(!($(\"#strBraille\").is(\":checked\")))\n\t{\n\t\tPaperBrailleUnChecked();\n\t}\n});\n\nfunction PaperBrailleChecked()\n{\n\t$(\"#strAddress1\").attr(\"required\", \"true\");\n\t$(\"#strCity\").attr(\"required\", \"true\");\n\t$(\"#strProvince\").attr(\"required\", \"true\");\n\t$(\"#strCountry\").attr(\"required\", \"true\");\n\t$(\"#strPostal\").attr(\"required\", \"true\");\n}\n\nfunction PaperBrailleUnChecked()\n{\n\t$(\"#strAddress1\").removeAttr(\"required\");\n\t$(\"#strCity\").removeAttr(\"required\");\n\t$(\"#strProvince\").removeAttr(\"required\");\n\t$(\"#strCountry\").removeAttr(\"required\");\n\t$(\"#strPostal\").removeAttr(\"required\");\n}\n</script>\r\n\r\n<div class=\"row\">\r\n \r\n\t\t\t\r\n\t\t\t\r\n\r\n\t\t\r\n\t\r\n</div>"
    },
    "success": true,
    "chat_wizard": false
}