{
    "dcr_id": "1430919163515",
    "title": {
        "en": "2010-2011 Bacteria of Concern in Fresh Berries",
        "fr": "2010-2011 Bact\u00e9ries pathog\u00e8nes pr\u00e9occupantes dans les petits fruits frais"
    },
    "html_modified": "2024-01-26 2:22:52 PM",
    "modified": "2015-07-31",
    "issued": "2018-06-05",
    "teamsite_location": {
        "en": "/default/main/inspection/cont-cont/food-aliments/STAGING/templatedata/comn-comn/forms-formes/data/chem_micro_reports_2010-2011_bacconfrberries_1430919163515_eng",
        "fr": "/default/main/inspection/cont-cont/food-aliments/STAGING/templatedata/comn-comn/forms-formes/data/chem_micro_reports_2010-2011_bacconfrberries_1430919163515_fra"
    },
    "ia_id": "1430919164640",
    "parent_ia_id": "1453327843364",
    "chronicletopic": {
        "en": "",
        "fr": ""
    },
    "chroniclecontent": {
        "en": "",
        "fr": ""
    },
    "chronicleaudience": {
        "en": "",
        "fr": ""
    },
    "sfcrdocumenttype": {
        "en": "",
        "fr": ""
    },
    "sfcraudience": {
        "en": "",
        "fr": ""
    },
    "sfcrmethodofproduction": {
        "en": "",
        "fr": ""
    },
    "activity": {
        "en": "",
        "fr": ""
    },
    "commodity": {
        "en": "",
        "fr": ""
    },
    "program": {
        "en": "",
        "fr": ""
    },
    "search_type": "other",
    "parent_node_id": "1453327843364",
    "layout_name": "content page 1 column",
    "breadcrumb": {
        "en": "2010-2011 Bacteria of Concern in Fresh Berries",
        "fr": "2010-2011 Bact\u00e9ries pathog\u00e8nes pr\u00e9occupantes dans les petits fruits frais"
    },
    "label": {
        "en": "2010-2011 Bacteria of Concern in Fresh Berries",
        "fr": "2010-2011 Bact\u00e9ries pathog\u00e8nes pr\u00e9occupantes dans les petits fruits frais"
    },
    "templatetype": "content page 1 column",
    "node_id": "1430919164640",
    "managing_branch": "comn",
    "type_name": "forms-formes",
    "dcr_type": "forms-formes",
    "parent_dcr_id": "1453324778043",
    "has_dcr_id": true,
    "lang": "en",
    "could_not_load": 0,
    "refaire": false,
    "interwoven_url": {
        "en": "/food-safety-for-industry/food-chemistry-and-microbiology/food-safety-testing-reports-and-journal-articles/fresh-berries/",
        "fr": "/salubrite-alimentaire-pour-l-industrie/chimie-et-microbiologie-alimentaires/rapports-d-analyse-et-articles-de-revues-sur-la-sa/petits-fruits-frais/"
    },
    "meta": {
        "viewport": {
            "en": "width=device-width,initial-scale=1",
            "fr": "width=device-width,initial-scale=1"
        },
        "service": {
            "en": "CFIA-ACIA",
            "fr": "CFIA-ACIA"
        },
        "accessRights": {
            "en": "2",
            "fr": "2"
        },
        "title": {
            "en": "2010-2011 Bacteria of Concern in Fresh Berries",
            "fr": "2010-2011 Bact\u00e9ries pathog\u00e8nes pr\u00e9occupantes dans les petits fruits frais"
        },
        "description": {
            "en": "The main objectives of the 2010/11 survey were to generate baseline surveillance data on bacterial pathogens Salmonella, Shigella, and Escherichia coli O157:H7, as well as on the indicator of faecal contamination generic Escherichia coli, in imported and domestically produced fresh berries available in the Canadian market.",
            "fr": "Le principal objectif de l'\u00e9tude cibl\u00e9e de 2010-2011 \u00e9tait de recueillir des donn\u00e9es de surveillance de base sur les bact\u00e9ries pathog\u00e8nes Salmonella, Shigella et Escherichia coli O157:H7, de m\u00eame que sur l'indicateur de contamination f\u00e9cale Escherichia coli g\u00e9n\u00e9rique dans des petits fruits frais de provenance canadienne et import\u00e9s vendus sur le march\u00e9 canadien."
        },
        "keywords": {
            "en": "food, food safety, Food Safety Action Plan, targeted survey, FSAP, Salmonella, Shigella, Escherichia coli, fresh berries, 2010, 2011",
            "fr": "aliments, salubrit\u00e9 des aliments, Plan d'action pour assurer la s\u00e9curit\u00e9 des produits alimentaires, PAASPA, Salmonella, Shigella, Escherichia coli, petits fruits frais, 2010-2011"
        },
        "dcterms.subject": {
            "en": "agri-food products,consumer protection,food,food safety,regulation,safety,testing",
            "fr": "produit agro-alimentaire,protection du consommateur,aliment,salubrit\u00e9 des aliments,r\u00e9glementation,s\u00e9curit\u00e9,test"
        },
        "creator": {
            "en": "Government of Canada,Canadian Food Inspection Agency,Food Safety Science Directorate",
            "fr": "Gouvernement du Canada,Agence canadienne d'inspection des aliments,Direction des sciences de la salubrit\u00e9 des aliments"
        },
        "language": {
            "en": "eng",
            "fr": "fra"
        },
        "issued": {
            "en": "2018-06-05",
            "fr": "2018-06-05"
        },
        "modified": {
            "en": "2015-07-31",
            "fr": "2015-07-31"
        },
        "type": {
            "en": "reference material,report",
            "fr": "mat\u00e9riel de r\u00e9f\u00e9rence,rapport"
        },
        "audience": {
            "en": "business,general public,government",
            "fr": "entreprises,grand public,gouvernement"
        },
        "name": {
            "en": "Government of Canada",
            "fr": "Gouvernement du Canada"
        },
        "areaServed": {
            "en": "Canada",
            "fr": "Canada"
        }
    },
    "h1": {
        "en": "2010-2011 Bacteria of Concern in Fresh Berries",
        "fr": "2010-2011 Bact\u00e9ries pathog\u00e8nes pr\u00e9occupantes dans les petits fruits frais"
    },
    "js": {
        "en": "<script>\n    document.frmPublication.strTitle.value = document.getElementsByTagName(\"title\")[0].innerHTML;\n    document.frmPublication.strUrl.value = document.URL;\n</script>/* --------------------- MORE JAVASCRIPT ------------------- */<script>\n$(document).ready (function(){\n\tif($(\"#strPaper\").checked || $(\"#strBraille\").checked)\n\t{\n\t\tPaperBrailleChecked();\n\t}\n});\n\n$(document).on(\"change\", \"#strBraille\", function(){\n\tif($(\"#strBraille\").is(\":checked\"))\n\t{\n\t\tPaperBrailleChecked();\n\t}\n\telse if(!($(\"#strPaper\").is(\":checked\")))\n\t{\n\t\tPaperBrailleUnChecked();\n\t}\n});\n\n$(document).on(\"change\", \"#strPaper\", function(){\n\tif($(\"#strPaper\").is(\":checked\"))\n\t{\n\t\tPaperBrailleChecked();\n\t}\n\telse if(!($(\"#strBraille\").is(\":checked\")))\n\t{\n\t\tPaperBrailleUnChecked();\n\t}\n});\n\nfunction PaperBrailleChecked()\n{\n\t$(\"#strAddress1\").attr(\"required\", \"true\");\n\t$(\"#strCity\").attr(\"required\", \"true\");\n\t$(\"#strProvince\").attr(\"required\", \"true\");\n\t$(\"#strCountry\").attr(\"required\", \"true\");\n\t$(\"#strPostal\").attr(\"required\", \"true\");\n}\n\nfunction PaperBrailleUnChecked()\n{\n\t$(\"#strAddress1\").removeAttr(\"required\");\n\t$(\"#strCity\").removeAttr(\"required\");\n\t$(\"#strProvince\").removeAttr(\"required\");\n\t$(\"#strCountry\").removeAttr(\"required\");\n\t$(\"#strPostal\").removeAttr(\"required\");\n}\n</script>",
        "fr": "<script>\n    document.frmPublication.strTitle.value = document.getElementsByTagName(\"title\")[0].innerHTML;\n    document.frmPublication.strUrl.value = document.URL;\n</script>/* --------------------- MORE JAVASCRIPT ------------------- */<script>\n$(document).ready (function(){\n\tif($(\"#strPaper\").checked || $(\"#strBraille\").checked)\n\t{\n\t\tPaperBrailleChecked();\n\t}\n});\n\n$(document).on(\"change\", \"#strBraille\", function(){\n\tif($(\"#strBraille\").is(\":checked\"))\n\t{\n\t\tPaperBrailleChecked();\n\t}\n\telse if(!($(\"#strPaper\").is(\":checked\")))\n\t{\n\t\tPaperBrailleUnChecked();\n\t}\n});\n\n$(document).on(\"change\", \"#strPaper\", function(){\n\tif($(\"#strPaper\").is(\":checked\"))\n\t{\n\t\tPaperBrailleChecked();\n\t}\n\telse if(!($(\"#strBraille\").is(\":checked\")))\n\t{\n\t\tPaperBrailleUnChecked();\n\t}\n});\n\nfunction PaperBrailleChecked()\n{\n\t$(\"#strAddress1\").attr(\"required\", \"true\");\n\t$(\"#strCity\").attr(\"required\", \"true\");\n\t$(\"#strProvince\").attr(\"required\", \"true\");\n\t$(\"#strCountry\").attr(\"required\", \"true\");\n\t$(\"#strPostal\").attr(\"required\", \"true\");\n}\n\nfunction PaperBrailleUnChecked()\n{\n\t$(\"#strAddress1\").removeAttr(\"required\");\n\t$(\"#strCity\").removeAttr(\"required\");\n\t$(\"#strProvince\").removeAttr(\"required\");\n\t$(\"#strCountry\").removeAttr(\"required\");\n\t$(\"#strPostal\").removeAttr(\"required\");\n}\n</script>"
    },
    "mode_html": "no_editor_full",
    "body": {
        "en": "        \r\n        \n<h2>Summary</h2>\n\n<p>The Food Safety Action Plan (FSAP) aims to modernize and enhance Canada's food safety system in order to better protect Canadians from unsafe food and ultimately reduce the occurrence of foodborne illness.</p>\n\n<p>Fresh berries have been implicated in seven bacterial foodborne outbreaks around the world between 1999 and 2010. Berries can be exposed to foodborne pathogens in the field through contaminated irrigation water, improperly composted manure or contact with animals, as well as during picking, packing, and transportation. Berries are unique as their small size requires harvest by hand by a large number of workers, thus increasing the risk of being contaminated by an infected individual. Their delicate structure generally precludes washing before sale, so as not to shorten their shelf-life. In addition to outbreaks of bacterial illness, they have been implicated in outbreaks worldwide involving viruses and parasites \u2013 pathogens which come into contact with berries through similar exposure routes to bacteria of concern. Therefore, an assessment of the prevalence of pathogenic bacteria and indicators of faecal contamination in fresh berries at retail is warranted.</p>\n\n<p>Considering these factors and their relevance to Canadians, berries have been selected as one of the priority commodity groups of fresh fruits and vegetables for enhanced surveillance under the <abbr title=\"Food Safety Action Plan\">FSAP</abbr>. Over the course of a four-year baseline study (2009/10 - 2012/13), over 3,200 samples of berries were collected from Canadian retail locations and tested for the presence of various pathogens of concern.</p>\n\n<p>The main objectives of the 2010/11 survey were to generate baseline surveillance data on bacterial pathogens <span lang=\"la\">Salmonella</span>, <span lang=\"la\">Shigella</span>, and <span lang=\"la\"><abbr title=\"Escherichia\">E.</abbr>\u00a0coli</span>\u00a0O157:H7, as well as on the indicator of faecal contamination generic <span lang=\"la\"><abbr title=\"Escherichia\">E.</abbr>\u00a0coli</span>, in imported and domestically produced fresh berries available in the Canadian market. A total of 580 imported and 290 domestic samples of fresh berries were collected at retail. No pathogens were detected in any of the samples tested, and levels of generic <span lang=\"la\"><abbr title=\"Escherichia\">E.</abbr>\u00a0coli</span> were always found to be acceptable. The microbiological quality of all the samples was assessed as satisfactory and did not require any further action by the <abbr title=\"Canadian Food Inspection Agency\">CFIA</abbr>. These results suggest that the berries tested during this survey were produced under Good Agricultural Practices (GAPs) and Good Manufacturing Practices (GMPs).</p>\n\n<p>The <abbr title=\"Canadian Food Inspection Agency\">CFIA</abbr> regulates and provides oversight to the industry, works with provinces and territories, and promotes safe handling of foods throughout the food production chain. However, the food industry and retail sectors in Canada are ultimately responsible for the food they produce and sell, while individual consumers are responsible for the safe handling of the food they have in their possession. Moreover, general advice for the consumer on the safe handling of foods is widely available. The <abbr title=\"Canadian Food Inspection Agency\">CFIA</abbr> will continue its surveillance activities and inform stakeholders of its findings.</p>\r\n<style>\n/* required style */\n    .keyValue{\n\tdisplay: none !important;\n        visibility: hidden !important;\n</style>\n<h2>Request of Complete Report</h2>\n<p>The complete text of this report is available upon request.</p>\n\n<div class=\"wb-frmvld\">\n\n<form class=\"form-horizontal\" role=\"form\" method=\"post\" action=\"/active/netapp/comment/publicationposte.aspx#wb-cont\" name=\"frmPublication\">\n<input id=\"emailad0\" name=\"to\" class=\"hidden\" type=\"hidden\" aria-hidden=\"true\" value=\"+EjKiQnk6d5D9F0c5g0Wmbw8BZX35csC1zfBZfd5LD0qL8wMF0MwYl7D/qKCD623Y5VnVioIC3di3gDGG0XQ2PDuLUu8NzGOPFOUblrjWsg=\">\n<input name=\"strLang\" type=\"hidden\" value=\"English\">\n<input name=\"strSubject\" type=\"hidden\" value=\"Chemical Residues / Microbiology Report Request\">\n<input name=\"strTitle\" type=\"hidden\" value=\"title\">\n<input name=\"strUrl\" type=\"hidden\" value=\"url\">\n<script type=\"text/javascript\">\n    document.frmPublication.strTitle.value = document.getElementsByTagName(\"title\")[0].innerHTML;\n    document.frmPublication.strUrl.value = document.URL;\n</script>\n        \n<fieldset class=\"mrgn-tp-md mrgn-bttm-lg\">\t\t\n\n<legend class=\"field-name required\"><span class=\"field-name\">The format in which you would like to receive the report</span> <strong class=\"required\">(required)</strong></legend>\n\n<div class=\"checkbox\">\n<label for=\"strPdf\"><input type=\"checkbox\" name=\"formatsent\" id=\"strPdf\" value=\"pdf\" required=\"required\">PDF (Portable Document Format) electronic file sent to you by email</label>\n</div>\n\n<div class=\"checkbox\">\n<label for=\"strText\"><input type=\"checkbox\" name=\"formatsent\" id=\"strText\" value=\"text\">RTF (Rich Text Format) electronic file sent to you by email</label>\n</div>\n\n<div class=\"checkbox\">\n<label for=\"strBraille\"><input type=\"checkbox\" name=\"formatsent\" id=\"strBraille\" value=\"braille\">Braille copy sent to you by mail</label>\n</div>\n\n<div class=\"checkbox\">\n<label for=\"strPaper\"><input type=\"checkbox\" name=\"formatsent\" id=\"strPaper\" value=\"paper\">Paper copy sent to you by mail</label>\n</div>\n\n</fieldset>\t\n\n<fieldset class=\"mrgn-tp-md mrgn-bttm-lg\">\t\t\n\n<legend class=\"field-name\">Your contact information</legend>\n\n<label class=\"keyValue\" for=\"name\"></label>\n<input class=\"keyValue\" autocomplete=\"off\" type=\"text\" id=\"name\" name=\"name\">\n<label class=\"keyValue\" for=\"email\"></label>\n<input class=\"keyValue\" autocomplete=\"off\" type=\"email\" id=\"email\" name=\"email\"> \n\n<div class=\"form-group\">\n<label for=\"strFirstName\" class=\"required col-md-4 control-label\"><span class=\"field-name\">First name:</span> <strong class=\"required\">(required)</strong></label>\n<div class=\"col-md-8\">\n<input class=\"form-control\" id=\"strFirstName\" name=\"strFirstName\" type=\"text\" required=\"required\" pattern=\".{2,}\" data-rule-minlength=\"2\">\n</div>\n</div>\n            \n<div class=\"form-group\">\n<label for=\"strLastName\" class=\"required col-md-4 control-label\"><span class=\"field-name\">Last name:</span> <strong class=\"required\">(required)</strong></label>\n<div class=\"col-md-8\">\n<input class=\"form-control\" id=\"strLastName\" name=\"strLastName\" type=\"text\" required=\"required\" pattern=\".{2,}\" data-rule-minlength=\"2\">\n</div>\n</div>\n\n<div class=\"form-group\">\n<label for=\"strEmail\" class=\"required col-md-4 control-label\"><span class=\"field-name\">Email address:</span>  <strong class=\"required\">(required)</strong></label>\n<div class=\"col-md-8\">\n<input class=\"form-control\" id=\"strEmail\" name=\"strEmail\" type=\"email\" required=\"required\">\n</div>\n</div>\n\n<div class=\"form-group\">\n<label for=\"strConfirmEmail\" class=\"required col-md-4 control-label\"><span class=\"field-name\">Confirm email address:</span>  <strong class=\"required\">(required)</strong></label>\n<div class=\"col-md-8\">\n<input class=\"form-control\" id=\"strConfirmEmail\" name=\"strConfirmEmail\" type=\"email\" data-rule-equalto=\"#strEmail\" required=\"required\">\n</div>\n</div>\n\n<div class=\"form-group mrgn-tp-md\">\n<label for=\"lstdescribe\" class=\"required col-md-4 control-label\"><span class=\"field-name\">How would you describe yourself?</span> <strong class=\"required\">(required)</strong></label>\n<div class=\"col-md-8\">\n<select class=\"form-control\" id=\"lstdescribe\" name=\"lstdescribe\" required=\"required\">\n<option label=\"Select from this list\"></option>\n<option value=\"Academia\">Academia</option>\n<option value=\"Consumer Association\">Consumer Association</option>\n<option value=\"Consumer/General Public\">Consumer / General Public</option>\n<option value=\"Industry Association\">Industry Association</option>\n<option value=\"Industry/Commercial Sector\">Industry / Commercial Sector</option>\n<option value=\"Other Government Departments\">Other Government Departments</option>\t\t\t\n</select>\n</div>\n</div>\t\n\n<div class=\"form-group\">\n<label for=\"strAddress1\" class=\"col-md-4 control-label\"><span class=\"field-name\">Address 1:</span></label>\n<div class=\"col-md-8\">\n<input class=\"form-control\" id=\"strAddress1\" name=\"strAddress1\" type=\"text\">\n</div>\n</div>\n\n<div class=\"form-group\">\n<label for=\"strAddress2\" class=\"col-md-4 control-label\"><span class=\"field-name\">Address 2:</span></label>\n<div class=\"col-md-8\">\n<input class=\"form-control\" id=\"strAddress2\" name=\"strAddress2\" type=\"text\">\n</div>\n</div>\n\n<div class=\"form-group\">\n<label for=\"strCity\" class=\"col-md-4 control-label\"><span class=\"field-name\">City:</span></label>\n<div class=\"col-md-8\">\n<input class=\"form-control\" id=\"strCity\" name=\"strCity\" type=\"text\">\n</div>\n</div>\n\n<div class=\"form-group\">\n<label for=\"strProvince\" class=\"col-md-4 control-label\"><span class=\"field-name\">Province:</span></label>\n<div class=\"col-md-8\">\n<input class=\"form-control\" id=\"strProvince\" name=\"strProvince\" type=\"text\">\n</div>\n</div>\n\n<div class=\"form-group\">\n<label for=\"strCountry\" class=\"col-md-4 control-label\"><span class=\"field-name\">Country:</span></label>\n<div class=\"col-md-8\">\n<input class=\"form-control\" id=\"strCountry\" name=\"strCountry\" type=\"text\">\n</div>\n</div>\n\n<div class=\"form-group\">\n<label for=\"strPostal\" class=\"col-md-4 control-label\"><span class=\"field-name\">Postal Code:</span></label>\n<div class=\"col-md-8\">\n<input class=\"form-control\" id=\"strPostal\" name=\"strPostal\" type=\"text\">\n</div>\n</div>\n\n</fieldset>\t\n\n<input value=\"Submit Your Request\" id=\"btnSubmit\" name=\"btnSubmit\" class=\"btn btn-primary\" type=\"submit\"> \n<input value=\"Clear All Information\" id=\"btnReset\" name=\"btnReset\" class=\"btn btn-default\" type=\"reset\">\n\n</form>\n</div>\n<script src=\"https://ajax.googleapis.com/ajax/libs/jquery/2.1.1/jquery.min.js\"></script>\n<script type=\"text/javascript\">\n$(document).ready (function(){\n\tif($(\"#strPaper\").checked || $(\"#strBraille\").checked)\n\t{\n\t\tPaperBrailleChecked();\n\t}\n});\n\n$(document).on(\"change\", \"#strBraille\", function(){\n\tif($(\"#strBraille\").is(\":checked\"))\n\t{\n\t\tPaperBrailleChecked();\n\t}\n\telse if(!($(\"#strPaper\").is(\":checked\")))\n\t{\n\t\tPaperBrailleUnChecked();\n\t}\n});\n\n$(document).on(\"change\", \"#strPaper\", function(){\n\tif($(\"#strPaper\").is(\":checked\"))\n\t{\n\t\tPaperBrailleChecked();\n\t}\n\telse if(!($(\"#strBraille\").is(\":checked\")))\n\t{\n\t\tPaperBrailleUnChecked();\n\t}\n});\n\nfunction PaperBrailleChecked()\n{\n\t$(\"#strAddress1\").attr(\"required\", \"true\");\n\t$(\"#strCity\").attr(\"required\", \"true\");\n\t$(\"#strProvince\").attr(\"required\", \"true\");\n\t$(\"#strCountry\").attr(\"required\", \"true\");\n\t$(\"#strPostal\").attr(\"required\", \"true\");\n}\n\nfunction PaperBrailleUnChecked()\n{\n\t$(\"#strAddress1\").removeAttr(\"required\");\n\t$(\"#strCity\").removeAttr(\"required\");\n\t$(\"#strProvince\").removeAttr(\"required\");\n\t$(\"#strCountry\").removeAttr(\"required\");\n\t$(\"#strPostal\").removeAttr(\"required\");\n}\n</script>\r\n\r\n\r\n\r\n<div class=\"row\">\r\n \r\n\t\r\n\t\t\t\r\n\r\n<div class=\"col-xm-12 pagedetails container\">\r\n\t\t\t\t\r\n\r\n</div>\r\n\t\r\n</div>",
        "fr": "\r\n        \r\n        \n<h2>R\u00e9sum\u00e9</h2>\n<p>Le Plan d'action pour assurer la s\u00e9curit\u00e9 des produits alimentaires (PAASPA) vise \u00e0 moderniser et \u00e0 renforcer le syst\u00e8me canadien de salubrit\u00e9 des aliments afin que l'on puisse parvenir \u00e0 mieux prot\u00e9ger les Canadiens contre les aliments insalubres et, finalement, \u00e0 r\u00e9duire la fr\u00e9quence des maladies d'origine alimentaire.</p>  \n\n<p>Les petits fruits frais ont \u00e9t\u00e9 associ\u00e9s \u00e0 plusieurs \u00e9closions de maladies d'origine bact\u00e9rienne dans les aliments partout dans le monde entre 1999 et 2010. Les petits fruits peuvent \u00eatre expos\u00e9s \u00e0 des agents pathog\u00e8nes d'origine alimentaire lorsqu'ils sont dans les champs, en raison d'une eau d'arrosage contamin\u00e9e, d'un fumier compost\u00e9 d'une mani\u00e8re inad\u00e9quate ou d'un contact avec des animaux, de m\u00eame que pendant la cueillette, l'emballage et le transport. Les petits fruits sont exceptionnels, car en raison de leur petite taille, ils doivent \u00eatre cueillis \u00e0 la main par un grand nombre de travailleurs, ce qui a pour effet d'accro\u00eetre le risque de contamination par une personne infect\u00e9e. Par ailleurs, leur fragilit\u00e9 emp\u00eache g\u00e9n\u00e9ralement de les laver avant la vente afin de ne pas r\u00e9duire leur dur\u00e9e de conservation. Outre les \u00e9closions de maladies bact\u00e9riennes, les petits fruits ont aussi \u00e9t\u00e9 associ\u00e9s \u00e0 des \u00e9closions mondiales caus\u00e9es par des virus et des parasites \u2013 agents pathog\u00e8nes qui entrent en contact avec les petits fruits par des voies d'exposition semblables \u00e0 celles des bact\u00e9ries pr\u00e9occupantes. Par cons\u00e9quent, il est justifi\u00e9 de proc\u00e9der \u00e0 une \u00e9valuation de la pr\u00e9sence de bact\u00e9ries pathog\u00e8nes et d'indicateurs de contamination f\u00e9cale dans les petits fruits frais vendus dans les commerces de d\u00e9tail.</p>\n\n<p>Compte tenu de ces facteurs et de leur pertinence pour la sant\u00e9 des Canadiens, les petits fruits ont \u00e9t\u00e9 s\u00e9lectionn\u00e9s comme l'un des groupes prioritaires de fruits et de l\u00e9gumes frais devant faire l'objet d'une surveillance accrue dans le cadre du <abbr title=\"Plan d'action pour assurer la s\u00e9curit\u00e9 des produits alimentaires\">PAASPA</abbr>. Au cours d'une \u00e9tude de base de quatre ans (2009-2010 \u00e0 2012-2013), plus de 3200 \u00e9chantillons de petits fruits ont \u00e9t\u00e9 pr\u00e9lev\u00e9s dans des commerces de d\u00e9tail canadiens, puis analys\u00e9s afin de d\u00e9tecter la pr\u00e9sence de divers agents pathog\u00e8nes pr\u00e9occupants.</p> \n\n<p>Le principal objectif de l'\u00e9tude cibl\u00e9e de 2010 2011 \u00e9tait de recueillir des donn\u00e9es de surveillance de base sur les bact\u00e9ries pathog\u00e8nes <span lang=\"la\">Salmonella</span>, <span lang=\"la\">Shigella</span> et <span lang=\"la\"><abbr title=\"Escherichia\">E.</abbr>\u00a0coli</span> O157:H7, de m\u00eame que sur l'indicateur de contamination f\u00e9cale <span lang=\"la\"><abbr title=\"Escherichia\">E.</abbr>\u00a0coli</span> g\u00e9n\u00e9rique dans des petits fruits frais de provenance canadienne et import\u00e9s vendus sur le march\u00e9 canadien. Au total, 580 \u00e9chantillons de petits fruits frais import\u00e9s et 290 \u00e9chantillons de petits fruits frais canadiens ont \u00e9t\u00e9 pr\u00e9lev\u00e9s dans des magasins de d\u00e9tail. Les \u00e9chantillons analys\u00e9s ne contenaient aucun agent pathog\u00e8ne, et les nombres d'<span lang=\"la\"><abbr title=\"Escherichia\">E.</abbr>\u00a0coli</span> g\u00e9n\u00e9rique observ\u00e9s \u00e9taient toujours acceptables. La qualit\u00e9 microbiologique de tous les \u00e9chantillons a \u00e9t\u00e9 consid\u00e9r\u00e9e comme satisfaisante, et l'<abbr title=\"Agence canadienne d'inspection des aliments\">ACIA</abbr> n'a pas eu besoin de prendre de mesures de suivi. D'apr\u00e8s les r\u00e9sultats, les petits fruits analys\u00e9s durant la pr\u00e9sente \u00e9tude ont \u00e9t\u00e9 produits selon de bonnes pratiques agricoles (BPA) et de bonnes pratiques de fabrication (BPF).</p>\n\n<p>L'<abbr title=\"Agence canadienne d'inspection des aliments\">ACIA</abbr> r\u00e9glemente et supervise l'industrie. Elle collabore \u00e9galement avec les provinces et les territoires et fait la promotion d'une manipulation s\u00e9curitaire des aliments tout au long de la cha\u00eene de production alimentaire. N'oublions pas cependant que l'industrie alimentaire et les secteurs du d\u00e9tail du Canada sont en d\u00e9finitive responsables des aliments qu'ils produisent et qu'ils vendent et qu'il appartient aux consommateurs de manipuler d'une mani\u00e8re s\u00e9curitaire les aliments qui sont en leur possession. En outre, des conseils g\u00e9n\u00e9raux sur la manipulation s\u00e9curitaire des aliments sont facilement disponibles pour le grand public. L'<abbr title=\"Agence canadienne d'inspection des aliments\">ACIA</abbr> continuera de mettre en \u0153uvre des activit\u00e9s de surveillance et d'informer les intervenants de ses constatations.</p>\r\n<style>\n/* required style */\n    .keyValue{\n\tdisplay: none !important;\n        visibility: hidden !important;\n</style>\n<h2>Demande de rapport complet</h2>\n<p>La version int\u00e9grale du pr\u00e9sent rapport est disponible sur demande.</p>\n\n<div class=\"wb-frmvld\">\n\n<form class=\"form-horizontal\" role=\"form\" method=\"post\" action=\"/active/netapp/comment/publicationposte.aspx#wb-cont\" name=\"frmPublication\">\n\n<input id=\"emailad0\" name=\"to\" class=\"hidden\" type=\"hidden\" aria-hidden=\"true\" value=\"qzRgtJfj8fCnw0PhIky8OR2TVAzQpUHG6UqP6flp1bSnjdHWQVQMISo7rdXqrPC/jCHOFnixY3BTkR9SalIfHngmMTzZjGVGrU5kExrw918=\">\n<input name=\"strLang\" type=\"hidden\" value=\"Francais\">\n<input name=\"strSubject\" type=\"hidden\" value=\"Demande de rapport de r\u00e9sidus chimiques / microbiologie\">\n<input name=\"strTitle\" type=\"hidden\" value=\"title\">\n<input name=\"strUrl\" type=\"hidden\" value=\"url\">\n<script type=\"text/javascript\">\n    document.frmPublication.strTitle.value = document.getElementsByTagName(\"title\")[0].innerHTML;\n    document.frmPublication.strUrl.value = document.URL;\n</script>\n        \n<fieldset class=\"mrgn-tp-md mrgn-bttm-lg\">\t\t\n\n<legend class=\"field-name required\"><span class=\"field-name\">Le format dans lequel vous souhaitez recevoir le rapport</span> <strong class=\"required\">(obligatoire)</strong></legend>\n\n<div class=\"checkbox\">\n<label for=\"strPdf\"><input type=\"checkbox\" name=\"formatsent\" id=\"strPdf\" value=\"pdf\" required=\"required\">Fichier \u00e9lectronique PDF (format de document portable) envoy\u00e9 par courriel</label>\n</div>\n\n<div class=\"checkbox\">\n<label for=\"strText\"><input type=\"checkbox\" name=\"formatsent\" id=\"strText\" value=\"text\">Fichier \u00e9lectronique RTF (<span lang=\"en\">Rich Text Format</span>) envoy\u00e9 par courriel</label>\n</div>\n\n<div class=\"checkbox\">\n<label for=\"strBraille\"><input type=\"checkbox\" name=\"formatsent\" id=\"strBraille\" value=\"braille\">Copie braille envoy\u00e9e par la poste</label>\n</div>\n\n<div class=\"checkbox\">\n<label for=\"strPaper\"><input type=\"checkbox\" name=\"formatsent\" id=\"strPaper\" value=\"paper\">Copie papier envoy\u00e9e par la poste</label>\n</div>\n\n</fieldset>\t\n\n<fieldset class=\"mrgn-tp-md mrgn-bttm-lg\">\t\t\n\n<legend class=\"field-name\">Vos coordonn\u00e9es</legend>\n\n<label class=\"keyValue\" for=\"name\"></label>\n<input class=\"keyValue\" autocomplete=\"off\" type=\"text\" id=\"name\" name=\"name\">\n<label class=\"keyValue\" for=\"email\"></label>\n<input class=\"keyValue\" autocomplete=\"off\" type=\"email\" id=\"email\" name=\"email\"> \n\n<div class=\"form-group\">\n<label for=\"strFirstName\" class=\"required col-md-4 control-label\"><span class=\"field-name\">Pr\u00e9nom :</span> <strong class=\"required\">(obligatoire)</strong></label>\n<div class=\"col-md-8\">\n<input class=\"form-control\" id=\"strFirstName\" name=\"strFirstName\" type=\"text\" required=\"required\" pattern=\".{2,}\" data-rule-minlength=\"2\">\n</div>\n</div>\n            \n<div class=\"form-group\">\n<label for=\"strLastName\" class=\"required col-md-4 control-label\"><span class=\"field-name\">Nom :</span> <strong class=\"required\">(obligatoire)</strong></label>\n<div class=\"col-md-8\">\n<input class=\"form-control\" id=\"strLastName\" name=\"strLastName\" type=\"text\" required=\"required\" pattern=\".{2,}\" data-rule-minlength=\"2\">\n</div>\n</div>\n\n<div class=\"form-group\">\n<label for=\"strEmail\" class=\"required col-md-4 control-label\"><span class=\"field-name\">Adresse de courriel :</span> \u00a0<strong class=\"required\">(obligatoire)</strong></label>\n<div class=\"col-md-8\">\n<input class=\"form-control\" id=\"strEmail\" name=\"strEmail\" type=\"email\" required=\"required\">\n</div>\n</div>\n\n<div class=\"form-group\">\n<label for=\"strConfirmEmail\" class=\"required col-md-4 control-label\"><span class=\"field-name\">Confirmer Adresse de courriel :</span>  <strong class=\"required\">(obligatoire)</strong></label>\n<div class=\"col-md-8\">\n<input class=\"form-control\" id=\"strConfirmEmail\" name=\"strConfirmEmail\" type=\"email\" data-rule-equalto=\"#strEmail\" required=\"required\">\n</div>\n</div>\n\n<div class=\"form-group mrgn-tp-md\">\n<label for=\"lstdescribe\" class=\"required col-md-4 control-label\"><span class=\"field-name\">Comment vous vous d\u00e9criviez?</span> <strong class=\"required\">(obligatoire)</strong></label>\n<div class=\"col-md-8\">\n<select class=\"form-control\" id=\"lstdescribe\" name=\"lstdescribe\" required=\"required\">\n<option label=\"Choisir parmi la liste\"></option>\n<option value=\"Acad\u00e9mie\">Acad\u00e9mie</option>\n<option value=\"Association sectorielle\">Association sectorielle</option>  \n<option value=\"Autres institutions du gouvernement\">Autres institutions du gouvernement</option>\n<option value=\"Consommateur/Grand public\">Consommateur / Grand public</option>\n<option value=\"Groupe de consommateur\">Groupe de consommateur</option>\n<option value=\"Industrie/Secteur commercial\">Industrie / Secteur commercial</option>\n</select>\n</div>\n</div>\t\n\n<div class=\"form-group\">\n<label for=\"strAddress1\" class=\"col-md-4 control-label\"><span class=\"field-name\">Adresse 1 :</span></label>\n<div class=\"col-md-8\">\n<input class=\"form-control\" id=\"strAddress1\" name=\"strAddress1\" type=\"text\">\n</div>\n</div>\n\n<div class=\"form-group\">\n<label for=\"strAddress2\" class=\"col-md-4 control-label\"><span class=\"field-name\">Adresse 2 :</span></label>\n<div class=\"col-md-8\">\n<input class=\"form-control\" id=\"strAddress2\" name=\"strAddress2\" type=\"text\">\n</div>\n</div>\n\n<div class=\"form-group\">\n<label for=\"strCity\" class=\"col-md-4 control-label\"><span class=\"field-name\">Ville :</span></label>\n<div class=\"col-md-8\">\n<input class=\"form-control\" id=\"strCity\" name=\"strCity\" type=\"text\">\n</div>\n</div>\n\n<div class=\"form-group\">\n<label for=\"strProvince\" class=\"col-md-4 control-label\"><span class=\"field-name\">Province :</span></label>\n<div class=\"col-md-8\">\n<input class=\"form-control\" id=\"strProvince\" name=\"strProvince\" type=\"text\">\n</div>\n</div>\n\n<div class=\"form-group\">\n<label for=\"strCountry\" class=\"col-md-4 control-label\"><span class=\"field-name\">Pays : </span></label>\n<div class=\"col-md-8\">\n<input class=\"form-control\" id=\"strCountry\" name=\"strCountry\" type=\"text\">\n</div>\n</div>\n\n<div class=\"form-group\">\n<label for=\"strPostal\" class=\"col-md-4 control-label\"><span class=\"field-name\">Code postal : </span></label>\n<div class=\"col-md-8\">\n<input class=\"form-control\" id=\"strPostal\" name=\"strPostal\" type=\"text\">\n</div>\n</div>\n\n</fieldset>\t\n\n<input value=\"Soumettre votre demande\" id=\"btnSubmit\" name=\"btnSubmit\" class=\"btn btn-primary\" type=\"submit\"> \n<input value=\"Effacez tous les renseignements\" id=\"btnReset\" name=\"btnReset\" class=\"btn btn-default\" type=\"reset\">\n\n</form>\n</div>\n<script src=\"https://ajax.googleapis.com/ajax/libs/jquery/2.1.1/jquery.min.js\"></script>\n<script type=\"text/javascript\">\n$(document).ready (function(){\n\tif($(\"#strPaper\").checked || $(\"#strBraille\").checked)\n\t{\n\t\tPaperBrailleChecked();\n\t}\n});\n\n$(document).on(\"change\", \"#strBraille\", function(){\n\tif($(\"#strBraille\").is(\":checked\"))\n\t{\n\t\tPaperBrailleChecked();\n\t}\n\telse if(!($(\"#strPaper\").is(\":checked\")))\n\t{\n\t\tPaperBrailleUnChecked();\n\t}\n});\n\n$(document).on(\"change\", \"#strPaper\", function(){\n\tif($(\"#strPaper\").is(\":checked\"))\n\t{\n\t\tPaperBrailleChecked();\n\t}\n\telse if(!($(\"#strBraille\").is(\":checked\")))\n\t{\n\t\tPaperBrailleUnChecked();\n\t}\n});\n\nfunction PaperBrailleChecked()\n{\n\t$(\"#strAddress1\").attr(\"required\", \"true\");\n\t$(\"#strCity\").attr(\"required\", \"true\");\n\t$(\"#strProvince\").attr(\"required\", \"true\");\n\t$(\"#strCountry\").attr(\"required\", \"true\");\n\t$(\"#strPostal\").attr(\"required\", \"true\");\n}\n\nfunction PaperBrailleUnChecked()\n{\n\t$(\"#strAddress1\").removeAttr(\"required\");\n\t$(\"#strCity\").removeAttr(\"required\");\n\t$(\"#strProvince\").removeAttr(\"required\");\n\t$(\"#strCountry\").removeAttr(\"required\");\n\t$(\"#strPostal\").removeAttr(\"required\");\n}\n</script>\r\n\r\n<div class=\"row\">\r\n \r\n\t\t\t\r\n\t\t\t\r\n\r\n\t\t\r\n\t\r\n</div>"
    },
    "success": true,
    "chat_wizard": false
}