{
    "dcr_id": "1430757541452",
    "title": {
        "en": "2011-2012 Aflatoxins in Corn Products, Nuts and Nut Butters",
        "fr": "2011-2012 Aflatoxines dans les produits du ma\u00efs, les noix et les beurres de noix"
    },
    "html_modified": "2024-01-26 2:22:52 PM",
    "modified": "2018-09-04",
    "issued": "2018-06-05",
    "teamsite_location": {
        "en": "/default/main/inspection/cont-cont/food-aliments/STAGING/templatedata/comn-comn/forms-formes/data/chem_residue_reports_2011-2012_aflatoxins_1430757541452_eng",
        "fr": "/default/main/inspection/cont-cont/food-aliments/STAGING/templatedata/comn-comn/forms-formes/data/chem_residue_reports_2011-2012_aflatoxins_1430757541452_fra"
    },
    "ia_id": "1430757542530",
    "parent_ia_id": "1453327843364",
    "chronicletopic": {
        "en": "",
        "fr": ""
    },
    "chroniclecontent": {
        "en": "",
        "fr": ""
    },
    "chronicleaudience": {
        "en": "",
        "fr": ""
    },
    "sfcrdocumenttype": {
        "en": "",
        "fr": ""
    },
    "sfcraudience": {
        "en": "",
        "fr": ""
    },
    "sfcrmethodofproduction": {
        "en": "",
        "fr": ""
    },
    "activity": {
        "en": "",
        "fr": ""
    },
    "commodity": {
        "en": "",
        "fr": ""
    },
    "program": {
        "en": "",
        "fr": ""
    },
    "search_type": "other",
    "parent_node_id": "1453327843364",
    "layout_name": "content page 1 column",
    "breadcrumb": {
        "en": "2011-2012 Aflatoxins in Corn Products, Nuts and Nut Butters",
        "fr": "2011-2012 Aflatoxines dans les produits du ma\u00efs, les noix et les beurres de noix"
    },
    "label": {
        "en": "2011-2012 Aflatoxins in Corn Products, Nuts and Nut Butters",
        "fr": "2011-2012 Aflatoxines dans les produits du ma\u00efs, les noix et les beurres de noix"
    },
    "templatetype": "content page 1 column",
    "node_id": "1430757542530",
    "managing_branch": "comn",
    "type_name": "forms-formes",
    "dcr_type": "forms-formes",
    "parent_dcr_id": "1453324778043",
    "has_dcr_id": true,
    "lang": "en",
    "could_not_load": 0,
    "refaire": false,
    "interwoven_url": {
        "en": "/food-safety-for-industry/food-chemistry-and-microbiology/food-safety-testing-reports-and-journal-articles/2011-2012-aflatoxins/",
        "fr": "/salubrite-alimentaire-pour-l-industrie/chimie-et-microbiologie-alimentaires/rapports-d-analyse-et-articles-de-revues-sur-la-sa/aflatoxines/"
    },
    "meta": {
        "viewport": {
            "en": "width=device-width,initial-scale=1",
            "fr": "width=device-width,initial-scale=1"
        },
        "service": {
            "en": "CFIA-ACIA",
            "fr": "CFIA-ACIA"
        },
        "accessRights": {
            "en": "2",
            "fr": "2"
        },
        "title": {
            "en": "2011-2012 Aflatoxins in Corn Products, Nuts and Nut Butters",
            "fr": "2011-2012 Aflatoxines dans les produits du ma\u00efs, les noix et les beurres de noix"
        },
        "description": {
            "en": "The main objectives of this targeted survey were to generate baseline surveillance data on the levels of aflatoxins in corn products, nuts and nut butters available on the Canadian retail market, and compare the prevalence of aflatoxins in corn products, nuts and nut butters in this survey with that of similar products in the 2010-2011 Canadian Food Inspection Agency (CFIA) FSAP Aflatoxins survey.",
            "fr": "Les principaux objectifs de l'enqu\u00eate cibl\u00e9e \u00e9taient de produire des donn\u00e9es de surveillance de base sur les concentrations d'aflatoxines dans les produits du ma\u00efs, les noix et les beurres de noix offerts sur le march\u00e9 canadien de d\u00e9tail, et de comparer la pr\u00e9valence des aflatoxines dans les produits du ma\u00efs, les noix et les beurres de noix au cours de la pr\u00e9sente enqu\u00eate par rapport aux produits similaires \u00e9tudi\u00e9s au cours de l'enqu\u00eate men\u00e9e sur les aflatoxines dans le cadre du PAASPA de l'Agence canadienne d'inspection des aliments (ACIA) en 2010-2011."
        },
        "keywords": {
            "en": "food, food safety, Food Safety Action Plan, targeted survey, FSAP, Aflatoxins, corn, nuts, nut butters, 2011, 2012",
            "fr": "aliments, salubrit\u00e9 des aliments, Plan d'action pour assurer la s\u00e9curit\u00e9 des produits alimentaires, PAASPA, Aflatoxines, ma\u00efs, noix, beurres de noix, 2011-2012"
        },
        "dcterms.subject": {
            "en": "agri-food products,consumer protection,food,food safety,regulation,safety,testing",
            "fr": "produit agro-alimentaire,protection du consommateur,aliment,salubrit\u00e9 des aliments,r\u00e9glementation,s\u00e9curit\u00e9,test"
        },
        "creator": {
            "en": "Government of Canada,Canadian Food Inspection Agency",
            "fr": "Gouvernement du Canada,Agence canadienne d'inspection des aliments"
        },
        "language": {
            "en": "eng",
            "fr": "fra"
        },
        "issued": {
            "en": "2018-06-05",
            "fr": "2018-06-05"
        },
        "modified": {
            "en": "2018-09-04",
            "fr": "2018-09-04"
        },
        "type": {
            "en": "reference material,report",
            "fr": "mat\u00e9riel de r\u00e9f\u00e9rence,rapport"
        },
        "audience": {
            "en": "business,general public,government",
            "fr": "entreprises,grand public,gouvernement"
        },
        "name": {
            "en": "Government of Canada",
            "fr": "Gouvernement du Canada"
        },
        "areaServed": {
            "en": "Canada",
            "fr": "Canada"
        }
    },
    "h1": {
        "en": "2011-2012 Aflatoxins in Corn Products, Nuts and Nut Butters",
        "fr": "2011-2012 Aflatoxines dans les produits du ma\u00efs, les noix et les beurres de noix"
    },
    "js": {
        "en": "<script>\n    document.frmPublication.strTitle.value = document.getElementsByTagName(\"title\")[0].innerHTML;\n    document.frmPublication.strUrl.value = document.URL;\n</script>/* --------------------- MORE JAVASCRIPT ------------------- */<script>\n$(document).ready (function(){\n\tif($(\"#strPaper\").checked || $(\"#strBraille\").checked)\n\t{\n\t\tPaperBrailleChecked();\n\t}\n});\n\n$(document).on(\"change\", \"#strBraille\", function(){\n\tif($(\"#strBraille\").is(\":checked\"))\n\t{\n\t\tPaperBrailleChecked();\n\t}\n\telse if(!($(\"#strPaper\").is(\":checked\")))\n\t{\n\t\tPaperBrailleUnChecked();\n\t}\n});\n\n$(document).on(\"change\", \"#strPaper\", function(){\n\tif($(\"#strPaper\").is(\":checked\"))\n\t{\n\t\tPaperBrailleChecked();\n\t}\n\telse if(!($(\"#strBraille\").is(\":checked\")))\n\t{\n\t\tPaperBrailleUnChecked();\n\t}\n});\n\nfunction PaperBrailleChecked()\n{\n\t$(\"#strAddress1\").attr(\"required\", \"true\");\n\t$(\"#strCity\").attr(\"required\", \"true\");\n\t$(\"#strProvince\").attr(\"required\", \"true\");\n\t$(\"#strCountry\").attr(\"required\", \"true\");\n\t$(\"#strPostal\").attr(\"required\", \"true\");\n}\n\nfunction PaperBrailleUnChecked()\n{\n\t$(\"#strAddress1\").removeAttr(\"required\");\n\t$(\"#strCity\").removeAttr(\"required\");\n\t$(\"#strProvince\").removeAttr(\"required\");\n\t$(\"#strCountry\").removeAttr(\"required\");\n\t$(\"#strPostal\").removeAttr(\"required\");\n}\n</script>",
        "fr": "<script>\n    document.frmPublication.strTitle.value = document.getElementsByTagName(\"title\")[0].innerHTML;\n    document.frmPublication.strUrl.value = document.URL;\n</script>/* --------------------- MORE JAVASCRIPT ------------------- */<script>\n$(document).ready (function(){\n\tif($(\"#strPaper\").checked || $(\"#strBraille\").checked)\n\t{\n\t\tPaperBrailleChecked();\n\t}\n});\n\n$(document).on(\"change\", \"#strBraille\", function(){\n\tif($(\"#strBraille\").is(\":checked\"))\n\t{\n\t\tPaperBrailleChecked();\n\t}\n\telse if(!($(\"#strPaper\").is(\":checked\")))\n\t{\n\t\tPaperBrailleUnChecked();\n\t}\n});\n\n$(document).on(\"change\", \"#strPaper\", function(){\n\tif($(\"#strPaper\").is(\":checked\"))\n\t{\n\t\tPaperBrailleChecked();\n\t}\n\telse if(!($(\"#strBraille\").is(\":checked\")))\n\t{\n\t\tPaperBrailleUnChecked();\n\t}\n});\n\nfunction PaperBrailleChecked()\n{\n\t$(\"#strAddress1\").attr(\"required\", \"true\");\n\t$(\"#strCity\").attr(\"required\", \"true\");\n\t$(\"#strProvince\").attr(\"required\", \"true\");\n\t$(\"#strCountry\").attr(\"required\", \"true\");\n\t$(\"#strPostal\").attr(\"required\", \"true\");\n}\n\nfunction PaperBrailleUnChecked()\n{\n\t$(\"#strAddress1\").removeAttr(\"required\");\n\t$(\"#strCity\").removeAttr(\"required\");\n\t$(\"#strProvince\").removeAttr(\"required\");\n\t$(\"#strCountry\").removeAttr(\"required\");\n\t$(\"#strPostal\").removeAttr(\"required\");\n}\n</script>"
    },
    "mode_html": "no_editor_full",
    "body": {
        "en": "        \r\n        \n<h2>Summary</h2>\n<p>The 2011-2012 <abbr title=\"Canadian Food Inspection Agency\">CFIA</abbr> Aflatoxins targeted survey targeted domestic and imported corn products, nuts, and nut butters. A total of 703 samples were collected from retail stores in 11 Canadian cities between April 2011 and March 2012. The samples collected included 304 corn products (<abbr title=\"for example\">e.g.</abbr> corn flour, corn tacos, corn/tortilla chips), 295 nuts, and 104 nut butters. Samples were analysed using a multi-analyte method that detects multiple aflatoxin forms. Most of the samples (89%) did not contain a detectable level of aflatoxins. The total aflatoxin levels in the remaining samples ranged from 0.1 parts per billion (ppb) to 12.5\u00a0<abbr title=\"parts per billion\">ppb</abbr>.</p>\n\n<p>Of the 304 corn product samples tested, 284 did not contain detectable levels of aflatoxins. Twenty corn product samples had total aflatoxin levels that ranged from 0.1\u00a0<abbr title=\"parts per billion\">ppb</abbr> to 1.5\u00a0<abbr title=\"parts per billion\">ppb</abbr>. There are no regulations established in Canada for aflatoxin levels in corn products, so compliance with a numerical standard could not be evaluated. None of the samples were determined to pose an unacceptable concern to human health by Health Canada. No product recalls were warranted given the lack of a health concern.</p>\n\n<p>Of the 295 nut samples tested, 274 did not contain detectable levels of aflatoxins. Twenty-one nut samples had total aflatoxin levels that ranged from 0.1\u00a0<abbr title=\"parts per billion\">ppb</abbr> to 7.6\u00a0<abbr title=\"parts per billion\">ppb</abbr>. Of the 104 nut butter samples tested, 70 did not contain detectable levels of aflatoxins. Thirty-four nut butter samples had total aflatoxin levels that ranged from 0.1 to 12.5\u00a0<abbr title=\"parts per billion\">ppb</abbr>. All samples of nuts and nut butters (100%) were compliant with the Canadian Food and Drug Regulations regulatory limit of 15\u00a0<abbr title=\"parts per billion\">ppb</abbr> total aflatoxins in nut and nut products, thus no follow-up activity was deemed necessary.</p>\n\n<p>The prevalence and levels of aflatoxins in corn products, nuts and nut butters in this survey were compared with that of similar products in the 2010-2011 <abbr title=\"Canadian Food Inspection Agency\">CFIA</abbr> <abbr title=\"Food Safety Action Plan\">FSAP</abbr> Aflatoxins survey. The prevalence of aflatoxins were similar in the two survey years (11% positive rate in the current year and 8% positive rate in the previous year).</p>\n\n<p>In general, aflatoxin levels reported in the current <abbr title=\"Food Safety Action Plan\">FSAP</abbr> survey were consistent with the results obtained in the previous <abbr title=\"Food Safety Action Plan\">FSAP</abbr> survey.</p>\r\n<style>\n/* required style */\n    .keyValue{\n\tdisplay: none !important;\n        visibility: hidden !important;\n</style>\n<h2>Request of Complete Report</h2>\n<p>The complete text of this report is available upon request.</p>\n\n<div class=\"wb-frmvld\">\n\n<form class=\"form-horizontal\" role=\"form\" method=\"post\" action=\"/active/netapp/comment/publicationposte.aspx#wb-cont\" name=\"frmPublication\">\n<input id=\"emailad0\" name=\"to\" class=\"hidden\" type=\"hidden\" aria-hidden=\"true\" value=\"2FLWA601APjnRb6fcPkg4q7Zapp4c7TbqpnBZdgvgVKda7cfbYxQESq9cgq1CLn8P78dVKj07ehS3YLWU1kMSAJywvCuWiu6Hn1/z2JyUT0=\">\n<input name=\"strLang\" type=\"hidden\" value=\"English\">\n<input name=\"strSubject\" type=\"hidden\" value=\"Chemical Residues / Microbiology Report Request\">\n<input name=\"strTitle\" type=\"hidden\" value=\"title\">\n<input name=\"strUrl\" type=\"hidden\" value=\"url\">\n<script type=\"text/javascript\">\n    document.frmPublication.strTitle.value = document.getElementsByTagName(\"title\")[0].innerHTML;\n    document.frmPublication.strUrl.value = document.URL;\n</script>\n        \n<fieldset class=\"mrgn-tp-md mrgn-bttm-lg\">\t\t\n\n<legend class=\"field-name required\"><span class=\"field-name\">The format in which you would like to receive the report</span> <strong class=\"required\">(required)</strong></legend>\n\n<div class=\"checkbox\">\n<label for=\"strPdf\"><input type=\"checkbox\" name=\"formatsent\" id=\"strPdf\" value=\"pdf\" required=\"required\">PDF (Portable Document Format) electronic file sent to you by email</label>\n</div>\n\n<div class=\"checkbox\">\n<label for=\"strText\"><input type=\"checkbox\" name=\"formatsent\" id=\"strText\" value=\"text\">RTF (Rich Text Format) electronic file sent to you by email</label>\n</div>\n\n<div class=\"checkbox\">\n<label for=\"strBraille\"><input type=\"checkbox\" name=\"formatsent\" id=\"strBraille\" value=\"braille\">Braille copy sent to you by mail</label>\n</div>\n\n<div class=\"checkbox\">\n<label for=\"strPaper\"><input type=\"checkbox\" name=\"formatsent\" id=\"strPaper\" value=\"paper\">Paper copy sent to you by mail</label>\n</div>\n\n</fieldset>\t\n\n<fieldset class=\"mrgn-tp-md mrgn-bttm-lg\">\t\t\n\n<legend class=\"field-name\">Your contact information</legend>\n\n<label class=\"keyValue\" for=\"name\"></label>\n<input class=\"keyValue\" autocomplete=\"off\" type=\"text\" id=\"name\" name=\"name\">\n<label class=\"keyValue\" for=\"email\"></label>\n<input class=\"keyValue\" autocomplete=\"off\" type=\"email\" id=\"email\" name=\"email\"> \n\n<div class=\"form-group\">\n<label for=\"strFirstName\" class=\"required col-md-4 control-label\"><span class=\"field-name\">First name:</span> <strong class=\"required\">(required)</strong></label>\n<div class=\"col-md-8\">\n<input class=\"form-control\" id=\"strFirstName\" name=\"strFirstName\" type=\"text\" required=\"required\" pattern=\".{2,}\" data-rule-minlength=\"2\">\n</div>\n</div>\n            \n<div class=\"form-group\">\n<label for=\"strLastName\" class=\"required col-md-4 control-label\"><span class=\"field-name\">Last name:</span> <strong class=\"required\">(required)</strong></label>\n<div class=\"col-md-8\">\n<input class=\"form-control\" id=\"strLastName\" name=\"strLastName\" type=\"text\" required=\"required\" pattern=\".{2,}\" data-rule-minlength=\"2\">\n</div>\n</div>\n\n<div class=\"form-group\">\n<label for=\"strEmail\" class=\"required col-md-4 control-label\"><span class=\"field-name\">Email address:</span>  <strong class=\"required\">(required)</strong></label>\n<div class=\"col-md-8\">\n<input class=\"form-control\" id=\"strEmail\" name=\"strEmail\" type=\"email\" required=\"required\">\n</div>\n</div>\n\n<div class=\"form-group\">\n<label for=\"strConfirmEmail\" class=\"required col-md-4 control-label\"><span class=\"field-name\">Confirm email address:</span>  <strong class=\"required\">(required)</strong></label>\n<div class=\"col-md-8\">\n<input class=\"form-control\" id=\"strConfirmEmail\" name=\"strConfirmEmail\" type=\"email\" data-rule-equalto=\"#strEmail\" required=\"required\">\n</div>\n</div>\n\n<div class=\"form-group mrgn-tp-md\">\n<label for=\"lstdescribe\" class=\"required col-md-4 control-label\"><span class=\"field-name\">How would you describe yourself?</span> <strong class=\"required\">(required)</strong></label>\n<div class=\"col-md-8\">\n<select class=\"form-control\" id=\"lstdescribe\" name=\"lstdescribe\" required=\"required\">\n<option label=\"Select from this list\"></option>\n<option value=\"Academia\">Academia</option>\n<option value=\"Consumer Association\">Consumer Association</option>\n<option value=\"Consumer/General Public\">Consumer / General Public</option>\n<option value=\"Industry Association\">Industry Association</option>\n<option value=\"Industry/Commercial Sector\">Industry / Commercial Sector</option>\n<option value=\"Other Government Departments\">Other Government Departments</option>\t\t\t\n</select>\n</div>\n</div>\t\n\n<div class=\"form-group\">\n<label for=\"strAddress1\" class=\"col-md-4 control-label\"><span class=\"field-name\">Address 1:</span></label>\n<div class=\"col-md-8\">\n<input class=\"form-control\" id=\"strAddress1\" name=\"strAddress1\" type=\"text\">\n</div>\n</div>\n\n<div class=\"form-group\">\n<label for=\"strAddress2\" class=\"col-md-4 control-label\"><span class=\"field-name\">Address 2:</span></label>\n<div class=\"col-md-8\">\n<input class=\"form-control\" id=\"strAddress2\" name=\"strAddress2\" type=\"text\">\n</div>\n</div>\n\n<div class=\"form-group\">\n<label for=\"strCity\" class=\"col-md-4 control-label\"><span class=\"field-name\">City:</span></label>\n<div class=\"col-md-8\">\n<input class=\"form-control\" id=\"strCity\" name=\"strCity\" type=\"text\">\n</div>\n</div>\n\n<div class=\"form-group\">\n<label for=\"strProvince\" class=\"col-md-4 control-label\"><span class=\"field-name\">Province:</span></label>\n<div class=\"col-md-8\">\n<input class=\"form-control\" id=\"strProvince\" name=\"strProvince\" type=\"text\">\n</div>\n</div>\n\n<div class=\"form-group\">\n<label for=\"strCountry\" class=\"col-md-4 control-label\"><span class=\"field-name\">Country:</span></label>\n<div class=\"col-md-8\">\n<input class=\"form-control\" id=\"strCountry\" name=\"strCountry\" type=\"text\">\n</div>\n</div>\n\n<div class=\"form-group\">\n<label for=\"strPostal\" class=\"col-md-4 control-label\"><span class=\"field-name\">Postal Code:</span></label>\n<div class=\"col-md-8\">\n<input class=\"form-control\" id=\"strPostal\" name=\"strPostal\" type=\"text\">\n</div>\n</div>\n\n</fieldset>\t\n\n<input value=\"Submit Your Request\" id=\"btnSubmit\" name=\"btnSubmit\" class=\"btn btn-primary\" type=\"submit\"> \n<input value=\"Clear All Information\" id=\"btnReset\" name=\"btnReset\" class=\"btn btn-default\" type=\"reset\">\n\n</form>\n</div>\n<script src=\"https://ajax.googleapis.com/ajax/libs/jquery/2.1.1/jquery.min.js\"></script>\n<script type=\"text/javascript\">\n$(document).ready (function(){\n\tif($(\"#strPaper\").checked || $(\"#strBraille\").checked)\n\t{\n\t\tPaperBrailleChecked();\n\t}\n});\n\n$(document).on(\"change\", \"#strBraille\", function(){\n\tif($(\"#strBraille\").is(\":checked\"))\n\t{\n\t\tPaperBrailleChecked();\n\t}\n\telse if(!($(\"#strPaper\").is(\":checked\")))\n\t{\n\t\tPaperBrailleUnChecked();\n\t}\n});\n\n$(document).on(\"change\", \"#strPaper\", function(){\n\tif($(\"#strPaper\").is(\":checked\"))\n\t{\n\t\tPaperBrailleChecked();\n\t}\n\telse if(!($(\"#strBraille\").is(\":checked\")))\n\t{\n\t\tPaperBrailleUnChecked();\n\t}\n});\n\nfunction PaperBrailleChecked()\n{\n\t$(\"#strAddress1\").attr(\"required\", \"true\");\n\t$(\"#strCity\").attr(\"required\", \"true\");\n\t$(\"#strProvince\").attr(\"required\", \"true\");\n\t$(\"#strCountry\").attr(\"required\", \"true\");\n\t$(\"#strPostal\").attr(\"required\", \"true\");\n}\n\nfunction PaperBrailleUnChecked()\n{\n\t$(\"#strAddress1\").removeAttr(\"required\");\n\t$(\"#strCity\").removeAttr(\"required\");\n\t$(\"#strProvince\").removeAttr(\"required\");\n\t$(\"#strCountry\").removeAttr(\"required\");\n\t$(\"#strPostal\").removeAttr(\"required\");\n}\n</script>\r\n\r\n\r\n\r\n<div class=\"row\">\r\n \r\n\t\r\n\t\t\t\r\n\r\n<div class=\"col-xm-12 pagedetails container\">\r\n\t\t\t\t\r\n\r\n</div>\r\n\t\r\n</div>",
        "fr": "\r\n        \r\n        \n<h2>R\u00e9sum\u00e9</h2>\n\n<p>Le Plan d'action pour assurer la s\u00e9curit\u00e9 des produits alimentaires (PAASPA) vise \u00e0 moderniser et \u00e0 am\u00e9liorer le syst\u00e8me canadien de s\u00e9curit\u00e9 des aliments. Dans le cadre de l'initiative de surveillance accrue du <abbr title=\"Plan d'action pour assurer la s\u00e9curit\u00e9 des produits alimentaires\">PAASPA</abbr>, des enqu\u00eates cibl\u00e9es sont effectu\u00e9es afin de d\u00e9celer la pr\u00e9sence de dangers d'ordre chimique et microbiologique dans divers aliments.</p>\n\n<p>Les principaux objectifs de l'enqu\u00eate cibl\u00e9e \u00e9taient de produire des donn\u00e9es de surveillance de base sur les concentrations d'aflatoxines dans les produits du ma\u00efs, les noix et les beurres de noix offerts sur le march\u00e9 canadien de d\u00e9tail, et de comparer la pr\u00e9valence des aflatoxines dans les produits du ma\u00efs, les noix et les beurres de noix au cours de la pr\u00e9sente enqu\u00eate par rapport aux produits similaires \u00e9tudi\u00e9s au cours de l'enqu\u00eate men\u00e9e sur les aflatoxines dans le cadre du <abbr title=\"Plan d'action pour assurer la s\u00e9curit\u00e9 des produits alimentaires\">PAASPA</abbr> de l'Agence canadienne d'inspection des aliments (ACIA) en 2010-2011.</p>\n\n<p>Les aflatoxines forment une famille de mycotoxines (m\u00e9tabolites secondaires naturels et toxiques) produits par les moisissures du genre <span lang=\"la\">Aspergillus</span>. La chaleur, des conditions humides et les dommages caus\u00e9s par les ravageurs pendant la croissance ou l'entreposage des plantes peuvent favoriser la croissance de champignons producteurs d'aflatoxines, ce qui entra\u00eene la pr\u00e9sence d'aflatoxines dans les aliments. Il est connu que les aflatoxines sont pr\u00e9sentes dans le ma\u00efs et les produits du ma\u00efs, les noix et les produits des noix, les fruits s\u00e9ch\u00e9s, les grains et les \u00e9pices. L'exposition aigu\u00eb aux aflatoxines peut causer une maladie (l'aflatoxicose) chez l'\u00eatre humain, qui se caract\u00e9rise par des vomissements, une douleur abdominale, l'\u0153d\u00e8me pulmonaire, des convulsions, le coma et la mort. L'aflatoxicose est tr\u00e8s rare dans les pays industrialis\u00e9s. L'exposition chronique aux aflatoxines a \u00e9t\u00e9 li\u00e9e \u00e0 un certain nombre d'effets sur la sant\u00e9, y compris le risque de cancer du foie.</p>\n\n<p>L'enqu\u00eate sur les aflatoxines men\u00e9e par l'<abbr title=\"Agence canadienne d'inspection des aliments\">ACIA</abbr> en 2011-2012 a port\u00e9 sur des produits du ma\u00efs, des noix et des beurres de noix canadiens et import\u00e9s. Au total, 703 \u00e9chantillons ont \u00e9t\u00e9 recueillis dans des magasins de d\u00e9tail de 11 villes canadiennes entre <span class=\"nowrap\">avril 2011</span> et <span class=\"nowrap\">mars 2012</span>. Au nombre de ces \u00e9chantillons, se comptait 304 produits du ma\u00efs (<abbr title=\"par exemple\">p. ex.</abbr> farine de ma\u00efs, tacos de ma\u00efs et croustilles de ma\u00efs/tortilla), 295 noix et 104 beurres de noix. Les \u00e9chantillons ont fait l'objet d'une m\u00e9thode multi-r\u00e9sidus qui permet de d\u00e9celer de multiples formes d'aflatoxines. La plupart des \u00e9chantillons (89\u00a0%) ne contenaient aucune concentration d\u00e9tectable d'aflatoxines. Les concentrations totales d'aflatoxines dans les \u00e9chantillons restants allaient de 0,1 partie par milliard (ppb) \u00e0 12,5\u00a0<abbr title=\"parties par milliard\">ppb</abbr>.</p>\n\n<p>Parmi les 304 \u00e9chantillons de produits de ma\u00efs, 284 ne contenaient aucune concentration d\u00e9tectable d'aflatoxines. Vingt \u00e9chantillons de produits du ma\u00efs avaient des concentrations d'aflatoxines se situant entre 0,1\u00a0<abbr title=\"partie par milliard\">ppb</abbr> et 1,5\u00a0<abbr title=\"parties par milliard\">ppb</abbr>. \u00c9tant donn\u00e9 qu'il n'y a aucun r\u00e8glement au Canada qui r\u00e9git les concentrations d'aflatoxines dans les produits du ma\u00efs, il a \u00e9t\u00e9 impossible d'\u00e9valuer la conformit\u00e9 \u00e0 une norme num\u00e9rique. Sant\u00e9 Canada a d\u00e9termin\u00e9 qu'aucun des \u00e9chantillons ne pr\u00e9sentait une pr\u00e9occupation inacceptable pour la sant\u00e9 humaine. Aucun rappel de produit n'\u00e9tait justifi\u00e9 compte tenu de l'absence de pr\u00e9occupation pour la sant\u00e9.</p>\n\n<p>Sur les 295 \u00e9chantillons de noix analys\u00e9s, 274 ne contenaient aucune concentration d\u00e9tectable d'aflatoxines et 21 avaient des concentrations totales d'aflatoxines allant de 0,1\u00a0<abbr title=\"partie par milliard\">ppb</abbr> \u00e0 7,6\u00a0<abbr title=\"parties par milliard\">ppb</abbr>. Sur les 104 \u00e9chantillons de beurres de noix analys\u00e9s, 70 ne contenaient aucune concentration d\u00e9tectable d'aflatoxines et 34 avaient des concentrations totales d'aflatoxines se situant entre 0,1 et 12,5\u00a0<abbr title=\"parties par milliard\">ppb</abbr>. Tous les \u00e9chantillons de noix et de beures de noix (100\u00a0%) \u00e9taient conformes \u00e0 la limite r\u00e9glementaire fix\u00e9e par le R\u00e8glement sur les aliments et drogues du Canada (concentrations totales d'aflatoxines de 15\u00a0<abbr title=\"parties par milliard\">ppb</abbr> pour les noix et les produits des noix) et, par cons\u00e9quent, aucun suivi n'a \u00e9t\u00e9 n\u00e9cessaire.</p>\n\n<p>La pr\u00e9valence et les concentrations d'aflatoxines dans les produits de ma\u00efs, les noix et les beurres de noix observ\u00e9es au cours de la pr\u00e9sente enqu\u00eate ont \u00e9t\u00e9 compar\u00e9es avec celles observ\u00e9es au cours de l'enqu\u00eate du <abbr title=\"Plan d'action pour assurer la s\u00e9curit\u00e9 des produits alimentaires\">PAASPA</abbr> visant les aflatoxines men\u00e9e par l'<abbr title=\"Agence canadienne d'inspection des aliments\">ACIA</abbr> en 2010-2011. La pr\u00e9valence des aflatoxines a \u00e9t\u00e9 similaire entre les deux ann\u00e9es d'enqu\u00eate (taux positif de 11\u00a0% dans l'ann\u00e9e en cours et le taux positif de 8\u00a0% l'ann\u00e9e pr\u00e9c\u00e9dente). En g\u00e9n\u00e9ral, les niveaux d'aflatoxines signal\u00e9s dans l'enqu\u00eate du <abbr title=\"Plan d'action pour assurer la s\u00e9curit\u00e9 des produits alimentaires\">PAASPA</abbr> courant concordaient avec les r\u00e9sultats obtenus lors de l'enqu\u00eate pr\u00e9c\u00e9dente du <abbr title=\"Plan d'action pour assurer la s\u00e9curit\u00e9 des produits alimentaires\">PAASPA</abbr>.</p>\r\n<style>\n/* required style */\n    .keyValue{\n\tdisplay: none !important;\n        visibility: hidden !important;\n</style>\n<h2>Demande de rapport complet</h2>\n<p>La version int\u00e9grale du pr\u00e9sent rapport est disponible sur demande.</p>\n\n<div class=\"wb-frmvld\">\n\n<form class=\"form-horizontal\" role=\"form\" method=\"post\" action=\"/active/netapp/comment/publicationposte.aspx#wb-cont\" name=\"frmPublication\">\n\n<input id=\"emailad0\" name=\"to\" class=\"hidden\" type=\"hidden\" aria-hidden=\"true\" value=\"+AZTrFETv8S9lzTLFgyJp76Z75ad3dDAvjzQtJ/QRVLK6CEO52Meq3jxOdkBDyngAjzueMYPKZCv6w+Q2WTVMM1Oj55opODOQX59J4mM32A=\">\n<input name=\"strLang\" type=\"hidden\" value=\"Francais\">\n<input name=\"strSubject\" type=\"hidden\" value=\"Demande de rapport de r\u00e9sidus chimiques / microbiologie\">\n<input name=\"strTitle\" type=\"hidden\" value=\"title\">\n<input name=\"strUrl\" type=\"hidden\" value=\"url\">\n<script type=\"text/javascript\">\n    document.frmPublication.strTitle.value = document.getElementsByTagName(\"title\")[0].innerHTML;\n    document.frmPublication.strUrl.value = document.URL;\n</script>\n        \n<fieldset class=\"mrgn-tp-md mrgn-bttm-lg\">\t\t\n\n<legend class=\"field-name required\"><span class=\"field-name\">Le format dans lequel vous souhaitez recevoir le rapport</span> <strong class=\"required\">(obligatoire)</strong></legend>\n\n<div class=\"checkbox\">\n<label for=\"strPdf\"><input type=\"checkbox\" name=\"formatsent\" id=\"strPdf\" value=\"pdf\" required=\"required\">Fichier \u00e9lectronique PDF (format de document portable) envoy\u00e9 par courriel</label>\n</div>\n\n<div class=\"checkbox\">\n<label for=\"strText\"><input type=\"checkbox\" name=\"formatsent\" id=\"strText\" value=\"text\">Fichier \u00e9lectronique RTF (<span lang=\"en\">Rich Text Format</span>) envoy\u00e9 par courriel</label>\n</div>\n\n<div class=\"checkbox\">\n<label for=\"strBraille\"><input type=\"checkbox\" name=\"formatsent\" id=\"strBraille\" value=\"braille\">Copie braille envoy\u00e9e par la poste</label>\n</div>\n\n<div class=\"checkbox\">\n<label for=\"strPaper\"><input type=\"checkbox\" name=\"formatsent\" id=\"strPaper\" value=\"paper\">Copie papier envoy\u00e9e par la poste</label>\n</div>\n\n</fieldset>\t\n\n<fieldset class=\"mrgn-tp-md mrgn-bttm-lg\">\t\t\n\n<legend class=\"field-name\">Vos coordonn\u00e9es</legend>\n\n<label class=\"keyValue\" for=\"name\"></label>\n<input class=\"keyValue\" autocomplete=\"off\" type=\"text\" id=\"name\" name=\"name\">\n<label class=\"keyValue\" for=\"email\"></label>\n<input class=\"keyValue\" autocomplete=\"off\" type=\"email\" id=\"email\" name=\"email\"> \n\n<div class=\"form-group\">\n<label for=\"strFirstName\" class=\"required col-md-4 control-label\"><span class=\"field-name\">Pr\u00e9nom :</span> <strong class=\"required\">(obligatoire)</strong></label>\n<div class=\"col-md-8\">\n<input class=\"form-control\" id=\"strFirstName\" name=\"strFirstName\" type=\"text\" required=\"required\" pattern=\".{2,}\" data-rule-minlength=\"2\">\n</div>\n</div>\n            \n<div class=\"form-group\">\n<label for=\"strLastName\" class=\"required col-md-4 control-label\"><span class=\"field-name\">Nom :</span> <strong class=\"required\">(obligatoire)</strong></label>\n<div class=\"col-md-8\">\n<input class=\"form-control\" id=\"strLastName\" name=\"strLastName\" type=\"text\" required=\"required\" pattern=\".{2,}\" data-rule-minlength=\"2\">\n</div>\n</div>\n\n<div class=\"form-group\">\n<label for=\"strEmail\" class=\"required col-md-4 control-label\"><span class=\"field-name\">Adresse de courriel :</span> \u00a0<strong class=\"required\">(obligatoire)</strong></label>\n<div class=\"col-md-8\">\n<input class=\"form-control\" id=\"strEmail\" name=\"strEmail\" type=\"email\" required=\"required\">\n</div>\n</div>\n\n<div class=\"form-group\">\n<label for=\"strConfirmEmail\" class=\"required col-md-4 control-label\"><span class=\"field-name\">Confirmer Adresse de courriel :</span>  <strong class=\"required\">(obligatoire)</strong></label>\n<div class=\"col-md-8\">\n<input class=\"form-control\" id=\"strConfirmEmail\" name=\"strConfirmEmail\" type=\"email\" data-rule-equalto=\"#strEmail\" required=\"required\">\n</div>\n</div>\n\n<div class=\"form-group mrgn-tp-md\">\n<label for=\"lstdescribe\" class=\"required col-md-4 control-label\"><span class=\"field-name\">Comment vous vous d\u00e9criviez?</span> <strong class=\"required\">(obligatoire)</strong></label>\n<div class=\"col-md-8\">\n<select class=\"form-control\" id=\"lstdescribe\" name=\"lstdescribe\" required=\"required\">\n<option label=\"Choisir parmi la liste\"></option>\n<option value=\"Acad\u00e9mie\">Acad\u00e9mie</option>\n<option value=\"Association sectorielle\">Association sectorielle</option>  \n<option value=\"Autres institutions du gouvernement\">Autres institutions du gouvernement</option>\n<option value=\"Consommateur/Grand public\">Consommateur / Grand public</option>\n<option value=\"Groupe de consommateur\">Groupe de consommateur</option>\n<option value=\"Industrie/Secteur commercial\">Industrie / Secteur commercial</option>\n</select>\n</div>\n</div>\t\n\n<div class=\"form-group\">\n<label for=\"strAddress1\" class=\"col-md-4 control-label\"><span class=\"field-name\">Adresse 1 :</span></label>\n<div class=\"col-md-8\">\n<input class=\"form-control\" id=\"strAddress1\" name=\"strAddress1\" type=\"text\">\n</div>\n</div>\n\n<div class=\"form-group\">\n<label for=\"strAddress2\" class=\"col-md-4 control-label\"><span class=\"field-name\">Adresse 2 :</span></label>\n<div class=\"col-md-8\">\n<input class=\"form-control\" id=\"strAddress2\" name=\"strAddress2\" type=\"text\">\n</div>\n</div>\n\n<div class=\"form-group\">\n<label for=\"strCity\" class=\"col-md-4 control-label\"><span class=\"field-name\">Ville :</span></label>\n<div class=\"col-md-8\">\n<input class=\"form-control\" id=\"strCity\" name=\"strCity\" type=\"text\">\n</div>\n</div>\n\n<div class=\"form-group\">\n<label for=\"strProvince\" class=\"col-md-4 control-label\"><span class=\"field-name\">Province :</span></label>\n<div class=\"col-md-8\">\n<input class=\"form-control\" id=\"strProvince\" name=\"strProvince\" type=\"text\">\n</div>\n</div>\n\n<div class=\"form-group\">\n<label for=\"strCountry\" class=\"col-md-4 control-label\"><span class=\"field-name\">Pays : </span></label>\n<div class=\"col-md-8\">\n<input class=\"form-control\" id=\"strCountry\" name=\"strCountry\" type=\"text\">\n</div>\n</div>\n\n<div class=\"form-group\">\n<label for=\"strPostal\" class=\"col-md-4 control-label\"><span class=\"field-name\">Code postal : </span></label>\n<div class=\"col-md-8\">\n<input class=\"form-control\" id=\"strPostal\" name=\"strPostal\" type=\"text\">\n</div>\n</div>\n\n</fieldset>\t\n\n<input value=\"Soumettre votre demande\" id=\"btnSubmit\" name=\"btnSubmit\" class=\"btn btn-primary\" type=\"submit\"> \n<input value=\"Effacez tous les renseignements\" id=\"btnReset\" name=\"btnReset\" class=\"btn btn-default\" type=\"reset\">\n\n</form>\n</div>\n<script src=\"https://ajax.googleapis.com/ajax/libs/jquery/2.1.1/jquery.min.js\"></script>\n<script type=\"text/javascript\">\n$(document).ready (function(){\n\tif($(\"#strPaper\").checked || $(\"#strBraille\").checked)\n\t{\n\t\tPaperBrailleChecked();\n\t}\n});\n\n$(document).on(\"change\", \"#strBraille\", function(){\n\tif($(\"#strBraille\").is(\":checked\"))\n\t{\n\t\tPaperBrailleChecked();\n\t}\n\telse if(!($(\"#strPaper\").is(\":checked\")))\n\t{\n\t\tPaperBrailleUnChecked();\n\t}\n});\n\n$(document).on(\"change\", \"#strPaper\", function(){\n\tif($(\"#strPaper\").is(\":checked\"))\n\t{\n\t\tPaperBrailleChecked();\n\t}\n\telse if(!($(\"#strBraille\").is(\":checked\")))\n\t{\n\t\tPaperBrailleUnChecked();\n\t}\n});\n\nfunction PaperBrailleChecked()\n{\n\t$(\"#strAddress1\").attr(\"required\", \"true\");\n\t$(\"#strCity\").attr(\"required\", \"true\");\n\t$(\"#strProvince\").attr(\"required\", \"true\");\n\t$(\"#strCountry\").attr(\"required\", \"true\");\n\t$(\"#strPostal\").attr(\"required\", \"true\");\n}\n\nfunction PaperBrailleUnChecked()\n{\n\t$(\"#strAddress1\").removeAttr(\"required\");\n\t$(\"#strCity\").removeAttr(\"required\");\n\t$(\"#strProvince\").removeAttr(\"required\");\n\t$(\"#strCountry\").removeAttr(\"required\");\n\t$(\"#strPostal\").removeAttr(\"required\");\n}\n</script>\r\n\r\n<div class=\"row\">\r\n \r\n\t\t\t\r\n\t\t\t\r\n\r\n\t\t\r\n\t\r\n</div>"
    },
    "success": true,
    "chat_wizard": false
}