{
    "dcr_id": "1668062274199",
    "title": {
        "en": "April 1, 2020 to March 31, 2021 Plant Health Survey Report",
        "fr": "Rapport d'enqu\u00eates de la protection des v\u00e9g\u00e9taux du 1 avril 2020 au 31 mars 2021"
    },
    "html_modified": "2024-01-26 2:26:02 PM",
    "modified": "2022-11-17",
    "issued": "2022-11-14",
    "teamsite_location": {
        "en": "/default/main/inspection/cont-cont/plants-vegetaux/STAGING/templatedata/comn-comn/forms-formes/data/protect_surveillance_2020surveyrep_1668062274199_eng",
        "fr": "/default/main/inspection/cont-cont/plants-vegetaux/STAGING/templatedata/comn-comn/forms-formes/data/protect_surveillance_2020surveyrep_1668062274199_fra"
    },
    "ia_id": "1668062274512",
    "parent_ia_id": "1344466638872",
    "chronicletopic": {
        "en": "",
        "fr": ""
    },
    "chroniclecontent": {
        "en": "",
        "fr": ""
    },
    "chronicleaudience": {
        "en": "",
        "fr": ""
    },
    "sfcrdocumenttype": {
        "en": "",
        "fr": ""
    },
    "sfcraudience": {
        "en": "",
        "fr": ""
    },
    "sfcrmethodofproduction": {
        "en": "",
        "fr": ""
    },
    "activity": {
        "en": "",
        "fr": ""
    },
    "commodity": {
        "en": "",
        "fr": ""
    },
    "program": {
        "en": "",
        "fr": ""
    },
    "search_type": "other",
    "parent_node_id": "1344466638872",
    "layout_name": "content page 1 column",
    "breadcrumb": {
        "en": "April 1, 2020 to March 31, 2021 Plant Health Survey Report",
        "fr": "Rapport d'enqu\u00eates de la protection des v\u00e9g\u00e9taux du 1 avril 2020 au 31 mars 2021"
    },
    "label": {
        "en": "April 1, 2020 to March 31, 2021 Plant Health Survey Report",
        "fr": "Rapport d'enqu\u00eates de la protection des v\u00e9g\u00e9taux du 1 avril 2020 au 31 mars 2021"
    },
    "templatetype": "content page 1 column",
    "node_id": "1668062274512",
    "managing_branch": "comn",
    "type_name": "forms-formes",
    "dcr_type": "forms-formes",
    "parent_dcr_id": "1344466499681",
    "has_dcr_id": true,
    "lang": "en",
    "could_not_load": 0,
    "refaire": false,
    "interwoven_url": {
        "en": "/plant-health/invasive-species/plant-pest-surveillance/2020-to-2021-plant-health-survey-report/",
        "fr": "/protection-des-vegetaux/especes-envahissantes/surveillance-phytosanitaire/rapport-d-enquetes-de-la-protection-des-vegetaux-2/"
    },
    "meta": {
        "viewport": {
            "en": "width=device-width,initial-scale=1",
            "fr": "width=device-width,initial-scale=1"
        },
        "service": {
            "en": "CFIA-ACIA",
            "fr": "CFIA-ACIA"
        },
        "accessRights": {
            "en": "2",
            "fr": "2"
        },
        "title": {
            "en": "April 1, 2020 to March 31, 2021 Plant Health Survey Report",
            "fr": "Rapport d'enqu\u00eates de la protection des v\u00e9g\u00e9taux du 1 avril 2020 au 31 mars 2021"
        },
        "description": {
            "en": "The objectives of the Plant Protection Program within the Canadian Food Inspection Agency (CFIA) are to prevent the introduction and spread within Canada of plant pests of quarantine significance, to detect and control or eradicate designated plant pests in Canada, and to certify plants and plant products for domestic and export trade.",
            "fr": "Le Programme de Protection des V\u00e9g\u00e9taux de l'Agence canadienne d'inspection des aliments (ACIA) a pour objet d'emp\u00eacher l'introduction et la propagation au Canada de phytoravageurs justiciables de quarantaine, de d\u00e9tecter et de combattre ou d'\u00e9radiquer les phytoravageurs d\u00e9sign\u00e9s et de certifier les plantes et produits v\u00e9g\u00e9taux destin\u00e9s aux march\u00e9s nationaux et \u00e9trangers."
        },
        "keywords": {
            "en": "plants, plant health, Plant Protection, Survey Report, 2020-2021",
            "fr": "v\u00e9g\u00e9taux, la sant\u00e9 des v\u00e9g\u00e9taux, protection des v\u00e9g\u00e9taux, rapport d'enqu\u00eates, 2020-2021"
        },
        "dcterms.subject": {
            "en": "insects,inspection,plants",
            "fr": "insecte,inspection,plante"
        },
        "creator": {
            "en": "Government of Canada,Canadian Food Inspection Agency",
            "fr": "Gouvernement du Canada,Agence canadienne d'inspection des aliments"
        },
        "language": {
            "en": "eng",
            "fr": "fra"
        },
        "issued": {
            "en": "2022-11-14",
            "fr": "2022-11-14"
        },
        "modified": {
            "en": "2022-11-17",
            "fr": "2022-11-17"
        },
        "type": {
            "en": "reference material",
            "fr": "mat\u00e9riel de r\u00e9f\u00e9rence"
        },
        "audience": {
            "en": "business,general public,government",
            "fr": "entreprises,grand public,gouvernement"
        },
        "name": {
            "en": "Government of Canada",
            "fr": "Gouvernement du Canada"
        },
        "areaServed": {
            "en": "Canada",
            "fr": "Canada"
        }
    },
    "h1": {
        "en": "April 1, 2020 to March 31, 2021 Plant Health Survey Report",
        "fr": "Rapport d'enqu\u00eates de la protection des v\u00e9g\u00e9taux du 1 avril 2020 au 31 mars 2021"
    },
    "js": {
        "en": "",
        "fr": ""
    },
    "body": {
        "en": "        \r\n        \n\n<p>The objectives of the Plant Protection Program within the Canadian Food Inspection Agency (CFIA) are to prevent the introduction and spread within Canada of plant pests of quarantine significance, to detect and control or eradicate designated plant pests in Canada, and to certify plants and plant products for domestic and export trade.</p>\n\n<p>Plant health surveys support the Plant Protection Program in a number of ways. They help to detect new populations of quarantine pests or potential quarantine pests being considered for regulation. Delimitation surveys are also conducted to determine the range of pest populations with limited distributions in Canada (International Standards for Phytosanitary Measures (ISPM) no\u00a008). Surveillance data allows Canada to maintain claims of Pest Free Area (ISPM no\u00a004), Pest Free Place of Production and Pest Free Production Site (ISPM no\u00a010) status, and supports our ability to meet a number of international phytosanitary standards under the International Plant Protection Convention. Surveys provide information in support of import, export and domestic regulatory programs. They are a key contribution to policy development and trade negotiations. In all cases, reliable and accurate pest distribution data provides the basis for sound regulatory decisions. The information may be used for a variety of purposes, including reasons for removing, altering, or even not establishing a quarantine regulation. Plant pest surveys are also an integral part of control and eradication programs (ISPM no\u00a009).</p>\n\n<p>In the\u00a02020 to\u00a02021 fiscal year (April\u00a01,\u00a02020 to March\u00a031,\u00a02021), the CFIA conducted surveys for the plant pests listed below.</p>\n\n<div class=\"table-responsive mrgn-tp-lg\">\n<table id=\"forest_pests\" aria-label=\"Forest pests\" class=\"wb-tables table table-bordered table-hover\" data-page-length=\"100\" data-column-defs='[{\"targets\": [1,2], \"orderable\": false}]' data-wb-tables='{ \"order\" : [[0, \"asc\"]] }'>\n<caption class=\"text-left\">April 1, 2020 to March 31, 2021 Survey results for forest pests</caption>\n<colgroup>\n<col class=\"col-sm-3\">\n<col class=\"col-sm-3\">\n<col class=\"col-sm-6\">\n</colgroup>\n<thead>\n<tr class=\"active\">\n<th scope=\"col\">Forest pests</th>\n<th scope=\"col\">Provinces surveyed</th>\n<th scope=\"col\" class=\"nowrap\">Results <sup id=\"fntbla-rf\"> <a class=\"fn-lnk\" href=\"#fntbla\"> <span class=\"wb-inv\">Table note\u00a0</span>a</a></sup></th>\n</tr>\n</thead>\n\n<tbody>\n<tr>\n<td><p>Asian longhorned beetle<br>\n<i lang=\"la\">Anoplophora glabripennis</i>)</p></td>\n<td>BC, AB, SK, MB, ON, QC, NB, NS, PE, NL</td>\n<td>No detections.</td>\n</tr>\n<tr>\n<td><p>Emerald ash borer<br>\n<i lang=\"la\">Agrilus planipennis</i>)</p></td>\n<td>BC, AB, SK, ON, NB, NS, PE, NL</td>\n<td>No detections.</td>\n</tr>\n<tr>\n<td>Invasive alien forest insects</td>\n<td>BC, MB, ON, QC, NB,</td>\n<td>No regulated pests or pests of quarantine significance were detected outside of their known range.</td>\n</tr>\n<tr>\n<td><p>Spongy moth</p>\n\n<p><i lang=\"la\">Lymantria dispar dispar</i></p></td>\n<td>BC, AB, SK, MB, ON, QC, NB, NS, PE, NL</td>\n<td><p><strong>BC:</strong> Adult moths detected in Kelowna (1 moth), Burnaby (2), Campbell River (1), Metchosin (1), Castlegar (1), Chilliwack (2), Coquitlam (6), Courtenay (5), Langley (1), Maple Ridge (10), Mission (5), North Saanich (1), Penticton (1), Surrey (7) Vancouver (2), Victoria (2), West Vancouver (1), Westbank (2).</p>\n\n<p><strong>AB:</strong>\u00a06 adult moths detected in Calgary,\u00a01 in Edmonton and\u00a01 in Claresholm.</p>\n\n<p><strong>SK:</strong>\u00a02 adult moths detected in Regina and\u00a01 in Saskatoon</p>\n\n<p><strong>MB:</strong> Adult moths detected in Winnipeg (6), <span lang=\"fr\">Portage La Prairie</span> (41), Wasagaming (1), and Victoria Beach (1)</p>\n\n<p><strong>ON:</strong> Adult moths detected in Edwardsburgh/Cardinal township, Goderich. Greenstone, Hamilton, Heron Bay, Lake Helen\u00a053A, Langstaff, Longlac, Neebing, Niagara Regional Municipality, Oshawa, Pigeon River, Port Weller, Sault Ste. Marie, Thunder Bay district, Thunder Bay, Toronto, Vaughan, Whitchurch-Stouffville</p>\n\n<p><strong>QC:</strong> Adult moths detected in <span lang=\"fr\">Saint-Bruno, Boucherville, Saint-Hyacinthe, Montr\u00e9al, Salaberry-de-Valleyfield, Sorel, Trois-Rivi\u00e8res</span> and <span lang=\"fr\">Qu\u00e9bec</span>.</p>\n\n<p><strong>NB:</strong> Adult moths detected in Saint John, Bayside, St. Stephen and Belledune.</p>\n\n<p><strong>NS:</strong> Adult moths detected in Darthmouth, Eastern Passage, Fergusons Cove, Halifax, Herring Cove, and Janvrin Island.</p>\n\n<p><strong>PE:</strong> Adult moths detected in Borden-Carleton and Summerside.</p>\n\n<p><strong>NL:</strong> Adult moths detected in St. John's, Brigus and Bay Bulls.</p></td>\n</tr>\n<tr>\n<td>Brown spruce longhorn beetle<br>\n<i lang=\"la\">Tetropium fuscum</i>)</td>\n<td>QC, NB, PE, NL</td>\n<td>No detections.</td>\n</tr>\n<tr>\n<td>Hemlock woolly adelgid<br>\n<i lang=\"la\">Adelges tsugae</i>)</td>\n<td>ON, QC, NB, NS, PE</td>\n<td><strong>NS:</strong> Detections in Cherryfield and Barton.</td>\n</tr>\n<tr>\n<td>Oak wilt<br>\n<i lang=\"la\">Ceratocystis fagacearum</i>)</td>\n<td>ON, QC</td>\n<td>No detections.</td>\n</tr>\n</tbody>\n</table>\n</div>\n\n<aside class=\"wb-fnote\" role=\"note\">\n<p id=\"fn-tnotes1\" class=\"wb-inv\">Table notes</p>\n<dl>\n<dt>Table note\u00a0a</dt>\n<dd id=\"fntbla\"><p>No detections other than those specified in results column.</p>\n<p class=\"fn-rtn\"> <a href=\"#fntbla-rf\"><span class=\"wb-inv\">Return to table note\u00a0</span>a <span class=\"wb-inv\">\u00a0referrer</span></a></p></dd>\n</dl>\n</aside>\n\n\n\n<div class=\"table-responsive mrgn-tp-lg\">\n<table id=\"horticultural_pests\" aria-label=\"Horticultural pests\" class=\"wb-tables table table-bordered table-hover\" data-page-length=\"100\" data-column-defs='[{\"targets\": [1,2], \"orderable\": false}]' data-wb-tables='{ \"order\" : [[0, \"asc\"]] }'>\n<caption class=\"text-left\">April 1, 2020 to March 31, 2021 Survey results for horticultural pests</caption>\n<colgroup>\n<col class=\"col-sm-3\">\n<col class=\"col-sm-3\">\n<col class=\"col-sm-6\">\n</colgroup>\n<thead>\n<tr class=\"active\">\n<th scope=\"col\">Horticultural pests</th>\n<th scope=\"col\">Provinces surveyed</th>\n<th scope=\"col\" class=\"nowrap\">Results <sup id=\"fntblb-rf\"> <a class=\"fn-lnk\" href=\"#fntblb\"> <span class=\"wb-inv\">Table note\u00a0</span>b</a></sup></th>\n</tr>\n</thead>\n\n<tbody>\n<tr>\n<td><p>Ramorum blight<br>\n<i lang=\"la\">Phytophthora ramorum</i>)</p></td>\n<td>BC, ON,</td>\n<td>No new detections.</td>\n</tr>\n<tr>\n<td><p>Oriental fruit moth<br>\n<i lang=\"la\">Grapholita molesta</i>)</p></td>\n<td>BC</td>\n<td>No detections.</td>\n</tr>\n<tr>\n<td><p>Japanese beetle<br>\n<i lang=\"la\">Popillia japonica</i>)</p></td>\n<td>BC, NL</td>\n<td><strong>BC:</strong> Japanese beetle was detected in Vancouver and Port Coquitlam.</td>\n</tr>\n<tr>\n<td><p>Blueberry maggot<br>\n<i lang=\"la\">Rhagoletis mendax</i>)</p></td>\n<td>BC, ON, QC, NL</td>\n<td>No detections.</td>\n</tr>\n<tr>\n<td><p>Apple maggot<br>\n<i lang=\"la\">Rhagoletis pomonella</i>)</p></td>\n<td>BC</td>\n<td>No new detections.</td>\n</tr>\n<tr>\n<td>Tobacco blue mold<br>\n<i lang=\"la\">Peronospora hyoscyami</i> f.sp. <i lang=\"la\">tabacina</i>)</td>\n<td>BC</td>\n<td>No detections.</td>\n</tr>\n<tr>\n<td>Plum pox virus</td>\n<td>ON</td>\n<td>No detections.</td>\n</tr>\n</tbody>\n</table>\n</div>\n\n<aside class=\"wb-fnote\" role=\"note\">\n<p id=\"fn-tnotes2\" class=\"wb-inv\">Table notes</p>\n<dl>\n<dt>Table note\u00a0b</dt>\n<dd id=\"fntblb\"><p>No detections other than those specified in results column.</p>\n<p class=\"fn-rtn\"> <a href=\"#fntblb-rf\"><span class=\"wb-inv\">Return to table note\u00a0</span>b <span class=\"wb-inv\">\u00a0referrer</span></a></p></dd>\n</dl>\n</aside>\n\n\n\n<div class=\"table-responsive mrgn-tp-lg\">\n<table id=\"seed_potato_pests\" aria-label=\"Seed potato pests\" class=\"wb-tables table table-bordered table-hover\" data-page-length=\"100\" data-column-defs='[{\"targets\": [1,2], \"orderable\": false}]' data-wb-tables='{ \"order\" : [[0, \"asc\"]] }'>\n<caption class=\"text-left\">April 1, 2020 to March 31, 2021 Survey results for seed potato pests</caption>\n<colgroup>\n<col class=\"col-sm-3\">\n<col class=\"col-sm-3\">\n<col class=\"col-sm-6\">\n</colgroup>\n<thead>\n<tr class=\"active\">\n<th scope=\"col\">Seed potato pests</th>\n<th scope=\"col\">Provinces surveyed</th>\n<th scope=\"col\" class=\"nowrap\">Results <sup id=\"fntblc-rf\"> <a class=\"fn-lnk\" href=\"#fntblc\"> <span class=\"wb-inv\">Table note\u00a0</span>c</a></sup></th>\n</tr>\n</thead>\n\n<tbody>\n<tr>\n<td>Potato cyst nematode<br>\n<i lang=\"la\">Globodera rostochiensis, G. pallida</i>)</td>\n<td>BC, AB, SK, MB, QC, NB, PE, NL</td>\n<td>No detections.</td>\n</tr>\n<tr>\n<td><p>Potato wart<br>\n<i lang=\"la\">Synchytrium endobioticum</i>)</p></td>\n<td>PE, NL</td>\n<td><strong>PE:</strong> Potato wart was detected</td>\n</tr>\n</tbody>\n</table>\n</div>\n\n<aside class=\"wb-fnote\" role=\"note\">\n<p id=\"fn-tnotes3\" class=\"wb-inv\">Table notes</p>\n<dl>\n<dt>Table note\u00a0c</dt>\n<dd id=\"fntblc\"><p>No detections other than those specified in results column.</p>\n<p class=\"fn-rtn\"> <a href=\"#fntblc-rf\"><span class=\"wb-inv\">Return to table note\u00a0</span>c <span class=\"wb-inv\">\u00a0referrer</span></a></p></dd>\n</dl>\n</aside>\n\n\n\n<div class=\"table-responsive mrgn-tp-lg\">\n<table id=\"iasdp\" aria-label=\"IASDP\" class=\"wb-tables table table-bordered table-hover\" data-page-length=\"100\" data-column-defs='[{\"targets\": [1,2], \"orderable\": false}]' data-wb-tables='{ \"order\" : [[0, \"asc\"]] }'>\n<caption class=\"text-left\">April 1, 2020 to March 31, 2021 Survey results for the Invasive Alien Species Domestic Plant Health Program (IASDP)</caption>\n<colgroup>\n<col class=\"col-sm-3\">\n<col class=\"col-sm-3\">\n<col class=\"col-sm-6\">\n</colgroup>\n<thead>\n<tr class=\"active\">\n<th scope=\"col\">IASDP pests</th>\n<th scope=\"col\">Provinces surveyed</th>\n<th scope=\"col\" class=\"nowrap\">Results <sup id=\"fntbld-rf\"> <a class=\"fn-lnk\" href=\"#fntbld\"> <span class=\"wb-inv\">Table note\u00a0</span>d</a></sup></th>\n</tr>\n</thead>\n\n<tbody>\n<tr>\n<td>Invasive plant survey: seed and grain handling facilities</td>\n<td>BC, AB, ON, QC, NB</td>\n<td><p><strong>BC:</strong> Jointed goatgrass was detected at\u00a03 sites.</p>\n\n<p><strong>ON:</strong> Jointed goatgrass was detection at\u00a01 site</p></td>\n</tr>\n<tr>\n<td><p>Kudzu<br>\n<i lang=\"la\">Pueraria montana</i>)</p></td>\n<td>ON</td>\n<td>No new detections.</td>\n</tr>\n<tr>\n<td><i lang=\"la\">Lymantria dispar asiatica</i> or <i lang=\"la\">Lymantria dispar japonica</i></td>\n<td>BC, AB, SK, MB, ON, QC, NB, NS, PE</td>\n<td>No detections</td>\n</tr>\n<tr>\n<td><p>Japanese Stiltgrass<br>\n<i lang=\"la\">Microstegium vimineum</i>)</p></td>\n<td>ON</td>\n<td>1 new detection.</td>\n</tr>\n</tbody>\n</table>\n</div>\n\n<aside class=\"wb-fnote\" role=\"note\">\n<p id=\"fn-tnotes4\" class=\"wb-inv\">Table notes</p>\n<dl>\n<dt>Table note\u00a0d</dt>\n<dd id=\"fntbld\"><p>No detections other than those specified in results column.</p>\n<p class=\"fn-rtn\"> <a href=\"#fntbld-rf\"><span class=\"wb-inv\">Return to table note\u00a0</span>d <span class=\"wb-inv\">\u00a0referrer</span></a></p></dd>\n</dl>\n</aside>\n\n\n<p class=\"mrgn-tp-lg\">The CFIA's Plant Health Surveillance Unit (PHSU) is also dedicated to preventative science and research that supports risk mitigation and early detection. Research projects supported by the PHSU in April 1, 2020 to March 31, 2021 include:</p>\n\n<ul>\n<li>plant health diagnostic pilot project with the Biodiversity Institute of Ontario, University of Guelph to assess potential for eDNA metabarcoding for detecting species of regulatory concern</li>\n<li>assessing the efficacy of a community science monitoring program for box tree moth</li>\n<li>chemical ecology of Chinese <i lang=\"la\">Agrilus</i> species</li>\n<li>improving detection survey methodology of wood boring insects</li>\n<li>searching for hemlock woolly adelgid biocontrol agents and developing tools to detect and quantify predatory fly populations<br>\n<i lang=\"la\">Leucotaraxis</i> spp.)</li>\n<li>testing the operational feasibility of using camera traps as part of CFIA's European gypsy moth and Japanese beetle surveys</li>\n<li>developing a sea container taping program to mitigate pest risk in lieu of the fumigation only option when containers need to be returned to country of origin due to non-compliant pest detection</li>\n</ul>\n\n<p>Finally, the unit is committed to building and maintaining collaboration and networks through innovative education, outreach and awareness strategies that strengthen networks and build surveillance capacity.</p>\n\n<p>The CFIA has worked closely with its collaborators, including provinces and municipalities to expand the reach of surveillance efforts for spongy moth and emerald ash borer. Furthermore, provincial efforts in Ontario have supported discussions on European cherry fruit fly with traps deployed at\u00a015 locations in southwestern Ontario with no new detections. Collaborations with the Invasive Species Centre, Ontario, Parks Canada Agency and the Canadian Council on Invasive Species have continued and several Memorandums of Understanding for data sharing with provinces have been established. The unit regularly holds training and outreach events with the public and stakeholders, in addition to providing internal training for CFIA inspectors. Please contact the <a href=\"/plant-health/invasive-species/plant-pest-surveillance/eng/1344466499681/1344466638872#p1\">Plant Health Surveillance Unit</a> if you or your organization would like to receive support for training or public outreach events.</p>\n\n<p>For any question regarding CFIA's plant health surveys, please contact the <a href=\"/plant-health/invasive-species/plant-pest-surveillance/eng/1344466499681/1344466638872#p1\">Plant Health Surveillance Unit</a>.</p>\r\n        \r\n\r\n\r\n\r\n<div class=\"row\">\r\n \r\n\t\r\n\t\t\t\r\n\r\n<div class=\"col-xm-12 pagedetails container\">\r\n\t\t\t\t\r\n\r\n</div>\r\n\t\r\n</div>",
        "fr": "\r\n        \r\n        \n\n<p>Le Programme de Protection des V\u00e9g\u00e9taux de l'Agence canadienne d'inspection des aliments (ACIA) a pour objet d'emp\u00eacher l'introduction et la propagation au Canada de phytoravageurs justiciables de quarantaine, de d\u00e9tecter et de combattre ou d'\u00e9radiquer les phytoravageurs d\u00e9sign\u00e9s et de certifier les plantes et produits v\u00e9g\u00e9taux destin\u00e9s aux march\u00e9s nationaux et \u00e9trangers.</p>\n\n<p>Les enqu\u00eates phytosanitaires soutiennent le Programme de protection des v\u00e9g\u00e9taux de plusieurs fa\u00e7ons. Elles aident \u00e0 d\u00e9tecter de nouvelles populations de ravageurs justiciables ou potentiellement justiciables de quarantaine qui pourraient \u00eatre soumis \u00e0 la r\u00e9glementation. Des enqu\u00eates de d\u00e9limitation sont aussi men\u00e9es pour d\u00e9terminer l'\u00e9tendue des populations de ravageurs dont l'aire de r\u00e9partition est restreinte au Canada (normes internationales de mesures phytosanitaires, (NIMP) no\u00a008). Les donn\u00e9es de surveillance permettent au Canada de maintenir le statut de zone exempte (NIMP no\u00a004) et de lieu ou site de production exempt d'organismes nuisibles (NIMP no\u00a010), et de soutenir sa capacit\u00e9 de respecter certaines normes phytosanitaires de la Convention internationale pour la protection des v\u00e9g\u00e9taux. Les enqu\u00eates fournissent des renseignements utiles aux programmes d'importation, d'exportation et de r\u00e9glementation nationale. Elles sont un \u00e9l\u00e9ment cl\u00e9 de l'\u00e9laboration des politiques et des n\u00e9gociations commerciales. Dans tous les cas, des donn\u00e9es fiables et exactes sur la r\u00e9partition des phytoravageurs permettent de prendre des d\u00e9cisions r\u00e9glementaires \u00e9clair\u00e9es. L'information peut \u00eatre utilis\u00e9e \u00e0 de multiples fins, y compris comme motif pour l'annulation, la modification ou m\u00eame l'abstention d'\u00e9tablir une r\u00e9glementation. Les enqu\u00eates phytosanitaires font aussi partie int\u00e9grante des programmes de lutte et d'\u00e9radication (NIMP no\u00a009).</p>\n\n<p>Au cours de l'ann\u00e9e financi\u00e8re\u00a02020-2021 (du\u00a01 avril\u00a02020 au\u00a031 mars\u00a02021), l'ACIA a r\u00e9alis\u00e9 des enqu\u00eates sur les phytoravageurs \u00e9num\u00e9r\u00e9s ci-dessous.</p>\n\n<div class=\"table-responsive mrgn-tp-lg\">\n<table id=\"ravageurs_forestiers\" aria-label=\"Ravageurs forestiers\" class=\"wb-tables table table-bordered table-hover\" data-page-length=\"100\" data-column-defs='[{\"targets\": [1,2], \"orderable\": false}]' data-wb-tables='{ \"order\" : [[0, \"asc\"]] }'>\n<caption class=\"text-left\">R\u00e9sultats des enqu\u00eates sur les ravageurs forestiers du 1 avril 2020 au 31 mars 2021</caption>\n<colgroup>\n<col class=\"col-sm-3\">\n<col class=\"col-sm-3\">\n<col class=\"col-sm-6\">\n</colgroup>\n<thead>\n<tr class=\"active\">\n<th scope=\"col\">Ravageurs forestiers</th>\n<th scope=\"col\">Provinces</th>\n<th scope=\"col\" class=\"nowrap\">R\u00e9sultats <sup id=\"fntbla-rf\"> <a class=\"fn-lnk\" href=\"#fntbla\"> <span class=\"wb-inv\">Note de tableau\u00a0</span>a</a></sup></th>\n</tr>\n</thead>\n\n<tbody>\n<tr>\n<td><p>Longicorne asiatique<br>\n<i lang=\"la\">Anoplophora glabripennis</i>)</p></td>\n<td>C.-B., Alb. Sask., Man., Ont., Qc., N.-B., N.-\u00c9., \u00ce.-P.-\u00c9., T.-N.-L.</td>\n<td>Aucune d\u00e9tection.</td>\n</tr>\n<tr>\n<td><p>Agrile du fr\u00eane<br>\n<i lang=\"la\">Agrilus planipennis</i>)</p></td>\n<td>C.-B., Alb., Sask., Ont., Qc., N.-B., N.-\u00c9., \u00ce.-P.-\u00c9., T.-N.-L.</td>\n<td>Aucune d\u00e9tection</td>\n</tr>\n<tr>\n<td>Enqu\u00eates sur les insectes forestiers exotiques envahissants</td>\n<td><p>C.-B., Man., Ont., Qc., N.-B..</p></td>\n<td>Aucune d\u00e9tection de ravageurs r\u00e9glement\u00e9s ou de ravageurs potentiellement justiciables de quarantaine en dehors de leur aire de distribution connue.</td>\n</tr>\n<tr>\n<td><p>Spongieuse europ\u00e9enne<br>\n<i lang=\"la\">Lymantria dispar dispar</i>)</p></td>\n<td>C.-B., Alb., Sask., Man., Ont., Qc., N.-B., N.-\u00c9., \u00ce.-P.-\u00c9., T.-N.-L.</td>\n<td><p><strong>C.-B.\u00a0:</strong> Adultes d\u00e9tect\u00e9s \u00e0 <span lang=\"en\">Kelowna</span> (1 adulte), <span lang=\"en\">Burnaby</span> (2), <span lang=\"en\">Campbell River</span> (1), Metchosin (1), Castlegar (1), Chilliwack (2), Coquitlam (6), <span lang=\"en\">Courtenay</span> (5), <span lang=\"en\">Langley</span> (1), <span lang=\"en\">Maple Ridge</span> (10), <span lang=\"en\">Mission</span> (5), <span lang=\"en\">North Saanich</span> (1), <span lang=\"en\">Penticton</span> (1), <span lang=\"en\">Surrey</span> (7) Vancouver (2), Victoria (2), <span lang=\"en\">West</span> Vancouver (1), <span lang=\"en\">Westbank</span> (2).</p>\n\n<p><strong>Alb.\u00a0:</strong>\u00a06 papillons adultes d\u00e9tect\u00e9s \u00e0 Calgary,\u00a01 \u00e0 Edmonton et\u00a01 \u00e0 Claresholm.</p>\n\n<p><strong>Sask:</strong>\u00a02 papillons adultes d\u00e9tect\u00e9s \u00e0 Regina et\u00a01 \u00e0 Saskatoon.</p>\n\n<p><strong>MB:\u00a0</strong> Papillons adultes d\u00e9tect\u00e9s \u00e0 Winnipeg (6), Portage La Prairie (41), Wasagaming (1), et <span lang=\"en\">Victoria Beach</span> (1).</p>\n\n<p><strong>Ont.\u00a0:</strong> Papillons adultes d\u00e9tect\u00e9s \u00e0\u00a0 Edwardsburgh/canton de <span lang=\"en\">Cardinal, Goderich. Greenstone, Hamilton, Heron Bay, Lake Helen</span>\u00a053A, <span lang=\"en\">Langstaff, Longlac, Neebing</span>, Municipalit\u00e9 r\u00e9gionale de <span lang=\"en\">Niagara, Oshawa, Pigeon River, Port Weller</span>, Sault Ste. Marie, District de <span lang=\"en\">Thunder Bay, Thunder Bay</span>, Toronto, <span lang=\"en\">Vaughan, Whitchurch-Stouffville</span></p>\n\n<p><strong>Qc.\u00a0:</strong> Papillons adultes d\u00e9tect\u00e9s \u00e0 Saint-Bruno, Boucherville, Saint-Hyacinthe, Montr\u00e9al, Salaberry-de-Valleyfield, Sorel, Trois-Rivi\u00e8res and Qu\u00e9bec.</p>\n\n<p><strong>N.-B.\u00a0:</strong> Papillons adultes d\u00e9tect\u00e9s \u00e0 <span lang=\"en\">Saint John, Bayside, St. Stephen</span> et Belledune.</p>\n\n<p><strong>N.-\u00c9.\u00a0:</strong> Papillons adultes d\u00e9tect\u00e9s \u00e0 Darthmouth, <span lang=\"en\">Eastern Passage</span>, <span lang=\"en\">Fergusons Cove</span>, Halifax, <span lang=\"en\">Herring Cove</span>, et <span lang=\"en\">Janvrin Island</span>.</p>\n\n<p><strong>\u00ce.-P.-\u00c9.\u00a0:</strong> Papillons adultes d\u00e9tect\u00e9s \u00e0 <span lang=\"en\">Borden-Carleton</span> et <span lang=\"en\">Summerside</span>.</p>\n\n<p><strong>T.-N.-L.\u00a0:</strong> Papillons adultes d\u00e9tect\u00e9s \u00e0 <span lang=\"en\">St. John's</span>, Brigus and <span lang=\"en\">Bay Bulls</span>.</p></td>\n</tr>\n<tr>\n<td>Longicorne brun de l'\u00e9pinette<br>\n<i lang=\"la\">Tetropium fuscum</i>)</td>\n<td><p>Qc., N.-B., \u00ce.-P.-\u00c9.,</p>\n\n<p>T.-N.-L.</p></td>\n<td>Aucune d\u00e9tection</td>\n</tr>\n<tr>\n<td>Puceron lanig\u00e8re de la pruche<br>\n<i lang=\"la\">Adelges tsugae</i>)</td>\n<td>Ont., Qc., N.-B., N.-\u00c9., \u00ce.-P.-\u00c9.,</td>\n<td><strong>N.-\u00c9.\u00a0:</strong> D\u00e9tections \u00e0 <span lang=\"en\">Cherryfield</span> et Barton</td>\n</tr>\n<tr>\n<td><p>Fl\u00e9trissement du ch\u00eane<br>\n<i lang=\"la\">Ceratocystis fagacearum</i>)</p></td>\n<td>Ont., Qc.</td>\n<td>Aucune d\u00e9tection.</td>\n</tr>\n</tbody>\n</table>\n</div>\n\n<aside class=\"wb-fnote\" role=\"note\">\n<p id=\"fn-tnotes1\" class=\"wb-inv\">Note de tableau</p>\n<dl>\n<dt>Note de tableau\u00a0a</dt>\n<dd id=\"fntbla\"><p>Aucun autre sp\u00e9cimen d\u00e9tect\u00e9 que ceux indiqu\u00e9s dans la colonne r\u00e9sultats.</p>\n<p class=\"fn-rtn\"> <a href=\"#fntbla-rf\"><span class=\"wb-inv\">Retour \u00e0 la r\u00e9f\u00e9rence de la note de tableau\u00a0</span>a</a></p></dd>\n</dl>\n</aside>\n\n\n<div class=\"table-responsive mrgn-tp-lg\">\n<table id=\"ravageurs_horticulture\" aria-label=\"Ravageurs en horticulture\" class=\"wb-tables table table-bordered table-hover\" data-page-length=\"100\" data-column-defs='[{\"targets\": [1,2], \"orderable\": false}]' data-wb-tables='{ \"order\" : [[0, \"asc\"]] }'>\n<caption class=\"text-left\">R\u00e9sultats des enqu\u00eates sur les ravageurs en horticulture du 1 avril 2020 au 31 mars 2021</caption>\n<colgroup>\n<col class=\"col-sm-3\">\n<col class=\"col-sm-3\">\n<col class=\"col-sm-6\">\n</colgroup>\n<thead>\n<tr class=\"active\">\n<th scope=\"col\">Ravageurs en horticulture</th>\n<th scope=\"col\">Provinces</th>\n<th scope=\"col\" class=\"nowrap\">R\u00e9sultats <sup id=\"fntblb-rf\"> <a class=\"fn-lnk\" href=\"#fntblb\"> <span class=\"wb-inv\">Note de tableau\u00a0</span>b</a></sup></th>\n</tr>\n</thead>\n\n<tbody>\n<tr>\n<td><p>Maladie de l'encre des ch\u00eanes rouges<br>\n<i lang=\"la\">Phytophthora ramorum</i>)</p></td>\n<td>C.-B., Ont.</td>\n<td>Aucune nouvelle d\u00e9tection.</td>\n</tr>\n<tr>\n<td><p>Tordeuse orientale du p\u00eacher<br>\n<i lang=\"la\">Grapholita molesta</i>)</p></td>\n<td>C.-B.</td>\n<td>Aucune d\u00e9tection.</td>\n</tr>\n<tr>\n<td><p>Scarab\u00e9e japonais<br>\n<i lang=\"la\">Popillia japonica</i>)</p></td>\n<td>C.-B., T.-N.-L.</td>\n<td><strong>C.-B.\u00a0:</strong> D\u00e9tections \u00e0 Vancouver et Port Coquitlam.</td>\n</tr>\n<tr>\n<td><p>Mouche du bleuet<br>\n<i lang=\"la\">Rhagoletis mendax</i>)</p></td>\n<td>C.-B., Ont., Qc., T.-N.-L.</td>\n<td>Aucune d\u00e9tection.</td>\n</tr>\n<tr>\n<td><p>Mouche de la pomme<br>\n<i lang=\"la\">Rhagoletis pomonella</i>)</p></td>\n<td>C.-B.</td>\n<td>Aucune nouvelle d\u00e9tection.</td>\n</tr>\n<tr>\n<td>Moisissure bleue du tabac<br>\n<i lang=\"la\">Peronspora hyoscyami</i> f.sp. <i lang=\"la\">tabacina</i>)</td>\n<td>C.-B.</td>\n<td>Aucune d\u00e9tection.</td>\n</tr>\n<tr>\n<td>Virus de la sharka du prunier</td>\n<td>Ont.</td>\n<td>Aucune d\u00e9tection.</td>\n</tr>\n</tbody>\n</table>\n</div>\n\n<aside class=\"wb-fnote\" role=\"note\">\n<p id=\"fn-tnotes2\" class=\"wb-inv\">Note de tableau</p>\n<dl>\n<dt>Note de tableau\u00a0b</dt>\n<dd id=\"fntblb\"><p>Aucun autre sp\u00e9cimen d\u00e9tect\u00e9 que ceux indiqu\u00e9s dans la colonne r\u00e9sultats.</p>\n<p class=\"fn-rtn\"> <a href=\"#fntblb-rf\"><span class=\"wb-inv\">Retour \u00e0 la r\u00e9f\u00e9rence de la note de tableau\u00a0</span>b</a></p></dd>\n</dl>\n</aside>\n\n\n<div class=\"table-responsive mrgn-tp-lg\">\n<table id=\"ravageurs_pommes_de_terre_de_semence\" aria-label=\"Ravageurs des pommes de terre de semence\" class=\"wb-tables table table-bordered table-hover\" data-page-length=\"100\" data-column-defs='[{\"targets\": [1,2], \"orderable\": false}]' data-wb-tables='{ \"order\" : [[0, \"asc\"]] }'>\n<caption class=\"text-left\">R\u00e9sultats des enqu\u00eates sur les ravageurs des pommes de terre de semence du 1 avril 2020 au 31 mars 2021</caption>\n<colgroup>\n<col class=\"col-sm-3\">\n<col class=\"col-sm-3\">\n<col class=\"col-sm-6\">\n</colgroup>\n<thead>\n<tr class=\"active\">\n<th scope=\"col\">Ravageurs de la pomme de terre de semence</th>\n<th scope=\"col\">Provinces</th>\n<th scope=\"col\" class=\"nowrap\">R\u00e9sultats <sup id=\"fntblc-rf\"> <a class=\"fn-lnk\" href=\"#fntblc\"> <span class=\"wb-inv\">Note de tableau\u00a0</span>c</a></sup></th>\n</tr>\n</thead>\n\n<tbody>\n<tr>\n<td>N\u00e9matodes \u00e0 kystes de la pomme de terre<br>\n<i lang=\"la\">Globodera rostochiensis, G. pallida</i>)</td>\n<td>C.-B., Alb., Sask., Man., Qc., N.-B., \u00ce.-P.-\u00c9., T.-N.-L.</td>\n<td>Aucune d\u00e9tection.</td>\n</tr>\n<tr>\n<td>Gale verruqueuse de la pomme de terre<br>\n<i lang=\"la\">Synchytrium endobioticum</i>)</td>\n<td>\u00ce.-P.-\u00c9., T.-N.-L.</td>\n<td><strong>\u00ce.-P.-\u00c9.\u00a0:</strong> D\u00e9tection de la gale verruqueuse.</td>\n</tr>\n</tbody>\n</table>\n</div>\n\n<aside class=\"wb-fnote\" role=\"note\">\n<p id=\"fn-tnotes3\" class=\"wb-inv\">Note de tableau</p>\n<dl>\n<dt>Note de tableau\u00a0c</dt>\n<dd id=\"fntblc\"><p>Aucun autre sp\u00e9cimen d\u00e9tect\u00e9 que ceux indiqu\u00e9s dans la colonne r\u00e9sultats.</p>\n<p class=\"fn-rtn\"> <a href=\"#fntblc-rf\"><span class=\"wb-inv\">Retour \u00e0 la r\u00e9f\u00e9rence de la note de tableau\u00a0</span>c</a></p></dd>\n</dl>\n</aside>\n\n\n<div class=\"table-responsive mrgn-tp-lg\">\n<table id=\"eeeppn\" aria-label=\"EEEPPN\" class=\"wb-tables table table-bordered table-hover\" data-page-length=\"100\" data-column-defs='[{\"targets\": [1,2], \"orderable\": false}]' data-wb-tables='{ \"order\" : [[0, \"asc\"]] }'>\n<caption class=\"text-left\">R\u00e9sultats des enqu\u00eates sur les esp\u00e8ces exotiques envahissantes et programmes phytosanitaires nationaux (EEEPPN) la protection des v\u00e9g\u00e9taux du 1 avril 2020 au 31 mars 2021</caption>\n<colgroup>\n<col class=\"col-sm-3\">\n<col class=\"col-sm-3\">\n<col class=\"col-sm-6\">\n</colgroup>\n<thead>\n<tr class=\"active\">\n<th scope=\"col\">Esp\u00e8ces EEEPPN</th>\n<th scope=\"col\">Provinces</th>\n<th scope=\"col\" class=\"nowrap\">R\u00e9sultats <sup id=\"fntbld-rf\"> <a class=\"fn-lnk\" href=\"#fntbld\"> <span class=\"wb-inv\">Note de tableau\u00a0</span>d</a></sup></th>\n</tr>\n</thead>\n\n<tbody>\n<tr>\n<td>Enqu\u00eate sur les plantes exotiques envahissantes\u00a0: (installations de manutention des semences et du grain)</td>\n<td>C.-B., Alb., Ont., Qc., N.-B.</td>\n<td><p><strong>C.-B.\u00a0:</strong> D\u00e9tection de l'\u00e9gilope cylindrique \u00e0 trois endroits.</p>\n<p><strong>Ont\u00a0:</strong> D\u00e9tection de l'\u00e9gilope cylindrique \u00e0 un endroit.</p></td>\n</tr>\n<tr>\n<td><p>Kudzu<br>\n<i lang=\"la\">Pueraria montana</i>)</p></td>\n<td>Ont.</td>\n<td>Aucune nouvelle d\u00e9tection.</td>\n</tr>\n<tr>\n<td>Spongieuse asiatique<br>\n<i lang=\"la\">Lymantria dispar asiatica</i> ou <i lang=\"la\">Lymantria dispar japonica</i>)</td>\n<td>C.-B., Alb., Sask., Man., Ont., Qc., N.-B., N.-\u00c9., \u00ce.-P.-\u00c9.</td>\n<td>Aucune d\u00e9tection.</td>\n</tr>\n<tr>\n<td>Microst\u00e9gie en osier<br>\n<i lang=\"la\">Microstegium vimineum</i>)</td>\n<td>Ont.</td>\n<td>1 nouvelle d\u00e9tection.</td>\n</tr>\n</tbody>\n</table>\n</div>\n\n<aside class=\"wb-fnote\" role=\"note\">\n<p id=\"fn-tnotes4\" class=\"wb-inv\">Note de tableau</p>\n<dl>\n<dt>Note de tableau\u00a0d</dt>\n<dd id=\"fntbld\"><p>Aucun autre sp\u00e9cimen d\u00e9tect\u00e9 que ceux indiqu\u00e9s dans la colonne r\u00e9sultats.</p>\n<p class=\"fn-rtn\"> <a href=\"#fntbld-rf\"><span class=\"wb-inv\">Retour \u00e0 la r\u00e9f\u00e9rence de la note de tableau\u00a0</span>d</a></p></dd>\n</dl>\n</aside>\n\n<p class=\"mrgn-tp-lg\">L'Unit\u00e9 de surveillance phytosanitaire de l'ACIA est ax\u00e9e sur des activit\u00e9s en science pr\u00e9ventive et de recherche qui appuient l'att\u00e9nuation des risques et la d\u00e9tection pr\u00e9coce d'organismes nuisibles. Les projets de recherche auxquels l'unit\u00e9 des enqu\u00eates phytosanitaires a pris part du 1 avril 2020 au 31 mars 2021 inclus\u00a0:</p>\n\n<ul>\n<li>projet pilote sur le diagnostic phytosanitaire men\u00e9 en collaboration avec l'Institut de la biodiversit\u00e9 de l'Ontario de l'Universit\u00e9 de Guelph</li>\n<li>\u00e9cologie chimique d'esp\u00e8ces chinoises d'agriles</li>\n<li>am\u00e9lioration des m\u00e9thodes de d\u00e9pistage des insectes xylophages</li>\n<li>recherches d'agents de lutte biologique contre le puceron lanig\u00e8re de la pruche et d\u00e9veloppement d'outils pour d\u00e9tecter et quantifier les populations de <i lang=\"la\">Leucotaraxis</i> spp., une mouche pr\u00e9datrice de ce ravageur.</li>\n<li>\u00e9valuation de la faisabilit\u00e9 de l'utilisation de pi\u00e8ges-cam\u00e9ra pour la surveillance de la spongieuse et du scarab\u00e9e japonais.</li>\n<li>d\u00e9veloppement d'un programme d'\u00e9valuation de rubans adh\u00e9sif, en remplacement de la fumigation, pour les conteneurs maritimes non-conformes suite \u00e0 la d\u00e9tection d'un phytoravageur et devant \u00eatre retourn\u00e9s \u00e0 leur pays d'origine.</li>\n</ul>\n\n<p>L'Unit\u00e9 de surveillance phytosanitaire s'est engag\u00e9e \u00e0 constituer et \u00e0 maintenir des partenariats et des r\u00e9seaux pour la poursuite de strat\u00e9gies novatrices d'\u00e9ducation, de vulgarisation et de sensibilisation afin de renforcer les r\u00e9seaux de surveillance et leurs capacit\u00e9s.</p>\n\n<p>L'ACIA a collabor\u00e9 \u00e9troitement avec des partenaires de l'ext\u00e9rieur, notamment des provinces, des municipalit\u00e9s et des organismes non gouvernementaux, afin d'\u00e9largir la port\u00e9e de surveillance de la spongieuse et de l'agrile du fr\u00eane. De plus, les efforts de la province de l'Ontario ont support\u00e9 les discussions au sujet de la mouche europ\u00e9enne des cerises via l'installation de\u00a015 pi\u00e8ges, sans aucune d\u00e9tection, dans le sud de la province. Les partenariats avec le Centre des esp\u00e8ces envahissantes de l'Ontario, l'Agence Parcs Canada et le Conseil canadien sur les esp\u00e8ces envahissantes se sont poursuivis et diverses ententes pour le partage de donn\u00e9es avec les provinces ont \u00e9t\u00e9 mises en place. L'unit\u00e9 tient des formations et activit\u00e9s de sensibilisation destin\u00e9es aux partenaires et au grand public. En plus de participer \u00e0 la formation des inspecteurs de l'ACIA. Nous vous invitons \u00e0 contacter l'<a href=\"/protection-des-vegetaux/especes-envahissantes/surveillance-phytosanitaire/fra/1344466499681/1344466638872#p1\">unit\u00e9 de surveillance phytosanitaire</a> si vous ou votre organisation d\u00e9sirez obtenir du support pour des activit\u00e9s de formation ou de sensibilisation.</p>\n\n<p>Pour toute question au sujet des enqu\u00eates phytosanitaires de l'ACIA, contactez l'<a href=\"/protection-des-vegetaux/especes-envahissantes/surveillance-phytosanitaire/fra/1344466499681/1344466638872#p1\">unit\u00e9 de surveillance phytosanitaire</a>.</p>\r\n        \r\n\r\n<div class=\"row\">\r\n \r\n\t\t\t\r\n\t\t\t\r\n\r\n\t\t\r\n\t\r\n</div>"
    },
    "success": true,
    "chat_wizard": false
}