{
    "dcr_id": "1345481113578",
    "title": {
        "en": "Chapter 12 - Foreign animal diseases",
        "fr": "Chapitre 12 - Maladies animales exotiques"
    },
    "html_modified": "2012-08-20 12:45",
    "modified": "2-4-2019",
    "issued": "22-8-2012",
    "teamsite_location": {
        "en": "/default/main/inspection/cont-cont/animals-animaux/WORKAREA/animals-animaux/templatedata/comn-comn/manuals-manuels/data/terr_disease_accreditvetmanual_chapter12_1345481113578_eng",
        "fr": "/default/main/inspection/cont-cont/animals-animaux/WORKAREA/animals-animaux/templatedata/comn-comn/manuals-manuels/data/terr_disease_accreditvetmanual_chapter12_1345481113578_fra"
    },
    "parent_ia_id": "1343915703253",
    "ia_id": "1345481212204",
    "parent_node_id": "1343915703253",
    "layout_name": "content page 1 column",
    "breadcrumb": {
        "en": "Chapter 12 - Foreign animal diseases",
        "fr": "Chapitre 12 - Maladies animales exotiques"
    },
    "label": {
        "en": "Chapter 12 - Foreign animal diseases",
        "fr": "Chapitre 12 - Maladies animales exotiques"
    },
    "templatetype": "content page 1 column",
    "node_id": "1345481212204",
    "managing_branch": "comn",
    "type_name": "manuals-manuels",
    "dcr_type": "manuals-manuels",
    "parent_dcr_id": "1343915611518",
    "has_dcr_id": true,
    "lang": "en",
    "could_not_load": 0,
    "refaire": false,
    "interwoven_url": {
        "en": "/animal-health/terrestrial-animals/diseases/accredited-veterinarian-s-manual/chapter-12/",
        "fr": "/sante-des-animaux/animaux-terrestres/maladies/manuel-du-veterinaire-accredite/chapitre-12/"
    },
    "meta": {
        "viewport": {
            "en": "width=device-width,initial-scale=1",
            "fr": "width=device-width,initial-scale=1"
        },
        "service": {
            "en": "CFIA-ACIA",
            "fr": "CFIA-ACIA"
        },
        "accessRights": {
            "en": "2",
            "fr": "2"
        },
        "title": {
            "en": "Chapter 12 - Foreign animal diseases",
            "fr": "Chapitre 12 - Maladies animales exotiques"
        },
        "description": {
            "en": "This module describes Foreign Animal Disease (FAD) relevance and the practitioner's role.",
            "fr": "Ce module d\u00e9crit l'importance des maladies animales exotiques (MAE) et le r\u00f4le du v\u00e9t\u00e9rinaire praticien face \u00e0 une \u00e9ventuelle introduction d'une telle maladie."
        },
        "keywords": {
            "en": "animal, disease, inspection, import, export, veterinary medicine, policies, procedures, responsibilities, surveillance, certification",
            "fr": "animal, maladies, inspection, importation, exportation, m&#233;decine v&#233;t&#233;rinaire, politiques, proc&#233;dures, responsabilit&#233;s, surveillances, certification"
        },
        "dcterms.subject": {
            "en": "animal health,food inspection,handbooks,infectious diseases,livestock,standards,veterinary medicine",
            "fr": "sant\u00e9 animale,inspection des aliments,manuel,maladie infectieuse,b\u00e9tail,norme,m\u00e9decine v\u00e9t\u00e9rinaire"
        },
        "creator": {
            "en": "Government of Canada,Canadian Food Inspection Agency,Animal Health Directorate",
            "fr": "Gouvernement du Canada,Agence canadienne d'inspection des aliments,Direction sant\u00e9 des animaux"
        },
        "language": {
            "en": "eng",
            "fr": "fra"
        },
        "issued": {
            "en": "2012-08-20 12:45:15",
            "fr": "2012-08-20 12:45:15"
        },
        "modified": {
            "en": "2019-04-02",
            "fr": "2019-04-02"
        },
        "type": {
            "en": "reference material",
            "fr": "mat\u00e9riel de r\u00e9f\u00e9rence"
        },
        "audience": {
            "en": "business,government",
            "fr": "entreprises,gouvernement"
        },
        "name": {
            "en": "Government of Canada",
            "fr": "Gouvernement du Canada"
        },
        "areaServed": {
            "en": "Canada",
            "fr": "Canada"
        }
    },
    "h1": {
        "en": "Chapter 12 - Foreign animal diseases",
        "fr": "Chapitre 12 - Maladies animales exotiques"
    },
    "body": {
        "en": "        \r\n        \n\n\r\n\r\n<section class=\"alert alert-info\">\r\n<h2 class=\"h3\">This page is part of the Guidance Document Repository (GDR).</h2>\r\n<p>\r\n<br>\r\n<a href=\"/industry-guidance/eng/1374161650885/1374161737236?gp=1&amp;gc=30&amp;ga=15#gdr_results\" class=\"alert-link\">\r\n            Search for related documents in the Guidance Document Repository\r\n</a>\r\n</p>\r\n</section>\r\n\r\n\r\n\r\n<p class=\"small text-right\"><a href=\"/animal-health/terrestrial-animals/diseases/accredited-veterinarian-s-manual/chapter-12/eng/1345481113578/1345481212204?chap=0\">Complete text</a></p>\r\n\r\n\r\n<nav>\r\n<ul class=\"list-unstyled col-md-offset-1 mrgn-tp-md mrgn-bttm-md\">\r\n\r\n<li>\r\n<a href=\"/animal-health/terrestrial-animals/diseases/accredited-veterinarian-s-manual/chapter-12/eng/1345481113578/1345481212204?chap=1\">12.1 Role of the private veterinarian in the diagnosis of foreign animal diseases (updated April 2019)</a>\r\n\r\n</li>\r\n\r\n</ul>\r\n</nav>\r\n\r\n\r\n\n\n\r\n        \r\n\r\n\r\n\r\n<div class=\"row\">\r\n \r\n\t\r\n\t\t\t\r\n\r\n<div class=\"col-xm-12 pagedetails container\">\r\n\t\t\t\t\r\n\r\n</div>\r\n\t\r\n</div>",
        "fr": "\r\n        \r\n        \n\n\r\n\r\n<section class=\"alert alert-info\">\r\n<h2 class=\"h3\">Cette page fait partie du r\u00e9pertoire des documents d'orientation (RDO).</h2>\r\n<p>\r\n<br>\r\n<a href=\"/orientation-pour-l-industrie/fra/1374161650885/1374161737236?gp=1&amp;gc=30&amp;ga=15#gdr_results\" class=\"alert-link\">\r\n            Recherche de documents connexes dans le r\u00e9pertoire des documents d'orientation.\r\n</a>\r\n</p>\r\n</section>\r\n\r\n\r\n\r\n<p class=\"small text-right\"><a href=\"/sante-des-animaux/animaux-terrestres/maladies/manuel-du-veterinaire-accredite/chapitre-12/fra/1345481113578/1345481212204?chap=0\">Texte complet</a></p>\r\n\r\n\r\n<nav>\r\n<ul class=\"list-unstyled col-md-offset-1 mrgn-tp-md mrgn-bttm-md\">\r\n\r\n<li>\r\n<a href=\"/sante-des-animaux/animaux-terrestres/maladies/manuel-du-veterinaire-accredite/chapitre-12/fra/1345481113578/1345481212204?chap=1\">12.1 R\u00f4le que joue le v\u00e9t\u00e9rinaire en pratique priv\u00e9e dans le diagnostic des maladies animales exotiques (mise \u00e0 jour avril\u00a02019)</a>\r\n\r\n</li>\r\n\r\n</ul>\r\n</nav>\r\n\r\n\r\n<div class=\"clear\"></div>\r\n\n\n\r\n        \r\n\r\n<div class=\"row\">\r\n \r\n\t\t\t\r\n\t\t\t\r\n\r\n\t\t\r\n\t\r\n</div>"
    },
    "js": {
        "en": "",
        "fr": ""
    },
    "success": true,
    "chat_wizard": false
}