{
    "dcr_id": "1374175296768",
    "title": {
        "en": "National Farm-Level Biosecurity Planning Guide Proactive Management of Animal Resources",
        "fr": "Guide de planification nationale pour la bios\u00e9curit\u00e9 \u00e0 la ferme Gestion proactive des ressources animales"
    },
    "html_modified": "2013-07-18 15:21",
    "modified": "22-7-2013",
    "issued": "18-7-2013",
    "teamsite_location": {
        "en": "/default/main/inspection/cont-cont/animals-animaux/WORKAREA/animals-animaux/templatedata/comn-comn/manuals-manuels/data/terr_biosec_proactive_mgmt_1374175296768_eng",
        "fr": "/default/main/inspection/cont-cont/animals-animaux/WORKAREA/animals-animaux/templatedata/comn-comn/manuals-manuels/data/terr_biosec_proactive_mgmt_1374175296768_fra"
    },
    "parent_ia_id": "1344707981478",
    "ia_id": "1374176128059",
    "parent_node_id": "1344707981478",
    "layout_name": "content page 1 column",
    "breadcrumb": {
        "en": "National Farm-Level Biosecurity Planning Guide Proactive Management of Animal Resources",
        "fr": "Guide de planification nationale pour la bios\u00e9curit\u00e9 \u00e0 la ferme Gestion proactive des ressources animales"
    },
    "label": {
        "en": "National Farm-Level Biosecurity Planning Guide Proactive Management of Animal Resources",
        "fr": "Guide de planification nationale pour la bios\u00e9curit\u00e9 \u00e0 la ferme Gestion proactive des ressources animales"
    },
    "templatetype": "content page 1 column",
    "node_id": "1374176128059",
    "managing_branch": "comn",
    "type_name": "manuals-manuels",
    "dcr_type": "manuals-manuels",
    "parent_dcr_id": "1344707905203",
    "has_dcr_id": true,
    "lang": "en",
    "could_not_load": 0,
    "refaire": false,
    "interwoven_url": {
        "en": "/animal-health/terrestrial-animals/biosecurity/standards-and-principles/proactive-management/",
        "fr": "/sante-des-animaux/animaux-terrestres/biosecurite/normes-et-principes/gestion-proactive/"
    },
    "meta": {
        "viewport": {
            "en": "width=device-width,initial-scale=1",
            "fr": "width=device-width,initial-scale=1"
        },
        "service": {
            "en": "CFIA-ACIA",
            "fr": "CFIA-ACIA"
        },
        "accessRights": {
            "en": "2",
            "fr": "2"
        },
        "title": {
            "en": "National Farm-Level Biosecurity Planning Guide Proactive Management of Animal Resources",
            "fr": "Guide de planification nationale pour la bios\u00e9curit\u00e9 \u00e0 la ferme Gestion proactive des ressources animales"
        },
        "description": {
            "en": "Animal biosecurity is a general description for a set of measures designed to protect Canada's animal resources from foreign and established infectious and parasitic disease agents at the national, regional, and farm levels.",
            "fr": "La bios\u00e9curit\u00e9 animale d\u00e9signe un ensemble de mesures con\u00e7ues pour prot\u00e9ger les ressources animales canadiennes contre les maladies infectieuses ou parasitaires \u00e9tablis ou exotiques \u00e0 l'\u00e9chelle nationale, r\u00e9gionale et \u00e0 la ferme."
        },
        "keywords": {
            "en": "biosecurity, animal health, standards, disease",
            "fr": "bios\u00e9curit\u00e9, sant\u00e9 des animaux, normes, maladie"
        },
        "dcterms.subject": {
            "en": "animal health,inspection,livestock,poultry,safety",
            "fr": "sant\u00e9 animale,inspection,b\u00e9tail,volaille,s\u00e9curit\u00e9"
        },
        "creator": {
            "en": "Government of Canada,Canadian Food Inspection Agency,Animal Health Directorate",
            "fr": "Gouvernement du Canada,Agence canadienne d'inspection des aliments"
        },
        "language": {
            "en": "eng",
            "fr": "fra"
        },
        "issued": {
            "en": "2013-07-18 15:21:41",
            "fr": "2013-07-18 15:21:41"
        },
        "modified": {
            "en": "2013-07-22",
            "fr": "2013-07-22"
        },
        "type": {
            "en": "reference material",
            "fr": "mat\u00e9riel de r\u00e9f\u00e9rence"
        },
        "audience": {
            "en": "business,general public,government",
            "fr": "entreprises,grand public,gouvernement"
        },
        "name": {
            "en": "Government of Canada",
            "fr": "Gouvernement du Canada"
        },
        "areaServed": {
            "en": "Canada",
            "fr": "Canada"
        }
    },
    "h1": {
        "en": "National Farm-Level Biosecurity Planning Guide Proactive Management of Animal Resources",
        "fr": "Guide de planification nationale pour la bios\u00e9curit\u00e9 \u00e0 la ferme Gestion proactive des ressources animales"
    },
    "body": {
        "en": "        \r\n        \n\n\r\n\r\n<section class=\"alert alert-info\">\r\n<h2 class=\"h3\">This page is part of the Guidance Document Repository (GDR).</h2>\r\n<p>\r\n<br>\r\n<a href=\"/industry-guidance/eng/1374161650885/1374161737236?gp=1&amp;gc=30&amp;ga=7#gdr_results\" class=\"alert-link\">\r\n            Search for related documents in the Guidance Document Repository\r\n</a>\r\n</p>\r\n</section>\r\n\r\n\r\n\r\n<p class=\"small text-right\"><a href=\"/animal-health/terrestrial-animals/biosecurity/standards-and-principles/proactive-management/eng/1374175296768/1374176128059?chap=0\">Complete Text</a></p>\r\n\r\n\r\n<h2>Table of Contents</h2>\r\n<ul class=\"list-unstyled col-md-offset-1 mrgn-tp-md mrgn-bttm-md\">\r\n\r\n<li>\r\n<a href=\"/animal-health/terrestrial-animals/biosecurity/standards-and-principles/proactive-management/eng/1374175296768/1374176128059?chap=1\">A) Background</a>\r\n\r\n</li>\r\n\r\n<li>\r\n<a href=\"/animal-health/terrestrial-animals/biosecurity/standards-and-principles/proactive-management/eng/1374175296768/1374176128059?chap=2\">B) A Generic Guide</a>\r\n\r\n</li>\r\n\r\n<li>\r\n<a href=\"/animal-health/terrestrial-animals/biosecurity/standards-and-principles/proactive-management/eng/1374175296768/1374176128059?chap=3\">C) Developing Your Farm Biosecurity Plan</a>\r\n\r\n</li>\r\n\r\n<li>\r\n<a href=\"/animal-health/terrestrial-animals/biosecurity/standards-and-principles/proactive-management/eng/1374175296768/1374176128059?chap=4\">D) Conceptual Farm Layout Incorporating Biosecurity Zones</a>\r\n\r\n</li>\r\n\r\n<li>\r\n<a href=\"/animal-health/terrestrial-animals/biosecurity/standards-and-principles/proactive-management/eng/1374175296768/1374176128059?chap=5\">E) Definitions</a>\r\n\r\n</li>\r\n\r\n<li>\r\n<a href=\"/animal-health/terrestrial-animals/biosecurity/standards-and-principles/proactive-management/eng/1374175296768/1374176128059?chap=6\">F) Elements of a Farm-Level Biosecurity Plan</a>\r\n\r\n</li>\r\n\r\n<li>\r\n<a href=\"/animal-health/terrestrial-animals/biosecurity/standards-and-principles/proactive-management/eng/1374175296768/1374176128059?chap=7\">Appendix A: Farm-Level Biosecurity Checklist for Animals</a>\r\n\r\n</li>\r\n\r\n</ul>\r\n\r\n\r\n\n\n\r\n        \r\n\r\n\r\n\r\n<div class=\"row\">\r\n \r\n\t\r\n\t\t\t\r\n\r\n<div class=\"col-xm-12 pagedetails container\">\r\n\t\t\t\t\r\n\r\n</div>\r\n\t\r\n</div>",
        "fr": "\r\n        \r\n        \n\n\r\n\r\n<section class=\"alert alert-info\">\r\n<h2 class=\"h3\">Cette page fait partie du r\u00e9pertoire des documents d'orientation (RDO).</h2>\r\n<p>\r\n<br>\r\n<a href=\"/orientation-pour-l-industrie/fra/1374161650885/1374161737236?gp=1&amp;gc=30&amp;ga=7#gdr_results\" class=\"alert-link\">\r\n            Recherche de documents connexes dans le r\u00e9pertoire des documents d'orientation.\r\n</a>\r\n</p>\r\n</section>\r\n\r\n\r\n\r\n<p class=\"small text-right\"><a href=\"/sante-des-animaux/animaux-terrestres/biosecurite/normes-et-principes/gestion-proactive/fra/1374175296768/1374176128059?chap=0\">Texte Complete</a></p>\r\n\r\n\r\n<h2>Table des mati\u00e8res</h2>\r\n<ul class=\"list-unstyled col-md-offset-1 mrgn-tp-md mrgn-bttm-md\">\r\n\r\n<li>\r\n<a href=\"/sante-des-animaux/animaux-terrestres/biosecurite/normes-et-principes/gestion-proactive/fra/1374175296768/1374176128059?chap=1\">A) Contexte</a>\r\n\r\n</li>\r\n\r\n<li>\r\n<a href=\"/sante-des-animaux/animaux-terrestres/biosecurite/normes-et-principes/gestion-proactive/fra/1374175296768/1374176128059?chap=2\">B) Guide g\u00e9n\u00e9ral</a>\r\n\r\n</li>\r\n\r\n<li>\r\n<a href=\"/sante-des-animaux/animaux-terrestres/biosecurite/normes-et-principes/gestion-proactive/fra/1374175296768/1374176128059?chap=3\">C) \u00c9laboration du plan de bios\u00e9curit\u00e9 de votre ferme</a>\r\n\r\n</li>\r\n\r\n<li>\r\n<a href=\"/sante-des-animaux/animaux-terrestres/biosecurite/normes-et-principes/gestion-proactive/fra/1374175296768/1374176128059?chap=4\">D) Plan conceptuel d'am\u00e9nagement de la ferme int\u00e9grant les zones de bios\u00e9curit\u00e9</a>\r\n\r\n</li>\r\n\r\n<li>\r\n<a href=\"/sante-des-animaux/animaux-terrestres/biosecurite/normes-et-principes/gestion-proactive/fra/1374175296768/1374176128059?chap=5\">E) D\u00e9finitions</a>\r\n\r\n</li>\r\n\r\n<li>\r\n<a href=\"/sante-des-animaux/animaux-terrestres/biosecurite/normes-et-principes/gestion-proactive/fra/1374175296768/1374176128059?chap=6\">F) \u00c9l\u00e9ments d'un plan de bios\u00e9curit\u00e9 \u00e0 la ferme</a>\r\n\r\n</li>\r\n\r\n<li>\r\n<a href=\"/sante-des-animaux/animaux-terrestres/biosecurite/normes-et-principes/gestion-proactive/fra/1374175296768/1374176128059?chap=7\">Annexe A : Liste de contr\u00f4le des mesures de bios\u00e9curit\u00e9 \u00e0 la ferme relatives aux animaux</a>\r\n\r\n</li>\r\n\r\n</ul>\r\n\r\n\r\n<div class=\"clear\"></div>\r\n\n\n\r\n        \r\n\r\n<div class=\"row\">\r\n \r\n\t\t\t\r\n\t\t\t\r\n\r\n\t\t\r\n\t\r\n</div>"
    },
    "js": {
        "en": "",
        "fr": ""
    },
    "success": true,
    "chat_wizard": false
}