{
    "dcr_id": "1392834838383",
    "title": {
        "en": "Health claims on food labels",
        "fr": "All\u00e9gations sant\u00e9 sur les \u00e9tiquettes des aliments"
    },
    "html_modified": "2014-02-19 13:33",
    "modified": "31-10-2019",
    "issued": "19-2-2014",
    "teamsite_location": {
        "en": "/default/main/inspection/cont-cont/food-aliments/WORKAREA/food-aliments/templatedata/comn-comn/manuals-manuels/data/lble_industry_claims_health_1392834838383_eng",
        "fr": "/default/main/inspection/cont-cont/food-aliments/WORKAREA/food-aliments/templatedata/comn-comn/manuals-manuels/data/lble_industry_claims_health_1392834838383_fra"
    },
    "parent_ia_id": "1383607344939",
    "ia_id": "1392834887794",
    "parent_node_id": "1383607344939",
    "layout_name": "content page 1 column",
    "breadcrumb": {
        "en": "Health claims on food labels",
        "fr": "All\u00e9gations sant\u00e9 sur les \u00e9tiquettes des aliments"
    },
    "label": {
        "en": "Health claims on food labels",
        "fr": "All\u00e9gations sant\u00e9 sur les \u00e9tiquettes des aliments"
    },
    "templatetype": "content page 1 column",
    "node_id": "1392834887794",
    "managing_branch": "comn",
    "type_name": "manuals-manuels",
    "dcr_type": "manuals-manuels",
    "parent_dcr_id": "1383607266489",
    "has_dcr_id": true,
    "lang": "en",
    "could_not_load": 0,
    "refaire": false,
    "interwoven_url": {
        "en": "/food-labels/labelling/industry/health-claims-on-food-labels/",
        "fr": "/etiquetage-des-aliments/etiquetage/industrie/allegations-sante/"
    },
    "meta": {
        "viewport": {
            "en": "width=device-width,initial-scale=1",
            "fr": "width=device-width,initial-scale=1"
        },
        "service": {
            "en": "CFIA-ACIA",
            "fr": "CFIA-ACIA"
        },
        "accessRights": {
            "en": "2",
            "fr": "2"
        },
        "title": {
            "en": "Health claims on food labels",
            "fr": "All\u00e9gations sant\u00e9 sur les \u00e9tiquettes des aliments"
        },
        "description": {
            "en": "Health claims are also subject to the General Principles for Labelling and Advertising. Some health claims require a premarket approval before their use.",
            "fr": "Les all\u00e9gations sant\u00e9 sont aussi assujetties aux Principes g\u00e9n\u00e9raux relatifs \u00e0 l'\u00e9tiquetage et \u00e0 la publicit\u00e9. Certaines all\u00e9gations sant\u00e9 sont assujetties \u00e0 une approbation pr\u00e9alable \u00e0 la mise en march\u00e9."
        },
        "keywords": {
            "en": "health claim, representation, label, food, requirement, approval, marketing, nutrient content",
            "fr": "all\u00e9gation sant\u00e9, indication, \u00e9tiquette, aliment, exigence, approbation, mise en march\u00e9, teneur nutritive"
        },
        "dcterms.subject": {
            "en": "food,food labeling,inspection,products",
            "fr": "aliment,\u00e9tiquetage des aliments,inspection,produit"
        },
        "creator": {
            "en": "Government of Canada,Canadian Food Inspection Agency",
            "fr": "Gouvernement du Canada,Agence canadienne d'inspection des aliments,Direction de la salubrit\u00e9 des aliments et de la protection des consommateurs"
        },
        "language": {
            "en": "eng",
            "fr": "fra"
        },
        "issued": {
            "en": "2014-02-19 13:33:59",
            "fr": "2014-02-19 13:33:59"
        },
        "modified": {
            "en": "2019-10-31",
            "fr": "2019-10-31"
        },
        "type": {
            "en": "fact sheet,reference material",
            "fr": "fiche de renseignements,mat\u00e9riel de r\u00e9f\u00e9rence"
        },
        "audience": {
            "en": "business,government,general public",
            "fr": "entreprises,gouvernement,grand public"
        },
        "name": {
            "en": "Government of Canada",
            "fr": "Gouvernement du Canada"
        },
        "areaServed": {
            "en": "Canada",
            "fr": "Canada"
        }
    },
    "h1": {
        "en": "Health claims on food labels",
        "fr": "All\u00e9gations sant\u00e9 sur les \u00e9tiquettes des aliments"
    },
    "js": {
        "en": "",
        "fr": ""
    },
    "body": {
        "en": "        \r\n        \n\n\r\n\r\n\r\n\r\n\r\n\r\n<p class=\"small text-right\"><a href=\"/food-labels/labelling/industry/health-claims-on-food-labels/eng/1392834838383/1392834887794?chap=0\">Complete text</a></p>\r\n\r\n\r\n<h2>On this page</h2>\r\n<ul class=\"list-unstyled col-md-offset-1 mrgn-tp-md mrgn-bttm-md\">\r\n\r\n<li>\r\n<a href=\"/food-labels/labelling/industry/health-claims-on-food-labels/eng/1392834838383/1392834887794?chap=1\">Overview</a>\r\n\r\n</li>\r\n\r\n<li>\r\n<a href=\"/food-labels/labelling/industry/health-claims-on-food-labels/eng/1392834838383/1392834887794?chap=2\">Steps for determining the type of health claim</a>\r\n\r\n</li>\r\n\r\n<li>\r\n<a href=\"/food-labels/labelling/industry/health-claims-on-food-labels/eng/1392834838383/1392834887794?chap=3\">Foods or natural health products (NHP)</a>\r\n\r\n<ul class=\"list-unstyled col-md-offset-1 mrgn-bttm-md\">\r\n\r\n<li>\r\n<a href=\"/food-labels/labelling/industry/health-claims-on-food-labels/eng/1392834838383/1392834887794?chap=3#s1c3\">Natural product number</a>\r\n\r\n</li>\r\n\r\n</ul>\r\n\r\n</li>\r\n\r\n<li>\r\n<a href=\"/food-labels/labelling/industry/health-claims-on-food-labels/eng/1392834838383/1392834887794?chap=4\">Drugs <abbr title=\"versus\">vs.</abbr> foods</a>\r\n\r\n</li>\r\n\r\n<li>\r\n<a href=\"/food-labels/labelling/industry/health-claims-on-food-labels/eng/1392834838383/1392834887794?chap=5\">Drug representations and pre-market  approval</a>\r\n\r\n<ul class=\"list-unstyled col-md-offset-1 mrgn-bttm-md\">\r\n\r\n<li>\r\n<a href=\"/food-labels/labelling/industry/health-claims-on-food-labels/eng/1392834838383/1392834887794?chap=5#s2c5\">Schedule A disease claims</a>\r\n\r\n</li>\r\n\r\n<li>\r\n<a href=\"/food-labels/labelling/industry/health-claims-on-food-labels/eng/1392834838383/1392834887794?chap=5#s3c5\">Drug claims not listed in Schedule A</a>\r\n\r\n</li>\r\n\r\n</ul>\r\n\r\n</li>\r\n\r\n<li>\r\n<a href=\"/food-labels/labelling/industry/health-claims-on-food-labels/eng/1392834838383/1392834887794?chap=6\">Drugs claims not permitted on food</a>\r\n\r\n<ul class=\"list-unstyled col-md-offset-1 mrgn-bttm-md\">\r\n\r\n<li>\r\n<a href=\"/food-labels/labelling/industry/health-claims-on-food-labels/eng/1392834838383/1392834887794?chap=6#s4c6\">Medicated claims</a>\r\n\r\n</li>\r\n\r\n<li>\r\n<a href=\"/food-labels/labelling/industry/health-claims-on-food-labels/eng/1392834838383/1392834887794?chap=6#s5c6\">Laxative claims</a>\r\n\r\n</li>\r\n\r\n<li>\r\n<a href=\"/food-labels/labelling/industry/health-claims-on-food-labels/eng/1392834838383/1392834887794?chap=6#s6c6\">Tonic foods</a>\r\n\r\n</li>\r\n\r\n</ul>\r\n\r\n</li>\r\n\r\n<li>\r\n<a href=\"/food-labels/labelling/industry/health-claims-on-food-labels/eng/1392834838383/1392834887794?chap=7\">Acceptable disease risk reduction claims and therapeutic claims</a>\r\n\r\n<ul class=\"list-unstyled col-md-offset-1 mrgn-bttm-md\">\r\n\r\n<li>\r\n<a href=\"/food-labels/labelling/industry/health-claims-on-food-labels/eng/1392834838383/1392834887794?chap=7#s7c7\">General conditions</a>\r\n\r\n</li>\r\n\r\n<li>\r\n<a href=\"/food-labels/labelling/industry/health-claims-on-food-labels/eng/1392834838383/1392834887794?chap=7#s8c7\">Disease risk reduction claims table</a>\r\n\r\n</li>\r\n\r\n<li>\r\n<a href=\"/food-labels/labelling/industry/health-claims-on-food-labels/eng/1392834838383/1392834887794?chap=7#s9c7\">Conditions of use for disease risk reduction claims and therapeutic claims</a>\r\n\r\n</li>\r\n\r\n<li>\r\n<a href=\"/food-labels/labelling/industry/health-claims-on-food-labels/eng/1392834838383/1392834887794?chap=7#s10c7\">Naming the food</a>\r\n\r\n</li>\r\n\r\n<li>\r\n<a href=\"/food-labels/labelling/industry/health-claims-on-food-labels/eng/1392834838383/1392834887794?chap=7#s11c7\">Advertisements for disease risk reduction claims and therapeutic claims</a>\r\n\r\n</li>\r\n\r\n</ul>\r\n\r\n</li>\r\n\r\n<li>\r\n<a href=\"/food-labels/labelling/industry/health-claims-on-food-labels/eng/1392834838383/1392834887794?chap=8\">Function claims</a>\r\n\r\n<ul class=\"list-unstyled col-md-offset-1 mrgn-bttm-md\">\r\n\r\n<li>\r\n<a href=\"/food-labels/labelling/industry/health-claims-on-food-labels/eng/1392834838383/1392834887794?chap=8#s12c8\">Conditions of use for function claims</a>\r\n\r\n</li>\r\n\r\n<li>\r\n<a href=\"/food-labels/labelling/industry/health-claims-on-food-labels/eng/1392834838383/1392834887794?chap=8#s13c8\">Acceptable function claims table</a>\r\n\r\n</li>\r\n\r\n</ul>\r\n\r\n</li>\r\n\r\n<li>\r\n<a href=\"/food-labels/labelling/industry/health-claims-on-food-labels/eng/1392834838383/1392834887794?chap=9\">Nutrient function claims</a>\r\n\r\n<ul class=\"list-unstyled col-md-offset-1 mrgn-bttm-md\">\r\n\r\n<li>\r\n<a href=\"/food-labels/labelling/industry/health-claims-on-food-labels/eng/1392834838383/1392834887794?chap=9#s14c9\">Conditions of use for nutrient function claims</a>\r\n\r\n</li>\r\n\r\n<li>\r\n<a href=\"/food-labels/labelling/industry/health-claims-on-food-labels/eng/1392834838383/1392834887794?chap=9#s15c9\">Specific requirements</a>\r\n\r\n</li>\r\n\r\n<li>\r\n<a href=\"/food-labels/labelling/industry/health-claims-on-food-labels/eng/1392834838383/1392834887794?chap=9#s16c9\">Acceptable nutrient function claims table</a>\r\n\r\n</li>\r\n\r\n<li>\r\n<a href=\"/food-labels/labelling/industry/health-claims-on-food-labels/eng/1392834838383/1392834887794?chap=9#s17c9\">Advertisements for nutrient function claims</a>\r\n\r\n</li>\r\n\r\n<li>\r\n<a href=\"/food-labels/labelling/industry/health-claims-on-food-labels/eng/1392834838383/1392834887794?chap=9#s18c9\">Acceptability of new nutrient function claims</a>\r\n\r\n</li>\r\n\r\n</ul>\r\n\r\n</li>\r\n\r\n<li>\r\n<a href=\"/food-labels/labelling/industry/health-claims-on-food-labels/eng/1392834838383/1392834887794?chap=10\">Probiotic claims</a>\r\n\r\n<ul class=\"list-unstyled col-md-offset-1 mrgn-bttm-md\">\r\n\r\n<li>\r\n<a href=\"/food-labels/labelling/industry/health-claims-on-food-labels/eng/1392834838383/1392834887794?chap=10#s19c10\">Type of probiotic claims</a>\r\n\r\n</li>\r\n\r\n<li>\r\n<a href=\"/food-labels/labelling/industry/health-claims-on-food-labels/eng/1392834838383/1392834887794?chap=10#s20c10\">Conditions of use for probiotic claims</a>\r\n\r\n</li>\r\n\r\n<li>\r\n<a href=\"/food-labels/labelling/industry/health-claims-on-food-labels/eng/1392834838383/1392834887794?chap=10#s21c10\">Acceptable non-strain specific claims</a>\r\n\r\n</li>\r\n\r\n<li>\r\n<a href=\"/food-labels/labelling/industry/health-claims-on-food-labels/eng/1392834838383/1392834887794?chap=10#s22c10\">Advertisements for probiotic claims</a>\r\n\r\n</li>\r\n\r\n</ul>\r\n\r\n</li>\r\n\r\n<li>\r\n<a href=\"/food-labels/labelling/industry/health-claims-on-food-labels/eng/1392834838383/1392834887794?chap=11\">Use of the term \"prebiotic(s)\"</a>\r\n\r\n</li>\r\n\r\n<li>\r\n<a href=\"/food-labels/labelling/industry/health-claims-on-food-labels/eng/1392834838383/1392834887794?chap=12\">General health claims</a>\r\n\r\n<ul class=\"list-unstyled col-md-offset-1 mrgn-bttm-md\">\r\n\r\n<li>\r\n<a href=\"/food-labels/labelling/industry/health-claims-on-food-labels/eng/1392834838383/1392834887794?chap=12#s23c12\">Conditions of use for general health claims</a>\r\n\r\n</li>\r\n\r\n<li>\r\n<a href=\"/food-labels/labelling/industry/health-claims-on-food-labels/eng/1392834838383/1392834887794?chap=12#s24c12\">Use of the terms \"nutritious\" and  \"healthy\"</a>\r\n\r\n</li>\r\n\r\n<li>\r\n<a href=\"/food-labels/labelling/industry/health-claims-on-food-labels/eng/1392834838383/1392834887794?chap=12#s25c12\">Weight loss claims <abbr title=\"versus\">vs.</abbr> weight maintenance claims</a>\r\n\r\n</li>\r\n\r\n</ul>\r\n\r\n</li>\r\n\r\n<li>\r\n<a href=\"/food-labels/labelling/industry/health-claims-on-food-labels/eng/1392834838383/1392834887794?chap=13\">Implied health claims</a>\r\n\r\n</li>\r\n\r\n<li>\r\n<a href=\"/food-labels/labelling/industry/health-claims-on-food-labels/eng/1392834838383/1392834887794?chap=14\">Children under two years of age</a>\r\n\r\n<ul class=\"list-unstyled col-md-offset-1 mrgn-bttm-md\">\r\n\r\n<li>\r\n<a href=\"/food-labels/labelling/industry/health-claims-on-food-labels/eng/1392834838383/1392834887794?chap=14#s26c14\">Disease risk reduction claims and therapeutic claims</a>\r\n\r\n</li>\r\n\r\n<li>\r\n<a href=\"/food-labels/labelling/industry/health-claims-on-food-labels/eng/1392834838383/1392834887794?chap=14#s27c14\">Nutrient function claims for children under two years of age</a>\r\n\r\n</li>\r\n\r\n</ul>\r\n\r\n</li>\r\n\r\n<li>\r\n<a href=\"/food-labels/labelling/industry/health-claims-on-food-labels/eng/1392834838383/1392834887794?chap=15\">Testimonials and guarantees regarding vitamin and mineral nutrients</a>\r\n\r\n</li>\r\n\r\n<li>\r\n<a href=\"/food-labels/labelling/industry/health-claims-on-food-labels/eng/1392834838383/1392834887794?chap=16\">Additional information</a>\r\n\r\n<ul class=\"list-unstyled col-md-offset-1 mrgn-bttm-md\">\r\n\r\n<li>\r\n<a href=\"/food-labels/labelling/industry/health-claims-on-food-labels/eng/1392834838383/1392834887794?chap=16#s28c16\">Schedule 1 (subsection 1(1)) - included natural health product substances</a>\r\n\r\n</li>\r\n\r\n<li>\r\n<a href=\"/food-labels/labelling/industry/health-claims-on-food-labels/eng/1392834838383/1392834887794?chap=16#s29c16\">Schedule 2 (subsection 1(1)) - excluded natural health product substances</a>\r\n\r\n</li>\r\n\r\n<li>\r\n<a href=\"/food-labels/labelling/industry/health-claims-on-food-labels/eng/1392834838383/1392834887794?chap=16#s30c16\">Schedule A diseases from the <i>Food and Drugs Act</i> [Section 3]</a>\r\n\r\n</li>\r\n\r\n<li>\r\n<a href=\"/food-labels/labelling/industry/health-claims-on-food-labels/eng/1392834838383/1392834887794?chap=16#s31c16\">Reference list for probiotic claims</a>\r\n\r\n</li>\r\n\r\n<li>\r\n<a href=\"/food-labels/labelling/industry/health-claims-on-food-labels/eng/1392834838383/1392834887794?chap=16#s32c16\">Information letters/policy updates</a>\r\n\r\n</li>\r\n\r\n</ul>\r\n\r\n</li>\r\n\r\n<li>\r\n<a href=\"/food-labels/labelling/industry/health-claims-on-food-labels/eng/1392834838383/1392834887794?chap=17\">Decisions</a>\r\n\r\n<ul class=\"list-unstyled col-md-offset-1 mrgn-bttm-md\">\r\n\r\n<li>\r\n<a href=\"/food-labels/labelling/industry/health-claims-on-food-labels/eng/1392834838383/1392834887794?chap=17#s33c17\">\"Enzyme rich\"</a>\r\n\r\n</li>\r\n\r\n<li>\r\n<a href=\"/food-labels/labelling/industry/health-claims-on-food-labels/eng/1392834838383/1392834887794?chap=17#s34c17\">Oxygen radical absorbing capacity (ORAC) statements and claims</a>\r\n\r\n</li>\r\n\r\n</ul>\r\n\r\n</li>\r\n\r\n<li>\r\n<a href=\"/food-labels/labelling/industry/health-claims-on-food-labels/eng/1392834838383/1392834887794?chap=18\">Definitions</a>\r\n\r\n<ul class=\"list-unstyled col-md-offset-1 mrgn-bttm-md\">\r\n\r\n<li>\r\n<a href=\"/food-labels/labelling/industry/health-claims-on-food-labels/eng/1392834838383/1392834887794?chap=18#s35c18\">Disease risk reduction claims</a>\r\n\r\n</li>\r\n\r\n<li>\r\n<a href=\"/food-labels/labelling/industry/health-claims-on-food-labels/eng/1392834838383/1392834887794?chap=18#s36c18\">Drug</a>\r\n\r\n</li>\r\n\r\n<li>\r\n<a href=\"/food-labels/labelling/industry/health-claims-on-food-labels/eng/1392834838383/1392834887794?chap=18#s37c18\">Drug claims</a>\r\n\r\n</li>\r\n\r\n<li>\r\n<a href=\"/food-labels/labelling/industry/health-claims-on-food-labels/eng/1392834838383/1392834887794?chap=18#s38c18\">Food</a>\r\n\r\n</li>\r\n\r\n<li>\r\n<a href=\"/food-labels/labelling/industry/health-claims-on-food-labels/eng/1392834838383/1392834887794?chap=18#s39c18\">Function claims</a>\r\n\r\n</li>\r\n\r\n<li>\r\n<a href=\"/food-labels/labelling/industry/health-claims-on-food-labels/eng/1392834838383/1392834887794?chap=18#s40c18\">General health claims</a>\r\n\r\n</li>\r\n\r\n<li>\r\n<a href=\"/food-labels/labelling/industry/health-claims-on-food-labels/eng/1392834838383/1392834887794?chap=18#s41c18\">Health claim</a>\r\n\r\n</li>\r\n\r\n<li>\r\n<a href=\"/food-labels/labelling/industry/health-claims-on-food-labels/eng/1392834838383/1392834887794?chap=18#s42c18\">Laxation</a>\r\n\r\n</li>\r\n\r\n<li>\r\n<a href=\"/food-labels/labelling/industry/health-claims-on-food-labels/eng/1392834838383/1392834887794?chap=18#s43c18\">Natural health product (NHP)</a>\r\n\r\n</li>\r\n\r\n<li>\r\n<a href=\"/food-labels/labelling/industry/health-claims-on-food-labels/eng/1392834838383/1392834887794?chap=18#s44c18\">Nutrient function claims</a>\r\n\r\n</li>\r\n\r\n<li>\r\n<a href=\"/food-labels/labelling/industry/health-claims-on-food-labels/eng/1392834838383/1392834887794?chap=18#s45c18\">Prebiotic(s)</a>\r\n\r\n</li>\r\n\r\n<li>\r\n<a href=\"/food-labels/labelling/industry/health-claims-on-food-labels/eng/1392834838383/1392834887794?chap=18#s46c18\">Probiotics</a>\r\n\r\n</li>\r\n\r\n<li>\r\n<a href=\"/food-labels/labelling/industry/health-claims-on-food-labels/eng/1392834838383/1392834887794?chap=18#s47c18\">Therapeutic claims</a>\r\n\r\n</li>\r\n\r\n</ul>\r\n\r\n</li>\r\n\r\n</ul>\r\n\r\n\r\n\n\n\r\n        \r\n\r\n\r\n\r\n<div class=\"row\">\r\n \r\n\t\r\n\t\t\t\r\n\r\n<div class=\"col-xm-12 pagedetails container\">\r\n\t\t\t\t\r\n\r\n</div>\r\n\t\r\n</div>",
        "fr": "\r\n        \r\n        \n\n\r\n\r\n\r\n\r\n\r\n\r\n<p class=\"small text-right\"><a href=\"/etiquetage-des-aliments/etiquetage/industrie/allegations-sante/fra/1392834838383/1392834887794?chap=0\">Texte complet</a></p>\r\n\r\n\r\n<h2>Sur cette page</h2>\r\n<ul class=\"list-unstyled col-md-offset-1 mrgn-tp-md mrgn-bttm-md\">\r\n\r\n<li>\r\n<a href=\"/etiquetage-des-aliments/etiquetage/industrie/allegations-sante/fra/1392834838383/1392834887794?chap=1\">Aper\u00e7u</a>\r\n\r\n</li>\r\n\r\n<li>\r\n<a href=\"/etiquetage-des-aliments/etiquetage/industrie/allegations-sante/fra/1392834838383/1392834887794?chap=2\">\u00c9tapes pour d\u00e9terminer le type d'all\u00e9gation sant\u00e9</a>\r\n\r\n</li>\r\n\r\n<li>\r\n<a href=\"/etiquetage-des-aliments/etiquetage/industrie/allegations-sante/fra/1392834838383/1392834887794?chap=3\">Aliments ou produits de sant\u00e9 naturels (PSN)</a>\r\n\r\n<ul class=\"list-unstyled col-md-offset-1 mrgn-bttm-md\">\r\n\r\n<li>\r\n<a href=\"/etiquetage-des-aliments/etiquetage/industrie/allegations-sante/fra/1392834838383/1392834887794?chap=3#s1c3\">Num\u00e9ro de produit naturel</a>\r\n\r\n</li>\r\n\r\n</ul>\r\n\r\n</li>\r\n\r\n<li>\r\n<a href=\"/etiquetage-des-aliments/etiquetage/industrie/allegations-sante/fra/1392834838383/1392834887794?chap=4\">M\u00e9dicaments ou aliments</a>\r\n\r\n</li>\r\n\r\n<li>\r\n<a href=\"/etiquetage-des-aliments/etiquetage/industrie/allegations-sante/fra/1392834838383/1392834887794?chap=5\">Repr\u00e9sentations relatives aux m\u00e9dicaments et approbation pr\u00e9alable \u00e0 la mise en march\u00e9</a>\r\n\r\n<ul class=\"list-unstyled col-md-offset-1 mrgn-bttm-md\">\r\n\r\n<li>\r\n<a href=\"/etiquetage-des-aliments/etiquetage/industrie/allegations-sante/fra/1392834838383/1392834887794?chap=5#s2c5\">All\u00e9gations concernant une maladie figurant \u00e0 l'annexe\u00a0A</a>\r\n\r\n</li>\r\n\r\n<li>\r\n<a href=\"/etiquetage-des-aliments/etiquetage/industrie/allegations-sante/fra/1392834838383/1392834887794?chap=5#s3c5\">All\u00e9gations propres aux m\u00e9dicaments pour une maladie ne figurant pas \u00e0 l'annexe\u00a0A</a>\r\n\r\n</li>\r\n\r\n</ul>\r\n\r\n</li>\r\n\r\n<li>\r\n<a href=\"/etiquetage-des-aliments/etiquetage/industrie/allegations-sante/fra/1392834838383/1392834887794?chap=6\">All\u00e9gations propres aux m\u00e9dicaments qui ne sont pas permises sur les aliments</a>\r\n\r\n<ul class=\"list-unstyled col-md-offset-1 mrgn-bttm-md\">\r\n\r\n<li>\r\n<a href=\"/etiquetage-des-aliments/etiquetage/industrie/allegations-sante/fra/1392834838383/1392834887794?chap=6#s4c6\">All\u00e9gations de \u00ab m\u00e9dicament \u00bb</a>\r\n\r\n</li>\r\n\r\n<li>\r\n<a href=\"/etiquetage-des-aliments/etiquetage/industrie/allegations-sante/fra/1392834838383/1392834887794?chap=6#s5c6\">All\u00e9gations relatives \u00e0 l'effet laxatif</a>\r\n\r\n</li>\r\n\r\n<li>\r\n<a href=\"/etiquetage-des-aliments/etiquetage/industrie/allegations-sante/fra/1392834838383/1392834887794?chap=6#s6c6\">Aliments toniques</a>\r\n\r\n</li>\r\n\r\n</ul>\r\n\r\n</li>\r\n\r\n<li>\r\n<a href=\"/etiquetage-des-aliments/etiquetage/industrie/allegations-sante/fra/1392834838383/1392834887794?chap=7\">All\u00e9gations de r\u00e9duction du risque de maladies et all\u00e9gations th\u00e9rapeutiques acceptables</a>\r\n\r\n<ul class=\"list-unstyled col-md-offset-1 mrgn-bttm-md\">\r\n\r\n<li>\r\n<a href=\"/etiquetage-des-aliments/etiquetage/industrie/allegations-sante/fra/1392834838383/1392834887794?chap=7#s7c7\">Crit\u00e8res g\u00e9n\u00e9raux</a>\r\n\r\n</li>\r\n\r\n<li>\r\n<a href=\"/etiquetage-des-aliments/etiquetage/industrie/allegations-sante/fra/1392834838383/1392834887794?chap=7#s8c7\">Tableau des all\u00e9gations de r\u00e9duction du risque de maladies</a>\r\n\r\n</li>\r\n\r\n<li>\r\n<a href=\"/etiquetage-des-aliments/etiquetage/industrie/allegations-sante/fra/1392834838383/1392834887794?chap=7#s9c7\">Conditions d'utilisation pour les all\u00e9gations de r\u00e9duction du risque de maladies et all\u00e9gations th\u00e9rapeutiques</a>\r\n\r\n</li>\r\n\r\n<li>\r\n<a href=\"/etiquetage-des-aliments/etiquetage/industrie/allegations-sante/fra/1392834838383/1392834887794?chap=7#s10c7\">Nom de l'aliment</a>\r\n\r\n</li>\r\n\r\n<li>\r\n<a href=\"/etiquetage-des-aliments/etiquetage/industrie/allegations-sante/fra/1392834838383/1392834887794?chap=7#s11c7\">Annonces pour les all\u00e9gations de r\u00e9duction du risque de maladies et all\u00e9gations th\u00e9rapeutiques</a>\r\n\r\n</li>\r\n\r\n</ul>\r\n\r\n</li>\r\n\r\n<li>\r\n<a href=\"/etiquetage-des-aliments/etiquetage/industrie/allegations-sante/fra/1392834838383/1392834887794?chap=8\">All\u00e9gations fonctionnelles</a>\r\n\r\n<ul class=\"list-unstyled col-md-offset-1 mrgn-bttm-md\">\r\n\r\n<li>\r\n<a href=\"/etiquetage-des-aliments/etiquetage/industrie/allegations-sante/fra/1392834838383/1392834887794?chap=8#s12c8\">Conditions d'utilisation pour les All\u00e9gations fonctionnelles</a>\r\n\r\n</li>\r\n\r\n<li>\r\n<a href=\"/etiquetage-des-aliments/etiquetage/industrie/allegations-sante/fra/1392834838383/1392834887794?chap=8#s13c8\">Tableau des all\u00e9gations fonctionnelles acceptables</a>\r\n\r\n</li>\r\n\r\n</ul>\r\n\r\n</li>\r\n\r\n<li>\r\n<a href=\"/etiquetage-des-aliments/etiquetage/industrie/allegations-sante/fra/1392834838383/1392834887794?chap=9\">All\u00e9gations nutritionnelles fonctionnelles</a>\r\n\r\n<ul class=\"list-unstyled col-md-offset-1 mrgn-bttm-md\">\r\n\r\n<li>\r\n<a href=\"/etiquetage-des-aliments/etiquetage/industrie/allegations-sante/fra/1392834838383/1392834887794?chap=9#s14c9\">Conditions d'utilisation pour les All\u00e9gations nutritionnelles fonctionnelles</a>\r\n\r\n</li>\r\n\r\n<li>\r\n<a href=\"/etiquetage-des-aliments/etiquetage/industrie/allegations-sante/fra/1392834838383/1392834887794?chap=9#s15c9\">Exigences sp\u00e9cifiques</a>\r\n\r\n</li>\r\n\r\n<li>\r\n<a href=\"/etiquetage-des-aliments/etiquetage/industrie/allegations-sante/fra/1392834838383/1392834887794?chap=9#s16c9\">Tableau des all\u00e9gations nutritionnelles fonctionnelles acceptables</a>\r\n\r\n</li>\r\n\r\n<li>\r\n<a href=\"/etiquetage-des-aliments/etiquetage/industrie/allegations-sante/fra/1392834838383/1392834887794?chap=9#s17c9\">Annonces pour les all\u00e9gations nutritionnelles fonctionnelles</a>\r\n\r\n</li>\r\n\r\n<li>\r\n<a href=\"/etiquetage-des-aliments/etiquetage/industrie/allegations-sante/fra/1392834838383/1392834887794?chap=9#s18c9\">Admissibilit\u00e9 des nouvelles all\u00e9gations nutritionnelles fonctionnelles</a>\r\n\r\n</li>\r\n\r\n</ul>\r\n\r\n</li>\r\n\r\n<li>\r\n<a href=\"/etiquetage-des-aliments/etiquetage/industrie/allegations-sante/fra/1392834838383/1392834887794?chap=10\">All\u00e9gations relatives aux probiotiques</a>\r\n\r\n<ul class=\"list-unstyled col-md-offset-1 mrgn-bttm-md\">\r\n\r\n<li>\r\n<a href=\"/etiquetage-des-aliments/etiquetage/industrie/allegations-sante/fra/1392834838383/1392834887794?chap=10#s19c10\">Types d'all\u00e9gations relatives aux probiotiques</a>\r\n\r\n</li>\r\n\r\n<li>\r\n<a href=\"/etiquetage-des-aliments/etiquetage/industrie/allegations-sante/fra/1392834838383/1392834887794?chap=10#s20c10\">Conditions d'utilisation pour les all\u00e9gations fonctionnelles relatives aux probiotiques</a>\r\n\r\n</li>\r\n\r\n<li>\r\n<a href=\"/etiquetage-des-aliments/etiquetage/industrie/allegations-sante/fra/1392834838383/1392834887794?chap=10#s21c10\">All\u00e9gations non sp\u00e9cifiques \u00e0 la souche acceptables</a>\r\n\r\n</li>\r\n\r\n<li>\r\n<a href=\"/etiquetage-des-aliments/etiquetage/industrie/allegations-sante/fra/1392834838383/1392834887794?chap=10#s22c10\">Annonces pour les all\u00e9gations fonctionnelles relatives aux probiotiques</a>\r\n\r\n</li>\r\n\r\n</ul>\r\n\r\n</li>\r\n\r\n<li>\r\n<a href=\"/etiquetage-des-aliments/etiquetage/industrie/allegations-sante/fra/1392834838383/1392834887794?chap=11\">Utilisation du terme \u00ab pr\u00e9biotique \u00bb </a>\r\n\r\n</li>\r\n\r\n<li>\r\n<a href=\"/etiquetage-des-aliments/etiquetage/industrie/allegations-sante/fra/1392834838383/1392834887794?chap=12\">All\u00e9gations sant\u00e9 g\u00e9n\u00e9rales</a>\r\n\r\n<ul class=\"list-unstyled col-md-offset-1 mrgn-bttm-md\">\r\n\r\n<li>\r\n<a href=\"/etiquetage-des-aliments/etiquetage/industrie/allegations-sante/fra/1392834838383/1392834887794?chap=12#s23c12\">Conditions d'utilisation pour les All\u00e9gations sant\u00e9 g\u00e9n\u00e9rales</a>\r\n\r\n</li>\r\n\r\n<li>\r\n<a href=\"/etiquetage-des-aliments/etiquetage/industrie/allegations-sante/fra/1392834838383/1392834887794?chap=12#s24c12\">Utilisation des termes \u00ab\u00a0nutritif\u00a0\u00bb et \u00ab\u00a0sain\u00a0\u00bb</a>\r\n\r\n</li>\r\n\r\n<li>\r\n<a href=\"/etiquetage-des-aliments/etiquetage/industrie/allegations-sante/fra/1392834838383/1392834887794?chap=12#s25c12\">All\u00e9gations relatives \u00e0 la perte de poids et all\u00e9gations relatives au maintien du poids</a>\r\n\r\n</li>\r\n\r\n</ul>\r\n\r\n</li>\r\n\r\n<li>\r\n<a href=\"/etiquetage-des-aliments/etiquetage/industrie/allegations-sante/fra/1392834838383/1392834887794?chap=13\">All\u00e9gations sant\u00e9 implicites</a>\r\n\r\n</li>\r\n\r\n<li>\r\n<a href=\"/etiquetage-des-aliments/etiquetage/industrie/allegations-sante/fra/1392834838383/1392834887794?chap=14\">Enfants \u00e2g\u00e9s de moins de deux ans</a>\r\n\r\n<ul class=\"list-unstyled col-md-offset-1 mrgn-bttm-md\">\r\n\r\n<li>\r\n<a href=\"/etiquetage-des-aliments/etiquetage/industrie/allegations-sante/fra/1392834838383/1392834887794?chap=14#s26c14\">All\u00e9gations de r\u00e9duction du risque de maladies et all\u00e9gations th\u00e9rapeutiques</a>\r\n\r\n</li>\r\n\r\n<li>\r\n<a href=\"/etiquetage-des-aliments/etiquetage/industrie/allegations-sante/fra/1392834838383/1392834887794?chap=14#s27c14\">All\u00e9gations nutritionnelles fonctionnelles pour les enfants \u00e2g\u00e9s de moins de deux ans</a>\r\n\r\n</li>\r\n\r\n</ul>\r\n\r\n</li>\r\n\r\n<li>\r\n<a href=\"/etiquetage-des-aliments/etiquetage/industrie/allegations-sante/fra/1392834838383/1392834887794?chap=15\">T\u00e9moignages et garanties concernant les vitamines et les min\u00e9raux nutritifs</a>\r\n\r\n</li>\r\n\r\n<li>\r\n<a href=\"/etiquetage-des-aliments/etiquetage/industrie/allegations-sante/fra/1392834838383/1392834887794?chap=16\">Renseignements additionnels</a>\r\n\r\n<ul class=\"list-unstyled col-md-offset-1 mrgn-bttm-md\">\r\n\r\n<li>\r\n<a href=\"/etiquetage-des-aliments/etiquetage/industrie/allegations-sante/fra/1392834838383/1392834887794?chap=16#s28c16\">Annexe\u00a01 (paragraphe 1(1)) \u2013 Substances vis\u00e9es par la d\u00e9finition de \u00ab\u00a0produit de sant\u00e9 naturel\u00a0\u00bb</a>\r\n\r\n</li>\r\n\r\n<li>\r\n<a href=\"/etiquetage-des-aliments/etiquetage/industrie/allegations-sante/fra/1392834838383/1392834887794?chap=16#s29c16\">Annexe\u00a02 (paragraphe 1(1)) \u2013 Substances exclues de la d\u00e9finition de \u00ab\u00a0produit de sant\u00e9 naturel\u00a0\u00bb</a>\r\n\r\n</li>\r\n\r\n<li>\r\n<a href=\"/etiquetage-des-aliments/etiquetage/industrie/allegations-sante/fra/1392834838383/1392834887794?chap=16#s30c16\">Maladies \u00e9num\u00e9r\u00e9es \u00e0 l'annexe A de la <i>Loi sur les aliments et drogues</i> [article 3]</a>\r\n\r\n</li>\r\n\r\n<li>\r\n<a href=\"/etiquetage-des-aliments/etiquetage/industrie/allegations-sante/fra/1392834838383/1392834887794?chap=16#s31c16\">Liste de r\u00e9f\u00e9rences pour les all\u00e9gations relatives aux probiotiques</a>\r\n\r\n</li>\r\n\r\n<li>\r\n<a href=\"/etiquetage-des-aliments/etiquetage/industrie/allegations-sante/fra/1392834838383/1392834887794?chap=16#s32c16\">Lettres d'information/ Mises \u00e0 jour des politiques</a>\r\n\r\n</li>\r\n\r\n</ul>\r\n\r\n</li>\r\n\r\n<li>\r\n<a href=\"/etiquetage-des-aliments/etiquetage/industrie/allegations-sante/fra/1392834838383/1392834887794?chap=17\">D\u00e9cisions </a>\r\n\r\n<ul class=\"list-unstyled col-md-offset-1 mrgn-bttm-md\">\r\n\r\n<li>\r\n<a href=\"/etiquetage-des-aliments/etiquetage/industrie/allegations-sante/fra/1392834838383/1392834887794?chap=17#s33c17\">\u00ab Riche en enzyme \u00bb</a>\r\n\r\n</li>\r\n\r\n<li>\r\n<a href=\"/etiquetage-des-aliments/etiquetage/industrie/allegations-sante/fra/1392834838383/1392834887794?chap=17#s34c17\">\u00c9nonc\u00e9s et all\u00e9gations concernant la capacit\u00e9 d'absorption des radicaux oxyg\u00e9n\u00e9s (ORAC)</a>\r\n\r\n</li>\r\n\r\n</ul>\r\n\r\n</li>\r\n\r\n<li>\r\n<a href=\"/etiquetage-des-aliments/etiquetage/industrie/allegations-sante/fra/1392834838383/1392834887794?chap=18\">D\u00e9finitions</a>\r\n\r\n<ul class=\"list-unstyled col-md-offset-1 mrgn-bttm-md\">\r\n\r\n<li>\r\n<a href=\"/etiquetage-des-aliments/etiquetage/industrie/allegations-sante/fra/1392834838383/1392834887794?chap=18#s35c18\">All\u00e9gations de r\u00e9duction du risque de maladies</a>\r\n\r\n</li>\r\n\r\n<li>\r\n<a href=\"/etiquetage-des-aliments/etiquetage/industrie/allegations-sante/fra/1392834838383/1392834887794?chap=18#s36c18\">Drogues</a>\r\n\r\n</li>\r\n\r\n<li>\r\n<a href=\"/etiquetage-des-aliments/etiquetage/industrie/allegations-sante/fra/1392834838383/1392834887794?chap=18#s37c18\">Les all\u00e9gations propres aux m\u00e9dicaments</a>\r\n\r\n</li>\r\n\r\n<li>\r\n<a href=\"/etiquetage-des-aliments/etiquetage/industrie/allegations-sante/fra/1392834838383/1392834887794?chap=18#s38c18\">Aliment</a>\r\n\r\n</li>\r\n\r\n<li>\r\n<a href=\"/etiquetage-des-aliments/etiquetage/industrie/allegations-sante/fra/1392834838383/1392834887794?chap=18#s39c18\">All\u00e9gations fonctionnelles</a>\r\n\r\n</li>\r\n\r\n<li>\r\n<a href=\"/etiquetage-des-aliments/etiquetage/industrie/allegations-sante/fra/1392834838383/1392834887794?chap=18#s40c18\">All\u00e9gations sant\u00e9 g\u00e9n\u00e9rales</a>\r\n\r\n</li>\r\n\r\n<li>\r\n<a href=\"/etiquetage-des-aliments/etiquetage/industrie/allegations-sante/fra/1392834838383/1392834887794?chap=18#s41c18\">All\u00e9gation sant\u00e9</a>\r\n\r\n</li>\r\n\r\n<li>\r\n<a href=\"/etiquetage-des-aliments/etiquetage/industrie/allegations-sante/fra/1392834838383/1392834887794?chap=18#s42c18\">Effet laxatif</a>\r\n\r\n</li>\r\n\r\n<li>\r\n<a href=\"/etiquetage-des-aliments/etiquetage/industrie/allegations-sante/fra/1392834838383/1392834887794?chap=18#s43c18\">Produit de sant\u00e9 naturel (PSN)</a>\r\n\r\n</li>\r\n\r\n<li>\r\n<a href=\"/etiquetage-des-aliments/etiquetage/industrie/allegations-sante/fra/1392834838383/1392834887794?chap=18#s44c18\">All\u00e9gations nutritionnelles fonctionnelles</a>\r\n\r\n</li>\r\n\r\n<li>\r\n<a href=\"/etiquetage-des-aliments/etiquetage/industrie/allegations-sante/fra/1392834838383/1392834887794?chap=18#s45c18\">Pr\u00e9biotiques </a>\r\n\r\n</li>\r\n\r\n<li>\r\n<a href=\"/etiquetage-des-aliments/etiquetage/industrie/allegations-sante/fra/1392834838383/1392834887794?chap=18#s46c18\">Probiotiques</a>\r\n\r\n</li>\r\n\r\n<li>\r\n<a href=\"/etiquetage-des-aliments/etiquetage/industrie/allegations-sante/fra/1392834838383/1392834887794?chap=18#s47c18\">All\u00e9gations th\u00e9rapeutiques</a>\r\n\r\n</li>\r\n\r\n</ul>\r\n\r\n</li>\r\n\r\n</ul>\r\n\r\n\r\n<div class=\"clear\"></div>\r\n\n\n\r\n        \r\n\r\n<div class=\"row\">\r\n \r\n\t\t\t\r\n\t\t\t\r\n\r\n\t\t\r\n\t\r\n</div>"
    },
    "success": true,
    "chat_wizard": false
}