{
    "dcr_id": "1533062442545",
    "title": {
        "en": "Canadian Food Inspection Agency's On-site Assessment Report of Mexico's Food Safety Control System for Fresh Fruit and Vegetables\u00a0\u2013 2017",
        "fr": "Agence canadienne d'inspection des aliments rapport d'\u00e9valuation sur place du syst\u00e8me de contr\u00f4le de la salubrit\u00e9 des aliments du Mexique pour les fruits et l\u00e9gumes frais\u00a0\u2013 2017"
    },
    "html_modified": "31-8-2018",
    "modified": "14-8-2018",
    "issued": "27-7-2018",
    "teamsite_location": {
        "en": "/default/main/inspection/cont-cont/food-aliments/WORKAREA/food-aliments/templatedata/comn-comn/manuals-manuels/data/mexico_fresh_fruit_vegetables_assessment_1533062442545_eng",
        "fr": "/default/main/inspection/cont-cont/food-aliments/WORKAREA/food-aliments/templatedata/comn-comn/manuals-manuels/data/mexico_fresh_fruit_vegetables_assessment_1533062442545_fra"
    },
    "parent_ia_id": "1404502949798",
    "ia_id": "1533062443182",
    "parent_node_id": "1404502949798",
    "layout_name": "content page 1 column",
    "breadcrumb": {
        "en": "Canadian Food Inspection Agency's On-site Assessment Report of Mexico's Food Safety Control System for Fresh Fruit and Vegetables\u00a0\u2013 2017",
        "fr": "Agence canadienne d'inspection des aliments rapport d'\u00e9valuation sur place du syst\u00e8me de contr\u00f4le de la salubrit\u00e9 des aliments du Mexique pour les fruits et l\u00e9gumes frais\u00a0\u2013 2017"
    },
    "label": {
        "en": "Canadian Food Inspection Agency's On-site Assessment Report of Mexico's Food Safety Control System for Fresh Fruit and Vegetables\u00a0\u2013 2017",
        "fr": "Agence canadienne d'inspection des aliments rapport d'\u00e9valuation sur place du syst\u00e8me de contr\u00f4le de la salubrit\u00e9 des aliments du Mexique pour les fruits et l\u00e9gumes frais\u00a0\u2013 2017"
    },
    "templatetype": "content page 1 column",
    "node_id": "1533062443182",
    "managing_branch": "comn",
    "type_name": "manuals-manuels",
    "dcr_type": "manuals-manuels",
    "parent_dcr_id": "1404502855855",
    "has_dcr_id": true,
    "lang": "en",
    "could_not_load": 0,
    "refaire": false,
    "interwoven_url": {
        "en": "/importing-food-plants-or-animals/food-imports/foreign-systems/audits/mexico/",
        "fr": "/importation-d-aliments-de-vegetaux-ou-d-animaux/importation-d-aliments/systemes-etrangers/verifications/mexico/"
    },
    "meta": {
        "viewport": {
            "en": "width=device-width,initial-scale=1",
            "fr": "width=device-width,initial-scale=1"
        },
        "service": {
            "en": "CFIA-ACIA",
            "fr": "CFIA-ACIA"
        },
        "accessRights": {
            "en": "2",
            "fr": "2"
        },
        "title": {
            "en": "Canadian Food Inspection Agency's On-site Assessment Report of Mexico's Food Safety Control System for Fresh Fruit and Vegetables\u00a0\u2013 2017",
            "fr": "Agence canadienne d'inspection des aliments rapport d'\u00e9valuation sur place du syst\u00e8me de contr\u00f4le de la salubrit\u00e9 des aliments du Mexique pour les fruits et l\u00e9gumes frais\u00a0\u2013 2017"
        },
        "description": {
            "en": "Canadian Food Inspection Agency's On-site Assessment Report of Mexico's Food Safety Control System for Fresh Fruit and Vegetables\u00a0\u2013 2017.",
            "fr": "Agence canadienne d'inspection des aliments rapport d'\u00e9valuation sur place du syst\u00e8me de contr\u00f4le de la salubrit\u00e9 des aliments du Mexique pour les fruits et l\u00e9gumes frais\u00a0\u2013 2017."
        },
        "keywords": {
            "en": "report, recommendations, CFIA, On-site Assessment Report, Mexico, Food Safety Control System, Fresh Fruit, Vegetables, 2017",
            "fr": "rapport, recommandations, ACIA, rapport d'\u00e9valuation, syst\u00e8me de contr\u00f4le de la salubrit\u00e9 des aliments, Mexique, fruits, l\u00e9gumes frais, 2017"
        },
        "dcterms.subject": {
            "en": "food,compliance,inspection,legislation,food safety",
            "fr": "aliment,conformit\u00e9,inspection,l\u00e9gislation,salubrit\u00e9 des aliments"
        },
        "creator": {
            "en": "Government of Canada,Canadian Food Inspection Agency,Food Safety and Consumer Protection Directorate",
            "fr": "Gouvernement du Canada,Agence canadienne d'inspection des aliments,Direction de la salubrit\u00e9 des aliments et de la protection des consommateurs"
        },
        "language": {
            "en": "eng",
            "fr": "fra"
        },
        "issued": {
            "en": "2018-08-31",
            "fr": "2018-08-31"
        },
        "modified": {
            "en": "2018-08-14",
            "fr": "2018-08-14"
        },
        "type": {
            "en": "reference material",
            "fr": "mat\u00e9riel de r\u00e9f\u00e9rence"
        },
        "audience": {
            "en": "business,government,general public",
            "fr": "entreprises,gouvernement,grand public"
        },
        "name": {
            "en": "Government of Canada",
            "fr": "Gouvernement du Canada"
        },
        "areaServed": {
            "en": "Canada",
            "fr": "Canada"
        }
    },
    "h1": {
        "en": "Canadian Food Inspection Agency's On-site Assessment Report of Mexico's Food Safety Control System for Fresh Fruit and Vegetables\u00a0\u2013 2017",
        "fr": "Agence canadienne d'inspection des aliments rapport d'\u00e9valuation sur place du syst\u00e8me de contr\u00f4le de la salubrit\u00e9 des aliments du Mexique pour les fruits et l\u00e9gumes frais\u00a0\u2013 2017"
    },
    "js": {
        "en": "",
        "fr": ""
    },
    "body": {
        "en": "        \r\n        \n\n\r\n\r\n\r\n\r\n\r\n\r\n<p class=\"small text-right\"><a href=\"/importing-food-plants-or-animals/food-imports/foreign-systems/audits/mexico/eng/1533062442545/1533062443182?chap=0\">Complete Text</a></p>\r\n\r\n\r\n<h2>On this page</h2>\r\n<ul class=\"list-unstyled col-md-offset-1 mrgn-tp-md mrgn-bttm-md\">\r\n\r\n<li>\r\n<a href=\"/importing-food-plants-or-animals/food-imports/foreign-systems/audits/mexico/eng/1533062442545/1533062443182?chap=1\">Abbreviations and special terms used in the report</a>\r\n\r\n</li>\r\n\r\n<li>\r\n<a href=\"/importing-food-plants-or-animals/food-imports/foreign-systems/audits/mexico/eng/1533062442545/1533062443182?chap=2\">Executive summary</a>\r\n\r\n<ul class=\"list-unstyled col-md-offset-1 mrgn-bttm-md\">\r\n\r\n<li>\r\n<a href=\"/importing-food-plants-or-animals/food-imports/foreign-systems/audits/mexico/eng/1533062442545/1533062443182?chap=2#s1c2\">Authorities</a>\r\n\r\n</li>\r\n\r\n<li>\r\n<a href=\"/importing-food-plants-or-animals/food-imports/foreign-systems/audits/mexico/eng/1533062442545/1533062443182?chap=2#s2c2\">Government organization and resources</a>\r\n\r\n</li>\r\n\r\n<li>\r\n<a href=\"/importing-food-plants-or-animals/food-imports/foreign-systems/audits/mexico/eng/1533062442545/1533062443182?chap=2#s3c2\">Third parties involved in the implementation of the CRRS</a>\r\n\r\n</li>\r\n\r\n<li>\r\n<a href=\"/importing-food-plants-or-animals/food-imports/foreign-systems/audits/mexico/eng/1533062442545/1533062443182?chap=2#s4c2\">Inspection, enforcement and surveillance activities</a>\r\n\r\n</li>\r\n\r\n</ul>\r\n\r\n</li>\r\n\r\n<li>\r\n<a href=\"/importing-food-plants-or-animals/food-imports/foreign-systems/audits/mexico/eng/1533062442545/1533062443182?chap=3\">1. Introduction</a>\r\n\r\n</li>\r\n\r\n<li>\r\n<a href=\"/importing-food-plants-or-animals/food-imports/foreign-systems/audits/mexico/eng/1533062442545/1533062443182?chap=4\">2. Assessment objective, scope, and methodology</a>\r\n\r\n<ul class=\"list-unstyled col-md-offset-1 mrgn-bttm-md\">\r\n\r\n<li>\r\n<a href=\"/importing-food-plants-or-animals/food-imports/foreign-systems/audits/mexico/eng/1533062442545/1533062443182?chap=4#s5c4\">2.1 Methodology</a>\r\n\r\n</li>\r\n\r\n<li>\r\n<a href=\"/importing-food-plants-or-animals/food-imports/foreign-systems/audits/mexico/eng/1533062442545/1533062443182?chap=4#s6c4\">2.2 Assessment scope summary</a>\r\n\r\n</li>\r\n\r\n</ul>\r\n\r\n</li>\r\n\r\n<li>\r\n<a href=\"/importing-food-plants-or-animals/food-imports/foreign-systems/audits/mexico/eng/1533062442545/1533062443182?chap=5\">3. Legal basis for the assessment</a>\r\n\r\n</li>\r\n\r\n<li>\r\n<a href=\"/importing-food-plants-or-animals/food-imports/foreign-systems/audits/mexico/eng/1533062442545/1533062443182?chap=6\">4. Background</a>\r\n\r\n</li>\r\n\r\n<li>\r\n<a href=\"/importing-food-plants-or-animals/food-imports/foreign-systems/audits/mexico/eng/1533062442545/1533062443182?chap=7\">5. Government authorities, roles and responsibilities</a>\r\n\r\n<ul class=\"list-unstyled col-md-offset-1 mrgn-bttm-md\">\r\n\r\n<li>\r\n<a href=\"/importing-food-plants-or-animals/food-imports/foreign-systems/audits/mexico/eng/1533062442545/1533062443182?chap=7#s7c7\">5.1 Roles and responsibilities</a>\r\n\r\n</li>\r\n\r\n</ul>\r\n\r\n</li>\r\n\r\n<li>\r\n<a href=\"/importing-food-plants-or-animals/food-imports/foreign-systems/audits/mexico/eng/1533062442545/1533062443182?chap=8\">6. The CRRS</a>\r\n\r\n<ul class=\"list-unstyled col-md-offset-1 mrgn-bttm-md\">\r\n\r\n<li>\r\n<a href=\"/importing-food-plants-or-animals/food-imports/foreign-systems/audits/mexico/eng/1533062442545/1533062443182?chap=8#s8c8\">6.1 Background</a>\r\n\r\n</li>\r\n\r\n<li>\r\n<a href=\"/importing-food-plants-or-animals/food-imports/foreign-systems/audits/mexico/eng/1533062442545/1533062443182?chap=8#s9c8\">6.2 Overview of the program</a>\r\n\r\n</li>\r\n\r\n<li>\r\n<a href=\"/importing-food-plants-or-animals/food-imports/foreign-systems/audits/mexico/eng/1533062442545/1533062443182?chap=8#s10c8\">6.3 Auxiliary parties involved in the implementation of the CRRS</a>\r\n\r\n</li>\r\n\r\n<li>\r\n<a href=\"/importing-food-plants-or-animals/food-imports/foreign-systems/audits/mexico/eng/1533062442545/1533062443182?chap=8#s11c8\">6.4 Resources and training of parties involved in the implementation of the CRRS</a>\r\n\r\n</li>\r\n\r\n<li>\r\n<a href=\"/importing-food-plants-or-animals/food-imports/foreign-systems/audits/mexico/eng/1533062442545/1533062443182?chap=8#s12c8\">6.5 Recognition/authorization and oversight of auxiliary parties</a>\r\n\r\n</li>\r\n\r\n<li>\r\n<a href=\"/importing-food-plants-or-animals/food-imports/foreign-systems/audits/mexico/eng/1533062442545/1533062443182?chap=8#s13c8\">6.6 Implementation of food safety controls at the farm, packing and exporter levels</a>\r\n\r\n</li>\r\n\r\n</ul>\r\n\r\n</li>\r\n\r\n<li>\r\n<a href=\"/importing-food-plants-or-animals/food-imports/foreign-systems/audits/mexico/eng/1533062442545/1533062443182?chap=9\">7. Laboratory capacity</a>\r\n\r\n<ul class=\"list-unstyled col-md-offset-1 mrgn-bttm-md\">\r\n\r\n<li>\r\n<a href=\"/importing-food-plants-or-animals/food-imports/foreign-systems/audits/mexico/eng/1533062442545/1533062443182?chap=9#s14c9\">General observations</a>\r\n\r\n</li>\r\n\r\n</ul>\r\n\r\n</li>\r\n\r\n<li>\r\n<a href=\"/importing-food-plants-or-animals/food-imports/foreign-systems/audits/mexico/eng/1533062442545/1533062443182?chap=10\">8. Closing meeting</a>\r\n\r\n<ul class=\"list-unstyled col-md-offset-1 mrgn-bttm-md\">\r\n\r\n<li>\r\n<a href=\"/importing-food-plants-or-animals/food-imports/foreign-systems/audits/mexico/eng/1533062442545/1533062443182?chap=10#s15c10\">8.1 Observations</a>\r\n\r\n</li>\r\n\r\n<li>\r\n<a href=\"/importing-food-plants-or-animals/food-imports/foreign-systems/audits/mexico/eng/1533062442545/1533062443182?chap=10#s16c10\">8.2 Gaps</a>\r\n\r\n</li>\r\n\r\n<li>\r\n<a href=\"/importing-food-plants-or-animals/food-imports/foreign-systems/audits/mexico/eng/1533062442545/1533062443182?chap=10#s17c10\">8.3 Recommendations</a>\r\n\r\n</li>\r\n\r\n<li>\r\n<a href=\"/importing-food-plants-or-animals/food-imports/foreign-systems/audits/mexico/eng/1533062442545/1533062443182?chap=10#s18c10\">8.4 Conclusions and next steps</a>\r\n\r\n</li>\r\n\r\n</ul>\r\n\r\n</li>\r\n\r\n<li>\r\n<a href=\"/importing-food-plants-or-animals/food-imports/foreign-systems/audits/mexico/eng/1533062442545/1533062443182?chap=11\">Appendix A. The government organizations responsible for the CRRS</a>\r\n\r\n</li>\r\n\r\n<li>\r\n<a href=\"/importing-food-plants-or-animals/food-imports/foreign-systems/audits/mexico/eng/1533062442545/1533062443182?chap=12\">Appendix B. Overview of the CRRS Process (steps and parties involved)</a>\r\n\r\n</li>\r\n\r\n<li>\r\n<a href=\"/importing-food-plants-or-animals/food-imports/foreign-systems/audits/mexico/eng/1533062442545/1533062443182?chap=13\">Appendix C. Summary of SENASICA's action plans/comments to the CFIA's recommendations from the Canadian Food Inspection Agency On-site Assessment Report of Mexico's Food Safety Control System for Fresh Fruit and Vegetables\u00a0\u2013 2017</a>\r\n\r\n</li>\r\n\r\n</ul>\r\n\r\n\r\n\n\n\r\n        \r\n\r\n\r\n\r\n<div class=\"row\">\r\n \r\n\t\r\n\t\t\t\r\n\r\n<div class=\"col-xm-12 pagedetails container\">\r\n\t\t\t\t\r\n\r\n</div>\r\n\t\r\n</div>",
        "fr": "\r\n        \r\n        \n\n\r\n\r\n\r\n\r\n\r\n\r\n<p class=\"small text-right\"><a href=\"/importation-d-aliments-de-vegetaux-ou-d-animaux/importation-d-aliments/systemes-etrangers/verifications/mexico/fra/1533062442545/1533062443182?chap=0\">Texte Complet</a></p>\r\n\r\n\r\n<h2>Sur cette page</h2>\r\n<ul class=\"list-unstyled col-md-offset-1 mrgn-tp-md mrgn-bttm-md\">\r\n\r\n<li>\r\n<a href=\"/importation-d-aliments-de-vegetaux-ou-d-animaux/importation-d-aliments/systemes-etrangers/verifications/mexico/fra/1533062442545/1533062443182?chap=1\">Abr\u00e9viations utilis\u00e9es dans le pr\u00e9sent rapport</a>\r\n\r\n</li>\r\n\r\n<li>\r\n<a href=\"/importation-d-aliments-de-vegetaux-ou-d-animaux/importation-d-aliments/systemes-etrangers/verifications/mexico/fra/1533062442545/1533062443182?chap=2\">Sommaire</a>\r\n\r\n<ul class=\"list-unstyled col-md-offset-1 mrgn-bttm-md\">\r\n\r\n<li>\r\n<a href=\"/importation-d-aliments-de-vegetaux-ou-d-animaux/importation-d-aliments/systemes-etrangers/verifications/mexico/fra/1533062442545/1533062443182?chap=2#s1c2\">Pouvoirs</a>\r\n\r\n</li>\r\n\r\n<li>\r\n<a href=\"/importation-d-aliments-de-vegetaux-ou-d-animaux/importation-d-aliments/systemes-etrangers/verifications/mexico/fra/1533062442545/1533062443182?chap=2#s2c2\">Organisation gouvernementale et ressources</a>\r\n\r\n</li>\r\n\r\n<li>\r\n<a href=\"/importation-d-aliments-de-vegetaux-ou-d-animaux/importation-d-aliments/systemes-etrangers/verifications/mexico/fra/1533062442545/1533062443182?chap=2#s3c2\">Tierces parties prenant part \u00e0 la mise en \u0153uvre du SRRC</a>\r\n\r\n</li>\r\n\r\n<li>\r\n<a href=\"/importation-d-aliments-de-vegetaux-ou-d-animaux/importation-d-aliments/systemes-etrangers/verifications/mexico/fra/1533062442545/1533062443182?chap=2#s4c2\">Activit\u00e9s d'inspection, de mise en application et de surveillance</a>\r\n\r\n</li>\r\n\r\n</ul>\r\n\r\n</li>\r\n\r\n<li>\r\n<a href=\"/importation-d-aliments-de-vegetaux-ou-d-animaux/importation-d-aliments/systemes-etrangers/verifications/mexico/fra/1533062442545/1533062443182?chap=3\">1. Introduction</a>\r\n\r\n</li>\r\n\r\n<li>\r\n<a href=\"/importation-d-aliments-de-vegetaux-ou-d-animaux/importation-d-aliments/systemes-etrangers/verifications/mexico/fra/1533062442545/1533062443182?chap=4\">2. Objectif, port\u00e9e et m\u00e9thodologie de l'\u00e9valuation</a>\r\n\r\n<ul class=\"list-unstyled col-md-offset-1 mrgn-bttm-md\">\r\n\r\n<li>\r\n<a href=\"/importation-d-aliments-de-vegetaux-ou-d-animaux/importation-d-aliments/systemes-etrangers/verifications/mexico/fra/1533062442545/1533062443182?chap=4#s5c4\">2.1 M\u00e9thodologie</a>\r\n\r\n</li>\r\n\r\n<li>\r\n<a href=\"/importation-d-aliments-de-vegetaux-ou-d-animaux/importation-d-aliments/systemes-etrangers/verifications/mexico/fra/1533062442545/1533062443182?chap=4#s6c4\">2.2 Sommaire de la port\u00e9e de l'\u00e9valuation</a>\r\n\r\n</li>\r\n\r\n</ul>\r\n\r\n</li>\r\n\r\n<li>\r\n<a href=\"/importation-d-aliments-de-vegetaux-ou-d-animaux/importation-d-aliments/systemes-etrangers/verifications/mexico/fra/1533062442545/1533062443182?chap=5\">3. Fondement juridique de l'\u00e9valuation</a>\r\n\r\n</li>\r\n\r\n<li>\r\n<a href=\"/importation-d-aliments-de-vegetaux-ou-d-animaux/importation-d-aliments/systemes-etrangers/verifications/mexico/fra/1533062442545/1533062443182?chap=6\">4. Contexte</a>\r\n\r\n</li>\r\n\r\n<li>\r\n<a href=\"/importation-d-aliments-de-vegetaux-ou-d-animaux/importation-d-aliments/systemes-etrangers/verifications/mexico/fra/1533062442545/1533062443182?chap=7\">5. Pouvoirs, r\u00f4les et responsabilit\u00e9s du gouvernement</a>\r\n\r\n<ul class=\"list-unstyled col-md-offset-1 mrgn-bttm-md\">\r\n\r\n<li>\r\n<a href=\"/importation-d-aliments-de-vegetaux-ou-d-animaux/importation-d-aliments/systemes-etrangers/verifications/mexico/fra/1533062442545/1533062443182?chap=7#s7c7\">5.1 R\u00f4les et responsabilit\u00e9s</a>\r\n\r\n</li>\r\n\r\n</ul>\r\n\r\n</li>\r\n\r\n<li>\r\n<a href=\"/importation-d-aliments-de-vegetaux-ou-d-animaux/importation-d-aliments/systemes-etrangers/verifications/mexico/fra/1533062442545/1533062443182?chap=8\">6. Le SRRC</a>\r\n\r\n<ul class=\"list-unstyled col-md-offset-1 mrgn-bttm-md\">\r\n\r\n<li>\r\n<a href=\"/importation-d-aliments-de-vegetaux-ou-d-animaux/importation-d-aliments/systemes-etrangers/verifications/mexico/fra/1533062442545/1533062443182?chap=8#s8c8\">6.1 Contexte</a>\r\n\r\n</li>\r\n\r\n<li>\r\n<a href=\"/importation-d-aliments-de-vegetaux-ou-d-animaux/importation-d-aliments/systemes-etrangers/verifications/mexico/fra/1533062442545/1533062443182?chap=8#s9c8\">6.2 Aper\u00e7u du programme</a>\r\n\r\n</li>\r\n\r\n<li>\r\n<a href=\"/importation-d-aliments-de-vegetaux-ou-d-animaux/importation-d-aliments/systemes-etrangers/verifications/mexico/fra/1533062442545/1533062443182?chap=8#s10c8\">6.3 Parties auxiliaires concern\u00e9es par la mise en \u0153uvre du SRRC</a>\r\n\r\n</li>\r\n\r\n<li>\r\n<a href=\"/importation-d-aliments-de-vegetaux-ou-d-animaux/importation-d-aliments/systemes-etrangers/verifications/mexico/fra/1533062442545/1533062443182?chap=8#s11c8\">6.4 Ressources et formation des parties concern\u00e9es par la mise en \u0153uvre du SRRC</a>\r\n\r\n</li>\r\n\r\n<li>\r\n<a href=\"/importation-d-aliments-de-vegetaux-ou-d-animaux/importation-d-aliments/systemes-etrangers/verifications/mexico/fra/1533062442545/1533062443182?chap=8#s12c8\">6.5 Reconnaissance, autorisation et surveillance des parties auxiliaires</a>\r\n\r\n</li>\r\n\r\n<li>\r\n<a href=\"/importation-d-aliments-de-vegetaux-ou-d-animaux/importation-d-aliments/systemes-etrangers/verifications/mexico/fra/1533062442545/1533062443182?chap=8#s13c8\">6.6 Mise en \u0153uvre de mesures de contr\u00f4le de la salubrit\u00e9 des aliments \u00e0 l'exploitation agricole, \u00e0 l'installation d'emballage et chez l'exportateur</a>\r\n\r\n</li>\r\n\r\n</ul>\r\n\r\n</li>\r\n\r\n<li>\r\n<a href=\"/importation-d-aliments-de-vegetaux-ou-d-animaux/importation-d-aliments/systemes-etrangers/verifications/mexico/fra/1533062442545/1533062443182?chap=9\">7. Capacit\u00e9 laboratoire</a>\r\n\r\n<ul class=\"list-unstyled col-md-offset-1 mrgn-bttm-md\">\r\n\r\n<li>\r\n<a href=\"/importation-d-aliments-de-vegetaux-ou-d-animaux/importation-d-aliments/systemes-etrangers/verifications/mexico/fra/1533062442545/1533062443182?chap=9#s14c9\">Observations d'ordre g\u00e9n\u00e9ral</a>\r\n\r\n</li>\r\n\r\n</ul>\r\n\r\n</li>\r\n\r\n<li>\r\n<a href=\"/importation-d-aliments-de-vegetaux-ou-d-animaux/importation-d-aliments/systemes-etrangers/verifications/mexico/fra/1533062442545/1533062443182?chap=10\">8. R\u00e9union de cl\u00f4ture</a>\r\n\r\n<ul class=\"list-unstyled col-md-offset-1 mrgn-bttm-md\">\r\n\r\n<li>\r\n<a href=\"/importation-d-aliments-de-vegetaux-ou-d-animaux/importation-d-aliments/systemes-etrangers/verifications/mexico/fra/1533062442545/1533062443182?chap=10#s15c10\">8.1 Observations</a>\r\n\r\n</li>\r\n\r\n<li>\r\n<a href=\"/importation-d-aliments-de-vegetaux-ou-d-animaux/importation-d-aliments/systemes-etrangers/verifications/mexico/fra/1533062442545/1533062443182?chap=10#s16c10\">8.2 Lacunes</a>\r\n\r\n</li>\r\n\r\n<li>\r\n<a href=\"/importation-d-aliments-de-vegetaux-ou-d-animaux/importation-d-aliments/systemes-etrangers/verifications/mexico/fra/1533062442545/1533062443182?chap=10#s17c10\">8.3 Recommandations</a>\r\n\r\n</li>\r\n\r\n<li>\r\n<a href=\"/importation-d-aliments-de-vegetaux-ou-d-animaux/importation-d-aliments/systemes-etrangers/verifications/mexico/fra/1533062442545/1533062443182?chap=10#s18c10\">8.4 Conclusions et prochaines \u00e9tapes</a>\r\n\r\n</li>\r\n\r\n</ul>\r\n\r\n</li>\r\n\r\n<li>\r\n<a href=\"/importation-d-aliments-de-vegetaux-ou-d-animaux/importation-d-aliments/systemes-etrangers/verifications/mexico/fra/1533062442545/1533062443182?chap=11\">Annexe A. Organismes gouvernementaux responsables du SRRC</a>\r\n\r\n</li>\r\n\r\n<li>\r\n<a href=\"/importation-d-aliments-de-vegetaux-ou-d-animaux/importation-d-aliments/systemes-etrangers/verifications/mexico/fra/1533062442545/1533062443182?chap=12\">Annexe B. Aper\u00e7u des processus du SRRC (\u00e9tapes et parties concern\u00e9es)</a>\r\n\r\n</li>\r\n\r\n<li>\r\n<a href=\"/importation-d-aliments-de-vegetaux-ou-d-animaux/importation-d-aliments/systemes-etrangers/verifications/mexico/fra/1533062442545/1533062443182?chap=13\">Annexe C. Sommaire des plans d'action et commentaires du SENASICA en r\u00e9ponse aux recommandations formul\u00e9es par l'ACIA dans l'Agence canadienne d'inspection des aliments rapport d'\u00e9valuation sur place du syst\u00e8me de contr\u00f4le de la salubrit\u00e9 des aliments du Mexique pour les fruits et l\u00e9gumes frais\u00a0\u2013 2017</a>\r\n\r\n</li>\r\n\r\n</ul>\r\n\r\n\r\n<div class=\"clear\"></div>\r\n\n\n\r\n        \r\n\r\n<div class=\"row\">\r\n \r\n\t\t\t\r\n\t\t\t\r\n\r\n\t\t\r\n\t\r\n</div>"
    },
    "success": true,
    "chat_wizard": false
}