{
    "dcr_id": "1469624022451",
    "lang": "en",
    "type_name": "intra-intra/news-nouv",
    "created": "2016-07-28 00:00:00.0",
    "expirydate": "2016-08-04 00:00:00.0",
    "news_category_type_id": "1308325693175"
}