{
    "dcr_id": "1472659293101",
    "lang": "en",
    "type_name": "intra-intra/news-nouv",
    "created": "2016-09-01 00:00:00.0",
    "expirydate": "2016-09-08 00:00:00.0",
    "news_category_type_id": "1308325693175"
}