{
    "dcr_id": "1473188914168",
    "lang": "en",
    "type_name": "intra-intra/news-nouv",
    "created": "2016-09-08 00:00:00.0",
    "expirydate": "2016-09-12 00:00:00.0",
    "news_category_type_id": "1308334182981"
}