{
    "dcr_id": "1476812939324",
    "lang": "en",
    "type_name": "intra-intra/news-nouv",
    "created": "2016-10-27 00:00:00.0",
    "expirydate": "2016-11-05 00:00:00.0",
    "news_category_type_id": "1379951494338"
}