{
    "dcr_id": "1476285906758",
    "lang": "en",
    "type_name": "intra-intra/news-nouv",
    "created": "2016-10-13 00:00:00.0",
    "expirydate": "2016-10-20 00:00:00.0",
    "news_category_type_id": "1308334182982"
}