{
    "dcr_id": "1485542659689",
    "lang": "en",
    "type_name": "intra-intra/news-nouv",
    "created": "2017-01-27 00:00:00.0",
    "expirydate": "2017-02-09 00:00:00.0",
    "news_category_type_id": "1308325693175"
}