{
    "dcr_id": "1517233850058",
    "lang": "en",
    "type_name": "intra-intra/news-nouv",
    "created": "2018-02-08 00:00:00.0",
    "expirydate": "2018-02-15 00:00:00.0",
    "news_category_type_id": "1308325693175"
}