{
    "dcr_id": "1519849020410",
    "lang": "en",
    "type_name": "intra-intra/news-nouv",
    "created": "2018-03-07 00:00:00.0",
    "expirydate": "2018-03-11 00:00:00.0",
    "news_category_type_id": "1308334182982"
}