{
    "dcr_id": "1526308873327",
    "lang": "en",
    "type_name": "intra-intra/news-nouv",
    "created": "2018-05-16 00:00:00.0",
    "expirydate": "2018-05-27 00:00:00.0",
    "news_category_type_id": "1308334182982"
}