{
    "dcr_id": "1527601194807",
    "lang": "en",
    "type_name": "intra-intra/news-nouv",
    "created": "2018-05-30 00:00:00.0",
    "expirydate": "2018-06-07 00:00:00.0",
    "news_category_type_id": "1308325693175"
}