{
    "dcr_id": "1539111031432",
    "lang": "en",
    "type_name": "intra-intra/news-nouv",
    "created": "2018-10-10 00:00:00.0",
    "expirydate": "2018-10-30 00:00:00.0",
    "news_category_type_id": "1308334182981"
}