{
    "dcr_id": "1540911671892",
    "lang": "en",
    "type_name": "intra-intra/news-nouv",
    "created": "2018-11-01 00:00:00.0",
    "expirydate": "2018-11-08 00:00:00.0",
    "news_category_type_id": "1308325693175"
}