{
    "dcr_id": "1542806320573",
    "lang": "en",
    "type_name": "intra-intra/news-nouv",
    "created": "2018-11-21 00:00:00.0",
    "expirydate": "2018-12-06 00:00:00.0",
    "news_category_type_id": "1308334182981"
}