{
    "dcr_id": "1547817887695",
    "lang": "en",
    "type_name": "intra-intra/news-nouv",
    "created": "2019-01-24 00:00:00.0",
    "expirydate": "2019-01-31 00:00:00.0",
    "news_category_type_id": "1508942999196"
}