{
    "dcr_id": "1551212970068",
    "lang": "en",
    "type_name": "intra-intra/news-nouv",
    "created": "2019-03-07 00:00:00.0",
    "expirydate": "2019-04-11 00:00:00.0",
    "news_category_type_id": "1308325693175"
}