{
    "dcr_id": "1551966626580",
    "lang": "en",
    "type_name": "intra-intra/news-nouv",
    "created": "2019-03-14 00:00:00.0",
    "expirydate": "2019-03-18 00:00:00.0",
    "news_category_type_id": "1308334182982"
}