{
    "dcr_id": "1557849982494",
    "lang": "en",
    "type_name": "intra-intra/news-nouv",
    "created": "2019-05-16 00:00:00.0",
    "expirydate": "2019-05-23 00:00:00.0",
    "news_category_type_id": "1308325693175"
}