{
    "dcr_id": "1568042863170",
    "lang": "en",
    "type_name": "intra-intra/news-nouv",
    "created": "2019-09-09 00:00:00.0",
    "expirydate": "2019-09-19 00:00:00.0",
    "news_category_type_id": "1308334182983"
}