{
    "dcr_id": "1574172258075",
    "lang": "en",
    "type_name": "intra-intra/news-nouv",
    "created": "2019-11-21 00:00:00.0",
    "expirydate": "2020-03-12 00:00:00.0",
    "news_category_type_id": "1308325693175"
}