{
    "dcr_id": "1576000751965",
    "lang": "en",
    "type_name": "intra-intra/news-nouv",
    "created": "2019-12-12 00:00:00.0",
    "expirydate": "2019-12-13 00:00:00.0",
    "news_category_type_id": "1508942999196"
}