{
    "dcr_id": "1579114083473",
    "lang": "en",
    "type_name": "intra-intra/news-nouv",
    "created": "2020-01-16 00:00:00.0",
    "expirydate": "2020-01-19 00:00:00.0",
    "news_category_type_id": "1308334182982"
}