{
    "dcr_id": "1579015927024",
    "lang": "en",
    "type_name": "intra-intra/news-nouv",
    "created": "2020-01-16 00:00:00.0",
    "expirydate": "2020-01-23 00:00:00.0",
    "news_category_type_id": "1508942999196"
}