{
    "dcr_id": "1582569536379",
    "lang": "en",
    "type_name": "intra-intra/news-nouv",
    "created": "2020-03-02 00:00:00.0",
    "expirydate": "2020-03-12 00:00:00.0",
    "news_category_type_id": "1308334182981"
}