{
    "dcr_id": "1585316909912",
    "lang": "en",
    "type_name": "intra-intra/news-nouv",
    "created": "2020-03-27 00:00:00.0",
    "expirydate": "2020-04-03 00:00:00.0",
    "news_category_type_id": "1308325693175"
}