{
    "dcr_id": "1303871760194",
    "title": {
        "en": "DD1996-15: Determination of Environmental Safety of Dekalb Canada <abbr title=\"Incorporated\">Inc.</abbr>'s Glufosinate Ammonium-Tolerant Corn Line DLL25",
        "fr": "DD1996-15 : D\u00e9termination de la s\u00e9curit\u00e9 environnementale de la lign\u00e9e DLL25 de ma\u00efs tol\u00e9rant le glufosinate-ammonium, cr\u00e9\u00e9e par <span lang=\"en\">Dekalb Canada <abbr title=\"Incorporated\">Inc.</abbr></span>"
    },
    "html_modified": "2011-04-26 22:36",
    "modified": "26-4-2011",
    "issued": "26-4-2011",
    "teamsite_location": {
        "en": "/default/main/inspection/cont-cont/plants-vegetaux/WORKAREA/plants-vegetaux/templatedata/comn-comn/gene-gene/data/pnts_decisions_dd9615_1303871760194_eng",
        "fr": "/default/main/inspection/cont-cont/plants-vegetaux/WORKAREA/plants-vegetaux/templatedata/comn-comn/gene-gene/data/pnts_decisions_dd9615_1303871760194_fra"
    },
    "parent_ia_id": "1303704484236",
    "ia_id": "1303872103168",
    "parent_node_id": "1303704484236",
    "layout_name": "content page 1 column",
    "breadcrumb": {
        "en": "DD1996-15: Determination of Environmental Safety of Dekalb Canada <abbr title=\"Incorporated\">Inc.</abbr>'s Glufosinate Ammonium-Tolerant Corn Line DLL25",
        "fr": "DD1996-15 : D\u00e9termination de la s\u00e9curit\u00e9 environnementale de la lign\u00e9e DLL25 de ma\u00efs tol\u00e9rant le glufosinate-ammonium, cr\u00e9\u00e9e par <span lang=\"en\">Dekalb Canada <abbr title=\"Incorporated\">Inc.</abbr></span>"
    },
    "label": {
        "en": "DD1996-15: Determination of Environmental Safety of Dekalb Canada <abbr title=\"Incorporated\">Inc.</abbr>'s Glufosinate Ammonium-Tolerant Corn Line DLL25",
        "fr": "DD1996-15 : D\u00e9termination de la s\u00e9curit\u00e9 environnementale de la lign\u00e9e DLL25 de ma\u00efs tol\u00e9rant le glufosinate-ammonium, cr\u00e9\u00e9e par <span lang=\"en\">Dekalb Canada <abbr title=\"Incorporated\">Inc.</abbr></span>"
    },
    "templatetype": "content page 1 column",
    "node_id": "1303872103168",
    "managing_branch": "comn",
    "type_name": "sitemapinit",
    "parent_dcr_id": "1303704378026",
    "orig_type_name": "gene-gene",
    "has_dcr_id": true,
    "lang": "en",
    "could_not_load": 0,
    "refaire": false,
    "interwoven_url": {
        "en": "/plant-varieties/plants-with-novel-traits/approved-under-review/decision-documents/dd1996-15/",
        "fr": "/varietes-vegetales/vegetaux-a-caracteres-nouveaux/approuves-cours-d-evaluation/documents-des-decisions/dd1996-15/"
    },
    "meta": {
        "viewport": {
            "en": "width=device-width,initial-scale=1",
            "fr": "width=device-width,initial-scale=1"
        },
        "service": {
            "en": "CFIA-ACIA",
            "fr": "CFIA-ACIA"
        },
        "accessRights": {
            "en": "2",
            "fr": "2"
        },
        "title": {
            "en": "DD1996-15: Determination of Environmental Safety of Dekalb Canada Inc.'s Glufosinate Ammonium-Tolerant Corn Line DLL25",
            "fr": "DD1996-15 : D\u00e9termination de la s\u00e9curit\u00e9 environnementale de la lign\u00e9e DLL25 de ma\u00efs tol\u00e9rant le glufosinate-ammonium, cr\u00e9\u00e9e par Dekalb Canada Inc."
        },
        "description": {
            "en": "This Decision Document has been prepared to explain the regulatory decision reached under the guidelines Dir94-08 Assessment Criteria for Determining Environmental Safety of Plants with Novel Traits and its companion document Dir94-11 The Biology of Zea mays L.(Corn/Maize).",
            "fr": "Le pr\u00e9sent document vise \u00e0 expliquer la d\u00e9cision r\u00e9glementaire prise conform\u00e9ment \u00e0 la directive Dir94-08, Crit\u00e8res d'\u00e9valuation du risque environnemental associ\u00e9 aux v\u00e9g\u00e9taux \u00e0 caract\u00e8res nouveaux, et au cahier parall\u00e8le Dir94-11, La biologie du Zea mays L.(ma\u00efs)."
        },
        "keywords": {
            "en": "plant biotechnology, plant biosafety, PNT, novel traits, field traits, unconfined releases, biosafety, decision documents, molecular farming",
            "fr": "v&#233;g&#233;tale biotechnologie, v&#233;g&#233;tale bios&#233;curit&#233;, bios&#233;curit&#233;, VCN, v&#233;g&#233;taux &#224; caract&#232;res nouveaux, diss&#233;mination dans l&#39;environment, biosafety, documents des d&#233;cisions, agriculture mol&#233;culaire v&#233;g&#233;tale"
        },
        "dcterms.subject": {
            "en": "biotechnology,crops,environmental impact assessment,grains,herbicides,imports,weeds,plants",
            "fr": "biotechnologie,cultures,\u00e9valuation environnementale,grain,herbicide,importation,plante nuisible,plante"
        },
        "creator": {
            "en": "Government of Canada,Canadian Food Inspection Agency,Plant Health and Biosecurity Directorate",
            "fr": "Gouvernement du Canada,Agence canadienne d'inspection des aliments"
        },
        "language": {
            "en": "eng",
            "fr": "fra"
        },
        "issued": {
            "en": "2011-04-26 22:36:03",
            "fr": "2011-04-26 22:36:03"
        },
        "modified": {
            "en": "2011-04-26",
            "fr": "2011-04-26"
        },
        "type": {
            "en": "reference material",
            "fr": "mat\u00e9riel de r\u00e9f\u00e9rence"
        },
        "audience": {
            "en": "business,government",
            "fr": "entreprises,gouvernement"
        },
        "name": {
            "en": "Government of Canada",
            "fr": "Gouvernement du Canada"
        },
        "areaServed": {
            "en": "Canada",
            "fr": "Canada"
        }
    },
    "h1": {
        "en": "DD1996-15: Determination of Environmental Safety of Dekalb Canada Inc.'s Glufosinate Ammonium-Tolerant Corn Line DLL25",
        "fr": "DD1996-15 : D\u00e9termination de la s\u00e9curit\u00e9 environnementale de la lign\u00e9e DLL25 de ma\u00efs tol\u00e9rant le glufosinate-ammonium, cr\u00e9\u00e9e par Dekalb Canada Inc."
    },
    "body": {
        "en": "        \r\n        \n<section class=\"alert alert-info\">\r\n<h2 class=\"h3\">This page is part of the Guidance Document Repository (GDR).</h2>\r\n<p>\r\n<br>\r\n<a href=\"/industry-guidance/eng/1374161650885/1374161737236?gp=3&amp;gc=25&amp;ga=4#gdr_results\" class=\"alert-link\">\r\n            Search for related documents in the Guidance Document Repository\r\n</a>\r\n</p>\r\n</section><p class=\"text-center\"><strong><a href=\"/plant-varieties/plants-with-novel-traits/approved-under-review/decision-documents/dd1996-15/dd1996-15-supplement-/eng/1303872944396/1304976352690\">Supplement to Decision Document DD96-15</a></strong></p>\n<p class=\"text-right small\">Issued: 1996-10</p>\n<p>This Decision Document has been prepared to explain the regulatory decision reached under the guidelines <a href=\"/eng/1304475469806/1304475550733\">Dir94-08</a> <i>Assessment Criteria for Determining Environmental Safety of Plants with Novel Traits</i> and its companion document <a href=\"/plant-varieties/plants-with-novel-traits/applicants/directive-94-08/biology-documents/zea-mays-l-maize-/eng/1330985739405/1330985818367\">Dir94-11</a> <i>The Biology of <span lang=\"la\">Zea mays</span> <abbr title=\"Linnaeus\">L.</abbr>(Corn/Maize)</i>.</p>\n<p>The Canadian Food Inspection Agency (CFIA), specifically the Plant Biosafety Office of the Plant Health and Production Division, has evaluated information submitted by Dekalb Canada <abbr title=\"Incorporated\">Inc.</abbr> regarding the glufosinate ammonium-tolerant corn line DLL25 and derived corn hybrids. They have determined that these plants with novel traits do not present altered environmental interactions when compared to currently commercialized corn varieties.</p>\n<p><strong>Unconfined release into the environment of DLL25 is therefore authorized. Any other <i lang=\"la\">Zea mays</i> lines and intra-specific hybrids resulting from the same transformation event, or transformed with the same genetic construct, and all their descendants, may also be released, provided no inter-specific crosses are performed, provided the intended use is similar, provided it is known following thorough characterization that these plants do not display any additional novel traits and that the resulting lines are substantially equivalent to currently grown corn, in terms of their potential environmental impact.</strong></p>\n<p>Please note that, while determining the environmental safety of plants with novel traits is a critical step in the commercialization of these plant types, other requirements still need to be addressed, such as for Variety Registration (CFIA) and for the evaluation of feed (<abbr title=\"Canadian Food Inspection Agency\">CFIA</abbr>) and food safety (Health Canada).</p>\n\n<h2>Table of Contents</h2>\n<ol class=\"lst-upr-rmn\">\n<li><a href=\"#a1\">Brief Identification of the Plant with Novel Traits (PNT)</a></li>\n<li><a href=\"#a2\">Background Information</a></li>\n<li><a href=\"#a3\">Description of the Novel Trait</a> <ol>\n<li><a href=\"#a4\">Glufosinate Ammonium Tolerance</a></li>\n<li><a href=\"#a5\">Development Method</a></li>\n<li><a href=\"#a6\">Stable Integration into the Plant's Genome</a></li>\n</ol></li>\n<li><a href=\"#a7\">Assessment Criteria for Environmental Safety</a> <ol>\n<li><a href=\"#a8\">Potential of the <abbr title=\"plant with novel trait\">PNT</abbr> to Become a Weed of Agriculture or to Be Invasive of Natural Habitats</a></li>\n<li><a href=\"#a9\">Potential for Gene Flow to Relatives Whose Hybrid Offspring May Become More Weedy or More Invasive</a></li>\n<li><a href=\"#a10\">Altered Plant Pest Potential</a></li>\n<li><a href=\"#a11\">Potential Impact on Non-Target Organisms</a></li>\n<li><a href=\"#a12\">Potential Impact on Biodiversity</a></li>\n</ol></li>\n<li><a href=\"#a13\">Regulatory Decision</a></li>\n</ol> \n\n<h2 id=\"a1\"><abbr title=\"1\">I.</abbr> Brief Identification of the Plant With Novel Traits (PNT)</h2>\n<p><strong><i>Designation(s) of the <abbr title=\"plant with novel trait\">PNT</abbr>:</i></strong> DLL25</p>\n<p><strong><i>Applicant:</i></strong> Dekalb Canada <abbr title=\"Incorporated\">Inc.</abbr></p>\n<p><strong><i>Plant Species:</i></strong> Corn (<i lang=\"la\">Zea mays</i> <abbr title=\"Linnaeus\">L.</abbr>)</p>\n<p><strong><i>Novel Traits:</i></strong> Glufosinate ammonium (herbicide) tolerance</p>\n<p><strong><i>Trait Introduction Method:</i></strong> Microprojectile bombardment</p>\n<p><strong><i>Proposed Use of <abbr title=\"plant with novel trait\">PNT</abbr>'s:</i></strong> Cultivation as hybrid grain corn for livestock feed and human consumption. These materials will not be grown outside the usual production area for corn in Canada.</p>\n<h2 id=\"a2\"><abbr title=\"2\">II.</abbr> Background Information</h2>\n<p>Dekalb Genetics <abbr title=\"Company\">Co.</abbr> has developed a corn line tolerant to glufosinate ammonium, a broad spectrum non-residual herbicide. This <i lang=\"la\"><abbr title=\"Zea\">Z.</abbr> mays</i> line, referred to as DLL25 in the present document, will allow the use of glufosinate ammonium as a post-emergence herbicide, thus providing an alternative for weed control in corn production, and reducing reliance on soil-incorporated herbicides.</p>\n<p>The development of DLL25 was based on recombinant <abbr title=\"Deoxyribonucleic Acid\">DNA</abbr> technology, by the introduction of a bacterial gene into a line of <i lang=\"la\"><abbr title=\"Zea\">Z.</abbr> mays</i>. This gene codes for phosphinothricin acetyltransferase, an enzyme that inactivates glufosinate ammonium through acetylation, thus conferring tolerance to glufosinate ammonium.</p>\n<p>DLL25 has been field tested under confined conditions in 1994, 1995 and 1996, in the Canadian province of Ontario.</p>\n<p>Dekalb Canada <abbr title=\"Incorporated\">Inc.</abbr> has provided data on the identity of DLL25, a detailed description of the modification method and the isolation of transformants, data and information on donor organisms, the genes and regulatory sequences, inserted sequences and the insertion site, the role of the inserted gene and of regulatory sequences in donor organisms, their molecular characterization, and full nucleotide sequences. The novel protein was identified and characterized, including its mode of action, its levels of expression in various tissues, potential effects on plant pathways, toxicity to non-target organisms and allergenicity.</p>\n<p>The following agronomic characteristics were compared to those of unmodified <i lang=\"la\"><abbr title=\"Zea\">Z.</abbr> mays</i> counterparts: test weight, dropped ears, stalk lodging, barrenness, stay green, seedling vigor, plant height, ear height, growing day units to 50% pollen shed, growing degree day units to 50% silk emergence, silk delay, green snap, maturity, yield, grain moisture, disease and insect susceptibilities.</p>\n<p>The Canadian Food Inspection Agency (CFIA) has reviewed the above information, in light of the assessment criteria for determining environmental safety of plants with novel traits, as described in the regulatory directive <a href=\"/eng/1304475469806/1304475550733\">Dir94-08</a>:</p>\n<ul>\n<li>potential of the <abbr title=\"plant with novel trait\">PNT</abbr> to become a weed of agriculture or to be invasive of natural habitats,</li>\n<li>potential for gene-flow to wild relatives whose hybrid offspring may become more weedy or more invasive,</li>\n<li>potential for the <abbr title=\"plant with novel trait\">PNT</abbr> to become a plant pest,</li>\n<li>potential impact of the <abbr title=\"plant with novel trait\">PNT</abbr> or its gene products on non-target species, including humans, and</li>\n<li>potential impact on biodiversity.</li>\n</ul>\n<h2 id=\"a3\"><abbr title=\"3\">III.</abbr> Description of the Novel Trait</h2>\n<h2 id=\"a4\">1. Glufosinate Ammonium Tolerance</h2>\n<ul>\n<li>Phosphinothricin (L-PPT), the active ingredient of glufosinate ammonium, inhibits glutamine synthetase, which results in the accumulation of lethal levels of ammonia in susceptible plants within hours of application.</li>\n<li>The phosphinothricin tolerance gene engineered into DLL25 codes for <abbr title=\"Phosphinothricin\">PPT</abbr>-acetyltransferase (PAT). This enzyme detoxifies phosphinothricin by acetylation into an inactive compound. It has extremely high substrate specificity.</li>\n<li>The <abbr title=\"Phosphinothricin-acetyltransferase\">PAT</abbr> gene was originally isolated from <i lang=\"la\">Streptomyces hygroscopicus</i>, an aerobic soil actinomycete. The gene was slightly modified to conform with plant codon usage, which did not result in any modification to the expressed protein. The <abbr title=\"Phosphinothricin-acetyltransferase\">PAT</abbr> enzyme is naturally occurring in the soil. More generally, acetyltransferases are ubiquitous in nature.</li>\n<li>The gene is linked to a well characterized constitutive promoter. Expression levels were quantified in leaves, roots, stalk, tassel, cob, husk, kernels, silk and pollen. Highest levels were found in leaves (1.0 - 4.6 <abbr title=\"milligrams\">mg</abbr>/<abbr title=\"gram\">g</abbr> of proteins (<abbr title=\"fresh weight\">f.w.</abbr>), corresponding to 0.1 - 0.46% of total soluble protein), and no <abbr title=\"Phosphinothricin-acetyltransferase\">PAT</abbr> was detected in either silks, pollen or mature seeds.</li>\n<li>Studies showed that the enzyme was heat and <abbr title=\"potential hydrogen\">pH</abbr> labile, and was inactivated within one minute when subjected to typical mammalian stomach and intestinal conditions.</li>\n<li>The gene nucleotide sequence and the enzyme amino acid sequence were provided. The nucleotide sequence showed no significant homology to toxins or allergens entered in the GenBank <abbr title=\"Deoxyribonucleic Acid\">DNA</abbr> database.</li>\n</ul>\n<h2 id=\"a5\">2. Development Method</h2>\n<ul>\n<li>The <i lang=\"la\">Zea mays</i> genotype A188xB73, a cross between two publicly available inbred lines, was transformed through microprojectile bombardment of embryogenic cell cultures.</li>\n<li>The original transformant was then crossed with Dekalb's elite inbred lines.</li>\n</ul>\n<h2 id=\"a6\">3. Stable Integration into the Plant's Genome</h2>\n<ul>\n<li>The provided data showed that gene integration occurred at only one insertion site. The insertion site was very well characterized.</li>\n<li>An antibiotic resistance marker, driven by a bacterial promoter, was used for selection in bacteria. Although this gene was partially integrated into the plant's genome, it is not expressed and the plant is not resistant to the antibiotic.</li>\n<li>The novel gene was stably inherited over twelve generations.</li>\n</ul>\n<h2 id=\"a7\"><abbr title=\"4\">IV.</abbr> Assessment Criteria for Environmental Safety</h2>\n<h2 id=\"a8\">1. Potential of the <abbr title=\"plant with novel trait\">PNT</abbr> to Become a Weed of Agriculture or to Be Invasive of Natural Habitats</h2>\n<p><abbr title=\"Canadian Food Inspection Agency\">CFIA</abbr> evaluated data submitted by Dekalb Canada <abbr title=\"Incorporated\">Inc.</abbr> on the reproductive and survival biology of DLL25-derived corn hybrids, and determined that vegetative vigor, flowering period, time to maturity, seed production, and disease and insect susceptibilities were within the normal range of expression of characteristics in unmodified <i lang=\"la\"><abbr title=\"Zea\">Z.</abbr> mays</i> counterparts. DLL25 has no specific added genes for cold tolerance or winter hibernation. Based on the molecular characterization of the plants and their agronomic performance, <abbr title=\"Canadian Food Inspection Agency\">CFIA</abbr> concurs with Dekalb that there is no reason to believe that line DLL25 would behave differently than corn counterparts in its interactions with the environment.</p>\n<p>The biology of corn (<i lang=\"la\">Zea mays</i>), described in <a href=\"/plant-varieties/plants-with-novel-traits/applicants/directive-94-08/biology-documents/zea-mays-l-maize-/eng/1330985739405/1330985818367\">Dir94-11</a>, shows that unmodified plants of this species are not invasive of unmanaged habitats in Canada. Corn does not possess the potential to become weedy due to traits such as lack of seed dormancy, the non-shattering aspect of corn cobs, and poor competitive ability of seedlings.</p>\n<p>According to the information provided by Dekalb, DLL25 was determined not to be different from its counterpart in this respect. No competitive advantage was conferred to glufosinate ammonium-tolerant plants, other than tolerance to glufosinate ammonium. Tolerance to this herbicide will not, in itself, render corn weedy or invasive of natural habitats since none of the reproductive or growth characteristics were modified. Tolerance to glufosinate ammonium will not render corn weedy, since this herbicide is not presently used in crop rotation cycles involving corn. Glufosinate ammonium tolerant corn volunteer plants can easily be managed by mechanical means or by the use of other available herbicides.</p>\n<p><strong>NOTE:</strong> A longer term concern, if there is general adoption of several different crop and specific herbicide weed management systems, is the potential development of crop volunteers with a combination of novel resistances to different herbicides. This could result in the loss of the use of these herbicides and any of their potential benefits. Some canola (<i lang=\"la\">Brassica napus</i>) varieties modified to express glufosinate ammonium tolerance are now registered in Canada. Should glufosinate ammonium tolerant corn and canola be grown in rotation, volunteers would not be controlled with this herbicide. Agricultural extension personnel, in both the private and public sectors, should therefore promote careful management practices for growers who use any of these herbicide tolerant crops.</p>\n<p>The above considerations, together with the fact that the novel trait has no intended effect on weediness or invasiveness, led <abbr title=\"Canadian Food Inspection Agency\">CFIA</abbr> to conclude that DLL25 has no altered weed or invasiveness potential compared to currently commercialized corn varieties.</p>\n<h2 id=\"a9\">2. Potential for Gene Flow to Wild Relatives Whose Hybrid Offspring May Become More Weedy or More Invasive</h2>\n<p>The biology of corn, as described in <a href=\"/plant-varieties/plants-with-novel-traits/applicants/directive-94-08/biology-documents/zea-mays-l-maize-/eng/1330985739405/1330985818367\">Dir94-11</a>, indicates that there are no wild relatives in Canada that can hybridize with <i lang=\"la\">Zea mays</i>.</p>\n<p><abbr title=\"Canadian Food Inspection Agency\">CFIA</abbr> therefore concludes that gene flow from DLL25 to corn relatives will not occur in Canada.</p>\n<h2 id=\"a10\">3. Altered Plant Pest Potential</h2>\n<p>The intended effect of the novel trait is unrelated to plant pest potential, and corn is not a plant pest in Canada (<a href=\"/plant-varieties/plants-with-novel-traits/applicants/directive-94-08/biology-documents/zea-mays-l-maize-/eng/1330985739405/1330985818367\">Dir94-11</a>). In addition, agronomic characteristics of the DLL25-derived corn hybrids were shown to be within the range of values displayed by currently commercialized corn hybrids, and indicate that the growing habit of corn was not inadvertently altered.</p>\n<p><abbr title=\"Canadian Food Inspection Agency\">CFIA</abbr> has therefore determined that DLL25 does not display any altered pest potential.</p>\n<h2 id=\"a11\">4. Potential Impact on Non-Target Organisms</h2>\n<p>The <abbr title=\"Phosphinothricin-acetyltransferase\">PAT</abbr> enzyme is rapidly inactivated in mammalian stomach and intestinal fluids by enzymatic degradation and <abbr title=\"potential hydrogen\">pH</abbr>-mediated proteolysis; it does not possess proteolytic or heat stability. A search of the GenBank <abbr title=\"Deoxyribonucleic Acid\">DNA</abbr> sequence database revealed no significant homology with the known toxins or allergens entered in that database.</p>\n<p>Based on the above, and on the agronomic properties of DLL25-derived corn hybrids, <abbr title=\"Canadian Food Inspection Agency\">CFIA</abbr> has determined that the unconfined release of this line will not result in altered impacts on interacting organisms, including humans, compared with currently commercialized counterparts.</p>\n<h2 id=\"a12\">5. Potential Impact on Biodiversity</h2>\n<p>DLL25 has no novel phenotypic characteristics which would extend its use beyond the current geographic range of corn production in Canada. Since corn does not outcross to wild relatives in Canada, there will be no transfer of novel traits to unmanaged environments.</p>\n<p><abbr title=\"Canadian Food Inspection Agency\">CFIA</abbr> has therefore concluded that the potential impact on biodiversity of this corn line is equivalent to that of currently commercialized corn varieties.</p>\n<h2 id=\"a13\"><abbr title=\"5\">V.</abbr> Regulatory Decision</h2>\n<p>Based on the review of data and information submitted by Dekalb Canada <abbr title=\"Incorporated\">Inc.</abbr>, <abbr title=\"Canadian Food Inspection Agency\">CFIA</abbr> has concluded that neither the novel gene, nor its resulting gene product and associated novel trait, confer any intended or unintended ecological advantage to DLL25.</p>\n<p>If at any time, Dekalb Canada <abbr title=\"Incorporated\">Inc.</abbr> becomes aware of any information regarding risk to the environment, or risk to animal or human health, that could result from release of these materials in Canada, or elsewhere, Dekalb Canada <abbr title=\"Incorporated\">Inc.</abbr> must immediately provide such information to <abbr title=\"Canadian Food Inspection Agency\">CFIA</abbr>. On the basis of such new information, <abbr title=\"Canadian Food Inspection Agency\">CFIA</abbr> may re-evaluate the potential impact of the release and re-evaluate its decision.</p>\n<p><strong>Unconfined release into the environment of DLL25 is therefore authorized. Any other <i lang=\"la\">Zea mays</i> lines and intra-specific hybrids resulting from the same transformation event, or transformed with the same genetic construct, and all their descendants, may also be released, provided no inter-specific crosses are performed, provided the intended use is similar, provided it is known following thorough characterization that these plants do not display any additional novel traits and that the resulting lines are substantially equivalent to currently grown corn, in terms of their potential environmental impact.</strong></p>\r\n        \r\n\r\n\r\n\r\n<div class=\"row\">\r\n \r\n\t\r\n\t\t\t\r\n\r\n<div class=\"col-xm-12 pagedetails container\">\r\n\t\t\t\t\r\n\r\n</div>\r\n\t\r\n</div>",
        "fr": "\r\n        \r\n        \n<section class=\"alert alert-info\">\r\n<h2 class=\"h3\">Cette page fait partie du r\u00e9pertoire des documents d'orientation (RDO).</h2>\r\n<p>\r\n<br>\r\n<a href=\"/orientation-pour-l-industrie/fra/1374161650885/1374161737236?gp=3&amp;gc=25&amp;ga=4#gdr_results\" class=\"alert-link\">\r\n            Recherche de documents connexes dans le r\u00e9pertoire des documents d'orientation.\r\n</a>\r\n</p>\r\n</section><p class=\"text-center\"><strong><a href=\"/varietes-vegetales/vegetaux-a-caracteres-nouveaux/approuves-cours-d-evaluation/documents-des-decisions/dd1996-15/dd1996-15-supplement-/fra/1303872944396/1304976352690\">Suppl\u00e9ment au Document de D\u00e9cisions DD96-15</a></strong></p>\n<p class=\"text-right small\">Distribu\u00e9\u00a0: 1996-10</p>\n<p>Le pr\u00e9sent document vise \u00e0 expliquer la d\u00e9cision r\u00e9glementaire prise conform\u00e9ment \u00e0 la directive <a href=\"/fra/1304475469806/1304475550733\">Dir94-08,</a> <i>Crit\u00e8res d'\u00e9valuation du risque environnemental associ\u00e9 aux v\u00e9g\u00e9taux \u00e0 caract\u00e8res nouveaux</i>, et au cahier parall\u00e8le <a href=\"/varietes-vegetales/vegetaux-a-caracteres-nouveaux/demandeurs/directive-94-08/documents-sur-la-biologie/zea-mays-l-mais-/fra/1330985739405/1330985818367\">Dir94-11,</a> <i>La biologie du Zea mays <abbr title=\"Linnaeus\">L.</abbr>(ma\u00efs)</i>.</p>\n<p>L'Agence canadienne d'inspection des aliments (ACIA), et plus pr\u00e9cis\u00e9ment le Bureau de biotechnologie v\u00e9g\u00e9tale de la Division des produits v\u00e9g\u00e9taux, avec la participation de l'Unit\u00e9 d'\u00e9valuation des risques phytosanitaires, a \u00e9valu\u00e9 les donn\u00e9es pr\u00e9sent\u00e9es par la soci\u00e9t\u00e9 Dekalb Canada <abbr title=\"Incorpor\u00e9\">Inc.</abbr> \u00e0 l'\u00e9gard de la lign\u00e9e DLL25 de ma\u00efs tol\u00e9rant le glufosinate-ammonium ainsi que des hybrides qui en d\u00e9rivent. <abbr title=\"Agence canadienne d'inspection des aliments\">ACIA</abbr> a ainsi \u00e9tabli que ces v\u00e9g\u00e9taux \u00e0 caract\u00e8re nouveau ne pr\u00e9sentent aucune interaction environnementale modifi\u00e9e par rapport aux vari\u00e9t\u00e9s de ma\u00efs d\u00e9j\u00e0 commercialis\u00e9es.</p>\n<p><strong>La diss\u00e9mination en milieu ouvert du ma\u00efs DLL25 est par cons\u00e9quent autoris\u00e9e. Toute autre lign\u00e9e et tout hybride intrasp\u00e9cifique de <i lang=\"la\">Zea mays</i> qui seraient issus de la m\u00eame transformation ou transform\u00e9s avec la m\u00eame construction g\u00e9n\u00e9tique, ainsi que tous leurs descendants, peuvent \u00e9galement \u00eatre diss\u00e9min\u00e9s, pourvu qu'aucun croisement intersp\u00e9cifique ne soit r\u00e9alis\u00e9, que l'utilisation pr\u00e9vue soit semblable et qu'une caract\u00e9risation approfondie d\u00e9montre que ces v\u00e9g\u00e9taux ne pr\u00e9sentent aucun autre caract\u00e8re nouveau et que les lign\u00e9es qui en r\u00e9sultent sont essentiellement \u00e9quivalentes aux vari\u00e9t\u00e9s de ma\u00efs d\u00e9j\u00e0 cultiv\u00e9es, quant \u00e0 leur impact possible sur l'environnement.</strong></p>\n<p>Cependant, m\u00eame si la d\u00e9termination du risque environnemental associ\u00e9 \u00e0 un v\u00e9g\u00e9tal \u00e0 caract\u00e8re nouveau constitue une \u00e9tape critique de sa commercialisation, d'autres exigences doivent encore \u00eatre satisfaites, dont l'enregistrement de la vari\u00e9t\u00e9 (<abbr title=\"Agence canadienne d'inspection des aliments\">ACIA</abbr>) ainsi que l'\u00e9valuation de sa s\u00e9curit\u00e9 pour l'alimentation du b\u00e9tail (<abbr title=\"Agence canadienne d'inspection des aliments\">ACIA</abbr>) et l'alimentation humaine (Sant\u00e9 Canada).</p>\n\n<h2>Table des mati\u00e8res</h2>\n<ol class=\"lst-upr-rmn\">\n<li><a href=\"#a1\">Br\u00e8ve identification du v\u00e9g\u00e9tal \u00e0 caract\u00e8re nouveau (VCN)</a></li>\n<li><a href=\"#a2\">Donn\u00e9es de base</a></li>\n<li><a href=\"#a3\">Description du caract\u00e8re nouveau</a> <ol>\n<li><a href=\"#a4\">Tol\u00e9rance au glufosinate-ammonium</a></li>\n<li><a href=\"#a5\">M\u00e9thode de mise au point</a></li>\n<li><a href=\"#a6\">Stabilit\u00e9 de l'int\u00e9gration au g\u00e9nome de la plante</a></li>\n</ol></li>\n<li><a href=\"#a7\">Crit\u00e8res d'\u00e9valuation du risque environnemental</a> <ol>\n<li><a href=\"#a8\">Possibilit\u00e9 que le <abbr title=\"v\u00e9g\u00e9taux \u00e0 caract\u00e8res nouveaux\">VCN</abbr> se comporte comme une mauvaise herbe pour l'agriculture ou envahisse les milieux naturels</a></li>\n<li><a href=\"#a9\">Possibilit\u00e9 de flux g\u00e9n\u00e9tique vers des esp\u00e8ces sauvages apparent\u00e9es risquant de produire des hybrides se comportant comme des mauvaises herbes ou poss\u00e9dant une plus grande capacit\u00e9 d'envahissement</a></li>\n<li><a href=\"#a10\">Possibilit\u00e9 que le <abbr title=\"v\u00e9g\u00e9taux \u00e0 caract\u00e8res nouveaux\">VCN</abbr> devienne nuisible</a></li>\n<li><a href=\"#a11\">Impact possible sur les organismes non vis\u00e9s</a></li>\n<li><a href=\"#a12\">Impact possible sur la biodiversit\u00e9</a></li>\n</ol></li>\n<li><a href=\"#a13\">D\u00e9cision r\u00e9glementaire</a></li>\n</ol> \n\n<h2 id=\"a1\"><abbr title=\"1\">I.</abbr> Br\u00e8ve identification du v\u00e9g\u00e9tal \u00e0 caract\u00e8re nouveau (VCN)</h2>\n<p><strong><i>D\u00e9signation des <abbr title=\"v\u00e9g\u00e9taux \u00e0 caract\u00e8res nouveaux\">VCN</abbr>\u00a0:</i></strong> DLL25</p>\n<p><strong><i>Demandeur\u00a0:</i></strong> Dekalb Canada <abbr title=\"Incorpor\u00e9\">Inc.</abbr></p>\n<p><strong><i>Esp\u00e8ce v\u00e9g\u00e9tale\u00a0:</i></strong> Ma\u00efs (<i lang=\"la\">Zea mays</i> <abbr title=\"Linnaeus\">L.</abbr>)</p>\n<p><strong><i>Caract\u00e8res nouveaux\u00a0:</i></strong> Tol\u00e9rance au glufosinate-ammonium (herbicide)</p>\n<p><strong><i>M\u00e9thode d'introduction des caract\u00e8res\u00a0:</i></strong> Bombardement au moyen de microprojectiles</p>\n<p><strong><i>Utilisation propos\u00e9e des <abbr title=\"v\u00e9g\u00e9taux \u00e0 caract\u00e8res nouveaux\">VCN</abbr>\u00a0:</i></strong> Culture \u00e0 titre de ma\u00efs hybride pour l'alimentation du b\u00e9tail et la consommation humaine; la plante ne sera pas cultiv\u00e9e \u00e0 l'ext\u00e9rieur des zones ma\u00efsicoles actuelles du Canada.</p>\n<h2 id=\"a2\"><abbr title=\"2\">II.</abbr> Donn\u00e9es de base</h2>\n<p>La soci\u00e9t\u00e9 <span lang=\"en\">Dekalb Genetics <abbr title=\"Company\">Co.</abbr></span> a mis au point une lign\u00e9e de ma\u00efs (<i lang=\"la\">Zea mays</i>) tol\u00e9rant un herbicide non r\u00e9siduel \u00e0 large spectre d'efficacit\u00e9, le glufosinate-ammonium. Cette lign\u00e9e de <i lang=\"la\">Zea mays</i>, appel\u00e9e DLL25 dans le pr\u00e9sent document, permettra d'utiliser le glufosinate-ammonium comme herbicide de postlev\u00e9e. Elle offrira ainsi une solution de rechange pour le d\u00e9sherbage du ma\u00efs, en r\u00e9duisant la d\u00e9pendance de cette culture \u00e0 l'\u00e9gard des herbicides incorpor\u00e9s au sol.</p>\n<p>La mise au point de la lign\u00e9e DLL25 repose sur la technologie de l'<abbr title=\"Acide D\u00e9soxyribonucl\u00e9ique\">ADN</abbr> recombinant\u00a0: on a introduit un g\u00e8ne bact\u00e9rien dans une lign\u00e9e de <i lang=\"la\">Zea mays</i>. Ce g\u00e8ne code l'enzyme phosphinothricine ac\u00e9tyltransf\u00e9rase, qui inactive le glufosinate-ammonium par ac\u00e9tylation, ce qui conf\u00e8re \u00e0 la plante une tol\u00e9rance \u00e0 cet herbicide.</p>\n<p>La lign\u00e9e DLL25 a fait l'objet d'essais au champ en milieu ferm\u00e9 dans une province canadienne, l'Ontario, en 1994, 1995 et 1996.</p>\n<p>La soci\u00e9t\u00e9 Dekalb Canada <abbr title=\"Incorpor\u00e9\">Inc.</abbr> a fourni des donn\u00e9es sur l'identit\u00e9 de la lign\u00e9e DLL25, une description d\u00e9taill\u00e9e de la m\u00e9thode de modification et de l'isolation des transformants ainsi que des donn\u00e9es et des renseignements sur les organismes donneurs, sur les g\u00e8nes et les s\u00e9quences r\u00e9gulatrices vis\u00e9es, sur les s\u00e9quences ins\u00e9r\u00e9es et leur site d'insertion, sur le r\u00f4le du g\u00e8ne introduit et de ses s\u00e9quences r\u00e9gulatrices chez les organismes donneurs et sur leur caract\u00e9risation mol\u00e9culaire. Dekalb a \u00e9galement produit les s\u00e9quences nucl\u00e9otidiques compl\u00e8tes. La nouvelle prot\u00e9ine a \u00e9t\u00e9 identifi\u00e9e et caract\u00e9ris\u00e9e, notamment en ce qui concerne son mode d'activit\u00e9, son degr\u00e9 d'expression dans les divers tissus, ses effets possibles sur les voies m\u00e9taboliques de la plante, sa toxicit\u00e9 pour les organismes non vis\u00e9s et son pouvoir allerg\u00e8ne.</p>\n<p>Les caract\u00e9ristiques agronomiques suivantes ont \u00e9t\u00e9 compar\u00e9es \u00e0 celles des contreparties non modifi\u00e9es de <i>Zea mays</i>\u00a0: poids \u00e0 l'essai, chute pr\u00e9matur\u00e9e d'\u00e9pis, verse, pr\u00e9sence d'\u00e9pis sans grains, tenue en vert, vigueur des semis, hauteur des plants, hauteur des \u00e9pis, nombre de degr\u00e9s-jours de croissance jusqu'\u00e0 la lib\u00e9ration de 50 % du pollen, nombre de degr\u00e9s-jours de croissance jusqu'\u00e0 l'apparition de 50 % des soies, retard de l'apparition des soies, d\u00e9tachement en vert, pr\u00e9cocit\u00e9 de maturation, rendement, teneur en eau des grains, sensibilit\u00e9 aux insectes et aux maladies.</p>\n<p>L'Agence canadienne d'inspection des aliments (ACIA) a examin\u00e9 les renseignements susmentionn\u00e9s en fonction des crit\u00e8res suivants, \u00e9nonc\u00e9s dans la directive de r\u00e9glementation Dir94-08 sur l'\u00e9valuation du risque environnemental associ\u00e9 aux v\u00e9g\u00e9taux \u00e0 caract\u00e8res nouveaux\u00a0:</p>\n<ul>\n<li>possibilit\u00e9 que le <abbr title=\"v\u00e9g\u00e9taux \u00e0 caract\u00e8res nouveaux\">VCN</abbr> se comporte comme une mauvaise herbe pour l'agriculture ou envahisse les milieux naturels;</li>\n<li>possibilit\u00e9 de flux g\u00e9n\u00e9tique vers des esp\u00e8ces sauvages apparent\u00e9es risquant de produire des hybrides se comportant comme des mauvaises herbes ou poss\u00e9dant une plus grande capacit\u00e9 d'envahissement;</li>\n<li>possibilit\u00e9 que le <abbr title=\"v\u00e9g\u00e9taux \u00e0 caract\u00e8res nouveaux\">VCN</abbr> devienne nuisible;</li>\n<li>impact possible du <abbr title=\"v\u00e9g\u00e9taux \u00e0 caract\u00e8res nouveaux\">VCN</abbr> ou de ses produits g\u00e9niques sur des esp\u00e8ces non vis\u00e9es, y compris l'\u00eatre humain;</li>\n<li>impact possible sur la biodiversit\u00e9.</li>\n</ul>\n<h2 id=\"a3\"><abbr title=\"3\">III.</abbr> Description du caract\u00e8re nouveau</h2>\n<h2 id=\"a4\">1. Tol\u00e9rance au glufosinate-ammonium</h2>\n<ul>\n<li>L'ingr\u00e9dient actif du glufosinate-ammonium, la phosphinothricine (L-<abbr title=\"phosphinothricine\">PPT</abbr>), inhibe la glutamine synth\u00e9tase, ce qui provoque l'accumulation de concentrations l\u00e9tales d'ammoniaque chez les plantes sensibles dans les quelques heures suivant l'application de l'herbicide.</li>\n<li>Le g\u00e8ne de la tol\u00e9rance \u00e0 la phosphinothricine ins\u00e9r\u00e9 dans le g\u00e9nome de la lign\u00e9e DLL25 code la phosphinothricine ac\u00e9tyltransf\u00e9rase (PAT). Cette enzyme d\u00e9toxifie la phosphinothricine par ac\u00e9tylation et en fait un compos\u00e9 inactif. Elle pr\u00e9sente \u00e0 l'\u00e9gard du substrat une sp\u00e9cificit\u00e9 extr\u00eamement \u00e9lev\u00e9e.</li>\n<li>Le g\u00e8ne codant la <abbr title=\"phosphinothricine ac\u00e9tyltransf\u00e9rase\">PAT</abbr> a \u00e9t\u00e9 d'abord isol\u00e9 chez un actinomyc\u00e8te a\u00e9robie du sol, le <i lang=\"la\">Streptomyces hygroscopicus</i>. Le g\u00e8ne a \u00e9t\u00e9 l\u00e9g\u00e8rement modifi\u00e9, en fonction de la mani\u00e8re dont la plante utilise le codon, mais cela n'a entra\u00een\u00e9 aucune modification de la prot\u00e9ine produite. L'enzyme est pr\u00e9sente \u00e0 l'\u00e9tat naturel dans le sol. De mani\u00e8re g\u00e9n\u00e9rale, les ac\u00e9tyltransf\u00e9rases sont omnipr\u00e9sentes dans la nature.</li>\n<li>Le g\u00e8ne est li\u00e9 \u00e0 un promoteur constitutif bien caract\u00e9ris\u00e9. Son expression dans les feuilles, les racines, la tige, la panicule, l'\u00e9pi, la spathe, les grains, les soies et le pollen a \u00e9t\u00e9 quantifi\u00e9e. La plus grande concentration d'enzyme a \u00e9t\u00e9 observ\u00e9e dans les feuilles\u00a0: 1,0 \u00e0 4,6 mg/g de poids frais, soit 0,1 \u00e0 0,46 % du poids total de prot\u00e9ines solubles. Aucune <abbr title=\"phosphinothricine ac\u00e9tyltransf\u00e9rase\">PAT</abbr> n'a \u00e9t\u00e9 d\u00e9tect\u00e9e dans les soies, dans le pollen, ni dans les grains m\u00fbrs.</li>\n<li>Des \u00e9tudes ont r\u00e9v\u00e9l\u00e9 que l'enzyme est instable lorsqu'expos\u00e9e \u00e0 la chaleur ou \u00e0 une baisse de pH. Elle devient inactive en une minute lorsqu'elle est soumise aux conditions qui r\u00e8gnent normalement dans l'estomac et l'intestin des mammif\u00e8res.</li>\n<li>La s\u00e9quence nucl\u00e9otidique du g\u00e8ne et la s\u00e9quence des acides amin\u00e9s de l'enzyme ont \u00e9t\u00e9 fournies. La s\u00e9quence nucl\u00e9otidique ne pr\u00e9sentait aucune homologie appr\u00e9ciable avec les toxines et les allerg\u00e8nes dont la s\u00e9quence d'<abbr title=\"Acide D\u00e9soxyribonucl\u00e9ique\">ADN</abbr> est r\u00e9pertori\u00e9e dans la base de donn\u00e9es <span lang=\"en\">GenBank</span>.</li>\n</ul>\n<h2 id=\"a5\">2. M\u00e9thode de mise au point</h2>\n<ul>\n<li>Le g\u00e9notype A188xB73, croisement entre deux lign\u00e9es autof\u00e9cond\u00e9es de <i lang=\"la\">Zea mays</i> disponibles sur le march\u00e9, a \u00e9t\u00e9 transform\u00e9 par bombardement de cultures de cellules embryog\u00e8nes au moyen de microprojectiles.</li>\n<li>Le transformant initial a ensuite \u00e9t\u00e9 crois\u00e9 avec des lign\u00e9es autof\u00e9cond\u00e9es \u00e9lite de la soci\u00e9t\u00e9 Dekalb.</li>\n</ul>\n<h2 id=\"a6\">3. Stabilit\u00e9 de l'int\u00e9gration au g\u00e9nome de la plante</h2>\n<ul>\n<li>D'apr\u00e8s les donn\u00e9es fournies, l'insertion du g\u00e8ne s'est produite en un seul site. Ce site a tr\u00e8s bien \u00e9t\u00e9 caract\u00e9ris\u00e9.</li>\n<li>Un marqueur de la r\u00e9sistance \u00e0 un antibiotique, li\u00e9 \u00e0 un promoteur bact\u00e9rien, a \u00e9t\u00e9 utilis\u00e9 pour la s\u00e9lection des bact\u00e9ries. Bien que ce g\u00e8ne se soit partiellement int\u00e9gr\u00e9 au g\u00e9nome de la plante, il ne s'exprime pas, et la plante n'affiche aucune r\u00e9sistance \u00e0 l'antibiotique.</li>\n<li>Le g\u00e8ne nouveau s'est transmis de mani\u00e8re stable pendant douze g\u00e9n\u00e9rations.</li>\n</ul>\n<h2 id=\"a7\"><abbr title=\"4\">IV.</abbr> Crit\u00e8res d'\u00e9valuation du risque environnemental</h2>\n<h2 id=\"a8\">1. Possibilit\u00e9 que le <abbr title=\"v\u00e9g\u00e9taux \u00e0 caract\u00e8res nouveaux\">VCN</abbr> se comporte comme une mauvaise herbe pour l'agriculture ou envahisse les milieux naturels</h2>\n<p>L'Agence canadienne d'inspection des aliments a \u00e9valu\u00e9 les donn\u00e9es pr\u00e9sent\u00e9es par la soci\u00e9t\u00e9 Dekalb Canada <abbr title=\"Incorpor\u00e9\">Inc.</abbr> sur la biologie de reproduction et de survie des hybrides de ma\u00efs issus de la lign\u00e9e DLL25 et a conclu que la vigueur v\u00e9g\u00e9tative, la p\u00e9riode de floraison, la pr\u00e9cocit\u00e9 de maturation, la production de graines ainsi que la sensibilit\u00e9 aux insectes et aux maladies se situaient dans les limites normales de l'expression de ces caract\u00e8res chez les contreparties non modifi\u00e9es de <i lang=\"la\">Zea mays</i>. On n'a ajout\u00e9 \u00e0 la lign\u00e9e DLL25 aucun g\u00e8ne visant sp\u00e9cifiquement \u00e0 accro\u00eetre sa tol\u00e9rance au froid ou sa capacit\u00e9 de survie hivernale. \u00c9tant donn\u00e9 la caract\u00e9risation mol\u00e9culaire des v\u00e9g\u00e9taux et leur rendement agronomique, <abbr title=\"Agence canadienne d'inspection des aliments\">ACIA</abbr> convient avec Dekalb qu'il n'existe aucune raison de croire que la lign\u00e9e DLL25 aurait avec l'environnement des interactions diff\u00e9rentes de celles des contreparties de ma\u00efs non modifi\u00e9es.</p>\n<p>La biologie du <i lang=\"la\">Zea mays</i>, d\u00e9crite dans le document Dir94-11, montre que les plants non modifi\u00e9s de cette esp\u00e8ce n'envahissent pas les milieux naturels au Canada. En effet, le ma\u00efs ne risque pas de se comporter en mauvaise herbe, en raison de caract\u00e8res comme l'ind\u00e9hiscence de l'\u00e9pi, l'absence de dormance chez la graine et la capacit\u00e9 comp\u00e9titive m\u00e9diocre de la plantule. Or, d'apr\u00e8s l'information fournie par la soci\u00e9t\u00e9 Dekalb, on peut conclure que la lign\u00e9e DLL25 ne diff\u00e8re pas de sa contrepartie sous ce rapport. Aucun avantage comp\u00e9titif n'a \u00e9t\u00e9 conf\u00e9r\u00e9 aux sujets tol\u00e9rant le glufosinate-ammonium, outre cette tol\u00e9rance. Or, celle-ci ne peut en elle-m\u00eame faire que la plante se comporte en mauvaise herbe ou envahisse les milieux naturels, puisqu'aucun caract\u00e8re ayant trait \u00e0 la reproduction ou \u00e0 la croissance n'a \u00e9t\u00e9 modifi\u00e9. De plus, comme le glufosinate-ammonium n'est pas employ\u00e9 dans les cycles normaux de rotation, la tol\u00e9rance \u00e0 cet herbicide ne rendra pas le ma\u00efs nuisible aux autres cultures. D'ailleurs, les plants spontan\u00e9s de ma\u00efs tol\u00e9rant le glufosinate-ammonium sont faciles \u00e0 contr\u00f4ler par des m\u00e9thodes m\u00e9caniques ou au moyen d'autres herbicides disponibles.</p>\n<p><strong>REMARQUE</strong>\u00a0: Comme pr\u00e9occupation \u00e0 plus long terme, il faut citer, en cas d'adoption g\u00e9n\u00e9ralis\u00e9e de plusieurs syst\u00e8mes diff\u00e9rents de culture et de lutte contre les mauvaises herbes \u00e0 l'aide d'herbicides sp\u00e9cifiques, l'apparition \u00e9ventuelle de plants spontan\u00e9s pr\u00e9sentant des r\u00e9sistances nouvelles \u00e0 plusieurs herbicides. Ce ph\u00e9nom\u00e8ne pourrait compromettre l'utilit\u00e9 actuelle et les avantages potentiels de ces herbicides. Certaines vari\u00e9t\u00e9s de canola (<i lang=\"la\">Brassica napus</i>) ayant subi une modification leur conf\u00e9rant une tol\u00e9rance au glufosinate-ammonium sont d\u00e9j\u00e0 enregistr\u00e9es au Canada. Si des vari\u00e9t\u00e9s de canola et de ma\u00efs tol\u00e9rant le glufosinate-ammonium \u00e9taient cultiv\u00e9es en rotation, les plants spontan\u00e9s de ces esp\u00e8ces ne pourraient \u00eatre d\u00e9truits au moyen de cet herbicide. Le personnel de vulgarisation agricole des secteurs public et priv\u00e9 doit donc promouvoir des pratiques de gestion prudentes aupr\u00e8s des agriculteurs qui font appel \u00e0 l'une ou l'autre de ces cultures tol\u00e9rantes.</p>\n<p>\u00c0 la lumi\u00e8re de ces consid\u00e9rations et du fait que le caract\u00e8re nouveau n'a pas pour objet de rendre le ma\u00efs DLL25 nuisible ou envahissant, <abbr title=\"Agence canadienne d'inspection des aliments\">ACIA</abbr> conclut que ce <abbr title=\"v\u00e9g\u00e9taux \u00e0 caract\u00e8res nouveaux\">VCN</abbr> ne risque pas plus de se comporter en mauvaise herbe ou de devenir envahissant que les vari\u00e9t\u00e9s de ma\u00efs actuellement commercialis\u00e9es.</p>\n<h2 id=\"a9\">2. Possibilit\u00e9 de flux g\u00e9n\u00e9tique vers des esp\u00e8ces sauvages apparent\u00e9es risquant de produire des hybrides se comportant comme des mauvaises herbes ou poss\u00e9dant une plus grande capacit\u00e9 d'envahissement</h2>\n<p>Selon le document <a href=\"/varietes-vegetales/vegetaux-a-caracteres-nouveaux/demandeurs/directive-94-08/documents-sur-la-biologie/zea-mays-l-mais-/fra/1330985739405/1330985818367\">Dir94-11</a>, d\u00e9crivant la biologie du ma\u00efs, il n'existe au Canada aucune esp\u00e8ce sauvage apparent\u00e9e s'hybridant naturellement avec le <i lang=\"la\">Zea mays</i>.</p>\n<p>En cons\u00e9quence, <abbr title=\"Agence canadienne d'inspection des aliments\">ACIA</abbr> conclut qu'un flux g\u00e9n\u00e9tique depuis la lign\u00e9e DLL25 vers des esp\u00e8ces apparent\u00e9es ne peut se produire au Canada.</p>\n<h2 id=\"a10\">3. Possibilit\u00e9 que le <abbr title=\"v\u00e9g\u00e9taux \u00e0 caract\u00e8res nouveaux\">VCN</abbr> devienne nuisible</h2>\n<p>L'effet recherch\u00e9 au moyen du caract\u00e8re nouveau est sans rapport avec la capacit\u00e9 du <abbr title=\"v\u00e9g\u00e9taux \u00e0 caract\u00e8res nouveaux\">VCN</abbr> \u00e0 devenir une mauvaise herbe, et le <i lang=\"la\">Zea mays</i> n'est pas consid\u00e9r\u00e9 au Canada comme une esp\u00e8ce nuisible (<a href=\"/varietes-vegetales/vegetaux-a-caracteres-nouveaux/demandeurs/directive-94-08/documents-sur-la-biologie/zea-mays-l-mais-/fra/1330985739405/1330985818367\">Dir 94-11</a>). De plus, les caract\u00e9ristiques agronomiques des hybrides de ma\u00efs issus de la lign\u00e9e DLL25 se sont r\u00e9v\u00e9l\u00e9es conformes \u00e0 la gamme des valeurs observ\u00e9es chez les vari\u00e9t\u00e9s de <i lang=\"la\">Zea mays</i> actuellement commercialis\u00e9es. On peut donc conclure que le mode de croissance du ma\u00efs n'a pas \u00e9t\u00e9 modifi\u00e9 par inadvertance.</p>\n<p>Par cons\u00e9quent, <abbr title=\"Agence canadienne d'inspection des aliments\">ACIA</abbr> estime que la lign\u00e9e DLL25 ne pr\u00e9sente pas de risque accru de devenir un v\u00e9g\u00e9tal nuisible.</p>\n<h2 id=\"a11\">4. Impact possible sur les organismes non vis\u00e9s</h2>\n<p>L'enzyme <abbr title=\"phosphinothricine ac\u00e9tyltransf\u00e9rase\">PAT</abbr> est rapidement inactiv\u00e9e dans les sucs stomacaux et intestinaux des mammif\u00e8res sous l'effet de la d\u00e9gradation enzymatique et de la prot\u00e9olyse acide. Elle ne pr\u00e9sente aucune stabilit\u00e9 prot\u00e9olytique ou thermique. Une recherche parmi les s\u00e9quences d'<abbr title=\"Acide D\u00e9soxyribonucl\u00e9ique\">ADN</abbr> r\u00e9pertori\u00e9es dans la base de donn\u00e9es GenBank n'a r\u00e9v\u00e9l\u00e9 aucune homologie significative avec des toxines ou des allerg\u00e8nes connus.</p>\n<p>Compte tenu de ce qui pr\u00e9c\u00e8de et des propri\u00e9t\u00e9s agronomiques des hybrides de ma\u00efs issus de la lign\u00e9e DLL25, <abbr title=\"Agence canadienne d'inspection des aliments\">ACIA</abbr> conclut que la diss\u00e9mination de cette lign\u00e9e en milieu ouvert n'aurait pas sur les organismes ayant des interactions avec le <i lang=\"la\">Zea mays</i>, y compris l'\u00eatre humain, d'autres effets que ceux observ\u00e9s chez les contreparties d\u00e9j\u00e0 commercialis\u00e9es.</p>\n<h2 id=\"a12\">5. Impact possible sur la biodiversit\u00e9</h2>\n<p>La lign\u00e9e DLL25 ne poss\u00e8de aucun caract\u00e8re ph\u00e9notypique nouveau qui pourrait en \u00e9tendre l'utilisation au-del\u00e0 des zones ma\u00efsicoles canadiennes actuelles. Comme au Canada le ma\u00efs ne s'hybride avec aucune esp\u00e8ce sauvage apparent\u00e9e, aucun caract\u00e8re nouveau ne sera transf\u00e9r\u00e9 dans les milieux sauvages.</p>\n<p><abbr title=\"Agence canadienne d'inspection des aliments\">ACIA</abbr> conclut donc que l'effet possible de ces ma\u00efs sur la biodiversit\u00e9 est \u00e9quivalent \u00e0 celui des vari\u00e9t\u00e9s de ma\u00efs actuellement commercialis\u00e9es.</p>\n<h2 id=\"a13\"><abbr title=\"5\">V.</abbr> D\u00e9cision r\u00e9glementaire</h2>\n<p>Apr\u00e8s examen des donn\u00e9es et des renseignements pr\u00e9sent\u00e9s par Dekalb Canada <abbr title=\"Incorpor\u00e9\">Inc.</abbr>, <abbr title=\"Agence canadienne d'inspection des aliments\">ACIA</abbr> conclut que le g\u00e8ne nouveau, le produit g\u00e9nique qui en r\u00e9sulte et le caract\u00e8re nouveau qui y est associ\u00e9 ne conf\u00e8rent \u00e0 la lign\u00e9e DLL25 aucun avantage \u00e9cologique voulu ou non voulu.</p>\n<p>Si jamais la soci\u00e9t\u00e9 Dekalb Canada <abbr title=\"Incorpor\u00e9\">Inc.</abbr> prenait connaissance d'un risque pour l'environnement ou pour la sant\u00e9 des humains ou des animaux pouvant d\u00e9couler de la diss\u00e9mination de ces hybrides, au Canada ou ailleurs, elle devra en informer imm\u00e9diatement <abbr title=\"Agence canadienne d'inspection des aliments\">ACIA</abbr>. \u00c0 la lumi\u00e8re de ces faits nouveaux, <abbr title=\"Agence canadienne d'inspection des aliments\">ACIA</abbr> pourra r\u00e9\u00e9valuer l'incidence possible de la diss\u00e9mination et, le cas \u00e9ch\u00e9ant, modifier sa d\u00e9cision.</p>\n<p><strong>La diss\u00e9mination en milieu ouvert du ma\u00efs DLL25 est par cons\u00e9quent autoris\u00e9e. Toute autre lign\u00e9e et tout hybride intrasp\u00e9cifique de <i lang=\"la\">Zea mays</i> qui seraient issus de la m\u00eame transformation, ou transform\u00e9s avec la m\u00eame construction g\u00e9n\u00e9tique, ainsi que tous leurs descendants, peuvent \u00e9galement \u00eatre diss\u00e9min\u00e9s, pourvu qu'aucun croisement intersp\u00e9cifique ne soit r\u00e9alis\u00e9, que l'utilisation pr\u00e9vue soit semblable et qu'une caract\u00e9risation approfondie d\u00e9montre que ces v\u00e9g\u00e9taux ne pr\u00e9sentent aucun autre caract\u00e8re nouveau et que les lign\u00e9es qui en r\u00e9sultent sont essentiellement \u00e9quivalentes aux vari\u00e9t\u00e9s de ma\u00efs d\u00e9j\u00e0 cultiv\u00e9es, quant \u00e0 leur impact possible sur l'environnement.</strong></p>\r\n        \r\n\r\n<div class=\"row\">\r\n \r\n\t\t\t\r\n\t\t\t\r\n\r\n\t\t\r\n\t\r\n</div>"
    },
    "js": {
        "en": "",
        "fr": ""
    },
    "chat_wizard": false,
    "success": true
}