{
    "dcr_id": "1311868783385",
    "title": {
        "en": "DD2004-46 : Determination of the Safety of the <abbr lang=\"de\" title=\"Badische Anilin und Soda Fabrik\">BASF</abbr> Canada Imidazolinone-Tolerant Lentil Line <abbr lang=\"en\" title=\"Relative Hybrid\">RH</abbr>44",
        "fr": "DD2004-46 : D\u00e9termination du risque de la lign\u00e9e de lentille <abbr lang=\"en\" title=\"Relative Hybrid\">RH</abbr>44 tol\u00e9rante \u00e0 l'imidazolinone de <abbr title=\"Badische Anilin und Soda Fabrik\" lang=\"de\">BASF</abbr> Canada"
    },
    "html_modified": "2011-07-28 11:59",
    "modified": "6-9-2017",
    "issued": "28-7-2011",
    "teamsite_location": {
        "en": "/default/main/inspection/cont-cont/plants-vegetaux/WORKAREA/plants-vegetaux/templatedata/comn-comn/gene-gene/data/pnts_decisions_dd0446_1311868783385_eng",
        "fr": "/default/main/inspection/cont-cont/plants-vegetaux/WORKAREA/plants-vegetaux/templatedata/comn-comn/gene-gene/data/pnts_decisions_dd0446_1311868783385_fra"
    },
    "parent_ia_id": "1303704484236",
    "ia_id": "1311868868513",
    "parent_node_id": "1303704484236",
    "layout_name": "content page 1 column",
    "breadcrumb": {
        "en": "DD2004-46 : Determination of the Safety of the <abbr lang=\"de\" title=\"Badische Anilin und Soda Fabrik\">BASF</abbr> Canada Imidazolinone-Tolerant Lentil Line <abbr lang=\"en\" title=\"Relative Hybrid\">RH</abbr>44",
        "fr": "DD2004-46 : D\u00e9termination du risque de la lign\u00e9e de lentille <abbr lang=\"en\" title=\"Relative Hybrid\">RH</abbr>44 tol\u00e9rante \u00e0 l'imidazolinone de <abbr title=\"Badische Anilin und Soda Fabrik\" lang=\"de\">BASF</abbr> Canada"
    },
    "label": {
        "en": "DD2004-46 : Determination of the Safety of the <abbr lang=\"de\" title=\"Badische Anilin und Soda Fabrik\">BASF</abbr> Canada Imidazolinone-Tolerant Lentil Line <abbr lang=\"en\" title=\"Relative Hybrid\">RH</abbr>44",
        "fr": "DD2004-46 : D\u00e9termination du risque de la lign\u00e9e de lentille <abbr lang=\"en\" title=\"Relative Hybrid\">RH</abbr>44 tol\u00e9rante \u00e0 l'imidazolinone de <abbr title=\"Badische Anilin und Soda Fabrik\" lang=\"de\">BASF</abbr> Canada"
    },
    "templatetype": "content page 1 column",
    "node_id": "1311868868513",
    "managing_branch": "comn",
    "type_name": "sitemapinit",
    "parent_dcr_id": "1303704378026",
    "orig_type_name": "sitemapinit",
    "has_dcr_id": true,
    "lang": "en",
    "could_not_load": 0,
    "refaire": false,
    "interwoven_url": {
        "en": "/plant-varieties/plants-with-novel-traits/approved-under-review/decision-documents/dd2004-46/",
        "fr": "/varietes-vegetales/vegetaux-a-caracteres-nouveaux/approuves-cours-d-evaluation/documents-des-decisions/dd2004-46/"
    },
    "meta": {
        "viewport": {
            "en": "width=device-width,initial-scale=1",
            "fr": "width=device-width,initial-scale=1"
        },
        "service": {
            "en": "CFIA-ACIA",
            "fr": "CFIA-ACIA"
        },
        "accessRights": {
            "en": "2",
            "fr": "2"
        },
        "title": {
            "en": "DD2004-46 : Determination of the Safety of the BASF Canada Imidazolinone-Tolerant Lentil Line RH44",
            "fr": "DD2004-46 : D\u00e9termination du risque de la lign\u00e9e de lentille RH44 tol\u00e9rante \u00e0 l'imidazolinone de BASF Canada"
        },
        "description": {
            "en": "This Decision Document has been prepared to explain the regulatory decision reached under the regulatory directive 94-08 Assessment Criteria for Determining Environmental Safety of Plants with Novel Traits and the companion document BIO2003-12 The Biology of Lens Culinaris (Lentil) and the regulatory directive 95-03 Guidelines for the Assessment of Plants with Novel Traits as Livestock Feed.",
            "fr": "Le pr\u00e9sent document de d\u00e9cision vise \u00e0 expliquer la d\u00e9cision r\u00e9glementaire prise conform\u00e9ment \u00e0 la directive Dir94-08, Crit\u00e8res d'\u00e9valuation du risque environnemental associ\u00e9 aux v\u00e9g\u00e9taux \u00e0 caract\u00e8res nouveaux, au cahier parall\u00e8le BIO2003-12 La biologie de Lens culinaris (lentille) et \u00e0 la directive Dir95-03, Lignes directrices relatives \u00e0 l'\u00e9valuation de v\u00e9g\u00e9taux \u00e0 caract\u00e8res nouveaux utilis\u00e9s comme aliments du b\u00e9tail."
        },
        "keywords": {
            "en": "plant biotechnology, plant biosafety, PNT, novel traits, field traits, unconfined releases, biosafety, decision documents, molecular farming, Sugar Beet, Beta vulgaris, Unconfined Releases, Decision Documents, Molecular Farming, Lentil, Imidazolinone-Tolerant Lentil Line RH44, lens culinaris",
            "fr": "v&#233;g&#233;tale biotechnologie, v&#233;g&#233;tale bios&#233;curit&#233;, bios&#233;curit&#233;, VCN, v&#233;g&#233;taux &#224; caract&#232;res nouveaux, diss&#233;mination dans l&#39;environment, documents des d&#233;cisions, agriculture mol&#233;culaire v&#233;g&#233;tale, Betterave &#224; sucre, Beta vulgaris, D&#233;gagements D&#39;Unconfined, Affermage Mol&#233;culaire, Lentille, lign&#233;e de lentille RH44 tol&#233;rante &#224; l&#39;imidazolinone, lens culinaris"
        },
        "dcterms.subject": {
            "en": "biotechnology,environment,environmental impact assessment,grains,herbicides,imports,plants,weeds,environmental protection",
            "fr": "biotechnologie,environnement,\u00e9valuation environnementale,grain,herbicide,importation,plante,plante nuisible,protection de l'environnement"
        },
        "creator": {
            "en": "Government of Canada,Canadian Food Inspection Agency,Plant Health and Biosecurity Directorate",
            "fr": "Gouvernement du Canada,Agence canadienne d'inspection des aliments,Direction de la protection des v\u00e9g\u00e9taux et bios\u00e9curit\u00e9"
        },
        "language": {
            "en": "eng",
            "fr": "fra"
        },
        "issued": {
            "en": "2011-07-28 11:59:46",
            "fr": "2011-07-28 11:59:46"
        },
        "modified": {
            "en": "2017-09-06",
            "fr": "2017-09-06"
        },
        "type": {
            "en": "reference material",
            "fr": "mat\u00e9riel de r\u00e9f\u00e9rence"
        },
        "audience": {
            "en": "business,government",
            "fr": "entreprises,gouvernement"
        },
        "name": {
            "en": "Government of Canada",
            "fr": "Gouvernement du Canada"
        },
        "areaServed": {
            "en": "Canada",
            "fr": "Canada"
        }
    },
    "h1": {
        "en": "DD2004-46 : Determination of the Safety of the BASF Canada Imidazolinone-Tolerant Lentil Line RH44",
        "fr": "DD2004-46 : D\u00e9termination du risque de la lign\u00e9e de lentille RH44 tol\u00e9rante \u00e0 l'imidazolinone de BASF Canada"
    },
    "body": {
        "en": "        \r\n        \n<section class=\"alert alert-info\">\r\n<h2 class=\"h3\">This page is part of the Guidance Document Repository (GDR).</h2>\r\n<p>\r\n<br>\r\n<a href=\"/industry-guidance/eng/1374161650885/1374161737236?gp=3&amp;gc=25&amp;ga=4#gdr_results\" class=\"alert-link\">\r\n            Search for related documents in the Guidance Document Repository\r\n</a>\r\n</p>\r\n</section><p class=\"text-right small\">Issued: 2004-07</p>\n<p>This Decision Document has been prepared to explain the regulatory decision reached under the regulatory directive 94-08 Assessment Criteria for Determining Environmental Safety of Plants with Novel Traits and the companion document <abbr title=\"Biology\">BIO</abbr>2003-12 The Biology of <span lang=\"la\">Lens Culinaris</span> (Lentil) and the regulatory directive 95-03 Guidelines for the Assessment of Plants with Novel Traits as Livestock Feed.</p>\n<p>The Canadian Food Inspection Agency (<abbr title=\"Canadian Food Inspection Agency\">CFIA</abbr>), specifically the Plant Biosafety Office and the Feed Section, have evaluated information submitted by <abbr lang=\"de\" title=\"Badische Anilin und Soda Fabrik\">BASF</abbr> Canada regarding the imidazolinone tolerant lentil line <abbr title=\"Relative Hybrid\">RH</abbr>44, which will be known commercially as Clearfield lentil. The <abbr title=\"Canadian Food Inspection Agency\">CFIA</abbr> has determined that this plant with a novel trait does not present a significant risk to the environment, nor does it present livestock feed safety concerns when compared to currently commercialized lentil varieties in Canada.</p>\n<p><strong>Unconfined release into the environment and livestock feed use of line <abbr title=\"Relative Hybrid\">RH</abbr>44, is therefore authorized as of June 24, 2004. Line <abbr title=\"Relative Hybrid\">RH</abbr>44 and any other lentil lines derived from it may be imported and/or released, provided (<abbr title=\"1\">I</abbr>) no inter-specific crosses are performed, (<abbr title=\"2\">ii</abbr>) the intended use is similar, (<abbr title=\"3\">iii</abbr>) it is known following thorough characterization that these plants do not display any additional novel traits and are substantially equivalent to currently commercialized lentils, in terms of their potential environmental impact and livestock feed safety.</strong></p>\n<p>Line <abbr title=\"Relative Hybrid\">RH</abbr>44 is subject to the same phytosanitary import requirements as its unmodified counterparts.</p>\n<div class=\"brdr-tp mrgn-bttm-md\"></div> \n<h2>Table of Contents</h2>\n<p><a href=\"#a1\"><abbr title=\"1\">I</abbr>. Brief Identification of the Plant with a Novel Trait (PNT)</a></p>\n<p><a href=\"#a2\"><abbr title=\"2\">II</abbr>. Background Information</a></p>\n<p><a href=\"#a3\"><abbr title=\"3\">III</abbr>. Description of the Novel Traits</a></p>\n<ol>\n<li>Development Method</li>\n<li>Imidazolinone Tolerance</li>\n<li>Stable Expression</li>\n</ol>\n<p><a href=\"#a4\"><abbr title=\"4\">IV</abbr>. Criteria for the Environmental Safety Assessment</a></p>\n<ol>\n<li>Potential of Line <abbr title=\"Relative Hybrid\">RH</abbr>44 to become a Weed of Agriculture or to be Invasive of Natural Habitats</li>\n<li>Potential for Gene Flow from Line <abbr title=\"Relative Hybrid\">RH</abbr>44 to Relatives Whose Hybrid Offspring May Become More Weedy or More Invasive</li>\n<li>Altered Plant Pest Potential of Line <abbr title=\"Relative Hybrid\">RH</abbr>44</li>\n<li>Potential Impact of Line <abbr title=\"Relative Hybrid\">RH</abbr>44 on Non-Target Organisms</li>\n<li>Potential Impact of Line <abbr title=\"Relative Hybrid\">RH</abbr>44 on Biodiversity</li>\n</ol>\n<p><a href=\"#a5\"><abbr title=\"5\">V</abbr>. Criteria for the Livestock Feed Assessment</a></p>\n<ol>\n<li>Potential Impact of Line <abbr title=\"Relative Hybrid\">RH</abbr>44 on Livestock Nutrition</li>\n<li>Potential Impact of Line <abbr title=\"Relative Hybrid\">RH</abbr>44 on Livestock and Workers/By-standers</li>\n</ol>\n<p><a href=\"#a6\"><abbr title=\"6\">VI</abbr>. New Information Requirements</a></p>\n<p><a href=\"#a7\"><abbr title=\"7\">VII</abbr>. Regulatory Decisions</a></p>\n<p>Appendices</p>\n<ol>\n<li><a href=\"/plant-varieties/plants-with-novel-traits/approved-under-review/decision-documents/dd2004-46/dd2004-46-basf-/eng/1311869861568/1311870030490\">Clearfield Lentil Herbicide Tolerance Stewardship</a></li>\n</ol> \n<div class=\"brdr-tp mrgn-bttm-md\"></div> \n<h2 id=\"a1\"><abbr title=\"1\">I</abbr>. Brief Identification of the Plant with a Novel Trait (PNT)</h2>\n<p><strong>Designation(s) of the <abbr title=\"plant with novel trait\">PNT</abbr>:</strong> Line <abbr title=\"Relative Hybrid\">RH</abbr>44</p>\n<p><strong>Applicant:</strong> <abbr lang=\"de\" title=\"Badische Anilin und Soda Fabrik\">BASF</abbr> Canada</p>\n<p><strong>Plant Species:</strong> Lentil (<span lang=\"la\">Lens culinaris</span>)</p>\n<p><strong>Novel Traits:</strong> Tolerance to imidazolinone herbicides</p>\n<p><strong>Trait Introduction Method:</strong> Chemically induced seed mutagenesis</p>\n<p><strong>Proposed Use of the <abbr title=\"plant with novel trait\">PNT</abbr>:</strong> Production of <span lang=\"la\"><abbr title=\"Linnaeus\">L.</abbr> culinaris</span> for human food and livestock feed. This material will not be grown outside the normal production area for lentil.</p>\n<h2 id=\"a2\"><abbr title=\"2\">II</abbr>. Background Information</h2>\n<p><abbr lang=\"de\" title=\"Badische Anilin und Soda Fabrik\">BASF</abbr> Canada has developed a lentil line tolerant to imidazolinone herbicides. This <span lang=\"la\"><abbr title=\"Linnaeus\">L.</abbr> culinaris</span> line, designated line <abbr title=\"Relative Hybrid\">RH</abbr>44, exhibited no significant injury when treated with imidazolinone herbicides at normal field application rates. This will allow the use of imidazolinones in post-emergence on lentil crops, thus providing an alternative means of weed control in lentil production.</p>\n<p>The development of line <abbr title=\"Relative Hybrid\">RH</abbr>44 was accomplished using chemically induced seed mutagenesis. The herbicide tolerance trait is conferred by a single point mutation modification of the acetohydroxyacid synthase (AHAS) gene such that this enzyme, the target of imidazolinone herbicides, is no longer affected by imidazolinones.</p>\n<p>Line <abbr title=\"Relative Hybrid\">RH</abbr>44 has been field tested in Canada from 1999 to 2002 under confined conditions in the provinces of Alberta, Manitoba, and Saskatchewan.</p>\n<p><abbr lang=\"de\" title=\"Badische Anilin und Soda Fabrik\">BASF</abbr> Canada has provided data on the identity of line <abbr title=\"Relative Hybrid\">RH</abbr>44, a detailed description of the modification method and breeding history, information on the modified gene, the resulting protein and its mode of action and the stability of trait expression. References to scientific publications were also included.</p>\n<p>Agronomic characteristics such as grain yield, days to maturity, plant height, and disease susceptibilities were compared with those of unmodified <span lang=\"la\"><abbr title=\"Linnaeus\">L.</abbr> culinaris</span> counterparts.</p>\n<p>Nutritional components of line <abbr title=\"Relative Hybrid\">RH</abbr>44 such as proximates, amino acids and fatty acids were compared with unmodified lentil counterparts. Levels of anti-nutritional factors were also compared between the line <abbr title=\"Relative Hybrid\">RH</abbr>44 and the unmodified counterparts.</p>\n<p>The Plant Biosafety Office (<abbr title=\"Plant Biosafety Office\">PBO</abbr>) Canadian Food Inspection Agency (<abbr title=\"Canadian Food Inspection Agency\">CFIA</abbr>) reviewed the above information, in accordance with the following assessment criteria for determining environmental safety of plants with novel traits (<abbr title=\"plant with novel trait\">PNT</abbr>s), as described in regulatory directive Dir94-08:</p>\n<ul>\n<li>potential of line <abbr title=\"Relative Hybrid\">RH</abbr>44 to become weeds of agriculture or to be invasive of natural habitats,</li>\n<li>potential for gene-flow from line <abbr title=\"Relative Hybrid\">RH</abbr>44 to wild relatives whose hybrid offspring may become more weedy or more invasive,</li>\n<li>potential for line <abbr title=\"Relative Hybrid\">RH</abbr>44 to become plant pests,</li>\n<li>potential impact of line <abbr title=\"Relative Hybrid\">RH</abbr>44 or it's gene products on non-target species, including humans,</li>\n<li>potential impact of line <abbr title=\"Relative Hybrid\">RH</abbr>44 on biodiversity</li>\n</ul>\n<p>The Feed Section, <abbr title=\"Canadian Food Inspection Agency\">CFIA</abbr>, has also reviewed the above information with respect to the assessment criteria for determining the safety and efficacy of novel livestock feed, as described in the regulatory directive <abbr title=\"Directive\">Dir</abbr>95-03:</p>\n<ul>\n<li>potential impact of line <abbr title=\"Relative Hybrid\">RH</abbr>44 on livestock nutrition; and</li>\n<li>potential impact of line <abbr title=\"Relative Hybrid\">RH</abbr>44 on livestock and workers/bystanders.</li>\n</ul>\n<p>Additionally, <abbr title=\"Canadian Food Inspection Agency\">CFIA</abbr> has reviewed a method submitted by <abbr lang=\"de\" title=\"Badische Anilin und Soda Fabrik\">BASF</abbr> Canada for the detection and identification of lentils containing this modified <abbr title=\"acetohydroxyacid synthase\">AHAS</abbr> gene.</p>\n<h2 id=\"a3\"><abbr title=\"3\">III</abbr>. Description of the Novel Trait</h2>\n<h3>1. Development Method</h3>\n<p>The <abbr title=\"Relative Hybrid\">RH</abbr>44 mutant was derived by chemical-induced mutagenesis. Seeds from many lentil cultivars were treated as a batch with ethyl-methane-sulphonate (<abbr title=\"ethyl-methane-sulphonate\">EMS</abbr>) then planted. Whole plant selection procedures for herbicide tolerance were used. One herbicide tolerant mutant was selected and was designated line <abbr title=\"Relative Hybrid\">RH</abbr>44.</p>\n<p>Line <abbr title=\"Relative Hybrid\">RH</abbr>44 is a diploid (2n=14 chromosomes) belonging to genus and species <span lang=\"la\">Lens culinaris.</span></p>\n<h3>2. Imidazolinone Tolerance</h3>\n<p>Imidazolinone herbicides are active against the enzyme acetohydroxyacid synthase (AHAS), also known as acetolactate synthase (<abbr title=\"acetolactate synthase\">ALS</abbr>).</p>\n<p><abbr title=\"acetohydroxyacid synthase\">AHAS</abbr> is an enzyme found in bacteria, certain other micro-organisms and plants. This enzyme catalyses the first step in the biosynthesis of the essential branched chain amino acids isoleucine, leucine and valine. Herbicide-induced <abbr title=\"acetohydroxyacid synthase\">AHAS</abbr> inhibition results in a lethal decrease in protein synthesis. Unmodified lentils are not tolerant to imidazolinone herbicides.</p>\n<p>A single amino acid substitution in the <abbr title=\"acetohydroxyacid synthase\">AHAS</abbr> gene, sufficient to alter the binding site such that imidazolinone herbicides no longer inhibits the <abbr title=\"acetohydroxyacid synthase\">AHAS</abbr> enzyme, resulted in a herbicide tolerant phenotype.</p>\n<p>The novel imidazolinone tolerance is under the control of the native <abbr title=\"acetohydroxyacid synthase\">AHAS</abbr> promoter and is believed to be constitutively expressed. Sequence information for the modified <abbr title=\"acetohydroxyacid synthase\">AHAS</abbr> gene was submitted.</p>\n<p>The tolerance to imidazolinone herbicides was demonstrated by comparison of the activity of the <abbr title=\"acetohydroxyacid synthase\">AHAS</abbr> enzyme extracted from line <abbr title=\"Relative Hybrid\">RH</abbr>44 lentil plants to that of wild type lentil plants.</p>\n<p>The levels of valine, leucine and isoleucine produced in lentil are regulated by feedback inhibition of <abbr title=\"acetohydroxyacid synthase\">AHAS</abbr>. <abbr lang=\"de\" title=\"Badische Anilin und Soda Fabrik\">BASF</abbr> provided data to demonstrate that the modified <abbr title=\"acetohydroxyacid synthase\">AHAS</abbr> shows similar feedback inhibition by valine and leucine as compared to unmodified <abbr title=\"acetohydroxyacid synthase\">AHAS</abbr>. The modification of the  <abbr title=\"acetohydroxyacid synthase\">AHAS</abbr> does not affect feedback inhibition and hence, the regulation and levels of these amino acids.</p>\n<p>Unlike known food allergens, <abbr title=\"acetohydroxyacid synthase\">AHAS</abbr> is a minor protein in plant tissue, it is heat sensitive and trypsin susceptible. The <abbr title=\"acetohydroxyacid synthase\">AHAS</abbr> protein from line <abbr title=\"Relative Hybrid\">RH</abbr>44 was shown to be heat sensitive, with no detectable activity of <abbr title=\"acetohydroxyacid synthase\">AHAS</abbr> after 1 <abbr title=\"minute\">min</abbr> of heating at 100 \u00b0<abbr title=\"Celcius\">C</abbr>. <abbr title=\"acetohydroxyacid synthase\">AHAS</abbr> was completely degraded within 30 minutes of trypsin treatment. The unmodified form of the <abbr title=\"acetohydroxyacid synthase\">AHAS</abbr> protein shows no amino acid similarity to known allergens. The amino acid sequence of mutated <abbr title=\"acetohydroxyacid synthase\">AHAS</abbr> differs by one amino acid from that of unmodified lentil. Data presented demonstrated that protein banding patterns and <abbr title=\"immunoglobulin E\">IgE</abbr> activity from sera obtained from lentil allergic individuals are similar between the modified and unmodified lentils.</p>\n<h3>3. Stable Expression</h3>\n<p>The imidazolinone tolerance trait from line <abbr title=\"Relative Hybrid\">RH</abbr>44 was shown to segregate according to the manner expected for a single dominant allele. Line <abbr title=\"Relative Hybrid\">RH</abbr>44, which is several generations removed from the original mutation event, consistently shows imidazolinone tolerance.</p>\n<h2 id=\"a4\"><abbr title=\"4\">IV</abbr>. Assessment Criteria for Environmental Safety</h2>\n<h3>1. Potential of Line <abbr title=\"Relative Hybrid\">RH</abbr>44 to become a Weed of Agriculture or be Invasive of Natural Habitats</h3>\n<p>The biology of <span lang=\"la\"><abbr title=\"Linnaeus\">L.</abbr> culinaris</span>, described in <abbr title=\"Biology\">BIO</abbr>2003-12, shows that unmodified plants of this species are not invasive of unmanaged habitats in Canada. According to the information provided by <abbr lang=\"de\" title=\"Badische Anilin und Soda Fabrik\">BASF</abbr> Canada, line <abbr title=\"Relative Hybrid\">RH</abbr>44 was determined not to be different from its counterparts in this respect. The mutation of the <abbr title=\"acetohydroxyacid synthase\">AHAS</abbr> gene in line <abbr title=\"Relative Hybrid\">RH</abbr>44 has not significantly affected the physiology of the plant, as supported by agronomic and compositional data. No significant differences between <abbr title=\"Relative Hybrid\">RH</abbr>44 and comparator lines were detected in the yield, seed germination, days to maturity, or nutritional data including amino acid composition, and percentage fat, fiber and protein. No data was submitted that indicated line <abbr title=\"Relative Hybrid\">RH</abbr>44 would possess traits that would render it invasive of unmanaged habitats, or that a competitive advantage was conferred to line <abbr title=\"Relative Hybrid\">RH</abbr>44, other than tolerance to imidazolinones.</p>\n<p>Imidazolinone tolerance in itself will not cause line <abbr title=\"Relative Hybrid\">RH</abbr>44 to become more weedy or invasive in managed habitats than conventional lines of <span lang=\"la\"><abbr title=\"Linnaeus\">L.</abbr> culinaris</span>. Imidazolinone-tolerant lentil volunteers will not be controlled in subsequent crops if imidazolinone herbicide is used as the sole weed control tool. However, control of imidazolinone tolerant weeds, or imidazolinone tolerant lentil as a volunteer weed in other crops or in fallow ground, can readily be achieved by the use of classes of herbicides other than imidazolinones, or by mechanical means.</p>\n<p>The above considerations have led the <abbr title=\"Canadian Food Inspection Agency\">CFIA</abbr> to conclude that line <abbr title=\"Relative Hybrid\">RH</abbr>44 has no short-term ecological advantages when compared with currently commercialized lentil varieties.</p>\n<p>In the longer term, the continued use of imidazolinones on herbicide tolerant crops may provide additional selection pressure for the development of group 2 herbicide tolerant weeds. <abbr lang=\"de\" title=\"Badische Anilin und Soda Fabrik\">BASF</abbr> provided the <abbr title=\"Canadian Food Inspection Agency\">CFIA</abbr> with a stewardship plan that describes appropriate strategies that will allow the deployment of line  <abbr title=\"Relative Hybrid\">RH</abbr>44 while managing these concerns. The stewardship plan submitted by <abbr lang=\"de\" title=\"Badische Anilin und Soda Fabrik\">BASF</abbr> is based on the biology of the lentil plant and on associated agronomic practices. It also received endorsement from the Saskatchewan Pulse Growers and the Saskatchewan Crop Development Centre. The stewardship plan is included in <a href=\"/plant-varieties/plants-with-novel-traits/approved-under-review/decision-documents/dd2004-46/dd2004-46-basf-/eng/1311869861568/1311870030490\">Appendix 1 of this document</a>.</p>\n<p><abbr title=\"Canadian Food Inspection Agency\">CFIA</abbr> acknowledges that <abbr lang=\"de\" title=\"Badische Anilin und Soda Fabrik\">BASF</abbr> implementation of this stewardship plan may be affected by future scientific developments, significant future changes to crop management practices used by lentil growers, and/or grower compliance with the plan.</p>\n<p>In order to monitor the implementation of the Clearfield Lentil Herbicide Tolerance Stewardship Plan, <abbr title=\"Canadian Food Inspection Agency\">CFIA</abbr> will require <abbr lang=\"de\" title=\"Badische Anilin und Soda Fabrik\">BASF</abbr> to submit a report to the <abbr title=\"Plant Biosafety Office\">PBO</abbr> on a triennial basis. This report will describe <abbr lang=\"de\" title=\"Badische Anilin und Soda Fabrik\">BASF</abbr>'s monitoring of grower compliance with the stewardship plan, as well as any changes that may be made to the plan itself. As outlined in Section <abbr title=\"6\">VI</abbr> of this document, reporting may occur more frequently if <abbr lang=\"de\" title=\"Badische Anilin und Soda Fabrik\">BASF</abbr> becomes aware of any new information about the environmental safety of line <abbr title=\"Relative Hybrid\">RH</abbr>44 or lentil lines derived from <abbr title=\"Relative Hybrid\">RH</abbr>44.</p>\n<h3>2. Potential for Gene Flow from Line <abbr title=\"Relative Hybrid\">RH</abbr>44 to Relatives Whose Hybrid Offspring May Become More Weedy or More Invasive</h3>\n<p>The biology of lentil, as described in BIO2003-12, indicates that a) lentil plants have less than one per cent outcrossing rates and b) there are no wild or weedy relatives in Canada that can freely hybridize with <span lang=\"la\"><abbr title=\"Linnaeus\">L.</abbr> culinaris</span>.</p>\n<p>The <abbr title=\"Canadian Food Inspection Agency\">CFIA</abbr> therefore concludes that gene flow from line <abbr title=\"Relative Hybrid\">RH</abbr>44 to wild or weedy relatives is extremely unlikely.</p>\n<h3>3. Altered Plant Pest Potential of Line <abbr title=\"Relative Hybrid\">RH</abbr>44</h3>\n<p>The intended effect of the novel trait is not expected to affect plant pest potential, and <span lang=\"la\"><abbr title=\"Linnaeus\">L.</abbr> culinaris</span> is not a plant pest in Canada.</p>\n<p>Line <abbr title=\"Relative Hybrid\">RH</abbr>44 and an appropriate non-mutagenized line of similar genetic background were tested for responses to several common insect pests of lentil and several important fungal pathogens. There were no indications in the data supplied by <abbr lang=\"de\" title=\"Badische Anilin und Soda Fabrik\">BASF</abbr> that line  <abbr title=\"Relative Hybrid\">RH</abbr>44 has an altered plant pest potential. In all cases, responses of line <abbr title=\"Relative Hybrid\">RH</abbr>44 were within the normal range of typical commercial lentil cultivars.</p>\n<p>In addition, agronomic characteristics of line <abbr title=\"Relative Hybrid\">RH</abbr>44 were shown to be within the range of values displayed by currently commercialized <span lang=\"la\"><abbr title=\"Linnaeus\">L.</abbr> culinaris</span> varieties, leading to the conclusion that plant pest potential has not been inadvertently altered.</p>\n<p>No gene sequences from plant pathogens were used in its development and it is therefore highly unlikely that line <abbr title=\"Relative Hybrid\">RH</abbr>44 expresses any novel plant pathogen characteristics.</p>\n<p>The <abbr title=\"Canadian Food Inspection Agency\">CFIA</abbr> has therefore determined that line <abbr title=\"Relative Hybrid\">RH</abbr>44 is unlikely to display any altered plant pest potential.</p>\n<h3>4. Potential Impact of Line <abbr title=\"Relative Hybrid\">RH</abbr>44 on Non-Target Organisms</h3>\n<p>Single amino acid modifications of the <abbr title=\"acetohydroxyacid synthase\">AHAS</abbr> enzyme, which alters the herbicide binding site on the enzyme, is the molecular basis for imidazolinone tolerance in several plants. <abbr lang=\"de\" title=\"Badische Anilin und Soda Fabrik\">BASF</abbr> Canada has submitted data and information indicating that the modified <abbr title=\"acetohydroxyacid synthase\">AHAS</abbr> is substantially equivalent to the native <abbr title=\"acetohydroxyacid synthase\">AHAS</abbr> enzyme. The mutation in the <abbr title=\"acetohydroxyacid synthase\">AHAS</abbr> gene in line <abbr title=\"Relative Hybrid\">RH</abbr>44 has not significantly affected the biosynthesis of the branched-chain amino acids, valine, leucine and isoleucine, or the nutritional composition.</p>\n<p>The <abbr title=\"Canadian Food Inspection Agency\">CFIA</abbr> has therefore determined that the modified <abbr title=\"acetohydroxyacid synthase\">AHAS</abbr> gene will not result in altered impacts on interacting organisms, including humans, compared with the unmodified counterpart.</p>\n<p>The <abbr title=\"acetohydroxyacid synthase\">AHAS</abbr> enzyme is not a known toxin, does not confer resistance to agricultural pests and is commonly found in a wide variety of plants and microorganisms with a history of safe use. No novel toxins were introduced into this variety. Therefore, no negative interactions with non-target symbiotic or consumer organisms are anticipated.</p>\n<p>In addition, agronomic characteristics, pathogen interactions, and insect pest susceptibility of line <abbr title=\"Relative Hybrid\">RH</abbr>44 were shown to be within the range of values displayed by currently commercialized <span lang=\"la\"><abbr title=\"Linnaeus\">L.</abbr> culinaris</span> varieties. The <abbr title=\"Canadian Food Inspection Agency\">CFIA</abbr> concluded that there were not likely to be significant unintended changes to line <abbr title=\"Relative Hybrid\">RH</abbr>44 that could have adverse impacts on non-target organisms.</p>\n<h3>5. Potential Impact of Line <abbr title=\"Relative Hybrid\">RH</abbr>44 on Biodiversity</h3>\n<p>As discussed previously, line <abbr title=\"Relative Hybrid\">RH</abbr>44 has no novel phenotypic characteristics which would extend its use beyond the current geographic range of lentil production in Canada. Responses of line <abbr title=\"Relative Hybrid\">RH</abbr>44 to common insect pests and fungal pathogens are within the range of typical commercial lentil cultivars. Since lentil does not outcross under natural conditions to wild relatives in Canada, the transfer of novel traits to other plant species in unmanaged environments is highly unlikely. The <abbr title=\"Canadian Food Inspection Agency\">CFIA</abbr> has therefore concluded that the impact on biodiversity of line <abbr title=\"Relative Hybrid\">RH</abbr>44 is equivalent to that of currently commercialized lentil lines.</p>\n<h2 id=\"a5\"><abbr title=\"5\">V</abbr>. Criteria for the Livestock Feed Assessment</h2>\n<h3>1. Potential Impact on Livestock Nutrition</h3>\n<p>Nutritional composition</p>\n<p>Nutritional composition was determined for line <abbr title=\"Relative Hybrid\">RH</abbr>44 lentil seed samples taken from various sites in Saskatchewan over three growing seasons (2000B 2002). Nutrients measured included proximates, amino acids, fatty acids, B vitamins, and minerals. Control samples from these sites included between 3 and 6 commercial varieties. In some cases the data (proximates, amino acids) were analysed by appropriate statistical methods. In other cases, simple comparisons with control commercial varieties were conducted (minerals, fatty acids, B vitamins). The applicant demonstrated that protein, fat, fibre, leucine, and valine composition for line <abbr title=\"Relative Hybrid\">RH</abbr>44 was not different from control commercial varieties. For some nutrients there were significant differences among the lentil varieties (<abbr title=\"that is to say\">i.e.</abbr>, protein, isoleucine, and threonine) but line <abbr title=\"Relative Hybrid\">RH</abbr>44 values were intermediate among the varieties for these nutrients. Concentrations reported for minerals, fatty acids and B vitamins were within the range reported for the commercial control varieties.</p>\n<p>Antinutritional factors</p>\n<p>Phytic acid and trypsin inhibitor were analysed in samples for line <abbr title=\"Relative Hybrid\">RH</abbr>44 and 5 commercial varieties (pooled sample for each variety). Line <abbr title=\"Relative Hybrid\">RH</abbr>44 levels were within the range of the commercial cultivars for phytic acid, and trypsin inhibitor was undetected (&lt;2000 <abbr title=\"trypsin inhibitor unit\">TIU</abbr>) in all varieties.</p>\n<p>The applicant demonstrated that the nutritional composition of line <abbr title=\"Relative Hybrid\">RH</abbr>44 lentil is similar to commercial varieties grown in Canada.</p>\n<h3>2. Potential Impact on Livestock and Workers/By-standers</h3>\n<p>The <abbr title=\"acetohydroxyacid synthase\">AHAS</abbr> enzyme is found in a wide variety of plants and micro-organisms. <abbr title=\"acetohydroxyacid synthase\">AHAS</abbr> is not a known toxin or allergen and a single base pair change would not be expected to change this. <abbr title=\"acetohydroxyacid synthase\">AHAS</abbr> from line <abbr title=\"Relative Hybrid\">RH</abbr>44 is feedback inhibited by valine and leucine as is the unmodified <abbr title=\"acetohydroxyacid synthase\">AHAS</abbr>, it is present in small amounts in the feed, it is heat labile and it is rapidly degraded under conditions in the gastrointestinal tract. The expression of <abbr title=\"acetohydroxyacid synthase\">AHAS</abbr> is not changed by the modification. Based on the information provided by <abbr lang=\"de\" title=\"Badische Anilin und Soda Fabrik\">BASF</abbr>, the modified <abbr title=\"acetohydroxyacid synthase\">AHAS</abbr> is unlikely to be a novel toxin or allergen.</p>\n<p>Based on the detailed characterization provided (nutritional composition and agronomic data of the modified plant compared to the unmodified comparator, as well as similar protein banding patterns and <abbr title=\"immunoglobulin E\">IgE</abbr> activity from sera obtained from lentil allergic individuals between the modified and unmodified lentils) it is unlikely that secondary mutations causing unintended effects have occurred in the lentil genome.</p>\n<h2 id=\"a6\"><abbr title=\"6\">VI</abbr>. New Information Requirements</h2>\n<p>If at any time, <abbr lang=\"de\" title=\"Badische Anilin und Soda Fabrik\">BASF</abbr> Canada becomes aware of any information regarding risk to the environment, including risk to human or animal health, that could result from release of these materials in Canada, or elsewhere <abbr lang=\"de\" title=\"Badische Anilin und Soda Fabrik\">BASF</abbr> Canada will immediately provide such information to the <abbr title=\"Canadian Food Inspection Agency\">CFIA</abbr>. On the basis of such new information, the <abbr title=\"Canadian Food Inspection Agency\">CFIA</abbr> will re-evaluate the potential impact of the proposed use and will re-evaluate its decision with respect to the livestock feed use and environmental release authorizations of this lentil line.</p>\n<h2 id=\"a7\"><abbr title=\"7\">VII</abbr>. Regulatory Decision</h2>\n<p>Based on the review of data and information submitted by <abbr lang=\"de\" title=\"Badische Anilin und Soda Fabrik\">BASF</abbr> Canada, including comparisons of line <abbr title=\"Relative Hybrid\">RH</abbr>44 with unmodified lentil counterparts, the Plant Biosafety Office, <abbr title=\"Canadian Food Inspection Agency\">CFIA</abbr>, has concluded that the modified gene and its corresponding novel trait do not confer to lentil line <abbr title=\"Relative Hybrid\">RH</abbr>44 any characteristic that would result in an ecological advantage or plant pest risk following unconfined release.</p>\n<p>Based on the review of data and information submitted by <abbr lang=\"de\" title=\"Badische Anilin und Soda Fabrik\">BASF</abbr> Canada, including comparisons of Line <abbr title=\"Relative Hybrid\">RH</abbr>44 with unmodified lentil counterparts, the Feed Section, <abbr title=\"Canadian Food Inspection Agency\">CFIA</abbr>, has concluded that the modified gene and its corresponding novel trait do not confer to these plants any characteristic that would raise any concerns regarding the safety or nutritional composition of the lentil Line <abbr title=\"Relative Hybrid\">RH</abbr>44. Lentil and lentil screenings are currently listed in Schedule <abbr title=\"4\">IV</abbr> of the Feeds Regulations and are, therefore approved for use in livestock feeds in Canada. Line <abbr title=\"Relative Hybrid\">RH</abbr>44 has been assessed and found to be as safe and as nutritious as traditional lentil varieties. Lentil line <abbr title=\"Relative Hybrid\">RH</abbr>44 and its products are considered to meet the present ingredient definitions and are approved for use as livestock feed ingredients in Canada</p>\n<p><strong>Unconfined release into the environment and livestock feed use of the lentil line <abbr title=\"Relative Hybrid\">RH</abbr>44 is therefore authorized as of <span class=\"nowrap\">June 24, 2004</span>. Any other lentil lines derived from it may be imported and/or released, provided no inter-specific crosses are performed, provided the intended use is similar, and provided it is known, following thorough characterization that these plants do not display any additional novel traits and are substantially equivalent to currently grown lentils, in terms of their potential environmental impact and livestock feed safety.</strong></p>\n<p><strong>Line <abbr title=\"Relative Hybrid\">RH</abbr>44 is subject to the same phytosanitary import requirements as its unmodified counterparts.</strong></p>\n<p>Please refer to <a href=\"https://www.canada.ca/en/health-canada/services/food-nutrition/genetically-modified-foods-other-novel-foods/approved-products.html\">Health Canada's Decisions on Novel Foods</a> for a description of the food safety assessment of lentil line <abbr title=\"Relative Hybrid\">RH</abbr>44. </p>\n<p>This bulletin is published by the Canadian Food Inspection Agency. For further information, please contact the Plant Biosafety Office or the Feed Section at:</p>\n<p>Plant Biosafety Office<br> Plant Products Directorate<br> 59 Camelot Drive, Nepean<br> Ontario K1A 0Y9<br> 613-225-2342</p>\n<p>Feed Section<br> Animal Health and Production Division<br> Animal Products Directorate<br> 59 Camelot Drive, Nepean<br> Ontario K1A 0Y9<br> 613-225-2342</p>\r\n        \r\n\r\n\r\n\r\n<div class=\"row\">\r\n \r\n\t\r\n\t\t\t\r\n\r\n<div class=\"col-xm-12 pagedetails container\">\r\n\t\t\t\t\r\n\r\n</div>\r\n\t\r\n</div>",
        "fr": "\r\n        \r\n        \n<section class=\"alert alert-info\">\r\n<h2 class=\"h3\">Cette page fait partie du r\u00e9pertoire des documents d'orientation (RDO).</h2>\r\n<p>\r\n<br>\r\n<a href=\"/orientation-pour-l-industrie/fra/1374161650885/1374161737236?gp=3&amp;gc=25&amp;ga=4#gdr_results\" class=\"alert-link\">\r\n            Recherche de documents connexes dans le r\u00e9pertoire des documents d'orientation.\r\n</a>\r\n</p>\r\n</section><p class=\"text-right small\">Distribu\u00e9\u00a0: 2004-07</p>\n<p>Le pr\u00e9sent document de d\u00e9cision vise \u00e0 expliquer la d\u00e9cision r\u00e9glementaire prise conform\u00e9ment \u00e0 la directive Dir94-08, Crit\u00e8res d'\u00e9valuation du risque environnemental associ\u00e9 aux v\u00e9g\u00e9taux \u00e0 caract\u00e8res nouveaux, au cahier parall\u00e8le BIO2003-12 La biologie de <span lang=\"la\">Lens culinaris</span> (lentille) et \u00e0 la directive Dir95-03, Lignes directrices relatives \u00e0 l'\u00e9valuation de v\u00e9g\u00e9taux \u00e0 caract\u00e8res nouveaux utilis\u00e9s comme aliments du b\u00e9tail.</p>\n<p>L'Agence canadienne d'inspection des aliments (ACIA), plus pr\u00e9cis\u00e9ment le Bureau de la bios\u00e9curit\u00e9 v\u00e9g\u00e9tale et la Section des aliments du b\u00e9tail, a \u00e9valu\u00e9 les donn\u00e9es pr\u00e9sent\u00e9es par <abbr lang=\"de\" title=\"Badische Anilin und Soda Fabrik\">BASF</abbr> Canada relativement  \u00e0 la lign\u00e9e de lentille <abbr lang=\"en\" title=\"Relative Hybrid\">RH</abbr>44 tol\u00e9rante \u00e0 l'imidazolinone, qui sera connue commercialement sous le nom de lentille <span lang=\"en\">CLEARFIELD</span>. L'<abbr title=\"Agence canadienne d'inspection des aliments\">ACIA</abbr> a \u00e9tabli que ce v\u00e9g\u00e9tal \u00e0 caract\u00e8re nouveau ne pr\u00e9sente pas un risque significatif pour l'environnement ni pour les aliments du b\u00e9tail comparativement aux vari\u00e9t\u00e9s de lentille commercialis\u00e9es actuellement au Canada.</p>\n<p><strong>La diss\u00e9mination en milieu ouvert de la lign\u00e9e de lentille <abbr lang=\"en\" title=\"Relative Hybrid\">RH</abbr>44 et son emploi comme aliment du b\u00e9tail sont par cons\u00e9quent autoris\u00e9es \u00e0 compter du <span class=\"nowrap\">24 Juin 2004</span>. L'importation et/ou la diss\u00e9mination de la lign\u00e9e <abbr lang=\"en\" title=\"Relative Hybrid\">RH</abbr>44 et de toute lign\u00e9e qui en serait issue sont \u00e9galement autoris\u00e9es, pourvu qu'aucun croisement intersp\u00e9cifique ne soit effectu\u00e9, que leur utilisation pr\u00e9vue soit similaire et qu'une caract\u00e9risation approfondie ait d\u00e9montr\u00e9 que ces v\u00e9g\u00e9taux ne pr\u00e9sentent aucun autre caract\u00e8re nouveau et qu'ils sont essentiellement \u00e9quivalents aux vari\u00e9t\u00e9s de lentille actuellement commercialis\u00e9es quant \u00e0 leur impact potentiel sur l'environnement et \u00e0 leur innocuit\u00e9 comme aliment du b\u00e9tail.</strong></p>\n<p>La lign\u00e9e de lentille <abbr lang=\"en\" title=\"Relative Hybrid\">RH</abbr>44 est assujettie aux m\u00eames conditions phytosanitaires d'importation que ses contreparties non modifi\u00e9es.</p>\n<div class=\"brdr-tp mrgn-bttm-md\"></div>\n<h2>Table des mati\u00e8res</h2>\n<p><a href=\"#a1\"><abbr title=\"1\">I</abbr>. Br\u00e8ve identification du v\u00e9g\u00e9tal \u00e0 caract\u00e8re nouveau (VCN)</a></p>\n<p><a href=\"#a2\"><abbr title=\"2\">II</abbr>. Donn\u00e9es de base</a></p>\n<p><a href=\"#a3\"><abbr title=\"3\">III</abbr>. Description du caract\u00e8re nouveau</a></p>\n<ol>\n<li>M\u00e9thode de mise au point</li>\n<li>Tol\u00e9rance aux imidazolinones</li>\n<li>Stabilit\u00e9 du caract\u00e8re nouveau</li>\n</ol>\n<p><a href=\"#a4\"><abbr title=\"4\">IV</abbr>. Crit\u00e8res d'\u00e9valuation du risque environnemental</a></p>\n<ol>\n<li>Possibilit\u00e9 que la lign\u00e9e <abbr lang=\"en\" title=\"Relative Hybrid\">RH</abbr>44 devienne une mauvaise herbe pour l'agriculture ou envahisse les habitats naturels</li>\n<li>Possibilit\u00e9 de flux g\u00e9n\u00e9tique de la lign\u00e9e <abbr lang=\"en\" title=\"Relative Hybrid\">RH</abbr>44 vers des esp\u00e8ces sauvages apparent\u00e9es, dont la descendance hybride risque de devenir encore plus envahissante</li>\n<li>Possibilit\u00e9 que la lign\u00e9e <abbr lang=\"en\" title=\"Relative Hybrid\">RH</abbr>44 devienne nuisible</li>\n<li>Impact possible de la lign\u00e9e <abbr lang=\"en\" title=\"Relative Hybrid\">RH</abbr>44 sur les organismes non vis\u00e9s</li>\n<li>Impact possible de la lign\u00e9e <abbr lang=\"en\" title=\"Relative Hybrid\">RH</abbr>44 sur la biodiversit\u00e9</li>\n</ol>\n<p><a href=\"#a5\"><abbr title=\"5\">V</abbr>. Crit\u00e8res d'\u00e9valuation comme aliment du b\u00e9tail</a></p>\n<ol>\n<li>Impact possible sur la nutrition du b\u00e9tail</li>\n<li>Impact possible sur le b\u00e9tail ainsi que sur les travailleurs et les tiers</li>\n</ol>\n<p><a href=\"#a6\"><abbr title=\"6\">VI</abbr>. Nouveaux renseignements requis</a></p>\n<p><a href=\"#a7\"><abbr title=\"7\">VII</abbr>. D\u00e9cision r\u00e9glementaire</a></p>\n<p>Annexe 1</p>\n<ol>\n<li><a href=\"/varietes-vegetales/vegetaux-a-caracteres-nouveaux/approuves-cours-d-evaluation/documents-des-decisions/dd2004-46/dd2004-46-basf-/fra/1311869861568/1311870030490\">Plan de g\u00e9rance de la lentille <span lang=\"en\">CLEARFIELD</span> de <abbr lang=\"de\" title=\"Badische Anilin und Soda Fabrik\">BASF</abbr></a></li>\n</ol> \n<div class=\"brdr-tp mrgn-bttm-md\"></div>\n<h2 id=\"a1\"><abbr title=\"1\">I</abbr>. Br\u00e8ve identification du v\u00e9g\u00e9tal \u00e0 caract\u00e8re nouveau (VCN)</h2>\n<p><strong>D\u00e9signation du <abbr title=\"v\u00e9g\u00e9taux caract\u00e9res nouveaux\">VCN</abbr>\u00a0:</strong> Lign\u00e9e <abbr lang=\"en\" title=\"Relative Hybrid\">RH</abbr>44</p>\n<p><strong>Demandeur\u00a0:</strong> <abbr lang=\"de\" title=\"Badische Anilin und Soda Fabrik\">BASF</abbr> Canada</p>\n<p><strong>Esp\u00e8ce\u00a0:</strong> Lentille (<span lang=\"la\">Lens culinaris</span>)</p>\n<p><strong>Caract\u00e8re nouveau\u00a0:</strong> Tol\u00e9rance aux herbicides de type imidazolinone</p>\n<p><strong>M\u00e9thode d'introduction du caract\u00e8re\u00a0:</strong> Mutagen\u00e8se chimique des graines</p>\n<p><strong>Utilisation propos\u00e9e du <abbr title=\"v\u00e9g\u00e9taux caract\u00e9res nouveaux\">VCN</abbr>\u00a0:</strong> Production de <span lang=\"la\"><abbr title=\"Lens\">L.</abbr> culinaris</span> pour l'alimentation humaine et l'alimentation du b\u00e9tail. Le <abbr title=\"v\u00e9g\u00e9taux caract\u00e9res nouveaux\">VCN</abbr> ne sera pas cultiv\u00e9 \u00e0 l'ext\u00e9rieur de la zone de production de lentille actuelle.</p>\n<h2 id=\"a2\"><abbr title=\"2\">II</abbr>. Donn\u00e9es de base</h2>\n<p><abbr lang=\"de\" title=\"Badische Anilin und Soda Fabrik\">BASF</abbr> Canada a mis au point une lign\u00e9e de lentille tol\u00e9rant les herbicides de type imidazolinone. Cette lign\u00e9e de <span lang=\"la\"><abbr title=\"Lens\">L.</abbr> culinaris</span>, d\u00e9sign\u00e9e lign\u00e9e  <abbr lang=\"en\" title=\"Relative Hybrid\">RH</abbr>44, ne subit aucun dommage appr\u00e9ciable lorsqu'elle est expos\u00e9e aux doses d'herbicide de type imidazolinone normalement utilis\u00e9es au champ. La nouvelle lign\u00e9e permettra donc l'utilisation des imidazolinones comme herbicides de postlev\u00e9e dans les cultures de lentille et fournira ainsi un nouveau moyen de lutte contre les mauvaises herbes de ces cultures.</p>\n<p>La lign\u00e9e <abbr lang=\"en\" title=\"Relative Hybrid\">RH</abbr>44 a \u00e9t\u00e9 obtenue par mutagen\u00e8se chimique des graines. La tol\u00e9rance \u00e0 l'herbicide r\u00e9sulte d'une mutation ponctuelle du g\u00e8ne de l'ac\u00e9tohydroxyacide-synth\u00e9tase (AHAS), de sorte que l'enzyme, cible des herbicides de type imidazolinone, n'est plus sensible aux imidazolinones.</p>\n<p>La lign\u00e9e <abbr lang=\"en\" title=\"Relative Hybrid\">RH</abbr>44 a fait l'objet d'essais au champ en conditions confin\u00e9es au Canada, dans les provinces de l'Alberta, du Manitoba et de la Saskatchewan, entre 1999 et 2002.</p>\n<p><abbr lang=\"de\" title=\"Badische Anilin und Soda Fabrik\">BASF</abbr> Canada a fourni des donn\u00e9es sur l'identit\u00e9 de la lign\u00e9e <abbr lang=\"en\" title=\"Relative Hybrid\">RH</abbr>44, une description d\u00e9taill\u00e9e de la m\u00e9thode de modification et de l'origine g\u00e9n\u00e9tique de la lign\u00e9e ainsi que de l'information sur le g\u00e8ne modifi\u00e9, sur la prot\u00e9ine qui en r\u00e9sulte, sur son mode d'expression et sur la stabilit\u00e9 de cette expression. Elle a aussi fourni une liste de publications scientifiques pertinentes.</p>\n<p>Des caract\u00e9ristiques agronomiques telles que le rendement grainier, la pr\u00e9cocit\u00e9 de maturation, la hauteur des plantes et la sensibilit\u00e9 aux maladies ont \u00e9t\u00e9 compar\u00e9es \u00e0 celles de contreparties non modifi\u00e9es de <span lang=\"la\"><abbr title=\"Lens\">L.</abbr> culinaris</span>.</p>\n<p>Les composants nutritionnels de la lign\u00e9e <abbr lang=\"en\" title=\"Relative Hybrid\">RH</abbr>44, comme les grands groupes de composants, les acides amin\u00e9s et les acides gras, ont \u00e9t\u00e9 compar\u00e9s \u00e0 ceux de contreparties de lentille non modifi\u00e9es. La teneur en facteurs antinutritionnels de la lign\u00e9e <abbr lang=\"en\" title=\"Relative Hybrid\">RH</abbr>44 a \u00e9galement \u00e9t\u00e9  compar\u00e9e \u00e0 celle de contreparties non modifi\u00e9es.</p>\n<p>Le Bureau de la bios\u00e9curit\u00e9 v\u00e9g\u00e9tale (BBV) de l'Agence canadienne d'inspection des aliments (ACIA) a examin\u00e9 ces renseignements en fonction des crit\u00e8res suivants, \u00e9nonc\u00e9s dans la directive de r\u00e9glementation Dir94-08 Crit\u00e8res d'\u00e9valuation du risque environnemental associ\u00e9 aux v\u00e9g\u00e9taux \u00e0 caract\u00e8res nouveaux\u00a0:</p>\n<ul>\n<li>possibilit\u00e9 que la lign\u00e9e <abbr lang=\"en\" title=\"Relative Hybrid\">RH</abbr>44 devienne une mauvaise herbe pour l'agriculture ou envahisse les habitats naturels;</li>\n<li>possibilit\u00e9 de flux g\u00e9n\u00e9tique de la lign\u00e9e <abbr lang=\"en\" title=\"Relative Hybrid\">RH</abbr>44 vers des esp\u00e8ces sauvages apparent\u00e9es, dont la descendance hybride risque de devenir encore plus envahissante;</li>\n<li>possibilit\u00e9 que la lign\u00e9e <abbr lang=\"en\" title=\"Relative Hybrid\">RH</abbr>44 devienne nuisible;</li>\n<li>impact possible de la lign\u00e9e <abbr lang=\"en\" title=\"Relative Hybrid\">RH</abbr>44 ou de ses produits g\u00e9niques sur des esp\u00e8ces non vis\u00e9es, y compris l'\u00eatre humain;</li>\n<li>impact possible de la lign\u00e9e <abbr lang=\"en\" title=\"Relative Hybrid\">RH</abbr>44 sur la biodiversit\u00e9.</li>\n</ul>\n<p>La Section des aliments du b\u00e9tail de l'<abbr title=\"Agence canadienne d'inspection des aliments\">ACIA</abbr> a \u00e9galement examin\u00e9 les renseignements susmentionn\u00e9s, relativement aux crit\u00e8res d'\u00e9valuation, pour d\u00e9terminer l'innocuit\u00e9 et l'efficacit\u00e9 de l'aliment du b\u00e9tail nouveau, conform\u00e9ment \u00e0 la directive de r\u00e9glementation Dir95-03\u00a0:</p>\n<ul>\n<li>impact possible de la lign\u00e9e <abbr lang=\"en\" title=\"Relative Hybrid\">RH</abbr>44 sur la nutrition du b\u00e9tail;</li>\n<li>impact possible de la lign\u00e9e <abbr lang=\"en\" title=\"Relative Hybrid\">RH</abbr>44 sur le b\u00e9tail ainsi que sur les travailleurs et les tiers.</li>\n</ul>\n<p>En outre, l'<abbr title=\"Agence canadienne d'inspection des aliments\">ACIA</abbr> a examin\u00e9 une m\u00e9thode, soumise par <abbr title=\"Badische Anilin und Soda Fabrik\" lang=\"de\">BASF</abbr> Canada, pour la d\u00e9tection et l'identification des lentilles contenant ce g\u00e8ne modifi\u00e9 de l'<abbr title=\"ac\u00e9tohydroxyacide-synth\u00e9tase\">AHAS</abbr>.</p>\n<h2 id=\"a3\"><abbr title=\"3\">III</abbr>. Description du caract\u00e8re nouveau</h2>\n<h3>1. M\u00e9thode de mise au point</h3>\n<p>La lign\u00e9e mutante <abbr lang=\"en\" title=\"Relative Hybrid\">RH</abbr>44 a \u00e9t\u00e9 obtenue par mutation chimique. Des graines de nombreux cultivars de lentille ont \u00e9t\u00e9  trait\u00e9es par lot au moyen du m\u00e9thylsulfonate d'\u00e9thyle (EMS), puis plant\u00e9es. On s'est servi de m\u00e9thodes de s\u00e9lection portant sur la plante enti\u00e8re, ax\u00e9es sur la tol\u00e9rance \u00e0 l'herbicide. Un mutant tol\u00e9rant l'herbicide a \u00e9t\u00e9  s\u00e9lectionn\u00e9 et d\u00e9sign\u00e9 lign\u00e9e <abbr lang=\"en\" title=\"Relative Hybrid\">RH</abbr>44.</p>\n<p>Diplo\u00efde (2n= 14 chromosomes), la lign\u00e9e <abbr lang=\"en\" title=\"Relative Hybrid\">RH</abbr>44 appartient au genre <span lang=\"la\">Lens</span> et \u00e0 l'esp\u00e8ce <span lang=\"la\">culinaris</span>.</p>\n<h3>2. Tol\u00e9rance aux imidazolinones</h3>\n<p>Les herbicides de type imidazolinone inhibent l'enzyme ac\u00e9tohydroxyacide-synth\u00e9tase (AHAS), \u00e9galement connue sous le nom d'ac\u00e9tolactate-synth\u00e9tase (ALS).</p>\n<p>L'<abbr title=\"ac\u00e9tohydroxyacide-synth\u00e9tase\">AHAS</abbr> est une enzyme qu'on retrouve chez les bact\u00e9ries, certains autres microorganismes et les v\u00e9g\u00e9taux. Elle catalyse la premi\u00e8re \u00e9tape de la biosynth\u00e8se de l'isoleucine, de la leucine et de la valine, acides amin\u00e9s essentiels \u00e0 cha\u00eene ramifi\u00e9e. L'inhibition de l'<abbr title=\"ac\u00e9tohydroxyacide-synth\u00e9tase\">AHAS</abbr> par l'herbicide entra\u00eene une diminution l\u00e9tale de la synth\u00e8se des prot\u00e9ines. Les lentilles non modifi\u00e9s ne tol\u00e8rent pas les herbicides de type imidazolinone.</p>\n<p>Le remplacement d'un seul acide amin\u00e9 dans la s\u00e9quence de l'<abbr title=\"ac\u00e9tohydroxyacide-synth\u00e9tase\">AHAS</abbr>, qui suffit \u00e0 modifier le site de liaison des imidazolinones et, ainsi, \u00e0 emp\u00eacher ces dernier d'inhiber l'<abbr title=\"ac\u00e9tohydroxyacide-synth\u00e9tase\">AHAS</abbr>, a produit un ph\u00e9notype tol\u00e9rant l'herbicide.</p>\n<p>Le nouveau caract\u00e8re de tol\u00e9rance aux herbicides de type imidazolinone est r\u00e9gul\u00e9 par le promoteur natif de l'<abbr title=\"ac\u00e9tohydroxyacide-synth\u00e9tase\">AHAS</abbr> et serait exprim\u00e9 de fa\u00e7on constitutive. Des donn\u00e9es sur la s\u00e9quence du g\u00e8ne modifi\u00e9 de l'<abbr title=\"ac\u00e9tohydroxyacide-synth\u00e9tase\">AHAS</abbr> ont \u00e9t\u00e9  fournies.</p>\n<p>La tol\u00e9rance aux herbicides de type imidazolinone a \u00e9t\u00e9 d\u00e9montr\u00e9e par comparaison de l'activit\u00e9 de l'<abbr title=\"ac\u00e9tohydroxyacide-synth\u00e9tase\">AHAS</abbr> extraite de plants de lentille de la lign\u00e9e <abbr lang=\"en\" title=\"Relative Hybrid\">RH</abbr>44 \u00e0 celle de plants de lentille de type sauvage.</p>\n<p>Chez la lentille, les concentrations de valine, de leucine et d'isoleucine sont r\u00e9gul\u00e9es par r\u00e9tro-inhibition de l'<abbr title=\"ac\u00e9tohydroxyacide-synth\u00e9tase\">AHAS</abbr>. <abbr title=\"Badische Anilin und Soda Fabrik\" lang=\"de\">BASF</abbr> a fourni des donn\u00e9es montant que l'<abbr title=\"ac\u00e9tohydroxyacide-synth\u00e9tase\">AHAS</abbr> modifi\u00e9e pr\u00e9sente une r\u00e9tro-inhibition semblable par la valine et la leucine, par rapport \u00e0 l'<abbr title=\"ac\u00e9tohydroxyacide-synth\u00e9tase\">AHAS</abbr> non modifi\u00e9e. La modification de l'<abbr title=\"ac\u00e9tohydroxyacide-synth\u00e9tase\">AHAS</abbr> ne modifie pas la r\u00e9tro-inhibition et, par cons\u00e9quent, la r\u00e9gulation de ces acides amin\u00e9s et leur concentration.</p>\n<p>Contrairement aux allerg\u00e8nes alimentaires connus, l'<abbr title=\"ac\u00e9tohydroxyacide-synth\u00e9tase\">AHAS</abbr> est une prot\u00e9ine secondaire dans le tissu v\u00e9g\u00e9tal, sensible \u00e0 la chaleur et sujette \u00e0 la d\u00e9gradation par la trypsine. La prot\u00e9ine <abbr title=\"ac\u00e9tohydroxyacide-synth\u00e9tase\">AHAS</abbr> de la lign\u00e9e <abbr lang=\"en\" title=\"Relative Hybrid\">RH</abbr>44 s'est r\u00e9v\u00e9l\u00e9e thermosensible, aucune activit\u00e9 de l'enzyme n'\u00e9tant d\u00e9celable apr\u00e8s une minute de chauffage \u00e0  100\u00b0<abbr title=\"Celsius\">C</abbr>. L'<abbr title=\"ac\u00e9tohydroxyacide-synth\u00e9tase\">AHAS</abbr> a \u00e9t\u00e9 compl\u00e8tement d\u00e9grad\u00e9e en moins de 30 minutes de traitement \u00e0 la trypsine. La forme non modifi\u00e9e de la prot\u00e9ine <abbr title=\"ac\u00e9tohydroxyacide-synth\u00e9tase\">AHAS</abbr> ne pr\u00e9sente aucune similitude, au niveau des acides amin\u00e9s, avec des allerg\u00e8nes connus. La s\u00e9quence d'acides amin\u00e9s de l'<abbr title=\"ac\u00e9tohydroxyacide-synth\u00e9tase\">AHAS</abbr> mutante diff\u00e8re par un seul acide amin\u00e9 de celle de la lentille non modifi\u00e9e. Les donn\u00e9es pr\u00e9sent\u00e9es montrent que le profil des prot\u00e9ines (bandes) et l'activit\u00e9 des <abbr title=\"immunoglobuline E\">IgE</abbr> de s\u00e9rums obtenus chez des personnes allergiques aux lentilles sont semblables, que les lentilles soient modifi\u00e9es ou non.</p>\n<h3>3. Stabilit\u00e9 du caract\u00e8re nouveau</h3>\n<p>La tol\u00e9rance aux imidazolinones apparue chez la lign\u00e9e <abbr lang=\"en\" title=\"Relative Hybrid\">RH</abbr>44 s'est exprim\u00e9e dans les g\u00e9n\u00e9rations suivantes selon une s\u00e9gr\u00e9gation conforme  \u00e0 celle qu'on observe normalement en pr\u00e9sence d'un all\u00e8le simple dominant. La lign\u00e9e <abbr lang=\"en\" title=\"Relative Hybrid\">RH</abbr>44, s\u00e9par\u00e9e du mutant original par plusieurs g\u00e9n\u00e9rations, affiche cette tol\u00e9rance de fa\u00e7on constante.</p>\n<h2 id=\"a4\"><abbr title=\"4\">IV</abbr>. Crit\u00e8res d'\u00e9valuation du risque environnemental</h2>\n<h3>1. Possibilit\u00e9 que la lign\u00e9e <abbr lang=\"en\" title=\"Relative Hybrid\">RH</abbr>44 devienne une mauvaise herbe pour l'agriculture ou envahisse les habitats naturels</h3>\n<p>Selon le document BIO2003-12, d\u00e9crivant la biologie de la lentille (<span lang=\"la\"><abbr title=\"Lens\">L.</abbr> culinaris</span>), les sujets non modifi\u00e9s de cette esp\u00e8ce n'envahissent pas les milieux sauvages au Canada. Or, selon les renseignements fournis par <abbr lang=\"de\" title=\"Badische Anilin und Soda Fabrik\">BASF</abbr> Canada, la lign\u00e9e <abbr lang=\"en\" title=\"Relative Hybrid\">RH</abbr>44 ne diff\u00e8re pas \u00e0 cet \u00e9gard de ses contreparties non modifi\u00e9es. Chez cette lign\u00e9e, la mutation du g\u00e8ne codant l'<abbr title=\"ac\u00e9tohydroxyacide-synth\u00e9tase\">AHAS</abbr> n'a pas eu d'effet appr\u00e9ciable sur la physiologie de la plante, comme le montrent les donn\u00e9es concernant sa performance agronomique et sa composition. Aucune diff\u00e9rence significative n'a \u00e9t\u00e9 d\u00e9cel\u00e9e entre la lign\u00e9e <abbr lang=\"en\" title=\"Relative Hybrid\">RH</abbr>44 et les lign\u00e9es de comparaison en ce qui concerne le rendement, la germination des graines, la pr\u00e9cocit\u00e9 de maturation ou les donn\u00e9es nutritionnelles, notamment la composition en acides amin\u00e9s et le pourcentage de mati\u00e8res grasses, de fibres et de prot\u00e9ines. Aucune donn\u00e9e pr\u00e9sent\u00e9e d'indique que la lign\u00e9e <abbr lang=\"en\" title=\"Relative Hybrid\">RH</abbr>44 poss\u00e8de des caract\u00e8res qui la rendraient envahissante dans les milieux non am\u00e9nag\u00e9s. Aucun avantage comp\u00e9titif n'a \u00e9t\u00e9  conf\u00e9r\u00e9 \u00e0 cette lign\u00e9e, outre sa tol\u00e9rance aux imidazolinones.</p>\n<p>La tol\u00e9rance aux imidazolinones ne peut en elle-m\u00eame faire que la lign\u00e9e <abbr lang=\"en\" title=\"Relative Hybrid\">RH</abbr>44 se comporte davantage comme une mauvaise herbe ou devienne plus envahissante que les lign\u00e9es non transform\u00e9es de <span lang=\"la\"><abbr title=\"Lens\">L.</abbr> culinaris</span>. Si des sujets spontan\u00e9s de lentille tol\u00e9rant les imidazolinones venaient  \u00e0 appara\u00eetre dans les cultures subs\u00e9quentes, ils ne pourraient \u00eatre d\u00e9truits en utilisant uniquement des herbicides de type imidazolinone. Cependant, autant dans les autres cultures que dans les terres en jach\u00e8re, il sera facile de d\u00e9truire ces plants spontan\u00e9s et toute mauvaise herbe tol\u00e9rant les imidazolinones, en employant des m\u00e9thodes m\u00e9caniques ou des herbicides \u00e0 mode d'action diff\u00e9rent.</p>\n<p>\u00c0 la lumi\u00e8re de ces consid\u00e9rations, l'<abbr title=\"Agence canadienne d'inspection des aliments\">ACIA</abbr> conclut que la lign\u00e9e <abbr lang=\"en\" title=\"Relative Hybrid\">RH</abbr>44 ne pr\u00e9sente pas davantage \u00e9cologique \u00e0 court terme comparativement aux vari\u00e9t\u00e9s de lentille actuellement offertes sur le march\u00e9.</p>\n<p>\u00c0 plus long terme, l'utilisation continue des imidazolinones sur les cultures tol\u00e9rant ces herbicides peut entra\u00eener une pression s\u00e9lective additionnelle favorisant l'apparition de mauvaises herbes tol\u00e9rant les herbicides du groupe 2. <abbr title=\"Badische Anilin und Soda Fabrik\" lang=\"de\">BASF</abbr> a soumis \u00e0 l'<abbr title=\"Agence canadienne d'inspection des aliments\">ACIA</abbr> un plan de g\u00e9rance d\u00e9crivant les strat\u00e9gies appropri\u00e9es de d\u00e9ploiement de la lign\u00e9e <abbr lang=\"en\" title=\"Relative Hybrid\">RH</abbr>44 qui tiennent compte de ces pr\u00e9occupations. Le plan de g\u00e9rance soumis par <abbr title=\"Badische Anilin und Soda Fabrik\" lang=\"de\">BASF</abbr> est bas\u00e9 sur la biologie de la lentille et sur les pratiques agronomiques qui lui sont associ\u00e9es. Il a \u00e9galement \u00e9t\u00e9 ent\u00e9rin\u00e9 par les  <span lang=\"en\">Saskatchewan Pulse Growers</span> et le <span lang=\"en\">Saskatchewan Crop Development Centre</span>. Le plan de g\u00e9rance figure \u00e0 l'<a href=\"/varietes-vegetales/vegetaux-a-caracteres-nouveaux/approuves-cours-d-evaluation/documents-des-decisions/dd2004-46/dd2004-46-basf-/fra/1311869861568/1311870030490\">annexe 1</a> du pr\u00e9sent document.</p>\n<p>L'<abbr title=\"Agence canadienne d'inspection des aliments\">ACIA</abbr> reconna\u00eet que la mise en \u0153uvre de ce plan de g\u00e9rance peut \u00eatre influenc\u00e9e par les progr\u00e8s scientifiques futurs, les changements importants qui pourraient survenir dans les pratiques des producteurs de lentille ou encore par la conformit\u00e9 des producteurs \u00e0 ce plan.</p>\n<p>Pour contr\u00f4ler la mise en \u0153uvre du Plan de g\u00e9rance de la tol\u00e9rance aux herbicides de la lentille <span lang=\"en\">Clearfield</span>, l'<abbr title=\"Agence canadienne d'inspection des aliments\">ACIA</abbr> exigera que <abbr title=\"Badische Anilin und Soda Fabrik\" lang=\"de\">BASF</abbr> soumette un rapport au <abbr title=\"Bureau de la bios\u00e9curit\u00e9 v\u00e9g\u00e9tale\">BBV</abbr> tous les trois ans. Ce rapport d\u00e9crira la surveillance de la conformit\u00e9 des producteurs au plan de g\u00e9rance effectu\u00e9e par <abbr title=\"Badische Anilin und Soda Fabrik\" lang=\"de\">BASF</abbr> ainsi que tout changement qui pourrait \u00eatre apport\u00e9 au plan lui-m\u00eame. Comme il est soulign\u00e9 dans la section <abbr title=\"6\">VI</abbr> du pr\u00e9sent document, <abbr title=\"Badische Anilin und Soda Fabrik\" lang=\"de\">BASF</abbr> pourra pr\u00e9senter des rapports \u00e0 des intervalles plus fr\u00e9quents si la soci\u00e9t\u00e9 prenait connaissance de donn\u00e9es nouvelles sur le risque environnemental de la lign\u00e9e <abbr lang=\"en\" title=\"Relative Hybrid\">RH</abbr>44 ou des lign\u00e9es de lentille d\u00e9riv\u00e9es de la lign\u00e9e <abbr lang=\"en\" title=\"Relative Hybrid\">RH</abbr>44.</p>\n<h3>2. Possibilit\u00e9 de flux g\u00e9n\u00e9tique de la lign\u00e9e <abbr lang=\"en\" title=\"Relative Hybrid\">RH</abbr>44 vers des esp\u00e8ces sauvages apparent\u00e9es, dont la descendance hybride risque de devenir encore plus envahissante</h3>\n<p>La biologie de la lentille, d\u00e9crite dans le document BIO2003-12, indique a) que les plants de lentille pr\u00e9sentent un taux de croisement \u00e9loign\u00e9 inf\u00e9rieur \u00e0 un pour cent et b) qu'il n'existe pas d'esp\u00e8ces sauvages ou mauvaises herbes apparent\u00e9es au Canada qui puissent s'hybrider naturellement avec  <span lang=\"la\"><abbr title=\"Lens\">L.</abbr> culinaris</span>.</p>\n<p>En cons\u00e9quence, l'<abbr title=\"Agence canadienne d'inspection des aliments\">ACIA</abbr> conclut qu'un flux g\u00e9n\u00e9tique depuis la lign\u00e9e <abbr lang=\"en\" title=\"Relative Hybrid\">RH</abbr>44 vers une esp\u00e8ce sauvage ou une mauvaise herbe apparent\u00e9e est extr\u00eamement peu probable.</p>\n<h3>3. Possibilit\u00e9 que la lign\u00e9e <abbr lang=\"en\" title=\"Relative Hybrid\">RH</abbr>44 devienne nuisible</h3>\n<p>Il est peu probable que l'effet du caract\u00e8re nouveau entra\u00eene un comportement de mauvaise herbe chez le <abbr title=\"v\u00e9g\u00e9taux caract\u00e9res nouveaux\">VCN</abbr>, sans compter que <span lang=\"la\"><abbr title=\"Linnaeus\">L.</abbr> culinaris</span> n'est pas consid\u00e9r\u00e9e comme une esp\u00e8ce nuisible au Canada.</p>\n<p>La lign\u00e9e <abbr lang=\"en\" title=\"Relative Hybrid\">RH</abbr>44 et une lign\u00e9e non mutante appropri\u00e9e au bagage g\u00e9n\u00e9tique similaire ont \u00e9t\u00e9 mises en pr\u00e9sence de plusieurs insectes nuisibles et pathog\u00e8nes fongiques qui s'attaquent habituellement \u00e0 la lentille. Selon les donn\u00e9es pr\u00e9sent\u00e9es par <abbr title=\"Badische Anilin und Soda Fabrik\" lang=\"de\">BASF</abbr>, rien n'indique que la lign\u00e9e <abbr lang=\"en\" title=\"Relative Hybrid\">RH</abbr>44 pourrait devenir plus nuisible. Dans tous les cas, les r\u00e9ponses de la lign\u00e9e <abbr lang=\"en\" title=\"Relative Hybrid\">RH</abbr>44 se situaient \u00e0 l'int\u00e9rieur des limites observ\u00e9es chez les cultivars de lentille actuellement commercialis\u00e9s.</p>\n<p>En outre, on a pu \u00e9tablir que les caract\u00e9ristiques agronomiques de la lign\u00e9e <abbr lang=\"en\" title=\"Relative Hybrid\">RH</abbr>44 se situent \u00e0 l'int\u00e9rieur des limites normalement observ\u00e9es chez les vari\u00e9t\u00e9s de lentille d\u00e9j\u00e0 commercialis\u00e9es, ce qui permet de conclure que la possibilit\u00e9 que ce v\u00e9g\u00e9tal devienne nuisible n'a pas \u00e9t\u00e9 modifi\u00e9e par inadvertance.</p>\n<p>Comme aucune s\u00e9quence g\u00e9n\u00e9tique d'un pathog\u00e8ne v\u00e9g\u00e9tal n'a \u00e9t\u00e9 utilis\u00e9e dans la cr\u00e9ation de la lign\u00e9e <abbr lang=\"en\" title=\"Relative Hybrid\">RH</abbr>44, il est tr\u00e8s peu probable qu'elle exprime une caract\u00e9ristique nouvelle d'un pathog\u00e8ne v\u00e9g\u00e9tal.</p>\n<p>L'<abbr title=\"Agence canadienne d'inspection des aliments\">ACIA</abbr> estime donc que la lign\u00e9e <abbr lang=\"en\" title=\"Relative Hybrid\">RH</abbr>44 risque peu de devenir plus nuisible que la lentille non modifi\u00e9e.</p>\n<h3>4. Impact possible de la lign\u00e9e <abbr lang=\"en\" title=\"Relative Hybrid\">RH</abbr>44 sur les organismes non vis\u00e9s</h3>\n<p>Chez plusieurs v\u00e9g\u00e9taux tol\u00e9rant les imidazolinones, le fondement mol\u00e9culaire de la tol\u00e9rance repose sur des substitutions d'un seul acide amin\u00e9 de l'enzyme <abbr title=\"ac\u00e9tohydroxyacide-synth\u00e9tase\">AHAS</abbr> ayant pour effet de modifier, chez l'enzyme, le site de fixation utilis\u00e9 par l'herbicide. <abbr title=\"Badische Anilin und Soda Fabrik\" lang=\"de\">BASF</abbr> Canada a fourni des donn\u00e9es et de l'information montrant que l'<abbr title=\"ac\u00e9tohydroxyacide-synth\u00e9tase\">AHAS</abbr> ainsi modifi\u00e9e est essentiellement \u00e9quivalente \u00e0 l'<abbr title=\"ac\u00e9tohydroxyacide-synth\u00e9tase\">AHAS</abbr> native. La mutation dans le g\u00e8ne de l'<abbr title=\"ac\u00e9tohydroxyacide-synth\u00e9tase\">AHAS</abbr> de la lign\u00e9e  <abbr lang=\"en\" title=\"Relative Hybrid\">RH</abbr>44 ne modifie pas de fa\u00e7on appr\u00e9ciable la biosynth\u00e8se des acides amin\u00e9s \u00e0 cha\u00eene ramifi\u00e9e valine, leucine et isoleucine ni la composition nutritionnelle de la plante.</p>\n<p>\u00c0 la lumi\u00e8re de ces renseignements, l'<abbr title=\"Agence canadienne d'inspection des aliments\">ACIA</abbr> estime que le g\u00e8ne modifi\u00e9 de l'<abbr title=\"ac\u00e9tohydroxyacide-synth\u00e9tase\">AHAS</abbr> n'aura pas d'incidences diff\u00e9rentes de celles de son homologue non modifi\u00e9  pour l'\u00eatre humain ni pour les autres esp\u00e8ces ayant des interactions avec la lign\u00e9e\u00a0<abbr lang=\"en\" title=\"Relative Hybrid\">RH</abbr>44.</p>\n<p>L'enzyme <abbr title=\"ac\u00e9tohydroxyacide-synth\u00e9tase\">AHAS</abbr> n'est pas une toxine connue, elle ne conf\u00e8re pas de r\u00e9sistance \u00e0 des phytoravageurs agricoles et elle est largement r\u00e9pandue chez une grande vari\u00e9t\u00e9 de v\u00e9g\u00e9taux et de microorganismes ayant des ant\u00e9c\u00e9dents d'utilisation s\u00e9curitaire. Aucune nouvelle toxine n'a \u00e9t\u00e9 introduite dans cette vari\u00e9t\u00e9. Par cons\u00e9quent, on ne pr\u00e9voit aucune interaction n\u00e9gative avec des organismes consommateurs ou symbiotiques non cibles.</p>\n<p>En outre, les caract\u00e9ristiques agronomiques, les interactions avec les pathog\u00e8nes et la sensibilit\u00e9 de la lign\u00e9e\u00a0<abbr lang=\"en\" title=\"Relative Hybrid\">RH</abbr>44 \u00e0 l'\u00e9gard des insectes nuisibles se situent \u00e0 l'int\u00e9rieur des limites normalement observ\u00e9es chez les vari\u00e9t\u00e9s de <span lang=\"la\"><abbr title=\"Lens\">L.</abbr> culinaris</span> d\u00e9j\u00e0 commercialis\u00e9es. L'<abbr title=\"Agence canadienne d'inspection des aliments\">ACIA</abbr> a conclu qu'il n'y aurait probablement pas de changements non intentionnels appr\u00e9ciables chez la lign\u00e9e\u00a0<abbr lang=\"en\" title=\"Relative Hybrid\">RH</abbr>44 qui pourraient avoir des r\u00e9percussions n\u00e9gatives sur des organismes non cibles.</p>\n<h3>5. Impact possible de la lign\u00e9e <abbr lang=\"en\" title=\"Relative Hybrid\">RH</abbr>44 sur la biodiversit\u00e9</h3>\n<p>Comme on l'a pr\u00e9cis\u00e9 plus haut, la lign\u00e9e <abbr lang=\"en\" title=\"Relative Hybrid\">RH</abbr>44 ne poss\u00e8de pas de caract\u00e8res ph\u00e9notypiques nouveaux qui pourraient en \u00e9tendre l'utilisation au-del\u00e0 des zones actuelles de culture de la lentille au Canada. Les r\u00e9ponses de la lign\u00e9e <abbr lang=\"en\" title=\"Relative Hybrid\">RH</abbr>44 face \u00e0 des insectes nuisibles et  \u00e0 des pathog\u00e8nes fongiques courants sont dans les limites des variations que pr\u00e9sentent les cultivars de lentille d\u00e9j\u00e0 commercialis\u00e9s. Puisque la lentille ne peut former d'hybride par allopollinisation naturelle avec aucune esp\u00e8ce sauvage apparent\u00e9e pr\u00e9sente au Canada, le transfert du caract\u00e8re nouveau aux esp\u00e8ces apparent\u00e9es des milieux sauvages est fort peu probable. En cons\u00e9quence, l'<abbr title=\"Agence canadienne d'inspection des aliments\">ACIA</abbr> conclut que l'impact \u00e9ventuel de la lign\u00e9e <abbr lang=\"en\" title=\"Relative Hybrid\">RH</abbr>44 sur la biodiversit\u00e9 serait  \u00e9quivalent \u00e0 celui des vari\u00e9t\u00e9s actuellement commercialis\u00e9es..</p>\n<h2 id=\"a5\"><abbr title=\"5\">V</abbr>. Crit\u00e8res d'\u00e9valuation comme aliment du b\u00e9tail</h2>\n<h3>1. Impact possible sur la nutrition du b\u00e9tail</h3>\n<p>Composition nutritionnelle</p>\n<p>La composition nutritionnelle d'\u00e9chantillons de lentille de la lign\u00e9e <abbr lang=\"en\" title=\"Relative Hybrid\">RH</abbr>44, pr\u00e9lev\u00e9s \u00e0 divers endroits en Saskatchewan au cours de trois saisons de croissance (2000-2002), a \u00e9t\u00e9 d\u00e9termin\u00e9e. Les nutriments mesur\u00e9s comprenaient les grands groupes de composants, les acides amin\u00e9s, les acides gras, les vitamines B et les min\u00e9raux. Les  \u00e9chantillons t\u00e9moins pr\u00e9lev\u00e9s \u00e0 ces endroits comprenaient entre 3 et 6 vari\u00e9t\u00e9s commerciales. Dans certains cas, les donn\u00e9es (grands groupes de composants, acides amin\u00e9s) ont \u00e9t\u00e9 analys\u00e9es par les m\u00e9thodes statistiques appropri\u00e9es. Dans d'autres cas, une simple comparaison avec des vari\u00e9t\u00e9s commerciales t\u00e9moins a \u00e9t\u00e9 effectu\u00e9e (min\u00e9raux, acides gras, vitamines B). Le demandeur a d\u00e9montr\u00e9  que les compositions en prot\u00e9ines, en mati\u00e8res grasses, en fibres, en leucine et en valine n'\u00e9taient pas diff\u00e9rentes de celles des vari\u00e9t\u00e9s commerciales t\u00e9moins. Dans le cas de certains nutriments, il y avait des diff\u00e9rences significatives chez plusieurs vari\u00e9t\u00e9s de lentille (<abbr title=\"par exemple\">p. ex.</abbr> prot\u00e9ines, isoleucine et thr\u00e9onine), mais les valeurs mesur\u00e9es pour ces nutriments chez la lign\u00e9e <abbr lang=\"en\" title=\"Relative Hybrid\">RH</abbr>44 \u00e9taient des valeurs interm\u00e9diaires. Les concentrations signal\u00e9es pour les min\u00e9raux, les acides gras et les vitamines B \u00e9taient dans les limites signal\u00e9es pour les vari\u00e9t\u00e9s t\u00e9moins commerciales.</p>\n<p>Facteurs antinutritionnels</p>\n<p>L'acide phytique et l'inhibiteur de la trypsine ont \u00e9t\u00e9 dos\u00e9s dans des \u00e9chantillons de la lign\u00e9e <abbr lang=\"en\" title=\"Relative Hybrid\">RH</abbr>44 et de 5 vari\u00e9t\u00e9s commerciales (\u00e9chantillon regroup\u00e9 de chaque vari\u00e9t\u00e9). Les concentrations d'acide phytique mesur\u00e9es chez la lign\u00e9e <abbr lang=\"en\" title=\"Relative Hybrid\">RH</abbr>44 \u00e9taient dans les limites observ\u00e9es pour les cultivars commerciaux, et l'inhibiteur de la trypsine n'a \u00e9t\u00e9 d\u00e9tect\u00e9 chez aucune des vari\u00e9t\u00e9s (&lt;2000 <abbr title=\"unit\u00e9 d'inhibiteur de trypsine\">UIT</abbr>).</p>\n<p>Le demandeur a d\u00e9montr\u00e9 que la composition nutritionnelle de la lign\u00e9e <abbr lang=\"en\" title=\"Relative Hybrid\">RH</abbr>44 est semblable \u00e0 celle des vari\u00e9t\u00e9s commerciales cultiv\u00e9es au Canada.</p>\n<h3>2. Impact possible sur le b\u00e9tail ainsi que sur les travailleurs et les tiers</h3>\n<p>On trouve l'enzyme <abbr title=\"ac\u00e9tohydroxyacide-synth\u00e9tase\">AHAS</abbr> chez des v\u00e9g\u00e9taux et des microorganismes tr\u00e8s divers. L'<abbr title=\"ac\u00e9tohydroxyacide-synth\u00e9tase\">AHAS</abbr> n'est pas connue pour \u00eatre une toxine ni un allerg\u00e8ne, et la modification d'une seule paire de bases ne devrait rien y changer. L'<abbr title=\"ac\u00e9tohydroxyacide-synth\u00e9tase\">AHAS</abbr> provenant de la lign\u00e9e <abbr lang=\"en\" title=\"Relative Hybrid\">RH</abbr>44 subit une r\u00e9tro-inhibition par la valine et la leucine tout comme l'<abbr title=\"ac\u00e9tohydroxyacide-synth\u00e9tase\">AHAS</abbr> non modifi\u00e9e, elle est pr\u00e9sente en petites quantit\u00e9s dans les aliments du b\u00e9tail, elle est thermolabile et elle est rapidement d\u00e9grad\u00e9e dans les conditions r\u00e9gnant dans le tube digestif. La modification n'alt\u00e8re pas l'expression de l'<abbr title=\"ac\u00e9tohydroxyacide-synth\u00e9tase\">AHAS</abbr>. D'apr\u00e8s l'information fournie par <abbr lang=\"de\" title=\"Badische Anilin und Soda Fabrik\">BASF</abbr>, il est peu probable que l'<abbr title=\"ac\u00e9tohydroxyacide-synth\u00e9tase\">AHAS</abbr> modifi\u00e9e soit une nouvelle toxine ou un nouvel allerg\u00e8ne.</p>\n<p>D'apr\u00e8s la caract\u00e9risation d\u00e9taill\u00e9e fournie (composition nutritionnelle, donn\u00e9es agronomiques de la plante modifi\u00e9e par rapport \u00e0 celle de la contrepartie non modifi\u00e9e) et les profils similaires de prot\u00e9ines (bandes) et d'activit\u00e9 des  <abbr title=\"immunoglobuline E\">IgE</abbr> dans des s\u00e9rums pr\u00e9lev\u00e9s chez des personnes allergiques aux lentilles expos\u00e9es \u00e0 des lentilles modifi\u00e9es et non modifi\u00e9es, il est peu probable que des mutations secondaires causant des effets fortuits soient survenues dans le g\u00e9nome de la lentille.</p>\n<h2 id=\"a6\"><abbr title=\"6\">VI</abbr>. Nouveaux renseignements requis</h2>\n<p>Si jamais la soci\u00e9t\u00e9 <abbr lang=\"de\" title=\"Badische Anilin und Soda Fabrik\">BASF</abbr> prenait connaissance d'un risque pour l'environnement, la sant\u00e9 humaine ou la sant\u00e9 des animaux pouvant r\u00e9sulter de la diss\u00e9mination de ce v\u00e9g\u00e9tal au Canada ou \u00e0 l'\u00e9tranger, elle devrait imm\u00e9diatement transmettre ces renseignements \u00e0 l'<abbr title=\"Agence canadienne d'inspection des aliments\">ACIA</abbr>. L'<abbr title=\"Agence canadienne d'inspection des aliments\">ACIA</abbr> r\u00e9\u00e9valuerait alors l'impact potentiel de l'utilisation propos\u00e9e de cette lign\u00e9e de lentille et elle r\u00e9viserait sa d\u00e9cision d'en autoriser l'utilisation comme aliment du b\u00e9tail et la diss\u00e9mination dans l'environnement.</p>\n<h2 id=\"a7\"><abbr title=\"7\">VII</abbr>. D\u00e9cision r\u00e9glementaire</h2>\n<p>Apr\u00e8s examen des donn\u00e9es et des renseignements pr\u00e9sent\u00e9s par <abbr title=\"Badische Anilin und Soda Fabrik\" lang=\"de\">BASF</abbr> Canada, et apr\u00e8s comparaison de la lign\u00e9e <abbr lang=\"en\" title=\"Relative Hybrid\">RH</abbr>44 avec des contreparties de lentille non modifi\u00e9es, le Bureau de la bios\u00e9curit\u00e9 v\u00e9g\u00e9tale de l'<abbr title=\"Agence canadienne d'inspection des aliments\">ACIA</abbr> a conclu que les g\u00e8nes modifi\u00e9s et leurs caract\u00e8res correspondants ne conf\u00e8rent pas \u00e0 ce v\u00e9g\u00e9tal de caract\u00e9ristiques qui entra\u00eeneraient un avantage \u00e9cologique ou un risque de devenir nuisible apr\u00e8s diss\u00e9mination en milieu ouvert.</p>\n<p>Apr\u00e8s examen des donn\u00e9es et des renseignements pr\u00e9sent\u00e9s par <abbr title=\"Badische Anilin und Soda Fabrik\" lang=\"de\">BASF</abbr>, et apr\u00e8s comparaison de la lign\u00e9s <abbr lang=\"en\" title=\"Relative Hybrid\">RH</abbr>44 avec des contreparties non modifi\u00e9es, la Section des aliments du b\u00e9tail de l'<abbr title=\"Agence canadienne d'inspection des aliments\">ACIA</abbr> a conclu que le g\u00e8ne modifi\u00e9 et son caract\u00e8re nouveau correspondant ne conf\u00e8rent pas \u00e0 ce v\u00e9g\u00e9tal de caract\u00e9ristiques qui pourraient susciter des inqui\u00e9tudes quant \u00e0 l'innocuit\u00e9 ou  \u00e0 la composition nutritionnelle de la lign\u00e9e de lentille <abbr lang=\"en\" title=\"Relative Hybrid\">RH</abbr>44. La lentille et les criblures de lentille figurent d\u00e9j\u00e0 \u00e0 l'annexe <abbr title=\"4\">IV</abbr> du R\u00e8glement sur les aliments du b\u00e9tail et peuvent donc \u00eatre utilis\u00e9es dans les aliments du b\u00e9tail au Canada. La lign\u00e9e <abbr lang=\"en\" title=\"Relative Hybrid\">RH</abbr>44 a \u00e9t\u00e9 \u00e9valu\u00e9e et s'est r\u00e9v\u00e9l\u00e9e essentiellement \u00e9quivalente aux vari\u00e9t\u00e9s de lentille traditionnelles, pour ce qui concerne l'innocuit\u00e9 et la valeur nutritionnelle. La lign\u00e9e de lentille  <abbr lang=\"en\" title=\"Relative Hybrid\">RH</abbr>44 et ses produits sont consid\u00e9r\u00e9s comme satisfaisant aux d\u00e9finitions actuelles d'ingr\u00e9dient, et leur utilisation en cette qualit\u00e9 dans les aliments du b\u00e9tail est approuv\u00e9e au Canada.</p>\n<p><strong>La diss\u00e9mination en milieu ouvert de la lign\u00e9e de lentille <abbr lang=\"en\" title=\"Relative Hybrid\">RH</abbr>44 et son emploi comme aliment du b\u00e9tail sont par cons\u00e9quent autoris\u00e9s \u00e0 compter du 24 juin 2004. L'importation et/ou la diss\u00e9mination de toute autre lign\u00e9e de lentille qui en serait issue sont \u00e9galement autoris\u00e9es, pourvu qu'aucun croisement intersp\u00e9cifique ne soit effectu\u00e9, que son utilisation pr\u00e9vue soit semblable et qu'une caract\u00e9risation approfondie ait d\u00e9montr\u00e9 que ces v\u00e9g\u00e9taux ne pr\u00e9sentent aucun autre caract\u00e8re nouveau et qu'ils sont essentiellement \u00e9quivalents aux lentilles actuellement cultiv\u00e9es, quant \u00e0 leur impact potentiel sur l'environnement et  \u00e0 leur innocuit\u00e9 comme aliment du b\u00e9tail.</strong></p>\n<p><strong>La lign\u00e9e de lentille <abbr lang=\"en\" title=\"Relative Hybrid\">RH</abbr>44 est assujettie aux m\u00eames conditions phytosanitaires d'importation que ses contreparties non modifi\u00e9es.</strong></p>\n<p>Veuillez consulter les <a href=\"https://www.canada.ca/fr/sante-canada/services/aliments-nutrition/aliments-genetiquement-modifies-autres-aliments-nouveaux/produits-approuves.html\">d\u00e9cisions de Sant\u00e9 Canada sur les aliments nouveaux</a> afin d'obtenir une description de l'\u00e9valuation de l'innocuit\u00e9 alimentaire de la lign\u00e9e de lentille RH44.</p>\n<p>Ce document est publi\u00e9 par la Division de la production et de la protection des v\u00e9g\u00e9taux de l'Agence canadienne d'inspection des aliments. Pour de plus amples renseignements, veuillez communiquer avec le Bureau de la bios\u00e9curit\u00e9 v\u00e9g\u00e9tale ou la Section des aliments du b\u00e9tail\u00a0:</p>\n<p>Bureau de la bios\u00e9curit\u00e9 v\u00e9g\u00e9tale<br> Direction des produits v\u00e9g\u00e9taux<br> 59 Camelot <span lang=\"en\">Drive</span>, Nepean<br> Ontario K1A 0Y9<br> 613-225-2342</p>\n<p>Section des aliments du b\u00e9tail<br> Division de la sant\u00e9 des animaux et de la production<br> Direction des produits animaux<br> 59 Camelot <span lang=\"en\">Drive</span>, Nepean<br> Ontario K1A 0Y9<br> 613-225-2342</p>\r\n        \r\n\r\n<div class=\"row\">\r\n \r\n\t\t\t\r\n\t\t\t\r\n\r\n\t\t\r\n\t\r\n</div>"
    },
    "js": {
        "en": "",
        "fr": ""
    },
    "chat_wizard": false,
    "success": true
}