{
    "dcr_id": "1304003062748",
    "title": {
        "en": "VICH - The International Cooperation on Harmonization of Technical Requirements for the Registration of Veterinary Medicinal Products",
        "fr": "VICH - Coop\u00e9ration internationale pour l'harmonisation des exigences techniques s'appliquant \u00e0 l'enregistrement des produits pharmaceutiques v\u00e9t\u00e9rinaires"
    },
    "html_modified": "2011-04-28 11:04",
    "modified": "25-1-2022",
    "issued": "28-4-2011",
    "teamsite_location": {
        "en": "/default/main/inspection/cont-cont/animals-animaux/WORKAREA/animals-animaux/templatedata/comn-comn/gene-gene/data/vetbio_vich_index_1304003062748_eng",
        "fr": "/default/main/inspection/cont-cont/animals-animaux/WORKAREA/animals-animaux/templatedata/comn-comn/gene-gene/data/vetbio_vich_index_1304003062748_fra"
    },
    "parent_ia_id": "1320704254070",
    "ia_id": "1320717461701",
    "parent_node_id": "1320704254070",
    "layout_name": "content page 1 column",
    "breadcrumb": {
        "en": "VICH - The International Cooperation on Harmonization of Technical Requirements for the Registration of Veterinary Medicinal Products",
        "fr": "VICH - Coop\u00e9ration internationale pour l'harmonisation des exigences techniques s'appliquant \u00e0 l'enregistrement des produits pharmaceutiques v\u00e9t\u00e9rinaires"
    },
    "label": {
        "en": "VICH - The International Cooperation on Harmonization of Technical Requirements for the Registration of Veterinary Medicinal Products",
        "fr": "VICH - Coop\u00e9ration internationale pour l'harmonisation des exigences techniques s'appliquant \u00e0 l'enregistrement des produits pharmaceutiques v\u00e9t\u00e9rinaires"
    },
    "templatetype": "content page 1 column",
    "node_id": "1320717461701",
    "managing_branch": "comn",
    "type_name": "sitemapinit",
    "parent_dcr_id": "1299160285341",
    "orig_type_name": "sitemapinit",
    "has_dcr_id": true,
    "lang": "en",
    "could_not_load": 0,
    "refaire": false,
    "interwoven_url": {
        "en": "/animal-health/veterinary-biologics/guidelines-forms/vich/",
        "fr": "/sante-des-animaux/produits-biologiques-veterinaires/lignes-directrices-formulaires/vich/"
    },
    "meta": {
        "viewport": {
            "en": "width=device-width,initial-scale=1",
            "fr": "width=device-width,initial-scale=1"
        },
        "service": {
            "en": "CFIA-ACIA",
            "fr": "CFIA-ACIA"
        },
        "accessRights": {
            "en": "2",
            "fr": "2"
        },
        "title": {
            "en": "VICH - The International Cooperation on Harmonization of Technical Requirements for the Registration of Veterinary Medicinal Products",
            "fr": "VICH - Coop\u00e9ration internationale pour l'harmonisation des exigences techniques s'appliquant \u00e0 l'enregistrement des produits pharmaceutiques v\u00e9t\u00e9rinaires"
        },
        "description": {
            "en": "The International Cooperation on Harmonization of Technical Requirements for the Registration of Veterinary Medicinal ProductsVICH The International Cooperation on Harmonization of Technical Requirements for the Registration of Veterinary Medicinal Products (VICH) is a trilateral program that brings together regulatory authorities and experts from the animal health industry in three regions (European Union, Japan and the United States).",
            "fr": "VICH - Coop\u00e9ration internationnale pour lharmonisation des exigences techniques sappliquant \u00e0 lenregistrement des produits pharmaceutiques v\u00e9t\u00e9rinairesCoop\u00e9ration internationnale pour lharmonisation des exigences techniques sappliquant \u00e0 lenregistrement des produits pharmaceutiques v\u00e9t\u00e9rinaires VICH (Coop\u00e9ration internationnale pour lharmonisation des exigences techniques sappliquant \u00e0 lenregistrement des produits pharmaceutiques v\u00e9t\u00e9rinaires) est un programme trilat\u00e9ral rassemblant des organismes de r\u00e9glementation et des experts dans le domaine de la sant\u00e9 animale de lUnion europ\u00e9enne, du Japon et des \u00c9tats-Unis."
        },
        "keywords": {
            "en": "Harmonization of Technical Requirement, Veterinary Biologics website, International Cooperation, Canadian Centre, Alternate approaches",
            "fr": "harmonisation des exigences techniques, lignes directrices, enregistrement des produits pharmaceut, autres approches, Coop\u00e9ration internationnale"
        },
        "dcterms.subject": {
            "en": "inspection",
            "fr": "inspection"
        },
        "creator": {
            "en": "Government of Canada,Canadian Food Inspection Agency,Animal Health Directorate",
            "fr": "Gouvernement du Canada,Agence canadienne d'inspection des aliments,Direction sant\u00e9 des animaux"
        },
        "language": {
            "en": "eng",
            "fr": "fra"
        },
        "issued": {
            "en": "2011-04-28 11:04:25",
            "fr": "2011-04-28 11:04:25"
        },
        "modified": {
            "en": "2022-01-25",
            "fr": "2022-01-25"
        },
        "name": {
            "en": "Government of Canada",
            "fr": "Gouvernement du Canada"
        },
        "areaServed": {
            "en": "Canada",
            "fr": "Canada"
        }
    },
    "h1": {
        "en": "VICH - The International Cooperation on Harmonization of Technical Requirements for the Registration of Veterinary Medicinal Products",
        "fr": "VICH - Coop\u00e9ration internationale pour l'harmonisation des exigences techniques s'appliquant \u00e0 l'enregistrement des produits pharmaceutiques v\u00e9t\u00e9rinaires"
    },
    "body": {
        "en": "        \r\n        \n<section class=\"alert alert-info\">\r\n<h2 class=\"h3\">This page is part of the Guidance Document Repository (GDR).</h2>\r\n<p>\r\n<br>\r\n<a href=\"/industry-guidance/eng/1374161650885/1374161737236?gp=1&amp;gc=32&amp;ga=1#gdr_results\" class=\"alert-link\">\r\n            Search for related documents in the Guidance Document Repository\r\n</a>\r\n</p>\r\n</section><h2>Guidelines</h2>\n<p>Although the Canadian Centre for Veterinary Biologics (CCVB) intends to adopt <abbr title=\"International Cooperation on Harmonisation of Technical Requirements for Registration of Veterinary Medicinal Products\">VICH</abbr> guidelines as primary guidance documents, they are to be viewed as administrative instruments and not specified requirements of the <i>Health of Animals Act</i> and regulations and therefore allow for flexibility of approach. Alternate approaches to the principles and practices described in the guidelines may be acceptable, provided they are supported by adequate scientific justification. Alternate approaches should be discussed in advance with the <abbr title=\"Canadian Centre for Veterinary Biologics\">CCVB</abbr> to help ensure that regulatory requirements can be met.</p>\n<ul>\n<li><a href=\"https://www.canada.ca/en/health-canada/services/drugs-health-products/veterinary-drugs/legislation-guidelines/guidance-documents/vich.html\"><abbr title=\"International Cooperation on Harmonisation of Technical Requirements for Registration of Veterinary Medicinal Products\">VICH</abbr> Guidelines Adopted by Canada</a>\n<ul>\n<li><a href=\"/animal-health/veterinary-biologics/guidelines-forms/vich/residual-formaldehyde/eng/1304003881585/1320717578987\"><abbr title=\"International Cooperation on Harmonisation of Technical Requirements for Registration of Veterinary Medicinal Products\">VICH</abbr> <abbr title=\"guideline\">GL</abbr> 25 - Testing of Residual Formaldehyde</a></li>\n<li><a href=\"/animal-health/veterinary-biologics/guidelines-forms/vich/residual-moisture/eng/1304093643636/1320717677506\"><abbr title=\"International Cooperation on Harmonisation of Technical Requirements for Registration of Veterinary Medicinal Products\">VICH</abbr> <abbr title=\"guideline\">GL</abbr> 26 - Testing of Residual Moisture</a></li>\n<li><a href=\"https://vichsec.org/en/component/attachments/attachments/1678.html?task=download\">VICH GL 50 - Harmonisation of criteria to waive target animal batch safety testing (TABST) for inactivated vaccines for veterinary use - PDF (500 kb)</a></li>\n<li><a href=\"https://vichsec.org/en/component/attachments/attachments/1679.html?task=download\">VICH GL 55 - Harmonisation of criteria to waive target animal batch safety testing (TABST) for live vaccines for veterinary use - PDF (505 kb)</a></li>\n<li><a href=\"https://vichsec.org/en/component/attachments/attachments/2313.html?task=download\">VICH GL 59 - Harmonisation of criteria to waive laboratory  animal batch safety testing (LABST) for vaccines for veterinary use - PDF (231 kb)</a></li>\n</ul>\n</li>\n</ul>\n<h2>Background</h2>\n<p>The International Cooperation on Harmonization of Technical Requirements for the Registration of Veterinary Medicinal Products (VICH) is a trilateral program that brings together regulatory authorities and experts from the animal health industry in the European Union, Japan and the United States. Regulatory authorities and industry experts from Australia, New Zealand and Canada participate in an observer capacity. <abbr title=\"International Cooperation on Harmonization of Technical Requirements for the Registration of Veterinary Medicinal Products\">VICH</abbr> was officially launched in April 1996 and is conducted under the auspices of the World Organisation for Animal Health (WOAH; founded as <span lang=\"fr\">Office International des \u00c9pizooties</span> (OIE)). Its primary objective is aimed at harmonizing technical requirements for registration of new veterinary medicinal products.</p>\n<p>Canadian government representatives at <abbr title=\"International Cooperation on Harmonization of Technical Requirements for the Registration of Veterinary Medicinal Products\">VICH</abbr> are from the Veterinary Drugs Directorate (VDD) of Health Canada and the Canadian Centre for Veterinary Biologics (CCVB) of the Canadian Food Inspection Agency (CFIA). The <abbr title=\"Veterinary Drugs Directorate\">VDD</abbr> provides expertise regarding veterinary drugs while the <abbr title=\"Canadian Centre for Veterinary Biologics\">CCVB</abbr> fulfills a similar role for veterinary biologicals. The <abbr title=\"Veterinary Drugs Directorate\">VDD</abbr> also serves as the Canadian Secretariat. More comprehensive information on Canada's participation in <abbr title=\"International Cooperation on Harmonization of Technical Requirements for the Registration of Veterinary Medicinal Products\">VICH</abbr>, stakeholder consultation process and publication of guidelines can be found at the <a href=\"https://www.canada.ca/en/health-canada/services/drugs-health-products/veterinary-drugs.html\">Veterinary Drugs Directorate</a> website.</p>\n<p>The primary outputs of the <abbr title=\"International Cooperation on Harmonization of Technical Requirements for the Registration of Veterinary Medicinal Products\">VICH</abbr> process are the development of harmonized guidelines which result from scientific consensus of the requirements of the participating regions. For more information on the history, structure, activities and guidelines can be found at the <a href=\"http://www.vichsec.org\">International Cooperation on Harmonization of Technical Requirements for the Registration of Veterinary Medicinal Products</a> website.</p>\r\n        \r\n\r\n\r\n\r\n<div class=\"row\">\r\n \r\n\t\r\n\t\t\t\r\n\r\n<div class=\"col-xm-12 pagedetails container\">\r\n\t\t\t\t\r\n\r\n</div>\r\n\t\r\n</div>",
        "fr": "\r\n        \r\n        \n<section class=\"alert alert-info\">\r\n<h2 class=\"h3\">Cette page fait partie du r\u00e9pertoire des documents d'orientation (RDO).</h2>\r\n<p>\r\n<br>\r\n<a href=\"/orientation-pour-l-industrie/fra/1374161650885/1374161737236?gp=1&amp;gc=32&amp;ga=1#gdr_results\" class=\"alert-link\">\r\n            Recherche de documents connexes dans le r\u00e9pertoire des documents d'orientation.\r\n</a>\r\n</p>\r\n</section><h2>Lignes directrices</h2>\n<p>Bien que le Centre canadien des produits biologiques v\u00e9t\u00e9rinaires aient l'intention d'adopter les lignes directrices de <abbr title=\"Coop\u00e9ration internationale pour l'harmonisation des exigences techniques s'appliquant \u00e0 l'enregistrement des produits pharmaceutiques v\u00e9t\u00e9rinaires\">VICH</abbr> comme principaux documents d'orientation, il importe de souligner que ces lignes directrices doivent \u00eatre consid\u00e9r\u00e9es comme \u00e9tant des instruments administratifs et non des exigences pr\u00e9cises de la <i>Loi sur les sant\u00e9 des animaux</i> et de son r\u00e8glement d'application, ce qui permet une certaine souplesse d'approche. Les principes et les pratiques \u00e9nonc\u00e9s dans les lignes directrices pourraient \u00eatre remplac\u00e9s par d'autres approches, \u00e0 condition que celles-ci s'appuient sur une justification scientifique ad\u00e9quate. Ces autres approches devraient \u00eatre examin\u00e9es pr\u00e9alablement en consultation avec le Centre canadien des produits biologiques v\u00e9t\u00e9rinaires pour s'assurer qu'elles respectent les exigences r\u00e9glementaires.</p>\n<ul>\n<li><a href=\"https://www.canada.ca/fr/sante-canada/services/medicaments-produits-sante/medicaments-veterinaires/legislation-lignes-directrices/lignes-directrices/vich.html\">Lignes directrices de <abbr title=\"Coop\u00e9ration internationale pour l'harmonisation des exigences techniques s'appliquant \u00e0 l'enregistrement des produits pharmaceutiques v\u00e9t\u00e9rinaires\">VICH</abbr> adopt\u00e9es au Canada</a>\n<ul>\n<li><a href=\"/sante-des-animaux/produits-biologiques-veterinaires/lignes-directrices-formulaires/vich/formaldehyde-residuel/fra/1304003881585/1320717578987\"><abbr title=\"Coop\u00e9ration internationale pour l'harmonisation des exigences techniques s'appliquant \u00e0 l'enregistrement des produits pharmaceutiques v\u00e9t\u00e9rinaires\">VICH</abbr> <abbr title=\"ligne directrice\">GL</abbr> 25 - Titrage de formald\u00e9hyde r\u00e9siduel</a></li>\n<li><a href=\"/sante-des-animaux/produits-biologiques-veterinaires/lignes-directrices-formulaires/vich/vich-gl-26/fra/1304093643636/1320717677506\"><abbr title=\"Coop\u00e9ration internationale pour l'harmonisation des exigences techniques s'appliquant \u00e0 l'enregistrement des produits pharmaceutiques v\u00e9t\u00e9rinaires\">VICH</abbr> <abbr title=\"ligne directrice\">GL</abbr> 26 - D\u00e9termination de l'humidit\u00e9 r\u00e9siduelle</a></li>\n<li><a href=\"https://vichsec.org/en/component/attachments/attachments/1678.html?task=download\">VICH GL 50 - Harmonisation des crit\u00e8res de dispense des essais tests de s\u00e9curit\u00e9 des lots chez les animaux cibles pour les vaccins inactiv\u00e9s \u00e0 usage v\u00e9t\u00e9rinaire (en anglais seulement) - PDF (500 ko)</a></li>\n<li><a href=\"https://vichsec.org/en/component/attachments/attachments/1679.html?task=download\">VICH GL 55 - Harmonisation des crit\u00e8res de dispense des tests de s\u00e9curit\u00e9 des lots chez les animaux cibles pour les vaccins vivants \u00e0 usage v\u00e9t\u00e9rinaire (en anglais seulement) - PDF (505 ko)</a></li>\n\n<li><a href=\"https://vichsec.org/en/component/attachments/attachments/2313.html?task=download\">VICH GL 59 - Harmonisation des crit\u00e8res de dispense des tests de s\u00e9curit\u00e9 des lots chez les animaux de laboratoire pour les vaccins \u00e0 usage v\u00e9t\u00e9rinaire (en anglais seulement) - PDF (231 ko)</a></li>\n</ul></li>\n</ul>\n<h2>Contexte</h2>\n<p>VICH (Coop\u00e9ration internationale pour l'harmonisation des exigences techniques s'appliquant \u00e0 l'enregistrement des produits pharmaceutiques v\u00e9t\u00e9rinaires) est un programme trilat\u00e9ral rassemblant des organismes de r\u00e9glementation et des experts dans le domaine de la sant\u00e9 animale de l'Union europ\u00e9enne, du Japon et des \u00c9tats-Unis. Des organismes et des experts de l'industrie provenant de l'Australie, de la Nouvelle-Z\u00e9lande et du Canada y participent aussi en tant qu'observateurs. L'objectif premier de <abbr title=\"Coop\u00e9ration internationale pour l'harmonisation des exigences techniques s'appliquant \u00e0 l'enregistrement des produits pharmaceutiques v\u00e9t\u00e9rinaires\">VICH</abbr>, lanc\u00e9 officiellement en avril 1996 sous l'\u00e9gide de l'Organisation mondiale de la sant\u00e9 animale (OMSA, fond\u00e9e en tant qu'Office international des \u00e9pizooties (OIE)) est l'harmonisation des exigences techniques en mati\u00e8re d'enregistrement des nouveaux produits pharmaceutiques v\u00e9t\u00e9rinaires.</p>\n<p>Les repr\u00e9sentants du Canada au sein de <abbr title=\"Coop\u00e9ration internationale pour l'harmonisation des exigences techniques s'appliquant \u00e0 l'enregistrement des produits pharmaceutiques v\u00e9t\u00e9rinaires\">VICH</abbr> proviennent de la Direction des m\u00e9dicaments v\u00e9t\u00e9rinaires (DMV) de Sant\u00e9 Canada et du Centre canadien des produits biologiques v\u00e9t\u00e9rinaires (CCPBV) de l'Agence canadienne d'inspection des aliments (ACIA). La <abbr title=\"Direction des m\u00e9dicaments v\u00e9t\u00e9rinaires\">DMV</abbr>, qui fait aussi office de Secr\u00e9tariat canadien, fournit l'expertise en mati\u00e8re de m\u00e9dicaments v\u00e9t\u00e9rinaires, et le <abbr title=\"Centre canadien des produits biologiques v\u00e9t\u00e9rinaires\">CCPBV</abbr>, en mati\u00e8re de produits biologiques v\u00e9t\u00e9rinaires. Pour obtenir des informations plus d\u00e9taill\u00e9es sur la participation du Canada, sur le processus de consultation des principaux int\u00e9ress\u00e9s et sur la publication des lignes directrices de <abbr title=\"Coop\u00e9ration internationale pour l'harmonisation des exigences techniques s'appliquant \u00e0 l'enregistrement des produits pharmaceutiques v\u00e9t\u00e9rinaires\">VICH</abbr>, veuillez consulter le site Web de la <a href=\"https://www.canada.ca/fr/sante-canada/services/medicaments-produits-sante/medicaments-veterinaires.html\">Direction des m\u00e9dicaments v\u00e9t\u00e9rinaires</a>.</p>\n<p>Le principal r\u00e9sultat du travail effectu\u00e9 par <abbr title=\"Coop\u00e9ration internationale pour l'harmonisation des exigences techniques s'appliquant \u00e0 l'enregistrement des produits pharmaceutiques v\u00e9t\u00e9rinaires\">VICH</abbr> est l'\u00e9laboration de lignes directrices harmonis\u00e9es r\u00e9sultant de consensus scientifiques sur les exigences techniques des r\u00e9gions participantes. Pour de plus amples information sur l'histoire, la structure organisationnelle, les activit\u00e9s et les lignes directrice consulter le site Web de <a href=\"http://www.vichsec.org\">Coop\u00e9ration internationale pour l'harmonisation des exigences techniques s'appliquant \u00e0 l'enregistrement des produits pharmaceutiques v\u00e9t\u00e9rinaires - (anglais seulement)</a>.</p>\r\n        \r\n\r\n<div class=\"row\">\r\n \r\n\t\t\t\r\n\t\t\t\r\n\r\n\t\t\r\n\t\r\n</div>"
    },
    "js": {
        "en": "",
        "fr": ""
    },
    "chat_wizard": false,
    "success": true
}