{
    "dcr_id": "1329109265932",
    "title": {
        "en": "RG-1 Regulatory Guidance:<br><span class=\"small\">Feed Registration Procedures and Labelling Standards</span>",
        "fr": "RG-1 Directives R\u00e9glementaires\u00a0:<br><span class=\"small\">Proc\u00e9dures d'enregistrement et normes d'\u00e9tiquetage des aliments pour animaux</span>"
    },
    "html_modified": "2012-02-13 00:01",
    "modified": "27-7-2023",
    "issued": "13-2-2012",
    "teamsite_location": {
        "en": "/default/main/inspection/cont-cont/animals-animaux/WORKAREA/animals-animaux/templatedata/comn-comn/gene-gene/data/feeds_reg_guide_rg1_1329109265932_eng",
        "fr": "/default/main/inspection/cont-cont/animals-animaux/WORKAREA/animals-animaux/templatedata/comn-comn/gene-gene/data/feeds_reg_guide_rg1_1329109265932_fra"
    },
    "parent_ia_id": "1320602307623",
    "ia_id": "1329109385432",
    "parent_node_id": "1320602307623",
    "layout_name": "content page 1 column",
    "breadcrumb": {
        "en": "RG-1 Regulatory Guidance:<br><span class=\"small\">Feed Registration Procedures and Labelling Standards</span>",
        "fr": "RG-1 Directives R\u00e9glementaires\u00a0:<br><span class=\"small\">Proc\u00e9dures d'enregistrement et normes d'\u00e9tiquetage des aliments pour animaux</span>"
    },
    "label": {
        "en": "RG-1 Regulatory Guidance:<br><span class=\"small\">Feed Registration Procedures and Labelling Standards</span>",
        "fr": "RG-1 Directives R\u00e9glementaires\u00a0:<br><span class=\"small\">Proc\u00e9dures d'enregistrement et normes d'\u00e9tiquetage des aliments pour animaux</span>"
    },
    "templatetype": "content page 1 column",
    "node_id": "1329109385432",
    "managing_branch": "comn",
    "type_name": "sitemapinit",
    "parent_dcr_id": "1299871623634",
    "orig_type_name": "sitemapinit",
    "has_dcr_id": true,
    "lang": "en",
    "could_not_load": 0,
    "refaire": false,
    "interwoven_url": {
        "en": "/animal-health/livestock-feeds/regulatory-guidance/rg-1/",
        "fr": "/sante-des-animaux/aliments-du-betail/directives-reglementaires/rg-1/"
    },
    "meta": {
        "viewport": {
            "en": "width=device-width,initial-scale=1",
            "fr": "width=device-width,initial-scale=1"
        },
        "service": {
            "en": "CFIA-ACIA",
            "fr": "CFIA-ACIA"
        },
        "accessRights": {
            "en": "2",
            "fr": "2"
        },
        "title": {
            "en": "RG-1 Regulatory Guidance:Feed Registration Procedures and Labelling Standards",
            "fr": "RG-1 Directives R\u00e9glementaires\u00a0:Proc\u00e9dures d'enregistrement et normes d'\u00e9tiquetage des aliments pour animaux"
        },
        "description": {
            "en": "Feed Registration Procedures and Labelling Standards",
            "fr": "chevaux R\u00e9glementation des suppl\u00e9ments pour ruminants et chevaux 3.19 Produits alimentaires recycl\u00e9s \u2013 R\u00e9vis\u00e9e : 2009-12-21 Exigences r\u00e9glementaires visant les produits alimentaires recycl\u00e9s utilis\u00e9s comme aliments du b\u00e9tail au Canada Liste de contr\u00f4le pour la demande denregistrement des produits alimentaires recycl\u00e9s (PAR) destin\u00e9s \u00e0 \u00eatre utilis\u00e9s comme sources daliments du b\u00e9tail 3.20 Aliments du b\u00e9tail prot\u00e9g\u00e9s de la digestion ruminale Liste de contr\u00f4le pour les aliments du b\u00e9tail prot\u00e9g\u00e9s de la digestion ruminale 3.21 Produits biologiques v\u00e9t\u00e9rinaires \u2013 R\u00e9vis\u00e9e : 2011-02-10 R\u00e9glementation des produits biologiques v\u00e9t\u00e9rinaires dans les aliments du b\u00e9tail 3.22 Produits microbiens"
        },
        "keywords": {
            "en": "Health of Animals Act, Health of Animals Regulations, Feeds Act, Feeds Regulations, livestock, animal feeds, labels. Labelling, registration, novel feeds, biotechnology, ingredients, toxicology, regulatory guidance",
            "fr": "aliments du b\u00e9tail, Liste de contr\u00f4le, \u00e9tiquettes des aliments du b\u00e9tail, inhibiteurs de moisissures, contr\u00f4le des odeurs"
        },
        "dcterms.subject": {
            "en": "livestock,labelling,inspection,standards,policy,regulation,animal health",
            "fr": "b\u00e9tail,\u00e9tiquetage,inspection,norme,politique,r\u00e9glementation,sant\u00e9 animale"
        },
        "creator": {
            "en": "Government of Canada,Canadian Food Inspection Agency",
            "fr": "Gouvernement du Canada,Agence canadienne d'inspection des aliments"
        },
        "language": {
            "en": "eng",
            "fr": "fra"
        },
        "issued": {
            "en": "2012-02-13 00:01:10",
            "fr": "2012-02-13 00:01:10"
        },
        "modified": {
            "en": "2023-07-27",
            "fr": "2023-07-27"
        },
        "type": {
            "en": "reference material",
            "fr": "mat\u00e9riel de r\u00e9f\u00e9rence"
        },
        "audience": {
            "en": "business,government",
            "fr": "entreprises,gouvernement"
        },
        "name": {
            "en": "Government of Canada",
            "fr": "Gouvernement du Canada"
        },
        "areaServed": {
            "en": "Canada",
            "fr": "Canada"
        }
    },
    "h1": {
        "en": "RG-1 Regulatory Guidance:Feed Registration Procedures and Labelling Standards",
        "fr": "RG-1 Directives R\u00e9glementaires\u00a0:Proc\u00e9dures d'enregistrement et normes d'\u00e9tiquetage des aliments pour animaux"
    },
    "body": {
        "en": "        \r\n        \n<section class=\"alert alert-info\">\r\n<h2 class=\"h3\">This page is part of the Guidance Document Repository (GDR).</h2>\r\n<p>\r\n<br>\r\n<a href=\"/industry-guidance/eng/1374161650885/1374161737236?gp=1&amp;gc=6&amp;ga=80#gdr_results\" class=\"alert-link\">\r\n            Search for related documents in the Guidance Document Repository\r\n</a>\r\n</p>\r\n</section><h2>On this page</h2>\n\n<ul>\n<li><a href=\"#intro\">Introduction\u00a0\u2013 Regulation of Livestock Feed in Canada</a>\n<ul>\n<li><a href=\"#intro-1\">Legal authorities</a></li>\n<li><a href=\"#intro-2\">Regulation of livestock feeds</a></li>\n<li><a href=\"#intro-3\">Single Ingredient Feeds (SIF)</a></li>\n<li><a href=\"#intro-4\">New ingredients requiring an assessment</a></li>\n<li><a href=\"#intro-5\">Existing ingredients requiring an assessment</a></li>\n<li><a href=\"#intro-6\">Outcomes of an ingredient assessment</a></li>\n<li><a href=\"#intro-7\">Classification of ingredients fed to livestock</a></li>\n<li><a href=\"#intro-8\">Other applicable legislative authorities for imported feed ingredients</a></li>\n<li><a href=\"#intro-9\">Requesting a copy of Schedules IV and V</a></li>\n<li><a href=\"#intro-10\">Mixed feed</a></li>\n<li><a href=\"#intro-11\">Standard vs specialty feed</a></li>\n<li><a href=\"#intro-12\">Pre-market assessment</a></li>\n<li><a href=\"#intro-13\">Product registration</a></li>\n<li><a href=\"#intro-14\">Feeds requiring registration: Do I need to register my product</a></li>\n<li><a href=\"#intro-15\">Research exemptions and authorizations</a></li>\n</ul>\n</li>\n\n<li><a href=\"/animal-health/livestock-feeds/regulatory-guidance/rg-1/chapter-1/eng/1329291099314/1329291708583\">Chapter 1\u00a0\u2013 Administrative Requirements for Pre-market Assessment and Product Registration of Livestock Feed</a></li> \n \n<li><a href=\"/animal-health/livestock-feeds/regulatory-guidance/rg-1/chapter-2/eng/1329298059609/1329298179464\">Chapter 2\u00a0\u2013 Data Requirements for Single Ingredient Approval and Feed Registration</a></li>\n\n<li><a href=\"/animal-health/livestock-feeds/regulatory-guidance/rg-1/chapter-3/eng/1617909452465/1617909586070\">Chapter 3\u00a0\u2013 Specific Registration Information by Feed Type</a></li>\n\n<li><a href=\"/animal-health/livestock-feeds/regulatory-guidance/rg-1/chapter-4/eng/1329341411340/1329341520337\">Chapter 4\u00a0\u2013 Labelling and Guarantees</a></li>\n\n<li><a href=\"/animal-health/livestock-feeds/regulatory-guidance/rg-1/chapter-5/eng/1329351291996/1329351387584\">Chapter 5\u00a0\u2013 Research with Livestock Feeds</a></li>\n\n<li><a href=\"/animal-health/livestock-feeds/regulatory-guidance/rg-1/chapter-6/eng/1329424894076/1329425015275\">Chapter 6\u00a0\u2013 Sampling and Laboratory Requirements</a></li>\n\n<li><a href=\"/animal-health/livestock-feeds/regulatory-guidance/rg-1/chapter-7/eng/1329352141332/1329352219266\">Chapter 7\u00a0\u2013 Other relevant information sources</a></li>\n\n<li><a href=\"/animal-health/livestock-feeds/regulatory-guidance/rg-1/chapter-8/eng/1534347544752/1534347545165\">Chapter 8\u00a0\u2013 Pre-submission consultation procedures for livestock feed</a></li>\n</ul>\n\n<h2 id=\"intro\">Introduction\u00a0\u2013 Regulation of Livestock Feed in Canada</h2>\n\n<p>The manufacture, sale and import of livestock feeds are regulated in Canada under the <i>Feeds Act</i> and regulations administered by the Canadian Food Inspection Agency (CFIA). All feeds must be safe to livestock; to humans (by the potential transfer of residues into human food, that is, meat, milk and eggs, and via worker/bystander exposure); and to the environment.</p>\n\n<p>Feeds must also be shown to be effective for their intended purpose. Approved feed ingredients are listed and defined in Schedules IV and V of the <i>Feeds Regulations</i>, with appropriate guarantees, standards and labelling requirements. All imported feeds must meet the same standards as domestic feeds.</p>\n\n<p>Both industry and government share the responsibility for safe and effective feeds, and ultimately our food. The CFIA uses a number of tools, including consultation, publication of information (for example, the CFIA website), awareness campaigns, inspection activities and other initiatives to inform regulated parties of the requirements. Regulated parties must make themselves aware of the regulatory requirements with which they need to comply.</p>\n\n<p>Under the authority of the <i>Feeds Act</i> and regulations and the <i>Health of Animals Act</i> and regulations, the CFIA administers a national feed program. There are 2 key components\u00a0\u2013\u00a0mandatory pre-market assessment and the National Feed Inspection Program.</p>\n\n<p>This document (the RG-1) is intended to help you determine whether your feed is subject to the requirements of the <i>Feeds Act</i> and regulations, as well as to assist you in preparing and submitting an application for pre-market assessment for feed ingredient approval and/or feed product registration. Specific chapters of the RG-1 provide more detailed information on requirements for specific categories of feeds and feed ingredients.</p>\n\n<h3 id=\"intro-1\">Legal authorities</h3>\n\n<p>The legislative authorities under which the CFIA regulates feeds include the following:<br>\n</p>\n\n\n<ul class=\"list-unstyled mrgn-lft-md\">\n<li><i>Feeds Act</i></li>\n<li><i>Feeds Regulations</i></li>\n<li><i>Health of Animals Act</i></li>\n<li><i>Health of Animals Regulations</i></li>\n<li><i>Organic Products Regulations</i></li>\n</ul>\n\n<p>For the collection of fees:<br>\n</p>\n\n<p>Part XIV of the <i>Health of Animals Regulations</i> contains several regulatory measures associated with the production of animal food (feed containing an animal product or by-product) and the feeding of livestock. This includes a prohibition on feeding (\"feed ban\") of most proteins derived from ruminants (defined as \"prohibited material\") to ruminant animals, such as cattle, sheep, goats and deer. It also includes requirements for anyone who manufactures, imports, packages, stores, distributes, sells, or advertises for sale animal food for ruminants (and other animal species as specified in section 171.(1) of the regulations) to keep records (for 10 years) that contain the lot number and any other information used to identify each lot of animal food.</p>\n\n<p>Under the Canada Organic Regime, the <i>Organic Products Regulations</i> define specific requirements for products labelled as organic, including livestock feeds, or that bear the approved organic agricultural product legend (logo), and are sold inter-provincially or are imported.</p>\n\n<p>Please note that other regulations, administered either by the CFIA or another department or agency of the Government of Canada, may also apply, depending on the type of feed or ingredient for example the <i>Food and Drugs Act</i> and regulations and <i>Pest Control Products Act</i> and regulations.</p>\n\n<h3 id=\"intro-2\">Regulation of livestock feeds</h3>\n\n<p>\"Feed\" is defined under section 2 of the <i>Feeds Act</i> as:</p>\n\n<p>\"\u2026 any substance or mixture of substances containing amino acids, anti-oxidants, carbohydrates, condiments, enzymes, fats, minerals, non-protein nitrogen products, proteins or vitamins, or pelletizing, colouring, foaming or flavouring agents and any other substance manufactured, sold or represented for use</p>\n\n<ol class=\"lst-lwr-alph\">\n<li>for consumption by livestock,</li>\n<li>for providing the nutritional requirements of livestock, or</li>\n<li>for the purpose of preventing or correcting nutritional disorders of livestock,</li>\n</ol>\n\n<p>or any substance for use in any such substance or mixture of substances\".</p>\n\n<p>Feeds for the following species of livestock are currently regulated under the <i>Feeds Act</i> and regulations: cattle, horses, sheep, goats, swine, poultry (chickens, turkeys, ducks, geese), fish, foxes, mink, and rabbits.</p>\n\n\n<p>Feeds for other species are exempt from the <i>Feeds Act</i> and regulations. However, they may still be subject to import or export requirements under other authorities administered by the CFIA.</p>\n\n<p>Information on the importation of commodities regulated by the CFIA is available from the <a href=\"/importing-food-plants-or-animals/plant-and-plant-product-imports/airs/eng/1300127512994/1300127627409\">Automated Import Reference System (AIRS)</a>.</p>\n\n<p>For further information relating to imports or exports of these products, please contact the <a href=\"/about-cfia/permits-licences-and-approvals/centre-of-administration-for-permissions/eng/1395348583779/1395348638922\" title=\"Centre of Administration for Permissions (Licensing, Permitting, Registration and Ministerial Exemptions)\">Centre of Administration (CoA)</a>. The CoA is responsible for carrying out administrative tasks related to granting permissions (licenses, permits and registrations) for commercial operators and for travelers.</p>\n\n<p>Products that are administered to livestock through either feed or water for therapeutic purposes may be considered as veterinary drugs, which are subject to the <i>Foods and Drugs Act</i> and regulations administered by the Veterinary Drugs Directorate of Health Canada. <a href=\"https://www.canada.ca/en/health-canada/services/drugs-health-products/veterinary-drugs/legislation-guidelines/guidance-documents/guidance-document-classification-veterinary-drugs-livestock-feeds.html\" title=\"Guidance document on classification of veterinary drugs and livestock feeds\">More information on the classification of feeds and veterinary drugs</a> is available in a guidance document posted on the Health Canada website.</p>\n\n<h3 id=\"intro-3\">Single Ingredient Feeds (SIF)</h3>\n\n<p>A \"Single Ingredient Feed\" is defined in the <i>Feeds Regulations</i> as \"any substance or mixture of substances that is assessed or evaluated as being acceptable for use in feeds and that is described in an item of Schedule IV or V\". Single ingredient feeds are typically referred to as \"ingredients\".</p>\n\n<p>Schedule IV is divided into 8 classes reflecting the definitions and approved purpose of the feed ingredient. The first 7 ingredient classes are nutritional in nature including forages and roughages, silages, energy feeds, protein feeds, mineral products, and vitamins and yeast products. Class 8 lists miscellaneous ingredients reserved mainly for those ingredients with non-nutritive or technological roles in feeds. Schedule V is specifically for approved flavouring ingredients used in small quantities to flavour feeds including extracts, oils and chemicals.</p>\n\n<p>Schedules IV and V are each further divided into part I or part II ingredients. Whether an ingredient is listed in either part is based on whether the specific ingredient source poses safety or efficacy concerns and whether these concerns can be mitigated by restrictions within the definition (for example, use restrictions, warning or caution statements, maximum levels of contaminants), or significant variability exists to warrant a separate ingredient assessment for each source.</p>\n\n<h4>Part I of Schedules IV and V</h4>\n\n<p>Ingredients listed in part I of Schedules IV and V have been evaluated for both safety and efficacy. These approved ingredients are listed in Schedule IV or V with appropriate definitions and conditions. They are exempt from registration and may be imported, sold and used freely in the manufacture of feeds in Canada, provided they conform to the ingredient definition as listed, are labelled as prescribed including required guarantees and meet standards identified in the regulations and further defined in regulatory guidance (for example, <a href=\"/animal-health/livestock-feeds/regulatory-guidance/rg-8/eng/1347383943203/1347384015909\">RG-8 Regulatory Guidance: Contaminants in Feed</a>).</p>\n\n<p>Part I ingredients may not have extra label guarantees or claims. Ingredients with extra label guarantees or claims that are not prescribed in the <i>Feeds Regulations</i> require pre-market assessment and approval.</p>\n\n<h4>Part II of Schedules IV and V</h4>\n\n<p>Ingredients in part II Schedule IV and V are not exempt from registration. As there may be inherent safety and/or efficacy variations associated with an individual source of the ingredient, or introduced via the manufacturing process, a pre-market evaluation is required. Each manufacturing site is considered a distinct source for a single ingredient feed (SIF) listed in part II of Schedule IV or V. Each source of a SIF must be evaluated with data to support the safety and/or efficacy of the product. Once the evaluation is completed and approved by the CFIA, a registration number is assigned to the SIF listed in part II. For a SIF part II that is manufactured at multiple sites, the same registration number can be assigned once the CFIA has verified that the manufacturing process, raw materials including grade, purity, levels of contaminants, quality controls and final product specifications are equivalent between these manufacturing sites.</p>\n\n<p>Any ingredient that is not currently listed in, or that does not meet the ingredient description provided in Schedule IV or V, must be approved by the CFIA prior to use for feeding livestock. Ingredients which are found to be unsafe or unsuitable, or where the information submitted is insufficient to substantiate safety and an intended feed purpose are not approved.</p>\n\n<h3 id=\"intro-4\">New ingredients requiring an assessment</h3>\n\n<p>Ingredients which are not listed in Schedule IV or V require a full safety and efficacy assessment. If an ingredient is already used in another country, a full assessment is still required; however the Animal Feed Program (AFP) does accept data that has been used to support ingredient approval in other jurisdictions.</p>\n\n<h3 id=\"intro-5\">Existing ingredients requiring an assessment</h3>\n\n<p>Any single ingredient feed that is listed in Schedule IV or V that is different in terms of:</p>\n\n<ul>\n<li>its composition, structure, nutritional quality or physiological effects</li>\n<li>the process by which it is manufactured</li>\n<li>the manner in which it is metabolized in the body of the livestock intended to be fed</li>\n<li>it's safety</li>\n<li>the species or class of livestock intended to be fed and the usage rate, and</li>\n<li>its purpose as set out in the Schedules IV and V</li>\n</ul>\n\n<p>requires a new safety and/or efficacy assessment(s)</p>\n\n<h3 id=\"intro-6\">Outcomes of an ingredient assessment</h3>\n\n<p>Following an assessment, a decision is made regarding the ingredient approval. The decision can fall into 1 of the following categories.</p>\n\n<ul>\n<li>Feed is not approved for various reasons\n<ul>\n<li>for example, the applicant has not provided sufficient information to substantiate safety and efficacy end-points, application is withdrawn</li>\n</ul></li>\n<li>Feed is approved with conditions\n<ul>\n<li>Some conditions may be written in the approval letters (for example, herbicide tolerant corn where the approval is specific to the grain and not the forage) or ingredient definition (for example, only approved for specific animal species, contains a maximum inclusion rate, labelled with specific guarantees for safe usage, warning and caution statements)</li>\n</ul></li>\n<li>Feed is approved without conditions</li>\n</ul>\n\n<p>For feed ingredients with a positive assessment outcome, the assessment also ensures that the feed is accurately categorized and defined in the Schedules, and that it is labelled appropriately for safe, effective use and for consumer protection. A decision regarding in which part of the Schedules (that is, part I or II) to list the ingredient is decided at the end of the assessment process. The following decision outcomes can happen:</p>\n\n<ul>\n<li>creating a new ingredient definition</li>\n<li>modifying an existing ingredient definition, or</li>\n<li>a new definition is not warranted as the ingredient under review meets an existing ingredient definition as defined in part I or II of Schedules IV or V</li>\n</ul>\n\n<h3 id=\"intro-7\">Classification of ingredients fed to livestock</h3>\n\n<p>In order for an ingredient to be assessed and authorized as a feed ingredient by the CFIA, it must first be classified as a feed. There are other substances that can be orally consumed by livestock which are not feed and are regulated differently. These include therapeutic (drug) products (regulated under the <i>Food and Drugs Act</i>), pest control products (<i>Pest Control Products Act</i>) and veterinary biologics (<i>Health of Animals Act</i>). This can lead to confusion, especially for foreign companies as products may be regulated differently in foreign jurisdictions.</p>\n\n<p>Products such as coccidiostats and histomonostats are regulated as veterinary drugs in Canada, but are considered feed additives in the European Union (EU). Other types of products such as microbial products may have a different classification depending on the purpose or mode of action associated with them. Additionally, the use rate of an ingredient, the method of administration and types of claims associated with it can all have an impact on how the product is classified in Canada. Recognizing a need for a clear and transparent classification process for some ingredients and products intended for use in livestock species, the CFIA works collaboratively with Health Canada (HC) and, after extensive consultation, has developed guidance on veterinary drug and animal feeds classification in Canada. Please consult the <a href=\"https://www.canada.ca/en/health-canada/services/drugs-health-products/veterinary-drugs/legislation-guidelines/guidance-documents/guidance-document-classification-veterinary-drugs-livestock-feeds.html\">Guidance Document on Classification of Veterinary Drugs and Animals Feeds</a>.</p>\n\n<p>This Guidance outlines the present approach to the classification of veterinary drugs and feeds, and provides interpretations and definitions. This guidance document is intended to assist proponents seeking to have new products assessed and authorized for marketing in Canada with determining what constitutes a veterinary drug or a feed and where to direct their applications accordingly. Since the initial posting, a working group from HC and the CFIA, in consultation with stakeholders, has added further clarification for the classification of ingredients and products. The working group also provides joint decisions on ingredients and products submitted for classification.</p>\n\n<h3 id=\"intro-8\">Other applicable legislative authorities for imported feed ingredients</h3>\n\n<p>It should be noted that although an ingredient may be listed within Schedule IV or V, other regulatory authorities respecting either animal or plant health, may prohibit or place additional conditions on the importation of livestock feed ingredients. Additional information on the importation of commodities regulated by the CFIA is available from the <a href=\"/importing-food-plants-or-animals/plant-and-plant-product-imports/airs/eng/1300127512994/1300127627409\">Automated Import Reference System (AIRS)</a>.</p>\n\n<p>For further information relating to imports or exports of these products, please contact the <a href=\"/about-cfia/permits-licences-and-approvals/centre-of-administration-for-permissions/eng/1395348583779/1395348638922\" title=\"Centre of Administration for Permissions (Licensing, Permitting, Registration and Ministerial Exemptions)\">Centre of Administration (CoA)</a>.</p>\n\n<h3 id=\"intro-9\">Requesting a copy of Schedules IV and V</h3>\n\n<p>To request a copy of the most recent version of Schedules IV and V, please send an e-mail with the subject line \"Schedules IV and V\" to the Animal Feed Program (AFP) at: <a class=\"nowrap\" href=\"mailto:cfia.afp-paa.acia@inspection.gc.ca?subject=Schedules%20IV%20and%20V\">cfia.afp-paa.acia@inspection.gc.ca</a></p>\n\n<h3 id=\"intro-10\">Mixed feed</h3>\n\n<p>Ingredients may be fed solely to livestock, however they are typically mixed together to manufacture various types of mixed feeds. A mixed feed is a feed that contains 2 or more single ingredient feeds. All mixed feeds must only be manufactured using ingredients that have been approved for use and listed in Schedules IV and V.</p>\n\n<h3 id=\"intro-11\">Standard vs specialty feed</h3>\n\n<p>Many mixed feeds (for example, premixes and supplements) may be used in the manufacture of complete feeds or rations; however, these are considered \"standard feed\". Some mixed feed may be dilutions of ingredients (on carriers) or combinations of miscellaneous ingredients (such as those listed in Class 8 of part I and II of Schedule IV and of Schedule V) with the intent of acting as an additive or a providing a specific function. The AFP refers to these products as \"specialty feed\" and are similar to the \"feed additive\" terms used by the European Union. Examples of some \"specialty feed\" categories include:</p>\n\n<ul>\n<li>acidifiers</li>\n<li>antioxidants</li>\n<li>buffer feeds</li>\n<li>enzyme supplements</li>\n<li>flavouring agents</li>\n<li>mould inhibitors</li>\n<li>odour control agents</li>\n<li>pellet binders</li>\n<li>feed and animal product colouring/pigment agents</li>\n<li>viable microbial products and</li>\n<li>yeast cell wall products</li>\n<li>anti-caking agents</li>\n</ul>\n\n<h3 id=\"intro-12\">Pre-market assessment</h3>\n\n<p>The <i>Feeds Act</i> and regulations currently provide authority to the CFIA for pre-market assessment, which consists of 2 elements: assessment of new ingredients for approval/authorization, and product registration.</p>\n\n<p>The CFIA evaluates and regulates all feed ingredients in the same manner. Any feed ingredient that is new (that is, not already listed in Schedules IV and V of the <i>Feeds Regulations</i>), or has been modified such that it differs significantly from a conventional ingredient such as composition, manufacturing process, and/or use, is required to undergo a pre-market assessment and approval.</p>\n\n<p>The purpose of all feed assessments is the same: to verify that the feed ingredient is safe (in terms of animal health, human health via food residues and worker/by-stander exposure, and the environment) and effective for its intended purpose prior to marketing.</p>\n\n<p>A risk assessment framework is a key component of the safety and efficacy assessment. Following a positive assessment, the review also ensures that the feed is accurately defined in the <i>Feeds Regulations</i> so that they are labelled appropriately for safe and effective use and for consumer protection.</p>\n\n<p>The specific requirements for a safety and efficacy assessment of a feed ingredient are dependent on the nature of the feed in question. Data requirements are tailored to familiarity, purpose and complexity of the product. The CFIA provides guidance to stakeholders on how to meet the data requirements for the assessment process through workshops, one-on-one consultations and the publication of guidance documents, including this document (RG -1, Regulatory Guidance: Feed Registration Procedures and Labelling Standards).</p>\n\n<p>Once a new ingredient has been evaluated and found to be safe and effective as a feed, it is listed in either part I or part II of Schedule IV or V under the Class that corresponds to the purpose of the ingredient and risk. Part II SIFs are assigned a proprietary registration number.</p>\n\n<h3 id=\"intro-13\">Product registration</h3>\n\n<p>Ingredients listed in part I of either schedule are exempt from registration; provided that they meet the standards for composition described in the ingredient definition, meet the standards as defined, and are labelled appropriately. Ingredients with additional label guarantees, claims, or with languages other than English or French are, however, subject to registration. Ingredients that are listed in part II of either schedule must be registered separately by the CFIA for each source. Each source of the ingredient that is listed in part II of Schedule IV or V must be registered by the CFIA.</p>\n\n<p>Many complete feeds, supplements and macro premixes are exempt from registration provided that they comply with all standards and labelling requirements set out in the <i>Feeds Regulations</i>.</p>\n\n<p>Specialty feeds, as described above, must be registered. Similarly to Schedule IV, part II ingredients, the specific requirements for an efficacy and/or safety assessment for specialty feeds are dependent on the category in question, and guidance on how to meet the data requirements for the assessment process is provided in chapter 3 of the RG-1.</p>\n\n<h3 id=\"intro-14\">Feeds requiring registration: Do I need to register my product</h3>\n\n<p>You will need to register your livestock feed if:</p>\n\n<ul>\n<li>you are importing a single ingredient feed into Canada, and it is not a single ingredient feed listed in Schedule IV, part I of the <i>Feeds Regulations</i></li>\n<li>you are importing into Canada a single ingredient feed listed in Schedule IV, part I, that has additional label guarantees or claims, or is labelled with languages other than English or French (see <a href=\"/animal-health/livestock-feeds/regulatory-guidance/rg-1/chapter-4/eng/1329341411340/1329341520337?chap=11\" title=\"4.11 International/Multilingual Labels\">chapter 4, section 4.11</a>, for more information)</li>\n<li>you are manufacturing or importing a single ingredient feed listed in part II of Schedule IV of the <i>Feeds Regulations</i></li>\n<li>you are importing a mixed feed (a combination of 2 or more single feed ingredient feeds) for livestock into Canada; or</li>\n<li>you are manufacturing a feed in Canada that does not meet the criteria for exemption from registration as described in the <i>Feeds Act</i> and regulations;</li>\n<li>you are manufacturing or importing a specialty feed, mineral feed, converter feeds, fox feed; milk replacer and any other milk substitutes</li>\n<li>You are manufacturing or importing complete feeds, supplements, and macro premixes, for all livestock, labelled with nutrient guarantee levels outside the ranges indicated in table\u00a04 (Schedule\u00a0I) of the\u00a0<i>Feeds Regulations</i></li>\n</ul>\n\n<p>If you are not certain whether your feed is subject to registration after reading this guidance document and the regulations, you may request a review of your feed label. Please send an email with the subject line \"Label Review\" a copy of the proposed label, and description of the product to the AFP at: <a class=\"nowrap\" href=\"mailto:cfia.afp-paa.acia@inspection.gc.ca?subject=Label%20Review\">cfia.afp-paa.acia@inspection.gc.ca</a>.</p>\n\n<h3 id=\"intro-15\">Research exemptions and authorizations</h3>\n\n<p>If a proponent wishes to conduct research on a feed that does not meet the regulatory requirements (that is, is not registered as prescribed, contains an approved ingredient that does not meet the purpose or description as listed in Schedules IV and V of the <i>Feeds Regulations</i>, or is an unapproved feed ingredient), they may need to submit an application for a Research Exemption or an Authorization of Novel Feed for Research Purposes to the AFP.</p>\n\n<p>For more information, please consult <a href=\"/animal-health/livestock-feeds/regulatory-guidance/rg-1/chapter-5/eng/1329351291996/1329351387584\" title=\"Chapter 5 - Research with Livestock Feeds\">chapter 5 of the RG-1</a>, Research with Livestock Feeds.</p>\n\n<ul class=\"pager\">\n<li class=\"previous disabled\"><a href=\"#\" rel=\"prev\">Previous</a></li>\n<li class=\"next\"><a href=\"/animal-health/livestock-feeds/regulatory-guidance/rg-1/chapter-1/eng/1329291099314/1329291708583?chap=0\" rel=\"next\">Next</a></li>\n</ul>\r\n        \r\n\r\n\r\n\r\n<div class=\"row\">\r\n \r\n\t\r\n\t\t\t\r\n\r\n<div class=\"col-xm-12 pagedetails container\">\r\n\t\t\t\t\r\n\r\n</div>\r\n\t\r\n</div>",
        "fr": "\r\n        \r\n        \n<section class=\"alert alert-info\">\r\n<h2 class=\"h3\">Cette page fait partie du r\u00e9pertoire des documents d'orientation (RDO).</h2>\r\n<p>\r\n<br>\r\n<a href=\"/orientation-pour-l-industrie/fra/1374161650885/1374161737236?gp=1&amp;gc=6&amp;ga=80#gdr_results\" class=\"alert-link\">\r\n            Recherche de documents connexes dans le r\u00e9pertoire des documents d'orientation.\r\n</a>\r\n</p>\r\n</section><h2>Sur cette page</h2>\n\n<ul>\n<li><a href=\"#intro\">Introduction\u00a0\u2013 R\u00e9glementation des aliments du b\u00e9tail au Canada</a>\n<ul>\n<li><a href=\"#intro-1\">Pouvoirs l\u00e9gislatifs</a></li>\n<li><a href=\"#intro-2\">R\u00e9glementation des aliments du b\u00e9tail</a></li>\n<li><a href=\"#intro-3\">Aliments \u00e0 ingr\u00e9dient unique (AIU)</a></li>\n<li><a href=\"#intro-4\">Nouveaux ingr\u00e9dients n\u00e9cessitant une \u00e9valuation</a></li>\n<li><a href=\"#intro-5\">Ingr\u00e9dients existants n\u00e9cessitant une \u00e9valuation</a></li>\n<li><a href=\"#intro-6\">R\u00e9sultats de l'\u00e9valuation d'un ingr\u00e9dient</a></li>\n<li><a href=\"#intro-7\">Classification des ingr\u00e9dients des aliments du b\u00e9tail</a></li>\n<li><a href=\"#intro-8\">Autres pouvoirs l\u00e9gislatifs applicables aux ingr\u00e9dients des aliments du b\u00e9tail import\u00e9s</a></li>\n<li><a href=\"#intro-9\">Demander une copie des annexes IV et V</a></li>\n<li><a href=\"#intro-10\">Aliments compos\u00e9s</a></li>\n<li><a href=\"#intro-11\">Aliment courant par rapport \u00e0 sp\u00e9cial</a></li>\n<li><a href=\"#intro-12\">\u00c9valuation pr\u00e9alable \u00e0 la vente</a></li>\n<li><a href=\"#intro-13\">Enregistrement de produits</a></li>\n<li><a href=\"#intro-14\">Aliments devant \u00eatre enregistr\u00e9s : Dois-je faire enregistrer mon produit</a></li>\n<li><a href=\"#intro-15\">Exemptions et autorisations de recherche</a></li>\n</ul>\n</li>\n\n<li><a href=\"/sante-des-animaux/aliments-du-betail/directives-reglementaires/rg-1/chapitre-1/fra/1329291099314/1329291708583\">Chapitre 1\u00a0\u2013 Exigences d'administration pour \u00e9valuations avant la mise en march\u00e9 et demandes d'enregistrement pour aliments du b\u00e9tail</a></li>\n\n<li><a href=\"/sante-des-animaux/aliments-du-betail/directives-reglementaires/rg-1/chapitre-2/fra/1329298059609/1329298179464\">Chapitre 2\u00a0\u2013 Exigences par rapport aux donn\u00e9es pour l'enregistrement des ingr\u00e9dients et des aliments du b\u00e9tail</a></li>\n\n<li><a href=\"/sante-des-animaux/aliments-du-betail/directives-reglementaires/rg-1/chapitre-3/fra/1617909452465/1617909586070\">Chapitre 3\u00a0\u2013 Renseignements pr\u00e9cis relatifs \u00e0 l'enregistrement de certains types d'aliments du b\u00e9tail</a></li>\n\n<li><a href=\"/sante-des-animaux/aliments-du-betail/directives-reglementaires/rg-1/chapitre-4/fra/1329341411340/1329341520337\">Chapitre 4\u00a0\u2013 \u00c9tiquetage et garanties</a></li>\n\n<li><a href=\"/sante-des-animaux/aliments-du-betail/directives-reglementaires/rg-1/chapitre-5/fra/1329351291996/1329351387584\">Chapitre 5\u00a0\u2013 Recherche sur les aliments du b\u00e9tail</a></li>\n\n<li><a href=\"/sante-des-animaux/aliments-du-betail/directives-reglementaires/rg-1/chapitre-6/fra/1329424894076/1329425015275\">Chapitre 6\u00a0\u2013 \u00c9chantillons et exigences des analyses de laboratoire</a></li>\n\n<li><a href=\"/sante-des-animaux/aliments-du-betail/directives-reglementaires/rg-1/chapitre-7/fra/1329352141332/1329352219266\">Chapitre 7\u00a0\u2013 Autres sources d'information pertinentes</a></li>\n\n<li><a href=\"/sante-des-animaux/aliments-du-betail/directives-reglementaires/rg-1/chapitre-8/fra/1534347544752/1534347545165\">Chapitre 8\u00a0\u2013 Proc\u00e9dures de consultation pr\u00e9alables concernant les aliments du b\u00e9tail</a></li>\n</ul>\n\n<h2 id=\"intro\">Introduction\u00a0\u2013 R\u00e9glementation des aliments du b\u00e9tail au Canada</h2>\n\n<p>La <i>Loi relative aux aliments du b\u00e9tail</i> et son r\u00e8glement d'application administr\u00e9s par l'Agence canadienne d'inspection des aliments (ACIA) r\u00e9gissent la fabrication, la vente et l'importation d'aliments du b\u00e9tail au Canada. Tous les aliments du b\u00e9tail doivent \u00eatre sans danger pour le b\u00e9tail, pour les humains (\u00e0 cause du transfert possible de r\u00e9sidus dans l'alimentation humaine, <span class=\"nowrap\">c'est-\u00e0-dire</span> la viande, le lait et les \u0153ufs, et des humains qui travaillent dans cette industrie ou qui sont expos\u00e9s aux produits de fa\u00e7on fortuite) et pour l'environnement.</p>\n\n<p>Ils doivent \u00e9galement d\u00e9montrer leur efficacit\u00e9 pour l'utilisation que l'on pr\u00e9voit en faire. Les ingr\u00e9dients des aliments du b\u00e9tail approuv\u00e9s sont \u00e9num\u00e9r\u00e9s et inscrits aux annexes IV et V du <i>R\u00e8glement de 1983 sur les aliments du b\u00e9tail</i>, dans lesquelles on \u00e9nonce les garanties, les normes et les exigences sur l'\u00e9tiquetage. Tous les aliments du b\u00e9tail import\u00e9s et les aliments du b\u00e9tail canadiens doivent satisfaire aux m\u00eames normes.</p>\n\n<p>L'industrie et le gouvernement partagent la responsabilit\u00e9 \u00e0 l'\u00e9gard de l'innocuit\u00e9 et de l'efficacit\u00e9 des aliments de b\u00e9tail et en fin de compte, de nos aliments. L'ACIA fait appel \u00e0 un certain nombre d'outils diff\u00e9rents, parmi lesquels la consultation, la publication de renseignements (par exemple site Web de l'ACIA), les campagnes de sensibilisation, des activit\u00e9s d'inspection et d'autres initiatives, pour informer les parties r\u00e9glement\u00e9es des exigences. Les parties r\u00e9glement\u00e9es doivent prendre connaissance des exigences r\u00e9glementaires auxquelles elles doivent se conformer.</p>\n\n<p>En vertu de la <i>Loi sur les aliments du b\u00e9tail</i> et de son r\u00e8glement d'application ainsi que de la <i>Loi sur la sant\u00e9 des animaux</i> et de son r\u00e8glement d'application, l'ACIA g\u00e8re un Programme national des aliments du b\u00e9tail. Il existe 2 volets cl\u00e9s\u00a0\u2013\u00a0l'\u00e9valuation pr\u00e9alable \u00e0 la vente obligatoire et le Programme national d'inspection des aliments du b\u00e9tail.</p>\n\n<p>Le pr\u00e9sent document (le RG-1) vise \u00e0 vous aider \u00e0 d\u00e9terminer si vos aliments sont assujettis \u00e0 la <i>Loi relative aux aliments du b\u00e9tail</i> et \u00e0 son r\u00e8glement ainsi qu'\u00e0 vous aider \u00e0 pr\u00e9parer et soumettre une demande d'\u00e9valuation pr\u00e9alable \u00e0 la vente pour l'approbation des ingr\u00e9dients des aliments du b\u00e9tail ou pour l'enregistrement des produits des aliments du b\u00e9tail. Des chapitres en particulier du RG-1 fournissent des renseignements plus d\u00e9taill\u00e9s sur les exigences des cat\u00e9gories particuli\u00e8res d'aliments du b\u00e9tail ou d'ingr\u00e9dients des aliments du b\u00e9tail.</p>\n\n<h3 id=\"intro-1\">Pouvoirs l\u00e9gislatifs</h3>\n\n<p>Les pouvoirs l\u00e9gislatifs en vertu desquels l'ACIA r\u00e9glemente les aliments du b\u00e9tail comprennent les lois et les r\u00e8glements suivants\u00a0:<br>\n</p>\n\n<ul class=\"list-unstyled mrgn-lft-md\">\n<li><i>Loi relative aux aliments du b\u00e9tail</i></li>\n<li><i>R\u00e8glement de 1983 sur les aliments du b\u00e9tail</i></li>\n<li><i>Loi sur la sant\u00e9 des animaux</i></li>\n<li><i>R\u00e8glement sur la sant\u00e9 des animaux</i></li>\n<li><i>R\u00e8glement sur les produits biologiques</i></li>\n</ul>\n\n<p>Pour la perception des droits\u00a0:<br>\n</p>\n\n<p>La partie XIV du <i>R\u00e8glement sur la sant\u00e9 des animaux</i> contient plusieurs mesures r\u00e9glementaires li\u00e9es \u00e0 la production d'aliments pour animaux et \u00e0 l'alimentation du b\u00e9tail (aliments contenant un produit ou un sous-produit animal) et \u00e0 l'alimentation du b\u00e9tail. Ces mesures comprennent une interdiction (\u00ab\u00a0interdiction frappant les aliments du b\u00e9tail\u00a0\u00bb) touchant l'utilisation de la plupart des prot\u00e9ines provenant des ruminants (appel\u00e9es \u00ab\u00a0substances interdites\u00a0\u00bb) dans l'alimentation des ruminants, notamment les bovins, les moutons, les ch\u00e8vres et les cervid\u00e9s. La loi exige \u00e9galement, pour quiconque fabrique, importe, emballe, entrepose, distribue, vend ou annonce la vente des aliments pour animaux destin\u00e9s aux ruminants (et les autres esp\u00e8ces animales \u00e9num\u00e9r\u00e9es au paragraphe 171(1) du <i>R\u00e8glement sur la sant\u00e9 des animaux</i>), la conservation (pendant 10 ans) des registres qui contiennent le num\u00e9ro du lot et tout autre renseignement permettant d'identifier chaque lot d'aliments pour animaux.</p>\n\n<p>Sous le R\u00e9gime Bio-Canada, le <i>R\u00e8glement sur les produits biologiques (2009)</i> (RPB) \u00e9tablit des crit\u00e8res sp\u00e9cifiques pour les produits qui sont \u00e9tiquet\u00e9s comme produits biologiques, y compris les aliments du b\u00e9tail, ou qui portent le logo biologique, et qui sont vendus dans le commerce interprovincial ou import\u00e9s.</p>\n\n<p>Veuillez noter que d'autres r\u00e8glements administr\u00e9s soit par l'ACIA ou un autre minist\u00e8re ou organisme du gouvernement du Canada peuvent \u00e9galement s'appliquer en fonction du type d'aliment du b\u00e9tail ou d'ingr\u00e9dients, par exemple, la <i>Loi sur les aliments et drogues</i> et son r\u00e8glement et la <i>Loi sur les produits antiparasitaires</i> et son r\u00e8glement.</p>\n\n<h3 id=\"intro-2\">R\u00e9glementation des aliments du b\u00e9tail</h3>\n\n<p>\u00ab\u00a0Aliments\u00a0\u00bb se d\u00e9finit en vertu de l'article 2 de la <i>Loi relative aux aliments du b\u00e9tail</i> comme\u00a0:</p>\n\n<p>Les substances ou m\u00e9langes de substances renfermant notamment des acides amin\u00e9s, des produits antioxydants, des glucides, des condiments, des enzymes, des lipides, des \u00e9l\u00e9ments min\u00e9raux, des produits azot\u00e9s non prot\u00e9iques, des prot\u00e9ines, des vitamines, des liants pour agglom\u00e9r\u00e9s, des colorants, des agents moussants ou des aromatisants, lorsque cette substance ou ce m\u00e9lange est fabriqu\u00e9 ou vendu pour servir, directement ou apr\u00e8s adjonction \u00e0 une autre de ces substances ou de ces m\u00e9langes, aux fins suivantes, ou est d\u00e9crit comme devant servir\u00a0:</p>\n\n<ol class=\"lst-lwr-alph\">\n<li>\u00e0 la consommation par des animaux de ferme;</li>\n<li>\u00e0 l'alimentation des animaux de ferme;</li>\n<li>\u00e0 emp\u00eacher ou corriger des d\u00e9sordres nutritifs chez les animaux de ferme.</li>\n</ol>\n\n<p>Sont actuellement assujettis \u00e0 la <i>Loi relative aux aliments du b\u00e9tail</i> et \u00e0 son r\u00e8glement, les aliments pour les esp\u00e8ces suivantes de b\u00e9tail\u00a0: bovins, chevaux, ovins, caprins, porcins, volailles (poulets, dindons, canards, oies), poissons, renards, visons et lapins.</p>\n\n<p>Les aliments des autres esp\u00e8ces sont soustraits \u00e0 l'application de la loi et des r\u00e8glements sous son r\u00e9gime. Toutefois, ils peuvent quand m\u00eame \u00eatre assujettis \u00e0 des exigences d'importation ou d'exportation en vertu d'autres pouvoirs administr\u00e9s par l'ACIA.</p>\n\n<p>Des renseignements concernant l'importation de produits r\u00e9glement\u00e9s par l'ACIA sont disponibles sur le <a href=\"/importation-d-aliments-de-vegetaux-ou-d-animaux/importations-de-vegetaux-et-de-produits-vegetaux/sari/fra/1300127512994/1300127627409\">Syst\u00e8me automatis\u00e9 de r\u00e9f\u00e9rence \u00e0 l'importation (SARI)</a>.</p>\n\n<p>Pour de plus amples renseignements concernant les importations et les exportations des produits en questions, veuillez communiquer avec le <a href=\"/a-propos-de-l-acia/permis-licences-et-approbations/centre-d-administration-pour-les-permissions/fra/1395348583779/1395348638922\" title=\"Centre d'administration pour les permissions (licences, permis, agr\u00e9ments, et les exemptions minist\u00e9rielles)\">Centre d'administration (CA)</a>. Le CA est responsable de r\u00e9aliser des t\u00e2ches administratives relatives \u00e0 l'octroi de permissions (licences, permis et enregistrements) pour les exploitants commerciaux et les voyageurs.</p>\n\n<p>Les produits qui sont administr\u00e9s au b\u00e9tail par les aliments ou l'eau \u00e0 des fins th\u00e9rapeutiques peuvent \u00eatre consid\u00e9r\u00e9s comme des m\u00e9dicaments v\u00e9t\u00e9rinaires, qui sont assujettis \u00e0 la <i>Loi sur les aliments et drogues</i> et \u00e0 son r\u00e8glement, dont l'application rel\u00e8ve de la Direction des m\u00e9dicaments v\u00e9t\u00e9rinaires de Sant\u00e9 Canada. <a href=\"https://www.canada.ca/fr/sante-canada/services/medicaments-produits-sante/medicaments-veterinaires/legislation-lignes-directrices/lignes-directrices/document-orientation-classification-medicaments-veterinaires-aliments-betail.html\" title=\"Document d'orientation sur la classification des m\u00e9dicaments v\u00e9t\u00e9rinaires et des aliments du b\u00e9tail\">De plus amples renseignements sur la classification des aliments du b\u00e9tail et des m\u00e9dicaments v\u00e9t\u00e9rinaires</a> sont accessibles dans un document d'orientation publi\u00e9 sur le site Web de Sant\u00e9 Canada.</p>\n\n<h3 id=\"intro-3\">Aliments \u00e0 ingr\u00e9dient unique (AIU)</h3>\n\n<p>Un \u00ab\u00a0aliment \u00e0 ingr\u00e9dient unique\u00a0\u00bb est d\u00e9sign\u00e9 dans le <i>R\u00e8glement de 1983 sur les aliments du b\u00e9tail</i> comme \u00ab\u00a0tout produit ou m\u00e9lange de produits vis\u00e9 aux annexes IV ou V, qui a \u00e9t\u00e9 \u00e9valu\u00e9 et jug\u00e9 acceptable pour utilisation dans les aliments\u00a0\u00bb. On d\u00e9signe g\u00e9n\u00e9ralement les aliments \u00e0 ingr\u00e9dient unique comme \u00ab\u00a0ingr\u00e9dients\u00a0\u00bb.</p>\n\n<p>L'annexe IV est t divis\u00e9e en 8 classes refl\u00e9tant les d\u00e9finitions et les objectifs approuv\u00e9s de l'ingr\u00e9dient pour le b\u00e9tail. Les 7 premi\u00e8res classes d'ingr\u00e9dients sont de nature nutritionnelle, y compris les fourrages et les foins, les aliments \u00e9nerg\u00e9tiques, les aliments prot\u00e9iques, les vitamines et les min\u00e9raux. La classe 8 r\u00e9pertorie les divers ingr\u00e9dients r\u00e9serv\u00e9s principalement aux ingr\u00e9dients qui jouent un r\u00f4le non nutritif ou technologique dans les aliments pour le b\u00e9tail. L'annexe V concerne sp\u00e9cifiquement les ingr\u00e9dients de saveur approuv\u00e9s et utilis\u00e9s en petites quantit\u00e9s pour ajouter de la saveur aux aliments, y compris les extraits, les huiles et les produits chimiques.</p>\n\n<p>Les annexes IV et V sont de plus chacune divis\u00e9es en ingr\u00e9dients de la partie I ou de la partie II. La r\u00e9partition d'un ingr\u00e9dient dans l'une ou l'autre partie d\u00e9pend si la source d'ingr\u00e9dient sp\u00e9cifique pose des pr\u00e9occupations en mati\u00e8re d'innocuit\u00e9 ou d'efficacit\u00e9 et si ces pr\u00e9occupations peuvent \u00eatre att\u00e9nu\u00e9es par des restrictions figurant dans la d\u00e9finition (par exemple, restrictions d'utilisation, \u00e9nonc\u00e9s d'avertissement ou de mise en garde, niveaux maximums de contaminants), ou une variabilit\u00e9 importante existe pour justifier une \u00e9valuation s\u00e9par\u00e9e de ces ingr\u00e9dients pour chaque source.</p>\n\n<h4>Annexes IV et V, partie 1</h4>\n\n<p>Les ingr\u00e9dients \u00e9num\u00e9r\u00e9s dans la partie I des annexes IV et V ont \u00e9t\u00e9 \u00e9valu\u00e9s pour leur innocuit\u00e9 et leur efficacit\u00e9. Ces ingr\u00e9dients approuv\u00e9s sont \u00e9num\u00e9r\u00e9s aux annexes IV ou V avec des d\u00e9finitions et conditions appropri\u00e9es. Ils sont exempt\u00e9s d'enregistrement et peuvent \u00eatre import\u00e9s, vendus et utilis\u00e9s librement dans la fabrication d'aliments pour b\u00e9tail au Canada, \u00e0 condition qu'ils soient conformes \u00e0 la d\u00e9finition de l'ingr\u00e9dient figurant dans l'annexe, qu'ils satisfont aux normes d'\u00e9tiquetage prescrit, y compris les garanties requises, et qu'ils se conforment aux normes \u00e9nonc\u00e9es dans les r\u00e8glements et dans les directives r\u00e9glementaires (par exemple, les directives r\u00e9glementaires (par exemple, <a href=\"/sante-des-animaux/aliments-du-betail/directives-reglementaires/rg-8/fra/1347383943203/1347384015909\">RG-8 Directives r\u00e9glementaires\u00a0: Contaminants dans les aliments du b\u00e9tail</a>).</p>\n\n<p>Les ingr\u00e9dients de la partie I ne doivent pas avoir de garanties ou d'all\u00e9gations suppl\u00e9mentaires sur l'\u00e9tiquette. Les ingr\u00e9dients \u00e9tiquet\u00e9s avec des garanties et des all\u00e9gations suppl\u00e9mentaires qui ne sont pas pr\u00e9vus par le <i>R\u00e8glement de 1983 sur les aliments du b\u00e9tail</i> requi\u00e8rent une \u00e9valuation pr\u00e9alable \u00e0 la mise en march\u00e9 et doivent \u00eatre approuv\u00e9s.</p>\n\n<h4>Annexes IV et V, partie II</h4>\n\n<p>Les ingr\u00e9dients de la partie II ne sont pas exempt\u00e9s de l'enregistrement. Puisqu'il pourrait y avoir des variations inh\u00e9rentes reli\u00e9es \u00e0 l'innocuit\u00e9 et/ou l'efficacit\u00e9 associ\u00e9es \u00e0 une source individuelle de l'ingr\u00e9dient, ou introduites par l'entremise du processus de fabrication, une \u00e9valuation pr\u00e9alable \u00e0 la mise en march\u00e9 est exig\u00e9e.. Chaque site de fabrication est consid\u00e9r\u00e9 comme une source distincte pour un aliment \u00e0 ingr\u00e9dient unique (AIU) inscrit \u00e0 la partie II de l'annexe IV ou V. Chaque source d'un AIU doit \u00eatre \u00e9valu\u00e9e \u00e0 l'aide de donn\u00e9es \u00e0 l'appui de l'innocuit\u00e9 et/ou de l'efficacit\u00e9 du produit. Une fois l'\u00e9valuation termin\u00e9e et approuv\u00e9e par l'ACIA, un num\u00e9ro d'enregistrement est attribu\u00e9 \u00e0 l'AIU inscrit \u00e0 la partie II. Dans le cas d'un AIU de la partie II fabriqu\u00e9 \u00e0 plusieurs sites, le m\u00eame num\u00e9ro d'enregistrement peut \u00eatre attribu\u00e9 une fois que l'ACIA a v\u00e9rifi\u00e9 que le proc\u00e9d\u00e9 de fabrication, les mati\u00e8res premi\u00e8res, y compris la qualit\u00e9, la puret\u00e9, les niveaux de contaminants, les contr\u00f4les de la qualit\u00e9 et les sp\u00e9cifications du produit final sont \u00e9quivalents entre ces sites de fabrication.</p>\n\n<p>Tout ingr\u00e9dient qui n'est pas actuellement list\u00e9 ou ne respecte pas la description de l'ingr\u00e9dient pr\u00e9sent\u00e9e \u00e0 l'annexe IV ou \u00e0 l'annexe V doit \u00eatre approuv\u00e9 par l'ACIA avant d'\u00eatre utilis\u00e9 pour l'alimentation du b\u00e9tail. Les ingr\u00e9dients ne sont pas approuv\u00e9s lorsque l'ingr\u00e9dient est jug\u00e9 \u00e0 risque ou inad\u00e9quats, ou pour lesquels les renseignements fournis ne suffisent pas \u00e0 confirmer l'innocuit\u00e9 et l'usage pr\u00e9vu de l'aliment.</p>\n\n<h3 id=\"intro-4\">Nouveaux ingr\u00e9dients n\u00e9cessitant une \u00e9valuation</h3>\n\n<p>Les ingr\u00e9dients qui ne figurent pas dans les annexes IV ou V n\u00e9cessitent une \u00e9valuation compl\u00e8te de leur innocuit\u00e9 et de leur efficacit\u00e9. Dans la situation o\u00f9 un ingr\u00e9dient est d\u00e9j\u00e0 utilis\u00e9 dans un autre pays, une \u00e9valuation compl\u00e8te est toujours n\u00e9cessaire. Toutefois, l'ACIA accepte des donn\u00e9es qui ont \u00e9t\u00e9 utilis\u00e9es pour appuyer l'approbation des ingr\u00e9dients dans d'autres juridictions.</p>\n\n<h3 id=\"intro-5\">Ingr\u00e9dients existants n\u00e9cessitant une \u00e9valuation</h3>\n\n<p>Les AIU qui inscrit \u00e0 l'annexe IV ou V qui diff\u00e8rent en termes\u00a0:</p>\n\n<ul>\n<li>de sa composition, de la structure, de la qualit\u00e9 nutritionnelle ou ses effets physiologiques</li>\n<li>du processus de fabrication</li>\n<li>de la mani\u00e8re dont l'ingr\u00e9dient est m\u00e9tabolis\u00e9 dans le corps de l'animal \u00e0 laquelle cet aliment est destin\u00e9</li>\n<li>de l'innocuit\u00e9 de l'ingr\u00e9dient</li>\n<li>de l'esp\u00e8ce ou la cat\u00e9gorie d'animaux du b\u00e9tail auxquels cet aliment est destin\u00e9 et son niveau d'utilisation, et</li>\n<li>son usage \u00e9nonc\u00e9 dans les annexes IV et V</li>\n</ul>\n\n<p>n\u00e9cessite une nouvelle \u00e9valuation pour l'innocuit\u00e9 et/ou l'efficacit\u00e9.</p>\n\n<h3 id=\"intro-6\">R\u00e9sultats de l'\u00e9valuation d'un ingr\u00e9dient</h3>\n\n<p>Suite \u00e0 une \u00e9valuation, une d\u00e9cision est prise concernant l'approbation des ingr\u00e9dients. La d\u00e9cision peut appartenir \u00e0 1 des cat\u00e9gories suivantes</p>\n\n<ul>\n<li>L'aliment du b\u00e9tail n'est pas approuv\u00e9 pour diverses raisons \n<ul>\n<li>par exemple, le demandeur n'a pas fourni suffisamment d'informations pour corroborer les crit\u00e8res d'innocuit\u00e9 et d'efficacit\u00e9, la demande est retir\u00e9e.</li>\n</ul></li>\n<li>L'aliment du b\u00e9tail est approuv\u00e9 avec des conditions\n<ul>\n<li>Certaines de ces conditions peuvent \u00eatre \u00e9crites dans les lettres d'approbation (par exemple, ma\u00efs tol\u00e9rant aux herbicides lorsque l'approbation est sp\u00e9cifique au grain et non au fourrage) ou dans la d\u00e9finition de l'ingr\u00e9dient (par exemple, approuver uniquement pour des esp\u00e8ces du b\u00e9tail sp\u00e9cifiques, contient un taux d'inclusion maximal, \u00e9tiquet\u00e9 avec des garanties sp\u00e9cifiques pour une utilisation en toute s\u00e9curit\u00e9, des \u00e9nonc\u00e9s d'avertissement et des mises en garde).</li>\n</ul></li>\n<li>L'aliment du b\u00e9tail est approuv\u00e9 sans condition</li>\n</ul>\n\n<p>Pour les ingr\u00e9dients d'aliment du b\u00e9tail dont le r\u00e9sultat de l'\u00e9valuation est positif, l'\u00e9valuation s'assure \u00e9galement que l'aliment est d\u00e9fini avec pr\u00e9cision dans les annexes et qu'il est \u00e9tiquet\u00e9 de mani\u00e8re appropri\u00e9e pour une utilisation s\u00e9curitaire et efficace et pour assurer la protection du consommateur. La d\u00e9cision concernant la partie de l'annexe (<span class=\"nowrap\">c'est-\u00e0-dire</span> la partie I ou II) \u00e0 lister l'ingr\u00e9dient est d\u00e9cid\u00e9e \u00e0 la fin du processus d'\u00e9valuation. Les r\u00e9sultats de d\u00e9cision suivants peuvent survenir\u00a0:</p>\n\n<ul>\n<li>cr\u00e9ation d'une nouvelle d\u00e9finition de l'ingr\u00e9dient</li>\n<li>modifier une d\u00e9finition de l'ingr\u00e9dient existant, ou</li>\n<li>une nouvelle d\u00e9finition n'est pas justifi\u00e9e car l'ingr\u00e9dient r\u00e9pond aux exigences et \u00e0 la description actuellement d\u00e9finies dans les parties I ou II des annexes IV ou V.</li>\n</ul>\n\n<h3 id=\"intro-7\">Classification des ingr\u00e9dients des aliments du b\u00e9tail</h3>\n\n<p>Pour qu'un ingr\u00e9dient soit \u00e9valu\u00e9 et autoris\u00e9 comme ingr\u00e9dient d'aliments du b\u00e9tail par l'ACIA, il doit d'abord \u00eatre classifi\u00e9 en tant qu'aliment. Il existe d'autres substances pouvant \u00eatre ing\u00e9r\u00e9es par le b\u00e9tail qui ne sont pas des aliments destin\u00e9s au b\u00e9tail et qui sont r\u00e9glement\u00e9es de fa\u00e7on diff\u00e9rente. Les produits th\u00e9rapeutiques (m\u00e9dicaments) (r\u00e9glement\u00e9s en vertu de la <i>Loi sur les aliments et drogues</i>), les produits antiparasitaires (<i>Loi sur les produits antiparasitaires</i>) et les produits biologiques v\u00e9t\u00e9rinaires (<i>Loi sur la sant\u00e9 des animaux</i>) en sont des exemples. Cela peut entra\u00eener de la confusion, particuli\u00e8rement pour les entreprises \u00e9trang\u00e8res, puisque les produits peuvent \u00eatre r\u00e9glement\u00e9s de fa\u00e7on diff\u00e9rente dans des juridictions \u00e9trang\u00e8res.</p>\n\n<p>Les produits tels que les anticoccidiens et les histomonostatiques sont r\u00e9glement\u00e9s comme des m\u00e9dicaments v\u00e9t\u00e9rinaires au Canada, mais dans l'Union europ\u00e9enne (UE), ils sont consid\u00e9r\u00e9s comme des additifs alimentaires pour le b\u00e9tail. D'autres types de produits tels que des produits microbiens peuvent \u00eatre classifi\u00e9s autrement en fonction de leur usage ou du mode d'action pr\u00e9vu du produit. De plus, le taux d'utilisation d'un produit, la m\u00e9thode d'administration et les types d'all\u00e9gations qui y sont li\u00e9s sont tous des \u00e9l\u00e9ments qui peuvent avoir des incidences sur la fa\u00e7on dont le produit est classifi\u00e9 au Canada. Reconnaissant la n\u00e9cessit\u00e9 d'un processus de classification clair et transparent pour certains ingr\u00e9dients et produits destin\u00e9s \u00e0 \u00eatre utilis\u00e9s chez les esp\u00e8ces de b\u00e9tail, l'ACIA collabore avec Sant\u00e9 Canada (SC) et, apr\u00e8s de nombreuses consultations, a \u00e9labor\u00e9 des directives sur la classification des m\u00e9dicaments v\u00e9t\u00e9rinaires et des aliments pour le b\u00e9tail au Canada. Veuillez consulter le <a href=\"https://www.canada.ca/fr/sante-canada/services/medicaments-produits-sante/medicaments-veterinaires/legislation-lignes-directrices/lignes-directrices/document-orientation-classification-medicaments-veterinaires-aliments-betail.html\">Document d'orientation sur la classification des m\u00e9dicaments v\u00e9t\u00e9rinaires et des aliments du b\u00e9tail</a>.</p>\n\n<p>Ce document pr\u00e9sente les grandes lignes de l'approche actuelle de classification des m\u00e9dicaments v\u00e9t\u00e9rinaires et des aliments du b\u00e9tail, et offre des interpr\u00e9tations et des d\u00e9finitions. Ce document d'orientation a pour but d'aider les promoteurs qui cherchent \u00e0 faire \u00e9valuer et autoriser de nouveaux produits pour la mise sur le march\u00e9 au Canada, en d\u00e9terminant ce qui constitue un m\u00e9dicament v\u00e9t\u00e9rinaire, par rapport \u00e0 un aliment du b\u00e9tail, et en pr\u00e9cisant l'endroit o\u00f9 ils peuvent envoyer leur demande. Depuis la publication initiale, un groupe de travail de SC et de l'ACIA, en consultation avec les intervenants, a apport\u00e9 des pr\u00e9cisions suppl\u00e9mentaires sur la classification des ingr\u00e9dients et des produits. Le groupe de travail fournit \u00e9galement des d\u00e9cisions communes sur les ingr\u00e9dients et les produits soumis \u00e0 la classification.</p>\n\n<h3 id=\"intro-8\">Autres pouvoirs l\u00e9gislatifs applicables aux ingr\u00e9dients des aliments du b\u00e9tail import\u00e9s</h3>\n\n<p>Il doit \u00eatre not\u00e9 que bien qu'un ingr\u00e9dient soit \u00e9num\u00e9r\u00e9 dans l'annexe IV ou V, d'autres autorit\u00e9s r\u00e9glementaires respectant la sant\u00e9 des animaux ou des v\u00e9g\u00e9taux peuvent interdire l'importation d'ingr\u00e9dients des aliments du b\u00e9tail ou ajouter des conditions. Des renseignements suppl\u00e9mentaires concernant l'importation de produits r\u00e9glement\u00e9s par l'ACIA sont disponibles dans le <a href=\"/importation-d-aliments-de-vegetaux-ou-d-animaux/importations-de-vegetaux-et-de-produits-vegetaux/sari/fra/1300127512994/1300127627409\">Syst\u00e8me automatis\u00e9 de r\u00e9f\u00e9rence \u00e0 l'importation (SARI)</a>.</p>\n\n<p>Pour de plus amples renseignements relatifs aux importations et aux exportations de ces produits, veuillez communiquer avec le <a href=\"/a-propos-de-l-acia/permis-licences-et-approbations/centre-d-administration-pour-les-permissions/fra/1395348583779/1395348638922\">Centre d'administration (CA)</a>.</p>\n\n<h3 id=\"intro-9\">Demander une copie des annexes IV et V</h3>\n\n<p>Afin de demander une copie de la derni\u00e8re version des annexes IV et V, veuillez envoyer un courriel ayant pour objet \u00ab\u00a0annexes IV et V\u00a0\u00bb au Programme des aliments pour animaux (PAA) \u00e0 l'adresse suivante\u00a0: <a class=\"nowrap\" href=\"mailto:cfia.afp-paa.acia@inspection.gc.ca?subject=Annexes%20IV%20et%20V\">cfia.afp-paa.acia@inspection.gc.ca</a></p>\n\n<h3 id=\"intro-10\">Aliments compos\u00e9s</h3>\n\n<p>Les ingr\u00e9dients peuvent \u00eatre servis seulement au b\u00e9tail. Par contre, ils sont g\u00e9n\u00e9ralement m\u00e9lang\u00e9s afin de fabriquer diff\u00e9rents types d'aliments compos\u00e9s. Un aliment compos\u00e9 est un aliment qui contient au moins 2 aliments \u00e0 ingr\u00e9dient unique. Tous les aliments compos\u00e9s ne doivent \u00eatre fabriqu\u00e9s qu'avec des ingr\u00e9dients qui ont \u00e9t\u00e9 approuv\u00e9s \u00e0 des fins d'utilisation et \u00e9num\u00e9r\u00e9s aux annexes IV et V.</p>\n\n<h3 id=\"intro-11\">Aliment courant par rapport \u00e0 sp\u00e9cial</h3>\n\n<p>De nombreux aliments compos\u00e9s (par exemple, pr\u00e9m\u00e9lange et suppl\u00e9ments) peuvent \u00eatre utilis\u00e9s dans la fabrication d'aliments complets ou de rations. Cependant, ces aliments sont consid\u00e9r\u00e9s comme des \u00ab\u00a0aliments courants\u00a0\u00bb. Certains aliments compos\u00e9s peuvent \u00eatre des ingr\u00e9dients dilu\u00e9s (sur supports) ou une combinaison d'ingr\u00e9dients divers (tels que ceux \u00e9num\u00e9r\u00e9s \u00e0 la cat\u00e9gorie 8 des parties I et II de l'annexe IV et de l'annexe V) dont l'intention est d'agir \u00e0 titre d'additifs ou d'assurer une fonction pr\u00e9cise. Le PAA d\u00e9signe ces produits comme des \u00ab\u00a0aliments sp\u00e9ciaux\u00a0\u00bb et sont similaires aux termes des \u00ab\u00a0additifs pour alimentation animale\u00a0\u00bb utilis\u00e9s par l'Union europ\u00e9enne. Les exemples de certains \u00ab\u00a0aliments sp\u00e9ciaux\u00a0\u00bb comprennent ceux qui suivent\u00a0:</p>\n\n<ul>\n<li>acidifiants,</li>\n<li>antioxydants,</li>\n<li>aliments tampons,</li>\n<li>suppl\u00e9ments enzymatiques,</li>\n<li>aromatisants,</li>\n<li>inhibiteur de moisissures,</li>\n<li>agents d'\u00e9limination des odeurs,</li>\n<li>agglom\u00e9rants de granules,</li>\n<li>colorants alimentaires et agents de pigmentation des aliments et des produits animaux,</li>\n<li>produits microbiens viables,</li>\n<li>produit compos\u00e9 de parois cellulaires de levure,</li>\n<li>agents anti-agglom\u00e9rants.</li>\n</ul>\n\n<h3 id=\"intro-12\">\u00c9valuation pr\u00e9alable \u00e0 la vente</h3>\n\n<p>La <i>Loi relative aux aliments du b\u00e9tail</i> et son r\u00e8glement conf\u00e8re actuellement le pouvoir \u00e0 l'ACIA de r\u00e9aliser des \u00e9valuations pr\u00e9alables \u00e0 la vente et qui consistent en 2 \u00e9tapes, soit l'\u00e9valuation de nouveaux ingr\u00e9dients \u00e0 des fins d'approbation ou d'autorisation et l'enregistrement de produits.</p>\n\n<p>L'ACIA \u00e9value et r\u00e9glemente de la m\u00eame mani\u00e8re tous les ingr\u00e9dients des aliments du b\u00e9tail. Tout ingr\u00e9dient qui est nouveau (<span class=\"nowrap\">c'est-\u00e0-dire</span>, ne figure pas d\u00e9j\u00e0 aux annexes IV et V du <i>R\u00e8glement de 1983 sur les aliments du b\u00e9tail</i>) ou a \u00e9t\u00e9 modifi\u00e9 de sorte qu'il diff\u00e8re de beaucoup d'un ingr\u00e9dient classique tel que la composition, le processus de fabrication ou l'utilisation, doit faire l'objet d'une \u00e9valuation et d'une autorisation pr\u00e9alables \u00e0 la mise en march\u00e9.</p>\n\n<p>Le but de toutes les \u00e9valuations des aliments du b\u00e9tail est le m\u00eame\u00a0: s'assurer que l'ingr\u00e9dient est sans danger (pour la sant\u00e9 des animaux, pour la sant\u00e9 des humains\u00a0\u2013\u00a0\u00e0 cause des r\u00e9sidus pr\u00e9sents dans les aliments et des humains qui travaillent dans cette industrie ou qui sont expos\u00e9s aux produits de fa\u00e7on fortuite\u00a0\u2013\u00a0ainsi que pour l'environnement) et qu'il d\u00e9montre son efficacit\u00e9 pour l'utilisation que l'on pr\u00e9voit en faire avant sa mise en march\u00e9.</p>\n\n<p>Un cadre d'\u00e9valuation des risques est un \u00e9l\u00e9ment cl\u00e9 de l'\u00e9valuation de l'innocuit\u00e9 et de l'efficacit\u00e9. \u00c0 la suite d'une \u00e9valuation positive, l'examen assure aussi que les aliments du b\u00e9tail sont d\u00e9finis avec exactitude dans le <i>R\u00e8glement de 1983 sur les aliments du b\u00e9tail</i> et qu'ils sont \u00e9tiquet\u00e9s de fa\u00e7on appropri\u00e9e pour indiquer leur innocuit\u00e9 et leur efficacit\u00e9 ainsi que pour assurer la protection des consommateurs</p>\n\n<p>Les exigences particuli\u00e8res d'une \u00e9valuation de l'innocuit\u00e9 et de l'efficacit\u00e9 d\u00e9pendent de la nature des aliments du b\u00e9tail dont il est question. Les exigences en mati\u00e8re de donn\u00e9es sont adapt\u00e9es \u00e0 la connaissance, au but et \u00e0 la complexit\u00e9 du produit. L'ACIA fournit des pr\u00e9cisions aux intervenants sur la fa\u00e7on de satisfaire aux exigences en mati\u00e8re de donn\u00e9es du processus d'\u00e9valuation par l'entremise d'ateliers, de consultations individuelles et de la publication de documents d'orientation, y compris du pr\u00e9sent document (RG-1, Directives R\u00e9glementaires\u00a0: Proc\u00e9dures d'enregistrement et normes d'\u00e9tiquetage).</p>\n\n<p>Une fois qu'un nouvel ingr\u00e9dient a \u00e9t\u00e9 \u00e9valu\u00e9 et jug\u00e9 s\u00fbr et efficace en tant qu'aliment du b\u00e9tail, il est ajout\u00e9 \u00e0 la partie I ou la partie II de l'annexe IV ou de l'annexe V sous la cat\u00e9gorie qui correspond au but et au risque qui lui sont associ\u00e9s. On assigne aux AIU de la partie II un num\u00e9ro d'agr\u00e9ment qui leur est propre.</p>\n\n<h3 id=\"intro-13\">Enregistrement de produits</h3>\n\n<p>Les ingr\u00e9dients \u00e9num\u00e9r\u00e9s \u00e0 la partie I de l'une ou l'autre des annexes sont exempt\u00e9s de l'enregistrement pourvu qu'ils respectent les exigences de composition d\u00e9crites dans la d\u00e9finition de l'ingr\u00e9dient, respectent les normes applicables et soient \u00e9tiquet\u00e9s de fa\u00e7on ad\u00e9quate. Les ingr\u00e9dients affichant des all\u00e9gations ou des garanties suppl\u00e9mentaires sur l'\u00e9tiquette ou dont la langue diff\u00e8re du fran\u00e7ais ou de l'anglais sont par contre assujettis \u00e0 l'enregistrement. Les ingr\u00e9dients \u00e9num\u00e9r\u00e9s \u00e0 la partie II de l'une ou l'autre des annexes doivent \u00eatre enregistr\u00e9s individuellement par l'ACIA pour chacune des sources. Chaque source des ingr\u00e9dients \u00e9num\u00e9r\u00e9s \u00e0 la partie II de l'annexe IV ou V doit \u00eatre enregistr\u00e9e par l'ACIA.</p>\n\n<p>De nombreux aliments complets, suppl\u00e9ments ou macro-pr\u00e9m\u00e9langes sont exempt\u00e9s d'enregistrement pourvu qu'ils soient conformes \u00e0 toutes les normes et exigences d'\u00e9tiquetages pr\u00e9vues par le <i>R\u00e8glement de 1983 sur les aliments du b\u00e9tail</i>.</p>\n\n<p>Les aliments sp\u00e9ciaux, comme d\u00e9crits ci-dessus, doivent \u00eatre enregistr\u00e9s. \u00c0 l'instar des ingr\u00e9dients de la partie II de l'annexe IV, les exigences particuli\u00e8res en mati\u00e8re d'\u00e9valuation de l'innocuit\u00e9 et de l'efficacit\u00e9 pour les aliments sp\u00e9ciaux d\u00e9pendent de la cat\u00e9gorie en question et une orientation sur la fa\u00e7on de respecter les exigences en mati\u00e8re de donn\u00e9es pour le processus d'\u00e9valuation est fournie au chapitre 3 du RG-1.</p>\n\n<h3 id=\"intro-14\">Aliments devant \u00eatre enregistr\u00e9s\u00a0: Dois-je faire enregistrer mon produit</h3>\n\n<p>Vous devrez faire enregistrer vos aliments du b\u00e9tail si\u00a0:</p>\n\n<ul>\n<li>vous importez un aliment \u00e0 ingr\u00e9dient unique au Canada et qu'il ne s'agit pas d'un aliment \u00e0 ingr\u00e9dient unique inscrit \u00e0 la liste de la partie I de l'annexe IV du <i>R\u00e8glement de 1983 sur les aliments du b\u00e9tail</i>;</li>\n<li>vous importez au Canada un aliment simple inscrit \u00e0 la liste de la partie I de l'annexe IV qui comprend des garanties ou des all\u00e9gations suppl\u00e9mentaires sur l'\u00e9tiquette ou qui est \u00e9tiquet\u00e9 dans une langue autre que le fran\u00e7ais ou l'anglais (voir <a href=\"/sante-des-animaux/aliments-du-betail/directives-reglementaires/rg-1/chapitre-4/fra/1329341411340/1329341520337?chap=11\" title=\"4.11 \u00c9tiquettes internationales et multilingues\">chapitre 4, section 4.11</a> pour de plus amples renseignements);</li>\n<li>vous fabriquez ou importez un aliment \u00e0 ingr\u00e9dient unique inscrit \u00e0 la liste de la partie II de l'annexe IV du <i>R\u00e8glement de 1983 sur les aliments du b\u00e9tail;</i></li>\n<li>vous importez au Canada un aliment compos\u00e9 (une combinaison d'au moins deux aliments \u00e0 ingr\u00e9dient unique) pour le b\u00e9tail;</li>\n<li>vous fabriquez un aliment au Canada qui ne satisfait pas aux crit\u00e8res d'exemption de l'enregistrement comme d\u00e9crit dans la <i>Loi relative aux aliments du b\u00e9tail</i> et dans son r\u00e8glement;</li>\n<li>vous fabriquez ou importez un aliment sp\u00e9cial, un aliment min\u00e9ral, un aliment modificateur, un aliment pour renards ou un lait de remplacement et tout autre substitut du lait;</li>\n<li>vous fabriquez ou importez des aliments complets, des suppl\u00e9mentaires et des macro-pr\u00e9m\u00e9langes pour tous les b\u00e9tails dont l'\u00e9tiquette pr\u00e9sente des niveaux de garantie en mati\u00e8re de nutriments au-del\u00e0 des limites \u00e9tablies dans le tableau 4 (annexe I) du <i>R\u00e8glement de 1983 sur les aliments du b\u00e9tail</i>;</li>\n</ul>\n\n<p>Si vous n'\u00eates pas certain que votre aliment est assujetti \u00e0 l'enregistrement apr\u00e8s la lecture du pr\u00e9sent document d'orientation et des r\u00e8glements, vous pouvez demander une analyse de l'\u00e9tiquette de votre aliment. Veuillez envoyer un courriel au PAA ayant pour objet \u00ab\u00a0Analyse d'\u00e9tiquette\u00a0\u00bb, une copie de l'\u00e9tiquette propos\u00e9e ainsi que la description du produit \u00e0 l'adresse suivante\u00a0: <a class=\"nowrap\" href=\"mailto:cfia.afp-paa.acia@inspection.gc.ca?subject=Analyse%20d'%C3%A9tiquette\">cfia.afp-paa.acia@inspection.gc.ca</a>.</p>\n\n<h3 id=\"intro-15\">Exemptions et autorisations de recherche</h3>\n\n<p>Si un promoteur souhaite mener une recherche sur un aliment qui ne respecte pas les exigences r\u00e9glementaires (<span class=\"nowrap\">c'est-\u00e0-dire</span>, qui n'est pas enregistr\u00e9 comme exig\u00e9, comprend un ingr\u00e9dient approuv\u00e9 qui ne respecte pas l'intention ou la description comme l'\u00e9tablissent les annexes IV et V du <i>R\u00e8glement de 1983 sur les aliments du b\u00e9tail</i> ou qui constitue un ingr\u00e9dient d'aliments du b\u00e9tail non autoris\u00e9), il peut devoir soumettre une demande d'exemption aux fins de recherche ou une autorisation d'un aliment nouveau \u00e0 des fins de recherche au PAA.</p>\n\n<p>Pour de plus amples renseignements, veuillez consulter le <a href=\"/sante-des-animaux/aliments-du-betail/directives-reglementaires/rg-1/chapitre-5/fra/1329351291996/1329351387584\" title=\"Chapitre 5 - Recherche sur les aliments du b\u00e9tail\">chapitre 5 du RG-1</a>, Recherche sur les aliments du b\u00e9tail.</p>\n\n<ul class=\"pager\">\n<li class=\"previous disabled\"><a href=\"#\" rel=\"prev\">Pr\u00e9c\u00e9dent</a></li>\n<li class=\"next\"><a href=\"/sante-des-animaux/aliments-du-betail/directives-reglementaires/rg-1/chapitre-1/fra/1329291099314/1329291708583?chap=0\" rel=\"next\">Suivant</a></li>\n</ul>\r\n        \r\n\r\n<div class=\"row\">\r\n \r\n\t\t\t\r\n\t\t\t\r\n\r\n\t\t\r\n\t\r\n</div>"
    },
    "js": {
        "en": "",
        "fr": ""
    },
    "chat_wizard": false,
    "success": true
}