{
    "dcr_id": "1480353998750",
    "title": {
        "en": "Richardson International Limited Fined $50,000 for an Offence Under the <i>Plant Protection Regulations</i>",
        "fr": "<span lang=\"en\">Richardson International Limited</span> se voit imposer une amende de <span class=\"nowrap\">50 000 $</span> pour avoir enfreint le <i>R\u00e8glement sur protection des v\u00e9g\u00e9taux</i>"
    },
    "html_modified": "2024-02-13 9:51:53 AM",
    "modified": "2016-11-25",
    "issued": "2016-11-28",
    "teamsite_location": {
        "en": "/default/main/inspection/cont-cont/pros-judi/STAGING/templatedata/comn-comn/pros-judi/data/20161125_1480353998750_eng",
        "fr": "/default/main/inspection/cont-cont/pros-judi/STAGING/templatedata/comn-comn/pros-judi/data/20161125_1480353998750_fra"
    },
    "ia_id": "1480353999379",
    "parent_ia_id": "1299852705293",
    "chronicletopic": {
        "en": "",
        "fr": ""
    },
    "chroniclecontent": {
        "en": "",
        "fr": ""
    },
    "chronicleaudience": {
        "en": "",
        "fr": ""
    },
    "sfcrdocumenttype": {
        "en": "",
        "fr": ""
    },
    "sfcraudience": {
        "en": "",
        "fr": ""
    },
    "sfcrmethodofproduction": {
        "en": "",
        "fr": ""
    },
    "activity": {
        "en": "",
        "fr": ""
    },
    "commodity": {
        "en": "",
        "fr": ""
    },
    "program": {
        "en": "",
        "fr": ""
    },
    "search_type": "other",
    "parent_node_id": "1299852705293",
    "layout_name": "content page 1 column",
    "breadcrumb": {
        "en": "Richardson International Limited Fined $50,000 for an Offence Under the <i>Plant Protection Regulations</i>",
        "fr": "<span lang=\"en\">Richardson International Limited</span> se voit imposer une amende de <span class=\"nowrap\">50 000 $</span> pour avoir enfreint le <i>R\u00e8glement sur protection des v\u00e9g\u00e9taux</i>"
    },
    "label": {
        "en": "Richardson International Limited Fined $50,000 for an Offence Under the <i>Plant Protection Regulations</i>",
        "fr": "<span lang=\"en\">Richardson International Limited</span> se voit imposer une amende de <span class=\"nowrap\">50 000 $</span> pour avoir enfreint le <i>R\u00e8glement sur protection des v\u00e9g\u00e9taux</i>"
    },
    "templatetype": "content page 1 column",
    "node_id": "1480353999379",
    "managing_branch": "comn",
    "type_name": "pros-judi",
    "dcr_type": "pros-judi",
    "parent_dcr_id": "1298575869119",
    "has_dcr_id": true,
    "lang": "en",
    "could_not_load": 0,
    "refaire": false,
    "interwoven_url": {
        "en": "/about-the-cfia/media-relations/prosecution-bulletins/2016-11-28/",
        "fr": "/a-propos-de-l-acia/relations-avec-les-medias/bulletins-judiciaires/2016-11-28/"
    },
    "meta": {
        "viewport": {
            "en": "width=device-width,initial-scale=1",
            "fr": "width=device-width,initial-scale=1"
        },
        "service": {
            "en": "CFIA-ACIA",
            "fr": "CFIA-ACIA"
        },
        "accessRights": {
            "en": "2",
            "fr": "2"
        },
        "title": {
            "en": "Richardson International Limited Fined $50,000 for an Offence Under the Plant Protection Regulations",
            "fr": "Richardson International Limited se voit imposer une amende de 50 000 $ pour avoir enfreint le R\u00e8glement sur protection des v\u00e9g\u00e9taux"
        },
        "description": {
            "en": "On October 5, 2016, at the Provincial Court in Winnipeg, Manitoba, Richardson International Limited entered a guilty plea to one count of contravening subsection 55(2) of the Plant Protection Regulations and was ordered to pay a fine of $50,000.",
            "fr": "Le 5 octobre 2016, \u00e0 la cour provinciale du Manitoba \u00e0 Winnipeg, Richardson International Limited a plaid\u00e9 coupable au chef d'accusation d'avoir enfreint le paragraphe 55(2) du R\u00e8glement sur la protection des v\u00e9g\u00e9taux et a \u00e9t\u00e9 condamn\u00e9e \u00e0 payer une amende de 50 000 $."
        },
        "keywords": {
            "en": "prosecution bulletin, Richardson International Limited, Plant Protection Regulations, No. 2 Canada Yellow soybeans, export, Russia",
            "fr": "bulletins judiciaires, Richardson International Limited, R\u00e8glement sur la protection des v\u00e9g\u00e9taux, soja jaune Canada no 2, exportation, Russie"
        },
        "dcterms.subject": {
            "en": "court decisions,legislation,regulation,animal health",
            "fr": "d\u00e9cision du tribunal,l\u00e9gislation,r\u00e9glementation,sant\u00e9 animale"
        },
        "creator": {
            "en": "Government of Canada,Canadian Food Inspection Agency",
            "fr": "Gouvernement du Canada,Agence canadienne d'inspection des aliments"
        },
        "language": {
            "en": "eng",
            "fr": "fra"
        },
        "issued": {
            "en": "2016-11-28",
            "fr": "2016-11-28"
        },
        "modified": {
            "en": "2016-11-25",
            "fr": "2016-11-25"
        },
        "type": {
            "en": "media release,reference material",
            "fr": "diffusion aupr\u00e8s des m\u00e9dias,mat\u00e9riel de r\u00e9f\u00e9rence"
        },
        "audience": {
            "en": "business,government,general public,media",
            "fr": "entreprises,gouvernement,grand public,m\u00e9dia"
        },
        "name": {
            "en": "Government of Canada",
            "fr": "Gouvernement du Canada"
        },
        "areaServed": {
            "en": "Canada",
            "fr": "Canada"
        }
    },
    "h1": {
        "en": "Richardson International Limited Fined $50,000 for an Offence Under the Plant Protection Regulations",
        "fr": "Richardson International Limited se voit imposer une amende de 50 000 $ pour avoir enfreint le R\u00e8glement sur protection des v\u00e9g\u00e9taux"
    },
    "body": {
        "en": "        \r\n        \n<section id=\"archived\" class=\"alert alert-warning wb-inview\" data-inview=\"archived-bnr\">\n<h2>This page has been archived</h2>\n<p>Information identified as archived is provided for reference, research or record-keeping purposes. It is not subject to the Government of Canada Web Standards and has not been altered or updated since it was archived. Please contact us to request a format other than those available.</p>\n</section>\n\n<section id=\"archived-bnr\" class=\"wb-overlay modal-content overlay-def wb-bar-t\">\n<header>\n<h2 class=\"wb-inv\">Archived</h2>\n</header>\n<p><a href=\"#archived\">This page has been archived.</a></p>\n</section>\n\n<p>November 28, 2016, Ottawa: On October 5, 2016, at the Provincial Court in Winnipeg, Manitoba, Richardson International Limited entered a guilty plea to one count of contravening subsection 55(2) of the <i>Plant Protection Regulations</i> and was ordered to pay a fine of $50,000. A stay of proceedings was entered on remaining charges.</p>\n\n<p>Subsection 55(2) of the <i>Plant Protection Regulations</i> indicates that no person shall export from Canada any thing for which a Canadian Phytosanitary Certificate, Canadian Phytosanitary Certificate for Re-export or any other document is required by the phytosanitary certification authorities in the country of final destination, unless the appropriate document is issued by an inspector.</p>\n\n<p>The <abbr title=\"Canadian Food Inspection Agency\">CFIA</abbr>'s investigation determined that, between May 21, 2009 and November 9, 2010, Richardson International Limited exported 67,666 metric tonnes of <abbr title=\"number\">No.</abbr> 2 Canada Yellow soybeans to the Russian Federation without Canadian Phytosanitary Certification.</p>\n\n<p>The <abbr title=\"Canadian Food Inspection Agency\">CFIA</abbr> is responsible for the administration and enforcement of federal legislation, acts and regulations, including the <i>Plant Protection Act</i> and <i>Regulations</i>. The <abbr title=\"Canadian Food Inspection Agency\">CFIA</abbr> is dedicated to safeguarding food, animal, and plant health, which enhances the health and well-being of Canada's people, environment, and economy.</p>\n\n<h2>Media Inquiries:</h2>\n\n<p><abbr title=\"Canadian Food Inspection Agency\">CFIA</abbr> Media Relations<br> 613-773-6600</p>\r\n\r\n\r\n\r\n\r\n<div class=\"row\">\r\n \r\n\t\r\n\t\t\t\r\n\r\n<div class=\"col-xm-12 pagedetails container\">\r\n\t\t\t\t\r\n\r\n</div>\r\n\t\r\n</div>",
        "fr": "\r\n        \r\n        \n<section id=\"archived\" class=\"alert alert-warning wb-inview\" data-inview=\"archived-bnr\">\n<h2>Cette page a \u00e9t\u00e9 archiv\u00e9e</h2>\n<p>L'information dont il est indiqu\u00e9 qu'elle est archiv\u00e9e est fournie \u00e0 des fins de r\u00e9f\u00e9rence, de recherche ou de tenue de documents. Elle n'est pas assujettie aux normes Web du gouvernement du Canada et elle n'a pas \u00e9t\u00e9 modifi\u00e9e ou mise \u00e0 jour depuis son archivage. Pour obtenir cette information dans un autre format, veuillez communiquer avec nous.</p>\n</section>\n\n<section id=\"archived-bnr\" class=\"wb-overlay modal-content overlay-def wb-bar-t\">\n<header>\n<h2 class=\"wb-inv\">Archiv\u00e9e</h2>\n</header>\n<p><a href=\"#archived\">Cette page a \u00e9t\u00e9 archiv\u00e9e.</a></p>\n</section>\n\n<p>Le 28 novembre 2016, Ottawa : Le 5 octobre 2016, \u00e0 la cour provinciale du Manitoba \u00e0 <span lang=\"en\">Winnipeg, Richardson International Limited</span> a plaid\u00e9 coupable au chef d'accusation d'avoir enfreint le paragraphe 55(2) du <i>R\u00e8glement sur la protection des v\u00e9g\u00e9taux</i> et a \u00e9t\u00e9 condamn\u00e9e \u00e0 payer une amende de <span class=\"nowrap\">50 000 $.</span> Les proc\u00e9dures ont \u00e9t\u00e9 suspendues pour les autres accusations.</p>\n\n<p>Le paragraphe 55(2) du <i>R\u00e8glement sur la protection des v\u00e9g\u00e9taux</i> stipule que nul ne peut exporter du Canada une chose pour laquelle un certificat phytosanitaire canadien, un certificat phytosanitaire canadien pour r\u00e9exportation ou tout autre document est exig\u00e9 par les autorit\u00e9s responsables de la certification phytosanitaire dans le pays de destination finale, \u00e0 moins que le document appropri\u00e9 ne soit d\u00e9livr\u00e9 par l'inspecteur.</p>\n\n<p>L'enqu\u00eate de l'Agence canadienne d'inspection des aliments (ACIA) a r\u00e9v\u00e9l\u00e9 qu'entre le 21 mai 2009 et le 9 novembre 2010, <span lang=\"en\">Richardson International Limited</span> a export\u00e9 <span class=\"nowrap\">67 666</span> tonnes m\u00e9triques de soja jaune Canada <abbr title=\"num\u00e9ro\">n<sup>o</sup></abbr> 2 vers la F\u00e9d\u00e9ration de Russie sans certificat phytosanitaire canadien.</p>\n\n<p>L'<abbr title=\"Agence canadienne d'inspection des aliments\">ACIA</abbr> est responsable de l'administration et de l'application des lois et des r\u00e8glements du gouvernement f\u00e9d\u00e9ral, notamment la <i>Loi sur la protection des v\u00e9g\u00e9taux</i> et le <i>R\u00e8glement sur la protection des v\u00e9g\u00e9taux</i>. Elle a pour mandat d'assurer la salubrit\u00e9 des aliments, de pr\u00e9server la sant\u00e9 des animaux et de prot\u00e9ger les v\u00e9g\u00e9taux, afin de contribuer \u00e0 la sant\u00e9 et au bien-\u00eatre de la population canadienne, de prot\u00e9ger l'environnement et d'assurer la viabilit\u00e9 de l'\u00e9conomie.</p>\n\n<h2>Demandes des m\u00e9dias\u00a0:</h2>\n\n<p>Relations avec les m\u00e9dias de l'<abbr title=\"Agence canadienne d'inspection des aliments\">ACIA</abbr><br> \n</p>\r\n\r\n\r\n<div class=\"row\">\r\n \r\n\t\t\t\r\n\t\t\t\r\n\r\n\t\t\r\n\t\r\n</div>"
    },
    "js": {
        "en": "",
        "fr": ""
    },
    "success": true,
    "chat_wizard": false
}