{
    "dcr_id": "1602523235303",
    "lang": "en",
    "type_name": "empl-empl",
    "staffadvisor": "amanda.dent@canada.ca",
    "submitername": "Nadia Gagnon",
    "submiteremail": "nadia.gagnon@canada.ca",
    "contactname": "Nada Mroue",
    "contactemail": "nada.mroue@canada.ca",
    "contactphonenumber": "613-371-8792",
    "issued": "2020-10-26"
}