{
    "dcr_id": "1515189100572",
    "lang": "en",
    "type_name": "empl-empl",
    "staffadvisor": "amanda.chaiban@agr.gc.ca",
    "submitername": "Amy Harrison",
    "submiteremail": "amy.harrison@agr.gc.ca",
    "contactname": "Amy Harrison",
    "contactemail": "amy.harrison@agr.gc.ca",
    "contactphonenumber": "613-773-1783",
    "issued": "2018-01-08"
}