{
    "dcr_id": "1517235413559",
    "lang": "en",
    "type_name": "empl-empl",
    "staffadvisor": "laura.corkum@canada.ca",
    "submitername": "Corinne Raymond",
    "submiteremail": "corinne.raymond@canada.ca",
    "contactname": "Corinne Raymond",
    "contactemail": "corinne.raymond@canada.ca",
    "contactphonenumber": "613-759-6007",
    "issued": "2018-01-31"
}