{
    "dcr_id": "1526391893932",
    "lang": "en",
    "type_name": "empl-empl",
    "staffadvisor": "laura.corkum@canada.ca",
    "submitername": "Michael Boulet",
    "submiteremail": "michael.boulet@agr.gc.ca",
    "contactname": "Michael Boulet",
    "contactemail": "michael.boulet@agr.gc.ca",
    "contactphonenumber": "613-773-0578",
    "issued": "2018-05-15"
}