{
    "dcr_id": "1539114688809",
    "lang": "en",
    "type_name": "empl-empl",
    "staffadvisor": "patrycja.henderson@canada.ca",
    "submitername": "Miriam Wood",
    "submiteremail": "miriam.wood@canada.ca",
    "contactname": "Nathalie Parent",
    "contactemail": "nathalie.parent@canada.ca",
    "contactphonenumber": "613-773-2068",
    "issued": "2018-10-12"
}