{
    "dcr_id": "1544465942666",
    "lang": "en",
    "type_name": "empl-empl",
    "staffadvisor": "christiane.langisboudreau@canada.ca",
    "submitername": "Amrane Boumghar",
    "submiteremail": "amrane.boumghar@canada.ca",
    "contactname": "Amrane Boumghar",
    "contactemail": "amrane.boumghar@canada.ca",
    "contactphonenumber": "613-773-0337",
    "issued": "2019-01-02"
}