{
    "dcr_id": "1548789472019",
    "lang": "en",
    "type_name": "empl-empl",
    "staffadvisor": "amanda.dent@canada.ca",
    "submitername": "Eric Martin",
    "submiteremail": "eric.martin2@canada.ca",
    "contactname": "Eric Martin",
    "contactemail": "eric.martin2@canada.ca",
    "contactphonenumber": "613-773-0622",
    "issued": "2019-01-30"
}