{
    "dcr_id": "1551212396600",
    "lang": "en",
    "type_name": "empl-empl",
    "staffadvisor": "amanda.dent@canada.ca",
    "submitername": "Changhua Wu",
    "submiteremail": "changhua.wu@canada.ca",
    "contactname": "Changhua Wu",
    "contactemail": "changhua.wu@canada.ca",
    "contactphonenumber": "613-715-5171",
    "issued": "2019-02-28"
}