{
    "dcr_id": "1556737419337",
    "lang": "en",
    "type_name": "empl-empl",
    "staffadvisor": "mardi.pleskach@canada.ca",
    "submitername": "Suzie Da Costa",
    "submiteremail": "suzie.dacosta@canada.ca",
    "contactname": "Suzie Da Costa",
    "contactemail": "suzie.dacosta@canada.ca",
    "contactphonenumber": "613-773-2136",
    "issued": "2019-05-03"
}