{
    "dcr_id": "1564683325439",
    "lang": "en",
    "type_name": "empl-empl",
    "staffadvisor": "alicia.legere@canada.ca",
    "submitername": "Anik Boivin",
    "submiteremail": "anik.boivin@canada.ca",
    "contactname": "Anik Boivin",
    "contactemail": "anik.boivin@canada.ca",
    "contactphonenumber": "450-768-9679",
    "issued": "2019-08-09"
}