{
    "dcr_id": "1569269266856",
    "lang": "en",
    "type_name": "empl-empl",
    "staffadvisor": "michelle.lavergne@canada.ca",
    "submitername": "Alessandro Longo",
    "submiteremail": "alessandro.longo@canada.ca",
    "contactname": "Rosalind Tanguay",
    "contactemail": "rosalind.tanguay@canada.ca",
    "contactphonenumber": "613-773-2824",
    "issued": "2019-09-24"
}