{
    "dcr_id": "1576093400962",
    "lang": "en",
    "type_name": "empl-empl",
    "staffadvisor": "yasna.sawar@canada.ca",
    "submitername": "Pascal Tanguay",
    "submiteremail": "pascal.tanguay@canada.ca",
    "contactname": "Ashley Lemieux",
    "contactemail": "ashley.lemieux@canada.ca",
    "contactphonenumber": "613-773-1899",
    "issued": "2019-12-12"
}