{
    "dcr_id": "1577112523251",
    "lang": "en",
    "type_name": "empl-empl",
    "staffadvisor": "adriana.azzi3@canada.ca",
    "submitername": "Nancy Hum",
    "submiteremail": "nancy.hum@canada.ca",
    "contactname": "Nancy Hum",
    "contactemail": "nancy.hum@canada.ca",
    "contactphonenumber": "613-773-5744",
    "issued": "2020-01-03"
}