{
    "dcr_id": "1582226288091",
    "lang": "en",
    "type_name": "empl-empl",
    "staffadvisor": "test.test@agr.gc.ca",
    "submitername": "test",
    "submiteremail": "test.test@agr.gc.ca",
    "contactname": "test",
    "contactemail": "test.test@agr.gc.ca",
    "contactphonenumber": "613-251-8888",
    "issued": "2020-02-21"
}