{
    "dcr_id": "1590784864228",
    "lang": "en",
    "type_name": "empl-empl",
    "staffadvisor": "alicia.couture@canada.ca",
    "submitername": "Kathryn Jarrett",
    "submiteremail": "kathryn.jarrett@canada.ca",
    "contactname": "Kathryn Jarrett",
    "contactemail": "kathryn.jarrett@canada.ca",
    "contactphonenumber": "613-773-0636",
    "issued": "2020-06-15"
}