{
    "dcr_id": "1593526025927",
    "lang": "en",
    "type_name": "empl-empl",
    "staffadvisor": "genevieve.lacroix4@canada.ca",
    "submitername": "Nathalie Potvin",
    "submiteremail": "nathalie.potvin2@canada.ca",
    "contactname": "Nathalie Potvin",
    "contactemail": "nathalie.potvin2@canada.ca",
    "contactphonenumber": "343-543-2488",
    "issued": "2020-07-02"
}