{
    "dcr_id": "1594924407683",
    "lang": "en",
    "type_name": "empl-empl",
    "staffadvisor": "abc.testing@canada.ca",
    "submitername": "Just testing",
    "submiteremail": "testing.ignore@canada.ca",
    "contactname": "Just testing",
    "contactemail": "testing.ignore@canada.ca",
    "contactphonenumber": "613-773-0000",
    "issued": "2020-07-16"
}