{
    "dcr_id": "1600270432790",
    "lang": "en",
    "type_name": "empl-empl",
    "staffadvisor": "michelle.lavergne@canada.ca",
    "submitername": "Tania Gardner",
    "submiteremail": "aafc.fcd-dcf.aac@canada.ca",
    "contactname": "Tania Gardner",
    "contactemail": "tania.gardner2@canada.ca",
    "contactphonenumber": "613-291-1190",
    "issued": "2020-09-21"
}