{
    "dcr_id": "1346096119728",
    "title": {
        "en": "Trembling Aspen",
        "fr": "Peuplier faux-tremble"
    },
    "modified": "2020-08-04",
    "issued": "2012-10-30",
    "templatetype": "content page 1 column",
    "page_type": "0",
    "node_id": "1369771907468",
    "dc_date_created": "2012-10-30",
    "managing_branch": "PAB",
    "parent_node_id": "",
    "label": {
        "en": "Trembling Aspen",
        "fr": "Peuplier faux-tremble"
    },
    "exturl": "",
    "teamsite_location": {
        "en": "/default/main/AAFC-AAC/Internet-Internet/Common-Commun/WORKAREA/Common-Commun/templatedata/comm-comm/gene-gene/data/08/agrofor_traspen_1346096119728_en",
        "fr": "/default/main/AAFC-AAC/Internet-Internet/Common-Commun/WORKAREA/Common-Commun/templatedata/comm-comm/gene-gene/data/08/agrofor_traspen_1346096119728_fr"
    },
    "type_name": "comm-comm/gene-gene",
    "has_dcr_id": true,
    "breadcrumb": {
        "en": "Trembling Aspen",
        "fr": "Peuplier faux-tremble"
    },
    "layout_name": "content page 1 column",
    "lang": "en"
}