{
    "has_dcr_id": true,
    "node_id": "1354137773739",
    "parent_node_id": "1354137773725",
    "dcr_id": "1177431400694",
    "landingPageUrl": {
        "en": "1177431400694",
        "fr": "1177431400694"
    },
    "parent_dcr_id": "1360876327795",
    "breadcrumb": {
        "en": "Agroforestry",
        "fr": "Agroforestry"
    },
    "node_title": {
        "en": "Agroforestry",
        "fr": "Agroforestry"
    },
    "title": {
        "en": "Agroforestry",
        "fr": "Agroforestry"
    },
    "type": "Help",
    "meta": {
        "issued": {
            "en": "2008-12-15",
            "fr": "2008-12-15"
        },
        "modified": {
            "en": "2020-01-23",
            "fr": "2020-01-23"
        },
        "format": {
            "en": "text/html",
            "fr": "text/html"
        },
        "title": {
            "en": "Agroforestry",
            "fr": "Agroforesterie"
        },
        "subject": {
            "en": "land management",
            "fr": "gestion des terres"
        },
        "description": {
            "en": "Agroforestry is an integrated and intensive agricultural production system that includes trees and shrubs as an essential component to achieve environmental, economic and social goals. This means that trees are not incidental to the farm operation but rather contribute to improved productivity, yield, profitability and sustainability.",
            "fr": "L'agroforesterie est un mode de production agricole int\u00e9gr\u00e9 et intensif dans lequel arbres et arbustes jouent un r\u00f4le essentiel pour atteindre des objectifs environnementaux, \u00e9conomiques et sociaux. Les arbres, dans ce cas, ne sont pas des \u00e9l\u00e9ments accessoires de l'exploitation agricole, mais contribuent plut\u00f4t \u00e0 en am\u00e9liorer la productivit\u00e9, le rendement, la rentabilit\u00e9 et la viabilit\u00e9."
        },
        "language": {
            "en": "eng",
            "fr": "fra"
        },
        "keywords": {
            "en": " PFRA.; Silvopasture; Riparian Buffers; Forest Farming; Alley Cropping; high-value timber; trees;Agroforestry",
            "fr": " brise-vent; L'am\u00e9nagement sylvopastoral; Les zones tampons riveraines; la culture foresti\u00e8re; cultures entre bandes bois\u00e9es; bois d'oeuvre pris\u00e9; arbres;Agroforesterie"
        },
        "audience": {
            "en": "general public",
            "fr": "grand public"
        },
        "type": {
            "en": "administrative page",
            "fr": "page administrative"
        },
        "creator": {
            "en": "Communications and Consultations Branch;Agriculture and Agri-Food Canada;Government of Canada",
            "fr": "Direction g\u00e9n\u00e9rale des communications et des consultations;Agriculture et Agroalimentaire Canada;Gouvernement du Canada"
        },
        "spatial": {
            "en": "gcregions",
            "fr": "gcregions"
        },
        "service": {
            "en": "AAFC-AAC",
            "fr": "AAFC-AAC"
        },
        "accessRights": {
            "en": "2",
            "fr": "2"
        },
        "legalName": {
            "en": "agriculture_and_agri_food_canada",
            "fr": "agriculture_et_agroalimentaire_canada"
        },
        "areaServed": {
            "en": "Canada",
            "fr": "Canada"
        }
    },
    "body": {
        "en": "tart --&gt;\r\n    <!-- D&eacute;but du contenu -->\r\n    <h1>Agroforestry</h1><noscript>\n<div class=\"row profile\">\n<div class=\"col-md-6\">\n     \n        <p>Benefits of growing trees or shrubs in fields and establishing wind breaks.</p>\n\n\n <!-- START Social Buttons -->\n<div class=\"pull-left\">\n<section class=\"followus mrgn-tp-0\"> \n   <h2>Follow:</h2> \n   <ul> \n    <li><a href=\"https://www.facebook.com/CanadianAgriculture/\" class=\"facebook gl-follow\" rel=\"external\"> <span class=\"wb-inv\">Facebook</span></a></li> \n    <li><a href=\"https://twitter.com/AAFC_Canada\" class=\"twitter gl-follow\" rel=\"external\"> <span class=\"wb-inv\">Twitter</span></a></li> \n    \n    <li><a href=\"https://www.linkedin.com/company/aafc-aac/?viewAsMember=true\" class=\"linkedin gl-follow\" rel=\"external\"><span class=\"wb-inv\">LinkedIn</span></a></li>    \n    \n    <li><a href=\"https://www.youtube.com/user/AgricultureCanadaEng\" class=\"youtube gl-follow\" rel=\"external\"><span class=\"wb-inv\">YouTube</span></a></li> \n   </ul> \n  </section>\n</div>\n<!-- END Social Buttons -->\n</div>\n<div class=\"col-md-6 mrgn-tp-sm hidden-sm hidden-xs\">\n        <figure>\n<img src=\"https://www.agr.gc.ca/resources/prod/img/agroforestry_topic.jpg\" class=\"img-responsive\" alt=\"\"><br>\n</figure> \n</div></div></noscript>\n        \n\n<script src=\"https://ajax.googleapis.com/ajax/libs/jquery/2.2.4/jquery.js\"></script>\n<script>\n$( document ).ready( function() {\nvar h1 = document.getElementsByTagName(\"h1\")[0];\nh1.parentNode.removeChild(h1);\ndocument.getElementsByTagName(\"main\")[0].innerHTML = \n'<div class=\"row profile\"><div class=\"col-md-6\"><h1>Agroforestry<p>Benefits of growing trees or shrubs in fields and establishing wind breaks. <!-- START Social Buttons --> <div class=\"pull-left\"> <section class=\"followus mrgn-tp-0\"> <h2>Follow: <ul> <li><a href=\"https://www.facebook.com/CanadianAgriculture/\" class=\"facebook gl-follow\" rel=\"external\"> <span class=\"wb-inv\">Facebook <li><a href=\"https://twitter.com/AAFC_Canada\" class=\"twitter gl-follow\" rel=\"external\"> <span class=\"wb-inv\">Twitter <li><a href=\"https://www.linkedin.com/company/aafc-aac/?viewAsMember=true\" class=\"linkedin gl-follow\" rel=\"external\"><span class=\"wb-inv\">LinkedIn <li><a href=\"https://www.youtube.com/user/AgricultureCanadaEng\" class=\"youtube gl-follow\" rel=\"external\"><span class=\"wb-inv\">YouTube  <!-- END Social Buttons --> <div class=\"col-md-6 mrgn-tp-sm hidden-sm hidden-xs\"><figure> <img src=\"https://www.agr.gc.ca/resources/prod/img/agroforestry_topic.jpg\" class=\"pull-right img-responsive thumbnail\" alt=\"\"/><br/>'\n+ document.getElementsByTagName(\"main\")[0].innerHTML;\n})\n</script>\n\n\n\n\n<div class=\"clearfix\"></div>\n\n\n<div class=\"row\">\n\n\n<section class=\"col-md-8 col-xs-12 pull-left\">\n\n<div class=\"wb-eqht row wb-init wb-eqht-inited\" id=\"wb-auto-1\">\n\n<h2 class=\"col-md-6 nowrap\">Services and information</h2>\n\n<div class=\"clearfix\"></div>\n\n<section class=\"col-md-6\">\n<h3 class=\"h5\"><a href=\"?id=1344633257343\">Benefits of agroforestry</a></h3>\n<p>Agroforestry increases crop yields and biodiversity, prevents soil erosion and reduces heating costs</p>\n</section>\n\n<section class=\"col-md-6\">\n<h3 class=\"h5\"><a href=\"?id=1344636433852\">Shelterbelt planning and establishment</a></h3>\n<p>Choose trees species and their location for your shelterbelt</p>\n</section>\n\n<div class=\"clearfix\"></div>\n\n<section class=\"col-md-6\">\n<h3 class=\"h5\"><a href=\"?id=1344636944375\">Growth and maintenance of trees</a></h3>\n<p>Plant and maintain a shelterbelt, control weeds and grow trees, shrubs</p>\n</section>\n\n\n<section class=\"col-md-6\">\n<h3 class=\"h5\"><a href=\"?id=1344636727377\">Agroforestry diseases and  pests</a></h3>\n<p>Identify and control diseases and pests found in Canadian prairies</p>\n</section>\n\n\n</div>\n</section>\n\n<div class=\"pull-right col-xs-12 col-md-4\">\n<section class=\"lnkbx\">\n<h2>Contributors</h2>\n<ul>\n    <li><a href=\"?id=1395690825741\">Agriculture and Agri-Food Canada</a></li>\n</ul>\n</section>\n\n</div>\n</div>\n\n<div class=\"clearfix\"></div>\n\r\n    <!-- Fin du contenu -->\r\n  \r\n  <div class=\"pagedetails\" id=\"pgft\">\r\n    <div class=\"row\">\r\n\t  <div class=\"col-sm-6 col-md-5 col-lg-4\">\r\n\t    <details class=\"brdr-0\">\r\n\t\t<summary class=\"btn btn-default text-center\" onclick=\"getAntiSpamSeq('/eng/mail-handler/?anti-spam-sequence=true')\">Report a problem on this page</summary>\r\n\t\t<div class=\"clearfix\"></div>\r\n\t\t<div class=\"well row\">\r\n\t\t<div>\r\n\t\t  <div class=\"gc-rprt-prblm\">\r\n\t\t    <div class=\"gc-rprt-prblm-frm gc-rprt-prblm-tggl\">\r\n\t\t\t  \r\n\t\t\t<form id=\"report_a_problem_form\" action=\"/eng/mail-handler/#report_a_problem_form\" method=\"post\">\t\t\t\t   \t\t\t\r\n\r\n\t            \t <input type=\"hidden\" name=\"lang\" value=\"eng\">\r\n\t            \t <input type=\"hidden\" name=\"pageId\" value=\"1177431400694\">\r\n\t            \t <input type=\"hidden\" name=\"pageUrl\" value=\"http://agr.gc.ca/eng/agriculture-and-the-environment/agricultural-practices/agroforestry/?id=1177431400694\">\r\n\t\t\t\t\t <div id=\"report_a_problem_form_error\"></div>\r\n\t\t             <fieldset>\t\t\t\t\t    \r\n\t\t                <legend><span class=\"field-name\">Please select all that apply:</span></legend>\t\t                                 \r\n\t\t\t\t\t\t<div class=\"checkbox\">\r\n\t\t\t\t\t\t\t<label for=\"problem1\"><input name=\"problem1\" id=\"problem1\" type=\"checkbox\" value=\"Yes\">A link, button or video is not working</label>\r\n\t\t\t\t\t\t\t<input name=\"problem1\" type=\"hidden\" value=\"No\">\r\n\t\t\t\t\t\t</div>\r\n\t\t\t\t\t\t<div class=\"checkbox\">\r\n\t\t\t\t\t\t\t<label for=\"problem2\"><input name=\"problem2\" id=\"problem2\" type=\"checkbox\" value=\"Yes\">It has a spelling mistake</label>\r\n\t\t\t\t\t\t\t<input name=\"problem2\" type=\"hidden\" value=\"No\">\r\n\t\t\t\t\t\t</div>\r\n\t\t\t\t\t\t<div class=\"checkbox\">\r\n\t\t\t\t\t\t\t<label for=\"problem3\"><input name=\"problem3\" id=\"problem3\" type=\"checkbox\" value=\"Yes\">Information is missing</label>\r\n\t\t\t\t\t\t\t<input name=\"problem3\" type=\"hidden\" value=\"No\">\r\n\t\t\t\t\t   </div>\r\n\t\t\t\t\t\t<div class=\"checkbox\">\r\n\t\t\t\t\t\t\t<label for=\"problem4\"><input name=\"problem4\" id=\"problem4\" type=\"checkbox\" value=\"Yes\">Information is outdated or wrong</label>\r\n\t\t\t\t\t\t\t<input name=\"problem4\" type=\"hidden\" value=\"No\">\r\n\t\t\t\t\t\t</div>\r\n\t\t\t\t\t\t<div class=\"checkbox\">\r\n\t\t\t\t\t\t\t<label for=\"problem5\"><input name=\"problem5\" id=\"problem5\" type=\"checkbox\" value=\"Yes\">Login error when trying to access an account (e.g. My Service Canada Account)</label>\r\n\t\t\t\t\t\t\t<input name=\"problem5\" type=\"hidden\" value=\"No\">\r\n\t\t\t\t\t\t</div>\r\n\t\t\t\t\t\t\t<ul>\r\n\t\t\t\t\t\t\t<li class=\"checkbox\">\r\n\t\t\t\t\t\t\t\t<label for=\"problem6a\"><input name=\"problem6\" id=\"problem6a\" type=\"checkbox\" value=\"Yes\">GC Key access</label>\r\n\t\t\t\t\t\t\t\t<input name=\"problem6\" type=\"hidden\" value=\"No\">\r\n\t\t\t\t\t\t\t </li>\r\n\t\t\t\t\t\t\t<li class=\"checkbox\">\r\n\t\t\t\t\t\t\t\t<label for=\"problem7\"><input name=\"problem7\" id=\"problem7\" type=\"checkbox\" value=\"Yes\">SecureKey Concierge (Banking Credential) access </label>\r\n\t\t\t\t\t\t\t\t<input name=\"problem7\" type=\"hidden\" value=\"No\">\r\n\t\t\t\t\t\t\t </li>\r\n\t\t\t\t\t\t\t<li class=\"checkbox\">\r\n\t\t\t\t\t\t\t\t<label for=\"problem8\"><input name=\"problem8\" id=\"problem8\" type=\"checkbox\" value=\"Yes\">Personal Access Code (PAC) problems or EI Access Code (AC) problems</label>\r\n\t\t\t\t\t\t\t\t<input name=\"problem8\" type=\"hidden\" value=\"No\">\r\n\t\t\t\t\t\t\t </li>\t\r\n\t\t\t\t\t\t\t<li class=\"checkbox\">\r\n\t\t\t\t\t\t\t\t<label for=\"problem9\"><input name=\"problem9\" id=\"problem9\" type=\"checkbox\" value=\"Yes\">Social Insurance Number (SIN) validation problems</label>\r\n\t\t\t\t\t\t\t\t<input name=\"problem9\" type=\"hidden\" value=\"No\">\r\n\t\t\t\t\t\t\t </li>\t\t\t\t\t\t\t\t\r\n\t\t\t\t\t\t\t<li class=\"checkbox\">\r\n\t\t\t\t\t\t\t\t<label for=\"problem10\"><input name=\"problem10\" id=\"problem10\" type=\"checkbox\" value=\"Yes\">Other login error not in this list</label>\r\n\t\t\t\t\t\t\t\t<input name=\"problem10\" type=\"hidden\" value=\"No\">\r\n\t\t\t\t\t\t\t </li>\t\t \r\n\t\t\t\t\t\t\t </ul>\r\n\t\t\t\t\t\t<div class=\"checkbox\">\r\n\t\t\t\t\t\t\t<label for=\"problem11\"><input name=\"problem11\" id=\"problem11\" type=\"checkbox\" value=\"Yes\">I can't find what I'm looking for</label>\r\n\t\t\t\t\t\t\t<input name=\"problem11\" type=\"hidden\" value=\"No\">\r\n\t\t\t\t\t\t</div>\r\n\t\t\t\t\t\t<div class=\"checkbox\">\r\n\t\t\t\t\t\t\t<label for=\"problem12\"><input name=\"problem12\" id=\"problem12\" type=\"checkbox\" value=\"Yes\">Other issue not in this list</label>\r\n\t\t\t\t\t\t\t<input name=\"problem12\" type=\"hidden\" value=\"No\">\r\n\t\t\t\t\t\t</div>\t\t\t\t\t\t \t\t\t\t\t\t\t\t\t\t\t\t \r\n\t\t             </fieldset>\r\n\t\t\t\t\t <div>\r\n\t\t\t\t\t   <label for=\"aafc_ranstr\"><span id=\"fbch\"><br>Enter these characters <strong class=\"required\">(required)</strong>: </span><span id=\"ranstr\">U5S</span></label>\r\n\t\t\t           <input name=\"anti-spam-sequence\" id=\"aafc_ranstr\" size=\"4\" maxlength=\"3\" type=\"text\">\r\n\t\t\t\t\t </div>\t\r\n\r\n\t\t\t\t\t <br><input type=\"submit\" class=\"btn btn-primary\" value=\"Submit\">\r\n\t\t\t\t  </form>\r\n\t\t\t\t</div>\r\n\t\t\t</div>\t\t\t\r\n\t\t  </div>\r\n\t\t</div>\r\n\t\t</details>\r\n\t  </div>\r\n\t  <div class=\"wb-share col-sm-4 col-md-3 col-sm-offset-2 col-md-offset-4 col-lg-offset-5\" data-wb-share='{\"lnkClass\": \"btn btn-default btn-block\"}'></div>\r\n\t</div>\r\n\t<dl id=\"wb-dtmd\">\r\n\t  <dt>Date modified: </dt>\r\n\t  <dd><time property=\"dateModified\">2020-01-23</time></dd></dl></div>",
        "fr": "tStart --&gt;\r\n    <!-- D&eacute;but du contenu -->\r\n    <h1>Agroforesterie</h1><noscript>\n<div class=\"row profile\">\n<div class=\"col-md-6\">\n     \n        <p>Avantages li\u00e9s \u00e0 la culture des arbres ou arbustes dans les champs et \u00e0 l\u2019\u00e9tablissement de brise-vent.</p>\n\n\n<!-- START Social Buttons -->\n<div class=\"pull-left\">\n<section class=\"followus mrgn-tp-0\"> \n <h2>Suivez\u00a0:</h2> \n <ul> \n    <li><a href=\"https://www.facebook.com/AgricultureCanadienne\" class=\"facebook gl-follow\" rel=\"external\"> <span class=\"wb-inv\">Facebook</span></a></li> \n    <li><a href=\"https://twitter.com/AAC_Canada\" class=\"twitter gl-follow\" rel=\"external\"> <span class=\"wb-inv\">Twitter</span></a></li> \n    \n    <li><a href=\"https://www.linkedin.com/company/aafc-aac/?viewAsMember=true\" class=\"linkedin gl-follow\" rel=\"external\"><span class=\"wb-inv\">LinkedIn</span></a></li>\n    \n    <li><a href=\"https://www.youtube.com/user/AgricultureCanadaFra\" class=\"youtube gl-follow\" rel=\"external\"><span class=\"wb-inv\">YouTube</span></a></li> \n </ul> \n  </section> \n  </div>\n<!-- END Social Buttons -->    \n</div>\n<div class=\"col-md-6 mrgn-tp-sm hidden-sm hidden-xs\">\n        <figure>\n<img src=\"https://www.agr.gc.ca/resources/prod/img/agroforestry_topic.jpg\" class=\"img-responsive\" alt=\"\"><br>\n</figure> \n</div></div></noscript>\n        \n\n<script src=\"https://ajax.googleapis.com/ajax/libs/jquery/2.2.4/jquery.js\"></script>\n<script>\n$( document ).ready( function() {\nvar h1 = document.getElementsByTagName(\"h1\")[0];\nh1.parentNode.removeChild(h1);\ndocument.getElementsByTagName(\"main\")[0].innerHTML = \n'<div class=\"row profile\"><div class=\"col-md-6\"><h1>Agroforesterie<p>Avantages li&eacute;s &agrave; la culture des arbres ou arbustes dans les champs et &agrave; l&rsquo;&eacute;tablissement de brise-vent. <!-- START Social Buttons --> <div class=\"pull-left\"> <section class=\"followus mrgn-tp-0\"> <h2>Suivez&nbsp;: <ul> <li><a href=\"https://www.facebook.com/AgricultureCanadienne\" class=\"facebook gl-follow\" rel=\"external\"> <span class=\"wb-inv\">Facebook <li><a href=\"https://twitter.com/AAC_Canada\" class=\"twitter gl-follow\" rel=\"external\"> <span class=\"wb-inv\">Twitter <li><a href=\"https://www.linkedin.com/company/aafc-aac/?viewAsMember=true\" class=\"linkedin gl-follow\" rel=\"external\"><span class=\"wb-inv\">LinkedIn <li><a href=\"https://www.youtube.com/user/AgricultureCanadaFra\" class=\"youtube gl-follow\" rel=\"external\"><span class=\"wb-inv\">YouTube    <!-- END Social Buttons -->  <div class=\"col-md-6 mrgn-tp-sm hidden-sm hidden-xs\"> <figure> <img src=\"https://www.agr.gc.ca/resources/prod/img/agroforestry_topic.jpg\" class=\"pull-right img-responsive thumbnail\" alt=\"\"/><br/>  '\n+ document.getElementsByTagName(\"main\")[0].innerHTML;\n})\n</script>\n\n\n\n\n<div class=\"clearfix\"></div>\n\n\n<div class=\"row\">\n\n\n<section class=\"col-md-8 col-xs-12 pull-left\">\n\n<div class=\"wb-eqht row wb-init wb-eqht-inited\" id=\"wb-auto-1\">\n\n<h2 class=\"col-md-6 nowrap\">Services et renseignements</h2>\n\n<div class=\"clearfix\"></div>\n\n<section class=\"col-md-6\">\n<h3 class=\"h5\"><a href=\"?id=1344633257343\">Les avantages de l'agroforesterie</a></h3>\n<p>Rendement des cultures et biodiversit\u00e9 accrus, \u00e9rosion limit\u00e9e et frais de chauffage r\u00e9duits gr\u00e2ce \u00e0 l\u2019agroforesterie</p>\n</section>\n\n<section class=\"col-md-6\">\n<h3 class=\"h5\"><a href=\"?id=1344636433852\">Planification et \u00e9tablissement des brise-vent</a></h3>\n<p>Choisissez les essences d'arbres et leur emplacement pour votre brise-vent</p>\n</section>\n\n<div class=\"clearfix\"></div>\n\n<section class=\"col-md-6\">\n<h3 class=\"h5\"><a href=\"?id=1344636944375\">Croissance et entretien des arbres</a></h3>\n<p>Planter et entretenir un brise-vent, lutter contre les mauvaises herbes, faire pousser des arbres et arbustes</p>\n</section>\n\n\n<section class=\"col-md-6\">\n<h3 class=\"h5\"><a href=\"?id=1344636727377\">Maladies et ravageurs en agroforesterie</a></h3>\n<p>Identifiez et contr\u00f4lez les maladies et les ravageurs des prairies canadiennes</p>\n</section>\n\n\n</div>\n</section>\n\n<div class=\"pull-right col-xs-12 col-md-4\">\n<section class=\"lnkbx\">\n<h2>Collaborateurs</h2>\n<ul>\n    <li><a href=\"?id=1395690825741\">Agriculture et Agroalimentaire Canada</a></li>\n</ul>\n</section>\n\n</div>\n</div>\n\n<div class=\"clearfix\"></div>\n\r\n    <!-- Fin du contenu -->\r\n\t\r\n\t<div class=\"pagedetails\" id=\"pgft\">\r\n\t\t<div class=\"row\">\r\n\t\t  <div class=\"col-sm-6 col-md-5 col-lg-4\">\r\n\t\t    <details class=\"brdr-0\">\r\n\t\t\t<summary class=\"btn btn-default text-center\" onclick=\"getAntiSpamSeq('/fra/mail-handler/?anti-spam-sequence=true')\">Signaler un probl\u00e8me sur cette page</summary>\r\n\t\t\t<div class=\"well row\">\r\n\t\t\t  <div class=\"gc-rprt-prblm\">\r\n\t\t\t    <div class=\"gc-rprt-prblm-frm gc-rprt-prblm-tggl\">\r\n\t\t\t\t   <form id=\"report_a_problem_form\" action=\"/fra/mail-handler/\" method=\"post\">\r\n\t            \t <input type=\"hidden\" name=\"lang\" value=\"fra\">\r\n\t            \t <input type=\"hidden\" name=\"pageId\" value=\"1177431400694\">\r\n\t            \t <input type=\"hidden\" name=\"pageUrl\" value=\"http://agr.gc.ca/fra/agriculture-et-environnement/pratiques-agricoles/agroforesterie/?id=1177431400694\">\r\n\t\t\t\t\t <div id=\"report_a_problem_form_error\"></div>\r\n\t\t             <fieldset>\t\t\t\t\t    \r\n\t\t                <legend><span class=\"field-name\">Veuillez cocher toutes les r\u00e9ponses pertinentes\u00a0:</span></legend>\r\n\t\t                 <div class=\"checkbox\">\r\n\t\t                    <label for=\"problem1\"><input name=\"problem1\" id=\"problem1\" type=\"checkbox\" value=\"Yes\">Un lien, un bouton ou une vid\u00e9o ne fonctionne pas</label>\r\n\t\t                    <input name=\"problem1\" type=\"hidden\" value=\"No\">\r\n\t\t                </div>\r\n\t\t                <div class=\"checkbox\">\r\n\t\t                    <label for=\"problem2\"><input name=\"problem2\" id=\"problem2\" type=\"checkbox\" value=\"Yes\">Il y a une erreur d'orthographe ou de grammaire</label>\r\n\t\t                    <input name=\"problem2\" type=\"hidden\" value=\"No\">\r\n\t\t                </div>\r\n\t\t   \t\t\t\t <div class=\"checkbox\">\r\n\t\t                    <label for=\"problem3\"><input name=\"problem3\" id=\"problem3\" type=\"checkbox\" value=\"Yes\">Les renseignements sont incomplets</label>\r\n\t\t                    <input name=\"problem3\" type=\"hidden\" value=\"No\">\r\n\t\t                </div>\r\n\t\t             \t\t<div class=\"checkbox\">\r\n\t\t                    <label for=\"problem4\"><input name=\"problem4\" id=\"problem4\" type=\"checkbox\" value=\"Yes\">L'information n'est plus \u00e0 jour ou est erron\u00e9e</label>\r\n\t\t                    <input name=\"problem4\" type=\"hidden\" value=\"No\">\r\n\t\t                </div>\t\t\t\t\t\t\r\n\t\t\t\t\t\t<div class=\"checkbox\">\r\n\t\t\t\t\t\t\t<label for=\"problem5\"><input name=\"problem5\" id=\"problem5\" type=\"checkbox\" value=\"Yes\">Message d'erreur \u00e0 l'ouverture de la session lorsque je tente d'acc\u00e9der \u00e0 un compte (ex. Mon dossier Service Canada)</label>\r\n\t\t\t\t\t\t\t<input name=\"problem5\" type=\"hidden\" value=\"No\">\r\n\t\t\t\t\t\t</div>\r\n\t\t\t\t\t\t\t<ul>\r\n\t\t\t\t\t\t\t<li class=\"checkbox\">\r\n\t\t\t\t\t\t\t\t<label for=\"problem6a\"><input name=\"problem6\" id=\"problem6a\" type=\"checkbox\" value=\"Yes\">Acc\u00e8s Cl\u00e9GC</label>\r\n\t\t\t\t\t\t\t\t<input name=\"problem6\" type=\"hidden\" value=\"No\">\r\n\t\t\t\t\t\t\t </li>\r\n\t\t\t\t\t\t\t<li class=\"checkbox\">\r\n\t\t\t\t\t\t\t\t<label for=\"problem7\"><input name=\"problem7\" id=\"problem7\" type=\"checkbox\" value=\"Yes\">Acc\u00e8s SecureKey Service de Concierge (justificatifs d'identit\u00e9 bancaires)</label>\r\n\t\t\t\t\t\t\t\t<input name=\"problem7\" type=\"hidden\" value=\"No\">\r\n\t\t\t\t\t\t\t </li>\r\n\t\t\t\t\t\t\t<li class=\"checkbox\">\r\n\t\t\t\t\t\t\t\t<label for=\"problem8\"><input name=\"problem8\" id=\"problem8\" type=\"checkbox\" value=\"Yes\">Probl\u00e8me avec le Code d'acc\u00e8s personnel (CAP) ou avec le Code d'acc\u00e8s (CA) de l'assurance emploi</label>\r\n\t\t\t\t\t\t\t\t<input name=\"problem8\" type=\"hidden\" value=\"No\">\r\n\t\t\t\t\t\t\t </li>\t\r\n\t\t\t\t\t\t\t<li class=\"checkbox\">\r\n\t\t\t\t\t\t\t\t<label for=\"problem9\"><input name=\"problem9\" id=\"problem9\" type=\"checkbox\" value=\"Yes\">Probl\u00e8me li\u00e9 \u00e0 la validation du num\u00e9ro d'assurance sociale (NAS)</label>\r\n\t\t\t\t\t\t\t\t<input name=\"problem9\" type=\"hidden\" value=\"No\">\r\n\t\t\t\t\t\t\t </li>\t\t\t\t\t\t\t\t\r\n\t\t\t\t\t\t\t<li class=\"checkbox\">\r\n\t\t\t\t\t\t\t\t<label for=\"problem10\"><input name=\"problem10\" id=\"problem10\" type=\"checkbox\" value=\"Yes\">Autre erreur lors de l'ouverture de session qui ne figure pas sur cette liste</label>\r\n\t\t\t\t\t\t\t\t<input name=\"problem10\" type=\"hidden\" value=\"No\">\r\n\t\t\t\t\t\t\t </li>\t\t \r\n\t\t\t\t\t\t\t </ul>\r\n\t\t\t\t\t\t<div class=\"checkbox\">\r\n\t\t\t\t\t\t\t<label for=\"problem11\"><input name=\"problem11\" id=\"problem11\" type=\"checkbox\" value=\"Yes\">Je n'arrive pas \u00e0 trouver ce que je cherche</label>\r\n\t\t\t\t\t\t\t<input name=\"problem11\" type=\"hidden\" value=\"No\">\r\n\t\t\t\t\t\t</div>\r\n\t\t\t\t\t\t<div class=\"checkbox\">\r\n\t\t\t\t\t\t\t<label for=\"problem12\"><input name=\"problem12\" id=\"problem12\" type=\"checkbox\" value=\"Yes\">Autre probl\u00e8me qui ne figure pas sur cette liste</label>\r\n\t\t\t\t\t\t\t<input name=\"problem12\" type=\"hidden\" value=\"No\">\r\n\t\t\t\t\t\t</div>\t\t\t\t\t\t\t\t\t\t\t\t\t\t\t\t\t\t\t\r\n\t\t             </fieldset>\r\n\t\t\t\t\t <div>\r\n\t\t\t\t        <label for=\"aafc_ranstr\"><span id=\"fbch\">Veuillez inscrire les caract\u00e8res suivants  <strong class=\"required\">(obligatoire)</strong>\u00a0: </span><span id=\"ranstr\">XXX</span></label>\r\n\t\t\t            <input name=\"anti-spam-sequence\" id=\"aafc_ranstr\" size=\"4\" maxlength=\"3\" type=\"text\">\r\n\t\t\t\t\t </div>\r\n\t\t\t\t\t <input type=\"submit\" class=\"btn btn-primary\" value=\"Soumettre\">\r\n\t\t\t\t  </form>\r\n\t\t\t\t</div>\r\n\t\t\t  </div>\r\n\t\t\t</div>\r\n\t\t</details>\r\n\t    </div>\r\n\t  <div class=\"wb-share col-sm-4 col-md-3 col-sm-offset-2 col-md-offset-4 col-lg-offset-5\" data-wb-share='{\"lnkClass\": \"btn btn-default btn-block\"}'></div>\r\n\t  </div>\r\n\t  <dl id=\"wb-dtmd\">\r\n\t    <dt>Date de modification\u00a0: </dt>\r\n\t      <dd><time property=\"dateModified\">2020-01-23</time></dd></dl></div>"
    }
}