{
    "has_dcr_id": true,
    "node_id": "1354137774076",
    "parent_node_id": "1354137774066",
    "dcr_id": "1175526032952",
    "landingPageUrl": {
        "en": "1175526032952",
        "fr": "1175526032952"
    },
    "parent_dcr_id": "1360701272448",
    "breadcrumb": {
        "en": "Sustainable Development",
        "fr": "Sustainable Development"
    },
    "node_title": {
        "en": "Sustainable Development",
        "fr": "Sustainable Development"
    },
    "title": {
        "en": "Sustainable Development",
        "fr": "Sustainable Development"
    },
    "type": "Help",
    "meta": {
        "issued": {
            "en": "2009-04-23",
            "fr": "2009-04-23"
        },
        "modified": {
            "en": "2020-09-30",
            "fr": "2020-09-30"
        },
        "format": {
            "en": "text/html",
            "fr": "text/html"
        },
        "title": {
            "en": "Federal Sustainable Development Strategy",
            "fr": "Strat\u00e9gie f\u00e9d\u00e9rale de d\u00e9veloppement durable"
        },
        "subject": {
            "en": "environment;sustainable development;agricultural policy",
            "fr": "environnement;politique agricole;d\u00e9veloppement durable"
        },
        "description": {
            "en": "The Government of Canada promotes sustainable development through many programs, policies and initiatives. A key aspect of the Government of Canada's approach to sustainable development is the requirement for departments to develop Sustainable Development Strategies (SDSs) and table them in Parliament every three years. These strategies are important tools that help guide departments and agencies within the Government of Canada in systematically integrating the principles of sustainable development into their policies, programs, legislation and operations.",
            "fr": "Le gouvernement du Canada promeut le d\u00e9veloppement durable gr\u00e2ce \u00e0 de nombreux programmes, politiques et initiatives.  L'exigence pour les minist\u00e8res d'\u00e9laborer et de d\u00e9poser au Parlement des strat\u00e9gies de d\u00e9veloppement durable (SDD) tous les trois ans est un \u00e9l\u00e9ment cl\u00e9 de l'approche du gouvernement du Canada concernant le d\u00e9veloppement durable. Ces strat\u00e9gies sont des outils importants qui guident les minist\u00e8res et les organismes du gouvernement du Canada vers une int\u00e9gration syst\u00e9matique des principes du d\u00e9veloppement durable dans les politiques, les programmes, les dispositions l\u00e9gislatives et les op\u00e9rations."
        },
        "language": {
            "en": "eng",
            "fr": "fra"
        },
        "keywords": {
            "en": " sustainable agriculture in Canada; SDSs;Sustainable Development Strategies",
            "fr": " agriculture durable au Canada; SDD;strat\u00e9gies de d\u00e9veloppement durable"
        },
        "audience": {
            "en": "general public",
            "fr": "grand public"
        },
        "type": {
            "en": "fact sheet",
            "fr": "fiche de renseignements"
        },
        "creator": {
            "en": "Corporate Management Branch;Agriculture and Agri-Food Canada;Government of Canada",
            "fr": "Direction g\u00e9n\u00e9rale de la gestion int\u00e9gr\u00e9e;Agriculture et Agroalimentaire Canada;Gouvernement du Canada"
        },
        "spatial": {
            "en": "gcregions",
            "fr": "gcregions"
        },
        "service": {
            "en": "AAFC-AAC",
            "fr": "AAFC-AAC"
        },
        "accessRights": {
            "en": "2",
            "fr": "2"
        },
        "legalName": {
            "en": "agriculture_and_agri_food_canada",
            "fr": "agriculture_et_agroalimentaire_canada"
        },
        "areaServed": {
            "en": "Canada",
            "fr": "Canada"
        }
    },
    "body": {
        "en": "\n<header class=\"panel-heading\">\n<h2 class=\"panel-title\">Quick links</h2>\n</header>\n<div class=\"panel-body\"><ul>\n<li><a href=\"?id=1598970992097\">2020-2023 Departmental Sustainable Development Strategy</a></li>\n<li><a href=\"http://www.fsds-sfdd.ca/index.html#/en/intro/what-is-fsds\">A Federal Sustainable Development Strategy for Canada</a></li>\n<li><a href=\"http://www.tpsgc-pwgsc.gc.ca/ecologisation-greening/index-eng.html\">Office of Greening Government Operations</a></li>\n<li><a href=\"https://www.canada.ca/en/environment-climate-change/services/environmental-indicators.html\">Canadian Environmental Sustainability Indicators</a></li>\n<li><a href=\"https://www.canada.ca/en/employment-social-development/programs/agenda-2030.html\">Canada takes action on the 2030 Agenda for sustainable development</a></li>\n</ul> </div>\n",
        "fr": "\n<header class=\"panel-heading\">\n<h2 class=\"panel-title\">Liens rapides</h2>\n</header>\n<div class=\"panel-body\"><ul>\n<li><a href=\"?id=1505773281722\">Strat\u00e9gie minist\u00e9rielle de d\u00e9veloppement durable 2020-2023</a></li>\n<li><a href=\"http://www.fsds-sfdd.ca/index_fr.html#/fr/intro/what-is-fsds\">Strat\u00e9gie f\u00e9d\u00e9rale de d\u00e9veloppement durable pour le Canada</a></li>\n<li><a href=\"http://www.tpsgc-pwgsc.gc.ca/ecologisation-greening/index-fra.html\">Bureau de l'\u00e9cologisation des op\u00e9rations gouvernementales</a></li>\n<li><a href=\"https://www.canada.ca/fr/environnement-changement-climatique/services/indicateurs-environnementaux.html\">Indicateurs canadiens de durabilit\u00e9 de l'environnement</a></li>\n<li><a href=\"https://www.canada.ca/fr/emploi-developpement-social/programmes/programme-2030.html\">Programme de d\u00e9veloppement durable \u00e0 l\u2019horizon 2030 : le Canada passe \u00e0 l\u2019action</a></li>\n</ul></div>\n"
    }
}