{
    "has_dcr_id": true,
    "node_id": "1354137774066",
    "parent_node_id": "1354137774027",
    "dcr_id": "1360701272448",
    "landingPageUrl": {
        "en": "1360701272448",
        "fr": "1360701272448"
    },
    "parent_dcr_id": "1360699683758",
    "breadcrumb": {
        "en": "Planning and Reporting",
        "fr": "Planning and Reporting"
    },
    "node_title": {
        "en": "Planning and Reporting",
        "fr": "Planning and Reporting"
    },
    "title": {
        "en": "Planning and Reporting",
        "fr": "Planning and Reporting"
    },
    "type": "Help",
    "meta": {
        "issued": {
            "en": "2013-02-19",
            "fr": "2013-02-19"
        },
        "modified": {
            "en": "2020-11-05",
            "fr": "2020-11-05"
        },
        "format": {
            "en": "gcformat",
            "fr": "gcformat"
        },
        "title": {
            "en": "Planning and reporting",
            "fr": "Planification et rapports"
        },
        "subject": {
            "en": "sustainable development;benchmarks",
            "fr": "d\u00e9veloppement durable;rep\u00e8re"
        },
        "description": {
            "en": "Management Accountability FrameworkAccess the assessment reports which set out the Treasury Board Secretariat's expectations of public service managers especially deputy heads for good public service management and how we do at meeting them.",
            "fr": "R\u00e9ponse du gouvernement au Rapport du comit\u00e9 sp\u00e9cial sur les coop\u00e9ratives intitul\u00e9 Situation des coop\u00e9ratives au Canada (pr\u00e9sent\u00e9 \u00e0 la Chambre le 28 janvier 2013) R\u00e9ponse du gouvernement au troisi\u00e8me rapport du comit\u00e9 permanent de l'agriculture et de l'agroalimentaire intitul\u00e9 Cultivons l'avenir 2 (pr\u00e9sent\u00e9 \u00e0 la Chambre le 21 septembre 2012)Autres rapports Rapports de v\u00e9rification et d'\u00e9valuation Demandes compl\u00e9t\u00e9es en vertu de la Loi sur l'acc\u00e8s \u00e0 l'information"
        },
        "language": {
            "en": "eng",
            "fr": "fra"
        },
        "keywords": {
            "en": "Departmental Financial StatementsAccess;Evaluation Reports Completed Access;other decisions;Government Response;Agri-Food Canada",
            "fr": "sujets importants;Cadre de responsabilisation de gestion;langues officielles;R\u00e9ponse du gouvernement;Agroalimentaire Canada"
        },
        "audience": {
            "en": "gcaudience",
            "fr": "gcaudience"
        },
        "type": {
            "en": "assessment",
            "fr": "norme"
        },
        "creator": {
            "en": "Agriculture and Agri-Food Canada;Government of Canada",
            "fr": "Agriculture et Agroalimentaire Canada;Gouvernement du Canada"
        },
        "spatial": {
            "en": "gcregions",
            "fr": "gcregions"
        },
        "service": {
            "en": "AAFC-AAC",
            "fr": "AAFC-AAC"
        },
        "accessRights": {
            "en": "2",
            "fr": "2"
        },
        "legalName": {
            "en": "agriculture_and_agri_food_canada",
            "fr": "agriculture_et_agroalimentaire_canada"
        },
        "areaServed": {
            "en": "Canada",
            "fr": "Canada"
        }
    }
}