{
    "has_dcr_id": true,
    "node_id": "1354137774044",
    "parent_node_id": "1354137774043",
    "dcr_id": "1180114490359",
    "landingPageUrl": {
        "en": "1180114490359",
        "fr": "1180114490359"
    },
    "parent_dcr_id": "1360701109506",
    "breadcrumb": {
        "en": "Access to Information and Privacy Services",
        "fr": "Access to Information and Privacy Services"
    },
    "node_title": {
        "en": "Access to Information and Privacy Services",
        "fr": "Access to Information and Privacy Services"
    },
    "title": {
        "en": "Access to Information and Privacy Services",
        "fr": "Access to Information and Privacy Services"
    },
    "type": "Help",
    "meta": {
        "issued": {
            "en": "2009-01-26",
            "fr": "2009-01-26"
        },
        "modified": {
            "en": "2020-11-10",
            "fr": "2020-11-10"
        },
        "format": {
            "en": "text/html",
            "fr": "text/html"
        },
        "title": {
            "en": "Access to information and protection of privacy \u2013 Agriculture",
            "fr": "Acc\u00e8s \u00e0 l\u2019information et protection des renseignements personnels \u2013 Agriculture"
        },
        "subject": {
            "en": "legislation;agriculture;policy",
            "fr": "politique"
        },
        "description": {
            "en": "1180114490359//localhost/default/main/aafc-aac/internet-internet/common-commun/workarea/common-commun/templatedata/comm-comm/gene-gene/data/05/proact_acc-info-priv-serv_1180114490359_en/05/proact_acc-info-priv-serv_1180114490359_ensubsequent_saveengproact_acc-info-priv-servcmsgeneric templatemod\u00e8le g\u00e9n\u00e9riquesdauth10author1access to information and privacy servicesthe mandate of the atip division is to implement and administer the access to information and privacy acts and to ensure that legislative and central agency policies and procedures are met on behalf of the departmental atip coordinator and senior management of the department.",
            "fr": "1180114490359/iwmnt//default/main/aafc-aac/internet-internet/common-commun/workarea/common-commun/templatedata/comm-comm/gene-gene/data//default/main/aafc-aac/internet-internet/common-commun/staging/templatedata/comm-comm/gene-gene/data/subsequent_savefraproact_acc-info-priv-servcmsgeneric templatemod\u00e8le g\u00e9n\u00e9riquesdauth10author1acc\u00e8s \u00e0 l'information et protection des renseignements personnels la division de l'aiprp est responsable de la mise en application de la loi sur l'acc\u00e8s \u00e0 l'information et de la loi sur la protection des renseignements personnels et de veiller \u00e0 ce que les proc\u00e9dures et les politiques de nature l\u00e9gislative et des organismes centraux soient respect\u00e9es \u00e0 l'appui du coordonnateur minist\u00e9riel de l'aiprp et de la haute direction du minist\u00e8re."
        },
        "language": {
            "en": "eng",
            "fr": "fra"
        },
        "keywords": {
            "en": " important notices; top of page date; legislative and central agency policies; information act;privacy act",
            "fr": " institutions f\u00e9d\u00e9rales; divulgation de renseignements personnels; entreprises commerciales; la division de l'aiprp;protection des renseignements personnels"
        },
        "audience": {
            "en": "gcaudience",
            "fr": "gcaudience"
        },
        "type": {
            "en": "program-service description",
            "fr": "description du programme ou du service"
        },
        "creator": {
            "en": "Corporate Management;Agriculture and Agri-Food Canada;Government of Canada",
            "fr": "Gestion Int\u00e9gr\u00e9e;Agriculture et Agroalimentaire Canada;Gouvernement du Canada"
        },
        "spatial": {
            "en": "gcregions",
            "fr": "gcregions"
        },
        "service": {
            "en": "AAFC-AAC",
            "fr": "AAFC-AAC"
        },
        "accessRights": {
            "en": "2",
            "fr": "2"
        },
        "legalName": {
            "en": "agriculture_and_agri_food_canada",
            "fr": "agriculture_et_agroalimentaire_canada"
        },
        "areaServed": {
            "en": "Canada",
            "fr": "Canada"
        }
    },
    "body": {
        "en": "\n<h2>More information</h2>\n<ul>\n    <li><a href=\"?id=1347308413430\">Info Source</a></li>\n    <li><a href=\"http://www.tbs-sct.gc.ca/pol/doc-eng.aspx?id=18310&amp;section=text#appC\">Duty to Assist - Access to Information Act (Appendix C)</a></li>\n    <li><a href=\"http://www.tbs-sct.gc.ca/pol/doc-eng.aspx?id=18311&amp;section=text#appC\">Duty to Assist - Privacy Act (Appendix C)</a></li>\n    <li><a href=\"https://open.canada.ca/en/access-to-information\">Search the summaries of completed access to information requests for other federal government departments</a></li>\n    <li><a href=\"?id=1605015376618\">Recording meetings</a></li>\n</ul>\n",
        "fr": "\n<h2>Autres renseignements</h2>\n<ul>\n    <li><a href=\"?id=1347308413430\">Info Source </a></li>\n    <li><a href=\"http://www.tbs-sct.gc.ca/pol/doc-fra.aspx?id=18310&amp;section=text#appC\">Principes relatifs \u00e0 l'assistance aux auteurs de demandes - en vertu de la <i>Loi sur l'acc\u00e8s \u00e0 l'information</i> (annexe\u00a0C) </a></li>\n    <li><a href=\"http://www.tbs-sct.gc.ca/pol/doc-fra.aspx?id=18311&amp;section=text#appC\">Principes sur l'assistance aux requ\u00e9rants - en vertu de la <i>Loi sur la protection des renseignements personnels</i> (annexe\u00a0C) </a></li>\n    <li><a href=\"https://ouvert.canada.ca/fr/acces-linformation\">Rechercher les r\u00e9sum\u00e9s des demandes d'acc\u00e8s compl\u00e9t\u00e9es pour d'autres institutions f\u00e9d\u00e9rales</a></li>\n    <li><a href=\"?id=1605015376618\">Enregistrement des r\u00e9unions</a></li>\n</ul>\n"
    }
}