{
    "has_dcr_id": true,
    "node_id": "1354137774033",
    "parent_node_id": "1354137774027",
    "dcr_id": "1369864009036",
    "landingPageUrl": {
        "en": "1369864009036",
        "fr": "1369864009036"
    },
    "parent_dcr_id": "1360699683758",
    "breadcrumb": {
        "en": "Minister of Agriculture and Agri-Food",
        "fr": "Minister of Agriculture and Agri-Food"
    },
    "node_title": {
        "en": "Minister of Agriculture and Agri-Food",
        "fr": "Minister of Agriculture and Agri-Food"
    },
    "title": {
        "en": "Minister of Agriculture and Agri-Food",
        "fr": "Minister of Agriculture and Agri-Food"
    },
    "type": "Help",
    "meta": {
        "issued": {
            "en": "2013-07-11",
            "fr": "2013-07-11"
        },
        "modified": {
            "en": "2021-01-20",
            "fr": "2021-01-20"
        },
        "format": {
            "en": "gcformat",
            "fr": "gcformat"
        },
        "title": {
            "en": "Minister",
            "fr": "Ministre"
        },
        "subject": {
            "en": "government information",
            "fr": "information gouvernementale"
        },
        "description": {
            "en": "The Honourable Marie-Claude Bibeau was elected as the Member of Parliament for Compton\u2014Stanstead in October 2015. She has served as a minister since 2015, and is currently the Minister of Agriculture and Agri-Food.",
            "fr": "L\u2019honorable Marie-Claude Bibeau a \u00e9t\u00e9 \u00e9lue d\u00e9put\u00e9e de Compton\u2014Stanstead en octobre 2015. Elle est ministre depuis 2015 et est actuellement ministre de l\u2019Agriculture et de l\u2019Agroalimentaire."
        },
        "language": {
            "en": "eng",
            "fr": "fra"
        },
        "keywords": {
            "en": null,
            "fr": null
        },
        "audience": {
            "en": "gcaudience",
            "fr": "gcaudience"
        },
        "type": {
            "en": "biography",
            "fr": "biographie"
        },
        "creator": {
            "en": "Agriculture and Agri-Food Canada;Government of Canada",
            "fr": "Agriculture et Agroalimentaire Canada;Gouvernement du Canada"
        },
        "spatial": {
            "en": "gcregions",
            "fr": "gcregions"
        },
        "service": {
            "en": "AAFC-AAC",
            "fr": "AAFC-AAC"
        },
        "accessRights": {
            "en": "2",
            "fr": "2"
        },
        "legalName": {
            "en": "agriculture_and_agri_food_canada",
            "fr": "agriculture_et_agroalimentaire_canada"
        },
        "areaServed": {
            "en": "Canada",
            "fr": "Canada"
        }
    },
    "body": {
        "en": "\n<h3 class=\"small\">Tweets by <a href=\"https://twitter.com/AAFC_Canada\">AAFC_Canada</a></h3>\n            <div class=\"wb-twitter\"><a class=\"twitter-timeline\" data-height=\"750\" href=\"http://twitter.com/AAFC_Canada\" data-chrome=\"noheader\">Tweets from : AAFC_Canada</a>\n<script>!function(d,s,id){var js,fjs=d.getElementsByTagName(s)[0],p=/^http:/.test(d.location)?'http':'https';if(!d.getElementById(id)){js=d.createElement(s);js.id=id;js.src=p+\"://platform.twitter.com/widgets.js\";fjs.parentNode.insertBefore(js,fjs);}}(document,\"script\",\"twitter-wjs\");</script>\n</div>\n",
        "fr": "\n<h3 class=\"small\">Gazouillis d'<a href=\"https://twitter.com/AAC_Canada\">AAC_Canada</a></h3>\n            <div class=\"wb-twitter\"><a class=\"twitter-timeline\" data-height=\"750\" href=\"http://twitter.com/AAC_Canada\" data-chrome=\"noheader\">Gazouillis d'AAC_Canada</a>\n<script>!function(d,s,id){var js,fjs=d.getElementsByTagName(s)[0],p=/^http:/.test(d.location)?'http':'https';if(!d.getElementById(id)){js=d.createElement(s);js.id=id;js.src=p+\"://platform.twitter.com/widgets.js\";fjs.parentNode.insertBefore(js,fjs);}}(document,\"script\",\"twitter-wjs\");</script>\n</div>\n"
    }
}