{
    "has_dcr_id": true,
    "node_id": "1365768471463",
    "parent_node_id": "1566306181000",
    "dcr_id": "1219248798716",
    "landingPageUrl": {
        "en": "1219248798716",
        "fr": "1219248798716"
    },
    "parent_dcr_id": "1360881288492",
    "breadcrumb": {
        "en": "Departmental Results Reports",
        "fr": "Departmental Results Reports"
    },
    "node_title": {
        "en": "Departmental Results Reports",
        "fr": "Departmental Results Reports"
    },
    "title": {
        "en": "Departmental Results Reports",
        "fr": "Departmental Results Reports"
    },
    "type": "Help",
    "meta": {
        "issued": {
            "en": "2009-03-03",
            "fr": "2009-03-03"
        },
        "modified": {
            "en": "2020-12-07",
            "fr": "2020-12-07"
        },
        "format": {
            "en": "text/html",
            "fr": "text/html"
        },
        "title": {
            "en": "Departmental Results Reports",
            "fr": "Rapports sur les r\u00e9sultats minist\u00e9riels"
        },
        "subject": {
            "en": "government information;audit;agriculture",
            "fr": "information gouvernementale;\u00e9valuation"
        },
        "description": {
            "en": "2004-2005 departmental performance report [ pdf version ]            2003-2004 departmental performance report 2002-2003            departmental performance report 2001-2002 departmental            performance report 2000-2001 departmental performance report            1999-2000 departmental performance report 1998-1999            departmental performance report [ pdf version ] 1997-1998            departmental performance report [ pdf version ] 1996-1997            performance report [ pdf version ] 1995-1996 performance            report [ pdf version ] [ help with accessibility ]",
            "fr": null
        },
        "language": {
            "en": "eng",
            "fr": "fra"
        },
        "keywords": {
            "en": " older versions of the performance reports; annual report; performance report; pdf version;departmental performance report",
            "fr": null
        },
        "audience": {
            "en": "gcaudience",
            "fr": "gcaudience"
        },
        "type": {
            "en": "resource list",
            "fr": "liste de r\u00e9f\u00e9rence"
        },
        "creator": {
            "en": "Agriculture and Agri-Food Canada;Government of Canada",
            "fr": "Agriculture et Agroalimentaire Canada;Gouvernement du Canada"
        },
        "spatial": {
            "en": "gcregions",
            "fr": "gcregions"
        },
        "service": {
            "en": "AAFC-AAC",
            "fr": "AAFC-AAC"
        },
        "accessRights": {
            "en": "2",
            "fr": "2"
        },
        "legalName": {
            "en": "agriculture_and_agri_food_canada",
            "fr": "agriculture_et_agroalimentaire_canada"
        },
        "areaServed": {
            "en": "Canada",
            "fr": "Canada"
        }
    }
}