{
    "has_dcr_id": true,
    "node_id": "1366840625411",
    "parent_node_id": "1354137774014",
    "dcr_id": "1203091767065",
    "landingPageUrl": {
        "en": "1203091767065",
        "fr": "1203091767065"
    },
    "parent_dcr_id": "1196968351190",
    "breadcrumb": {
        "en": "Agriculture and Agri-food Canada's Accelerated Release Program",
        "fr": "Agriculture and Agri-food Canada's Accelerated Release Program"
    },
    "node_title": {
        "en": "Agriculture and Agri-food Canada's Accelerated Release Program",
        "fr": "Agriculture and Agri-food Canada's Accelerated Release Program"
    },
    "title": {
        "en": "Agriculture and Agri-food Canada's Accelerated Release Program",
        "fr": "Agriculture and Agri-food Canada's Accelerated Release Program"
    },
    "type": "Help",
    "meta": {
        "issued": {
            "en": "2009-02-06",
            "fr": "2009-02-06"
        },
        "modified": {
            "en": "2020-10-05",
            "fr": "2020-10-05"
        },
        "format": {
            "en": "text/html",
            "fr": "text/html"
        },
        "title": {
            "en": "Accelerated Release Program - New potato selections for french fries, chips and the fresh market",
            "fr": "Programme de mise en circulation acc\u00e9l\u00e9r\u00e9e - Nouvelles vari\u00e9t\u00e9s de pommes de terre pour le march\u00e9 des frites, croustilles et le march\u00e9 frais"
        },
        "subject": {
            "en": "genetics;technology;crops",
            "fr": "g\u00e9n\u00e9tique;technologie;cultures"
        },
        "description": {
            "en": "Accelerated Release Program for New Potato Selections - Agriculture and Agri-Food Canada (AAFC) releases to the marketplace up to 10-15 new potato selections for 2017/2018 (AR2017)",
            "fr": "Programme de mise en circulation acc\u00e9l\u00e9r\u00e9e - Nouvelles vari\u00e9t\u00e9s de pommes de terre - Agriculture et Agroalimentaire Canada met sur le march\u00e9 jusqu'\u00e0 10-15 nouvelles vari\u00e9t\u00e9s de pommes de terre pour 2017/2018 (AR2017)"
        },
        "language": {
            "en": "eng",
            "fr": "fra"
        },
        "keywords": {
            "en": " traditional crop breeding techniques; agri-food canada's accelerated release program; accelerated release program; AR2017; accelerated potato release; potato accelerated release; AAFC potato release;new potato selections",
            "fr": " Programme de mise en circulation acc\u00e9l\u00e9r\u00e9e de l\u2019AAC; techniques d'am\u00e9lioration g\u00e9n\u00e9tique des cultures; AR2017; Programme de mise en circulation acc\u00e9l\u00e9r\u00e9e; mise en circulation acc\u00e9l\u00e9r\u00e9e de pommes de terre;Nouvelles vari\u00e9t\u00e9s de pommes de terre"
        },
        "audience": {
            "en": "gcaudience",
            "fr": "gcaudience"
        },
        "type": {
            "en": "resource list",
            "fr": "liste de r\u00e9f\u00e9rence"
        },
        "creator": {
            "en": "Research & Analysis Directorate;Agriculture and Agri-Food Canada;;Government of Canada",
            "fr": "Direction de la recherche et analyse;Agriculture et Agroalimentaire Canada;Gouvernement du Canada"
        },
        "spatial": {
            "en": "gcregions",
            "fr": "gcregions"
        },
        "service": {
            "en": "AAFC-AAC",
            "fr": "AAFC-AAC"
        },
        "accessRights": {
            "en": "2",
            "fr": "2"
        },
        "legalName": {
            "en": "agriculture_and_agri_food_canada",
            "fr": "agriculture_et_agroalimentaire_canada"
        },
        "areaServed": {
            "en": "Canada",
            "fr": "Canada"
        }
    }
}