{
    "has_dcr_id": true,
    "node_id": "1379000575516",
    "parent_node_id": "1579021792558",
    "dcr_id": "1378743094676",
    "landingPageUrl": {
        "en": "1378743094676",
        "fr": "1378743094676"
    },
    "parent_dcr_id": "1361290484419",
    "breadcrumb": {
        "en": "Outlook for Principal Field Crops in Canada",
        "fr": "Outlook for Principal Field Crops in Canada"
    },
    "node_title": {
        "en": "Outlook for Principal Field Crops in Canada",
        "fr": "Outlook for Principal Field Crops in Canada"
    },
    "title": {
        "en": "Outlook for Principal Field Crops in Canada",
        "fr": "Outlook for Principal Field Crops in Canada"
    },
    "type": "Help",
    "meta": {
        "issued": {
            "en": "2013-09-27",
            "fr": "2013-09-27"
        },
        "modified": {
            "en": "2021-01-27",
            "fr": "2021-01-27"
        },
        "format": {
            "en": "gcformat",
            "fr": "gcformat"
        },
        "title": {
            "en": "Reports and Statistics Data for Canadian Principal Field Crops",
            "fr": "Rapports et donn\u00e9es statistiques sur les principales grandes cultures au Canada"
        },
        "subject": {
            "en": "statistics;crops",
            "fr": "statistiques;cultures"
        },
        "description": {
            "en": "These reports provide timely market information and analysis on the situation and outlook for grains and oilseeds and pulses and special crops in Canada. ",
            "fr": "Ce rapport pr\u00e9sente en temps utile des renseignements sur les march\u00e9s ainsi que des analyses de la situation et des perspectives entourant les c\u00e9r\u00e9ales et ol\u00e9agineux ainsi que les l\u00e9gumineuses et cultures sp\u00e9ciales au Canada. "
        },
        "language": {
            "en": "eng",
            "fr": "fra"
        },
        "keywords": {
            "en": null,
            "fr": null
        },
        "audience": {
            "en": "gcaudience",
            "fr": "gcaudience"
        },
        "type": {
            "en": "statistics",
            "fr": "statistiques"
        },
        "creator": {
            "en": "Agriculture and Agri-Food Canada;Government of Canada",
            "fr": "Agriculture et Agroalimentaire Canada;Gouvernement du Canada"
        },
        "spatial": {
            "en": "gcregions",
            "fr": "gcregions"
        },
        "service": {
            "en": "AAFC-AAC",
            "fr": "AAFC-AAC"
        },
        "accessRights": {
            "en": "2",
            "fr": "2"
        },
        "legalName": {
            "en": "agriculture_and_agri_food_canada",
            "fr": "agriculture_et_agroalimentaire_canada"
        },
        "areaServed": {
            "en": "Canada",
            "fr": "Canada"
        }
    }
}