{
    "has_dcr_id": true,
    "node_id": "1382729212406",
    "parent_node_id": "1354137773862",
    "dcr_id": "1382971713721",
    "landingPageUrl": {
        "en": "1382971713721",
        "fr": "1382971713721"
    },
    "parent_dcr_id": "1415860000001",
    "breadcrumb": {
        "en": "Livestock and Poultry Traceability",
        "fr": "Livestock and Poultry Traceability"
    },
    "node_title": {
        "en": "Livestock and Poultry Traceability",
        "fr": "Livestock and Poultry Traceability"
    },
    "title": {
        "en": "Livestock and Poultry Traceability",
        "fr": "Livestock and Poultry Traceability"
    },
    "type": "Help",
    "meta": {
        "issued": {
            "en": "2010-04-20",
            "fr": "2010-04-20"
        },
        "modified": {
            "en": "2017-04-19",
            "fr": "2017-04-19"
        },
        "format": {
            "en": "gcformat",
            "fr": "gcformat"
        },
        "title": {
            "en": "Livestock traceability",
            "fr": "Tra\u00e7abilit\u00e9  du b\u00e9tail"
        },
        "subject": {
            "en": "programs",
            "fr": "programme"
        },
        "description": {
            "en": "The ability to rapidly trace an animal throughout its life cycle is essential to isolating animal health emergencies and can help limit the economic trade environmental and social impacts of such emergencies.",
            "fr": "Pour en savoir plus : Identification et tra\u00e7abilit\u00e9 du b\u00e9tail ACIA Agri-Tra\u00e7abilit\u00e9 Qu\u00e9bec The Canadian Cattle Identification Agency Programme canadien d'identification des moutons ACIA Gouvernement de l'Alberta (en anglais seulement) SheepCentral (en anglais seulement) Zone Canada Beef InfoXchange System (BIXS) Pour communiquer avec nous : trace@agr.gc.ca Liens rapides 19 juillet 2013 - Les ministres f\u00e9d\u00e9ral provinciaux et territoriaux de l\u2019Agriculture mettent l\u2019accent sur l\u2019innovation et la comp\u00e9titivit\u00e9 lors de leur r\u00e9union annuelle Cultivons l\u2019avenir 2 16 janvier 2013 - Le Canada et les \u00c9tats-Unis"
        },
        "language": {
            "en": "eng",
            "fr": "fra"
        },
        "keywords": {
            "en": "life cycle;United States sign agreement;main goal;Traceability systems;basic elements",
            "fr": "identification des installations;tra\u00e7abilit\u00e9 du b\u00e9tail;\u00e9l\u00e9ments de base;syst\u00e8mes de tra\u00e7abilit\u00e9;f\u00e9d\u00e9ral provinciaux"
        },
        "audience": {
            "en": "gcaudience",
            "fr": "gcaudience"
        },
        "type": {
            "en": "terminology",
            "fr": "terminologie"
        },
        "creator": {
            "en": "Assurance Systems;Sector Development and Analysis Directorate;International Markets Bureau;Market and Industry Services Branch;Agriculture and Agri-Food Canada;Government of Canada",
            "fr": "Syst\u00e8mes d\u2019assurance;Direction du D\u00e9veloppement et analyse du secteur;Bureau des march\u00e9s internationaux;Direction g\u00e9n\u00e9rale des services \u00e0 l'industrie et aux march\u00e9s;Agriculture et Agroalimentaire Canada;Gouvernement du Canada"
        },
        "spatial": {
            "en": "gcregions",
            "fr": "gcregions"
        },
        "service": {
            "en": "AAFC-AAC",
            "fr": "AAFC-AAC"
        },
        "accessRights": {
            "en": "2",
            "fr": "2"
        },
        "legalName": {
            "en": "agriculture_and_agri_food_canada",
            "fr": "agriculture_et_agroalimentaire_canada"
        },
        "areaServed": {
            "en": "Canada",
            "fr": "Canada"
        }
    }
}