{
    "has_dcr_id": true,
    "node_id": "1384804241320",
    "parent_node_id": "1384803392547",
    "dcr_id": "1385995694580",
    "landingPageUrl": {
        "en": "1385995694580",
        "fr": "1385995694580"
    },
    "parent_dcr_id": "1385758087741",
    "breadcrumb": {
        "en": "Special Crops",
        "fr": "Special Crops"
    },
    "node_title": {
        "en": "Special Crops",
        "fr": "Special Crops"
    },
    "title": {
        "en": "Special Crops",
        "fr": "Special Crops"
    },
    "type": "Help",
    "meta": {
        "issued": {
            "en": "2011-01-14",
            "fr": "2011-01-14"
        },
        "modified": {
            "en": "2019-04-12",
            "fr": "2019-04-12"
        },
        "format": {
            "en": "gcformat",
            "fr": "gcformat"
        },
        "title": {
            "en": "Special Crops",
            "fr": "Cultures sp\u00e9ciales"
        },
        "subject": {
            "en": "agriculture",
            "fr": "agriculture"
        },
        "description": {
            "en": "Special Crops13848042413201 In this section Objectives Success Stories Members Working Groups Bulletins Contacts Links A Brief History Canada is a global leader in the export of special crops such as mustard seed ginseng and canary seed an emerging producer and a small to medium sized player in other special crops markets including safflower sugar beets sunflower seed buckwheat hay and forages.",
            "fr": "Les cultures sp\u00e9ciales comprennent notamment les l\u00e9gumineuses (f\u00e8ves pois chiches lentilles pois) les graines \u00e0 canaris le sarrasin les graines de tournesol de moutarde et de chanvre les plantes fourrag\u00e8res le foin le tr\u00e8fle le riz sauvage le fenugrec la coriandre le carvi la bourrache et le champignon sauvage."
        },
        "language": {
            "en": "eng",
            "fr": "fra"
        },
        "keywords": {
            "en": "canary seed buckwheat sunflower seed mustard seed hemp seed;Roundtable's November;common issues;value chain;special crops",
            "fr": "cat\u00e9gories suivantes;priorit\u00e9s de leurs secteurs;riz sauvage;capacit\u00e9 organisationnelle;Table ronde"
        },
        "audience": {
            "en": "gcaudience",
            "fr": "gcaudience"
        },
        "type": {
            "en": "meeting material",
            "fr": "documentation de r\u00e9union"
        },
        "creator": {
            "en": "International Policy and Coordination Division;Multilateral Relations;Market and Industry Services Branch;Agriculture and Agri-Food Canada;Government of Canada",
            "fr": "Division de la coordination et des politiques internationales;Relations multilat\u00e9rales;Direction g\u00e9n\u00e9rale des services \u00e0 l'industrie et aux march\u00e9s;Agriculture et agroalimentaire Canada;Gouvernement du Canada"
        },
        "spatial": {
            "en": "gcregions",
            "fr": "gcregions"
        },
        "service": {
            "en": "AAFC-AAC",
            "fr": "AAFC-AAC"
        },
        "accessRights": {
            "en": "2",
            "fr": "2"
        },
        "legalName": {
            "en": "agriculture_and_agri_food_canada",
            "fr": "agriculture_et_agroalimentaire_canada"
        },
        "areaServed": {
            "en": "Canada",
            "fr": "Canada"
        }
    }
}