{
    "has_dcr_id": true,
    "node_id": "1384971799966",
    "parent_node_id": "1354137773899",
    "dcr_id": "1384971854421",
    "landingPageUrl": {
        "en": "1384971854421",
        "fr": "1384971854421"
    },
    "parent_dcr_id": "1384971854388",
    "breadcrumb": {
        "en": "Production",
        "fr": "Production"
    },
    "node_title": {
        "en": "Production",
        "fr": "Production"
    },
    "title": {
        "en": "Production",
        "fr": "Production"
    },
    "type": "Help",
    "meta": {
        "issued": {
            "en": "2011-01-30",
            "fr": "2003-02-24"
        },
        "modified": {
            "en": "2020-07-20",
            "fr": "2020-07-20"
        },
        "format": {
            "en": "gcformat",
            "fr": "gcformat"
        },
        "title": {
            "en": "Production reports",
            "fr": "Rapports de production"
        },
        "subject": {
            "en": "statistics",
            "fr": "transformation des aliments;horticulture;bact\u00e9rie"
        },
        "description": {
            "en": "Canada's poultry and egg industry is mainly composed of the following sectors: chicken, ducks and geese, hatching eggs, table eggs, and turkey. Poultry and Egg Market Information \u2013 Canadian Industry provides weekly, monthly, and annual reports on: condemnations, egg production (processed and table eggs), hatcheries, imports and exports, inter-provincial movements, producer and retail prices, slaughter, storage stocks. Also includes product-based reports and information on chicken, ducks and geese, hatching eggs, table eggs, and turkey.",
            "fr": "L'industrie canadienne de la volaille et des oeufs comprend principalement les secteurs suivants : le poulet, le canard et l'oie, les oeufs d'incubation, les oeufs de consommation et le dindon. Information sur le march\u00e9 de la volaille et oeufs \u2013 Industrie canadienne Pr\u00e9sente des rapports hebdomadaires, mensuels et annuels sur les sujets suivants: condamnations, production d\u2019oeufs (oeufs transform\u00e9s et oeufs de consommation), couvoirs, importations / exportations, exp\u00e9ditions interprovinciales, producteurs et prix \u00e0 la consommation, abattages, stocks en entrep\u00f4t. Comprend \u00e9galement des rapports fond\u00e9s sur les produits ainsi que des renseignements sur le poulet, le canard et l'oie, les oeufs d'incubation, les oeufs de consommation et le dindon."
        },
        "language": {
            "en": "eng",
            "fr": "fra"
        },
        "keywords": {
            "en": "Production Reports;Processed Eggs;Ducks and Geese;Turkey;Mature Chicken;Chicken",
            "fr": "Rapports de production;Oeufs transform\u00e9s;canardes et oies;dindons;poulets adultes;Poulets"
        },
        "audience": {
            "en": "gcaudience",
            "fr": "gcaudience"
        },
        "type": {
            "en": "business plan",
            "fr": "\u00e9nonc\u00e9 sur la propri\u00e9t\u00e9 intellectuelle"
        },
        "creator": {
            "en": "Market and Industry Services Branch;Agriculture and Agri-Food Canada;Government of Canada",
            "fr": "Direction g\u00e9n\u00e9rale des services \u00e0 l'industrie et aux march\u00e9s;Agriculture et Agroalimentaire Canada;Gouvernement du Canada"
        },
        "spatial": {
            "en": "gcregions",
            "fr": "gcregions"
        },
        "service": {
            "en": "AAFC-AAC",
            "fr": "AAFC-AAC"
        },
        "accessRights": {
            "en": "2",
            "fr": "2"
        },
        "legalName": {
            "en": "agriculture_and_agri_food_canada",
            "fr": "agriculture_et_agroalimentaire_canada"
        },
        "areaServed": {
            "en": "Canada",
            "fr": "Canada"
        }
    }
}