{
    "has_dcr_id": true,
    "node_id": "1386278830350",
    "parent_node_id": "1354137773899",
    "dcr_id": "1384971854431",
    "landingPageUrl": {
        "en": "1384971854431",
        "fr": "1384971854431"
    },
    "parent_dcr_id": "1384971854388",
    "breadcrumb": {
        "en": "Publications - Poultry and Eggs",
        "fr": "Publications - Poultry and Eggs"
    },
    "node_title": {
        "en": "Publications - Poultry and Eggs",
        "fr": "Publications - Poultry and Eggs"
    },
    "title": {
        "en": "Publications - Poultry and Eggs",
        "fr": "Publications - Poultry and Eggs"
    },
    "type": "Help",
    "meta": {
        "issued": {
            "en": "2011-01-30",
            "fr": "2003-02-24"
        },
        "modified": {
            "en": "2020-07-20",
            "fr": "2020-07-20"
        },
        "format": {
            "en": "gcformat",
            "fr": "gcformat"
        },
        "title": {
            "en": "Poultry and egg publications",
            "fr": "Publications sur le march\u00e9 de la volaille et des oeufs"
        },
        "subject": {
            "en": "architectural heritage;architecture;statistics",
            "fr": "transformation des aliments;actif;\u0153uf"
        },
        "description": {
            "en": "Poultry and Egg13862788303501 Statistics of Canada's Animal Genetics Codes of Practice for the care and handling of farm animals -",
            "fr": "Publications - Volaille et oeufs13862788303501 Profil de l'industrie du poulet au Canada Profil de l'industrie du dindon au Canada Profil de l'industrie ovocole canadienne--> Statistiques canadiennes du secteur de la g\u00e9n\u00e9tique animale Profil de l'industrie canadienne de l'autruche de l'\u00e9meu et du nandou Profil de l'industrie du canards au Canada --> Codes de pratiques pour les soins et la manipulation des animaux d\u2019\u00e9levage - Poulets dindons et reproducteurs Codes de pratiques pour les soins et la manipulation des animaux d\u2019\u00e9levage - Volaille \u2013 Poules pondeuses"
        },
        "language": {
            "en": "eng",
            "fr": "fra"
        },
        "keywords": {
            "en": "Small Poultry Flock;Egg13862788303501 Statistics of Canada's Animal Genetics Codes of Practice;Processing Plant Codes of Practice;Canada Little Known Uses;handling of farm animals",
            "fr": "Canada Usages;peu connus des oeufs;Profil de l'industrie du canards;Codes de pratiques;manipulation des animaux"
        },
        "audience": {
            "en": "gcaudience",
            "fr": "gcaudience"
        },
        "type": {
            "en": "publication",
            "fr": "avis"
        },
        "creator": {
            "en": "Market and Industry Services Branch;Agriculture and Agri-Food Canada;Government of Canada",
            "fr": "Direction g\u00e9n\u00e9rale des services \u00e0 l'industrie et aux march\u00e9s;Agriculture et Agroalimentaire Canada;Gouvernement du Canada"
        },
        "spatial": {
            "en": "gcregions",
            "fr": "gcregions"
        },
        "service": {
            "en": "AAFC-AAC",
            "fr": "AAFC-AAC"
        },
        "accessRights": {
            "en": "2",
            "fr": "2"
        },
        "legalName": {
            "en": "agriculture_and_agri_food_canada",
            "fr": "agriculture_et_agroalimentaire_canada"
        },
        "areaServed": {
            "en": "Canada",
            "fr": "Canada"
        }
    }
}