{
    "has_dcr_id": true,
    "node_id": "1453480539099",
    "parent_node_id": "1410080965335",
    "dcr_id": "1453919743637",
    "landingPageUrl": {
        "en": "1453919743637",
        "fr": "1453919743637"
    },
    "parent_dcr_id": "1410083148447",
    "breadcrumb": {
        "en": "Market Access - US and Mexico",
        "fr": "Market Access - US and Mexico"
    },
    "node_title": {
        "en": "Market Access - US and Mexico",
        "fr": "Market Access - US and Mexico"
    },
    "title": {
        "en": "Market Access - US and Mexico",
        "fr": "Market Access - US and Mexico"
    },
    "type": "Help",
    "meta": {
        "issued": {
            "en": "2016-01-29",
            "fr": "2016-01-29"
        },
        "modified": {
            "en": "2021-01-26",
            "fr": "2021-01-26"
        },
        "format": {
            "en": "gcformat",
            "fr": "gcformat"
        },
        "title": {
            "en": "Market Access - United States and Mexico",
            "fr": "Acc\u00e8s aux march\u00e9s - \u00c9tats-Unis et au Mexique"
        },
        "subject": {
            "en": "market development;market analysis;trade agreements",
            "fr": "d\u00e9veloppement des march\u00e9s;analyse de march\u00e9;accord de libre-\u00e9change"
        },
        "description": {
            "en": "The Market Access section is meant to stimulate your planning when preparing to enter a foreign market. This section will not only answer questions, but also prompt you to ask more; the more information and answers you gather, the stronger the likelihood for successful exporting.",
            "fr": "La section qui porte sur l'acc\u00e8s aux march\u00e9s vise \u00e0 stimuler votre planification lorsque vous comptez vous lancer sur un march\u00e9 \u00e9tranger. Gr\u00e2ce \u00e0 cette section, vous obtiendrez non seulement r\u00e9ponse \u00e0 vos questions mais vous chercherez sans doute \u00e0 en savoir davantage. La quantit\u00e9 de renseignements et de r\u00e9ponses dont vous disposez est directement proportionnelle \u00e0 vos chances de r\u00e9ussir dans vos activit\u00e9s d'exportation."
        },
        "language": {
            "en": "eng",
            "fr": "fra"
        },
        "keywords": {
            "en": " Trans-Pacific Partnership (TPP); North American Free-Trade Agreement (NAFTA); Market Access;Bilateral Trade",
            "fr": " Partenariat transpacifique; Accord de libre-\u00e9change nord-am\u00e9ricain (ALENA); Acc\u00e8s aux march\u00e9s;\u00c9changes bilat\u00e9raux"
        },
        "audience": {
            "en": "gcaudience",
            "fr": "gcaudience"
        },
        "type": {
            "en": "multimedia",
            "fr": "multim\u00e9dia"
        },
        "creator": {
            "en": "Agriculture and Agri-Food Canada;Government of Canada",
            "fr": "Agriculture et Agroalimentaire Canada;Gouvernement du Canada"
        },
        "spatial": {
            "en": "gcregions",
            "fr": "gcregions"
        },
        "service": {
            "en": "AAFC-AAC",
            "fr": "AAFC-AAC"
        },
        "accessRights": {
            "en": "2",
            "fr": "2"
        },
        "legalName": {
            "en": "agriculture_and_agri_food_canada",
            "fr": "agriculture_et_agroalimentaire_canada"
        },
        "areaServed": {
            "en": "Canada",
            "fr": "Canada"
        }
    }
}