{
    "has_dcr_id": true,
    "parent_node_id": "1354137773676",
    "node_id": "1517240214286",
    "dcr_id": "1517865477303",
    "landingPageUrl": {
        "en": "1517865477303",
        "fr": "1530816648717"
    },
    "parent_page": {
        "en": "1362151577626",
        "fr": "1362151577626"
    },
    "title": {
        "en": "AgriAssurance Program: Small and Medium Enterprises Component",
        "fr": "Agri-risques : Volet Recherche et d\u00e9veloppement"
    },
    "breadcrumb": {
        "en": "AgriAssurance Program: Small and Medium Enterprises Component",
        "fr": "Agri-risques : Volet Recherche et d\u00e9veloppement"
    },
    "temptype": "find_people",
    "meta": {
        "issued": {
            "en": "2018-02-13",
            "fr": "2018-02-13"
        },
        "modified": {
            "en": "2018-04-20",
            "fr": "2018-04-20"
        },
        "format": {
            "en": "text/html",
            "fr": "text/html"
        },
        "title": {
            "en": "AgriAssurance: Small and Medium-sized Enterprise Component: Step 1. What this program offers",
            "fr": "Programme Agri-assurance : Volet Petites et moyennes entreprises : \u00c9tape 1. Ce qu\u2019offre ce programme "
        },
        "subject": {
            "en": "architectural heritage;architecture;agricultural assistance",
            "fr": "cultures;terre agricole;viande"
        },
        "description": {
            "en": "AgriAssurance - Small and Medium-sized Enterprise Component. Applicant guide. Contact AgriAssurance. 1. What this program offers.",
            "fr": "Agri-diversit\u00e9. \u00c9tape 1. Ce qu'offre ce programme. Guide du demandeur. Foire aux questions. -->. Pour nous joindre. Renforcer le secteur en int\u00e9grant les points de vue d\u2019un plus grand nombre d\u2019acteurs de l\u2019industrie.Si approuv\u00e9, un appui est disponible sous la forme de contribution financi\u00e8re non remboursable d\u2019Agriculture et Agroalimentaire Canada (AAC).Les demandes seront accept\u00e9es entre le 13 f\u00e9vrier 2018 et le 30 septembre 2022, ou jusqu\u2019\u00e0 ce que l\u2019int\u00e9gralit\u00e9 des fonds ait \u00e9t\u00e9 affect\u00e9e ou qu\u2019une annonce contraire soit publi\u00e9e dans le cadre du programme.Le programme se termine au 31 mars, 2023.Navigation du document - pr\u00e9c\u00e9dente-suivante - bas."
        },
        "language": {
            "en": "eng",
            "fr": "fra"
        },
        "keywords": {
            "en": "dpci mapaq.gouv.qc.ca;Component.Provide;AgriAssurance",
            "fr": "appui est disponible"
        },
        "audience": {
            "en": "gcaudience",
            "fr": "gcaudience"
        },
        "type": {
            "en": "fact sheet",
            "fr": "politique"
        },
        "creator": {
            "en": "Agriculture and Agri-Food Canada;Government of Canada",
            "fr": "Agriculture et Agroalimentaire Canada;Gouvernement du Canada"
        },
        "spatial": {
            "en": "gcregions",
            "fr": "gcregions"
        },
        "service": {
            "en": "AAFC-AAC",
            "fr": "AAFC-AAC"
        },
        "accessRights": {
            "en": "2",
            "fr": "2"
        },
        "legalName": {
            "en": "agriculture_and_agri_food_canada",
            "fr": "agriculture_et_agroalimentaire_canada"
        },
        "areaServed": {
            "en": "Canada",
            "fr": "Canada"
        }
    }
}