{
    "has_dcr_id": true,
    "parent_node_id": "1354137773676",
    "node_id": "1517240166726",
    "dcr_id": "1516993063537",
    "landingPageUrl": {
        "en": "1516993063537",
        "fr": "1515088228849"
    },
    "parent_page": {
        "en": "1362151577626",
        "fr": "1362151577626"
    },
    "title": {
        "en": "AgriScience Program \u2013 Projects \u2013 1. What this program offers",
        "fr": "Programme Agri-marketing : Volet Petites et moyennes entreprises"
    },
    "breadcrumb": {
        "en": "AgriScience Program \u2013 Projects \u2013 1. What this program offers",
        "fr": "Programme Agri-marketing : Volet Petites et moyennes entreprises"
    },
    "temptype": "our_dept",
    "meta": {
        "issued": {
            "en": "2018-02-13",
            "fr": "2018-02-13"
        },
        "modified": {
            "en": "2020-02-26",
            "fr": "2020-02-26"
        },
        "format": {
            "en": "text/html",
            "fr": "text/html"
        },
        "title": {
            "en": "AgriScience Program \u2013 Projects: Step 1. What this program offers",
            "fr": "Programme Agri-science \u2013 projets : \u00c9tape 1. Ce qu'offre ce programme"
        },
        "subject": {
            "en": "architectural heritage;architecture;statistics",
            "fr": "engrais;commerce ext\u00e9rieur;viande"
        },
        "description": {
            "en": "AgriScience Program. 1. What this program offers. 1. What this program offers. The AgriScience Program is a program under the. Next.",
            "fr": "Programme Agri-science. 1. Ce qu'offre ce programme. Guides du demandeur. Pour nous joindre. 1. Ce qu'offre ce programme. Suivante."
        },
        "language": {
            "en": "eng",
            "fr": "fra"
        },
        "keywords": {
            "en": "Clusters component;themes and horizontal;accelerate the pace",
            "fr": null
        },
        "audience": {
            "en": "gcaudience",
            "fr": "gcaudience"
        },
        "type": {
            "en": "business plan",
            "fr": "foire aux questions"
        },
        "creator": {
            "en": "Agriculture and Agri-Food Canada;Government of Canada",
            "fr": "Agriculture et Agroalimentaire Canada;Gouvernement du Canada"
        },
        "spatial": {
            "en": "gcregions",
            "fr": "gcregions"
        },
        "service": {
            "en": "AAFC-AAC",
            "fr": "AAFC-AAC"
        },
        "accessRights": {
            "en": "2",
            "fr": "2"
        },
        "legalName": {
            "en": "agriculture_and_agri_food_canada",
            "fr": "agriculture_et_agroalimentaire_canada"
        },
        "areaServed": {
            "en": "Canada",
            "fr": "Canada"
        }
    }
}