{
    "has_dcr_id": true,
    "node_id": "1517330086439",
    "parent_node_id": "1517240181254",
    "dcr_id": "1515011266778",
    "landingPageUrl": {
        "en": "1515011266778",
        "fr": "1515011266778"
    },
    "title": {
        "en": "AgriAssurance Program: National Industry Association Component \u2013 Applicant guide",
        "fr": "Programme Agri-assurance : Volet Associations nationales de l'industrie \u2013 Guide du demandeur"
    },
    "breadcrumb": {
        "en": "AgriAssurance Program: National Industry Association Component \u2013 Applicant guide",
        "fr": "Programme Agri-assurance : Volet Associations nationales de l'industrie \u2013 Guide du demandeur"
    },
    "type": "find_people",
    "meta": {
        "issued": {
            "en": "2018-02-13",
            "fr": "2018-02-13"
        },
        "modified": {
            "en": "2019-01-09",
            "fr": "2019-01-09"
        },
        "format": {
            "en": "text/html",
            "fr": "text/html"
        },
        "title": {
            "en": "AgriAssurance Program: National Industry Association Component: Step 3. How to apply",
            "fr": "Programme Agri-assurance : Volet Associations nationales de l'industrie : \u00c9tape 3. Comment pr\u00e9senter une demande"
        },
        "subject": {
            "en": "architectural heritage;architecture;statistics",
            "fr": "b\u00e2timent;commerce ext\u00e9rieur;viande"
        },
        "description": {
            "en": "1.What this program offers. 2.Who is eligible. Program Objective. The AgriAssurance Small and Medium-sized Enterprise (SME) Component provides targeted support to companies to help implement third-party assurance certification projects that address international market requirements, thus helping expand export opportunities for Canadian agricultural and agri-food products.(There is a separate application process for the AgriAssurance National Industry Association Component that provides funding to not-for-profit organizations to help industry develop and adopt systems, standards and tools to support health, safety and quality claims about Canadian agricultural and agri-food products.). 1.2 Eligible applicants. Funding will not be made available if there is no such certification requirement by the target market.In addition, support will not be available for projects to renew a third-party certification.1.5 Application deadlines.",
            "fr": "Guides du demandeur. 1.Ce qu'offre ce programme. Guides du demandeur. Pour nous joindre. Guides du demandeur \u2013 grappes. Navigation du document - pr\u00e9c\u00e9dente-suivante - bas."
        },
        "language": {
            "en": "eng",
            "fr": "fra"
        },
        "keywords": {
            "en": "AgriAssurance;Browse to the folder",
            "fr": null
        },
        "audience": {
            "en": "gcaudience",
            "fr": "gcaudience"
        },
        "type": {
            "en": "presentation",
            "fr": "plan d'activit\u00e9s"
        },
        "creator": {
            "en": "Agriculture and Agri-Food Canada;Government of Canada",
            "fr": "Agriculture et Agroalimentaire Canada;Gouvernement du Canada"
        },
        "spatial": {
            "en": "gcregions",
            "fr": "gcregions"
        },
        "service": {
            "en": "AAFC-AAC",
            "fr": "AAFC-AAC"
        },
        "accessRights": {
            "en": "2",
            "fr": "2"
        },
        "legalName": {
            "en": "agriculture_and_agri_food_canada",
            "fr": "agriculture_et_agroalimentaire_canada"
        },
        "areaServed": {
            "en": "Canada",
            "fr": "Canada"
        }
    }
}