{
    "has_dcr_id": true,
    "node_id": "1517924361492",
    "parent_node_id": "1517240214286",
    "dcr_id": "1517867394365",
    "landingPageUrl": {
        "en": "1517867394365",
        "fr": "1517867394365"
    },
    "title": {
        "en": "AgriAssurance Program: Small and Medium Enterprises Component \u2013 Applicant guide",
        "fr": "Programme Agri-assurance : Volet Petites et moyennes entreprises \u2013 Guide du demandeur"
    },
    "breadcrumb": {
        "en": "AgriAssurance Program: Small and Medium Enterprises Component \u2013 Applicant guide",
        "fr": "Programme Agri-assurance : Volet Petites et moyennes entreprises \u2013 Guide du demandeur"
    },
    "type": "find_people",
    "meta": {
        "issued": {
            "en": "2018-02-13",
            "fr": "2018-02-13"
        },
        "modified": {
            "en": "2018-04-23",
            "fr": "2018-04-23"
        },
        "format": {
            "en": "text/html",
            "fr": "text/html"
        },
        "title": {
            "en": "AgriAssurance:  Small and Medium-sized Enterprise Component:  Applicant guide",
            "fr": "Programme Agri-assurance : Volet Petites et moyennes entreprises : Guide du demandeur"
        },
        "subject": {
            "en": "architectural heritage;architecture;statistics",
            "fr": "commerce ext\u00e9rieur;engrais;b\u00e2timent"
        },
        "description": {
            "en": "Applicant Guide. Step 1.What this program offers. website.The AgriAssurance Small and Medium-sized Enterprise Component is a program under the Canadian Agricultural Partnership.1.1 About the AgriAssurance Small and Medium-sized Enterprise Component. travelling to enable the certification. To be eligible, a project must be aimed at meeting actual market-specific certification requirements.",
            "fr": "Guide du demandeur. \u00c9tape 1.Ce qu'offre ce programme. \u00c9tape 1\u00a0: Pr\u00e9s\u00e9lection. Objectif du programme. Ce programme fournit des contributions remboursables pour des projets qui visent \u00e0 acc\u00e9l\u00e9rer la d\u00e9monstration, la commercialisation et/ou l\u2019adoption de produits, de technologies, de proc\u00e9d\u00e9s ou de services agro-industriels innovateurs dans le secteur des produits agricoles, agroalimentaires et agro-industriels (\u00e0 valeur ajout\u00e9e) afin d\u2019accro\u00eetre la comp\u00e9titivit\u00e9 et la durabilit\u00e9 du secteur.D\u00e9finition de l\u2019innovation."
        },
        "language": {
            "en": "eng",
            "fr": "fra"
        },
        "keywords": {
            "en": "Component.Provide",
            "fr": "vers\u00e9.Quelle;vente.Produits;r\u00e9colt\u00e9es.Les avoirs"
        },
        "audience": {
            "en": "gcaudience",
            "fr": "gcaudience"
        },
        "type": {
            "en": "presentation",
            "fr": "avis"
        },
        "creator": {
            "en": "Agriculture and Agri-Food Canada;Government of Canada",
            "fr": "Agriculture et Agroalimentaire Canada;Gouvernement du Canada"
        },
        "spatial": {
            "en": "gcregions",
            "fr": "gcregions"
        },
        "service": {
            "en": "AAFC-AAC",
            "fr": "AAFC-AAC"
        },
        "accessRights": {
            "en": "2",
            "fr": "2"
        },
        "legalName": {
            "en": "agriculture_and_agri_food_canada",
            "fr": "agriculture_et_agroalimentaire_canada"
        },
        "areaServed": {
            "en": "Canada",
            "fr": "Canada"
        }
    }
}