{
    "has_dcr_id": true,
    "parent_node_id": "1354137773676",
    "node_id": "1517240181254",
    "dcr_id": "1515010952950",
    "landingPageUrl": {
        "en": "1515010952950",
        "fr": "1522072838788"
    },
    "parent_page": {
        "en": "1362151577626",
        "fr": "1362151577626"
    },
    "title": {
        "en": "AgriAssurance Program: National Industry Association Component - 1. What this program offers",
        "fr": "Agri-risques : Volet de renforcement des capacit\u00e9s administratives"
    },
    "breadcrumb": {
        "en": "AgriAssurance Program: National Industry Association Component - 1. What this program offers",
        "fr": "Agri-risques : Volet de renforcement des capacit\u00e9s administratives"
    },
    "temptype": "news",
    "meta": {
        "issued": {
            "en": "2018-02-13",
            "fr": "2018-02-13"
        },
        "modified": {
            "en": "2018-02-13",
            "fr": "2018-02-13"
        },
        "format": {
            "en": "text/html",
            "fr": "text/html"
        },
        "title": {
            "en": "AgriAssurance Program: National Industry Association Component: Step 1. What this program offers",
            "fr": "Programme Agri-assurance : Volet Associations nationales de l'industrie : \u00c9tape 1. Ce qu'offre ce programme"
        },
        "subject": {
            "en": "architectural heritage;architecture;statistics",
            "fr": "d\u00e9veloppement \u00e9conomique;consultation;commerce ext\u00e9rieur"
        },
        "description": {
            "en": "1.What this program offers. 2.Who is eligible. Program Objective. The AgriAssurance Small and Medium-sized Enterprise (SME) Component provides targeted support to companies to help implement third-party assurance certification projects that address international market requirements, thus helping expand export opportunities for Canadian agricultural and agri-food products.(There is a separate application process for the AgriAssurance National Industry Association Component that provides funding to not-for-profit organizations to help industry develop and adopt systems, standards and tools to support health, safety and quality claims about Canadian agricultural and agri-food products.). 1.2 Eligible applicants. Funding will not be made available if there is no such certification requirement by the target market.In addition, support will not be available for projects to renew a third-party certification.1.5 Application deadlines.",
            "fr": "5. Guide du demandeur. 1.Que comprend ce service. Pour \u00eatre admissibles, les demandeurs doivent \u00eatre des entit\u00e9s juridiques habilit\u00e9es \u00e0 conclure des ententes ayant force ex\u00e9cutoire.Employeurs admissibles. , ou moyennant l'autorisation expresse du demandeur.4.0 \u00c9valuation et approbation."
        },
        "language": {
            "en": "eng",
            "fr": "fra"
        },
        "keywords": {
            "en": "allocated.Projects",
            "fr": "Canada.Projets"
        },
        "audience": {
            "en": "gcaudience",
            "fr": "gcaudience"
        },
        "type": {
            "en": "presentation",
            "fr": "\u00e9valuation"
        },
        "creator": {
            "en": "Agriculture and Agri-Food Canada;Government of Canada",
            "fr": "Agriculture et Agroalimentaire Canada;Gouvernement du Canada"
        },
        "spatial": {
            "en": "gcregions",
            "fr": "gcregions"
        },
        "service": {
            "en": "AAFC-AAC",
            "fr": "AAFC-AAC"
        },
        "accessRights": {
            "en": "2",
            "fr": "2"
        },
        "legalName": {
            "en": "agriculture_and_agri_food_canada",
            "fr": "agriculture_et_agroalimentaire_canada"
        },
        "areaServed": {
            "en": "Canada",
            "fr": "Canada"
        }
    }
}