{
    "has_dcr_id": true,
    "parent_node_id": "1354137773676",
    "node_id": "1517240276734",
    "dcr_id": "1517335776475",
    "landingPageUrl": {
        "en": "1517335776475",
        "fr": "1516993063537"
    },
    "parent_page": {
        "en": "1362151577626",
        "fr": "1362151577626"
    },
    "title": {
        "en": "AgriCompetitiveness Program",
        "fr": "Agri-science - volet projets"
    },
    "breadcrumb": {
        "en": "AgriCompetitiveness Program",
        "fr": "Agri-science - volet projets"
    },
    "temptype": "hr",
    "meta": {
        "issued": {
            "en": "2018-02-13",
            "fr": "2018-02-13"
        },
        "modified": {
            "en": "2020-09-16",
            "fr": "2020-09-16"
        },
        "format": {
            "en": "text/html",
            "fr": "text/html"
        },
        "title": {
            "en": "AgriCompetitiveness Program: Step 1. What this program offers",
            "fr": "Programme Agri-comp\u00e9titivit\u00e9 : \u00c9tape 1. Ce qu\u2019offre ce programme "
        },
        "subject": {
            "en": "architectural heritage;architecture;statistics",
            "fr": "gestion des terres;m\u00e9dicament;technologie agricole"
        },
        "description": {
            "en": "Purpose of this Guide. This guide will:Help you determine if you may be eligible for funding from Agriculture and Agri-Food Canada (AAFC) under the AgriCompetitiveness Program.Provide you with directions and explanations to assist you in completing the project application form.Your completed application form will provide AAFC with the information needed to make decisions about eligibility and funding. AgriCompetitiveness programming will assist industry-led efforts to provide producers with information needed to build capacity and support the sector\u2019s development. For more information and details on cost categories, eligible/ineligible costs and other limitations, refer to section 1.2.7 of Annex A: How to apply.1.4 Eligible activities.",
            "fr": "Formats de rechange. Agriculture et Agroalimentaire Canada. L'honorable Gerry Ritz, C.P., d\u00e9put\u00e9. Le ministre de l'Agriculture et de l'Agroalimentaire. Le\u00e7ons retenues. R\u00e9sultat strat\u00e9gique n\u00b0 3\u00a0: Un secteur innovateur de l'agriculture, de l'agroalimentaire et des produits agro-industriels. Nous avons rouvert le commerce de la viande bovine avec la Chine et la Cor\u00e9e du Sud, qui est le dernier grand march\u00e9 d'Asie \u00e0 rouvrir ses portes apr\u00e8s les fermetures de fronti\u00e8res attribuables \u00e0 la d\u00e9couverte de cas d'enc\u00e9phalopathie spongiforme bovine (ESB) il y a neuf ans.Tout en d\u00e9fendant le syst\u00e8me de gestion de l'offre du Canada et en veillant \u00e0 ce que nos partenaires commerciaux respectent les r\u00e8gles scientifiques, nous cherchons \u00e0 conclure des accords de libre-\u00e9change (ALE) bilat\u00e9raux et multilat\u00e9raux dans le cadre de notre plan ambitieux de libre-\u00e9change."
        },
        "language": {
            "en": "eng",
            "fr": "fra"
        },
        "keywords": {
            "en": null,
            "fr": "ans.Tout"
        },
        "audience": {
            "en": "gcaudience",
            "fr": "gcaudience"
        },
        "type": {
            "en": "presentation",
            "fr": "foire aux questions"
        },
        "creator": {
            "en": "Agriculture and Agri-Food Canada;Government of Canada",
            "fr": "Agriculture et Agroalimentaire Canada;Gouvernement du Canada"
        },
        "spatial": {
            "en": "gcregions",
            "fr": "gcregions"
        },
        "service": {
            "en": "AAFC-AAC",
            "fr": "AAFC-AAC"
        },
        "accessRights": {
            "en": "2",
            "fr": "2"
        },
        "legalName": {
            "en": "agriculture_and_agri_food_canada",
            "fr": "agriculture_et_agroalimentaire_canada"
        },
        "areaServed": {
            "en": "Canada",
            "fr": "Canada"
        }
    }
}