{
    "has_dcr_id": true,
    "node_id": "1518191760907",
    "parent_node_id": "1517240289174",
    "dcr_id": "1517321117265",
    "landingPageUrl": {
        "en": "1517321117265",
        "fr": "1517321117265"
    },
    "title": {
        "en": "AgriInnovate Program - Guide annexes",
        "fr": "Programme Agri-innover \u2013 Annexes du guide"
    },
    "breadcrumb": {
        "en": "AgriInnovate Program - Guide annexes",
        "fr": "Programme Agri-innover \u2013 Annexes du guide"
    },
    "type": "our_dept",
    "meta": {
        "issued": {
            "en": "2018-02-13",
            "fr": "2018-02-13"
        },
        "modified": {
            "en": "2020-06-29",
            "fr": "2020-06-29"
        },
        "format": {
            "en": "text/html",
            "fr": "text/html"
        },
        "title": {
            "en": "AgriInnovate Program - Applicant guide annexes",
            "fr": "Programme Agri-innover \u2013 Annexes du guide du demandeur"
        },
        "subject": {
            "en": "statistics;architectural heritage;architecture",
            "fr": "commerce ext\u00e9rieur;engrais;b\u00e2timent"
        },
        "description": {
            "en": "Applicant guide. 1.What this program offers. 2.Who is eligible. 1.0 Canadian Agricultural Partnership. The Canadian Agricultural Partnership is a five-year, $3\u00a0billion investment by federal, provincial and territorial governments to strengthen the agriculture, agri-food and agri-based products sector. They can include:Businesses and/or corporations. Co-operatives.",
            "fr": "Guide du demandeur. 1.Ce qu'offre ce programme. \u00c9tape 2\u00a0: Pr\u00e9sentation d\u2019une demande. Objectif du programme. Ce programme fournit des contributions remboursables pour des projets qui visent \u00e0 acc\u00e9l\u00e9rer la d\u00e9monstration, la commercialisation et/ou l\u2019adoption de produits, de technologies, de proc\u00e9d\u00e9s ou de services agro-industriels innovateurs dans le secteur des produits agricoles, agroalimentaires et agro-industriels (\u00e0 valeur ajout\u00e9e) afin d\u2019accro\u00eetre la comp\u00e9titivit\u00e9 et la durabilit\u00e9 du secteur.D\u00e9finition de l\u2019innovation."
        },
        "language": {
            "en": "eng",
            "fr": "fra"
        },
        "keywords": {
            "en": null,
            "fr": null
        },
        "audience": {
            "en": "gcaudience",
            "fr": "gcaudience"
        },
        "type": {
            "en": "fact sheet",
            "fr": "avis"
        },
        "creator": {
            "en": "Agriculture and Agri-Food Canada;Government of Canada",
            "fr": "Agriculture et Agroalimentaire Canada;Gouvernement du Canada"
        },
        "spatial": {
            "en": "gcregions",
            "fr": "gcregions"
        },
        "service": {
            "en": "AAFC-AAC",
            "fr": "AAFC-AAC"
        },
        "accessRights": {
            "en": "2",
            "fr": "2"
        },
        "legalName": {
            "en": "agriculture_and_agri_food_canada",
            "fr": "agriculture_et_agroalimentaire_canada"
        },
        "areaServed": {
            "en": "Canada",
            "fr": "Canada"
        }
    }
}