{
    "has_dcr_id": true,
    "parent_node_id": "1354137773676",
    "node_id": "1521128722586",
    "dcr_id": "1521202868490",
    "landingPageUrl": {
        "en": "1521202868490",
        "fr": "1511185929317"
    },
    "parent_page": {
        "en": "1362151577626",
        "fr": "1362151577626"
    },
    "title": {
        "en": "Agricultural Clean Technology Program",
        "fr": "Agri-science - volet grappes"
    },
    "breadcrumb": {
        "en": "Agricultural Clean Technology Program",
        "fr": "Agri-science - volet grappes"
    },
    "temptype": "find_people",
    "meta": {
        "issued": {
            "en": "2018-03-19",
            "fr": "2018-03-19"
        },
        "modified": {
            "en": "2020-05-26",
            "fr": "2020-05-26"
        },
        "format": {
            "en": "text/html",
            "fr": "text/html"
        },
        "title": {
            "en": "Agricultural Clean Technology Program: Step 1. What this program offers",
            "fr": "Programme des technologies propres en agriculture : \u00c9tape 1. Ce qu\u2019offre ce programme"
        },
        "subject": {
            "en": "statistics;architectural heritage;architecture",
            "fr": "entreprise;actif;engrais"
        },
        "description": {
            "en": "Alternative Formats. International Standard Serial Number: 2292-1524. Sub-Program 2.1.6: Federal-Provincial-Territorial Cost-shared Environment. Agriculture and Agri-Food Canada provides leadership in the growth and development of a competitive, innovative and sustainable Canadian agriculture and agri-food sector.Responsibilities.",
            "fr": "Guide du demandeur. \u00c9tape 1.Ce qu\u2019offre ce programme. Le Partenariat canadien pour l\u2019agriculture repr\u00e9sente un investissement de trois milliards de dollars r\u00e9parti sur cinq ans r\u00e9alis\u00e9 par les gouvernements f\u00e9d\u00e9ral, provinciaux et territoriaux pour renforcer le secteur de l\u2019agriculture, de l\u2019agroalimentaire et des produits agro-industriels. Elles doivent compter au plus 250\u00a0employ\u00e9s et leur chiffre d\u2019affaires annuel ne doit pas exc\u00e9der 50\u00a0millions de dollars.Toute PME constitu\u00e9e l\u00e9galement de fa\u00e7on ind\u00e9pendante et r\u00e9pondant aux crit\u00e8res d\u2019admissibilit\u00e9 peut pr\u00e9senter une demande; toutefois, lors de l\u2019examen des demandes, la priorit\u00e9 peut \u00eatre accord\u00e9e aux organisations qui ne sont pas des filiales ou des membres d\u2019un groupe d\u2019entreprises plus important.Bien que les d\u00e9cisions soient prises au cas par cas, les repr\u00e9sentants de tierces parties, comme les maisons de commerce, les courtiers en exportation, les agents ou les promoteurs, ne sont g\u00e9n\u00e9ralement pas admissibles au volet\u00a0PME."
        },
        "language": {
            "en": "eng",
            "fr": "fra"
        },
        "keywords": {
            "en": "AAFC-led;Partner-led;Canadians.Program",
            "fr": "dAgri-marketing;Agri-innover.vous"
        },
        "audience": {
            "en": "gcaudience",
            "fr": "gcaudience"
        },
        "type": {
            "en": "sound",
            "fr": "accord"
        },
        "creator": {
            "en": "Agriculture and Agri-Food Canada;Government of Canada",
            "fr": "Agriculture et Agroalimentaire Canada;Gouvernement du Canada"
        },
        "spatial": {
            "en": "gcregions",
            "fr": "gcregions"
        },
        "service": {
            "en": "AAFC-AAC",
            "fr": "AAFC-AAC"
        },
        "accessRights": {
            "en": "2",
            "fr": "2"
        },
        "legalName": {
            "en": "agriculture_and_agri_food_canada",
            "fr": "agriculture_et_agroalimentaire_canada"
        },
        "areaServed": {
            "en": "Canada",
            "fr": "Canada"
        }
    }
}