{
    "has_dcr_id": true,
    "node_id": "1594037384895",
    "parent_node_id": "1594037318839",
    "dcr_id": "1365097663644",
    "landingPageUrl": {
        "en": "1365097663644",
        "fr": "1365097663644"
    },
    "title": {
        "en": "AgriStability: Resources",
        "fr": "Agri-stabilit\u00e9  :  Ressources"
    },
    "breadcrumb": {
        "en": "AgriStability: Resources",
        "fr": "Agri-stabilit\u00e9  :  Ressources"
    },
    "type": "our_dept",
    "meta": {
        "issued": {
            "en": "2020-07-13",
            "fr": "2020-07-13"
        },
        "modified": {
            "en": "2020-12-21",
            "fr": "2020-12-21"
        },
        "format": {
            "en": "text/html",
            "fr": "text/html"
        },
        "title": {
            "en": "AgriStability:  Resources",
            "fr": "Agri-stabilit\u00e9  :  Ressources"
        },
        "subject": {
            "en": "meat;architectural heritage;architecture",
            "fr": "g\u00e9n\u00e9tique;environnement;changement climatique"
        },
        "description": {
            "en": "Applicant guide. Step 1.What this program offers. 12.8 Collection and use of Applicant's Business Information. 2.0 Are you eligible?Applicants must ensure that they meet all eligibility criteria before applying.Under DFIP Phase 2,eligible applicants.",
            "fr": "30 mars 2017. Table des Mati\u00e8res. Tableau 12 \u2013 Types de syst\u00e8mes avanc\u00e9s ou achev\u00e9s. Tableau 13 \u2013 Modifications au Protocole d'entente sur l'expertise technique d'Agriculture et Agroalimentaire Canada et de l'Agence canadienne d'inspection des aliments. Programme de reconnaissance de la salubrit\u00e9 des aliments."
        },
        "language": {
            "en": "eng",
            "fr": "fra"
        },
        "keywords": {
            "en": "disabilities.The;A.Funding",
            "fr": "handicap\u00e9s.Le;doutils.Le"
        },
        "audience": {
            "en": "gcaudience",
            "fr": "gcaudience"
        },
        "type": {
            "en": "fact sheet",
            "fr": "description du programme ou du service"
        },
        "creator": {
            "en": "Agriculture and Agri-Food Canada;Government of Canada",
            "fr": "Agriculture et Agroalimentaire Canada;Gouvernement du Canada"
        },
        "spatial": {
            "en": "gcregions",
            "fr": "gcregions"
        },
        "service": {
            "en": "AAFC-AAC",
            "fr": "AAFC-AAC"
        },
        "accessRights": {
            "en": "2",
            "fr": "2"
        },
        "legalName": {
            "en": "agriculture_and_agri_food_canada",
            "fr": "agriculture_et_agroalimentaire_canada"
        },
        "areaServed": {
            "en": "Canada",
            "fr": "Canada"
        }
    }
}