{
    "has_dcr_id": true,
    "node_id": "1599569738538",
    "parent_node_id": "1599569604306",
    "dcr_id": "1598878513016",
    "landingPageUrl": {
        "en": "1598878513016",
        "fr": "1598878513016"
    },
    "parent_dcr_id": "1584732749543",
    "breadcrumb": {
        "en": "Checklist for the control of COVID-19 in agricultural facilities",
        "fr": "Checklist for the control of COVID-19 in agricultural facilities"
    },
    "node_title": {
        "en": "Checklist for the control of COVID-19 in agricultural facilities",
        "fr": "Checklist for the control of COVID-19 in agricultural facilities"
    },
    "title": {
        "en": "Checklist for the control of COVID-19 in agricultural facilities",
        "fr": "Checklist for the control of COVID-19 in agricultural facilities"
    },
    "type": "Help",
    "meta": {
        "issued": {
            "en": "2020-09-04",
            "fr": "2020-09-04"
        },
        "modified": {
            "en": "2020-09-08",
            "fr": "2020-09-08"
        },
        "format": {
            "en": "text/html",
            "fr": "text/html"
        },
        "title": {
            "en": "Checklist for the control of COVID-19 in agricultural facilities",
            "fr": "Liste de v\u00e9rification pour le contr\u00f4le de la COVID-19 dans les installations agricoles"
        },
        "subject": {
            "en": "architectural heritage;architecture;statistics",
            "fr": "m\u00e9dicament;horticulture;engrais"
        },
        "description": {
            "en": "Agriculture and Agri-Food Canada (AAFC) is taking action to address the challenges posed by COVID-19 (coronavirus disease). This page contains information for those in the agriculture industry (producers, processors, and agri-food businesses).Follow:Facebook. For more information, please visit. innovation.canada.ca. Students and youth. Support for Students. Other.",
            "fr": "Agriculture et Agroalimentaire Canada (AAC) met en place des mesures pour relev\u00e9 les d\u00e9fis que pose la COVID-19 (maladie \u00e0 coronavirus). Cette page contient les informations pour les producteurs, les transformateurs et autres entreprises agroalimentaire.Suivez\u00a0:Facebook. Innovation, Sciences et D\u00e9veloppement \u00e9conomique Canada a cr\u00e9\u00e9 un outil en ligne pour aider les entreprises \u00e0 trouver une liste sur mesure de programmes et de services gouvernementaux. Aide d\u2019urgence du Canada pour le loyer commercial."
        },
        "language": {
            "en": "eng",
            "fr": "fra"
        },
        "keywords": {
            "en": "investments.All",
            "fr": "cultiv\u00e9s.D"
        },
        "audience": {
            "en": "gcaudience",
            "fr": "gcaudience"
        },
        "type": {
            "en": "contact information",
            "fr": "foire aux questions"
        },
        "creator": {
            "en": "Agriculture and Agri-Food Canada;Government of Canada",
            "fr": "Agriculture et Agroalimentaire Canada;Gouvernement du Canada"
        },
        "spatial": {
            "en": "gcregions",
            "fr": "gcregions"
        },
        "service": {
            "en": "AAFC-AAC",
            "fr": "AAFC-AAC"
        },
        "accessRights": {
            "en": "2",
            "fr": "2"
        },
        "legalName": {
            "en": "agriculture_and_agri_food_canada",
            "fr": "agriculture_et_agroalimentaire_canada"
        },
        "areaServed": {
            "en": "Canada",
            "fr": "Canada"
        }
    }
}