{
    "dcr_id": "1595941895308",
    "title": {
        "en": "Consultation on regulatory classification of products containing acid based products intended for livestock species: Closed consultation",
        "fr": "Consultation sur la classification r\u00e9glementaire des produits \u00e0 base d'acide contenant destin\u00e9s \u00e0 des animaux de ferme\u00a0: Consultation ferm\u00e9e"
    },
    "html_modified": "2024-02-13 9:54:40 AM",
    "modified": "2022-11-17",
    "issued": "2020-08-05",
    "teamsite_location": {
        "en": "/default/main/inspection/cont-cont/aboutcfia-sujetacia/STAGING/templatedata/comn-comn/gene-gene/data/reg_cnsltn_acd_bsd_prdcts_1595941895308_eng",
        "fr": "/default/main/inspection/cont-cont/aboutcfia-sujetacia/STAGING/templatedata/comn-comn/gene-gene/data/reg_cnsltn_acd_bsd_prdcts_1595941895308_fra"
    },
    "ia_id": "1595941895855",
    "parent_ia_id": "1330978369105",
    "chronicletopic": {
        "en": "",
        "fr": ""
    },
    "chroniclecontent": {
        "en": "",
        "fr": ""
    },
    "chronicleaudience": {
        "en": "",
        "fr": ""
    },
    "sfcrdocumenttype": {
        "en": "",
        "fr": ""
    },
    "sfcraudience": {
        "en": "",
        "fr": ""
    },
    "sfcrmethodofproduction": {
        "en": "",
        "fr": ""
    },
    "activity": {
        "en": "",
        "fr": ""
    },
    "commodity": {
        "en": "",
        "fr": ""
    },
    "program": {
        "en": "",
        "fr": ""
    },
    "search_type": "other",
    "parent_node_id": "1330978369105",
    "layout_name": "content page 1 column",
    "breadcrumb": {
        "en": "Consultation on regulatory classification of products containing acid based products intended for livestock species: Closed consultation",
        "fr": "Consultation sur la classification r\u00e9glementaire des produits \u00e0 base d'acide contenant destin\u00e9s \u00e0 des animaux de ferme\u00a0: Consultation ferm\u00e9e"
    },
    "label": {
        "en": "Consultation on regulatory classification of products containing acid based products intended for livestock species: Closed consultation",
        "fr": "Consultation sur la classification r\u00e9glementaire des produits \u00e0 base d'acide contenant destin\u00e9s \u00e0 des animaux de ferme\u00a0: Consultation ferm\u00e9e"
    },
    "templatetype": "content page 1 column",
    "node_id": "1595941895855",
    "managing_branch": "comn",
    "type_name": "sitemapinit",
    "dcr_type": "gene-gene",
    "parent_dcr_id": "1330978174872",
    "orig_type_name": "sitemapinit",
    "has_dcr_id": true,
    "lang": "en",
    "could_not_load": 0,
    "refaire": false,
    "interwoven_url": {
        "en": "/about-the-cfia/transparency/consultations-and-engagement/completed/regulatory-classification-of-products/",
        "fr": "/a-propos-de-l-acia/transparence/consultations-et-participation/terminees/classification-reglementaire-des-produits/"
    },
    "meta": {
        "viewport": {
            "en": "width=device-width,initial-scale=1",
            "fr": "width=device-width,initial-scale=1"
        },
        "service": {
            "en": "CFIA-ACIA",
            "fr": "CFIA-ACIA"
        },
        "accessRights": {
            "en": "2",
            "fr": "2"
        },
        "title": {
            "en": "Consultation on regulatory classification of products containing acid based products intended for livestock species: Closed consultation",
            "fr": "Consultation sur la classification r\u00e9glementaire des produits \u00e0 base d'acide contenant destin\u00e9s \u00e0 des animaux de ferme\u00a0: Consultation ferm\u00e9e"
        },
        "description": {
            "en": "The Canadian Food Inspection Agency (CFIA) and Health Canada (HC) has launched a 60-day consultation period from July 30, 2020 to September 30, 2020, to seek feedback on proposed classification criteria for Acid Based Products (ABPs) intended for oral administration to livestock species.",
            "fr": "L'Agence canadienne d'inspection des aliments (ACIA) et Sant\u00e9 Canada ont lanc\u00e9 un processus de consultation de 60 jours, du 30 juillet 2020 au 30 septembre 2020, afin de recueillir des commentaires sur les crit\u00e8res propos\u00e9s pour classifier les produits contenant des produits \u00e0 base d\u2019acide destin\u00e9s aux animaux de ferme."
        },
        "keywords": {
            "en": "consultations, regulatory classifications, acid based products, livestock",
            "fr": "Consultation, classification r\u00e9glementaire, produits \u00e0 base d\u2019acide, animaux"
        },
        "dcterms.subject": {
            "en": "consumer protection,consumers,food safety,government information,government publication,inspection",
            "fr": "protection du consommateur,consommateur,salubrit\u00e9 des aliments,information gouvernementale,publication gouvernementale,inspection"
        },
        "creator": {
            "en": "Government of Canada,Canadian Food Inspection Agency",
            "fr": "Gouvernement du Canada,Agence canadienne d'inspection des aliments"
        },
        "language": {
            "en": "eng",
            "fr": "fra"
        },
        "issued": {
            "en": "2020-08-05",
            "fr": "2020-08-05"
        },
        "modified": {
            "en": "2022-11-17",
            "fr": "2022-11-17"
        },
        "type": {
            "en": "reference material",
            "fr": "mat\u00e9riel de r\u00e9f\u00e9rence"
        },
        "audience": {
            "en": "business,general public,government",
            "fr": "entreprises,grand public,gouvernement"
        },
        "name": {
            "en": "Government of Canada",
            "fr": "Gouvernement du Canada"
        },
        "areaServed": {
            "en": "Canada",
            "fr": "Canada"
        }
    },
    "h1": {
        "en": "Archived - Consultation on regulatory classification of products containing acid based products intended for livestock species: Closed consultation",
        "fr": "Archiv\u00e9e - Consultation sur la classification r\u00e9glementaire des produits \u00e0 base d'acide contenant destin\u00e9s \u00e0 des animaux de ferme\u00a0: Consultation ferm\u00e9e"
    },
    "body": {
        "en": "        \r\n        \n<section id=\"archived\" class=\"alert alert-warning wb-inview\" data-inview=\"archived-bnr\">\r\n<h2>This page has been archived</h2>\r\n<p>Information identified as archived is provided for reference, research or record-keeping purposes. It is not subject to the Government of Canada Web Standards and has not been altered or updated since it was archived. Please contact us to request a format other than those available.</p>\r\n</section>\r\n\r\n<section id=\"archived-bnr\" class=\"wb-overlay modal-content overlay-def wb-bar-t\">\r\n<header>\r\n<h2 class=\"wb-inv\">Archived</h2>\r\n</header>\r\n<p><a href=\"#archived\">This page has been archived.</a></p>\r\n</section>\r\n\r\n<section class=\"alert alert-warning\">  \n<h2>Current status: Closed</h2>\n<p>This consultation ran from August 5, 2020 to October 5, 2020.</p>\n</section>\n\n<h2>About the consultation</h2>\n\n<p>The purpose of this  consultation was to seek feedback on <a href=\"/about-the-cfia/transparency/consultations-and-engagement/completed/regulatory-classification-of-products/acid-based-products/eng/1595950893703/1595950894099\">Appendix  E-3: Acid Based Products (ABPs)</a> intended for oral administration to livestock species.  The document was\u00a0a proposed addition to the  joint Canadian Food Inspection Agency and Health Canada's <a href=\"https://www.canada.ca/en/health-canada/services/drugs-health-products/veterinary-drugs/legislation-guidelines/guidance-documents/guidance-document-classification-veterinary-drugs-livestock-feeds.html\">Guidance  document on classification of veterinary drugs and livestock feeds</a>.</p>\n\n<p>Acid Based Products (ABP) and their salts, often referred to as acidifiers, are products that contain one or more substances with acidic properties. They have a recognized use in feeds to reduce the pH of solid feed and for use as preservatives in solid and liquid feed (for example, milk replacers). As new uses of these products have emerged, this Appendix served to provide guidance and clarification concerning the classification of ABP intended for oral use in livestock between veterinary drugs, including veterinary health products, and livestock feeds.</p>\n\n<h2>Who was the focus of this consultation</h2>\n\n<p>The Government of Canada engaged with all animal feed stakeholders, including:</p>\n\n<ul class=\"lst-spcd\">\n<li>pharmaceutical companies</li>\n<li>livestock feed manufacturers</li>\n<li>livestock owners and producers</li>\n<li>producer association groups</li>\n<li>veterinary associations</li>\n<li>other government agencies</li>\n</ul>\n\n<p>All comments were welcome from industry, governments, the public, or other organizations or individuals.</p>\n\n\n<h2>Key questions for discussion</h2>\n\n<p>Ideas and input were sought around the proposed classification of acid based products for livestock species, including:</p>\n\n<ul class=\"lst-spcd\">\n<li>if  the overall classification document was clear and if there were any elements which would require further clarification</li>\n<li>if there was any criteria which may reflect on the safety or efficacy of products that were missed</li>\n</ul>\n\n<h2>What we heard</h2>\n\n<h3>Final report</h3>\n\n<ul>\n<li><a href=\"/about-the-cfia/transparency/consultations-and-engagement/completed/regulatory-classification-of-products/what-we-heard/eng/1668525675368/1668525676009\">What We Heard report\u00a0\u2013 Appendix E-3: Acid-based products (ABPs)</a></li>\n</ul>\n\n<h2>Related information</h2>\n\n<ul>\n<li><a href=\"/english/reg/jredirect2.shtml?feebetr\"><i>Feeds Regulations</i></a></li>\n<li><a href=\"/english/reg/jredirect2.shtml?feebeta\"><i>Feeds Act</i></a></li>\n<li><a href=\"/about-the-cfia/transparency/consultations-and-engagement/eng/1566414558282/1566414728048\">CFIA Consultations</a></li>\n</ul>\n\n<h2 id=\"contact\">Contact us</h2>\n\n<p>Catherine Italiano<br>\n<br>\n<br>\n<br>\n</p>\n\n<p>Email: <a href=\"mailto:catherine.italiano@inspection.gc.ca\" class=\"nowrap\">catherine.italiano@inspection.gc.ca</a><br>\n</p>\r\n        \r\n\r\n\r\n\r\n<div class=\"row\">\r\n \r\n\t\r\n\t\t\t\r\n\r\n<div class=\"col-xm-12 pagedetails container\">\r\n\t\t\t\t\r\n\r\n</div>\r\n\t\r\n</div>",
        "fr": "\r\n        \r\n        \n<section id=\"archived\" class=\"alert alert-warning wb-inview\" data-inview=\"archived-bnr\">\r\n<h2>Cette page a \u00e9t\u00e9 archiv\u00e9e</h2>\r\n<p>L'information dont il est indiqu\u00e9 qu'elle est archiv\u00e9e est fournie \u00e0 des fins de r\u00e9f\u00e9rence, de recherche ou de tenue de documents. Elle n'est pas assujettie aux normes Web du gouvernement du Canada et elle n'a pas \u00e9t\u00e9 modifi\u00e9e ou mise \u00e0 jour depuis son archivage. Pour obtenir cette information dans un autre format, veuillez communiquer avec nous.</p>\r\n</section>\r\n\r\n<section id=\"archived-bnr\" class=\"wb-overlay modal-content overlay-def wb-bar-t\">\r\n<header>\r\n<h2 class=\"wb-inv\">Archiv\u00e9e</h2>\r\n</header>\r\n<p><a href=\"#archived\">Cette page a \u00e9t\u00e9 archiv\u00e9e.</a></p>\r\n</section><section class=\"alert alert-warning\">  \n<h2>\u00c9tat actuel\u00a0: Ferm\u00e9</h2>\n<p>Cette consultation a eu lieu du  5 ao\u00fbt 2020 au 5 octobre 2020.</p>\n</section>\n\n\n<h2>\u00c0 propos de la consultation</h2>\n\n<p>Cette consultation visait  \u00e0 recueillir des commentaires sur l'<a href=\"/a-propos-de-l-acia/transparence/consultations-et-participation/terminees/classification-reglementaire-des-produits/produits-a-base-d-acide/fra/1595950893703/1595950894099\">Annexe E-3\u00a0: Produits \u00e0 base d'acide</a>, qui comprenait des  crit\u00e8res propos\u00e9s pour classifier les produits contenant des produits \u00e0 base  d'acide destin\u00e9s aux animaux de ferme. \u00a0Le document \u00e9tait  un ajout propos\u00e9 \u00a0au <a href=\"https://www.canada.ca/fr/sante-canada/services/medicaments-produits-sante/medicaments-veterinaires/legislation-lignes-directrices/lignes-directrices/document-orientation-classification-medicaments-veterinaires-aliments-betail.html\">Document d'orientation sur la classification des  m\u00e9dicaments v\u00e9t\u00e9rinaires et des aliments du b\u00e9tail</a> de l'Agence  canadienne d'inspection des aliments (ACIA) et de Sant\u00e9 Canada. </p>\n\n<p>Les produits \u00e0 base d'acide et leurs sels (que l'on qualifie souvent d'\u00ab\u00a0acidifiers\u00a0\u00bb) sont des produits qui contiennent une ou des substances pr\u00e9sentant des propri\u00e9t\u00e9s acides. Ils ont l'usage a \u00e9t\u00e9 reconnu dans les aliments pour la r\u00e9duction du pH des aliments solides et pour la conservation des aliments solides et liquides (dans le lait de remplacement, par exemple). Alors que de nouvelles utilisations de ces produits ont \u00e9merg\u00e9, l'annexe visait \u00e0 fournir des directives et des pr\u00e9cisions sur la classification des produits \u00e0 base d'acide administr\u00e9s par voie orale et destin\u00e9s aux animaux de ferme, entre les m\u00e9dicaments v\u00e9t\u00e9rinaires, y compris les produits de sant\u00e9 animale, et aliments du b\u00e9tail.</p>\n\n<h2>Qui cette consultation visait-elle</h2>\n\n<p>Le gouvernement du Canada a engag\u00e9 tous les intervenants du secteur des aliments destin\u00e9s aux animaux, dont\u00a0:</p>\n\n<ul class=\"lst-spcd\">\n<li>entreprises pharmaceutiques;</li>\n<li>fabricants d'aliments du b\u00e9tail;</li>\n<li>les propri\u00e9taires et les producteurs des animaux de ferme;</li>\n<li>associations de producteurs;</li>\n<li>associations v\u00e9t\u00e9rinaires;</li>\n<li>autres organismes gouvernementaux.</li>\n</ul>\n\n<p>Tous les commentaires \u00e9taient les bienvenus, qu'ils venaient de l'industrie, des gouvernements, du public, d'autres organismes ou d'individus.</p>\n\n\n\n<h2>Principaux points de discussion</h2>\n\n<p>Nous avons sollicit\u00e9 vos id\u00e9es et vos commentaires sur la classification propos\u00e9e des produits contenant des produits \u00e0 base d'acide destin\u00e9s aux animaux de ferme\u00a0:</p>\n\n<ul class=\"lst-spcd\">\n<li>Si le document \u00e9tait g\u00e9n\u00e9ralement clair et s'il y avait des \u00e9l\u00e9ments qui n\u00e9cessitaient des \u00e9claircissements suppl\u00e9mentaires</li>\n<li>Si des crit\u00e8res qui pourraient influer sur l'efficacit\u00e9 ou l'innocuit\u00e9 des produits a \u00e9t\u00e9 manqu\u00e9e</li>\n</ul>\n\n<h2>Ce que nous avons entendu</h2>\n\n<h3>Rapport final</h3>\n\n<ul>\n<li><a href=\"/a-propos-de-l-acia/transparence/consultations-et-participation/terminees/classification-reglementaire-des-produits/ce-que-nous-avons-entendu/fra/1668525675368/1668525676009\">Ce que nous avons entendu\u00a0\u2013 Annexe E-3\u00a0: Produits \u00e0 base d\u2019acide (PBA)</a></li>\n</ul>\n\n<h2>Renseignements connexes</h2>\n\n<ul>\n<li><a href=\"/francais/reg/jredirect2.shtml?feebetr\"><i>R\u00e8glement sur les aliments du b\u00e9tail</i></a></li>\n<li><a href=\"/francais/reg/jredirect2.shtml?feebeta\"><i>Loi relative aux aliments du b\u00e9tail</i></a></li>\n<li><a href=\"/a-propos-de-l-acia/transparence/consultations-et-participation/fra/1566414558282/1566414728048\">Consultations de l'ACIA</a></li>\n</ul>\n\n<h2 id=\"contact\">Communiquez avec nous</h2>\n\n<p>Catherine Italiano<br>\n<br>\n<br>\n<br>\n</p>\n\n<p>Courriel\u00a0: <a href=\"mailto:catherine.italiano@inspection.gc.ca\" class=\"nowrap\">catherine.italiano@inspection.gc.ca</a><br>\n</p>\r\n        \r\n\r\n<div class=\"row\">\r\n \r\n\t\t\t\r\n\t\t\t\r\n\r\n\t\t\r\n\t\r\n</div>"
    },
    "js": {
        "en": "",
        "fr": ""
    },
    "success": true,
    "chat_wizard": false
}