{
    "dcr_id": "1642434550871",
    "title": {
        "en": "Proposed changes to the Canadian Grade Compendium: <span class=\"nowrap\">Volume 3 \u2013</span> Processed Fruit or Vegetable Products: Closed",
        "fr": "Les modifications propos\u00e9es au Recueil des normes canadiennes de <span class=\"nowrap\">classification : Volume 3 \u2013</span> Produits de fruits ou de l\u00e9gumes <span class=\"nowrap\">transform\u00e9s :</span> Consultation ferm\u00e9e"
    },
    "html_modified": "2024-02-13 9:55:36 AM",
    "modified": "2022-06-27",
    "issued": "2022-01-21",
    "teamsite_location": {
        "en": "/default/main/inspection/cont-cont/aboutcfia-sujetacia/STAGING/templatedata/comn-comn/gene-gene/data/proc_frt_veg_canadian_grade_compendium_20220121_1642434550871_eng",
        "fr": "/default/main/inspection/cont-cont/aboutcfia-sujetacia/STAGING/templatedata/comn-comn/gene-gene/data/proc_frt_veg_canadian_grade_compendium_20220121_1642434550871_fra"
    },
    "ia_id": "1642434551434",
    "parent_ia_id": "1330978369105",
    "chronicletopic": {
        "en": "",
        "fr": ""
    },
    "chroniclecontent": {
        "en": "",
        "fr": ""
    },
    "chronicleaudience": {
        "en": "",
        "fr": ""
    },
    "sfcrdocumenttype": {
        "en": "",
        "fr": ""
    },
    "sfcraudience": {
        "en": "",
        "fr": ""
    },
    "sfcrmethodofproduction": {
        "en": "",
        "fr": ""
    },
    "activity": {
        "en": "",
        "fr": ""
    },
    "commodity": {
        "en": "",
        "fr": ""
    },
    "program": {
        "en": "",
        "fr": ""
    },
    "search_type": "other",
    "parent_node_id": "1330978369105",
    "layout_name": "content page 1 column",
    "breadcrumb": {
        "en": "Proposed changes to the Canadian Grade Compendium: <span class=\"nowrap\">Volume 3 \u2013</span> Processed Fruit or Vegetable Products: Closed",
        "fr": "Les modifications propos\u00e9es au Recueil des normes canadiennes de <span class=\"nowrap\">classification : Volume 3 \u2013</span> Produits de fruits ou de l\u00e9gumes <span class=\"nowrap\">transform\u00e9s :</span> Consultation ferm\u00e9e"
    },
    "label": {
        "en": "Proposed changes to the Canadian Grade Compendium: <span class=\"nowrap\">Volume 3 \u2013</span> Processed Fruit or Vegetable Products: Closed",
        "fr": "Les modifications propos\u00e9es au Recueil des normes canadiennes de <span class=\"nowrap\">classification : Volume 3 \u2013</span> Produits de fruits ou de l\u00e9gumes <span class=\"nowrap\">transform\u00e9s :</span> Consultation ferm\u00e9e"
    },
    "templatetype": "content page 1 column",
    "node_id": "1642434551434",
    "managing_branch": "comn",
    "type_name": "sitemapinit",
    "dcr_type": "gene-gene",
    "parent_dcr_id": "1330978174872",
    "orig_type_name": "sitemapinit",
    "has_dcr_id": true,
    "lang": "en",
    "could_not_load": 0,
    "refaire": false,
    "interwoven_url": {
        "en": "/about-the-cfia/transparency/consultations-and-engagement/completed/processed-fruit-or-vegetable-products/",
        "fr": "/a-propos-de-l-acia/transparence/consultations-et-participation/terminees/produits-de-fruits-ou-de-legumes-transformes/"
    },
    "meta": {
        "viewport": {
            "en": "width=device-width,initial-scale=1",
            "fr": "width=device-width,initial-scale=1"
        },
        "service": {
            "en": "CFIA-ACIA",
            "fr": "CFIA-ACIA"
        },
        "accessRights": {
            "en": "2",
            "fr": "2"
        },
        "title": {
            "en": "Proposed changes to the Canadian Grade Compendium: Volume 3 \u2013 Processed Fruit or Vegetable Products: Closed",
            "fr": "Les modifications propos\u00e9es au Recueil des normes canadiennes de classification : Volume 3 \u2013 Produits de fruits ou de l\u00e9gumes transform\u00e9s : Consultation ferm\u00e9e"
        },
        "description": {
            "en": "The Canadian Food Inspection Agency (CFIA) is proposing, at the request of industry, to change the regulations relating to the maximum size of diced or cubed white potatoes packaged in hermetically sealed packages.",
            "fr": "L'Agence canadienne d'inspection des aliments (ACIA) propose de modifier le r\u00e8glement li\u00e9 \u00e0 la taille maximale des d\u00e9s ou des cubes de pommes de terre blanches coup\u00e9es emball\u00e9s dans un emballage herm\u00e9tiquement scell\u00e9, et ce, \u00e0 la demande de l'industrie."
        },
        "keywords": {
            "en": "information, Consultation, public, transparent government, processed fruit and vegetable, Share your thoughts, Proposed changes to the Canadian Grade Compendium, Volume 3",
            "fr": "information, Consultation, publique, transparence du gouvernement, produits de fruits ou de l\u00e9gumes transform\u00e9s, Faites-nous part de vos commentaires, Modifications propos\u00e9es au Recueil des normes canadiennes de classification, Volume 3"
        },
        "dcterms.subject": {
            "en": "consumers,government information,inspection,consumer protection,government publication,food safety",
            "fr": "consommateur,information gouvernementale,inspection,protection du consommateur,publication gouvernementale,salubrit\u00e9 des aliments"
        },
        "creator": {
            "en": "Government of Canada,Canadian Food Inspection Agency",
            "fr": "Gouvernement du Canada,Agence canadienne d'inspection des aliments"
        },
        "language": {
            "en": "eng",
            "fr": "fra"
        },
        "issued": {
            "en": "2022-01-21",
            "fr": "2022-01-21"
        },
        "modified": {
            "en": "2022-06-27",
            "fr": "2022-06-27"
        },
        "type": {
            "en": "reference material",
            "fr": "mat\u00e9riel de r\u00e9f\u00e9rence"
        },
        "audience": {
            "en": "business,government,general public",
            "fr": "entreprises,gouvernement,grand public"
        },
        "name": {
            "en": "Government of Canada",
            "fr": "Gouvernement du Canada"
        },
        "areaServed": {
            "en": "Canada",
            "fr": "Canada"
        }
    },
    "h1": {
        "en": "Proposed changes to the Canadian Grade Compendium: Volume 3 \u2013 Processed Fruit or Vegetable Products: Closed",
        "fr": "Les modifications propos\u00e9es au Recueil des normes canadiennes de classification : Volume 3 \u2013 Produits de fruits ou de l\u00e9gumes transform\u00e9s : Consultation ferm\u00e9e"
    },
    "js": {
        "en": "",
        "fr": ""
    },
    "body": {
        "en": "        \r\n        \n<h2>Current status: Closed</h2>\n\n<p>The consultation on proposed changes to the Canadian Grade  Compendium: Volume 3 \u2013 Processed Fruit or Vegetable Products relating to the  maximum size of diced or cubed white potatoes in hermetically sealed packages  is now closed. The consultation ran from January 21 to February 21, 2022.</p>\n<h2>About the consultation</h2>\n<p>The Canadian Food Inspection Agency (CFIA)  conducted a consultation to solicit comments from stakeholders and to give them  an opportunity to provide input and feedback on the proposed changes.</p>\n<p>Existing dice or cube size requirements for white potatoes packaged in hermetically sealed packages are outlined in <a href=\"/about-the-cfia/acts-and-regulations/list-of-acts-and-regulations/documents-incorporated-by-reference/canadian-grade-compendium-volume-3/eng/1522257117725/1522257118286?chap=1#s40c1\">section 40 of the \"Canadian Grade Compendium: Volume\u00a03\u00a0\u2013\u00a0Processed Fruit or Vegetable Products</a>\". The objective of the proposed changes is to reflect the following:</p>\n\n<ul>\n<li>changes in consumer demand and demographics</li>\n<li>response to market needs</li>\n<li>provide consistency for domestic manufacturers and importers of diced or cubed white potatoes packaged in hermetically sealed packages</li>\n</ul>\n\n<h2>Who was the focus of this consultation</h2>\n\n<p>The CFIA sought comments from:</p>\n\n<ul>\n<li>producers and packers</li>\n<li>individuals, businesses and organizations involved in the domestic and international supply of diced or cubed white potatoes packaged in hermetically sealed packages</li>\n<li>consumers </li>\n<li>other government departments/agencies, including provincial/territorial and municipal </li>\n<li>trading partners </li>\n</ul>\n\n<h2>Key themes for discussion</h2>\n\n<p>The CFIA sought feedback with regards to proposed changes to the maximum size of diced or cubed white potatoes packaged in hermetically sealed packages, focusing on the following key themes:</p>\n\n<ul>\n<li>current market and consumer needs</li>\n<li>harmonizing Canadian requirements with those of our trading partners</li>\n<li>potential effects on your business decisions and activities, such as human and financial resources </li>\n</ul>\n\n<h2>What we heard</h2>\n<h3>Final report</h3>\n<ul>\n<li><a href=\"/about-the-cfia/transparency/consultations-and-engagement/completed/processed-fruit-or-vegetable-products/what-we-heard-report/eng/1653510178427/1653510179083\">What we heard report\u00a0\u2013 Consultation on proposed changes to the Canadian Grade Compendium: Volume\u00a03\u00a0\u2013 Processed Fruit or Vegetable Products</a></li>\n</ul>\n\n<h2>Contact us</h2>\n\n<p>If you have any questions about this consultation, please email them to <a href=\"mailto:cfia.labellingconsultation-etiquetage.acia@inspection.gc.ca?subject=Comments%20on%20size%20of%20diced%20or%20cubed%20white%20potatoes\" class=\"nowrap\">cfia.labellingconsultation-etiquetage.acia@inspection.gc.ca</a>.</p>\r\n        \r\n\r\n\r\n\r\n<div class=\"row\">\r\n \r\n\t\r\n\t\t\t\r\n\r\n<div class=\"col-xm-12 pagedetails container\">\r\n\t\t\t\t\r\n\r\n</div>\r\n\t\r\n</div>",
        "fr": "\r\n        \r\n        \n<h2>\u00c9tat actuel\u00a0: Ferm\u00e9e</h2>\n\n<p>La consultation sur les modifications propos\u00e9es au Recueil des normes canadiennes de classification\u00a0: Volume\u00a03 \u2013 Produits de fruits ou de l\u00e9gumes transform\u00e9s concernant la taille maximale des pommes de terre blanches coup\u00e9es en d\u00e9s ou en cubes mises dans des emballages herm\u00e9tiquement scell\u00e9s est maintenant ferm\u00e9e. La consultation s'est d\u00e9roul\u00e9e du 21\u00a0janvier au 21\u00a0f\u00e9vrier\u00a02022.</p>\n<h2>\u00c0 propos de la consultation</h2>\n<p>L'Agence canadienne d'inspection des aliments (ACIA) a men\u00e9 une consultation pour solliciter les commentaires des intervenants et leur donner l'occasion de s'exprimer et de r\u00e9agir aux modifications propos\u00e9es.</p>\n<a href=\"/a-propos-de-l-acia/lois-et-reglements/liste-des-lois-et-reglements/documents-incorpores-par-renvoi/recueil-des-normes-canadiennes-de-classification-v/fra/1522257117725/1522257118286?chap=1#s40c1\">section\u00a040 du \u00ab\u00a0Recueil des normes canadiennes de classification\u00a0: Volume\u00a03 \u2013 Produits de fruits ou de l\u00e9gumes transform\u00e9s</a>\u00a0\u00bb. L'objectif des modifications propos\u00e9es est de refl\u00e9ter ce qui suit\u00a0:\n\n<ul>\n<li>l'\u00e9volution de la demande et de la d\u00e9mographie des consommateurs</li>\n<li>la r\u00e9ponse aux besoins du march\u00e9</li>\n<li>l'uniformisation des pratiques des fabricants et des importateurs de pommes de terre blanches coup\u00e9es en d\u00e9s ou en cubes qui sont emball\u00e9es dans un emballage herm\u00e9tiquement scell\u00e9.</li>\n</ul>\n\n<h2>Qui cette consultation vise-t-elle</h2>\n\n<p>L'ACIA a sollicit\u00e9 les commentaires des intervenants suivants\u00a0:</p>\n\n<ul>\n<li>des producteurs et des emballeurs</li>\n<li>des personnes, des entreprises et des organismes qui participent \u00e0 l'approvisionnement int\u00e9rieur et international de pommes de terre blanches coup\u00e9es en d\u00e9s ou en cubes qui sont emball\u00e9es dans un emballage herm\u00e9tiquement scell\u00e9</li>\n<li>des consommateurs</li>\n<li>d'autres minist\u00e8res et organismes, y compris provinciaux, territoriaux et municipaux</li>\n<li>des partenaires commerciaux</li>\n</ul>\n\n<h2>Principaux points \u00e0 envisager</h2>\n\n<p>L'ACIA a sollicit\u00e9 des commentaires sur les modifications propos\u00e9es \u00e0 la taille maximale des pommes de terre blanches coup\u00e9es en d\u00e9s ou en cubes qui sont mises dans des emballages herm\u00e9tiquement scell\u00e9s, en focalisant sur les th\u00e8mes cl\u00e9s suivants\u00a0:</p>\n\n<ul>\n<li>besoins actuels du march\u00e9 et des consommateurs</li>\n<li>harmonisation des exigences canadiennes avec celles de nos partenaires commerciaux</li>\n<li>effets possibles sur vos d\u00e9cisions et activit\u00e9s commerciales, notamment en ce qui a trait aux ressources humaines et financi\u00e8res</li>\n</ul>\n\n<h2>Ce que nous avons entendu</h2>\n<h3>Rapport final</h3>\n<ul>\n<li><a href=\"/a-propos-de-l-acia/transparence/consultations-et-participation/terminees/produits-de-fruits-ou-de-legumes-transformes/rapport-sur-ce-que-nous-avons-entendu/fra/1653510178427/1653510179083\">Rapport sur ce que nous avons entendu\u00a0\u2013 Consultation sur les changements propos\u00e9s au Recueil des normes canadiennes de classification\u00a0: Volume 3\u00a0\u2013 Produits de fruits ou de l\u00e9gumes transform\u00e9s</a></li>\n</ul>\n\n<h2>Contactez-nous</h2>\n\n<p>Si vous avez des questions sur cette consultation, veuillez les envoyer par courriel \u00e0 <a href=\"mailto:cfia.labellingconsultation-etiquetage.acia@inspection.gc.ca?subject=Commentaires%20sur%20la%20taille%20des%20d%C3%A9s%20ou%20des%20cubes%20de%20pommes%20de%20terre%20blanches%20coup%C3%A9es\" class=\"nowrap\">cfia.labellingconsultation-etiquetage.acia@inspection.gc.ca</a>.</p>\r\n        \r\n\r\n<div class=\"row\">\r\n \r\n\t\t\t\r\n\t\t\t\r\n\r\n\t\t\r\n\t\r\n</div>"
    },
    "success": true,
    "chat_wizard": false
}