{
    "dcr_id": "1329298059609",
    "title": {
        "en": "<span class=\"small\">RG-1 Regulatory guidance:</span><br>Chapter\u00a02\u00a0- Data requirements for single ingredient approval and feed registration",
        "fr": "<span class=\"small\">RG-1 Directives r\u00e9glementaires :</span><br>Chapitre\u00a02\u00a0\u2013 Exigences par rapport aux donn\u00e9es pour l'enregistrement des ingr\u00e9dients et des aliments du b\u00e9tail"
    },
    "html_modified": "2024-02-05 2:50:50 PM",
    "modified": "2023-02-24",
    "issued": "2012-02-15 04:27:43",
    "teamsite_location": {
        "en": "/default/main/inspection/cont-cont/animals-animaux/STAGING/templatedata/comn-comn/manuals-manuels/data/feeds_reg_guide_rg1_ch2_1329298059609_eng",
        "fr": "/default/main/inspection/cont-cont/animals-animaux/STAGING/templatedata/comn-comn/manuals-manuels/data/feeds_reg_guide_rg1_ch2_1329298059609_fra"
    },
    "ia_id": "1329298179464",
    "parent_ia_id": "1329109385432",
    "chronicletopic": {
        "en": "",
        "fr": ""
    },
    "chroniclecontent": {
        "en": "",
        "fr": ""
    },
    "chronicleaudience": {
        "en": "",
        "fr": ""
    },
    "sfcrdocumenttype": {
        "en": "",
        "fr": ""
    },
    "sfcraudience": {
        "en": "",
        "fr": ""
    },
    "sfcrmethodofproduction": {
        "en": "",
        "fr": ""
    },
    "activity": {
        "en": "Regulatory Guidance",
        "fr": "Directives r\u00e9glementaires"
    },
    "commodity": {
        "en": "Feeds",
        "fr": "Aliments du b\u00e9tail"
    },
    "program": {
        "en": "Animals",
        "fr": "Animaux"
    },
    "search_type": "guidancefinder",
    "parent_node_id": "1329109385432",
    "layout_name": "content page 1 column",
    "breadcrumb": {
        "en": "<span class=\"small\">RG-1 Regulatory guidance:</span><br>Chapter\u00a02\u00a0- Data requirements for single ingredient approval and feed registration",
        "fr": "<span class=\"small\">RG-1 Directives r\u00e9glementaires :</span><br>Chapitre\u00a02\u00a0\u2013 Exigences par rapport aux donn\u00e9es pour l'enregistrement des ingr\u00e9dients et des aliments du b\u00e9tail"
    },
    "label": {
        "en": "<span class=\"small\">RG-1 Regulatory guidance:</span><br>Chapter\u00a02\u00a0- Data requirements for single ingredient approval and feed registration",
        "fr": "<span class=\"small\">RG-1 Directives r\u00e9glementaires :</span><br>Chapitre\u00a02\u00a0\u2013 Exigences par rapport aux donn\u00e9es pour l'enregistrement des ingr\u00e9dients et des aliments du b\u00e9tail"
    },
    "templatetype": "content page 1 column",
    "node_id": "1329298179464",
    "managing_branch": "comn",
    "type_name": "manuals-manuels",
    "dcr_type": "manuals-manuels",
    "parent_dcr_id": "1329109265932",
    "has_dcr_id": true,
    "lang": "en",
    "could_not_load": 0,
    "refaire": false,
    "interwoven_url": {
        "en": "/animal-health/livestock-feeds/regulatory-guidance/rg-1/chapter-2/",
        "fr": "/sante-des-animaux/aliments-du-betail/directives-reglementaires/rg-1/chapitre-2/"
    },
    "meta": {
        "viewport": {
            "en": "width=device-width,initial-scale=1",
            "fr": "width=device-width,initial-scale=1"
        },
        "service": {
            "en": "CFIA-ACIA",
            "fr": "CFIA-ACIA"
        },
        "accessRights": {
            "en": "2",
            "fr": "2"
        },
        "title": {
            "en": "RG-1 Regulatory guidance:Chapter\u00a02\u00a0- Data requirements for single ingredient approval and feed registration",
            "fr": "RG-1 Directives r\u00e9glementaires :Chapitre\u00a02\u00a0\u2013 Exigences par rapport aux donn\u00e9es pour l'enregistrement des ingr\u00e9dients et des aliments du b\u00e9tail"
        },
        "description": {
            "en": "Registration requirements for specialty products.",
            "fr": "Exigences pour l'enregistrement des produits sp\u00e9cialis\u00e9s."
        },
        "keywords": {
            "en": "RG-1, Regulatory guidance, Chapter 2, Data requirements, single ingredient approval, feed registration",
            "fr": "RG-1, Directives r\u00e9glementaires, Chapitre 2, \u2013 Exigences par rapport aux donn\u00e9es, enregistrement des ingr\u00e9dients, aliments du b\u00e9tail"
        },
        "dcterms.subject": {
            "en": "agri-food industry,agri-food products,guidelines,regulations,testing",
            "fr": "industrie agro-alimentaire,produit agro-alimentaire,lignes directrices,r\u00e9glementations,test"
        },
        "creator": {
            "en": "Government of Canada,Canadian Food Inspection Agency",
            "fr": "Gouvernement du Canada,Agence canadienne d'inspection des aliments"
        },
        "language": {
            "en": "eng",
            "fr": "fra"
        },
        "issued": {
            "en": "2012-02-15 04:27:43",
            "fr": "2012-02-15 04:27:43"
        },
        "modified": {
            "en": "2023-02-24",
            "fr": "2023-02-24"
        },
        "type": {
            "en": "reference material",
            "fr": "mat\u00e9riel de r\u00e9f\u00e9rence"
        },
        "audience": {
            "en": "business,general public,government",
            "fr": "entreprises,grand public,gouvernement"
        },
        "name": {
            "en": "Government of Canada",
            "fr": "Gouvernement du Canada"
        },
        "areaServed": {
            "en": "Canada",
            "fr": "Canada"
        }
    },
    "h1": {
        "en": "RG-1 Regulatory guidance:Chapter\u00a02\u00a0- Data requirements for single ingredient approval and feed registration",
        "fr": "RG-1 Directives r\u00e9glementaires :Chapitre\u00a02\u00a0\u2013 Exigences par rapport aux donn\u00e9es pour l'enregistrement des ingr\u00e9dients et des aliments du b\u00e9tail"
    },
    "body": {
        "en": "-&gt;\r\n\r\n\r\n\r\n\r\n\r\n\r\n        \r\n        \n\n\r\n\r\n<section class=\"alert alert-info\">\r\n<h2 class=\"h3\">This page is part of the Guidance Document Repository (GDR).</h2>\r\n<p>\r\n<br>\r\n<a href=\"/industry-guidance/eng/1374161650885/1374161737236?gp=1&amp;gc=6&amp;ga=80#gdr_results\" class=\"alert-link\">\r\n            Search for related documents in the Guidance Document Repository\r\n</a>\r\n</p>\r\n</section>\r\n\r\n\r\n\r\n<p class=\"small text-right\"><a href=\"/animal-health/livestock-feeds/regulatory-guidance/rg-1/chapter-2/eng/1329298059609/1329298179464?chap=0\">Complete chapter</a></p>\r\n\r\n\r\n<h2>On this page</h2>\r\n<ul class=\"list-unstyled col-md-offset-1 mrgn-tp-md mrgn-bttm-md\">\r\n\r\n<li>\r\n<a href=\"/animal-health/livestock-feeds/regulatory-guidance/rg-1/chapter-2/eng/1329298059609/1329298179464?chap=1\">2.1 Process to streamline approvals for category 1 feed registrations</a>\r\n\r\n<ul class=\"list-unstyled col-md-offset-1 mrgn-bttm-md\">\r\n\r\n<li>\r\n<a href=\"/animal-health/livestock-feeds/regulatory-guidance/rg-1/chapter-2/eng/1329298059609/1329298179464?chap=1#s1c1\">Requirements and checklist for streamlined approvals of category 1 feeds</a>\r\n\r\n</li>\r\n\r\n<li>\r\n<a href=\"/animal-health/livestock-feeds/regulatory-guidance/rg-1/chapter-2/eng/1329298059609/1329298179464?chap=1#s2c1\">Appendix 1 \u2013 Label requirements for new and significant changes to standard mixed feeds listed in items 1-6 of schedule I table 3 of the <i>Feeds Regulations, 1983</i></a>\r\n\r\n</li>\r\n\r\n<li>\r\n<a href=\"/animal-health/livestock-feeds/regulatory-guidance/rg-1/chapter-2/eng/1329298059609/1329298179464?chap=1#s3c1\">Appendix 2 \u2013 Label requirements for simple mixtures and dilutions of single-ingredient feeds only containing ingredients listed in schedule IV part I classes 1 to 7.1</a>\r\n\r\n</li>\r\n\r\n</ul>\r\n\r\n</li>\r\n\r\n<li>\r\n<a href=\"/animal-health/livestock-feeds/regulatory-guidance/rg-1/chapter-2/eng/1329298059609/1329298179464?chap=2\">2.2 Registration requirements for specialty products</a>\r\n\r\n</li>\r\n\r\n<li>\r\n<a href=\"/animal-health/livestock-feeds/regulatory-guidance/rg-1/chapter-2/eng/1329298059609/1329298179464?chap=3\">2.3 Single ingredient feed evaluation requirements</a>\r\n\r\n</li>\r\n\r\n<li>\r\n<a href=\"/animal-health/livestock-feeds/regulatory-guidance/rg-1/chapter-2/eng/1329298059609/1329298179464?chap=4\">2.4 Generic data requirements for safety evaluations of single ingredients</a>\r\n\r\n</li>\r\n\r\n<li>\r\n<a href=\"/animal-health/livestock-feeds/regulatory-guidance/rg-1/chapter-2/eng/1329298059609/1329298179464?chap=5\">2.5 Data requirements for product safety evaluations: Explanatory notes</a>\r\n\r\n<ul class=\"list-unstyled col-md-offset-1 mrgn-bttm-md\">\r\n\r\n<li>\r\n<a href=\"/animal-health/livestock-feeds/regulatory-guidance/rg-1/chapter-2/eng/1329298059609/1329298179464?chap=5#s4c5\">1.0 Identification and use of the product</a>\r\n\r\n</li>\r\n\r\n<li>\r\n<a href=\"/animal-health/livestock-feeds/regulatory-guidance/rg-1/chapter-2/eng/1329298059609/1329298179464?chap=5#s5c5\">2.0 Chemical components including contaminants and impurities</a>\r\n\r\n</li>\r\n\r\n<li>\r\n<a href=\"/animal-health/livestock-feeds/regulatory-guidance/rg-1/chapter-2/eng/1329298059609/1329298179464?chap=5#s6c5\">3.0 Method(s) of analysis, recovery, and detection limit data for the analyses</a>\r\n\r\n</li>\r\n\r\n<li>\r\n<a href=\"/animal-health/livestock-feeds/regulatory-guidance/rg-1/chapter-2/eng/1329298059609/1329298179464?chap=5#s7c5\">4.0 Physicochemical data</a>\r\n\r\n</li>\r\n\r\n<li>\r\n<a href=\"/animal-health/livestock-feeds/regulatory-guidance/rg-1/chapter-2/eng/1329298059609/1329298179464?chap=5#s8c5\">5.0 Mammalian toxicological data</a>\r\n\r\n</li>\r\n\r\n<li>\r\n<a href=\"/animal-health/livestock-feeds/regulatory-guidance/rg-1/chapter-2/eng/1329298059609/1329298179464?chap=5#s9c5\">6.0 Suggested maximum residue limit (MRL) or tolerance</a>\r\n\r\n</li>\r\n\r\n<li>\r\n<a href=\"/animal-health/livestock-feeds/regulatory-guidance/rg-1/chapter-2/eng/1329298059609/1329298179464?chap=5#s10c5\">7.0 Human exposure data and exposure estimation</a>\r\n\r\n</li>\r\n\r\n<li>\r\n<a href=\"/animal-health/livestock-feeds/regulatory-guidance/rg-1/chapter-2/eng/1329298059609/1329298179464?chap=5#s11c5\">8.0 Livestock metabolic fate and residue studies</a>\r\n\r\n</li>\r\n\r\n<li>\r\n<a href=\"/animal-health/livestock-feeds/regulatory-guidance/rg-1/chapter-2/eng/1329298059609/1329298179464?chap=5#s12c5\">9.0 Environmental fate and effects</a>\r\n\r\n</li>\r\n\r\n</ul>\r\n\r\n</li>\r\n\r\n<li>\r\n<a href=\"/animal-health/livestock-feeds/regulatory-guidance/rg-1/chapter-2/eng/1329298059609/1329298179464?chap=6\">2.6 Guidelines for the assessment of novel feeds: Plant sources</a>\r\n\r\n<ul class=\"list-unstyled col-md-offset-1 mrgn-bttm-md\">\r\n\r\n<li>\r\n<a href=\"/animal-health/livestock-feeds/regulatory-guidance/rg-1/chapter-2/eng/1329298059609/1329298179464?chap=6#s13c6\">1.0 Introduction</a>\r\n\r\n</li>\r\n\r\n<li>\r\n<a href=\"/animal-health/livestock-feeds/regulatory-guidance/rg-1/chapter-2/eng/1329298059609/1329298179464?chap=6#s14c6\">2.0 Characterization of the plant source</a>\r\n\r\n</li>\r\n\r\n<li>\r\n<a href=\"/animal-health/livestock-feeds/regulatory-guidance/rg-1/chapter-2/eng/1329298059609/1329298179464?chap=6#s15c6\">3.0 Nutritional data</a>\r\n\r\n</li>\r\n\r\n<li>\r\n<a href=\"/animal-health/livestock-feeds/regulatory-guidance/rg-1/chapter-2/eng/1329298059609/1329298179464?chap=6#s16c6\">4.0 Dietary exposure</a>\r\n\r\n</li>\r\n\r\n<li>\r\n<a href=\"/animal-health/livestock-feeds/regulatory-guidance/rg-1/chapter-2/eng/1329298059609/1329298179464?chap=6#s17c6\">5.0 Toxicology data</a>\r\n\r\n</li>\r\n\r\n<li>\r\n<a href=\"/animal-health/livestock-feeds/regulatory-guidance/rg-1/chapter-2/eng/1329298059609/1329298179464?chap=6#s18c6\">6.0 Allergenicity data</a>\r\n\r\n</li>\r\n\r\n<li>\r\n<a href=\"/animal-health/livestock-feeds/regulatory-guidance/rg-1/chapter-2/eng/1329298059609/1329298179464?chap=6#s19c6\">7.0 Laboratory animal/livestock feeding trials</a>\r\n\r\n</li>\r\n\r\n<li>\r\n<a href=\"/animal-health/livestock-feeds/regulatory-guidance/rg-1/chapter-2/eng/1329298059609/1329298179464?chap=6#s20c6\">8.0 Evaluation of environmental safety</a>\r\n\r\n</li>\r\n\r\n<li>\r\n<a href=\"/animal-health/livestock-feeds/regulatory-guidance/rg-1/chapter-2/eng/1329298059609/1329298179464?chap=6#s21c6\">9.0 Method of detection and identification requirements</a>\r\n\r\n</li>\r\n\r\n<li>\r\n<a href=\"/animal-health/livestock-feeds/regulatory-guidance/rg-1/chapter-2/eng/1329298059609/1329298179464?chap=6#s22c6\">10.0 Regulatory decision</a>\r\n\r\n</li>\r\n\r\n<li>\r\n<a href=\"/animal-health/livestock-feeds/regulatory-guidance/rg-1/chapter-2/eng/1329298059609/1329298179464?chap=6#s23c6\">11.0 Posting of decision</a>\r\n\r\n</li>\r\n\r\n<li>\r\n<a href=\"/animal-health/livestock-feeds/regulatory-guidance/rg-1/chapter-2/eng/1329298059609/1329298179464?chap=6#s24c6\">12.0 New information requirements</a>\r\n\r\n</li>\r\n\r\n<li>\r\n<a href=\"/animal-health/livestock-feeds/regulatory-guidance/rg-1/chapter-2/eng/1329298059609/1329298179464?chap=6#s25c6\">13.0 Definitions</a>\r\n\r\n</li>\r\n\r\n<li>\r\n<a href=\"/animal-health/livestock-feeds/regulatory-guidance/rg-1/chapter-2/eng/1329298059609/1329298179464?chap=6#s26c6\">14.0 References</a>\r\n\r\n</li>\r\n\r\n<li>\r\n<a href=\"/animal-health/livestock-feeds/regulatory-guidance/rg-1/chapter-2/eng/1329298059609/1329298179464?chap=6#s27c6\">Appendix <abbr title=\"1\">I</abbr>: Molecular characterization requirements for feeds with novel traits derived from plants developed using recombinant DNA techniques</a>\r\n\r\n</li>\r\n\r\n<li>\r\n<a href=\"/animal-health/livestock-feeds/regulatory-guidance/rg-1/chapter-2/eng/1329298059609/1329298179464?chap=6#s28c6\">Appendix <abbr title=\"2\">II</abbr>: Novelty determination guidance</a>\r\n\r\n</li>\r\n\r\n</ul>\r\n\r\n</li>\r\n\r\n<li>\r\n<a href=\"/animal-health/livestock-feeds/regulatory-guidance/rg-1/chapter-2/eng/1329298059609/1329298179464?chap=7\">2.7 Guidelines for the assessment of novel feeds: microbial sources</a>\r\n\r\n<ul class=\"list-unstyled col-md-offset-1 mrgn-bttm-md\">\r\n\r\n<li>\r\n<a href=\"/animal-health/livestock-feeds/regulatory-guidance/rg-1/chapter-2/eng/1329298059609/1329298179464?chap=7#s29c7\">1 Introduction</a>\r\n\r\n</li>\r\n\r\n<li>\r\n<a href=\"/animal-health/livestock-feeds/regulatory-guidance/rg-1/chapter-2/eng/1329298059609/1329298179464?chap=7#s30c7\">2 Characterization of the microbial product</a>\r\n\r\n</li>\r\n\r\n<li>\r\n<a href=\"/animal-health/livestock-feeds/regulatory-guidance/rg-1/chapter-2/eng/1329298059609/1329298179464?chap=7#s31c7\">3 Inactivation of antimicrobials in feed</a>\r\n\r\n</li>\r\n\r\n<li>\r\n<a href=\"/animal-health/livestock-feeds/regulatory-guidance/rg-1/chapter-2/eng/1329298059609/1329298179464?chap=7#s32c7\">4 Animal and human safety</a>\r\n\r\n</li>\r\n\r\n<li>\r\n<a href=\"/animal-health/livestock-feeds/regulatory-guidance/rg-1/chapter-2/eng/1329298059609/1329298179464?chap=7#s33c7\">5 Environmental safety</a>\r\n\r\n</li>\r\n\r\n<li>\r\n<a href=\"/animal-health/livestock-feeds/regulatory-guidance/rg-1/chapter-2/eng/1329298059609/1329298179464?chap=7#s34c7\">6 Regulatory decision</a>\r\n\r\n</li>\r\n\r\n<li>\r\n<a href=\"/animal-health/livestock-feeds/regulatory-guidance/rg-1/chapter-2/eng/1329298059609/1329298179464?chap=7#s35c7\">7 New information requirements</a>\r\n\r\n</li>\r\n\r\n<li>\r\n<a href=\"/animal-health/livestock-feeds/regulatory-guidance/rg-1/chapter-2/eng/1329298059609/1329298179464?chap=7#s36c7\">8 Definitions</a>\r\n\r\n</li>\r\n\r\n<li>\r\n<a href=\"/animal-health/livestock-feeds/regulatory-guidance/rg-1/chapter-2/eng/1329298059609/1329298179464?chap=7#s37c7\">Appendix I: Description of toxicity/infectivity/pathogenicity tests</a>\r\n\r\n</li>\r\n\r\n<li>\r\n<a href=\"/animal-health/livestock-feeds/regulatory-guidance/rg-1/chapter-2/eng/1329298059609/1329298179464?chap=7#s38c7\">Appendix II: Molecular data checklists</a>\r\n\r\n</li>\r\n\r\n<li>\r\n<a href=\"/animal-health/livestock-feeds/regulatory-guidance/rg-1/chapter-2/eng/1329298059609/1329298179464?chap=7#s39c7\">Appendix III: Vector description</a>\r\n\r\n</li>\r\n\r\n<li>\r\n<a href=\"/animal-health/livestock-feeds/regulatory-guidance/rg-1/chapter-2/eng/1329298059609/1329298179464?chap=7#s40c7\">Figure 1: Example of a detailed map of a plasmid vector<br>(from APHIS petition #94-257-01p)</a>\r\n\r\n</li>\r\n\r\n<li>\r\n<a href=\"/animal-health/livestock-feeds/regulatory-guidance/rg-1/chapter-2/eng/1329298059609/1329298179464?chap=7#s41c7\">References</a>\r\n\r\n</li>\r\n\r\n</ul>\r\n\r\n</li>\r\n\r\n<li>\r\n<a href=\"/animal-health/livestock-feeds/regulatory-guidance/rg-1/chapter-2/eng/1329298059609/1329298179464?chap=8\">2.8 Guidance on bridging an application to data from publicly available literature and previously approved feed applications</a>\r\n\r\n</li>\r\n\r\n<li>\r\n<a href=\"/animal-health/livestock-feeds/regulatory-guidance/rg-1/chapter-2/eng/1329298059609/1329298179464?chap=9\">2.9 Data flexibility for production performance endpoints and associated claims</a>\r\n\r\n</li>\r\n\r\n</ul>\r\n\r\n\r\n\n\n\r\n        \r\n\r\n\r\n\r\n<div class=\"row\">\r\n \r\n\t\r\n\t\t\t\r\n\r\n<div class=\"col-xm-12 pagedetails container\">\r\n\t\t\t\t\r\n\r\n</div>\r\n\t\r\n</div>",
        "fr": "-&gt;\r\n\r\n\r\n\r\n\r\n\r\n\r\n\r\n        \r\n        \n\n\r\n\r\n<section class=\"alert alert-info\">\r\n<h2 class=\"h3\">Cette page fait partie du r\u00e9pertoire des documents d'orientation (RDO).</h2>\r\n<p>\r\n<br>\r\n<a href=\"/orientation-pour-l-industrie/fra/1374161650885/1374161737236?gp=1&amp;gc=6&amp;ga=80#gdr_results\" class=\"alert-link\">\r\n            Recherche de documents connexes dans le r\u00e9pertoire des documents d'orientation.\r\n</a>\r\n</p>\r\n</section>\r\n\r\n\r\n\r\n<p class=\"small text-right\"><a href=\"/sante-des-animaux/aliments-du-betail/directives-reglementaires/rg-1/chapitre-2/fra/1329298059609/1329298179464?chap=0\">Chapitre complet</a></p>\r\n\r\n\r\n<h2>Sur cette page</h2>\r\n<ul class=\"list-unstyled col-md-offset-1 mrgn-tp-md mrgn-bttm-md\">\r\n\r\n<li>\r\n<a href=\"/sante-des-animaux/aliments-du-betail/directives-reglementaires/rg-1/chapitre-2/fra/1329298059609/1329298179464?chap=1\">2.1  Processus de simplification des approbations pour l'enregistrement des aliments du b\u00e9tail de cat\u00e9gorie 1</a>\r\n\r\n<ul class=\"list-unstyled col-md-offset-1 mrgn-bttm-md\">\r\n\r\n<li>\r\n<a href=\"/sante-des-animaux/aliments-du-betail/directives-reglementaires/rg-1/chapitre-2/fra/1329298059609/1329298179464?chap=1#s1c1\">Exigences et liste de contr\u00f4le pour la simplification des approbations des aliments pour animaux de cat\u00e9gorie 1</a>\r\n\r\n</li>\r\n\r\n<li>\r\n<a href=\"/sante-des-animaux/aliments-du-betail/directives-reglementaires/rg-1/chapitre-2/fra/1329298059609/1329298179464?chap=1#s2c1\">Annexe\u00a01 \u2013 Exigences en mati\u00e8re d'\u00e9tiquetage pour les changements nouveaux et importants apport\u00e9s aux aliments m\u00e9lang\u00e9s standard \u00e9num\u00e9r\u00e9s aux articles 1 \u00e0 6 de l'annexe I, tableau 3, du <i>R\u00e8glement de 1983 sur les aliments du b\u00e9tail</i></a>\r\n\r\n</li>\r\n\r\n<li>\r\n<a href=\"/sante-des-animaux/aliments-du-betail/directives-reglementaires/rg-1/chapitre-2/fra/1329298059609/1329298179464?chap=1#s3c1\">Annexe 2 \u2013 Exigences en mati\u00e8re d'\u00e9tiquetage pour m\u00e9langes simples et les dilutions d'aliments pour animaux \u00e0 ingr\u00e9dient unique contenant uniquement des ingr\u00e9dients figurant \u00e0 l'annexe IV, partie I, classes\u00a01 \u00e0\u00a07.1</a>\r\n\r\n</li>\r\n\r\n</ul>\r\n\r\n</li>\r\n\r\n<li>\r\n<a href=\"/sante-des-animaux/aliments-du-betail/directives-reglementaires/rg-1/chapitre-2/fra/1329298059609/1329298179464?chap=2\">2.2 Exigences pour l'enregistrement des produits sp\u00e9cialis\u00e9s</a>\r\n\r\n</li>\r\n\r\n<li>\r\n<a href=\"/sante-des-animaux/aliments-du-betail/directives-reglementaires/rg-1/chapitre-2/fra/1329298059609/1329298179464?chap=3\">2.3 Exigences pour l'\u00e9valuation des ingr\u00e9dients</a>\r\n\r\n</li>\r\n\r\n<li>\r\n<a href=\"/sante-des-animaux/aliments-du-betail/directives-reglementaires/rg-1/chapitre-2/fra/1329298059609/1329298179464?chap=4\">2.4 Donn\u00e9es g\u00e9n\u00e9rales n\u00e9cessaire \u00e0 l'\u00e9valuation de l'innocuit\u00e9 des ingr\u00e9dients</a>\r\n\r\n</li>\r\n\r\n<li>\r\n<a href=\"/sante-des-animaux/aliments-du-betail/directives-reglementaires/rg-1/chapitre-2/fra/1329298059609/1329298179464?chap=5\">2.5 Exigences en mati\u00e8re de donn\u00e9es pour l'\u00e9valuation de la s\u00e9curit\u00e9 des produits : notes explicatives</a>\r\n\r\n<ul class=\"list-unstyled col-md-offset-1 mrgn-bttm-md\">\r\n\r\n<li>\r\n<a href=\"/sante-des-animaux/aliments-du-betail/directives-reglementaires/rg-1/chapitre-2/fra/1329298059609/1329298179464?chap=5#s4c5\">1.0 Identification et utilisation du produit</a>\r\n\r\n</li>\r\n\r\n<li>\r\n<a href=\"/sante-des-animaux/aliments-du-betail/directives-reglementaires/rg-1/chapitre-2/fra/1329298059609/1329298179464?chap=5#s5c5\">2.0 Constituants chimiques, incluant les contaminants et les impuret\u00e9s</a>\r\n\r\n</li>\r\n\r\n<li>\r\n<a href=\"/sante-des-animaux/aliments-du-betail/directives-reglementaires/rg-1/chapitre-2/fra/1329298059609/1329298179464?chap=5#s6c5\">3.0 M\u00e9thode(s) d'analyse, r\u00e9cup\u00e9ration et donn\u00e9es relatives aux limites de d\u00e9tection des analyses</a>\r\n\r\n</li>\r\n\r\n<li>\r\n<a href=\"/sante-des-animaux/aliments-du-betail/directives-reglementaires/rg-1/chapitre-2/fra/1329298059609/1329298179464?chap=5#s7c5\">4.0 Donn\u00e9es physico-chimiques</a>\r\n\r\n</li>\r\n\r\n<li>\r\n<a href=\"/sante-des-animaux/aliments-du-betail/directives-reglementaires/rg-1/chapitre-2/fra/1329298059609/1329298179464?chap=5#s8c5\">5.0 Donn\u00e9es toxicologiques chez les mammif\u00e8res</a>\r\n\r\n</li>\r\n\r\n<li>\r\n<a href=\"/sante-des-animaux/aliments-du-betail/directives-reglementaires/rg-1/chapitre-2/fra/1329298059609/1329298179464?chap=5#s9c5\">6.0 Limite maximale de r\u00e9sidus (LMR) ou tol\u00e9rance sugg\u00e9r\u00e9e</a>\r\n\r\n</li>\r\n\r\n<li>\r\n<a href=\"/sante-des-animaux/aliments-du-betail/directives-reglementaires/rg-1/chapitre-2/fra/1329298059609/1329298179464?chap=5#s10c5\">7.0 Donn\u00e9es sur l'exposition humaine et estimation de l'exposition</a>\r\n\r\n</li>\r\n\r\n<li>\r\n<a href=\"/sante-des-animaux/aliments-du-betail/directives-reglementaires/rg-1/chapitre-2/fra/1329298059609/1329298179464?chap=5#s11c5\">8.0 \u00c9tudes sur les r\u00e9sidus et le devenir m\u00e9tabolique chez le b\u00e9tail</a>\r\n\r\n</li>\r\n\r\n<li>\r\n<a href=\"/sante-des-animaux/aliments-du-betail/directives-reglementaires/rg-1/chapitre-2/fra/1329298059609/1329298179464?chap=5#s12c5\">9.0 Effets et devenir dans l'environnement</a>\r\n\r\n</li>\r\n\r\n</ul>\r\n\r\n</li>\r\n\r\n<li>\r\n<a href=\"/sante-des-animaux/aliments-du-betail/directives-reglementaires/rg-1/chapitre-2/fra/1329298059609/1329298179464?chap=6\">2.6 Directives relatives \u00e0 l'\u00e9valuation des aliments nouveaux du b\u00e9tail : origine v\u00e9g\u00e9tale </a>\r\n\r\n<ul class=\"list-unstyled col-md-offset-1 mrgn-bttm-md\">\r\n\r\n<li>\r\n<a href=\"/sante-des-animaux/aliments-du-betail/directives-reglementaires/rg-1/chapitre-2/fra/1329298059609/1329298179464?chap=6#s13c6\">1.0 Introduction</a>\r\n\r\n</li>\r\n\r\n<li>\r\n<a href=\"/sante-des-animaux/aliments-du-betail/directives-reglementaires/rg-1/chapitre-2/fra/1329298059609/1329298179464?chap=6#s14c6\">2.0 Caract\u00e9risation de la source v\u00e9g\u00e9tale</a>\r\n\r\n</li>\r\n\r\n<li>\r\n<a href=\"/sante-des-animaux/aliments-du-betail/directives-reglementaires/rg-1/chapitre-2/fra/1329298059609/1329298179464?chap=6#s15c6\">3.0 Donn\u00e9es nutritionnelles</a>\r\n\r\n</li>\r\n\r\n<li>\r\n<a href=\"/sante-des-animaux/aliments-du-betail/directives-reglementaires/rg-1/chapitre-2/fra/1329298059609/1329298179464?chap=6#s16c6\">4.0 Expositions alimentaires</a>\r\n\r\n</li>\r\n\r\n<li>\r\n<a href=\"/sante-des-animaux/aliments-du-betail/directives-reglementaires/rg-1/chapitre-2/fra/1329298059609/1329298179464?chap=6#s17c6\">5.0 Donn\u00e9es toxicologiques</a>\r\n\r\n</li>\r\n\r\n<li>\r\n<a href=\"/sante-des-animaux/aliments-du-betail/directives-reglementaires/rg-1/chapitre-2/fra/1329298059609/1329298179464?chap=6#s18c6\">6.0 Donn\u00e9es sur l'allerg\u00e9nicit\u00e9</a>\r\n\r\n</li>\r\n\r\n<li>\r\n<a href=\"/sante-des-animaux/aliments-du-betail/directives-reglementaires/rg-1/chapitre-2/fra/1329298059609/1329298179464?chap=6#s19c6\">7.0 Essais alimentaires sur des animaux de ferme et/ou de laboratoire</a>\r\n\r\n</li>\r\n\r\n<li>\r\n<a href=\"/sante-des-animaux/aliments-du-betail/directives-reglementaires/rg-1/chapitre-2/fra/1329298059609/1329298179464?chap=6#s20c6\">8.0 \u00c9valuation de l'innocuit\u00e9 pour l'environnement</a>\r\n\r\n</li>\r\n\r\n<li>\r\n<a href=\"/sante-des-animaux/aliments-du-betail/directives-reglementaires/rg-1/chapitre-2/fra/1329298059609/1329298179464?chap=6#s21c6\">9.0 M\u00e9thodes de d\u00e9tection et d'identification</a>\r\n\r\n</li>\r\n\r\n<li>\r\n<a href=\"/sante-des-animaux/aliments-du-betail/directives-reglementaires/rg-1/chapitre-2/fra/1329298059609/1329298179464?chap=6#s22c6\">10.0 D\u00e9cision r\u00e9glementaire</a>\r\n\r\n</li>\r\n\r\n<li>\r\n<a href=\"/sante-des-animaux/aliments-du-betail/directives-reglementaires/rg-1/chapitre-2/fra/1329298059609/1329298179464?chap=6#s23c6\">11.0 Publication de la d\u00e9cision</a>\r\n\r\n</li>\r\n\r\n<li>\r\n<a href=\"/sante-des-animaux/aliments-du-betail/directives-reglementaires/rg-1/chapitre-2/fra/1329298059609/1329298179464?chap=6#s24c6\">12.0 Besoin de nouveaux renseignements</a>\r\n\r\n</li>\r\n\r\n<li>\r\n<a href=\"/sante-des-animaux/aliments-du-betail/directives-reglementaires/rg-1/chapitre-2/fra/1329298059609/1329298179464?chap=6#s25c6\">13.0 D\u00e9finitions</a>\r\n\r\n</li>\r\n\r\n<li>\r\n<a href=\"/sante-des-animaux/aliments-du-betail/directives-reglementaires/rg-1/chapitre-2/fra/1329298059609/1329298179464?chap=6#s26c6\">14.0 R\u00e9f\u00e9rences</a>\r\n\r\n</li>\r\n\r\n<li>\r\n<a href=\"/sante-des-animaux/aliments-du-betail/directives-reglementaires/rg-1/chapitre-2/fra/1329298059609/1329298179464?chap=6#s27c6\">Annexe <abbr title=\"1\">I</abbr> : Exigences relatives \u00e0 la caract\u00e9risation mol\u00e9culaire des aliments du b\u00e9tail \u00e0 caract\u00e8res nouveaux d\u00e9riv\u00e9s de v\u00e9g\u00e9taux mis au point \u00e0 l'aide de techniques de l'<abbr title=\"Acide D\u00e9soxyribonucl\u00e9ique\">ADN</abbr> recombinant :</a>\r\n\r\n</li>\r\n\r\n<li>\r\n<a href=\"/sante-des-animaux/aliments-du-betail/directives-reglementaires/rg-1/chapitre-2/fra/1329298059609/1329298179464?chap=6#s28c6\">Annexe <abbr title=\"2\">II</abbr> : Directive pour la d\u00e9termination de la nouveaut\u00e9</a>\r\n\r\n</li>\r\n\r\n</ul>\r\n\r\n</li>\r\n\r\n<li>\r\n<a href=\"/sante-des-animaux/aliments-du-betail/directives-reglementaires/rg-1/chapitre-2/fra/1329298059609/1329298179464?chap=7\">2.7 Directives relatives \u00e0 l'\u00e9valuation des nouveaux aliments du b\u00e9tail\u00a0: produits d'origine microbienne</a>\r\n\r\n<ul class=\"list-unstyled col-md-offset-1 mrgn-bttm-md\">\r\n\r\n<li>\r\n<a href=\"/sante-des-animaux/aliments-du-betail/directives-reglementaires/rg-1/chapitre-2/fra/1329298059609/1329298179464?chap=7#s29c7\">1 Introduction</a>\r\n\r\n</li>\r\n\r\n<li>\r\n<a href=\"/sante-des-animaux/aliments-du-betail/directives-reglementaires/rg-1/chapitre-2/fra/1329298059609/1329298179464?chap=7#s30c7\">2 Caract\u00e9risation du produit microbien</a>\r\n\r\n</li>\r\n\r\n<li>\r\n<a href=\"/sante-des-animaux/aliments-du-betail/directives-reglementaires/rg-1/chapitre-2/fra/1329298059609/1329298179464?chap=7#s31c7\">3 Inactivation des agents antimicrobiens dans les aliments pour animaux</a>\r\n\r\n</li>\r\n\r\n<li>\r\n<a href=\"/sante-des-animaux/aliments-du-betail/directives-reglementaires/rg-1/chapitre-2/fra/1329298059609/1329298179464?chap=7#s32c7\">4 Innocuit\u00e9 humaine et animale</a>\r\n\r\n</li>\r\n\r\n<li>\r\n<a href=\"/sante-des-animaux/aliments-du-betail/directives-reglementaires/rg-1/chapitre-2/fra/1329298059609/1329298179464?chap=7#s33c7\">5 S\u00e9curit\u00e9 environnementale</a>\r\n\r\n</li>\r\n\r\n<li>\r\n<a href=\"/sante-des-animaux/aliments-du-betail/directives-reglementaires/rg-1/chapitre-2/fra/1329298059609/1329298179464?chap=7#s34c7\">6 D\u00e9cision r\u00e9glementaire</a>\r\n\r\n</li>\r\n\r\n<li>\r\n<a href=\"/sante-des-animaux/aliments-du-betail/directives-reglementaires/rg-1/chapitre-2/fra/1329298059609/1329298179464?chap=7#s35c7\">7 Exigences en mati\u00e8re de nouvelle information</a>\r\n\r\n</li>\r\n\r\n<li>\r\n<a href=\"/sante-des-animaux/aliments-du-betail/directives-reglementaires/rg-1/chapitre-2/fra/1329298059609/1329298179464?chap=7#s36c7\">8 D\u00e9finitions</a>\r\n\r\n</li>\r\n\r\n<li>\r\n<a href=\"/sante-des-animaux/aliments-du-betail/directives-reglementaires/rg-1/chapitre-2/fra/1329298059609/1329298179464?chap=7#s37c7\">Annexe I\u00a0: Description des essais de toxicit\u00e9, d'infectiosit\u00e9 et de pathog\u00e9nicit\u00e9</a>\r\n\r\n</li>\r\n\r\n<li>\r\n<a href=\"/sante-des-animaux/aliments-du-betail/directives-reglementaires/rg-1/chapitre-2/fra/1329298059609/1329298179464?chap=7#s38c7\">Annexe II\u00a0: Listes de v\u00e9rification de donn\u00e9es mol\u00e9culaires</a>\r\n\r\n</li>\r\n\r\n<li>\r\n<a href=\"/sante-des-animaux/aliments-du-betail/directives-reglementaires/rg-1/chapitre-2/fra/1329298059609/1329298179464?chap=7#s39c7\">Annexe III\u00a0: Description des vecteurs</a>\r\n\r\n</li>\r\n\r\n<li>\r\n<a href=\"/sante-des-animaux/aliments-du-betail/directives-reglementaires/rg-1/chapitre-2/fra/1329298059609/1329298179464?chap=7#s40c7\">Figure 1\u00a0: Exemple d'une carte d\u00e9taill\u00e9e d'un vecteur plasmidique<br>(extrait de la demande de l'APHIS n<sup>o</sup> 94-257-01p)</a>\r\n\r\n</li>\r\n\r\n<li>\r\n<a href=\"/sante-des-animaux/aliments-du-betail/directives-reglementaires/rg-1/chapitre-2/fra/1329298059609/1329298179464?chap=7#s41c7\">R\u00e9f\u00e9rences</a>\r\n\r\n</li>\r\n\r\n</ul>\r\n\r\n</li>\r\n\r\n<li>\r\n<a href=\"/sante-des-animaux/aliments-du-betail/directives-reglementaires/rg-1/chapitre-2/fra/1329298059609/1329298179464?chap=8\">2.8 Guide sur la transition d'une demande vers des donn\u00e9es provenant d'une litt\u00e9rature publiquement accessible et des demandes d'aliments pour animaux pr\u00e9c\u00e9demment approuv\u00e9es</a>\r\n\r\n</li>\r\n\r\n<li>\r\n<a href=\"/sante-des-animaux/aliments-du-betail/directives-reglementaires/rg-1/chapitre-2/fra/1329298059609/1329298179464?chap=9\">2.9 Flexibilit\u00e9 des donn\u00e9es pour les param\u00e8tres de performance de production et les all\u00e9gations associ\u00e9es</a>\r\n\r\n</li>\r\n\r\n</ul>\r\n\r\n\r\n<div class=\"clear\"></div>\r\n\n\n\r\n        \r\n\r\n<div class=\"row\">\r\n \r\n\t\t\t\r\n\t\t\t\r\n\r\n\t\t\r\n\t\r\n</div>"
    },
    "js": {
        "en": "",
        "fr": ""
    },
    "success": true,
    "chat_wizard": false
}