{
    "dcr_id": "1367841058884",
    "title": {
        "en": "Producer Guide to the National Farm-Level Biosecurity Standard for Potato Growers<br> A Guide to Developing Your Farm Biosecurity Plan",
        "fr": "Guide du producteur \u00e0 la norme nationale de bios\u00e9curit\u00e9 \u00e0 la ferme pour les producteurs de pommes de terre - Guide pour l'\u00e9laboration de votre plan de bios\u00e9curit\u00e9 \u00e0 la ferme"
    },
    "html_modified": "2024-02-05 2:51:47 PM",
    "modified": "2013-05-16",
    "issued": "2013-05-06 07:51:00",
    "teamsite_location": {
        "en": "/default/main/inspection/cont-cont/plants-vegetaux/STAGING/templatedata/comn-comn/manuals-manuels/data/pota_biosec_standardgrowers_producers_guide_1367841058884_eng",
        "fr": "/default/main/inspection/cont-cont/plants-vegetaux/STAGING/templatedata/comn-comn/manuals-manuels/data/pota_biosec_standardgrowers_producers_guide_1367841058884_fra"
    },
    "ia_id": "1367841193074",
    "parent_ia_id": "1328485925503",
    "chronicletopic": {
        "en": "",
        "fr": ""
    },
    "chroniclecontent": {
        "en": "",
        "fr": ""
    },
    "chronicleaudience": {
        "en": "",
        "fr": ""
    },
    "sfcrdocumenttype": {
        "en": "",
        "fr": ""
    },
    "sfcraudience": {
        "en": "",
        "fr": ""
    },
    "sfcrmethodofproduction": {
        "en": "",
        "fr": ""
    },
    "activity": {
        "en": "Biosecurity",
        "fr": "Bios\u00e9curit\u00e9"
    },
    "commodity": {
        "en": "Potatoes",
        "fr": "Pommes de terre"
    },
    "program": {
        "en": "Plants",
        "fr": "V\u00e9g\u00e9taux"
    },
    "search_type": "guidancefinder",
    "parent_node_id": "1328485925503",
    "layout_name": "content page 1 column",
    "breadcrumb": {
        "en": "Producer Guide to the National Farm-Level Biosecurity Standard for Potato Growers<br> A Guide to Developing Your Farm Biosecurity Plan",
        "fr": "Guide du producteur \u00e0 la norme nationale de bios\u00e9curit\u00e9 \u00e0 la ferme pour les producteurs de pommes de terre - Guide pour l'\u00e9laboration de votre plan de bios\u00e9curit\u00e9 \u00e0 la ferme"
    },
    "label": {
        "en": "Producer Guide to the National Farm-Level Biosecurity Standard for Potato Growers<br> A Guide to Developing Your Farm Biosecurity Plan",
        "fr": "Guide du producteur \u00e0 la norme nationale de bios\u00e9curit\u00e9 \u00e0 la ferme pour les producteurs de pommes de terre - Guide pour l'\u00e9laboration de votre plan de bios\u00e9curit\u00e9 \u00e0 la ferme"
    },
    "templatetype": "content page 1 column",
    "node_id": "1367841193074",
    "managing_branch": "comn",
    "type_name": "manuals-manuels",
    "dcr_type": "manuals-manuels",
    "parent_dcr_id": "1328485865509",
    "has_dcr_id": true,
    "lang": "en",
    "could_not_load": 0,
    "refaire": false,
    "interwoven_url": {
        "en": "/plant-health/potatoes/guidance-documents/guide-to-developing-your-farm-biosecurity-plan/",
        "fr": "/protection-des-vegetaux/pommes-de-terre/documents-d-orientation/guide-pour-l-elaboration-de-votre-plan-de-biosecur/"
    },
    "meta": {
        "viewport": {
            "en": "width=device-width,initial-scale=1",
            "fr": "width=device-width,initial-scale=1"
        },
        "service": {
            "en": "CFIA-ACIA",
            "fr": "CFIA-ACIA"
        },
        "accessRights": {
            "en": "2",
            "fr": "2"
        },
        "title": {
            "en": "Producer Guide to the National Farm-Level Biosecurity Standard for Potato Growers A Guide to Developing Your Farm Biosecurity Plan",
            "fr": "Guide du producteur \u00e0 la norme nationale de bios\u00e9curit\u00e9 \u00e0 la ferme pour les producteurs de pommes de terre - Guide pour l'\u00e9laboration de votre plan de bios\u00e9curit\u00e9 \u00e0 la ferme"
        },
        "description": {
            "en": "Voluntary program at the farm-level for producers to help them in developing their biosecurity plans",
            "fr": "Programme volontaire pour les producteurs pour les aider \u00e0 d\u00e9velopper leurs plans de bios\u00e9curit\u00e9 \u00e0 la ferme"
        },
        "keywords": {
            "en": "pests, standards, best practices",
            "fr": "organismes, normes, bonnes pratiques"
        },
        "dcterms.subject": {
            "en": "inspection,plant diseases,best practices,standards,potatoes",
            "fr": "inspection,maladie des plantes,meilleures pratiques,norme,patates"
        },
        "creator": {
            "en": "Government of Canada,Canadian Food Inspection Agency",
            "fr": "Gouvernement du Canada,Agence canadienne d'inspection des aliments"
        },
        "language": {
            "en": "eng",
            "fr": "fra"
        },
        "issued": {
            "en": "2013-05-06 07:51:00",
            "fr": "2013-05-06 07:51:00"
        },
        "modified": {
            "en": "2013-05-16",
            "fr": "2013-05-16"
        },
        "audience": {
            "en": "general public",
            "fr": "grand public"
        },
        "name": {
            "en": "Government of Canada",
            "fr": "Gouvernement du Canada"
        },
        "areaServed": {
            "en": "Canada",
            "fr": "Canada"
        }
    },
    "h1": {
        "en": "Producer Guide to the National Farm-Level Biosecurity Standard for Potato Growers A Guide to Developing Your Farm Biosecurity Plan",
        "fr": "Guide du producteur \u00e0 la norme nationale de bios\u00e9curit\u00e9 \u00e0 la ferme pour les producteurs de pommes de terre - Guide pour l'\u00e9laboration de votre plan de bios\u00e9curit\u00e9 \u00e0 la ferme"
    },
    "body": {
        "en": "-&gt;\r\n\r\n\r\n\r\n\r\n\r\n\r\n        \r\n        \n\n\r\n\r\n<section class=\"alert alert-info\">\r\n<h2 class=\"h3\">This page is part of the Guidance Document Repository (GDR).</h2>\r\n<p>\r\n<br>\r\n<a href=\"/industry-guidance/eng/1374161650885/1374161737236?gp=3&amp;gc=26&amp;ga=7#gdr_results\" class=\"alert-link\">\r\n            Search for related documents in the Guidance Document Repository\r\n</a>\r\n</p>\r\n</section>\r\n\r\n\r\n\r\n<p class=\"small text-right\"><a href=\"/plant-health/potatoes/guidance-documents/guide-to-developing-your-farm-biosecurity-plan/eng/1367841058884/1367841193074?chap=0\">Complete Text</a></p>\r\n\r\n\r\n<h2>Table of Contents</h2>\r\n<ul class=\"list-unstyled col-md-offset-1 mrgn-tp-md mrgn-bttm-md\">\r\n\r\n<li>\r\n<a href=\"/plant-health/potatoes/guidance-documents/guide-to-developing-your-farm-biosecurity-plan/eng/1367841058884/1367841193074?chap=1\">Glossary</a>\r\n\r\n</li>\r\n\r\n<li>\r\n<a href=\"/plant-health/potatoes/guidance-documents/guide-to-developing-your-farm-biosecurity-plan/eng/1367841058884/1367841193074?chap=2\">Why is Potato Biosecurity Important?</a>\r\n\r\n</li>\r\n\r\n<li>\r\n<a href=\"/plant-health/potatoes/guidance-documents/guide-to-developing-your-farm-biosecurity-plan/eng/1367841058884/1367841193074?chap=3\">Who Is Responsible for Farm-Level Biosecurity?</a>\r\n\r\n</li>\r\n\r\n<li>\r\n<a href=\"/plant-health/potatoes/guidance-documents/guide-to-developing-your-farm-biosecurity-plan/eng/1367841058884/1367841193074?chap=4\">What does a Biosecurity Plan Look Like?</a>\r\n\r\n</li>\r\n\r\n<li>\r\n<a href=\"/plant-health/potatoes/guidance-documents/guide-to-developing-your-farm-biosecurity-plan/eng/1367841058884/1367841193074?chap=5\">About the Producer Guide</a>\r\n\r\n</li>\r\n\r\n<li>\r\n<a href=\"/plant-health/potatoes/guidance-documents/guide-to-developing-your-farm-biosecurity-plan/eng/1367841058884/1367841193074?chap=6\">How Should I Use the Guide?</a>\r\n\r\n</li>\r\n\r\n<li>\r\n<a href=\"/plant-health/potatoes/guidance-documents/guide-to-developing-your-farm-biosecurity-plan/eng/1367841058884/1367841193074?chap=7\">1. Understanding the Concepts: Farm Property Management</a>\r\n\r\n<ul class=\"list-unstyled col-md-offset-1 mrgn-bttm-md\">\r\n\r\n<li>\r\n<a href=\"/plant-health/potatoes/guidance-documents/guide-to-developing-your-farm-biosecurity-plan/eng/1367841058884/1367841193074?chap=7#s1c7\">1.1 Farm Facility Location and Layout</a>\r\n\r\n</li>\r\n\r\n<li>\r\n<a href=\"/plant-health/potatoes/guidance-documents/guide-to-developing-your-farm-biosecurity-plan/eng/1367841058884/1367841193074?chap=7#s2c7\">1.2 New Construction Renovations</a>\r\n\r\n</li>\r\n\r\n</ul>\r\n\r\n</li>\r\n\r\n<li>\r\n<a href=\"/plant-health/potatoes/guidance-documents/guide-to-developing-your-farm-biosecurity-plan/eng/1367841058884/1367841193074?chap=8\">2. Understanding the Concepts: Farm Operational \u00a0Management</a>\r\n\r\n<ul class=\"list-unstyled col-md-offset-1 mrgn-bttm-md\">\r\n\r\n<li>\r\n<a href=\"/plant-health/potatoes/guidance-documents/guide-to-developing-your-farm-biosecurity-plan/eng/1367841058884/1367841193074?chap=8#s3c8\">2.1. Establishing Biosecurity Zones</a>\r\n\r\n</li>\r\n\r\n<li>\r\n<a href=\"/plant-health/potatoes/guidance-documents/guide-to-developing-your-farm-biosecurity-plan/eng/1367841058884/1367841193074?chap=8#s4c8\">2.2 Movement of People (Protocols, Communication, and Training)</a>\r\n\r\n</li>\r\n\r\n<li>\r\n<a href=\"/plant-health/potatoes/guidance-documents/guide-to-developing-your-farm-biosecurity-plan/eng/1367841058884/1367841193074?chap=8#s5c8\">2.3 Movement of Vehicles and Equipment</a>\r\n\r\n</li>\r\n\r\n<li>\r\n<a href=\"/plant-health/potatoes/guidance-documents/guide-to-developing-your-farm-biosecurity-plan/eng/1367841058884/1367841193074?chap=8#s6c8\">2.4 Waste (water, plant, and soil)</a>\r\n\r\n</li>\r\n\r\n</ul>\r\n\r\n</li>\r\n\r\n<li>\r\n<a href=\"/plant-health/potatoes/guidance-documents/guide-to-developing-your-farm-biosecurity-plan/eng/1367841058884/1367841193074?chap=9\">3. Understanding the Concepts: Plant Health Management</a>\r\n\r\n<ul class=\"list-unstyled col-md-offset-1 mrgn-bttm-md\">\r\n\r\n<li>\r\n<a href=\"/plant-health/potatoes/guidance-documents/guide-to-developing-your-farm-biosecurity-plan/eng/1367841058884/1367841193074?chap=9#s7c9\">3.1 Prevention Management Practices</a>\r\n\r\n</li>\r\n\r\n<li>\r\n<a href=\"/plant-health/potatoes/guidance-documents/guide-to-developing-your-farm-biosecurity-plan/eng/1367841058884/1367841193074?chap=9#s8c9\">3.2 Surveillance</a>\r\n\r\n</li>\r\n\r\n<li>\r\n<a href=\"/plant-health/potatoes/guidance-documents/guide-to-developing-your-farm-biosecurity-plan/eng/1367841058884/1367841193074?chap=9#s9c9\">3.3 Response Plan</a>\r\n\r\n</li>\r\n\r\n</ul>\r\n\r\n</li>\r\n\r\n<li>\r\n<a href=\"/plant-health/potatoes/guidance-documents/guide-to-developing-your-farm-biosecurity-plan/eng/1367841058884/1367841193074?chap=10\">Appendix A: Farm Biosecurity Planning Tool</a>\r\n\r\n</li>\r\n\r\n<li>\r\n<a href=\"/plant-health/potatoes/guidance-documents/guide-to-developing-your-farm-biosecurity-plan/eng/1367841058884/1367841193074?chap=11\">Appendix B: Acknowledgements</a>\r\n\r\n</li>\r\n\r\n</ul>\r\n\r\n\r\n\n\n\r\n        \r\n\r\n\r\n\r\n<div class=\"row\">\r\n \r\n\t\r\n\t\t\t\r\n\r\n<div class=\"col-xm-12 pagedetails container\">\r\n\t\t\t\t\r\n\r\n</div>\r\n\t\r\n</div>",
        "fr": "-&gt;\r\n\r\n\r\n\r\n\r\n\r\n\r\n\r\n        \r\n        \n\n\r\n\r\n<section class=\"alert alert-info\">\r\n<h2 class=\"h3\">Cette page fait partie du r\u00e9pertoire des documents d'orientation (RDO).</h2>\r\n<p>\r\n<br>\r\n<a href=\"/orientation-pour-l-industrie/fra/1374161650885/1374161737236?gp=3&amp;gc=26&amp;ga=7#gdr_results\" class=\"alert-link\">\r\n            Recherche de documents connexes dans le r\u00e9pertoire des documents d'orientation.\r\n</a>\r\n</p>\r\n</section>\r\n\r\n\r\n\r\n<p class=\"small text-right\"><a href=\"/protection-des-vegetaux/pommes-de-terre/documents-d-orientation/guide-pour-l-elaboration-de-votre-plan-de-biosecur/fra/1367841058884/1367841193074?chap=0\">Texte Complet</a></p>\r\n\r\n\r\n<h2>Table des Mati\u00e8res</h2>\r\n<ul class=\"list-unstyled col-md-offset-1 mrgn-tp-md mrgn-bttm-md\">\r\n\r\n<li>\r\n<a href=\"/protection-des-vegetaux/pommes-de-terre/documents-d-orientation/guide-pour-l-elaboration-de-votre-plan-de-biosecur/fra/1367841058884/1367841193074?chap=1\">Glossaire</a>\r\n\r\n</li>\r\n\r\n<li>\r\n<a href=\"/protection-des-vegetaux/pommes-de-terre/documents-d-orientation/guide-pour-l-elaboration-de-votre-plan-de-biosecur/fra/1367841058884/1367841193074?chap=2\">Pourquoi la bios\u00e9curit\u00e9 dans l\u2019industrie de la pomme de terre est-elle importante?</a>\r\n\r\n</li>\r\n\r\n<li>\r\n<a href=\"/protection-des-vegetaux/pommes-de-terre/documents-d-orientation/guide-pour-l-elaboration-de-votre-plan-de-biosecur/fra/1367841058884/1367841193074?chap=3\">Qui est responsable de la bios\u00e9curit\u00e9 \u00e0 la ferme?</a>\r\n\r\n</li>\r\n\r\n<li>\r\n<a href=\"/protection-des-vegetaux/pommes-de-terre/documents-d-orientation/guide-pour-l-elaboration-de-votre-plan-de-biosecur/fra/1367841058884/1367841193074?chap=4\">\u00c0 quoi ressemble un plan de bios\u00e9curit\u00e9?</a>\r\n\r\n</li>\r\n\r\n<li>\r\n<a href=\"/protection-des-vegetaux/pommes-de-terre/documents-d-orientation/guide-pour-l-elaboration-de-votre-plan-de-biosecur/fra/1367841058884/1367841193074?chap=5\">Au sujet du Guide du producteur</a>\r\n\r\n</li>\r\n\r\n<li>\r\n<a href=\"/protection-des-vegetaux/pommes-de-terre/documents-d-orientation/guide-pour-l-elaboration-de-votre-plan-de-biosecur/fra/1367841058884/1367841193074?chap=6\">De quelle mani\u00e8re dois-je utiliser le Guide du producteur?</a>\r\n\r\n</li>\r\n\r\n<li>\r\n<a href=\"/protection-des-vegetaux/pommes-de-terre/documents-d-orientation/guide-pour-l-elaboration-de-votre-plan-de-biosecur/fra/1367841058884/1367841193074?chap=7\">1. Comprendre les concepts\u00a0: gestion de la propri\u00e9t\u00e9 agricole</a>\r\n\r\n<ul class=\"list-unstyled col-md-offset-1 mrgn-bttm-md\">\r\n\r\n<li>\r\n<a href=\"/protection-des-vegetaux/pommes-de-terre/documents-d-orientation/guide-pour-l-elaboration-de-votre-plan-de-biosecur/fra/1367841058884/1367841193074?chap=7#s1c7\">1.1 Installations, emplacement et disposition de la ferme</a>\r\n\r\n</li>\r\n\r\n<li>\r\n<a href=\"/protection-des-vegetaux/pommes-de-terre/documents-d-orientation/guide-pour-l-elaboration-de-votre-plan-de-biosecur/fra/1367841058884/1367841193074?chap=7#s2c7\">1.2 Nouvelles constructions et r\u00e9novations</a>\r\n\r\n</li>\r\n\r\n</ul>\r\n\r\n</li>\r\n\r\n<li>\r\n<a href=\"/protection-des-vegetaux/pommes-de-terre/documents-d-orientation/guide-pour-l-elaboration-de-votre-plan-de-biosecur/fra/1367841058884/1367841193074?chap=8\">2. Comprendre les concepts\u00a0: gestion des op\u00e9rations \u00e0 la ferme</a>\r\n\r\n<ul class=\"list-unstyled col-md-offset-1 mrgn-bttm-md\">\r\n\r\n<li>\r\n<a href=\"/protection-des-vegetaux/pommes-de-terre/documents-d-orientation/guide-pour-l-elaboration-de-votre-plan-de-biosecur/fra/1367841058884/1367841193074?chap=8#s3c8\">2.1 \u00c9tablissement de zones de bios\u00e9curit\u00e9</a>\r\n\r\n</li>\r\n\r\n<li>\r\n<a href=\"/protection-des-vegetaux/pommes-de-terre/documents-d-orientation/guide-pour-l-elaboration-de-votre-plan-de-biosecur/fra/1367841058884/1367841193074?chap=8#s4c8\">2.2 D\u00e9placement de personnes (protocoles, communications et formation)</a>\r\n\r\n</li>\r\n\r\n<li>\r\n<a href=\"/protection-des-vegetaux/pommes-de-terre/documents-d-orientation/guide-pour-l-elaboration-de-votre-plan-de-biosecur/fra/1367841058884/1367841193074?chap=8#s5c8\">2.3 D\u00e9placement de v\u00e9hicules et d\u2019\u00e9quipement</a>\r\n\r\n</li>\r\n\r\n<li>\r\n<a href=\"/protection-des-vegetaux/pommes-de-terre/documents-d-orientation/guide-pour-l-elaboration-de-votre-plan-de-biosecur/fra/1367841058884/1367841193074?chap=8#s6c8\">2.4 D\u00e9chets (eaux, v\u00e9g\u00e9taux et sol)</a>\r\n\r\n</li>\r\n\r\n</ul>\r\n\r\n</li>\r\n\r\n<li>\r\n<a href=\"/protection-des-vegetaux/pommes-de-terre/documents-d-orientation/guide-pour-l-elaboration-de-votre-plan-de-biosecur/fra/1367841058884/1367841193074?chap=9\">3. Comprendre les concepts\u00a0: gestion de la protection des v\u00e9g\u00e9taux</a>\r\n\r\n<ul class=\"list-unstyled col-md-offset-1 mrgn-bttm-md\">\r\n\r\n<li>\r\n<a href=\"/protection-des-vegetaux/pommes-de-terre/documents-d-orientation/guide-pour-l-elaboration-de-votre-plan-de-biosecur/fra/1367841058884/1367841193074?chap=9#s7c9\">3.1 Pratiques de gestion pr\u00e9ventive</a>\r\n\r\n</li>\r\n\r\n<li>\r\n<a href=\"/protection-des-vegetaux/pommes-de-terre/documents-d-orientation/guide-pour-l-elaboration-de-votre-plan-de-biosecur/fra/1367841058884/1367841193074?chap=9#s8c9\">3.2 Surveillance</a>\r\n\r\n</li>\r\n\r\n<li>\r\n<a href=\"/protection-des-vegetaux/pommes-de-terre/documents-d-orientation/guide-pour-l-elaboration-de-votre-plan-de-biosecur/fra/1367841058884/1367841193074?chap=9#s9c9\">3.3 Plan d\u2019intervention</a>\r\n\r\n</li>\r\n\r\n</ul>\r\n\r\n</li>\r\n\r\n<li>\r\n<a href=\"/protection-des-vegetaux/pommes-de-terre/documents-d-orientation/guide-pour-l-elaboration-de-votre-plan-de-biosecur/fra/1367841058884/1367841193074?chap=10\">Annexe\u00a0A. Outil de planification de la bios\u00e9curit\u00e9 \u00e0 la ferme</a>\r\n\r\n</li>\r\n\r\n<li>\r\n<a href=\"/protection-des-vegetaux/pommes-de-terre/documents-d-orientation/guide-pour-l-elaboration-de-votre-plan-de-biosecur/fra/1367841058884/1367841193074?chap=11\">Annexe B. Remerciements</a>\r\n\r\n</li>\r\n\r\n</ul>\r\n\r\n\r\n<div class=\"clear\"></div>\r\n\n\n\r\n        \r\n\r\n<div class=\"row\">\r\n \r\n\t\t\t\r\n\t\t\t\r\n\r\n\t\t\r\n\t\r\n</div>"
    },
    "js": {
        "en": "",
        "fr": ""
    },
    "success": true,
    "chat_wizard": false
}