{
    "dcr_id": "1373640653113",
    "title": {
        "en": "Code of Practice for the Harvest, Transport, Processing, and Export of Seal Products Intended for Human Consumption",
        "fr": "Code de pratiques pour la chasse au phoque ainsi que le transport, la transformation et l'exportation de produits d\u00e9riv\u00e9s du phoque destin\u00e9s \u00e0 la consommation humaine"
    },
    "html_modified": "2024-02-05 2:52:00 PM",
    "modified": "2019-01-28",
    "issued": "2013-07-12 10:51:03",
    "teamsite_location": {
        "en": "/default/main/inspection/cont-cont/food-aliments/STAGING/templatedata/comn-comn/manuals-manuels/data/fispoi_export_seal_products_1373640653113_eng",
        "fr": "/default/main/inspection/cont-cont/food-aliments/STAGING/templatedata/comn-comn/manuals-manuels/data/fispoi_export_seal_products_1373640653113_fra"
    },
    "ia_id": "1373640765807",
    "parent_ia_id": "1503941059640",
    "chronicletopic": {
        "en": "",
        "fr": ""
    },
    "chroniclecontent": {
        "en": "",
        "fr": ""
    },
    "chronicleaudience": {
        "en": "",
        "fr": ""
    },
    "sfcrdocumenttype": {
        "en": "Guidance",
        "fr": "Document d'orientation"
    },
    "sfcraudience": {
        "en": "Industry|Agency personnel",
        "fr": "Industrie|Personnel de l'agence"
    },
    "sfcrmethodofproduction": {
        "en": "",
        "fr": ""
    },
    "activity": {
        "en": "Exporting food",
        "fr": "Exportation d\u2019aliments"
    },
    "commodity": {
        "en": "Fish and seafood",
        "fr": "Poissons et fruits de mer"
    },
    "program": {
        "en": "Food",
        "fr": "Aliments"
    },
    "search_type": "guidancefinder",
    "parent_node_id": "1503941059640",
    "layout_name": "content page 1 column",
    "breadcrumb": {
        "en": "Code of Practice for the Harvest, Transport, Processing, and Export of Seal Products Intended for Human Consumption",
        "fr": "Code de pratiques pour la chasse au phoque ainsi que le transport, la transformation et l'exportation de produits d\u00e9riv\u00e9s du phoque destin\u00e9s \u00e0 la consommation humaine"
    },
    "label": {
        "en": "Code of Practice for the Harvest, Transport, Processing, and Export of Seal Products Intended for Human Consumption",
        "fr": "Code de pratiques pour la chasse au phoque ainsi que le transport, la transformation et l'exportation de produits d\u00e9riv\u00e9s du phoque destin\u00e9s \u00e0 la consommation humaine"
    },
    "templatetype": "content page 1 column",
    "node_id": "1373640765807",
    "managing_branch": "comn",
    "type_name": "manuals-manuels",
    "dcr_type": "manuals-manuels",
    "parent_dcr_id": "1503941030653",
    "has_dcr_id": true,
    "lang": "en",
    "could_not_load": 0,
    "refaire": false,
    "interwoven_url": {
        "en": "/exporting-food-plants-or-animals/food-exports/food-specific-export-requirements/code-of-practice/",
        "fr": "/exportation-d-aliments-de-plantes-ou-d-animaux/exportations-d-aliments/exigences-d-exportation-particulieres-aux-produits/code-de-pratiques/"
    },
    "meta": {
        "viewport": {
            "en": "width=device-width,initial-scale=1",
            "fr": "width=device-width,initial-scale=1"
        },
        "service": {
            "en": "CFIA-ACIA",
            "fr": "CFIA-ACIA"
        },
        "accessRights": {
            "en": "2",
            "fr": "2"
        },
        "title": {
            "en": "Code of Practice for the Harvest, Transport, Processing, and Export of Seal Products Intended for Human Consumption",
            "fr": "Code de pratiques pour la chasse au phoque ainsi que le transport, la transformation et l'exportation de produits d\u00e9riv\u00e9s du phoque destin\u00e9s \u00e0 la consommation humaine"
        },
        "description": {
            "en": "Code of Practice for the Harvest, Transport, Processing, and Export of Seal Products Intended for Human Consumption",
            "fr": "Code de pratiques pour la chasse au phoque ainsi que le transport, la transformation et l'exportation de produits d\u00e9riv\u00e9s du phoque destin\u00e9s \u00e0 la consommation humaine"
        },
        "keywords": {
            "en": "safety, QMP, HACCP, China, certification, Exporting seal products, code of practice",
            "fr": "s&#233;curit&#233;, PGQ, HACCP, exigences, Russie, certification, Exporter des produits de phoque, code de pratiques"
        },
        "dcterms.subject": {
            "en": "crustaceans,exports,fish,fisheries products,handbooks,imports,seafood",
            "fr": "crustac\u00e9,exportation,poisson,produit de la peche,manuel,importation,fruits de mer"
        },
        "creator": {
            "en": "Government of Canada,Canadian Food Inspection Agency",
            "fr": "Gouvernement du Canada,Agence canadienne d'inspection des aliments"
        },
        "language": {
            "en": "eng",
            "fr": "fra"
        },
        "issued": {
            "en": "2013-07-12 10:51:03",
            "fr": "2013-07-12 10:51:03"
        },
        "modified": {
            "en": "2019-01-28",
            "fr": "2019-01-28"
        },
        "audience": {
            "en": "business,government",
            "fr": "entreprises,gouvernement"
        },
        "name": {
            "en": "Government of Canada",
            "fr": "Gouvernement du Canada"
        },
        "areaServed": {
            "en": "Canada",
            "fr": "Canada"
        }
    },
    "h1": {
        "en": "Code of Practice for the Harvest, Transport, Processing, and Export of Seal Products Intended for Human Consumption",
        "fr": "Code de pratiques pour la chasse au phoque ainsi que le transport, la transformation et l'exportation de produits d\u00e9riv\u00e9s du phoque destin\u00e9s \u00e0 la consommation humaine"
    },
    "js": {
        "en": "",
        "fr": ""
    },
    "body": {
        "en": "-&gt;\r\n\r\n\r\n\r\n\r\n\r\n\r\n        \r\n        \n\n\r\n\r\n\r\n\r\n\r\n\r\n<p class=\"small text-right\"><a href=\"/exporting-food-plants-or-animals/food-exports/food-specific-export-requirements/code-of-practice/eng/1373640653113/1373640765807?chap=0\">Complete text</a></p>\r\n\r\n\r\n<h2>On this page</h2>\r\n<ul class=\"list-unstyled col-md-offset-1 mrgn-tp-md mrgn-bttm-md\">\r\n\r\n<li>\r\n<a href=\"/exporting-food-plants-or-animals/food-exports/food-specific-export-requirements/code-of-practice/eng/1373640653113/1373640765807?chap=1\">Purpose/Scope</a>\r\n\r\n</li>\r\n\r\n<li>\r\n<a href=\"/exporting-food-plants-or-animals/food-exports/food-specific-export-requirements/code-of-practice/eng/1373640653113/1373640765807?chap=2\">Appendix <abbr title=\"1\">I</abbr>: Harvest Activities <br> Seal Products: Slaughter and Handling</a>\r\n\r\n<ul class=\"list-unstyled col-md-offset-1 mrgn-bttm-md\">\r\n\r\n<li>\r\n<a href=\"/exporting-food-plants-or-animals/food-exports/food-specific-export-requirements/code-of-practice/eng/1373640653113/1373640765807?chap=2#s1c2\">1.0 Training</a>\r\n\r\n</li>\r\n\r\n<li>\r\n<a href=\"/exporting-food-plants-or-animals/food-exports/food-specific-export-requirements/code-of-practice/eng/1373640653113/1373640765807?chap=2#s2c2\">2.0 Humane Slaughter</a>\r\n\r\n</li>\r\n\r\n<li>\r\n<a href=\"/exporting-food-plants-or-animals/food-exports/food-specific-export-requirements/code-of-practice/eng/1373640653113/1373640765807?chap=2#s3c2\">3.0 Post Harvest: Bleeding/Sanitary Pelting/Evisceration</a>\r\n\r\n</li>\r\n\r\n</ul>\r\n\r\n</li>\r\n\r\n<li>\r\n<a href=\"/exporting-food-plants-or-animals/food-exports/food-specific-export-requirements/code-of-practice/eng/1373640653113/1373640765807?chap=3\">Appendix <abbr title=\"2\">II</abbr>: Assessing Suitability of Seals</a>\r\n\r\n<ul class=\"list-unstyled col-md-offset-1 mrgn-bttm-md\">\r\n\r\n<li>\r\n<a href=\"/exporting-food-plants-or-animals/food-exports/food-specific-export-requirements/code-of-practice/eng/1373640653113/1373640765807?chap=3#s4c3\">1.0 Harvest of Healthy Seals that are Suitable for Human Consumption</a>\r\n\r\n</li>\r\n\r\n<li>\r\n<a href=\"/exporting-food-plants-or-animals/food-exports/food-specific-export-requirements/code-of-practice/eng/1373640653113/1373640765807?chap=3#s5c3\">2.0 Guidelines to Identify Healthy Seals that are Suitable for Human Consumption</a>\r\n\r\n</li>\r\n\r\n</ul>\r\n\r\n</li>\r\n\r\n<li>\r\n<a href=\"/exporting-food-plants-or-animals/food-exports/food-specific-export-requirements/code-of-practice/eng/1373640653113/1373640765807?chap=4\">Appendix <abbr title=\"3\">III</abbr>: Harvest Vessel Processing/Construction/ Storage Requirements</a>\r\n\r\n<ul class=\"list-unstyled col-md-offset-1 mrgn-bttm-md\">\r\n\r\n<li>\r\n<a href=\"/exporting-food-plants-or-animals/food-exports/food-specific-export-requirements/code-of-practice/eng/1373640653113/1373640765807?chap=4#s6c4\">1.0 Training</a>\r\n\r\n</li>\r\n\r\n<li>\r\n<a href=\"/exporting-food-plants-or-animals/food-exports/food-specific-export-requirements/code-of-practice/eng/1373640653113/1373640765807?chap=4#s7c4\">2.0 Holding/Processing Controls On the Harvest Vessel</a>\r\n\r\n</li>\r\n\r\n<li>\r\n<a href=\"/exporting-food-plants-or-animals/food-exports/food-specific-export-requirements/code-of-practice/eng/1373640653113/1373640765807?chap=4#s8c4\">3.0 Storage on the Vessel</a>\r\n\r\n</li>\r\n\r\n<li>\r\n<a href=\"/exporting-food-plants-or-animals/food-exports/food-specific-export-requirements/code-of-practice/eng/1373640653113/1373640765807?chap=4#s9c4\">4.0 Transport Conditions</a>\r\n\r\n</li>\r\n\r\n<li>\r\n<a href=\"/exporting-food-plants-or-animals/food-exports/food-specific-export-requirements/code-of-practice/eng/1373640653113/1373640765807?chap=4#s10c4\">5.0 Construction, Equipment and Maintenance</a>\r\n\r\n</li>\r\n\r\n<li>\r\n<a href=\"/exporting-food-plants-or-animals/food-exports/food-specific-export-requirements/code-of-practice/eng/1373640653113/1373640765807?chap=4#s11c4\">6.0 Sanitation</a>\r\n\r\n</li>\r\n\r\n<li>\r\n<a href=\"/exporting-food-plants-or-animals/food-exports/food-specific-export-requirements/code-of-practice/eng/1373640653113/1373640765807?chap=4#s12c4\">7.0 Water Source</a>\r\n\r\n</li>\r\n\r\n<li>\r\n<a href=\"/exporting-food-plants-or-animals/food-exports/food-specific-export-requirements/code-of-practice/eng/1373640653113/1373640765807?chap=4#s13c4\">8.0 Hand Washing and Toilet Facilities </a>\r\n\r\n</li>\r\n\r\n<li>\r\n<a href=\"/exporting-food-plants-or-animals/food-exports/food-specific-export-requirements/code-of-practice/eng/1373640653113/1373640765807?chap=4#s14c4\">9.0 Daily Catch Log</a>\r\n\r\n</li>\r\n\r\n<li>\r\n<a href=\"/exporting-food-plants-or-animals/food-exports/food-specific-export-requirements/code-of-practice/eng/1373640653113/1373640765807?chap=4#s15c4\">10.0 Training Records</a>\r\n\r\n</li>\r\n\r\n</ul>\r\n\r\n</li>\r\n\r\n<li>\r\n<a href=\"/exporting-food-plants-or-animals/food-exports/food-specific-export-requirements/code-of-practice/eng/1373640653113/1373640765807?chap=5\">Appendix <abbr title=\"4\">IV</abbr>: Requirements for Conveyances and Equipment Used For Unloading, Handling, Holding, and Transportation, (UHHT) </a>\r\n\r\n<ul class=\"list-unstyled col-md-offset-1 mrgn-bttm-md\">\r\n\r\n<li>\r\n<a href=\"/exporting-food-plants-or-animals/food-exports/food-specific-export-requirements/code-of-practice/eng/1373640653113/1373640765807?chap=5#s16c5\">1. Offloading</a>\r\n\r\n</li>\r\n\r\n<li>\r\n<a href=\"/exporting-food-plants-or-animals/food-exports/food-specific-export-requirements/code-of-practice/eng/1373640653113/1373640765807?chap=5#s17c5\">2. Offloading/Transport Equipment</a>\r\n\r\n</li>\r\n\r\n<li>\r\n<a href=\"/exporting-food-plants-or-animals/food-exports/food-specific-export-requirements/code-of-practice/eng/1373640653113/1373640765807?chap=5#s18c5\">3. Holding/Transport</a>\r\n\r\n</li>\r\n\r\n<li>\r\n<a href=\"/exporting-food-plants-or-animals/food-exports/food-specific-export-requirements/code-of-practice/eng/1373640653113/1373640765807?chap=5#s19c5\">4. Ice/Water Supply</a>\r\n\r\n</li>\r\n\r\n<li>\r\n<a href=\"/exporting-food-plants-or-animals/food-exports/food-specific-export-requirements/code-of-practice/eng/1373640653113/1373640765807?chap=5#s20c5\">5. Cleaning/Sanitation</a>\r\n\r\n</li>\r\n\r\n</ul>\r\n\r\n</li>\r\n\r\n<li>\r\n<a href=\"/exporting-food-plants-or-animals/food-exports/food-specific-export-requirements/code-of-practice/eng/1373640653113/1373640765807?chap=6\">Appendix <abbr title=\"5\">V</abbr>: <abbr title=\"Quality Management Program\">QMP</abbr> Reference Standard and Compliance Guidelines</a>\r\n\r\n</li>\r\n\r\n<li>\r\n<a href=\"/exporting-food-plants-or-animals/food-exports/food-specific-export-requirements/code-of-practice/eng/1373640653113/1373640765807?chap=7\">Appendix <abbr title=\"6\">VI</abbr>: Export Certification Control Plan (ECCP)</a>\r\n\r\n</li>\r\n\r\n<li>\r\n<a href=\"/exporting-food-plants-or-animals/food-exports/food-specific-export-requirements/code-of-practice/eng/1373640653113/1373640765807?chap=8\">Appendix <abbr title=\"7\">VII</abbr>: Fresh and Frozen Seal Standard</a>\r\n\r\n<ul class=\"list-unstyled col-md-offset-1 mrgn-bttm-md\">\r\n\r\n<li>\r\n<a href=\"/exporting-food-plants-or-animals/food-exports/food-specific-export-requirements/code-of-practice/eng/1373640653113/1373640765807?chap=8#s21c8\">1. Introduction</a>\r\n\r\n</li>\r\n\r\n<li>\r\n<a href=\"/exporting-food-plants-or-animals/food-exports/food-specific-export-requirements/code-of-practice/eng/1373640653113/1373640765807?chap=8#s22c8\">2. Scope</a>\r\n\r\n</li>\r\n\r\n<li>\r\n<a href=\"/exporting-food-plants-or-animals/food-exports/food-specific-export-requirements/code-of-practice/eng/1373640653113/1373640765807?chap=8#s23c8\">3. Nomenclature</a>\r\n\r\n</li>\r\n\r\n<li>\r\n<a href=\"/exporting-food-plants-or-animals/food-exports/food-specific-export-requirements/code-of-practice/eng/1373640653113/1373640765807?chap=8#s24c8\">4. Forms of Presentation</a>\r\n\r\n</li>\r\n\r\n<li>\r\n<a href=\"/exporting-food-plants-or-animals/food-exports/food-specific-export-requirements/code-of-practice/eng/1373640653113/1373640765807?chap=8#s25c8\">5. Sampling</a>\r\n\r\n</li>\r\n\r\n<li>\r\n<a href=\"/exporting-food-plants-or-animals/food-exports/food-specific-export-requirements/code-of-practice/eng/1373640653113/1373640765807?chap=8#s26c8\">6. Description of Defects</a>\r\n\r\n</li>\r\n\r\n<li>\r\n<a href=\"/exporting-food-plants-or-animals/food-exports/food-specific-export-requirements/code-of-practice/eng/1373640653113/1373640765807?chap=8#s27c8\">7. Classification of Defects</a>\r\n\r\n</li>\r\n\r\n<li>\r\n<a href=\"/exporting-food-plants-or-animals/food-exports/food-specific-export-requirements/code-of-practice/eng/1373640653113/1373640765807?chap=8#s28c8\">8. Lot Acceptance</a>\r\n\r\n</li>\r\n\r\n<li>\r\n<a href=\"/exporting-food-plants-or-animals/food-exports/food-specific-export-requirements/code-of-practice/eng/1373640653113/1373640765807?chap=8#s29c8\">9. Requirements for Physiochemical Attributes and for Contaminant Levels</a>\r\n\r\n</li>\r\n\r\n</ul>\r\n\r\n</li>\r\n\r\n<li>\r\n<a href=\"/exporting-food-plants-or-animals/food-exports/food-specific-export-requirements/code-of-practice/eng/1373640653113/1373640765807?chap=9\">Definitions</a>\r\n\r\n</li>\r\n\r\n</ul>\r\n\r\n\r\n\n\n\r\n        \r\n\r\n\r\n\r\n<div class=\"row\">\r\n \r\n\t\r\n\t\t\t\r\n\r\n<div class=\"col-xm-12 pagedetails container\">\r\n\t\t\t\t\r\n\r\n</div>\r\n\t\r\n</div>",
        "fr": "-&gt;\r\n\r\n\r\n\r\n\r\n\r\n\r\n\r\n        \r\n        \n\n\r\n\r\n\r\n\r\n\r\n\r\n<p class=\"small text-right\"><a href=\"/exportation-d-aliments-de-plantes-ou-d-animaux/exportations-d-aliments/exigences-d-exportation-particulieres-aux-produits/code-de-pratiques/fra/1373640653113/1373640765807?chap=0\">Texte complet</a></p>\r\n\r\n\r\n<h2>Sur cette page</h2>\r\n<ul class=\"list-unstyled col-md-offset-1 mrgn-tp-md mrgn-bttm-md\">\r\n\r\n<li>\r\n<a href=\"/exportation-d-aliments-de-plantes-ou-d-animaux/exportations-d-aliments/exigences-d-exportation-particulieres-aux-produits/code-de-pratiques/fra/1373640653113/1373640765807?chap=1\">Objectif/port\u00e9e</a>\r\n\r\n</li>\r\n\r\n<li>\r\n<a href=\"/exportation-d-aliments-de-plantes-ou-d-animaux/exportations-d-aliments/exigences-d-exportation-particulieres-aux-produits/code-de-pratiques/fra/1373640653113/1373640765807?chap=2\">Annexe <abbr title=\"1\">I</abbr> : Activit\u00e9s de chasse<br>Produits du phoque : Abattage et manutention</a>\r\n\r\n<ul class=\"list-unstyled col-md-offset-1 mrgn-bttm-md\">\r\n\r\n<li>\r\n<a href=\"/exportation-d-aliments-de-plantes-ou-d-animaux/exportations-d-aliments/exigences-d-exportation-particulieres-aux-produits/code-de-pratiques/fra/1373640653113/1373640765807?chap=2#s1c2\">1.0 Formation</a>\r\n\r\n</li>\r\n\r\n<li>\r\n<a href=\"/exportation-d-aliments-de-plantes-ou-d-animaux/exportations-d-aliments/exigences-d-exportation-particulieres-aux-produits/code-de-pratiques/fra/1373640653113/1373640765807?chap=2#s2c2\">2.0 Abattage sans cruaut\u00e9</a>\r\n\r\n</li>\r\n\r\n<li>\r\n<a href=\"/exportation-d-aliments-de-plantes-ou-d-animaux/exportations-d-aliments/exigences-d-exportation-particulieres-aux-produits/code-de-pratiques/fra/1373640653113/1373640765807?chap=2#s3c2\">3.0 Post-abattage : saign\u00e9e/\u00e9corchage sanitaire/\u00e9visc\u00e9ration</a>\r\n\r\n</li>\r\n\r\n</ul>\r\n\r\n</li>\r\n\r\n<li>\r\n<a href=\"/exportation-d-aliments-de-plantes-ou-d-animaux/exportations-d-aliments/exigences-d-exportation-particulieres-aux-produits/code-de-pratiques/fra/1373640653113/1373640765807?chap=3\">Annexe <abbr title=\"2\">II</abbr> : \u00c9valuation de la salubrit\u00e9 des phoques</a>\r\n\r\n<ul class=\"list-unstyled col-md-offset-1 mrgn-bttm-md\">\r\n\r\n<li>\r\n<a href=\"/exportation-d-aliments-de-plantes-ou-d-animaux/exportations-d-aliments/exigences-d-exportation-particulieres-aux-produits/code-de-pratiques/fra/1373640653113/1373640765807?chap=3#s4c3\">1.0  Abattage de phoques sains et propres \u00e0 la consommation humaine</a>\r\n\r\n</li>\r\n\r\n<li>\r\n<a href=\"/exportation-d-aliments-de-plantes-ou-d-animaux/exportations-d-aliments/exigences-d-exportation-particulieres-aux-produits/code-de-pratiques/fra/1373640653113/1373640765807?chap=3#s5c3\">2.0  Lignes directrices pour distinguer les phoques en bonne sant\u00e9 qui sont propres \u00e0 la consommation humaine</a>\r\n\r\n</li>\r\n\r\n</ul>\r\n\r\n</li>\r\n\r\n<li>\r\n<a href=\"/exportation-d-aliments-de-plantes-ou-d-animaux/exportations-d-aliments/exigences-d-exportation-particulieres-aux-produits/code-de-pratiques/fra/1373640653113/1373640765807?chap=4\">Annexe <abbr title=\"3\">III</abbr> : Exigences applicables au bateau/transformation/construction/entreposage</a>\r\n\r\n<ul class=\"list-unstyled col-md-offset-1 mrgn-bttm-md\">\r\n\r\n<li>\r\n<a href=\"/exportation-d-aliments-de-plantes-ou-d-animaux/exportations-d-aliments/exigences-d-exportation-particulieres-aux-produits/code-de-pratiques/fra/1373640653113/1373640765807?chap=4#s6c4\">1.0 Formation</a>\r\n\r\n</li>\r\n\r\n<li>\r\n<a href=\"/exportation-d-aliments-de-plantes-ou-d-animaux/exportations-d-aliments/exigences-d-exportation-particulieres-aux-produits/code-de-pratiques/fra/1373640653113/1373640765807?chap=4#s7c4\">2.0 Mesures de contr\u00f4le en mati\u00e8re de transformation/d'entreposage temporaire \u00e0 bord du bateau</a>\r\n\r\n</li>\r\n\r\n<li>\r\n<a href=\"/exportation-d-aliments-de-plantes-ou-d-animaux/exportations-d-aliments/exigences-d-exportation-particulieres-aux-produits/code-de-pratiques/fra/1373640653113/1373640765807?chap=4#s8c4\">3.0 Entreposage \u00e0 bord du bateau</a>\r\n\r\n</li>\r\n\r\n<li>\r\n<a href=\"/exportation-d-aliments-de-plantes-ou-d-animaux/exportations-d-aliments/exigences-d-exportation-particulieres-aux-produits/code-de-pratiques/fra/1373640653113/1373640765807?chap=4#s9c4\">4.0 Conditions de transport</a>\r\n\r\n</li>\r\n\r\n<li>\r\n<a href=\"/exportation-d-aliments-de-plantes-ou-d-animaux/exportations-d-aliments/exigences-d-exportation-particulieres-aux-produits/code-de-pratiques/fra/1373640653113/1373640765807?chap=4#s10c4\">5.0 Construction, \u00e9quipement et entretien</a>\r\n\r\n</li>\r\n\r\n<li>\r\n<a href=\"/exportation-d-aliments-de-plantes-ou-d-animaux/exportations-d-aliments/exigences-d-exportation-particulieres-aux-produits/code-de-pratiques/fra/1373640653113/1373640765807?chap=4#s11c4\">6.0 Assainissement</a>\r\n\r\n</li>\r\n\r\n<li>\r\n<a href=\"/exportation-d-aliments-de-plantes-ou-d-animaux/exportations-d-aliments/exigences-d-exportation-particulieres-aux-produits/code-de-pratiques/fra/1373640653113/1373640765807?chap=4#s12c4\">7.0\tSource d'eau</a>\r\n\r\n</li>\r\n\r\n<li>\r\n<a href=\"/exportation-d-aliments-de-plantes-ou-d-animaux/exportations-d-aliments/exigences-d-exportation-particulieres-aux-produits/code-de-pratiques/fra/1373640653113/1373640765807?chap=4#s13c4\">8.0\tLavage des mains et installations sanitaires</a>\r\n\r\n</li>\r\n\r\n<li>\r\n<a href=\"/exportation-d-aliments-de-plantes-ou-d-animaux/exportations-d-aliments/exigences-d-exportation-particulieres-aux-produits/code-de-pratiques/fra/1373640653113/1373640765807?chap=4#s14c4\">9.0\tRegistre quotidien des prises</a>\r\n\r\n</li>\r\n\r\n<li>\r\n<a href=\"/exportation-d-aliments-de-plantes-ou-d-animaux/exportations-d-aliments/exigences-d-exportation-particulieres-aux-produits/code-de-pratiques/fra/1373640653113/1373640765807?chap=4#s15c4\">10.0\tDossiers de formation</a>\r\n\r\n</li>\r\n\r\n</ul>\r\n\r\n</li>\r\n\r\n<li>\r\n<a href=\"/exportation-d-aliments-de-plantes-ou-d-animaux/exportations-d-aliments/exigences-d-exportation-particulieres-aux-produits/code-de-pratiques/fra/1373640653113/1373640765807?chap=5\">Annexe <abbr title=\"4\">IV</abbr> :   Exigences applicables aux v\u00e9hicules et \u00e0 l'\u00e9quipement servant au d\u00e9chargement, \u00e0 la manutention, \u00e0 l'entreposage et au transport</a>\r\n\r\n<ul class=\"list-unstyled col-md-offset-1 mrgn-bttm-md\">\r\n\r\n<li>\r\n<a href=\"/exportation-d-aliments-de-plantes-ou-d-animaux/exportations-d-aliments/exigences-d-exportation-particulieres-aux-produits/code-de-pratiques/fra/1373640653113/1373640765807?chap=5#s16c5\">1. D\u00e9chargement</a>\r\n\r\n</li>\r\n\r\n<li>\r\n<a href=\"/exportation-d-aliments-de-plantes-ou-d-animaux/exportations-d-aliments/exigences-d-exportation-particulieres-aux-produits/code-de-pratiques/fra/1373640653113/1373640765807?chap=5#s17c5\">2. \u00c9quipement de d\u00e9chargement et de transport</a>\r\n\r\n</li>\r\n\r\n<li>\r\n<a href=\"/exportation-d-aliments-de-plantes-ou-d-animaux/exportations-d-aliments/exigences-d-exportation-particulieres-aux-produits/code-de-pratiques/fra/1373640653113/1373640765807?chap=5#s18c5\">3. Manutention/transport</a>\r\n\r\n</li>\r\n\r\n<li>\r\n<a href=\"/exportation-d-aliments-de-plantes-ou-d-animaux/exportations-d-aliments/exigences-d-exportation-particulieres-aux-produits/code-de-pratiques/fra/1373640653113/1373640765807?chap=5#s19c5\">4. Approvisionnement en eau/en glace</a>\r\n\r\n</li>\r\n\r\n<li>\r\n<a href=\"/exportation-d-aliments-de-plantes-ou-d-animaux/exportations-d-aliments/exigences-d-exportation-particulieres-aux-produits/code-de-pratiques/fra/1373640653113/1373640765807?chap=5#s20c5\">5. Nettoyage/assainissement</a>\r\n\r\n</li>\r\n\r\n</ul>\r\n\r\n</li>\r\n\r\n<li>\r\n<a href=\"/exportation-d-aliments-de-plantes-ou-d-animaux/exportations-d-aliments/exigences-d-exportation-particulieres-aux-produits/code-de-pratiques/fra/1373640653113/1373640765807?chap=6\">Annexe <abbr title=\"5\">V</abbr> :  Norme de r\u00e9f\u00e9rence du <abbr title=\"programme de gestion de la qualit\u00e9\">PGQ</abbr>  et lignes directrices sur la conformit\u00e9</a>\r\n\r\n</li>\r\n\r\n<li>\r\n<a href=\"/exportation-d-aliments-de-plantes-ou-d-animaux/exportations-d-aliments/exigences-d-exportation-particulieres-aux-produits/code-de-pratiques/fra/1373640653113/1373640765807?chap=7\">Annexe <abbr title=\"6\">VI</abbr> : Plan de programme de contr\u00f4le de la certification des exportations (PCCE)</a>\r\n\r\n</li>\r\n\r\n<li>\r\n<a href=\"/exportation-d-aliments-de-plantes-ou-d-animaux/exportations-d-aliments/exigences-d-exportation-particulieres-aux-produits/code-de-pratiques/fra/1373640653113/1373640765807?chap=8\">Annexe <abbr title=\"7\">VII</abbr> : Normes applicables aux produits du phoque frais et congel\u00e9s</a>\r\n\r\n<ul class=\"list-unstyled col-md-offset-1 mrgn-bttm-md\">\r\n\r\n<li>\r\n<a href=\"/exportation-d-aliments-de-plantes-ou-d-animaux/exportations-d-aliments/exigences-d-exportation-particulieres-aux-produits/code-de-pratiques/fra/1373640653113/1373640765807?chap=8#s21c8\">1. Introduction</a>\r\n\r\n</li>\r\n\r\n<li>\r\n<a href=\"/exportation-d-aliments-de-plantes-ou-d-animaux/exportations-d-aliments/exigences-d-exportation-particulieres-aux-produits/code-de-pratiques/fra/1373640653113/1373640765807?chap=8#s22c8\">2. Port\u00e9e</a>\r\n\r\n</li>\r\n\r\n<li>\r\n<a href=\"/exportation-d-aliments-de-plantes-ou-d-animaux/exportations-d-aliments/exigences-d-exportation-particulieres-aux-produits/code-de-pratiques/fra/1373640653113/1373640765807?chap=8#s23c8\">3. Nomenclature</a>\r\n\r\n</li>\r\n\r\n<li>\r\n<a href=\"/exportation-d-aliments-de-plantes-ou-d-animaux/exportations-d-aliments/exigences-d-exportation-particulieres-aux-produits/code-de-pratiques/fra/1373640653113/1373640765807?chap=8#s24c8\">4. Modes de Pr\u00e9sentation du produit</a>\r\n\r\n</li>\r\n\r\n<li>\r\n<a href=\"/exportation-d-aliments-de-plantes-ou-d-animaux/exportations-d-aliments/exigences-d-exportation-particulieres-aux-produits/code-de-pratiques/fra/1373640653113/1373640765807?chap=8#s25c8\">5. \u00c9chantillonnage</a>\r\n\r\n</li>\r\n\r\n<li>\r\n<a href=\"/exportation-d-aliments-de-plantes-ou-d-animaux/exportations-d-aliments/exigences-d-exportation-particulieres-aux-produits/code-de-pratiques/fra/1373640653113/1373640765807?chap=8#s26c8\">6. Description des d\u00e9fauts</a>\r\n\r\n</li>\r\n\r\n<li>\r\n<a href=\"/exportation-d-aliments-de-plantes-ou-d-animaux/exportations-d-aliments/exigences-d-exportation-particulieres-aux-produits/code-de-pratiques/fra/1373640653113/1373640765807?chap=8#s27c8\">7. Classification des d\u00e9fauts</a>\r\n\r\n</li>\r\n\r\n<li>\r\n<a href=\"/exportation-d-aliments-de-plantes-ou-d-animaux/exportations-d-aliments/exigences-d-exportation-particulieres-aux-produits/code-de-pratiques/fra/1373640653113/1373640765807?chap=8#s28c8\">8. Acceptation d'un lot</a>\r\n\r\n</li>\r\n\r\n<li>\r\n<a href=\"/exportation-d-aliments-de-plantes-ou-d-animaux/exportations-d-aliments/exigences-d-exportation-particulieres-aux-produits/code-de-pratiques/fra/1373640653113/1373640765807?chap=8#s29c8\">9. Exigences relatives aux caract\u00e9ristiques physico-chimiques et aux niveaux de contaminants</a>\r\n\r\n</li>\r\n\r\n</ul>\r\n\r\n</li>\r\n\r\n<li>\r\n<a href=\"/exportation-d-aliments-de-plantes-ou-d-animaux/exportations-d-aliments/exigences-d-exportation-particulieres-aux-produits/code-de-pratiques/fra/1373640653113/1373640765807?chap=9\">D\u00e9finitions</a>\r\n\r\n</li>\r\n\r\n</ul>\r\n\r\n\r\n<div class=\"clear\"></div>\r\n\n\n\r\n        \r\n\r\n<div class=\"row\">\r\n \r\n\t\t\t\r\n\t\t\t\r\n\r\n\t\t\r\n\t\r\n</div>"
    },
    "success": true,
    "chat_wizard": false
}