{
    "dcr_id": "1377173051041",
    "title": {
        "en": "National Farm - Level Mink Biosecurity Standard - Producers' Guide",
        "fr": "Norme nationale de bios\u00e9curit\u00e9 \u00e0 la ferme pour le secteur de l'\u00e9levage du vison - Guide du producteur"
    },
    "html_modified": "2024-02-05 2:52:04 PM",
    "modified": "2016-08-31",
    "issued": "2013-08-22 08:04:12",
    "teamsite_location": {
        "en": "/default/main/inspection/cont-cont/animals-animaux/STAGING/templatedata/comn-comn/manuals-manuels/data/terr_biosec_standards_mink_prod_1377173051041_eng",
        "fr": "/default/main/inspection/cont-cont/animals-animaux/STAGING/templatedata/comn-comn/manuals-manuels/data/terr_biosec_standards_mink_prod_1377173051041_fra"
    },
    "ia_id": "1377173051775",
    "parent_ia_id": "1344707981478",
    "chronicletopic": {
        "en": "",
        "fr": ""
    },
    "chroniclecontent": {
        "en": "",
        "fr": ""
    },
    "chronicleaudience": {
        "en": "",
        "fr": ""
    },
    "sfcrdocumenttype": {
        "en": "",
        "fr": ""
    },
    "sfcraudience": {
        "en": "",
        "fr": ""
    },
    "sfcrmethodofproduction": {
        "en": "",
        "fr": ""
    },
    "activity": {
        "en": "Exports",
        "fr": "Exportations"
    },
    "commodity": {
        "en": "Terrestrial Animal Health",
        "fr": "Sant\u00e9 des animaux terrestres"
    },
    "program": {
        "en": "Animals",
        "fr": "Animaux"
    },
    "search_type": "guidancefinder",
    "parent_node_id": "1344707981478",
    "layout_name": "content page 1 column",
    "breadcrumb": {
        "en": "National Farm - Level Mink Biosecurity Standard - Producers' Guide",
        "fr": "Norme nationale de bios\u00e9curit\u00e9 \u00e0 la ferme pour le secteur de l'\u00e9levage du vison - Guide du producteur"
    },
    "label": {
        "en": "National Farm - Level Mink Biosecurity Standard - Producers' Guide",
        "fr": "Norme nationale de bios\u00e9curit\u00e9 \u00e0 la ferme pour le secteur de l'\u00e9levage du vison - Guide du producteur"
    },
    "templatetype": "content page 1 column",
    "node_id": "1377173051775",
    "managing_branch": "comn",
    "type_name": "manuals-manuels",
    "dcr_type": "manuals-manuels",
    "parent_dcr_id": "1344707905203",
    "has_dcr_id": true,
    "lang": "en",
    "could_not_load": 0,
    "refaire": false,
    "interwoven_url": {
        "en": "/animal-health/terrestrial-animals/biosecurity/standards-and-principles/mink/",
        "fr": "/sante-des-animaux/animaux-terrestres/biosecurite/normes-et-principes/vison/"
    },
    "meta": {
        "viewport": {
            "en": "width=device-width,initial-scale=1",
            "fr": "width=device-width,initial-scale=1"
        },
        "service": {
            "en": "CFIA-ACIA",
            "fr": "CFIA-ACIA"
        },
        "accessRights": {
            "en": "2",
            "fr": "2"
        },
        "title": {
            "en": "National Farm - Level Mink Biosecurity Standard - Producers' Guide",
            "fr": "Norme nationale de bios\u00e9curit\u00e9 \u00e0 la ferme pour le secteur de l'\u00e9levage du vison - Guide du producteur"
        },
        "description": {
            "en": "A guide to assist mink producers in meeting and implementing the National Farm Level Mink Biosecurity Standard",
            "fr": "Une norme d'application volontaire ax\u00e9e sur les r\u00e9sultats pour aider les \u00e9leveurs de visons \u00e0 am\u00e9liorer les mesures de bios\u00e9curit\u00e9 de leur exploitation."
        },
        "keywords": {
            "en": "Mink, Producer, guide",
            "fr": "Vison, Producteur, Norme"
        },
        "dcterms.subject": {
            "en": "infectious diseases,veterinary medicine,government publication,animal health",
            "fr": "maladie infectieuse,m\u00e9decine v\u00e9t\u00e9rinaire,publication gouvernementale,sant\u00e9 animale"
        },
        "creator": {
            "en": "Government of Canada,Canadian Food Inspection Agency,Office of Animal Biosecurity",
            "fr": "Gouvernement du Canada,Agence canadienne d'inspection des aliments"
        },
        "language": {
            "en": "eng",
            "fr": "fra"
        },
        "issued": {
            "en": "2013-08-22 08:04:12",
            "fr": "2013-08-22 08:04:12"
        },
        "modified": {
            "en": "2016-08-31",
            "fr": "2016-08-31"
        },
        "type": {
            "en": "reference material",
            "fr": "mat\u00e9riel de r\u00e9f\u00e9rence"
        },
        "audience": {
            "en": "business",
            "fr": "entreprises"
        },
        "name": {
            "en": "Government of Canada",
            "fr": "Gouvernement du Canada"
        },
        "areaServed": {
            "en": "Canada",
            "fr": "Canada"
        }
    },
    "h1": {
        "en": "National Farm - Level Mink Biosecurity Standard - Producers' Guide",
        "fr": "Norme nationale de bios\u00e9curit\u00e9 \u00e0 la ferme pour le secteur de l'\u00e9levage du vison - Guide du producteur"
    },
    "body": {
        "en": "-&gt;\r\n\r\n\r\n\r\n\r\n\r\n\r\n        \r\n        \n\n\r\n\r\n<section class=\"alert alert-info\">\r\n<h2 class=\"h3\">This page is part of the Guidance Document Repository (GDR).</h2>\r\n<p>\r\n<br>\r\n<a href=\"/industry-guidance/eng/1374161650885/1374161737236?gp=1&amp;gc=30&amp;ga=18#gdr_results\" class=\"alert-link\">\r\n            Search for related documents in the Guidance Document Repository\r\n</a>\r\n</p>\r\n</section>\r\n\r\n\r\n\r\n<p class=\"small text-right\"><a href=\"/animal-health/terrestrial-animals/biosecurity/standards-and-principles/mink/eng/1377173051041/1377173051775?chap=0\">Complete Text</a></p>\r\n\r\n\r\n<h2>Table of Contents</h2>\r\n<ul class=\"list-unstyled col-md-offset-1 mrgn-tp-md mrgn-bttm-md\">\r\n\r\n<li>\r\n<a href=\"/animal-health/terrestrial-animals/biosecurity/standards-and-principles/mink/eng/1377173051041/1377173051775?chap=1\">Dedication</a>\r\n\r\n</li>\r\n\r\n<li>\r\n<a href=\"/animal-health/terrestrial-animals/biosecurity/standards-and-principles/mink/eng/1377173051041/1377173051775?chap=2\">Introduction</a>\r\n\r\n</li>\r\n\r\n<li>\r\n<a href=\"/animal-health/terrestrial-animals/biosecurity/standards-and-principles/mink/eng/1377173051041/1377173051775?chap=3\">What Is Biosecurity For Mink Farms?</a>\r\n\r\n</li>\r\n\r\n<li>\r\n<a href=\"/animal-health/terrestrial-animals/biosecurity/standards-and-principles/mink/eng/1377173051041/1377173051775?chap=4\">Biosecurity Principles</a>\r\n\r\n</li>\r\n\r\n<li>\r\n<a href=\"/animal-health/terrestrial-animals/biosecurity/standards-and-principles/mink/eng/1377173051041/1377173051775?chap=5\">Who Should Use This Document And How?</a>\r\n\r\n</li>\r\n\r\n<li>\r\n<a href=\"/animal-health/terrestrial-animals/biosecurity/standards-and-principles/mink/eng/1377173051041/1377173051775?chap=6\">How Was The Guide Developed?</a>\r\n\r\n</li>\r\n\r\n<li>\r\n<a href=\"/animal-health/terrestrial-animals/biosecurity/standards-and-principles/mink/eng/1377173051041/1377173051775?chap=7\">Section 1: Access Management</a>\r\n\r\n<ul class=\"list-unstyled col-md-offset-1 mrgn-bttm-md\">\r\n\r\n<li>\r\n<a href=\"/animal-health/terrestrial-animals/biosecurity/standards-and-principles/mink/eng/1377173051041/1377173051775?chap=7#s1c7\">1.1 Biosecure Zones \u2013 Keep Disease Out</a>\r\n\r\n</li>\r\n\r\n<li>\r\n<a href=\"/animal-health/terrestrial-animals/biosecurity/standards-and-principles/mink/eng/1377173051041/1377173051775?chap=7#s2c7\">1.2 Entry, Movement, and Exit Protocols \u2013 Control</a>\r\n\r\n</li>\r\n\r\n</ul>\r\n\r\n</li>\r\n\r\n<li>\r\n<a href=\"/animal-health/terrestrial-animals/biosecurity/standards-and-principles/mink/eng/1377173051041/1377173051775?chap=8\">Section 2: Animal Health Management<br><span class=\"mrgn-lft-md\">Animal Introduction, Movement and Removal</span></a>\r\n\r\n<ul class=\"list-unstyled col-md-offset-1 mrgn-bttm-md\">\r\n\r\n<li>\r\n<a href=\"/animal-health/terrestrial-animals/biosecurity/standards-and-principles/mink/eng/1377173051041/1377173051775?chap=8#s3c8\">2.1 New Animals \u2013 Buy Clean</a>\r\n\r\n</li>\r\n\r\n<li>\r\n<a href=\"/animal-health/terrestrial-animals/biosecurity/standards-and-principles/mink/eng/1377173051041/1377173051775?chap=8#s4c8\">2.2 Scheduling Animal Movements</a>\r\n\r\n</li>\r\n\r\n<li>\r\n<a href=\"/animal-health/terrestrial-animals/biosecurity/standards-and-principles/mink/eng/1377173051041/1377173051775?chap=8#s5c8\">2.3 Isolation Procedures \u2013 Stay Clean</a>\r\n\r\n</li>\r\n\r\n<li>\r\n<a href=\"/animal-health/terrestrial-animals/biosecurity/standards-and-principles/mink/eng/1377173051041/1377173051775?chap=8#s6c8\">Monitoring and Maintaining Animal Health and Disease Response</a>\r\n\r\n</li>\r\n\r\n<li>\r\n<a href=\"/animal-health/terrestrial-animals/biosecurity/standards-and-principles/mink/eng/1377173051041/1377173051775?chap=8#s7c8\">2.4 Animal Health Monitoring and Maintenance</a>\r\n\r\n</li>\r\n\r\n<li>\r\n<a href=\"/animal-health/terrestrial-animals/biosecurity/standards-and-principles/mink/eng/1377173051041/1377173051775?chap=8#s8c8\">2.5 Animal Health Response</a>\r\n\r\n</li>\r\n\r\n</ul>\r\n\r\n</li>\r\n\r\n<li>\r\n<a href=\"/animal-health/terrestrial-animals/biosecurity/standards-and-principles/mink/eng/1377173051041/1377173051775?chap=9\">Section 3: Operational Management<br>Mortality, Manure, Garbage, and Waste Management</a>\r\n\r\n<ul class=\"list-unstyled col-md-offset-1 mrgn-bttm-md\">\r\n\r\n<li>\r\n<a href=\"/animal-health/terrestrial-animals/biosecurity/standards-and-principles/mink/eng/1377173051041/1377173051775?chap=9#s9c9\">3.1 Mortality Management</a>\r\n\r\n</li>\r\n\r\n<li>\r\n<a href=\"/animal-health/terrestrial-animals/biosecurity/standards-and-principles/mink/eng/1377173051041/1377173051775?chap=9#s10c9\">3.2 Manure Management</a>\r\n\r\n</li>\r\n\r\n<li>\r\n<a href=\"/animal-health/terrestrial-animals/biosecurity/standards-and-principles/mink/eng/1377173051041/1377173051775?chap=9#s11c9\">3.3 Garbage and Waste Management</a>\r\n\r\n</li>\r\n\r\n<li>\r\n<a href=\"/animal-health/terrestrial-animals/biosecurity/standards-and-principles/mink/eng/1377173051041/1377173051775?chap=9#s12c9\">3.4 Water Management</a>\r\n\r\n</li>\r\n\r\n<li>\r\n<a href=\"/animal-health/terrestrial-animals/biosecurity/standards-and-principles/mink/eng/1377173051041/1377173051775?chap=9#s13c9\">3.5 Feed Management</a>\r\n\r\n</li>\r\n\r\n<li>\r\n<a href=\"/animal-health/terrestrial-animals/biosecurity/standards-and-principles/mink/eng/1377173051041/1377173051775?chap=9#s14c9\">3.6 Bedding</a>\r\n\r\n</li>\r\n\r\n<li>\r\n<a href=\"/animal-health/terrestrial-animals/biosecurity/standards-and-principles/mink/eng/1377173051041/1377173051775?chap=9#s15c9\">3.7 Premises, Building, Equipment, and Vehicle Sanitation</a>\r\n\r\n</li>\r\n\r\n<li>\r\n<a href=\"/animal-health/terrestrial-animals/biosecurity/standards-and-principles/mink/eng/1377173051041/1377173051775?chap=9#s16c9\">3.8 Pest/Pet Control</a>\r\n\r\n</li>\r\n\r\n<li>\r\n<a href=\"/animal-health/terrestrial-animals/biosecurity/standards-and-principles/mink/eng/1377173051041/1377173051775?chap=9#s17c9\">3.9 Biosecurity Program and Training</a>\r\n\r\n</li>\r\n\r\n</ul>\r\n\r\n</li>\r\n\r\n<li>\r\n<a href=\"/animal-health/terrestrial-animals/biosecurity/standards-and-principles/mink/eng/1377173051041/1377173051775?chap=10\">Appendix A - National Farm-Level Biosecurity Standard Glossary</a>\r\n\r\n</li>\r\n\r\n<li>\r\n<a href=\"/animal-health/terrestrial-animals/biosecurity/standards-and-principles/mink/eng/1377173051041/1377173051775?chap=11\">Appendix B - Additional Suggested References for Producers</a>\r\n\r\n</li>\r\n\r\n<li>\r\n<a href=\"/animal-health/terrestrial-animals/biosecurity/standards-and-principles/mink/eng/1377173051041/1377173051775?chap=12\">Appendix C - Additional Site Plan Examples and Potential Approaches to Implementing Biosecurity Zones for More Complex Operations</a>\r\n\r\n</li>\r\n\r\n<li>\r\n<a href=\"/animal-health/terrestrial-animals/biosecurity/standards-and-principles/mink/eng/1377173051041/1377173051775?chap=13\">Appendix D - National Farm-Level Mink Biosecurity Standard: Advisory and Management Committees</a>\r\n\r\n</li>\r\n\r\n</ul>\r\n\r\n\r\n\n\n\r\n        \r\n\r\n\r\n\r\n<div class=\"row\">\r\n \r\n\t\r\n\t\t\t\r\n\r\n<div class=\"col-xm-12 pagedetails container\">\r\n\t\t\t\t\r\n\r\n</div>\r\n\t\r\n</div>",
        "fr": "-&gt;\r\n\r\n\r\n\r\n\r\n\r\n\r\n\r\n        \r\n        \n\n\r\n\r\n<section class=\"alert alert-info\">\r\n<h2 class=\"h3\">Cette page fait partie du r\u00e9pertoire des documents d'orientation (RDO).</h2>\r\n<p>\r\n<br>\r\n<a href=\"/orientation-pour-l-industrie/fra/1374161650885/1374161737236?gp=1&amp;gc=30&amp;ga=18#gdr_results\" class=\"alert-link\">\r\n            Recherche de documents connexes dans le r\u00e9pertoire des documents d'orientation.\r\n</a>\r\n</p>\r\n</section>\r\n\r\n\r\n\r\n<p class=\"small text-right\"><a href=\"/sante-des-animaux/animaux-terrestres/biosecurite/normes-et-principes/vison/fra/1377173051041/1377173051775?chap=0\">Texte complet</a></p>\r\n\r\n\r\n<h2>Table des mati\u00e8res</h2>\r\n<ul class=\"list-unstyled col-md-offset-1 mrgn-tp-md mrgn-bttm-md\">\r\n\r\n<li>\r\n<a href=\"/sante-des-animaux/animaux-terrestres/biosecurite/normes-et-principes/vison/fra/1377173051041/1377173051775?chap=1\">D\u00e9dicace</a>\r\n\r\n</li>\r\n\r\n<li>\r\n<a href=\"/sante-des-animaux/animaux-terrestres/biosecurite/normes-et-principes/vison/fra/1377173051041/1377173051775?chap=2\">Introduction</a>\r\n\r\n</li>\r\n\r\n<li>\r\n<a href=\"/sante-des-animaux/animaux-terrestres/biosecurite/normes-et-principes/vison/fra/1377173051041/1377173051775?chap=3\">Qu'est-ce que la bios\u00e9curit\u00e9 dans les visonni\u00e8res?</a>\r\n\r\n</li>\r\n\r\n<li>\r\n<a href=\"/sante-des-animaux/animaux-terrestres/biosecurite/normes-et-principes/vison/fra/1377173051041/1377173051775?chap=4\">Principes de bios\u00e9curit\u00e9</a>\r\n\r\n</li>\r\n\r\n<li>\r\n<a href=\"/sante-des-animaux/animaux-terrestres/biosecurite/normes-et-principes/vison/fra/1377173051041/1377173051775?chap=5\">Qui devrait utiliser ce document et comment?</a>\r\n\r\n</li>\r\n\r\n<li>\r\n<a href=\"/sante-des-animaux/animaux-terrestres/biosecurite/normes-et-principes/vison/fra/1377173051041/1377173051775?chap=6\">Comment a \u00e9t\u00e9 \u00e9labor\u00e9 le Guide?</a>\r\n\r\n</li>\r\n\r\n<li>\r\n<a href=\"/sante-des-animaux/animaux-terrestres/biosecurite/normes-et-principes/vison/fra/1377173051041/1377173051775?chap=7\">Section 1\u00a0: Gestion de l'acc\u00e8s \u00e0 la ferme</a>\r\n\r\n<ul class=\"list-unstyled col-md-offset-1 mrgn-bttm-md\">\r\n\r\n<li>\r\n<a href=\"/sante-des-animaux/animaux-terrestres/biosecurite/normes-et-principes/vison/fra/1377173051041/1377173051775?chap=7#s1c7\">1.1 Zones de bios\u00e9curit\u00e9 \u2013 protection contre l'introduction de maladies</a>\r\n\r\n</li>\r\n\r\n<li>\r\n<a href=\"/sante-des-animaux/animaux-terrestres/biosecurite/normes-et-principes/vison/fra/1377173051041/1377173051775?chap=7#s2c7\">1.2 Protocoles d'entr\u00e9e, de d\u00e9placement et de sortie \u2013 mesures de contr\u00f4le</a>\r\n\r\n</li>\r\n\r\n</ul>\r\n\r\n</li>\r\n\r\n<li>\r\n<a href=\"/sante-des-animaux/animaux-terrestres/biosecurite/normes-et-principes/vison/fra/1377173051041/1377173051775?chap=8\">Section 2\u00a0: Gestion de la sant\u00e9 des animaux<br><span class=\"mrgn-lft-md\">Introduction, d\u00e9placement et \u00e9limination des animaux</span></a>\r\n\r\n<ul class=\"list-unstyled col-md-offset-1 mrgn-bttm-md\">\r\n\r\n<li>\r\n<a href=\"/sante-des-animaux/animaux-terrestres/biosecurite/normes-et-principes/vison/fra/1377173051041/1377173051775?chap=8#s3c8\">2.1 Animaux nouvellement introduits \u2013 acheter des animaux sains</a>\r\n\r\n</li>\r\n\r\n<li>\r\n<a href=\"/sante-des-animaux/animaux-terrestres/biosecurite/normes-et-principes/vison/fra/1377173051041/1377173051775?chap=8#s4c8\">2.2 Gestion des d\u00e9placements des animaux</a>\r\n\r\n</li>\r\n\r\n<li>\r\n<a href=\"/sante-des-animaux/animaux-terrestres/biosecurite/normes-et-principes/vison/fra/1377173051041/1377173051775?chap=8#s5c8\">2.3 Proc\u00e9dures d'isolement \u2013 rester propre</a>\r\n\r\n</li>\r\n\r\n<li>\r\n<a href=\"/sante-des-animaux/animaux-terrestres/biosecurite/normes-et-principes/vison/fra/1377173051041/1377173051775?chap=8#s6c8\">Surveillance et maintien de la sant\u00e9 des animaux et des mesures d'intervention en cas de maladie</a>\r\n\r\n</li>\r\n\r\n<li>\r\n<a href=\"/sante-des-animaux/animaux-terrestres/biosecurite/normes-et-principes/vison/fra/1377173051041/1377173051775?chap=8#s7c8\">2.4 Surveillance et maintien de la sant\u00e9 des animaux</a>\r\n\r\n</li>\r\n\r\n<li>\r\n<a href=\"/sante-des-animaux/animaux-terrestres/biosecurite/normes-et-principes/vison/fra/1377173051041/1377173051775?chap=8#s8c8\">2.5 Interventions relatives \u00e0 la sant\u00e9 des animaux</a>\r\n\r\n</li>\r\n\r\n</ul>\r\n\r\n</li>\r\n\r\n<li>\r\n<a href=\"/sante-des-animaux/animaux-terrestres/biosecurite/normes-et-principes/vison/fra/1377173051041/1377173051775?chap=9\">Section 3\u00a0: Gestion op\u00e9rationnelle<br><span class=\"mrgn-lft-md\">Gestion des mortalit\u00e9s, du fumier, des ordures et des d\u00e9chets</span></a>\r\n\r\n<ul class=\"list-unstyled col-md-offset-1 mrgn-bttm-md\">\r\n\r\n<li>\r\n<a href=\"/sante-des-animaux/animaux-terrestres/biosecurite/normes-et-principes/vison/fra/1377173051041/1377173051775?chap=9#s9c9\">3.1 Gestion des mortalit\u00e9s</a>\r\n\r\n</li>\r\n\r\n<li>\r\n<a href=\"/sante-des-animaux/animaux-terrestres/biosecurite/normes-et-principes/vison/fra/1377173051041/1377173051775?chap=9#s10c9\">3.2 Gestion du fumier</a>\r\n\r\n</li>\r\n\r\n<li>\r\n<a href=\"/sante-des-animaux/animaux-terrestres/biosecurite/normes-et-principes/vison/fra/1377173051041/1377173051775?chap=9#s11c9\">3.3 Gestion des ordures et des d\u00e9chets</a>\r\n\r\n</li>\r\n\r\n<li>\r\n<a href=\"/sante-des-animaux/animaux-terrestres/biosecurite/normes-et-principes/vison/fra/1377173051041/1377173051775?chap=9#s12c9\">3.4 Gestion de l'eau</a>\r\n\r\n</li>\r\n\r\n<li>\r\n<a href=\"/sante-des-animaux/animaux-terrestres/biosecurite/normes-et-principes/vison/fra/1377173051041/1377173051775?chap=9#s13c9\">3.5 Gestion des aliments</a>\r\n\r\n</li>\r\n\r\n<li>\r\n<a href=\"/sante-des-animaux/animaux-terrestres/biosecurite/normes-et-principes/vison/fra/1377173051041/1377173051775?chap=9#s14c9\">3.6 Liti\u00e8re</a>\r\n\r\n</li>\r\n\r\n<li>\r\n<a href=\"/sante-des-animaux/animaux-terrestres/biosecurite/normes-et-principes/vison/fra/1377173051041/1377173051775?chap=9#s15c9\">3.7 Assainissement des lieux, des b\u00e2timents, de l'\u00e9quipement et des v\u00e9hicules</a>\r\n\r\n</li>\r\n\r\n<li>\r\n<a href=\"/sante-des-animaux/animaux-terrestres/biosecurite/normes-et-principes/vison/fra/1377173051041/1377173051775?chap=9#s16c9\">3.8 Lutte contre la vermine et les animaux domestiques</a>\r\n\r\n</li>\r\n\r\n<li>\r\n<a href=\"/sante-des-animaux/animaux-terrestres/biosecurite/normes-et-principes/vison/fra/1377173051041/1377173051775?chap=9#s17c9\">3.9 Programme de bios\u00e9curit\u00e9 et formation</a>\r\n\r\n</li>\r\n\r\n</ul>\r\n\r\n</li>\r\n\r\n<li>\r\n<a href=\"/sante-des-animaux/animaux-terrestres/biosecurite/normes-et-principes/vison/fra/1377173051041/1377173051775?chap=10\">Annexe A - Norme nationale de bios\u00e9curit\u00e9 \u00e0 la ferme pour le secteur de l'\u00e9levage du vison \u2013 Glossaire</a>\r\n\r\n</li>\r\n\r\n<li>\r\n<a href=\"/sante-des-animaux/animaux-terrestres/biosecurite/normes-et-principes/vison/fra/1377173051041/1377173051775?chap=11\">Annexe B - R\u00e9f\u00e9rences compl\u00e9mentaires sugg\u00e9r\u00e9es \u00e0 l'intention des \u00e9leveurs</a>\r\n\r\n</li>\r\n\r\n<li>\r\n<a href=\"/sante-des-animaux/animaux-terrestres/biosecurite/normes-et-principes/vison/fra/1377173051041/1377173051775?chap=12\">Annexe C - Exemples suppl\u00e9mentaires de plans d'\u00e9tablissement et d'approches possibles pour mettre en place des zones de bios\u00e9curit\u00e9 en ce qui concerne les exploitations plus complexes</a>\r\n\r\n</li>\r\n\r\n<li>\r\n<a href=\"/sante-des-animaux/animaux-terrestres/biosecurite/normes-et-principes/vison/fra/1377173051041/1377173051775?chap=13\">Annexe D - Norme nationale de bios\u00e9curit\u00e9 \u00e0 la ferme pour le secteur de l'\u00e9levage du vison \u2013 Comit\u00e9s consultatifs et de gestion</a>\r\n\r\n</li>\r\n\r\n</ul>\r\n\r\n\r\n<div class=\"clear\"></div>\r\n\n\n\r\n        \r\n\r\n<div class=\"row\">\r\n \r\n\t\t\t\r\n\t\t\t\r\n\r\n\t\t\r\n\t\r\n</div>"
    },
    "js": {
        "en": "",
        "fr": ""
    },
    "success": true,
    "chat_wizard": false
}