{
    "dcr_id": "1521118355767",
    "title": {
        "en": "Canadian Grade Compendium: <span class=\"nowrap\">Volume 7\u00a0\u2013</span>\u00a0Maple Syrup",
        "fr": "Recueil des normes canadiennes de <span class=\"nowrap\">classification :</span> <span class=\"nowrap\">Volume 7\u00a0\u2013</span>\u00a0Sirop d'\u00e9rable"
    },
    "html_modified": "2024-02-05 2:54:19 PM",
    "modified": "2021-04-28",
    "issued": "2018-06-13",
    "teamsite_location": {
        "en": "/default/main/inspection/cont-cont/aboutcfia-sujetacia/STAGING/templatedata/comn-comn/manuals-manuels/data/regs_sfcr_vol_7_mple_syrp_1521118355767_eng",
        "fr": "/default/main/inspection/cont-cont/aboutcfia-sujetacia/STAGING/templatedata/comn-comn/manuals-manuels/data/regs_sfcr_vol_7_mple_syrp_1521118355767_fra"
    },
    "ia_id": "1521118356469",
    "parent_ia_id": "1518625952071",
    "chronicletopic": {
        "en": "",
        "fr": ""
    },
    "chroniclecontent": {
        "en": "",
        "fr": ""
    },
    "chronicleaudience": {
        "en": "",
        "fr": ""
    },
    "sfcrdocumenttype": {
        "en": "Acts and regulations",
        "fr": "Lois et r\u00e8glements"
    },
    "sfcraudience": {
        "en": "Industry",
        "fr": "Industrie"
    },
    "sfcrmethodofproduction": {
        "en": "",
        "fr": ""
    },
    "activity": {
        "en": "Grading",
        "fr": "Classification"
    },
    "commodity": {
        "en": "Maple products",
        "fr": "Produits d'\u00e9rable"
    },
    "program": {
        "en": "Food",
        "fr": "Aliments"
    },
    "search_type": "guidancefinder",
    "parent_node_id": "1518625952071",
    "layout_name": "content page 1 column",
    "breadcrumb": {
        "en": "Canadian Grade Compendium: <span class=\"nowrap\">Volume 7\u00a0\u2013</span>\u00a0Maple Syrup",
        "fr": "Recueil des normes canadiennes de <span class=\"nowrap\">classification :</span> <span class=\"nowrap\">Volume 7\u00a0\u2013</span>\u00a0Sirop d'\u00e9rable"
    },
    "label": {
        "en": "Canadian Grade Compendium: <span class=\"nowrap\">Volume 7\u00a0\u2013</span>\u00a0Maple Syrup",
        "fr": "Recueil des normes canadiennes de <span class=\"nowrap\">classification :</span> <span class=\"nowrap\">Volume 7\u00a0\u2013</span>\u00a0Sirop d'\u00e9rable"
    },
    "templatetype": "content page 1 column",
    "node_id": "1521118356469",
    "managing_branch": "comn",
    "type_name": "manuals-manuels",
    "dcr_type": "manuals-manuels",
    "parent_dcr_id": "1518625951131",
    "has_dcr_id": true,
    "lang": "en",
    "could_not_load": 0,
    "refaire": false,
    "interwoven_url": {
        "en": "/about-the-cfia/acts-and-regulations/list-of-acts-and-regulations/documents-incorporated-by-reference/canadian-grade-compendium-volume-7/",
        "fr": "/a-propos-de-l-acia/lois-et-reglements/liste-des-lois-et-reglements/documents-incorpores-par-renvoi/recueil-des-normes-canadiennes-de-classification-v/"
    },
    "meta": {
        "viewport": {
            "en": "width=device-width,initial-scale=1",
            "fr": "width=device-width,initial-scale=1"
        },
        "service": {
            "en": "CFIA-ACIA",
            "fr": "CFIA-ACIA"
        },
        "accessRights": {
            "en": "2",
            "fr": "2"
        },
        "title": {
            "en": "Canadian Grade Compendium: Volume 7\u00a0\u2013\u00a0Maple Syrup",
            "fr": "Recueil des normes canadiennes de classification : Volume 7\u00a0\u2013\u00a0Sirop d'\u00e9rable"
        },
        "description": {
            "en": "This document is incorporated by reference in the Safe Food for Canadian Regulations (SFCR).",
            "fr": "Ce document est incorpor\u00e9 par renvoi au R\u00e8glement sur la salubrit\u00e9 des aliments au Canada (RSAC)."
        },
        "keywords": {
            "en": "acts, regulations, legislation, Safe Food for Canadian Act, Safe Food for Canadian Regulations, food safety, consumers, grade requirements, grades, maple syrup, Canada Grade A, Canada Processing Grade",
            "fr": "lois, r\u00e8glements, l\u00e9gislation, Loi sur la salubrit\u00e9 des aliments au Canada, R\u00e8glement sur la Salubrit\u00e9 des aliments au Canada, salubrit\u00e9 des aliments, consommateurs, exigences relatives \u00e0 la cat\u00e9gorie, cat\u00e9gorie, sirop d'\u00e9rable, Canada cat\u00e9gorie A, Canada cat\u00e9gorie de transformation"
        },
        "dcterms.subject": {
            "en": "food,government information,inspection,food inspection,legislation,maple products,government publication,regulation,regulations,food safety,food processing",
            "fr": "aliment,information gouvernementale,inspection,inspection des aliments,l\u00e9gislation,produit de l'\u00e9rable,publication gouvernementale,r\u00e9glementation,r\u00e9glementations,salubrit\u00e9 des aliments, transformation des aliments"
        },
        "creator": {
            "en": "Government of Canada,Canadian Food Inspection Agency,Food Safety and Consumer Protection Directorate",
            "fr": "Gouvernement du Canada,Agence canadienne d'inspection des aliments,Direction de la salubrit\u00e9 des aliments et de la protection des consommateurs"
        },
        "language": {
            "en": "eng",
            "fr": "fra"
        },
        "issued": {
            "en": "2018-06-13",
            "fr": "2018-06-13"
        },
        "modified": {
            "en": "2021-04-28",
            "fr": "2021-04-28"
        },
        "type": {
            "en": "reference material",
            "fr": "mat\u00e9riel de r\u00e9f\u00e9rence"
        },
        "audience": {
            "en": "business,government,general public",
            "fr": "entreprises,gouvernement,grand public"
        },
        "name": {
            "en": "Government of Canada",
            "fr": "Gouvernement du Canada"
        },
        "areaServed": {
            "en": "Canada",
            "fr": "Canada"
        }
    },
    "h1": {
        "en": "Canadian Grade Compendium: Volume 7\u00a0\u2013\u00a0Maple Syrup",
        "fr": "Recueil des normes canadiennes de classification : Volume 7\u00a0\u2013\u00a0Sirop d'\u00e9rable"
    },
    "js": {
        "en": "",
        "fr": ""
    },
    "body": {
        "en": "-&gt;\r\n\r\n\r\n\r\n\r\n\r\n\r\n        \r\n        \n\n\r\n\r\n\r\n\r\n\r\n\r\n<p class=\"small text-right\"><a href=\"/about-the-cfia/acts-and-regulations/list-of-acts-and-regulations/documents-incorporated-by-reference/canadian-grade-compendium-volume-7/eng/1521118355767/1521118356469?chap=0\">Complete Text</a></p>\r\n\r\n<div data-ajax-replace=\"navi/eng/1526992762174\">\n</div>\n\n<div data-ajax-replace=\"navi/eng/1619621186877\">\n</div>\r\n<h2>On this page</h2>\r\n<ul class=\"list-unstyled col-md-offset-1 mrgn-tp-md mrgn-bttm-md\">\r\n\r\n<li>\r\n<a href=\"/about-the-cfia/acts-and-regulations/list-of-acts-and-regulations/documents-incorporated-by-reference/canadian-grade-compendium-volume-7/eng/1521118355767/1521118356469?chap=1\">General Requirement</a>\r\n\r\n</li>\r\n\r\n<li>\r\n<a href=\"/about-the-cfia/acts-and-regulations/list-of-acts-and-regulations/documents-incorporated-by-reference/canadian-grade-compendium-volume-7/eng/1521118355767/1521118356469?chap=2\">Maple Syrup Grade Requirements</a>\r\n\r\n<ul class=\"list-unstyled col-md-offset-1 mrgn-bttm-md\">\r\n\r\n<li>\r\n<a href=\"/about-the-cfia/acts-and-regulations/list-of-acts-and-regulations/documents-incorporated-by-reference/canadian-grade-compendium-volume-7/eng/1521118355767/1521118356469?chap=2#s1c2\">Grades and Grade Names</a>\r\n\r\n</li>\r\n\r\n<li>\r\n<a href=\"/about-the-cfia/acts-and-regulations/list-of-acts-and-regulations/documents-incorporated-by-reference/canadian-grade-compendium-volume-7/eng/1521118355767/1521118356469?chap=2#s2c2\">Canada Grade A</a>\r\n\r\n</li>\r\n\r\n<li>\r\n<a href=\"/about-the-cfia/acts-and-regulations/list-of-acts-and-regulations/documents-incorporated-by-reference/canadian-grade-compendium-volume-7/eng/1521118355767/1521118356469?chap=2#s3c2\">Canada Processing Grade</a>\r\n\r\n</li>\r\n\r\n<li>\r\n<a href=\"/about-the-cfia/acts-and-regulations/list-of-acts-and-regulations/documents-incorporated-by-reference/canadian-grade-compendium-volume-7/eng/1521118355767/1521118356469?chap=2#s4c2\">Colour Classes of Canada Grade A Maple Syrup</a>\r\n\r\n</li>\r\n\r\n</ul>\r\n\r\n</li>\r\n\r\n</ul>\r\n\r\n\r\n\n\n\r\n        \r\n\r\n\r\n\r\n<div class=\"row\">\r\n \r\n\t\r\n\t\t\t\r\n\r\n<div class=\"col-xm-12 pagedetails container\">\r\n\t\t\t\t\r\n\r\n</div>\r\n\t\r\n</div>",
        "fr": "-&gt;\r\n\r\n\r\n\r\n\r\n\r\n\r\n\r\n        \r\n        \n\n\r\n\r\n\r\n\r\n\r\n\r\n<p class=\"small text-right\"><a href=\"/a-propos-de-l-acia/lois-et-reglements/liste-des-lois-et-reglements/documents-incorpores-par-renvoi/recueil-des-normes-canadiennes-de-classification-v/fra/1521118355767/1521118356469?chap=0\">Texte complet</a></p>\r\n\r\n<div data-ajax-replace=\"navi/fra/1526992762174\">\n</div>\n\n<div data-ajax-replace=\"navi/fra/1619621186877\">\n</div>\r\n<h2>Sur cette page</h2>\r\n<ul class=\"list-unstyled col-md-offset-1 mrgn-tp-md mrgn-bttm-md\">\r\n\r\n<li>\r\n<a href=\"/a-propos-de-l-acia/lois-et-reglements/liste-des-lois-et-reglements/documents-incorpores-par-renvoi/recueil-des-normes-canadiennes-de-classification-v/fra/1521118355767/1521118356469?chap=1\">Exigence g\u00e9n\u00e9rale</a>\r\n\r\n</li>\r\n\r\n<li>\r\n<a href=\"/a-propos-de-l-acia/lois-et-reglements/liste-des-lois-et-reglements/documents-incorpores-par-renvoi/recueil-des-normes-canadiennes-de-classification-v/fra/1521118355767/1521118356469?chap=2\">Exigences relatives aux cat\u00e9gories de sirop d'\u00e9rable</a>\r\n\r\n<ul class=\"list-unstyled col-md-offset-1 mrgn-bttm-md\">\r\n\r\n<li>\r\n<a href=\"/a-propos-de-l-acia/lois-et-reglements/liste-des-lois-et-reglements/documents-incorpores-par-renvoi/recueil-des-normes-canadiennes-de-classification-v/fra/1521118355767/1521118356469?chap=2#s1c2\">Cat\u00e9gories et noms de cat\u00e9gorie</a>\r\n\r\n</li>\r\n\r\n<li>\r\n<a href=\"/a-propos-de-l-acia/lois-et-reglements/liste-des-lois-et-reglements/documents-incorpores-par-renvoi/recueil-des-normes-canadiennes-de-classification-v/fra/1521118355767/1521118356469?chap=2#s2c2\">Canada cat\u00e9gorie A</a>\r\n\r\n</li>\r\n\r\n<li>\r\n<a href=\"/a-propos-de-l-acia/lois-et-reglements/liste-des-lois-et-reglements/documents-incorpores-par-renvoi/recueil-des-normes-canadiennes-de-classification-v/fra/1521118355767/1521118356469?chap=2#s3c2\">Canada cat\u00e9gorie de transformation</a>\r\n\r\n</li>\r\n\r\n<li>\r\n<a href=\"/a-propos-de-l-acia/lois-et-reglements/liste-des-lois-et-reglements/documents-incorpores-par-renvoi/recueil-des-normes-canadiennes-de-classification-v/fra/1521118355767/1521118356469?chap=2#s4c2\">Classes de couleur du sirop d'\u00e9rable Canada cat\u00e9gorie A</a>\r\n\r\n</li>\r\n\r\n</ul>\r\n\r\n</li>\r\n\r\n</ul>\r\n\r\n\r\n<div class=\"clear\"></div>\r\n\n\n\r\n        \r\n\r\n<div class=\"row\">\r\n \r\n\t\t\t\r\n\t\t\t\r\n\r\n\t\t\r\n\t\r\n</div>"
    },
    "success": true,
    "chat_wizard": false
}