{
    "dcr_id": "1539372028443",
    "title": {
        "en": "Mechanical, electrical or gas stunning; slaughter methods and monitoring signs of unconsciousness or consciousness",
        "fr": "\u00c9tourdissement m\u00e9canique, \u00e9lectrique ou au gaz; m\u00e9thodes d'abattage et de surveillance de l'\u00e9tat de conscience ou d'inconscience"
    },
    "html_modified": "2024-02-05 2:54:39 PM",
    "modified": "2019-04-17",
    "issued": "2018-11-18",
    "teamsite_location": {
        "en": "/default/main/inspection/cont-cont/food-aliments/STAGING/templatedata/comn-comn/manuals-manuels/data/sfcr_req_meat_guidance_welfare_slaughter_methods_1539372028443_eng",
        "fr": "/default/main/inspection/cont-cont/food-aliments/STAGING/templatedata/comn-comn/manuals-manuels/data/sfcr_req_meat_guidance_welfare_slaughter_methods_1539372028443_fra"
    },
    "ia_id": "1539372028884",
    "parent_ia_id": "1523875902549",
    "chronicletopic": {
        "en": "",
        "fr": ""
    },
    "chroniclecontent": {
        "en": "",
        "fr": ""
    },
    "chronicleaudience": {
        "en": "",
        "fr": ""
    },
    "sfcrdocumenttype": {
        "en": "Guidance",
        "fr": "Document d'orientation"
    },
    "sfcraudience": {
        "en": "Industry",
        "fr": "Industrie"
    },
    "sfcrmethodofproduction": {
        "en": "Organic foods",
        "fr": "Aliments biologiques"
    },
    "activity": {
        "en": "Making food - Slaughter",
        "fr": "Production d'aliments - Abattage"
    },
    "commodity": {
        "en": "Meat products and food animals",
        "fr": "Animaux destin\u00e9s \u00e0 l\u2019alimentation et produits de viande"
    },
    "program": {
        "en": "Animals|Food",
        "fr": "Animaux|Aliments"
    },
    "search_type": "guidancefinder",
    "parent_node_id": "1523875902549",
    "layout_name": "content page 1 column",
    "breadcrumb": {
        "en": "Mechanical, electrical or gas stunning; slaughter methods and monitoring signs of unconsciousness or consciousness",
        "fr": "\u00c9tourdissement m\u00e9canique, \u00e9lectrique ou au gaz; m\u00e9thodes d'abattage et de surveillance de l'\u00e9tat de conscience ou d'inconscience"
    },
    "label": {
        "en": "Mechanical, electrical or gas stunning; slaughter methods and monitoring signs of unconsciousness or consciousness",
        "fr": "\u00c9tourdissement m\u00e9canique, \u00e9lectrique ou au gaz; m\u00e9thodes d'abattage et de surveillance de l'\u00e9tat de conscience ou d'inconscience"
    },
    "templatetype": "content page 1 column",
    "node_id": "1539372028884",
    "managing_branch": "comn",
    "type_name": "manuals-manuels",
    "dcr_type": "manuals-manuels",
    "parent_dcr_id": "1523875902268",
    "has_dcr_id": true,
    "lang": "en",
    "could_not_load": 0,
    "refaire": false,
    "interwoven_url": {
        "en": "/food-guidance-by-commodity/meat-products-and-food-animals/slaughter-methods-and-monitoring/",
        "fr": "/exigences-et-documents-d-orientation-relatives-a-c/produits-de-viande-et-animaux-pour-alimentation-hu/methodes-d-abattage-et-de-surveillance/"
    },
    "meta": {
        "viewport": {
            "en": "width=device-width,initial-scale=1",
            "fr": "width=device-width,initial-scale=1"
        },
        "service": {
            "en": "CFIA-ACIA",
            "fr": "CFIA-ACIA"
        },
        "accessRights": {
            "en": "2",
            "fr": "2"
        },
        "title": {
            "en": "Mechanical, electrical or gas stunning; slaughter methods and monitoring signs of unconsciousness or consciousness",
            "fr": "\u00c9tourdissement m\u00e9canique, \u00e9lectrique ou au gaz; m\u00e9thodes d'abattage et de surveillance de l'\u00e9tat de conscience ou d'inconscience"
        },
        "description": {
            "en": "Guidance on different methods/systems of stunning prior to slaughter, the associated risks and their controls to prevent animal welfare issues.This will also support preparing the animal welfare preventive control plans.",
            "fr": "Lignes directrices sur les diff\u00e9rentes m\u00e9thodes/syst\u00e8mes d'\u00e9tourdissement pr\u00e9alable \u00e0 l`abattage, les risques associ\u00e9s et leurs contr\u00f4les pour pr\u00e9venir les probl\u00e8mes de bien-\u00eatre animal. Cela aidera aussi \u00e0 la pr\u00e9paration du PCP du bien-\u00eatre animal."
        },
        "keywords": {
            "en": "mechanical, electrical, gas stunning, slaughter, methods, monitoring, signs, unconsciousness, consciousness, sfcr",
            "fr": "\u00e9tourdissement, m\u00e9canique, \u00e9lectrique, gaz, m\u00e9thodes, abattage, surveillance, \u00e9tat de conscience, inconscience, rsac"
        },
        "dcterms.subject": {
            "en": "organic foods,assessment,exports,imports",
            "fr": "aliment biologique,\u00e9valuation,exportation,importation"
        },
        "creator": {
            "en": "Government of Canada,Canadian Food Inspection Agency,Food Safety and Consumer Protection Directorate",
            "fr": "Gouvernement du Canada,Agence canadienne d'inspection des aliments,Direction de la salubrit\u00e9 des aliments et de la protection des consommateurs"
        },
        "language": {
            "en": "eng",
            "fr": "fra"
        },
        "issued": {
            "en": "2018-11-18",
            "fr": "2018-11-18"
        },
        "modified": {
            "en": "2019-04-17",
            "fr": "2019-04-17"
        },
        "type": {
            "en": "assessment,report",
            "fr": "\u00e9valuation,rapport"
        },
        "audience": {
            "en": "business,government,general public",
            "fr": "entreprises,gouvernement,grand public"
        },
        "name": {
            "en": "Government of Canada",
            "fr": "Gouvernement du Canada"
        },
        "areaServed": {
            "en": "Canada",
            "fr": "Canada"
        }
    },
    "h1": {
        "en": "Mechanical, electrical or gas stunning; slaughter methods and monitoring signs of unconsciousness or consciousness",
        "fr": "\u00c9tourdissement m\u00e9canique, \u00e9lectrique ou au gaz; m\u00e9thodes d'abattage et de surveillance de l'\u00e9tat de conscience ou d'inconscience"
    },
    "js": {
        "en": "",
        "fr": ""
    },
    "body": {
        "en": "-&gt;\r\n\r\n\r\n\r\n\r\n\r\n\r\n        \r\n        \n\n\r\n\r\n\r\n\r\n\r\n\r\n<p class=\"small text-right\"><a href=\"/food-guidance-by-commodity/meat-products-and-food-animals/slaughter-methods-and-monitoring/eng/1539372028443/1539372028884?chap=0\">Complete text</a></p>\r\n\r\n<div data-ajax-replace=\"navi/eng/1526992762174\">\n</div>\r\n<h2>On this page</h2>\r\n<ul class=\"list-unstyled col-md-offset-1 mrgn-tp-md mrgn-bttm-md\">\r\n\r\n<li>\r\n<a href=\"/food-guidance-by-commodity/meat-products-and-food-animals/slaughter-methods-and-monitoring/eng/1539372028443/1539372028884?chap=1\">Introduction: pre-slaughter stunning</a>\r\n\r\n</li>\r\n\r\n<li>\r\n<a href=\"/food-guidance-by-commodity/meat-products-and-food-animals/slaughter-methods-and-monitoring/eng/1539372028443/1539372028884?chap=2\">Definitions</a>\r\n\r\n</li>\r\n\r\n<li>\r\n<a href=\"/food-guidance-by-commodity/meat-products-and-food-animals/slaughter-methods-and-monitoring/eng/1539372028443/1539372028884?chap=3\">Mechanical stunning of food animals</a>\r\n\r\n<ul class=\"list-unstyled col-md-offset-1 mrgn-bttm-md\">\r\n\r\n<li>\r\n<a href=\"/food-guidance-by-commodity/meat-products-and-food-animals/slaughter-methods-and-monitoring/eng/1539372028443/1539372028884?chap=3#s1c3\">Captive bolt stunning</a>\r\n\r\n</li>\r\n\r\n<li>\r\n<a href=\"/food-guidance-by-commodity/meat-products-and-food-animals/slaughter-methods-and-monitoring/eng/1539372028443/1539372028884?chap=3#s2c3\">Firearm stunning</a>\r\n\r\n</li>\r\n\r\n<li>\r\n<a href=\"/food-guidance-by-commodity/meat-products-and-food-animals/slaughter-methods-and-monitoring/eng/1539372028443/1539372028884?chap=3#s3c3\">Captive bolt stunning of poultry or rabbits</a>\r\n\r\n</li>\r\n\r\n</ul>\r\n\r\n</li>\r\n\r\n<li>\r\n<a href=\"/food-guidance-by-commodity/meat-products-and-food-animals/slaughter-methods-and-monitoring/eng/1539372028443/1539372028884?chap=4\">Electrical stunning</a>\r\n\r\n<ul class=\"list-unstyled col-md-offset-1 mrgn-bttm-md\">\r\n\r\n<li>\r\n<a href=\"/food-guidance-by-commodity/meat-products-and-food-animals/slaughter-methods-and-monitoring/eng/1539372028443/1539372028884?chap=4#s4c4\">Electrical stunning methods for mammalian food animals</a>\r\n\r\n</li>\r\n\r\n<li>\r\n<a href=\"/food-guidance-by-commodity/meat-products-and-food-animals/slaughter-methods-and-monitoring/eng/1539372028443/1539372028884?chap=4#s5c4\">Electrical stunning systems for poultry</a>\r\n\r\n</li>\r\n\r\n</ul>\r\n\r\n</li>\r\n\r\n<li>\r\n<a href=\"/food-guidance-by-commodity/meat-products-and-food-animals/slaughter-methods-and-monitoring/eng/1539372028443/1539372028884?chap=5\">Controlled atmospheric stunning (CAS)</a>\r\n\r\n<ul class=\"list-unstyled col-md-offset-1 mrgn-bttm-md\">\r\n\r\n<li>\r\n<a href=\"/food-guidance-by-commodity/meat-products-and-food-animals/slaughter-methods-and-monitoring/eng/1539372028443/1539372028884?chap=5#s6c5\">Design of facilities for CAS of pigs</a>\r\n\r\n</li>\r\n\r\n<li>\r\n<a href=\"/food-guidance-by-commodity/meat-products-and-food-animals/slaughter-methods-and-monitoring/eng/1539372028443/1539372028884?chap=5#s7c5\">Animal welfare PCP for gas stunning for pigs</a>\r\n\r\n</li>\r\n\r\n<li>\r\n<a href=\"/food-guidance-by-commodity/meat-products-and-food-animals/slaughter-methods-and-monitoring/eng/1539372028443/1539372028884?chap=5#s8c5\">CAS of poultry</a>\r\n\r\n</li>\r\n\r\n<li>\r\n<a href=\"/food-guidance-by-commodity/meat-products-and-food-animals/slaughter-methods-and-monitoring/eng/1539372028443/1539372028884?chap=5#s9c5\">Low atmospheric pressure stunning (LAPS)</a>\r\n\r\n</li>\r\n\r\n<li>\r\n<a href=\"/food-guidance-by-commodity/meat-products-and-food-animals/slaughter-methods-and-monitoring/eng/1539372028443/1539372028884?chap=5#s10c5\">Decapitation of poultry as a deviation procedure for missed stuns in poultry</a>\r\n\r\n</li>\r\n\r\n</ul>\r\n\r\n</li>\r\n\r\n<li>\r\n<a href=\"/food-guidance-by-commodity/meat-products-and-food-animals/slaughter-methods-and-monitoring/eng/1539372028443/1539372028884?chap=6\">Monitoring for signs of consciousness (sensibility) and unconsciousness (insensibility) in food animals after stunning</a>\r\n\r\n</li>\r\n\r\n<li>\r\n<a href=\"/food-guidance-by-commodity/meat-products-and-food-animals/slaughter-methods-and-monitoring/eng/1539372028443/1539372028884?chap=7\">Cutting and bleeding methods for conventional slaughter</a>\r\n\r\n<ul class=\"list-unstyled col-md-offset-1 mrgn-bttm-md\">\r\n\r\n<li>\r\n<a href=\"/food-guidance-by-commodity/meat-products-and-food-animals/slaughter-methods-and-monitoring/eng/1539372028443/1539372028884?chap=7#s11c7\">Cutting/bleeding of red meat species including ratites</a>\r\n\r\n</li>\r\n\r\n<li>\r\n<a href=\"/food-guidance-by-commodity/meat-products-and-food-animals/slaughter-methods-and-monitoring/eng/1539372028443/1539372028884?chap=7#s12c7\">Cutting/bleeding of rabbits</a>\r\n\r\n</li>\r\n\r\n<li>\r\n<a href=\"/food-guidance-by-commodity/meat-products-and-food-animals/slaughter-methods-and-monitoring/eng/1539372028443/1539372028884?chap=7#s13c7\">Cutting/bleeding of poultry</a>\r\n\r\n</li>\r\n\r\n</ul>\r\n\r\n</li>\r\n\r\n<li>\r\n<a href=\"/food-guidance-by-commodity/meat-products-and-food-animals/slaughter-methods-and-monitoring/eng/1539372028443/1539372028884?chap=8\">References</a>\r\n\r\n</li>\r\n\r\n</ul>\r\n\r\n\r\n\n\n\r\n        \r\n\r\n\r\n\r\n<div class=\"row\">\r\n \r\n\t\r\n\t\t\t\r\n\r\n<div class=\"col-xm-12 pagedetails container\">\r\n\t\t\t\t\r\n\r\n</div>\r\n\t\r\n</div>",
        "fr": "-&gt;\r\n\r\n\r\n\r\n\r\n\r\n\r\n\r\n        \r\n        \n\n\r\n\r\n\r\n\r\n\r\n\r\n<p class=\"small text-right\"><a href=\"/exigences-et-documents-d-orientation-relatives-a-c/produits-de-viande-et-animaux-pour-alimentation-hu/methodes-d-abattage-et-de-surveillance/fra/1539372028443/1539372028884?chap=0\">Texte complet</a></p>\r\n\r\n<div data-ajax-replace=\"navi/fra/1526992762174\">\n</div>\r\n<h2>Sur cette page</h2>\r\n<ul class=\"list-unstyled col-md-offset-1 mrgn-tp-md mrgn-bttm-md\">\r\n\r\n<li>\r\n<a href=\"/exigences-et-documents-d-orientation-relatives-a-c/produits-de-viande-et-animaux-pour-alimentation-hu/methodes-d-abattage-et-de-surveillance/fra/1539372028443/1539372028884?chap=1\">Introduction\u00a0\u2013 \u00c9tourdissement pr\u00e9alable \u00e0 l'abattage</a>\r\n\r\n</li>\r\n\r\n<li>\r\n<a href=\"/exigences-et-documents-d-orientation-relatives-a-c/produits-de-viande-et-animaux-pour-alimentation-hu/methodes-d-abattage-et-de-surveillance/fra/1539372028443/1539372028884?chap=2\">D\u00e9finitions</a>\r\n\r\n</li>\r\n\r\n<li>\r\n<a href=\"/exigences-et-documents-d-orientation-relatives-a-c/produits-de-viande-et-animaux-pour-alimentation-hu/methodes-d-abattage-et-de-surveillance/fra/1539372028443/1539372028884?chap=3\">\u00c9tourdissement m\u00e9canique des animaux destin\u00e9s \u00e0 l'alimentation</a>\r\n\r\n<ul class=\"list-unstyled col-md-offset-1 mrgn-bttm-md\">\r\n\r\n<li>\r\n<a href=\"/exigences-et-documents-d-orientation-relatives-a-c/produits-de-viande-et-animaux-pour-alimentation-hu/methodes-d-abattage-et-de-surveillance/fra/1539372028443/1539372028884?chap=3#s1c3\">\u00c9tourdissement au pistolet percuteur (\u00e0 tige captive)</a>\r\n\r\n</li>\r\n\r\n<li>\r\n<a href=\"/exigences-et-documents-d-orientation-relatives-a-c/produits-de-viande-et-animaux-pour-alimentation-hu/methodes-d-abattage-et-de-surveillance/fra/1539372028443/1539372028884?chap=3#s2c3\">\u00c9tourdissement \u00e0 l'arme \u00e0 feu</a>\r\n\r\n</li>\r\n\r\n<li>\r\n<a href=\"/exigences-et-documents-d-orientation-relatives-a-c/produits-de-viande-et-animaux-pour-alimentation-hu/methodes-d-abattage-et-de-surveillance/fra/1539372028443/1539372028884?chap=3#s3c3\">\u00c9tourdissement au pistolet percuteur \u00e0 tige captive des volailles ou des lapins</a>\r\n\r\n</li>\r\n\r\n</ul>\r\n\r\n</li>\r\n\r\n<li>\r\n<a href=\"/exigences-et-documents-d-orientation-relatives-a-c/produits-de-viande-et-animaux-pour-alimentation-hu/methodes-d-abattage-et-de-surveillance/fra/1539372028443/1539372028884?chap=4\">\u00c9tourdissement \u00e9lectrique</a>\r\n\r\n<ul class=\"list-unstyled col-md-offset-1 mrgn-bttm-md\">\r\n\r\n<li>\r\n<a href=\"/exigences-et-documents-d-orientation-relatives-a-c/produits-de-viande-et-animaux-pour-alimentation-hu/methodes-d-abattage-et-de-surveillance/fra/1539372028443/1539372028884?chap=4#s4c4\">M\u00e9thodes d'\u00e9tourdissement \u00e9lectrique pour les mammif\u00e8res pour alimentation</a>\r\n\r\n</li>\r\n\r\n<li>\r\n<a href=\"/exigences-et-documents-d-orientation-relatives-a-c/produits-de-viande-et-animaux-pour-alimentation-hu/methodes-d-abattage-et-de-surveillance/fra/1539372028443/1539372028884?chap=4#s5c4\">Syst\u00e8me d'\u00e9tourdissement \u00e9lectrique pour la volaille</a>\r\n\r\n</li>\r\n\r\n</ul>\r\n\r\n</li>\r\n\r\n<li>\r\n<a href=\"/exigences-et-documents-d-orientation-relatives-a-c/produits-de-viande-et-animaux-pour-alimentation-hu/methodes-d-abattage-et-de-surveillance/fra/1539372028443/1539372028884?chap=5\">\u00c9tourdissement sous atmosph\u00e8re contr\u00f4l\u00e9e (EAC)</a>\r\n\r\n<ul class=\"list-unstyled col-md-offset-1 mrgn-bttm-md\">\r\n\r\n<li>\r\n<a href=\"/exigences-et-documents-d-orientation-relatives-a-c/produits-de-viande-et-animaux-pour-alimentation-hu/methodes-d-abattage-et-de-surveillance/fra/1539372028443/1539372028884?chap=5#s6c5\">Conception des installations d'\u00e9tourdissement sous atmosph\u00e8re contr\u00f4l\u00e9e (EAC) pour les porcs</a>\r\n\r\n</li>\r\n\r\n<li>\r\n<a href=\"/exigences-et-documents-d-orientation-relatives-a-c/produits-de-viande-et-animaux-pour-alimentation-hu/methodes-d-abattage-et-de-surveillance/fra/1539372028443/1539372028884?chap=5#s7c5\">PCP du bien-\u00eatre animal pour l'\u00e9tourdissement au gaz des porcs</a>\r\n\r\n</li>\r\n\r\n<li>\r\n<a href=\"/exigences-et-documents-d-orientation-relatives-a-c/produits-de-viande-et-animaux-pour-alimentation-hu/methodes-d-abattage-et-de-surveillance/fra/1539372028443/1539372028884?chap=5#s8c5\">\u00c9tourdissement sous atmosph\u00e8re contr\u00f4l\u00e9e (EAC) des volailles</a>\r\n\r\n</li>\r\n\r\n<li>\r\n<a href=\"/exigences-et-documents-d-orientation-relatives-a-c/produits-de-viande-et-animaux-pour-alimentation-hu/methodes-d-abattage-et-de-surveillance/fra/1539372028443/1539372028884?chap=5#s9c5\">\u00c9tourdissement sous basse pression atmosph\u00e9rique</a>\r\n\r\n</li>\r\n\r\n<li>\r\n<a href=\"/exigences-et-documents-d-orientation-relatives-a-c/produits-de-viande-et-animaux-pour-alimentation-hu/methodes-d-abattage-et-de-surveillance/fra/1539372028443/1539372028884?chap=5#s10c5\">D\u00e9capitation des volailles comme proc\u00e9dure de rectification en cas d'\u00e9tourdissement rat\u00e9</a>\r\n\r\n</li>\r\n\r\n</ul>\r\n\r\n</li>\r\n\r\n<li>\r\n<a href=\"/exigences-et-documents-d-orientation-relatives-a-c/produits-de-viande-et-animaux-pour-alimentation-hu/methodes-d-abattage-et-de-surveillance/fra/1539372028443/1539372028884?chap=6\">Surveillance des signes de conscience (sensibilit\u00e9) et d'inconscience (insensibilit\u00e9) apr\u00e8s l'\u00e9tourdissement des animaux destin\u00e9s \u00e0 l'alimentation</a>\r\n\r\n</li>\r\n\r\n<li>\r\n<a href=\"/exigences-et-documents-d-orientation-relatives-a-c/produits-de-viande-et-animaux-pour-alimentation-hu/methodes-d-abattage-et-de-surveillance/fra/1539372028443/1539372028884?chap=7\">M\u00e9thodes d'incision et de saign\u00e9e pour l'abattage conventionnel</a>\r\n\r\n<ul class=\"list-unstyled col-md-offset-1 mrgn-bttm-md\">\r\n\r\n<li>\r\n<a href=\"/exigences-et-documents-d-orientation-relatives-a-c/produits-de-viande-et-animaux-pour-alimentation-hu/methodes-d-abattage-et-de-surveillance/fra/1539372028443/1539372028884?chap=7#s11c7\">La saign\u00e9e chez les esp\u00e8ces \u00e0 viande rouge, dont les ratites</a>\r\n\r\n</li>\r\n\r\n<li>\r\n<a href=\"/exigences-et-documents-d-orientation-relatives-a-c/produits-de-viande-et-animaux-pour-alimentation-hu/methodes-d-abattage-et-de-surveillance/fra/1539372028443/1539372028884?chap=7#s12c7\">La saign\u00e9e chez les lapins</a>\r\n\r\n</li>\r\n\r\n<li>\r\n<a href=\"/exigences-et-documents-d-orientation-relatives-a-c/produits-de-viande-et-animaux-pour-alimentation-hu/methodes-d-abattage-et-de-surveillance/fra/1539372028443/1539372028884?chap=7#s13c7\">La saign\u00e9e chez les volailles</a>\r\n\r\n</li>\r\n\r\n</ul>\r\n\r\n</li>\r\n\r\n<li>\r\n<a href=\"/exigences-et-documents-d-orientation-relatives-a-c/produits-de-viande-et-animaux-pour-alimentation-hu/methodes-d-abattage-et-de-surveillance/fra/1539372028443/1539372028884?chap=8\">R\u00e9f\u00e9rences</a>\r\n\r\n</li>\r\n\r\n</ul>\r\n\r\n\r\n<div class=\"clear\"></div>\r\n\n\n\r\n        \r\n\r\n<div class=\"row\">\r\n \r\n\t\t\t\r\n\t\t\t\r\n\r\n\t\t\r\n\t\r\n</div>"
    },
    "success": true,
    "chat_wizard": false
}