{
    "dcr_id": "1517233850058",
    "lang": "en",
    "type_name": "intra-intra/news-nouv",
    "approvalsadvisor": "nadine.boyd@canada.ca",
    "approvalsdirector": "vincent.beaulieu@agr.gc.ca",
    "submitername": "Justine Walker",
    "submiteremail": "justine.walker2@canada.ca",
    "submiterphoneNumber": "613-773-0443",
    "issued": "2018-02-08",
    "translateReqNumber": "null"
}