{
    "dcr_id": "1523897490911",
    "lang": "en",
    "type_name": "intra-intra/news-nouv",
    "approvalsadvisor": "stela.susic@canada.ca",
    "approvalsdirector": "leigh.bain@canada.ca",
    "submitername": "leigh bain",
    "submiteremail": "leigh.bain@canada.ca",
    "submiterphoneNumber": "613-773-0383",
    "issued": "2018-04-19",
    "translateReqNumber": "null"
}