{
    "dcr_id": "1525193257537",
    "lang": "en",
    "type_name": "intra-intra/news-nouv",
    "approvalsadvisor": "janet.dowell@agr.gc.ca",
    "approvalsdirector": "Pierre.Corriveau@agr.gc.ca",
    "submitername": "Sami Reaz",
    "submiteremail": "sami.reaz@agr.gc.ca",
    "submiterphoneNumber": "613-773-3130",
    "issued": "2018-05-03",
    "translateReqNumber": "n/a"
}