{
    "dcr_id": "1526065009944",
    "lang": "en",
    "type_name": "intra-intra/news-nouv",
    "approvalsadvisor": "natalie.ekholm@canada.ca",
    "approvalsdirector": "Brian.McCarthy@agr.gc.ca",
    "submitername": "Marjorie Hercule Gateau",
    "submiteremail": "marjorie.hercule@agr.gc.ca",
    "submiterphoneNumber": "613-773-3597",
    "issued": "2018-05-16",
    "translateReqNumber": "n/a"
}