{
    "dcr_id": "1527536878626",
    "lang": "en",
    "type_name": "intra-intra/news-nouv",
    "approvalsadvisor": "Stela.Susic@canada.ca",
    "approvalsdirector": "Karim.Bechane@canada.ca",
    "submitername": "Christine LeBlanc",
    "submiteremail": "Christine.LeBlanc@canada.ca",
    "submiterphoneNumber": "506-777-3745",
    "issued": "2018-05-28",
    "translateReqNumber": "n/a"
}