{
    "dcr_id": "1535479206035",
    "lang": "en",
    "type_name": "intra-intra/news-nouv",
    "approvalsadvisor": "NIna.Hamad@canada.ca",
    "approvalsdirector": "Jacint.Boucher@canada.ca",
    "submitername": "Christine LeBlanc",
    "submiteremail": "Christine.LeBlanc@canada.ca",
    "submiterphoneNumber": "506-777-3745",
    "issued": "2018-08-28",
    "translateReqNumber": "Previously approved translations"
}