{
    "dcr_id": "1539092498953",
    "lang": "en",
    "type_name": "intra-intra/news-nouv",
    "approvalsadvisor": "natalie.ekholm@canada.ca",
    "approvalsdirector": "madeline.webber@canada.ca",
    "submitername": "Bruce",
    "submiteremail": "bruce.radburn@canada.ca",
    "submiterphoneNumber": "613-795-3261",
    "issued": "2018-10-11",
    "translateReqNumber": "181009-14"
}