{
    "dcr_id": "1539632922544",
    "lang": "en",
    "type_name": "intra-intra/news-nouv",
    "approvalsadvisor": "natalie.ekholm@canada.ca",
    "approvalsdirector": "natalie.ekholm@canada.ca",
    "submitername": "Mario Gaudreau",
    "submiteremail": "mario.gaudreau2@canada.ca",
    "submiterphoneNumber": "613-773-1463",
    "issued": "2018-10-18",
    "translateReqNumber": "181011-11"
}