{
    "dcr_id": "1539087735390",
    "lang": "en",
    "type_name": "intra-intra/news-nouv",
    "approvalsadvisor": "natalie.ekholm@canada.ca",
    "approvalsdirector": "michele.marcotte@canada.ca",
    "submitername": "sylvie cloutier",
    "submiteremail": "sylvie.cloutier2@canada.ca",
    "submiterphoneNumber": "613-715-5089",
    "issued": "2018-10-11",
    "translateReqNumber": "AAFC-181005-23"
}