{
    "dcr_id": "1540914207651",
    "lang": "en",
    "type_name": "intra-intra/news-nouv",
    "approvalsadvisor": "natalie.ekholm@canada.ca",
    "approvalsdirector": "sylvie.milletteleduc@canada.ca",
    "submitername": "Austin Mowat",
    "submiteremail": "austin.mowat@canada.ca",
    "submiterphoneNumber": "613-773-2317",
    "issued": "2018-11-01",
    "translateReqNumber": "N/A"
}