{
    "dcr_id": "1541089409233",
    "lang": "en",
    "type_name": "intra-intra/news-nouv",
    "approvalsadvisor": "ricky.lee@canada.ca",
    "approvalsdirector": "scott.aughey@canada.ca",
    "submitername": "Lesley Gervais",
    "submiteremail": "lesley.gervais@canada.ca",
    "submiterphoneNumber": "613-773-3489",
    "issued": "2018-11-08",
    "translateReqNumber": "see note below"
}