{
    "dcr_id": "1541101205521",
    "lang": "en",
    "type_name": "intra-intra/news-nouv",
    "approvalsadvisor": "natalie.ekholm@canada.ca",
    "approvalsdirector": "michel.lessard@canada.ca",
    "submitername": "Austin Mowat",
    "submiteremail": "austin.mowat@canada.ca",
    "submiterphoneNumber": "613-773-2317",
    "issued": "2018-11-08",
    "translateReqNumber": "181030-4"
}