{
    "dcr_id": "1542806320573",
    "lang": "en",
    "type_name": "intra-intra/news-nouv",
    "approvalsadvisor": "jeff.wright@canada.ca",
    "approvalsdirector": "nathalie.leblanc@canada.ca",
    "submitername": "Lesley Gervais",
    "submiteremail": "lesley.gervais@canada.ca",
    "submiterphoneNumber": "613-773-3489",
    "issued": "2018-11-21",
    "translateReqNumber": "181115-39"
}