{
    "dcr_id": "1544109989493",
    "lang": "en",
    "type_name": "intra-intra/news-nouv",
    "approvalsadvisor": "cathy.sleeth@canada.ca",
    "approvalsdirector": "scott.aughey@canada.ca",
    "submitername": "Lynn Bertrand",
    "submiteremail": "lynn.bertrand@canada.ca",
    "submiterphoneNumber": "613-773-1281",
    "issued": "2018-12-13",
    "translateReqNumber": "AAFC-181205-1"
}