{
    "dcr_id": "1551812037434",
    "lang": "en",
    "type_name": "intra-intra/news-nouv",
    "approvalsadvisor": "irina.andritoiu@canada.ca",
    "approvalsdirector": "andrew.goldstein@canada.ca",
    "submitername": "Elizabeth",
    "submiteremail": "elizabeth.morris2@canada.ca",
    "submiterphoneNumber": "613-773-1374",
    "issued": "2019-03-07",
    "translateReqNumber": "AAFC-190305-5"
}