{
    "dcr_id": "1556811346693",
    "lang": "en",
    "type_name": "intra-intra/news-nouv",
    "approvalsadvisor": "sonia.forget@canada.ca",
    "approvalsdirector": "kara.beckles@canada.ca",
    "submitername": "Douglas Ruby",
    "submiteremail": "douglas.ruby@canada.ca",
    "submiterphoneNumber": "613-773-1343",
    "issued": "2019-05-09",
    "translateReqNumber": "190430-9"
}