{
    "dcr_id": "1564581663232",
    "lang": "en",
    "type_name": "intra-intra/news-nouv",
    "approvalsadvisor": "randi.saunders@canada.ca",
    "approvalsdirector": "scott.aughey@canada.ca",
    "submitername": "Randi Saunders",
    "submiteremail": "Randi.Saunders@canada.ca",
    "submiterphoneNumber": "613-773-2675",
    "issued": "2019-08-01",
    "translateReqNumber": "190726-9"
}