{
    "dcr_id": "1566313632077",
    "lang": "en",
    "type_name": "intra-intra/news-nouv",
    "approvalsadvisor": "joy.moskovic@canada.ca",
    "approvalsdirector": "eric.martin2@canada.ca",
    "submitername": "Terry Brill",
    "submiteremail": "terry.brill@canada.ca",
    "submiterphoneNumber": "204-259-5830",
    "issued": "2019-08-22",
    "translateReqNumber": "N/A Using communication template"
}