{
    "dcr_id": "1567006417736",
    "lang": "en",
    "type_name": "intra-intra/news-nouv",
    "approvalsadvisor": "Joy.Moskovic@canada.ca",
    "approvalsdirector": "Andrew.Goldstein@canada.ca",
    "submitername": "Alexanne Drouin",
    "submiteremail": "alexanne.drouin@canada.ca",
    "submiterphoneNumber": "613-773-3443",
    "issued": "2019-09-05",
    "translateReqNumber": "180522-1"
}