{
    "dcr_id": "1567517546875",
    "lang": "en",
    "type_name": "intra-intra/news-nouv",
    "approvalsadvisor": "joy.moskovic@canada.ca",
    "approvalsdirector": "tom.rosser@canada.ca",
    "submitername": "Alexanne Drouin",
    "submiteremail": "alexanne.drouin@canada.ca",
    "submiterphoneNumber": "613-773-3443",
    "issued": "2019-09-05",
    "translateReqNumber": "190827-2"
}