{
    "dcr_id": "1568228387144",
    "lang": "en",
    "type_name": "intra-intra/news-nouv",
    "approvalsadvisor": "jason.Ramey@canada.ca",
    "approvalsdirector": "sonia.forget@canada.ca",
    "submitername": "Kathryn Hunt",
    "submiteremail": "kathryn.hunt@canada.ca",
    "submiterphoneNumber": "613-773-2262",
    "issued": "2019-09-12",
    "translateReqNumber": "n/a"
}