{
    "dcr_id": "1568733373623",
    "lang": "en",
    "type_name": "intra-intra/news-nouv",
    "approvalsadvisor": "Joy.Moskovic@canada.ca",
    "approvalsdirector": "anne.lacombe@canada.ca",
    "submitername": "Joy Moskovic",
    "submiteremail": "joy.moskovic@canada.ca",
    "submiterphoneNumber": "613-773-1407",
    "issued": "2019-09-19",
    "translateReqNumber": "190829-48"
}