{
    "dcr_id": "1576689417380",
    "lang": "en",
    "type_name": "intra-intra/news-nouv",
    "approvalsadvisor": "randi.saunders@canada.ca",
    "approvalsdirector": "scott.aughey@canada.ca",
    "submitername": "Randi Saunders",
    "submiteremail": "randi.saunders@canada.ca",
    "submiterphoneNumber": "613-773-2675",
    "issued": "2019-12-19",
    "translateReqNumber": "191217-30"
}