{
    "dcr_id": "1580758316150",
    "lang": "en",
    "type_name": "intra-intra/news-nouv",
    "approvalsadvisor": "justine.walker2@canada.ca",
    "approvalsdirector": "luke.kohlman@canada.ca",
    "submitername": "Channel Villeneuve",
    "submiteremail": "channel.villeneuve2@canada.ca",
    "submiterphoneNumber": "613-773-2749",
    "issued": "2020-02-06",
    "translateReqNumber": "200131-12"
}