{
    "dcr_id": "1583177391379",
    "lang": "en",
    "type_name": "intra-intra/news-nouv",
    "approvalsadvisor": "natalie.ekholm@canada.ca",
    "approvalsdirector": "michel.lessard@canada.ca",
    "submitername": "Debbie Lockrey-Wesssl",
    "submiteremail": "Debbie.lockrey-wessel@canada.ca",
    "submiterphoneNumber": "519-819-2907",
    "issued": "2020-03-02",
    "translateReqNumber": "200226-17"
}