{
    "dcr_id": "1588694176231",
    "lang": "en",
    "type_name": "intra-intra/news-nouv",
    "approvalsadvisor": "kathryn.hunt@canada.ca",
    "approvalsdirector": "kathryn.hunt@canada.ca",
    "submitername": "kate",
    "submiteremail": "kathryn.hunt@canada.ca",
    "submiterphoneNumber": "613-733-2262",
    "issued": "2020-05-05",
    "translateReqNumber": "n/a "
}