{
    "dcr_id": "1592074176461",
    "lang": "en",
    "type_name": "intra-intra/news-nouv",
    "approvalsadvisor": "basil.anton@canada.ca",
    "approvalsdirector": "basil.anton@agr.gc.ca",
    "submitername": "test",
    "submiteremail": "basil.anton@agr.gc.ca",
    "submiterphoneNumber": "613-251-8888",
    "issued": "2020-06-26",
    "translateReqNumber": "wwww"
}