{
    "dcr_id": "1594660288497",
    "lang": "en",
    "type_name": "intra-intra/news-nouv",
    "approvalsadvisor": "eileen.rankin@canada.ca",
    "approvalsdirector": "karen.durnford-mcintosh@canada.ca",
    "submitername": "Jennifer",
    "submiteremail": "jennifer.mclaurin@canada.ca",
    "submiterphoneNumber": "613-878-7730",
    "issued": "2020-07-14",
    "translateReqNumber": "200710-13"
}