{
    "dcr_id": "1595356460156",
    "lang": "en",
    "type_name": "intra-intra/news-nouv",
    "approvalsadvisor": "kathryn.hunt@canada.ca",
    "approvalsdirector": "kathryn.hunt@canada.ca",
    "submitername": "kate",
    "submiteremail": "kathryn.hunt@canada.ca",
    "submiterphoneNumber": "613-314-4821",
    "issued": "2020-08-20",
    "translateReqNumber": "n/a"
}