{
    "dcr_id": "1598966947312",
    "lang": "en",
    "type_name": "intra-intra/news-nouv",
    "approvalsadvisor": "haydn.jackson@canada.ca",
    "approvalsdirector": "sonia.forget@canada.ca",
    "submitername": "Haydn Jackson",
    "submiteremail": "haydn.jackson@canada.ca",
    "submiterphoneNumber": "343-571-8562",
    "issued": "2020-09-03",
    "translateReqNumber": "200828-36"
}