{
    "dcr_id": "1601983061658",
    "lang": "en",
    "type_name": "intra-intra/news-nouv",
    "approvalsadvisor": "justine.walker2@canada.ca",
    "approvalsdirector": "michel.bouvier@canada.ca",
    "submitername": "Guy Marier",
    "submiteremail": "Guy.Marier@canada.ca",
    "submiterphoneNumber": "613-773-0841",
    "issued": "2020-10-08",
    "translateReqNumber": "200930-22"
}