{
    "dcr_id": "1374597858728",
    "title": {
        "en": "Import requirements for fresh Guatemalan raspberries and blackberries",
        "fr": "Exigences en mati\u00e8re d'importation de framboises et de m\u00fbres fra\u00eeches du Guatemala "
    },
    "html_modified": "2024-02-13 9:49:10 AM",
    "modified": "2018-10-31",
    "issued": "2013-07-23 12:44:19",
    "teamsite_location": {
        "en": "/default/main/inspection/cont-cont/food-aliments/STAGING/templatedata/comn-comn/manuals-manuels/data/fresh_import_guatema_berries_1374597858728_eng",
        "fr": "/default/main/inspection/cont-cont/food-aliments/STAGING/templatedata/comn-comn/manuals-manuels/data/fresh_import_guatema_berries_1374597858728_fra"
    },
    "ia_id": "1374597935222",
    "parent_ia_id": "1541613882890",
    "chronicletopic": {
        "en": "",
        "fr": ""
    },
    "chroniclecontent": {
        "en": "",
        "fr": ""
    },
    "chronicleaudience": {
        "en": "",
        "fr": ""
    },
    "sfcrdocumenttype": {
        "en": "Guidance",
        "fr": "Document d'orientation"
    },
    "sfcraudience": {
        "en": "Industry",
        "fr": "Industrie"
    },
    "sfcrmethodofproduction": {
        "en": "",
        "fr": ""
    },
    "activity": {
        "en": "Importing food",
        "fr": "Importation d\u2019aliments"
    },
    "commodity": {
        "en": "Fruits and vegetables, fresh",
        "fr": "Fruits et l\u00e9gumes, frais"
    },
    "program": {
        "en": "Food",
        "fr": "Aliments"
    },
    "search_type": "guidancefinder",
    "parent_node_id": "1541613882890",
    "layout_name": "content page 1 column",
    "breadcrumb": {
        "en": "Import requirements for fresh Guatemalan raspberries and blackberries",
        "fr": "Exigences en mati\u00e8re d'importation de framboises et de m\u00fbres fra\u00eeches du Guatemala "
    },
    "label": {
        "en": "Import requirements for fresh Guatemalan raspberries and blackberries",
        "fr": "Exigences en mati\u00e8re d'importation de framboises et de m\u00fbres fra\u00eeches du Guatemala "
    },
    "templatetype": "content page 1 column",
    "node_id": "1374597935222",
    "managing_branch": "comn",
    "type_name": "manuals-manuels",
    "dcr_type": "manuals-manuels",
    "parent_dcr_id": "1541613882667",
    "has_dcr_id": true,
    "lang": "en",
    "could_not_load": 0,
    "refaire": false,
    "interwoven_url": {
        "en": "/importing-food-plants-or-animals/food-imports/food-specific-requirements/fresh-fruit-or-vegetables/guatemala-raspberries-and-blackberries/",
        "fr": "/importation-d-aliments-de-vegetaux-ou-d-animaux/importation-d-aliments/exigences-propres-de-certaines-denrees/fruits-ou-legumes-frais/guatemala-framboises-et-de-mures-fraiches/"
    },
    "meta": {
        "viewport": {
            "en": "width=device-width,initial-scale=1",
            "fr": "width=device-width,initial-scale=1"
        },
        "service": {
            "en": "CFIA-ACIA",
            "fr": "CFIA-ACIA"
        },
        "accessRights": {
            "en": "2",
            "fr": "2"
        },
        "title": {
            "en": "Import requirements for fresh Guatemalan raspberries and blackberries",
            "fr": "Exigences en mati\u00e8re d'importation de framboises et de m\u00fbres fra\u00eeches du Guatemala"
        },
        "description": {
            "en": "Import requirements for fresh Guatemalan raspberries and blackberries (wild and cultivated).",
            "fr": "Exigences en mati\u00e8re d'importation de framboises et de m\u00fbres fra\u00eeches du Guatemala (sauvages et cultiv\u00e9es)."
        },
        "keywords": {
            "en": "food, food health, Import Policy, Fresh Guatemalan Raspberries, Blackberries issued in 2009",
            "fr": "aliments, inspection, consommateurs, salubrit&#233; des aliments, fruit, l&#233;gume, classement, r&#233;sidus, chimique , framboise, m&#251;re, Guatemala, permis, arbitrage, courtier, transporteur, produit, import, export, interprovincial"
        },
        "dcterms.subject": {
            "en": "food,food labeling,fruits,imports,food inspection,vegetables,food safety,food security,food processing",
            "fr": "aliment,\u00e9tiquetage des aliments,fruit,importation,inspection des aliments,l\u00e9gume,salubrit\u00e9 des aliments,s\u00e9curit\u00e9 alimentaire, transformation des aliments"
        },
        "creator": {
            "en": "Government of Canada,Canadian Food Inspection Agency",
            "fr": "Gouvernement du Canada,Agence canadienne d'inspection des aliments"
        },
        "language": {
            "en": "eng",
            "fr": "fra"
        },
        "issued": {
            "en": "2013-07-23 12:44:19",
            "fr": "2013-07-23 12:44:19"
        },
        "modified": {
            "en": "2018-10-31",
            "fr": "2018-10-31"
        },
        "type": {
            "en": "reference material",
            "fr": "mat\u00e9riel de r\u00e9f\u00e9rence"
        },
        "audience": {
            "en": "government,general public",
            "fr": "gouvernement,grand public"
        },
        "name": {
            "en": "Government of Canada",
            "fr": "Gouvernement du Canada"
        },
        "areaServed": {
            "en": "Canada",
            "fr": "Canada"
        }
    },
    "h1": {
        "en": "Import requirements for fresh Guatemalan raspberries and blackberries",
        "fr": "Exigences en mati\u00e8re d'importation de framboises et de m\u00fbres fra\u00eeches du Guatemala"
    },
    "js": {
        "en": "",
        "fr": ""
    },
    "body": {
        "en": "        \r\n        \n\n\r\n\r\n\r\n\r\n\r\n\r\n\r\n<h2>On this page</h2>\r\n<ul class=\"list-unstyled col-md-offset-1 mrgn-tp-md mrgn-bttm-md\">\r\n\r\n<li>\r\n<a href=\"/importing-food-plants-or-animals/food-imports/food-specific-requirements/fresh-fruit-or-vegetables/guatemala-raspberries-and-blackberries/eng/1374597858728/1374597935222?chap=0#c1\">Introduction</a>\r\n\r\n</li>\r\n\r\n<li>\r\n<a href=\"/importing-food-plants-or-animals/food-imports/food-specific-requirements/fresh-fruit-or-vegetables/guatemala-raspberries-and-blackberries/eng/1374597858728/1374597935222?chap=0#c2\">Scope</a>\r\n\r\n</li>\r\n\r\n<li>\r\n<a href=\"/importing-food-plants-or-animals/food-imports/food-specific-requirements/fresh-fruit-or-vegetables/guatemala-raspberries-and-blackberries/eng/1374597858728/1374597935222?chap=0#c3\">Definitions</a>\r\n\r\n</li>\r\n\r\n<li>\r\n<a href=\"/importing-food-plants-or-animals/food-imports/food-specific-requirements/fresh-fruit-or-vegetables/guatemala-raspberries-and-blackberries/eng/1374597858728/1374597935222?chap=0#c4\">Legislative authority</a>\r\n\r\n</li>\r\n\r\n<li>\r\n<a href=\"/importing-food-plants-or-animals/food-imports/food-specific-requirements/fresh-fruit-or-vegetables/guatemala-raspberries-and-blackberries/eng/1374597858728/1374597935222?chap=0#c5\">Import requirement</a>\r\n\r\n<ul class=\"list-unstyled col-md-offset-1 mrgn-bttm-md\">\r\n\r\n<li>\r\n<a href=\"#s1c5\">A. Wild fresh raspberries and blackberries</a>\r\n\r\n</li>\r\n\r\n<li>\r\n<a href=\"#s2c5\">B. Cultivated fresh blackberries</a>\r\n\r\n</li>\r\n\r\n<li>\r\n<a href=\"#s3c5\">C. Cultivated fresh raspberries</a>\r\n\r\n</li>\r\n\r\n</ul>\r\n\r\n</li>\r\n\r\n</ul>\r\n\r\n\r\n<section>\r\n\r\n<h2 id=\"c1\">Introduction</h2>\r\n\r\n\r\n<div class=\"hrline\"></div>\r\n    \n\n<p>In light of 2 outbreaks in 1998 and 1999 of Cyclosporiasis epidemiologically linked to Guatemalan fresh raspberries and blackberries respectively, the Canadian Food Inspection Agency (CFIA) developed import requirements for these berries from Guatemala.\u00a0 Under recommendation and advice from Health Canada and based on the knowledge of the production, harvesting, packing and shipping practices, fresh cultivated blackberries and raspberries were restricted from entry into Canada from March 15 to August 14 of each year.\u00a0 Both wild blackberries and wild raspberries are restricted from entering Canada at any time.</p>\n<p>In November 2012, the CFIA\u2019s Fresh Fruit and Vegetables Program, in consultation with Health Canada, modified its import requirements to permit the entry into Canada of cultivated Guatemalan fresh blackberries on a year-round basis.\u00a0 The import restriction from March 15 to August 14 of each year on Guatemalan cultivated fresh raspberries, and the year round import restrictions for wild raspberries and wild blackberries will remain unchanged.</p>\n\r\n\r\n\r\n</section>\r\n\r\n<section>\r\n\r\n<h2 id=\"c2\">Scope</h2>\r\n\r\n\r\n<div class=\"hrline\"></div>\r\n    \n\n<p>The following import requirement is applicable to all fresh raspberries and blackberries imported from Guatemala.</p>\n\r\n\r\n\r\n</section>\r\n\r\n<section>\r\n\r\n<h2 id=\"c3\">Definitions</h2>\r\n\r\n\r\n<div class=\"hrline\"></div>\r\n    \n\n<dl>\n<dt>Contaminated</dt>\n<dd>The Safe Food for Canadian Regulations define \"contaminated\", in respect of a <a href=\"/eng/1430250286859/1430250287405#a80\">food</a>, as meaning \"that the food contains any micro-organism, chemical substance, extraneous material or other substance or thing that may render the food injurious to human health or unsuitable for human consumption, including those that are not permitted under the Food and Drugs Act or those that do not comply with any limits or levels provided under that Act.\"</dd>\n<dt><span lang=\"la\">Cyclospora</span></dt>\n<dd>is a water-borne microscopic parasite that causes acute gastrointestinal problems, but is not considered a serious risk to healthy people.</dd>\n<dt><span lang=\"la\">Cyclosporiasis</span></dt>\n<dd>is the name for the infection caused by Cyclospora, causes diarrhea, fatigue, abdominal pain, and loss of appetite and can last from a few days to a month or more.</dd>\n</dl>\n\r\n\r\n\r\n</section>\r\n\r\n<section>\r\n\r\n<h2 id=\"c4\">Legislative authority</h2>\r\n\r\n\r\n<div class=\"hrline\"></div>\r\n    \n\n<p>Section 8.(a) of the Safe Food for Canadians Regulations and Section 4 of the Food and Drugs Act.</p>\n<p>Section 8(1)(a) of the Safe  Food for Canadians Regulations states:</p>\n<p>Any food that is sent  or conveyed from one province to another or that is imported or exported must  not be contaminated.</p>\n<p>Section 4.(1) of the Food and Drugs Act states:</p>\n<p>No person shall sell an article of food that</p>\n<ol class=\"lst-lwr-alph\">\n<li>has in or on it any poisonous or harmful substance</li>\n<li>is unfit for human consumption</li>\n<li>consists in whole or in part of any filthy, putrid, disgusting, rotten, decomposed or diseased animal or vegetable substance</li>\n<li>is adulterated; or</li>\n<li>was manufactured, prepared, preserved, packaged or stored under unsanitary conditions</li>\n</ol>\n\r\n\r\n\r\n</section>\r\n\r\n<section>\r\n\r\n<h2 id=\"c5\">Import requirement</h2>\r\n\r\n\r\n<div class=\"hrline\"></div>\r\n    \n\r\n<nav>\r\n<ul class=\"list-unstyled col-md-offset-1 mrgn-tp-md mrgn-bttm-md\">\r\n\r\n<li>\r\n<a href=\"#s1c5\">A. Wild fresh raspberries and blackberries</a>\r\n\r\n</li>\r\n\r\n<li>\r\n<a href=\"#s2c5\">B. Cultivated fresh blackberries</a>\r\n\r\n</li>\r\n\r\n<li>\r\n<a href=\"#s3c5\">C. Cultivated fresh raspberries</a>\r\n\r\n</li>\r\n\r\n</ul>\r\n</nav>\r\n\n\n\r\n\r\n\r\n</section>\r\n\r\n<section>\r\n\r\n<h3 id=\"s1c5\">A. Wild fresh raspberries and blackberries</h3>\r\n\r\n<p>The harvesting and packing of wild fresh raspberries and wild fresh blackberries has not been evaluated by the Canadian Government, therefore, no fresh wild raspberries or blackberries can be allowed entry into Canada at any time.</p>\r\n\r\n</section>\r\n\r\n<section>\r\n\r\n<h3 id=\"s2c5\">B. Cultivated fresh blackberries</h3>\r\n\r\n<p>Based on information provided by the Guatemalan Food Safety Authority and in consultation with Health Canada, the <abbr title=\"Canadian Food Inspection Agency\">CFIA</abbr> is permitting the importation of cultivated Guatemalan fresh blackberries on a year round basis. There is no longer a restriction for entry from March to August of each year. This is an interim measure pending a complete risk assessment by Health Canada.</p>\r\n\r\n</section>\r\n\r\n<section>\r\n\r\n<h3 id=\"s3c5\">C. Cultivated fresh raspberries</h3>\r\n\r\n<p>The <abbr title=\"Canadian Food Inspection Agency\">CFIA</abbr> continues to permit the importation into Canada of cultivated Guatemalan fresh raspberries from August 15 - March 14 of each year. No cyclosporiasis outbreaks have been reported during that time period in Canada, United States or other countries.</p>\n<p>The restriction for entry of imported fresh cultivated raspberries from Guatemala from March 15 to August 14 of each year remains in effect. This date range corresponds to a high risk period where Guatemalan fresh raspberries could potentially be contaminated by Cyclospora.</p>\r\n\r\n</section>\r\n\r\n\n\n\r\n        \r\n\r\n\r\n\r\n<div class=\"row\">\r\n \r\n\t\r\n\t\t\t\r\n\r\n<div class=\"col-xm-12 pagedetails container\">\r\n\t\t\t\t\r\n\r\n</div>\r\n\t\r\n</div>",
        "fr": "\r\n        \r\n        \n\n\r\n\r\n\r\n\r\n\r\n\r\n\r\n<h2>Sur cette page</h2>\r\n<ul class=\"list-unstyled col-md-offset-1 mrgn-tp-md mrgn-bttm-md\">\r\n\r\n<li>\r\n<a href=\"/importation-d-aliments-de-vegetaux-ou-d-animaux/importation-d-aliments/exigences-propres-de-certaines-denrees/fruits-ou-legumes-frais/guatemala-framboises-et-de-mures-fraiches/fra/1374597858728/1374597935222?chap=0#c1\">Introduction</a>\r\n\r\n</li>\r\n\r\n<li>\r\n<a href=\"/importation-d-aliments-de-vegetaux-ou-d-animaux/importation-d-aliments/exigences-propres-de-certaines-denrees/fruits-ou-legumes-frais/guatemala-framboises-et-de-mures-fraiches/fra/1374597858728/1374597935222?chap=0#c2\">Port\u00e9e</a>\r\n\r\n</li>\r\n\r\n<li>\r\n<a href=\"/importation-d-aliments-de-vegetaux-ou-d-animaux/importation-d-aliments/exigences-propres-de-certaines-denrees/fruits-ou-legumes-frais/guatemala-framboises-et-de-mures-fraiches/fra/1374597858728/1374597935222?chap=0#c3\">D\u00e9finitions</a>\r\n\r\n</li>\r\n\r\n<li>\r\n<a href=\"/importation-d-aliments-de-vegetaux-ou-d-animaux/importation-d-aliments/exigences-propres-de-certaines-denrees/fruits-ou-legumes-frais/guatemala-framboises-et-de-mures-fraiches/fra/1374597858728/1374597935222?chap=0#c4\">Fondement l\u00e9gislatif</a>\r\n\r\n</li>\r\n\r\n<li>\r\n<a href=\"/importation-d-aliments-de-vegetaux-ou-d-animaux/importation-d-aliments/exigences-propres-de-certaines-denrees/fruits-ou-legumes-frais/guatemala-framboises-et-de-mures-fraiches/fra/1374597858728/1374597935222?chap=0#c5\">Exigence en mati\u00e8re d'importation</a>\r\n\r\n<ul class=\"list-unstyled col-md-offset-1 mrgn-bttm-md\">\r\n\r\n<li>\r\n<a href=\"#s1c5\">A. Framboises et m\u00fbres sauvages fra\u00eeches</a>\r\n\r\n</li>\r\n\r\n<li>\r\n<a href=\"#s2c5\">B. M\u00fbres fra\u00eeches cultiv\u00e9es</a>\r\n\r\n</li>\r\n\r\n<li>\r\n<a href=\"#s3c5\">C. Framboises fra\u00eeches cultiv\u00e9es</a>\r\n\r\n</li>\r\n\r\n</ul>\r\n\r\n</li>\r\n\r\n</ul>\r\n\r\n\r\n<section>\r\n\r\n<h2 id=\"c1\">Introduction</h2>\r\n\r\n\r\n<div class=\"hrline\"></div>\r\n    \n\n<p>\u00c0 la lumi\u00e8re de 2 cas de cyclosporose enregistr\u00e9s en 1998 et 1999, pr\u00e9sentant un lien \u00e9pid\u00e9miologique avec les framboises fra\u00eeches et les m\u00fbres fra\u00eeches du Guatemala respectivement, l'Agence canadienne d'inspection des aliments (ACIA) a fix\u00e9 des exigences relatives \u00e0 l'importation de ces deux baies du Guatemala. Selon l'avis et la recommandation de Sant\u00e9 Canada et en se fondant sur les connaissances concernant les pratiques de production, de r\u00e9colte, d'emballage et d'exp\u00e9dition, l'importation au Canada de m\u00fbres et de framboises fra\u00eeches cultiv\u00e9es a \u00e9t\u00e9 restreinte durant la p\u00e9riode allant du 15 mars jusqu\u2019au 14 ao\u00fbt (inclusivement) de chaque ann\u00e9e. L'importation au Canada des m\u00fbres sauvages et des framboises sauvages est restreinte en tout temps.</p>\n<p>En novembre 2012, les responsables du Programme relatif aux fruits et l\u00e9gumes frais de l'<abbr title=\"Agence canadienne d'inspection des aliments\">ACIA</abbr> en consultation avec Sant\u00e9 Canada ont modifi\u00e9 les exigences en mati\u00e8re d'importation pour permettre l'entr\u00e9e au Canada de m\u00fbres fra\u00eeches cultiv\u00e9es guat\u00e9malt\u00e8ques tout au long de l'ann\u00e9e. La restriction \u00e0 l'importation allant du 15 mars au 14 ao\u00fbt (inclusivement) de chaque ann\u00e9e concernant les framboises fra\u00eeches cultiv\u00e9es guat\u00e9malt\u00e8ques et les restrictions \u00e0 l'importation des framboises sauvages et des m\u00fbres sauvages valables tout au long de l'ann\u00e9e demeurent inchang\u00e9es.</p>\n\r\n\r\n\r\n</section>\r\n\r\n<section>\r\n\r\n<h2 id=\"c2\">Port\u00e9e</h2>\r\n\r\n\r\n<div class=\"hrline\"></div>\r\n    \n\n<p>L'exigence suivante en mati\u00e8re d'importation s'applique \u00e0 toutes les framboises et les m\u00fbres fra\u00eeches import\u00e9es du Guatemala.</p>\n\r\n\r\n\r\n</section>\r\n\r\n<section>\r\n\r\n<h2 id=\"c3\">D\u00e9finitions</h2>\r\n\r\n\r\n<div class=\"hrline\"></div>\r\n    \n\n<dl>\n<dt>Contamin\u00e9</dt>\n<dd>\n<p>Selon le R\u00e8glement sur la salubrit\u00e9 des aliments au Canada, \u00ab\u00a0contamin\u00e9\u00a0\u00bb s'entend de \u00ab\u00a0se dit de l'<a href=\"/fra/1430250286859/1430250287405#a80\">aliment</a> qui contient un microorganisme, une mati\u00e8re \u00e9trang\u00e8re, une substance chimique ou toute autre substance ou chose qui pourrait le rendre nuisible \u00e0 la sant\u00e9 humaine ou impropre \u00e0 la consommation humaine, notamment ceux qui ne sont pas permis sous le r\u00e9gime de la Loi sur les aliments et drogues ou ceux qui s'y trouvent en une quantit\u00e9 exc\u00e9dant les limites ou quantit\u00e9s pr\u00e9vues sous ce r\u00e9gime.\u00a0\u00bb</p>\n</dd>\n<dt><span lang=\"ln\">Cyclospora</span></dt>\n<dd>est un parasite microscopique provenant de l'eau responsable de probl\u00e8mes gastro-intestinaux aigus, mais ne pr\u00e9sentant pas de risques graves pour les personnes en bonne sant\u00e9.</dd>\n<dt><span lang=\"ln\">Cyclosporose</span></dt>\n<dd>infection caus\u00e9e par le Cyclospora, est caract\u00e9ris\u00e9e par les sympt\u00f4mes suivants : diarrh\u00e9e, fatigue, douleurs abdominales et perte d'app\u00e9tit. Elle peut durer de quelques jours \u00e0 un mois ou plus.</dd>\n</dl>\n\n\r\n\r\n\r\n</section>\r\n\r\n<section>\r\n\r\n<h2 id=\"c4\">Fondement l\u00e9gislatif</h2>\r\n\r\n\r\n<div class=\"hrline\"></div>\r\n    \n\n<p>Article 8(1)(a) du R\u00e8glement sur la salubrit\u00e9 des aliments au Canada et article 4 de la Loi sur les aliments et drogues</p>\n<p>L'article 8(1)(a) du R\u00e8glement sur la salubrit\u00e9 des aliments au Canada s'\u00e9nonce comme suit\u00a0:</p>\n<p>L'aliment qui est exp\u00e9di\u00e9 ou transport\u00e9, d'une province \u00e0 une autre, ou qui est import\u00e9 ou export\u00e9, doit satisfaire aux exigences suivantes\u00a0: <br>\n</p>\n<p>L'article 4. (1) de la Loi sur les aliments et drogues stipule ce qui suit :</p>\n<p>\u00ab Il est interdit de vendre un aliment qui, selon le cas :</p>\n<ol class=\"lst-lwr-alph\">\n<li>contient une substance toxique ou d\u00e9l\u00e9t\u00e8re, ou en est recouvert;</li>\n<li>est impropre \u00e0 la consommation humaine;</li>\n<li>est compos\u00e9, en tout ou en partie, d'une substance malpropre, putride, d\u00e9go\u00fbtante, pourrie, d\u00e9compos\u00e9e ou provenant d'animaux malades ou de v\u00e9g\u00e9taux malsains;</li>\n<li>est falsifi\u00e9;</li>\n<li>a \u00e9t\u00e9 fabriqu\u00e9, pr\u00e9par\u00e9, conserv\u00e9, emball\u00e9 ou emmagasin\u00e9 dans des conditions non hygi\u00e9niques. \u00bb</li>\n</ol>\n\r\n\r\n\r\n</section>\r\n\r\n<section>\r\n\r\n<h2 id=\"c5\">Exigence en mati\u00e8re d'importation</h2>\r\n\r\n\r\n<div class=\"hrline\"></div>\r\n    \n\r\n<nav>\r\n<ul class=\"list-unstyled col-md-offset-1 mrgn-tp-md mrgn-bttm-md\">\r\n\r\n<li>\r\n<a href=\"#s1c5\">A. Framboises et m\u00fbres sauvages fra\u00eeches</a>\r\n\r\n</li>\r\n\r\n<li>\r\n<a href=\"#s2c5\">B. M\u00fbres fra\u00eeches cultiv\u00e9es</a>\r\n\r\n</li>\r\n\r\n<li>\r\n<a href=\"#s3c5\">C. Framboises fra\u00eeches cultiv\u00e9es</a>\r\n\r\n</li>\r\n\r\n</ul>\r\n</nav>\r\n\n\n\r\n\r\n\r\n</section>\r\n\r\n<section>\r\n\r\n<h3 id=\"s1c5\">A. Framboises et m\u00fbres sauvages fra\u00eeches</h3>\r\n\r\n<p>La r\u00e9colte et l'emballage des framboises sauvages fra\u00eeches et des m\u00fbres sauvages fra\u00eeches n'ont pas \u00e9t\u00e9 \u00e9valu\u00e9s par le gouvernement canadien. Par cons\u00e9quent, aucune framboise sauvage fra\u00eeche ou m\u00fbre sauvage fra\u00eeche ne sera permise au Canada en aucun temps.</p>\r\n\r\n</section>\r\n\r\n<section>\r\n\r\n<h3 id=\"s2c5\">B. M\u00fbres fra\u00eeches cultiv\u00e9es</h3>\r\n\r\n<p>Selon les renseignements fournis par l'Autorit\u00e9 de s\u00e9curit\u00e9 des aliments du Guatemala et apr\u00e8s consultation avec Sant\u00e9 Canada, l'<abbr title=\"Agence canadienne d'inspection des aliments\">ACIA</abbr> autorise l'importation de m\u00fbres fra\u00eeches cultiv\u00e9es guat\u00e9malt\u00e8ques tout au long de l'ann\u00e9e. La restriction \u00e0 l'importation de mars \u00e0 ao\u00fbt de chaque ann\u00e9e a \u00e9t\u00e9 lev\u00e9e. Il s'agit d'une mesure provisoire en attendant l'examen complet des risques par Sant\u00e9 Canada.</p>\r\n\r\n</section>\r\n\r\n<section>\r\n\r\n<h3 id=\"s3c5\">C. Framboises fra\u00eeches cultiv\u00e9es</h3>\r\n\r\n<p>L'<abbr title=\"Agence canadienne d'inspection des aliments\">ACIA</abbr> continue de permettre l'importation au Canada de framboises fra\u00eeches cultiv\u00e9es guat\u00e9malt\u00e8ques du 15 ao\u00fbt au 14 mars (inclusivement) de chaque ann\u00e9e. Aucun cas de cyclosporose n'a \u00e9t\u00e9 signal\u00e9 pendant cette p\u00e9riode au Canada, aux \u00c9tats-Unis ou dans d'autres pays.</p>\n<p>La restriction d'entr\u00e9e de framboises fra\u00eeches cultiv\u00e9es import\u00e9es du Guatemala allant du 15 mars au 14 ao\u00fbt (inclusivement) de chaque ann\u00e9e reste en vigueur; la contamination des framboises fra\u00eeches guat\u00e9malt\u00e8ques par le Cyclospora est consid\u00e9r\u00e9e comme \u00e9tant \u00e0 risque \u00e9lev\u00e9 durant cette pr\u00e9riode.</p>\r\n\r\n</section>\r\n\r\n<div class=\"clear\"></div>\r\n\n\n\r\n        \r\n\r\n<div class=\"row\">\r\n \r\n\t\t\t\r\n\t\t\t\r\n\r\n\t\t\r\n\t\r\n</div>"
    },
    "success": true,
    "chat_wizard": false
}