{
    "dcr_id": "1406316015270",
    "title": {
        "en": "Feed Labelling \u2013 Modernized Regulatory Framework Proposal \u2013 Consultation Summary \u2013 Respondent Comments and <abbr title=\"Canadian Food Inspection Agency\">CFIA</abbr> Responses",
        "fr": "L'\u00e9tiquetage des aliments du b\u00e9tail \u2013 Proposition de cadre de r\u00e9glementation modernis\u00e9 \u2013 Sommaire des consultations \u2013 Commentaires des r\u00e9pondants et r\u00e9ponses de l'<abbr title=\"Agence canadienne d'inspection des aliments\">ACIA</abbr>"
    },
    "html_modified": "2024-02-13 9:50:07 AM",
    "modified": "2016-01-29",
    "issued": "2016-02-01",
    "teamsite_location": {
        "en": "/default/main/inspection/cont-cont/animals-animaux/STAGING/templatedata/comn-comn/manuals-manuels/data/anim_feed_labelling_consult_summary_1406316015270_eng",
        "fr": "/default/main/inspection/cont-cont/animals-animaux/STAGING/templatedata/comn-comn/manuals-manuels/data/anim_feed_labelling_consult_summary_1406316015270_fra"
    },
    "ia_id": "1406316016176",
    "parent_ia_id": "1343856000143",
    "chronicletopic": {
        "en": "",
        "fr": ""
    },
    "chroniclecontent": {
        "en": "",
        "fr": ""
    },
    "chronicleaudience": {
        "en": "",
        "fr": ""
    },
    "sfcrdocumenttype": {
        "en": "",
        "fr": ""
    },
    "sfcraudience": {
        "en": "",
        "fr": ""
    },
    "sfcrmethodofproduction": {
        "en": "",
        "fr": ""
    },
    "activity": {
        "en": "",
        "fr": ""
    },
    "commodity": {
        "en": "",
        "fr": ""
    },
    "program": {
        "en": "",
        "fr": ""
    },
    "search_type": "other",
    "parent_node_id": "1343856000143",
    "layout_name": "content page 1 column",
    "breadcrumb": {
        "en": "Feed Labelling \u2013 Modernized Regulatory Framework Proposal \u2013 Consultation Summary \u2013 Respondent Comments and <abbr title=\"Canadian Food Inspection Agency\">CFIA</abbr> Responses",
        "fr": "L'\u00e9tiquetage des aliments du b\u00e9tail \u2013 Proposition de cadre de r\u00e9glementation modernis\u00e9 \u2013 Sommaire des consultations \u2013 Commentaires des r\u00e9pondants et r\u00e9ponses de l'<abbr title=\"Agence canadienne d'inspection des aliments\">ACIA</abbr>"
    },
    "label": {
        "en": "Feed Labelling \u2013 Modernized Regulatory Framework Proposal \u2013 Consultation Summary \u2013 Respondent Comments and <abbr title=\"Canadian Food Inspection Agency\">CFIA</abbr> Responses",
        "fr": "L'\u00e9tiquetage des aliments du b\u00e9tail \u2013 Proposition de cadre de r\u00e9glementation modernis\u00e9 \u2013 Sommaire des consultations \u2013 Commentaires des r\u00e9pondants et r\u00e9ponses de l'<abbr title=\"Agence canadienne d'inspection des aliments\">ACIA</abbr>"
    },
    "templatetype": "content page 1 column",
    "node_id": "1406316016176",
    "managing_branch": "comn",
    "type_name": "manuals-manuels",
    "dcr_type": "manuals-manuels",
    "parent_dcr_id": "1343855817011",
    "has_dcr_id": true,
    "lang": "en",
    "could_not_load": 0,
    "refaire": false,
    "interwoven_url": {
        "en": "/animal-health/livestock-feeds/consultations/feed-labelling/",
        "fr": "/sante-des-animaux/aliments-du-betail/consultations/l-etiquetage-des-aliments-du-betail/"
    },
    "meta": {
        "viewport": {
            "en": "width=device-width,initial-scale=1",
            "fr": "width=device-width,initial-scale=1"
        },
        "service": {
            "en": "CFIA-ACIA",
            "fr": "CFIA-ACIA"
        },
        "accessRights": {
            "en": "2",
            "fr": "2"
        },
        "title": {
            "en": "Feed Labelling \u2013 Modernized Regulatory Framework Proposal \u2013 Consultation Summary \u2013 Respondent Comments and CFIA Responses",
            "fr": "L'\u00e9tiquetage des aliments du b\u00e9tail \u2013 Proposition de cadre de r\u00e9glementation modernis\u00e9 \u2013 Sommaire des consultations \u2013 Commentaires des r\u00e9pondants et r\u00e9ponses de l'ACIA"
        },
        "description": {
            "en": "The Canadian Food Inspection Agency (CFIA) has embarked on a comprehensive change agenda to strengthen its foundation of legislation, regulatory programs and inspection delivery.",
            "fr": "L'Agence canadienne d'inspection des aliments (ACIA) a entrepris un important programme de changement en vue de renforcer sa fondation en mati\u00e8re de l\u00e9gislation, de programmes de r\u00e9glementation et de tenue d'inspections."
        },
        "keywords": {
            "en": "Health of Animals Act, Health of Animals Regulations, Feeds Act, Feeds Regulations, livestock, animal feeds, novel feeds, biotechnology, ingredients, toxicology, regulatory guidance",
            "fr": "Loi sur la sant\u00e9 des animaux, R\u00e8glement sur la sant\u00e9 des animaux, Loi relative aux aliments du b\u00e9tail, R\u00e8glement sur les aliments du b\u00e9tail, aliments du betail, aliment nouveau, biotechnologie, aliments m\u00e9dicament\u00e9s, ingr\u00e9dients, toxicologiques, directives r\u00e9glementaires"
        },
        "dcterms.subject": {
            "en": "animal health,inspection,livestock,policy,regulation,standards",
            "fr": "sant\u00e9 animale,inspection,b\u00e9tail,politique,r\u00e9glementation,norme"
        },
        "creator": {
            "en": "Government of Canada,Canadian Food Inspection Agency,Animal Feed Division",
            "fr": "Gouvernement du Canada,Agence canadienne d'inspection des aliments,Division des aliments pour animaux"
        },
        "language": {
            "en": "eng",
            "fr": "fra"
        },
        "issued": {
            "en": "2016-02-01",
            "fr": "2016-02-01"
        },
        "modified": {
            "en": "2016-01-29",
            "fr": "2016-01-29"
        },
        "audience": {
            "en": "business,government",
            "fr": "entreprises,gouvernement"
        },
        "name": {
            "en": "Government of Canada",
            "fr": "Gouvernement du Canada"
        },
        "areaServed": {
            "en": "Canada",
            "fr": "Canada"
        }
    },
    "h1": {
        "en": "Feed Labelling \u2013 Modernized Regulatory Framework Proposal \u2013 Consultation Summary \u2013 Respondent Comments and CFIA Responses",
        "fr": "L'\u00e9tiquetage des aliments du b\u00e9tail \u2013 Proposition de cadre de r\u00e9glementation modernis\u00e9 \u2013 Sommaire des consultations \u2013 Commentaires des r\u00e9pondants et r\u00e9ponses de l'ACIA"
    },
    "body": {
        "en": "        \r\n        \n\n\r\n\r\n\r\n<section id=\"archived\" class=\"alert alert-warning wb-inview\" data-inview=\"archived-bnr\">\r\n<h2>This page has been archived</h2>\r\n<p>Information identified as archived is provided for reference, research or record-keeping purposes. It is not subject to the Government of Canada Web Standards and has not been altered or updated since it was archived. Please contact us to request a format other than those available.</p>\r\n</section>\r\n\r\n<section id=\"archived-bnr\" class=\"wb-overlay modal-content overlay-def wb-bar-t\">\r\n<header>\r\n<h2 class=\"wb-inv\">Archived</h2>\r\n</header>\r\n<p><a href=\"#archived\">This page has been archived.</a></p>\r\n</section>\r\n\r\n\r\n\r\n\r\n\r\n<h2>Table of Contents</h2>\r\n<ul class=\"list-unstyled col-md-offset-1 mrgn-tp-md mrgn-bttm-md\">\r\n\r\n<li>\r\n<a href=\"/animal-health/livestock-feeds/consultations/feed-labelling/eng/1406316015270/1406316016176?chap=0#c1\">Introduction</a>\r\n\r\n<ul class=\"list-unstyled col-md-offset-1 mrgn-bttm-md\">\r\n\r\n<li>\r\n<a href=\"#s1c1\">About the Consultation</a>\r\n\r\n</li>\r\n\r\n</ul>\r\n\r\n</li>\r\n\r\n<li>\r\n<a href=\"/animal-health/livestock-feeds/consultations/feed-labelling/eng/1406316015270/1406316016176?chap=0#c2\">What We Heard</a>\r\n\r\n<ul class=\"list-unstyled col-md-offset-1 mrgn-bttm-md\">\r\n\r\n<li>\r\n<a href=\"#s2c2\">Respondent Profile</a>\r\n\r\n</li>\r\n\r\n<li>\r\n<a href=\"#s3c2\">Key Respondent Messages</a>\r\n\r\n</li>\r\n\r\n</ul>\r\n\r\n</li>\r\n\r\n<li>\r\n<a href=\"/animal-health/livestock-feeds/consultations/feed-labelling/eng/1406316015270/1406316016176?chap=0#c3\">Next Steps</a>\r\n\r\n</li>\r\n\r\n</ul>\r\n<p>November 20, 2013 - December 20, 2013</p>\r\n\r\n<section>\r\n\r\n<h2 id=\"c1\">Introduction</h2>\r\n\r\n\r\n<div class=\"hrline\"></div>\r\n    \n\r\n<nav>\r\n<ul class=\"list-unstyled col-md-offset-1 mrgn-tp-md mrgn-bttm-md\">\r\n\r\n<li>\r\n<a href=\"#s1c1\">About the Consultation</a>\r\n\r\n</li>\r\n\r\n</ul>\r\n</nav>\r\n\n<p>The Canadian Food Inspection Agency (CFIA) has embarked on a comprehensive change agenda to strengthen its foundation of legislation, regulatory programs and inspection delivery.  These directions set the context for the renewal of the <i>Feeds Regulations</i> (Regulations).</p>\n\n<p>The goal of modernizing the Regulations is to reduce compliance burden and support innovation while maintaining animal and human health, as well as environmental and economic stability. The modernization of the Regulations is being designed to benefit the collective Canadian feed industry which includes commercial feed manufacturers, retailers, importers, exporters, ingredient manufacturers, and farmers.  As well as aligning with other international feed regulatory regimes, modernization also maintains the objective of enhancing animal health and food safety for the Canadian public.</p>\n\n<p>Feed labelling is just one part of the Regulations which is being addressed as part of the modernization project.  Feed labels play an important role in the safe and proper use of feeds.  Proper labelling allows a purchaser and user of a feed to distinguish one product from another and provides information on what the feed is and how it is to be used. Products which are not labelled, or do not have the appropriate information on the label, may be unintentionally used in a manner that is not safe and causes an animal health, food safety or environmental hazard.  In addition, the <abbr title=\"Canadian Food Inspection Agency\">CFIA</abbr> recognizes that labels present a cost and compliance burden to regulated parties.</p>\n\n<p>The Agency undertook a 30-day consultation on a feed labelling proposal to propose changes to the feed labelling requirements.  The <abbr title=\"Canadian Food Inspection Agency\">CFIA</abbr> invited comments from interested parties from November 20, 2013 to December 20, 2013.</p>\n\n<p>This report consolidates and summarizes the comments received during the consultation period that directly pertain to the feed labelling proposal and the <abbr title=\"Canadian Food Inspection Agency\">CFIA</abbr>'s response to those comments.</p>\n\n\r\n\r\n\r\n</section>\r\n\r\n<section>\r\n\r\n<h3 id=\"s1c1\">About the Consultation</h3>\r\n\r\n<p>The primary mechanism to facilitate the consultation involved the preparation and posting of the <a href=\"/animal-health/livestock-feeds/consultations/feed-labelling/eng/1383768470507/1383917571632\"><i>Feed Labelling Regulatory Framework Proposal</i></a> on the <abbr title=\"Canadian Food Inspection Agency\">CFIA</abbr> website and outreach directly to industry stakeholders by front-line and headquarters feed staff. Thirty complete responses were received.</p>\n\r\n\r\n</section>\r\n\r\n<section>\r\n\r\n<h2 id=\"c2\">What We Heard</h2>\r\n\r\n\r\n<div class=\"hrline\"></div>\r\n    \n\r\n<nav>\r\n<ul class=\"list-unstyled col-md-offset-1 mrgn-tp-md mrgn-bttm-md\">\r\n\r\n<li>\r\n<a href=\"#s2c2\">Respondent Profile</a>\r\n\r\n</li>\r\n\r\n<li>\r\n<a href=\"#s3c2\">Key Respondent Messages</a>\r\n\r\n</li>\r\n\r\n</ul>\r\n</nav>\r\n\n\n\r\n\r\n\r\n</section>\r\n\r\n<section>\r\n\r\n<h3 id=\"s2c2\">Respondent Profile</h3>\r\n\r\n<table id=\"tbl1\" class=\"table table-bordered\">\n<caption class=\"text-left\">Table 1: Respondent Profile</caption>\n<thead>\n<tr><th class=\"active\">Category of Respondent</th><th class=\"active\">Distribution</th></tr>\n</thead>\n<tbody>\n<tr><td>Feed Industry - Association</td><td>7</td></tr>\n<tr><td>Feed Industry \u2013 Individual</td><td>12</td></tr>\n<tr><td>Livestock Producer \u2013 Association</td><td>2</td></tr>\n<tr><td>Livestock Producer \u2013 Individual</td><td>2</td></tr>\n<tr><td>Other feed inputs</td><td>4</td></tr>\n<tr><td>Government (Canadian federal/provincial)</td><td>3</td></tr>\n<tr><td class=\"text-right\"><strong>Total</strong></td><td><strong>30</strong></td></tr>\n</tbody>\n</table>\n\n<p>Thirty sets of comments were received.  The feed industry association comments represent Canadian and American commercial feed manufacturers, as well as some of the larger feed ingredient groups.  The Canadian feed manufacturers association represents 90 percent of commercial feed manufactured in Canada, while the <abbr title=\"United States\">US</abbr> association represents about 75 percent of commercial feed manufactured in the <abbr title=\"United States\">US</abbr>.</p>\r\n\r\n</section>\r\n\r\n<section>\r\n\r\n<h3 id=\"s3c2\">Key Respondent Messages</h3>\r\n\r\n<p>The feed industry associations indicated that they consider the requirements in the proposal will not reduce the compliance burden and will be costly for the industry. The general comments from the other respondents were a split between a general agreement with the proposal and concerns about compliance burden.</p>\n\n<p>Very few comments were received from Livestock Producers, either from organizations or individuals.  While these groups represent the a large proportion of purchasers of feeds, the limited comments received focussed mostly on a desire for ingredient listings on labels, controls over imports, and that regulatory burdens are minimized.</p>\n\n<p>The comments received on the proposal pertained to all of the proposed labelling requirements for feeds. Clarification was requested with respect to a number of the proposed requirements. The <abbr title=\"Canadian Food Inspection Agency\">CFIA</abbr> responses to respondent comments are set out below.</p>\n\n<h4>Mandatory Labelling Requirements (Section 4.1)</h4>\n\n<p>Respondents raised concerns in this section of the proposal with regards to the provision of manufacturer information, list of ingredients and lot numbers on labels.  All of the subsections did receive comments and a few questions for clarification were received.  Respondents were not in favour of requiring the actual location of manufacture to appear on feed labels and requested that a head office or corporate address be allowed instead, especially for companies that have multiple manufacturing facilities.  They indicated that a corporate contact would be able to provide a customer with information better than an individual facility.</p>\n\n<p>Respondents raised concerns about requiring a list of ingredients on all feeds, however most indicated that allowing the use of collective terms would help.  A couple of respondents representing individual livestock producers raised concerns that the use of collective terms would allow feed companies to not disclose specific ingredients.</p>\n\n<p>Respondents were generally in agreement with the requirement for a lot number on feed labels.  Concerns were expressed for feeds that are in bulk or made via a continuous production system.  In both these cases there are challenges with differentiating one specific \"lot\" from the next as there is no clear break between lots.</p>\n\n<div class=\"well-sm brdr-tp brdr-rght brdr-bttm brdr-lft mrgn-bttm-md\">\n<section> \n<h5 class=\"mrgn-tp-sm\"><abbr title=\"Canadian Food Inspection Agency\">CFIA</abbr> Response</h5>\n<p>The <abbr title=\"Canadian Food Inspection Agency\">CFIA</abbr> appreciates the concerns raised with regards to requiring a location of actual place of manufacture on a feed label.  The manufacturer contact information is intended to provide information to the consumer so they can contact the manufacturer if they need to, and to provide information so that the <abbr title=\"Canadian Food Inspection Agency\">CFIA</abbr> can identify where a feed was manufactured in the event of a feed investigation.  The <abbr title=\"Canadian Food Inspection Agency\">CFIA</abbr> is exploring options which would achieve the desired outcome of the company being able to determine where a specific product was manufactured to facilitate traceability.  The combined use of a lot number and manufacturer contact information may be sufficient to achieve this.  A head office contact would be acceptable provided the lot number can be used to indicate the facility where the product was made.  If the lot number does not provide that information, <abbr title=\"Canadian Food Inspection Agency\">CFIA</abbr> proposes that the actual place of manufacture would be required on the label.</p>\n<p>The list of ingredients provides useful information to the purchaser of the feed and will be especially necessary as the requirement for feed registration will be limited.  The <abbr title=\"Canadian Food Inspection Agency\">CFIA</abbr> proposes to require the list of ingredients, in descending order on the label for feeds. This requirement is consistent with the Codex guidance, the <abbr title=\"United States\">US</abbr>, and other international jurisdictions.  The <abbr title=\"Canadian Food Inspection Agency\">CFIA</abbr> proposes that the use of collective terms will be allowed.  Collective terms will be clearly defined and the <abbr title=\"Canadian Food Inspection Agency\">CFIA</abbr> will further consult with stakeholders on what is included under the terms.</p>\n<p>The <abbr title=\"Canadian Food Inspection Agency\">CFIA</abbr> appreciates the concerns that were raised with regards to lot number.  It is not anticipated that the size of a batch or lot would be specified in regulation, and it would be up to the feed manufacturer to determine the best way to assign lot numbers to their products. Lot numbers and product identification are part of the traceability and recall components of the preventive control plans proposed in the Hazard Identification and Preventive Controls module.</p>\n</section>\n</div>\n\n<h4>Additional Labelling Requirements (section 4.2)</h4>\n\n<p>Respondents were opposed to the requirement for bilingual labelling.  Many indicated that feed mills often serve a small local area where there is no demand for a bilingual label.  Concerns included, the cost to both create the bilingual label and to have information translated, access to translators, the accuracy of translations, and that this may result in making labels larger and more complex than necessary.   Multi-lingual or international labels also received comments. Respondents indicated that the current proposal did not provide enough flexibility.   Additional questions for clarification were also posed on this section.</p>\n\n<div class=\"well-sm brdr-tp brdr-rght brdr-bttm brdr-lft mrgn-bttm-md\">\n<section> \n<h5 class=\"mrgn-tp-sm\"><abbr title=\"Canadian Food Inspection Agency\">CFIA</abbr> Response</h5>\n<p>Bilingual labelling is a Government of Canada requirement under the Official Languages Act.  The <abbr title=\"Canadian Food Inspection Agency\">CFIA</abbr> will strive to minimize the impact of this requirement on stakeholders by exploring the use of other approaches including a minority language exemption similar to that in <i>Food and Drugs Act</i>, and will endeavor to provide guidance on bilingual labelling, including acceptable translations for commonly used label information.  In a broader context, the <abbr title=\"Canadian Food Inspection Agency\">CFIA</abbr> has committed to working with regulated industry to address the issue of multi-lingual labels.</p>\n</section>\n</div>\n\n<h4>Specific Requirements for Feed Types (section 4.3)</h4>\n\n<p>Most of the requirements set out in this section of the proposal did not prompt much feedback.  Comments received on Veterinary Prescription feeds indicated an issue in the province of Quebec which requires all medicated feeds to be prescribed.  Concerns were raised about not being able to make these feeds in advance of the prescription being issued in order to capitalize on manufacturing efficiencies.</p>\n\n<p>Imported feeds generated the most feedback. The comments ranged from requests to keep mandatory registration for imported feeds, to support for removing all registration requirements.</p>\n\n<div class=\"well-sm brdr-tp brdr-rght brdr-bttm brdr-lft mrgn-bttm-md\">\n<section> \n<h5 class=\"mrgn-tp-sm\"><abbr title=\"Canadian Food Inspection Agency\">CFIA</abbr> Response</h5>\n<p>Issues regarding the duality of regulations that apply to veterinary prescription feeds in Quebec are recognized as being of concern, but are specific to the provincial regulations and thus outside of the scope of the federal feed regulations.</p>\n<p>The <abbr title=\"Canadian Food Inspection Agency\">CFIA</abbr> continues to explore options for imported feeds, and will be informed by the integrated Agency inspection model with regards to licensing and a general Agency approach for imported products.</p>\n</section>\n</div>\n\n<h4>Prohibitions (section 4.4)</h4>\n\n<p>Respondents were generally in favour of the requirements set out in this section of the proposal.  One respondent indicated that while they recognize the need for some prohibitions, they should be used only when they serve a useful purpose and industry should be consulted.</p>\n\n<div class=\"well-sm brdr-tp brdr-rght brdr-bttm brdr-lft mrgn-bttm-md\">\n<section> \n<h5 class=\"mrgn-tp-sm\"><abbr title=\"Canadian Food Inspection Agency\">CFIA</abbr> Response</h5>\n<p>The <abbr title=\"Canadian Food Inspection Agency\">CFIA</abbr> agrees that prohibitions should be used when they serve a useful purpose and will continue to consult as this process moves forward.</p>\n</section>\n</div>\n\n<h4>Voluntary Labelling (section 4.5)</h4>\n\n<p>Respondents were generally in agreement with proposals identified and discussed in this section.  With regards to Brand Names, they agreed that it is useful to have some rules, however, comments included a request for additional consultation before putting any restrictions on brand names in place and more information to specify what would be allowed or not allowed as part of a brand name.  One respondent also expressed concern that while the information must be truthful and not misleading, the burden of proof would be left to the users.</p>\n\n<div class=\"well-sm brdr-tp brdr-rght brdr-bttm brdr-lft mrgn-bttm-md\">\n<section> \n<h5 class=\"mrgn-tp-sm\"><abbr title=\"Canadian Food Inspection Agency\">CFIA</abbr> Response</h5>\n<p>The <abbr title=\"Canadian Food Inspection Agency\">CFIA</abbr> agrees that it is useful to allow brand names on products and recognizes that there are concerns regarding what would be considered acceptable.  This will be further addressed via guidance.  The <abbr title=\"Canadian Food Inspection Agency\">CFIA</abbr> continues to propose that feed labelling must be truthful and not misleading and has a Complaints and Appeals process that allows stakeholders to register complaints and appeals related to quality of service, administrative errors and regulatory decisions.</p>\n</section>\n</div>\r\n\r\n</section>\r\n\r\n<section>\r\n\r\n<h2 id=\"c3\">Next Steps</h2>\r\n\r\n\r\n<div class=\"hrline\"></div>\r\n    \n\n<p>The <abbr title=\"Canadian Food Inspection Agency\">CFIA</abbr> will prepare a consolidated proposal which incorporates the comments received on this proposal, as well as those on the Feed Ingredient Assessment and Authorization and the Hazard Identification and Preventive Controls proposals.  Further clarification on the proposed requirements will be provided in the consolidated proposal.  The consolidated proposal will be posted for further stakeholder consultation.</p>\n\n<p>The <abbr title=\"Canadian Food Inspection Agency\">CFIA</abbr> would like to thank everyone who contributed their time to this consultation process and shared their views.</p>\n\n\r\n\r\n\r\n</section>\r\n\r\n\n\n\r\n        \r\n\r\n\r\n\r\n<div class=\"row\">\r\n \r\n\t\r\n\t\t\t\r\n\r\n<div class=\"col-xm-12 pagedetails container\">\r\n\t\t\t\t\r\n\r\n</div>\r\n\t\r\n</div>",
        "fr": "\r\n        \r\n        \n\n\r\n\r\n\r\n<section id=\"archived\" class=\"alert alert-warning wb-inview\" data-inview=\"archived-bnr\">\r\n<h2>Cette page a \u00e9t\u00e9 archiv\u00e9e</h2>\r\n<p></p>\r\n</section>\r\n\r\n<section id=\"archived-bnr\" class=\"wb-overlay modal-content overlay-def wb-bar-t\">\r\n<header>\r\n<h2 class=\"wb-inv\">Archiv\u00e9e</h2>\r\n</header>\r\n<p><a href=\"#archived\">Cette page a \u00e9t\u00e9 archiv\u00e9e.</a></p>\r\n</section>\r\n\r\n\r\n\r\n<h2>Table des mati\u00e8res</h2>\r\n<ul class=\"list-unstyled col-md-offset-1 mrgn-tp-md mrgn-bttm-md\">\r\n\r\n<li>\r\n<a href=\"/sante-des-animaux/aliments-du-betail/consultations/l-etiquetage-des-aliments-du-betail/fra/1406316015270/1406316016176?chap=0#c1\">Introduction</a>\r\n\r\n<ul class=\"list-unstyled col-md-offset-1 mrgn-bttm-md\">\r\n\r\n<li>\r\n<a href=\"#s1c1\">Au sujet de la consultation</a>\r\n\r\n</li>\r\n\r\n</ul>\r\n\r\n</li>\r\n\r\n<li>\r\n<a href=\"/sante-des-animaux/aliments-du-betail/consultations/l-etiquetage-des-aliments-du-betail/fra/1406316015270/1406316016176?chap=0#c2\">Commentaires re\u00e7u</a>\r\n\r\n<ul class=\"list-unstyled col-md-offset-1 mrgn-bttm-md\">\r\n\r\n<li>\r\n<a href=\"#s2c2\">Profil des r\u00e9pondants</a>\r\n\r\n</li>\r\n\r\n<li>\r\n<a href=\"#s3c2\">Principaux messages des r\u00e9pondants</a>\r\n\r\n</li>\r\n\r\n</ul>\r\n\r\n</li>\r\n\r\n<li>\r\n<a href=\"/sante-des-animaux/aliments-du-betail/consultations/l-etiquetage-des-aliments-du-betail/fra/1406316015270/1406316016176?chap=0#c3\">Prochaines \u00e9tapes</a>\r\n\r\n</li>\r\n\r\n</ul>\r\n<p>P\u00e9riode de consultation du 20 novembre au 20 d\u00e9cembre 2013</p>\n\r\n\r\n<section>\r\n\r\n<h2 id=\"c1\">Introduction</h2>\r\n\r\n\r\n<div class=\"hrline\"></div>\r\n    \n\r\n<nav>\r\n<ul class=\"list-unstyled col-md-offset-1 mrgn-tp-md mrgn-bttm-md\">\r\n\r\n<li>\r\n<a href=\"#s1c1\">Au sujet de la consultation</a>\r\n\r\n</li>\r\n\r\n</ul>\r\n</nav>\r\n\n<p>L'Agence canadienne d'inspection des aliments (ACIA) a entrepris un important programme de changement en vue de renforcer sa fondation en mati\u00e8re de l\u00e9gislation, de programmes de r\u00e9glementation et de tenue d'inspections. Ces orientations \u00e9tablissent le contexte du renouvellement du <i>R\u00e8glement sur les aliments du b\u00e9tail</i> (R\u00e8glement).</p>\n\n<p>La modernisation du R\u00e8glement permettra de r\u00e9duire le fardeau li\u00e9 \u00e0 la conformit\u00e9 et de soutenir l'innovation, tout en assurant la sant\u00e9 publique et animale, ainsi que la durabilit\u00e9 environnementale et \u00e9conomique. On s'emploie \u00e0 faire en sorte que cette modernisation profite \u00e0 l'industrie collective des aliments du b\u00e9tail au Canada qui comprend les fabricants d'aliments du b\u00e9tail, les d\u00e9taillants, les importateurs, les exportateurs, les fabricants d'ingr\u00e9dients et les agriculteurs. En plus de s'harmoniser \u00e0 d'autres r\u00e9gimes de r\u00e9glementation des aliments du b\u00e9tail \u00e0 l'\u00e9chelle internationale, la modernisation permet de maintenir l'objectif qui consiste \u00e0 am\u00e9liorer la sant\u00e9 des animaux et l'innocuit\u00e9 des aliments pour la population canadienne.</p>\n\n<p>L'\u00e9tiquetage des aliments du b\u00e9tail n'est que l'une des parties du R\u00e8glement vis\u00e9es par l'initiative de modernisation. Les \u00e9tiquettes jouent un r\u00f4le important sur le plan de l'innocuit\u00e9 des aliments du b\u00e9tail et de leur utilisation ad\u00e9quate. Un \u00e9tiquetage convenable permet \u00e0 l'acheteur et \u00e0 l'utilisateur d'un aliment du b\u00e9tail de faire la diff\u00e9rence entre un produit et un autre et fournit des renseignements sur la composition de l'aliment et la fa\u00e7on de l'utiliser. Les produits qui ne sont pas \u00e9tiquet\u00e9s ou dont l'\u00e9tiquette ne comporte pas des renseignements ad\u00e9quats peuvent \u00eatre utilis\u00e9s, par m\u00e9garde, d'une fa\u00e7on non s\u00e9curitaire et repr\u00e9senter un danger pour la sant\u00e9 des animaux, l'innocuit\u00e9 des aliments et l'environnement. De plus, l'<abbr title=\"Agence canadienne d'inspection des aliments\">ACIA</abbr> est consciente que les \u00e9tiquettes repr\u00e9sentent un certain fardeau pour les parties r\u00e9glement\u00e9es, tant en ce qui concerne les co\u00fbts que la conformit\u00e9.</p>\n\n<p>L'<abbr title=\"Agence canadienne d'inspection des aliments\">ACIA</abbr> a lanc\u00e9 une p\u00e9riode de consultation de 30 jours afin de conna\u00eetre l'avis des parties int\u00e9ress\u00e9es sur les modifications qu'elle propose pour les exigences relatives \u00e0 l'\u00e9tiquetage des aliments du b\u00e9tail. Les commentaires ont \u00e9t\u00e9 recueillis du 20 novembre au 20 d\u00e9cembre 2013.</p>\n\n<p>Le pr\u00e9sent rapport se veut un sommaire des commentaires re\u00e7us durant la p\u00e9riode de consultation qui portaient directement sur la proposition relative \u00e0 l'\u00e9tiquetage des aliments du b\u00e9tail, ainsi que des r\u00e9ponses de l'<abbr title=\"Agence canadienne d'inspection des aliments\">ACIA</abbr> \u00e0 ces commentaires.</p>\n\n\r\n\r\n\r\n</section>\r\n\r\n<section>\r\n\r\n<h3 id=\"s1c1\">Au sujet de la consultation</h3>\r\n\r\n<p>Afin de faciliter la consultation, on a pr\u00e9par\u00e9 et affich\u00e9 la proposition, <a href=\"/sante-des-animaux/aliments-du-betail/consultations/reglementation-de-l-etiquetage/fra/1383768470507/1383917571632\"><i>R\u00e9glementation de l'\u00e9tiquetage des aliments du b\u00e9tail - Proposition de cadre de r\u00e9glementation</i></a>, sur le site Web de l'<abbr title=\"Agence canadienne d'inspection des aliments\">ACIA</abbr> et les membres du personnel de premi\u00e8re ligne et de l'administration centrale qui s'occupent du dossier des aliments du b\u00e9tail ont communiqu\u00e9 directement avec les intervenants de l'industrie. Trente r\u00e9ponses compl\u00e8tes ont \u00e9t\u00e9 re\u00e7ues.</p>\n\r\n\r\n</section>\r\n\r\n<section>\r\n\r\n<h2 id=\"c2\">Commentaires re\u00e7u</h2>\r\n\r\n\r\n<div class=\"hrline\"></div>\r\n    \n\r\n<nav>\r\n<ul class=\"list-unstyled col-md-offset-1 mrgn-tp-md mrgn-bttm-md\">\r\n\r\n<li>\r\n<a href=\"#s2c2\">Profil des r\u00e9pondants</a>\r\n\r\n</li>\r\n\r\n<li>\r\n<a href=\"#s3c2\">Principaux messages des r\u00e9pondants</a>\r\n\r\n</li>\r\n\r\n</ul>\r\n</nav>\r\n\n\n\r\n\r\n\r\n</section>\r\n\r\n<section>\r\n\r\n<h3 id=\"s2c2\">Profil des r\u00e9pondants</h3>\r\n\r\n<table id=\"tbl1\" class=\"table table-bordered\">\n<caption class=\"text-left\">Tableau 1\u00a0: Profil des r\u00e9pondants</caption>\n<thead>\n<tr><th class=\"active\">Cat\u00e9gorie de r\u00e9pondants</th><th class=\"active\">R\u00e9partition</th></tr>\n</thead>\n<tbody>\n<tr><td>Industrie des aliments du b\u00e9tail \u2013 associations</td><td>7</td></tr>\n<tr><td>Industrie des aliments du b\u00e9tail \u2013 individus</td><td>12</td></tr>\n<tr><td>Producteurs de b\u00e9tail \u2013 associations</td><td>2</td></tr>\n<tr><td>Producteurs de b\u00e9tail \u2013 individus</td><td>2</td></tr>\n<tr><td>Autres intervenants dans le domaine des aliments du b\u00e9tail</td><td>4</td></tr>\n<tr><td>Gouvernement (f\u00e9d\u00e9ral/provincial)</td><td>3</td></tr>\n<tr><td class=\"text-right\"><strong>Total</strong></td><td><strong>30</strong></td></tr>\n</tbody>\n</table>\n\n<p>On a donc re\u00e7u trente r\u00e9ponses. Les associations de l'industrie des aliments du b\u00e9tail englobent les fabricants d'aliments du b\u00e9tail canadiens et am\u00e9ricains, de m\u00eame que certains groupes importants de producteurs d'ingr\u00e9dients d'aliments du b\u00e9tail. Mentionnons que l'Association de nutrition animale du Canada repr\u00e9sente 90 % des aliments du b\u00e9tail commerciaux fabriqu\u00e9s au Canada, alors que l'American Feed Industry Association repr\u00e9sente environ 75 % des aliments du b\u00e9tail commerciaux fabriqu\u00e9s aux \u00c9tats-Unis.</p>\r\n\r\n</section>\r\n\r\n<section>\r\n\r\n<h3 id=\"s3c2\">Principaux messages des r\u00e9pondants</h3>\r\n\r\n<p>Les associations de l'industrie des aliments du b\u00e9tail sont d'avis que les exigences propos\u00e9es ne feront rien pour r\u00e9duire le fardeau li\u00e9 \u00e0 la conformit\u00e9 et qu'ils seront plut\u00f4t co\u00fbteux pour l'industrie. Les commentaires g\u00e9n\u00e9raux re\u00e7us des autres r\u00e9pondants \u00e9taient partag\u00e9s, certains \u00e9tant en accord de fa\u00e7on g\u00e9n\u00e9rale avec la proposition et d'autres ayant certaines pr\u00e9occupations concernant le fardeau li\u00e9 \u00e0 la conformit\u00e9.</p>\n\n<p>On a re\u00e7u tr\u00e8s peu de commentaires des producteurs de b\u00e9tail, que ce soit de la part d'organisations ou d'individus. Ces groupes repr\u00e9sentent une grande proportion d'acheteurs d'aliments du b\u00e9tail et les quelques commentaires re\u00e7us de leur part montrent surtout un d\u00e9sir que les ingr\u00e9dients soient inscrits sur l'\u00e9tiquette, que des mesures de contr\u00f4le \u00e0 l'importation soient appliqu\u00e9es et que le fardeau li\u00e9 \u00e0 la r\u00e9glementation soit r\u00e9duit au minimum.</p>\n\n<p>Les commentaires re\u00e7us au sujet de la proposition portaient sur l'ensemble des exigences propos\u00e9es relativement \u00e0 l'\u00e9tiquetage des aliments du b\u00e9tail. Des pr\u00e9cisions ont \u00e9t\u00e9 demand\u00e9es pour plusieurs de ces propositions et les r\u00e9ponses de l'<abbr title=\"Agence canadienne d'inspection des aliments\">ACIA</abbr> sont fournies \u00e0 la suite des commentaires.</p>\n\n<h4>Exigences d'\u00e9tiquetage obligatoires (section 4.1)</h4>\n\n<p>Les r\u00e9pondants ont soulev\u00e9 des pr\u00e9occupations pour cette section en ce qui concerne la pr\u00e9sentation des coordonn\u00e9es du fabricant, de la liste des ingr\u00e9dients et du num\u00e9ro du lot sur les \u00e9tiquettes. On a re\u00e7u des commentaires pour l'ensemble des sous-sections ainsi que quelques questions. Les r\u00e9pondants n'aiment pas l'id\u00e9e d'obliger \u00e0 ce que les coordonn\u00e9es du lieu de fabrication soient indiqu\u00e9es sur l'\u00e9tiquette et ont demand\u00e9 qu'on permette de fournir plut\u00f4t l'adresse du si\u00e8ge social ou une adresse commerciale, surtout afin d'aider les entreprises qui comptent de multiples centres de fabrication. Ils soutiennent que les clients auraient plus de chances d'obtenir les renseignements d\u00e9sir\u00e9s en communiquant avec une personne-ressource de l'entreprise qu'en appelant \u00e0 un lieu de fabrication individuel.</p>\n\n<p>Les r\u00e9pondants ont \u00e9galement soulev\u00e9 des pr\u00e9occupations concernant l'obligation d'indiquer la liste des ingr\u00e9dients pour tous les aliments du b\u00e9tail. Toutefois, la plupart ont indiqu\u00e9 que le fait de permettre l'usage de termes communs les aiderait. Quelques r\u00e9pondants qui repr\u00e9sentent les producteurs de b\u00e9tail individuels craignent cependant que l'usage de termes communs permette aux producteurs d'aliments du b\u00e9tail de dissimuler certains ingr\u00e9dients.</p>\n\n<p>De fa\u00e7on g\u00e9n\u00e9rale, les r\u00e9pondants \u00e9taient en accord avec la proposition d'obliger \u00e0 ce qu'un num\u00e9ro de lot soit inclus sur l'\u00e9tiquette des aliments du b\u00e9tail. On s'interroge toutefois quant aux aliments en vrac et aux aliments fabriqu\u00e9s au moyen d'un syst\u00e8me de production en continu. Dans les deux cas, il serait difficile de faire la distinction entre les lots, puisqu'il n'y a pas de s\u00e9paration claire entre ceux-ci.</p>\n\n<div class=\"well-sm brdr-tp brdr-rght brdr-bttm brdr-lft mrgn-bttm-md\">\n<section> \n<h5 class=\"mrgn-tp-sm\">R\u00e9ponse de l'<abbr title=\"Agence canadienne d'inspection des aliments\">ACIA</abbr>\u00a0:</h5>\n\n<p>L'<abbr title=\"Agence canadienne d'inspection des aliments\">ACIA</abbr> comprend les pr\u00e9occupations soulev\u00e9es au sujet de l'obligation d'indiquer un lieu de fabrication sur l'\u00e9tiquette des aliments du b\u00e9tail. L'exigence relative aux coordonn\u00e9es du fabricant vise \u00e0 permettre au consommateur de communiquer avec le fabricant au besoin et \u00e0 l'<abbr title=\"Agence canadienne d'inspection des aliments\">ACIA</abbr> de conna\u00eetre l'endroit o\u00f9 un aliment a \u00e9t\u00e9 fabriqu\u00e9 dans l'\u00e9ventualit\u00e9 d'une enqu\u00eate. L'<abbr title=\"Agence canadienne d'inspection des aliments\">ACIA</abbr> explore actuellement les possibilit\u00e9s qui m\u00e8neraient au r\u00e9sultat d\u00e9sir\u00e9, c'est \u00e0 dire, faire en sorte que la compagnie puisse d\u00e9terminer l'endroit o\u00f9 un produit pr\u00e9cis a \u00e9t\u00e9 fabriqu\u00e9 afin de faciliter la tra\u00e7abilit\u00e9. \u00c0 cette fin, la combinaison d'un num\u00e9ro de lot et des coordonn\u00e9es du fabricant pourrait suffire. On pourrait \u00e9galement fournir les coordonn\u00e9es d'une personne ressource du si\u00e8ge social, pourvu que le num\u00e9ro de lot puisse \u00eatre utilis\u00e9 pour indiquer le lieu o\u00f9 le produit a \u00e9t\u00e9 fabriqu\u00e9. Pour les cas o\u00f9 le num\u00e9ro de lot ne fournirait pas cette information, l'<abbr title=\"Agence canadienne d'inspection des aliments\">ACIA</abbr> propose d'obliger \u00e0 ce que le lieu de fabrication soit indiqu\u00e9 sur l'\u00e9tiquette.</p>\n\n<p>La liste des ingr\u00e9dients fournit de l'information fort utile aux acheteurs et sera n\u00e9cessaire d'autant plus que l'exigence relative \u00e0 l'enregistrement des aliments du b\u00e9tail sera limit\u00e9e. L'<abbr title=\"Agence canadienne d'inspection des aliments\">ACIA</abbr> propose d'exiger une liste o\u00f9 les ingr\u00e9dients seront pr\u00e9sent\u00e9s en ordre d\u00e9croissant sur l'\u00e9tiquette des aliments du b\u00e9tail. Cette exigence concorde avec les directives du Codex et avec celles qui sont en vigueur aux \u00c9tats Unis et ailleurs dans le monde. Selon ce que propose l'<abbr title=\"Agence canadienne d'inspection des aliments\">ACIA</abbr>, l'usage de termes communs serait toutefois permis. Ces termes seront d\u00e9finis clairement et l'<abbr title=\"Agence canadienne d'inspection des aliments\">ACIA</abbr> m\u00e8nera d'autres consultations avec les intervenants pour d\u00e9terminer ce qui est compris dans chacune des d\u00e9finitions.</p>\n\n<p>L'<abbr title=\"Agence canadienne d'inspection des aliments\">ACIA</abbr> comprend les pr\u00e9occupations soulev\u00e9es concernant le num\u00e9ro de lot. On ne s'attend pas \u00e0 ce que la taille du lot soit pr\u00e9cis\u00e9e dans la r\u00e9glementation, et ce serait au fabricant d'aliments de d\u00e9terminer la meilleure fa\u00e7on d'attribuer les num\u00e9ros de lot \u00e0 ses produits. Les num\u00e9ros de lot et l'identification des produits font partie des composantes de tra\u00e7abilit\u00e9 et de rappel des plans de pr\u00e9vention propos\u00e9s dans le module d'identification des dangers et de mesures pr\u00e9ventives.</p>\n</section>\n</div>\n\n<h4>Exigences suppl\u00e9mentaires li\u00e9es \u00e0 l'\u00e9tiquetage (section 4.2)</h4>\n\n<p>Les r\u00e9pondants sont en d\u00e9saccord avec la proposition d'obliger \u00e0 ce que les \u00e9tiquettes soient r\u00e9dig\u00e9es dans les deux langues officielles. Bon nombre d'entre eux soulignent que les fabriques d'aliments du b\u00e9tail desservent souvent de petites localit\u00e9s o\u00f9 la demande d'\u00e9tiquettes bilingues est inexistante. On se pr\u00e9occupe entre autres des co\u00fbts associ\u00e9s \u00e0 la pr\u00e9paration et \u00e0 la traduction de ces \u00e9tiquettes, de l'acc\u00e8s \u00e0 des traducteurs, de la qualit\u00e9 des traductions et du fait que cette exigence pourrait les forcer \u00e0 pr\u00e9parer des \u00e9tiquettes plus grosses et plus complexes que ce qui est n\u00e9cessaire. L'<abbr title=\"Agence canadienne d'inspection des aliments\">ACIA</abbr> a \u00e9galement re\u00e7u des commentaires concernant les \u00e9tiquettes multilingues et internationales. D'apr\u00e8s les r\u00e9pondants, la proposition actuelle n'offre pas suffisamment de flexibilit\u00e9. D'autres questions ont \u00e9galement \u00e9t\u00e9 re\u00e7ues pour cette section.</p>\n\n<div class=\"well-sm brdr-tp brdr-rght brdr-bttm brdr-lft mrgn-bttm-md\">\n<section> \n<h5 class=\"mrgn-tp-sm\">R\u00e9ponse de l'<abbr title=\"Agence canadienne d'inspection des aliments\">ACIA</abbr>\u00a0:</h5>\n\n<p>L'\u00e9tiquetage bilingue constitue une exigence du gouvernement du Canada en vertu de la <i>Loi sur les langues officielles</i>. L'<abbr title=\"Agence canadienne d'inspection des aliments\">ACIA</abbr> fera tout dans la mesure du possible pour r\u00e9duire au minimum l'incidence de cette exigence sur les intervenants en \u00e9tudiant d'autres options, comme l'usage d'une exemption pour la langue de la minorit\u00e9 semblable \u00e0 celle de la <i>Loi sur les aliments et drogues</i>, et s'efforcera d'offrir des conseils sur l'\u00e9tiquetage bilingue, notamment en fournissant des traductions acceptables des renseignements qu'on trouve couramment sur les \u00e9tiquettes. Dans un contexte plus large, l'<abbr title=\"Agence canadienne d'inspection des aliments\">ACIA</abbr> s'est engag\u00e9e \u00e0 travailler avec les parties r\u00e9glement\u00e9es pour r\u00e9soudre la question des \u00e9tiquettes multilingues.</p>\n</section>\n</div>\n\n<h4>Exigences particuli\u00e8res pour les types d'aliments (section 4.3)</h4>\n\n<p>On a re\u00e7u tr\u00e8s peu de commentaires pour la plupart des exigences pr\u00e9sent\u00e9es dans cette section. Les commentaires entourant les aliments prescrits par le v\u00e9t\u00e9rinaire portaient sur un probl\u00e8me en particulier, soit le fait qu'au Qu\u00e9bec, tous les aliments m\u00e9dicament\u00e9s doivent \u00eatre prescrits. On d\u00e9plore le fait de ne pas pouvoir pr\u00e9parer ces aliments avant que la prescription soit fournie, car cela emp\u00eache de profiter pleinement de l'efficacit\u00e9 des proc\u00e9d\u00e9s de fabrication.</p>\n\n<p>Ce sont les aliments import\u00e9s qui ont g\u00e9n\u00e9r\u00e9 le plus de commentaires. Certains r\u00e9pondants souhaitent que l'enregistrement obligatoire des aliments import\u00e9s soit maintenu, alors que d'autres aimeraient que les exigences relatives \u00e0 l'enregistrement soient toutes retir\u00e9es.</p>\n\n<div class=\"well-sm brdr-tp brdr-rght brdr-bttm brdr-lft mrgn-bttm-md\">\n<section> \n<h5 class=\"mrgn-tp-sm\">R\u00e9ponse de l'<abbr title=\"Agence canadienne d'inspection des aliments\">ACIA</abbr>\u00a0:</h5>\n\n<p>Les pr\u00e9occupations entourant les r\u00e8glements qui s'appliquent aux aliments prescrits par le v\u00e9t\u00e9rinaire au Qu\u00e9bec sont bien connues, mais sont li\u00e9es \u00e0 une r\u00e9glementation provinciale et, de ce fait, ne sont pas comprises dans la port\u00e9e de la r\u00e9glementation f\u00e9d\u00e9rale visant les aliments du b\u00e9tail.</p>\n\n<p>L'<abbr title=\"Agence canadienne d'inspection des aliments\">ACIA</abbr> continue d'\u00e9tudier les possibilit\u00e9s pour ce qui est des aliments import\u00e9s et s'appuiera sur le mod\u00e8le d'inspection int\u00e9gr\u00e9 de l'<abbr title=\"Agence canadienne d'inspection des aliments\">ACIA</abbr> pour l'octroi de permis et la strat\u00e9gie g\u00e9n\u00e9rale de l'<abbr title=\"Agence canadienne d'inspection des aliments\">ACIA</abbr> relativement aux produits import\u00e9s.</p>\n</section>\n</div>\n\n<h4>Interdictions (section 4.4)</h4>\n\n<p>Les r\u00e9pondants \u00e9taient g\u00e9n\u00e9ralement en accord avec les exigences propos\u00e9es dans cette section. L'un d'entre eux a mentionn\u00e9 que, m\u00eame s'il convenait que les interdictions sont n\u00e9cessaires, elles devraient \u00eatre appliqu\u00e9es seulement lorsqu'elles ont une utilit\u00e9, et soutient que les intervenants de l'industrie devraient \u00eatre consult\u00e9s \u00e0 ce sujet.</p>\n\n<div class=\"well-sm brdr-tp brdr-rght brdr-bttm brdr-lft mrgn-bttm-md\">\n<section> \n<h5 class=\"mrgn-tp-sm\">R\u00e9ponse de l'<abbr title=\"Agence canadienne d'inspection des aliments\">ACIA</abbr>\u00a0:</h5>\n\n<p>L'<abbr title=\"Agence canadienne d'inspection des aliments\">ACIA</abbr> est \u00e9galement d'avis que les interdictions doivent \u00eatre appliqu\u00e9es lorsqu'elles ont une utilit\u00e9 et continuera de consulter les intervenants de l'industrie \u00e0 mesure que le dossier progressera.</p>\n</section>\n</div>\n\n<h4>\u00c9tiquetage volontaire (section 4.5)</h4>\n\n<p>Les r\u00e9pondants \u00e9taient g\u00e9n\u00e9ralement en accord avec ce que l'on proposait dans cette section. En ce qui a trait aux marques de commerce, ils conviennent qu'il est utile d'avoir certaines r\u00e8gles; toutefois, parmi les commentaires re\u00e7us, on a demand\u00e9 de mener d'autres consultations avant d'imposer des restrictions sur les marques de commerce d\u00e9j\u00e0 employ\u00e9es et de fournir plus de d\u00e9tails afin qu'on ait une meilleure id\u00e9e de ce qui serait permis ou non pour les marques de commerce. Un r\u00e9pondant s'inqui\u00e8te du fait que, m\u00eame si l'information doit \u00eatre v\u00e9ridique et non trompeuse, le fardeau de la preuve reviendrait aux utilisateurs.</p>\n\n<div class=\"well-sm brdr-tp brdr-rght brdr-bttm brdr-lft mrgn-bttm-md\">\n<section> \n<h5 class=\"mrgn-tp-sm\">R\u00e9ponse de l'<abbr title=\"Agence canadienne d'inspection des aliments\">ACIA</abbr>\u00a0:</h5>\n\n<p>L'<abbr title=\"Agence canadienne d'inspection des aliments\">ACIA</abbr> est \u00e9galement d'avis que le fait de permettre l'usage de marques de commerce pour les produits est utile et est consciente des pr\u00e9occupations entourant ce qui serait consid\u00e9r\u00e9 comme acceptable. Ce sujet sera examin\u00e9 plus en d\u00e9tail dans des directives. L'<abbr title=\"Agence canadienne d'inspection des aliments\">ACIA</abbr> propose toujours d'exiger que l'information pr\u00e9sent\u00e9e sur l'\u00e9tiquette des aliments du b\u00e9tail soit v\u00e9ridique et non trompeuse et emploie un processus qui permet aux intervenants de d\u00e9poser des plaintes et des appels entourant la qualit\u00e9 des services, une erreur administrative ou une d\u00e9cision r\u00e9glementaire.</p>\n</section>\n</div>\r\n\r\n</section>\r\n\r\n<section>\r\n\r\n<h2 id=\"c3\">Prochaines \u00e9tapes</h2>\r\n\r\n\r\n<div class=\"hrline\"></div>\r\n    \n\n<p>L'<abbr title=\"Agence canadienne d'inspection des aliments\">ACIA</abbr> entend pr\u00e9parer une proposition globale qui tiendra compte des commentaires re\u00e7us pour cette proposition, la proposition concernant l'\u00e9valuation et l'autorisation des ingr\u00e9dients des aliments du b\u00e9tail et la proposition relative \u00e0 l'identification des dangers et aux mesures pr\u00e9ventives. Des pr\u00e9cisions au sujet des exigences propos\u00e9es seront fournies dans la proposition globale, qui sera affich\u00e9e pour que les intervenants puissent encore une fois formuler leurs commentaires.</p>\n\n<p>L'<abbr title=\"Agence canadienne d'inspection des aliments\">ACIA</abbr> tient \u00e0 remercier tous ceux qui ont particip\u00e9 au processus de consultation et qui ont partag\u00e9 leur point de vue.</p>\n\n\r\n\r\n\r\n</section>\r\n\r\n<div class=\"clear\"></div>\r\n\n\n\r\n        \r\n\r\n<div class=\"row\">\r\n \r\n\t\t\t\r\n\t\t\t\r\n\r\n\t\t\r\n\t\r\n</div>"
    },
    "js": {
        "en": "",
        "fr": ""
    },
    "success": true,
    "chat_wizard": false
}