{
    "dcr_id": "1417104662171",
    "title": {
        "en": "Report on Beyond The Border Perimeter Security and Economic Competitiveness Action Plan: <abbr title=\"Lymantria albescens, Lymantria umbrosa, Lymantria postalba, Lymantria dispar japonica and Lymantria dispar asiatica\">AGM</abbr> Joint Assessment",
        "fr": "Rapport sur l'initiative Par-del\u00e0 la fronti\u00e8re\u00a0: plan d'action sur la s\u00e9curit\u00e9 et la comp\u00e9titivit\u00e9 \u00e9conomique \u00e0 l'int\u00e9rieur du p\u00e9rim\u00e8tre \u2013 \u00c9valuation conjointe sur la spongieuse asiatique"
    },
    "html_modified": "2024-02-13 9:50:29 AM",
    "modified": "2015-06-16",
    "issued": "2015-06-16",
    "teamsite_location": {
        "en": "/default/main/inspection/cont-cont/plants-vegetaux/STAGING/templatedata/comn-comn/manuals-manuels/data/pestrava_lymdis_asian_report_joint_assessment_1417104662171_eng",
        "fr": "/default/main/inspection/cont-cont/plants-vegetaux/STAGING/templatedata/comn-comn/manuals-manuels/data/pestrava_lymdis_asian_report_joint_assessment_1417104662171_fra"
    },
    "ia_id": "1417104737098",
    "parent_ia_id": "1330353499535",
    "chronicletopic": {
        "en": "",
        "fr": ""
    },
    "chroniclecontent": {
        "en": "",
        "fr": ""
    },
    "chronicleaudience": {
        "en": "",
        "fr": ""
    },
    "sfcrdocumenttype": {
        "en": "",
        "fr": ""
    },
    "sfcraudience": {
        "en": "",
        "fr": ""
    },
    "sfcrmethodofproduction": {
        "en": "",
        "fr": ""
    },
    "activity": {
        "en": "",
        "fr": ""
    },
    "commodity": {
        "en": "",
        "fr": ""
    },
    "program": {
        "en": "",
        "fr": ""
    },
    "search_type": "other",
    "parent_node_id": "1330353499535",
    "layout_name": "content page 1 column",
    "breadcrumb": {
        "en": "Report on Beyond The Border Perimeter Security and Economic Competitiveness Action Plan: <abbr title=\"Lymantria albescens, Lymantria umbrosa, Lymantria postalba, Lymantria dispar japonica and Lymantria dispar asiatica\">AGM</abbr> Joint Assessment",
        "fr": "Rapport sur l'initiative Par-del\u00e0 la fronti\u00e8re\u00a0: plan d'action sur la s\u00e9curit\u00e9 et la comp\u00e9titivit\u00e9 \u00e9conomique \u00e0 l'int\u00e9rieur du p\u00e9rim\u00e8tre \u2013 \u00c9valuation conjointe sur la spongieuse asiatique"
    },
    "label": {
        "en": "Report on Beyond The Border Perimeter Security and Economic Competitiveness Action Plan: <abbr title=\"Lymantria albescens, Lymantria umbrosa, Lymantria postalba, Lymantria dispar japonica and Lymantria dispar asiatica\">AGM</abbr> Joint Assessment",
        "fr": "Rapport sur l'initiative Par-del\u00e0 la fronti\u00e8re\u00a0: plan d'action sur la s\u00e9curit\u00e9 et la comp\u00e9titivit\u00e9 \u00e9conomique \u00e0 l'int\u00e9rieur du p\u00e9rim\u00e8tre \u2013 \u00c9valuation conjointe sur la spongieuse asiatique"
    },
    "templatetype": "content page 1 column",
    "node_id": "1417104737098",
    "managing_branch": "comn",
    "type_name": "manuals-manuels",
    "dcr_type": "manuals-manuels",
    "parent_dcr_id": "1330353359964",
    "has_dcr_id": true,
    "lang": "en",
    "could_not_load": 0,
    "refaire": false,
    "interwoven_url": {
        "en": "/plant-health/invasive-species/insects/spongy-moth/agm/agm-joint-assessment/",
        "fr": "/protection-des-vegetaux/especes-envahissantes/insectes/la-spongieuse/la-spongieuse-asiatique/evaluation-conjointe-sur-la-spongieuse-asiatique/"
    },
    "meta": {
        "viewport": {
            "en": "width=device-width,initial-scale=1",
            "fr": "width=device-width,initial-scale=1"
        },
        "service": {
            "en": "CFIA-ACIA",
            "fr": "CFIA-ACIA"
        },
        "accessRights": {
            "en": "2",
            "fr": "2"
        },
        "title": {
            "en": "Report on Beyond The Border Perimeter Security and Economic Competitiveness Action Plan: AGM Joint Assessment",
            "fr": "Rapport sur l'initiative Par-del\u00e0 la fronti\u00e8re\u00a0: plan d'action sur la s\u00e9curit\u00e9 et la comp\u00e9titivit\u00e9 \u00e9conomique \u00e0 l'int\u00e9rieur du p\u00e9rim\u00e8tre \u2013 \u00c9valuation conjointe sur la spongieuse asiatique"
        },
        "description": {
            "en": "The Beyond The Border Perimeter Security and Economic Competitiveness Action Plan was established to support enhanced long-term Canada-United States (U.S.) partnership built upon a perimeter approach to security and economic competitiveness.",
            "fr": "Le plan d'action intitul\u00e9 Par-del\u00e0 la fronti\u00e8re : une vision commune de la s\u00e9curit\u00e9 et de la comp\u00e9titivit\u00e9 \u00e9conomique \u00e0 l'int\u00e9rieur du p\u00e9rim\u00e8tre a \u00e9t\u00e9 \u00e9labor\u00e9 afin de soutenir un partenariat renforc\u00e9 \u00e0 long terme entre le Canada et les \u00c9tats-Unis (\u00c9.-U.) reposant sur une approche ax\u00e9e sur le p\u00e9rim\u00e8tre pour la s\u00e9curit\u00e9 et la comp\u00e9titivit\u00e9 \u00e9conomique."
        },
        "keywords": {
            "en": "plant pest, pest surveys, quarantine pests, trapping, Lymantria dispar, Beyond the Border Perimeter Security, Economic Competitiveness Action Plan",
            "fr": "phytoravageurs, enqu\u00eates phytosanitaires, phytoparasites justiciables de quarantaine, pi\u00e9geage, Lymantria dispar, La spongieuse, La spongieuse asiatique, Par-del\u00e0 la fronti\u00e8re, vision commune de la s\u00e9curit\u00e9 et de la comp\u00e9titivit\u00e9 \u00e9conomique, \u00c9valuation conjointe sur la spongieuse asiatique"
        },
        "dcterms.subject": {
            "en": "insects,plant diseases,plants",
            "fr": "insecte,maladie des plantes,plante"
        },
        "creator": {
            "en": "Government of Canada,Canadian Food Inspection Agency,Plant Health and Biosecurity Directorate",
            "fr": "Gouvernement du Canada,Agence canadienne d'inspection des aliments,Direction de la protection des v\u00e9g\u00e9taux et bios\u00e9curit\u00e9"
        },
        "language": {
            "en": "eng",
            "fr": "fra"
        },
        "issued": {
            "en": "2015-06-16",
            "fr": "2015-06-16"
        },
        "modified": {
            "en": "2015-06-16",
            "fr": "2015-06-16"
        },
        "type": {
            "en": "reference material",
            "fr": "mat\u00e9riel de r\u00e9f\u00e9rence"
        },
        "audience": {
            "en": "business,government,scientists",
            "fr": "entreprises,gouvernement,Scientifiques"
        },
        "name": {
            "en": "Government of Canada",
            "fr": "Gouvernement du Canada"
        },
        "areaServed": {
            "en": "Canada",
            "fr": "Canada"
        }
    },
    "h1": {
        "en": "Report on Beyond The Border Perimeter Security and Economic Competitiveness Action Plan: AGM Joint Assessment",
        "fr": "Rapport sur l'initiative Par-del\u00e0 la fronti\u00e8re\u00a0: plan d'action sur la s\u00e9curit\u00e9 et la comp\u00e9titivit\u00e9 \u00e9conomique \u00e0 l'int\u00e9rieur du p\u00e9rim\u00e8tre \u2013 \u00c9valuation conjointe sur la spongieuse asiatique"
    },
    "js": {
        "en": "",
        "fr": ""
    },
    "body": {
        "en": "        \r\n        \n\n\r\n\r\n\r\n\r\n\r\n\r\n\r\n<h2>Table of Contents</h2>\r\n<ul class=\"list-unstyled col-md-offset-1 mrgn-tp-md mrgn-bttm-md\">\r\n\r\n<li>\r\n<a href=\"/plant-health/invasive-species/insects/spongy-moth/agm/agm-joint-assessment/eng/1417104662171/1417104737098?chap=0#c1\">Executive Summary</a>\r\n\r\n</li>\r\n\r\n<li>\r\n<a href=\"/plant-health/invasive-species/insects/spongy-moth/agm/agm-joint-assessment/eng/1417104662171/1417104737098?chap=0#c2\">Background</a>\r\n\r\n</li>\r\n\r\n<li>\r\n<a href=\"/plant-health/invasive-species/insects/spongy-moth/agm/agm-joint-assessment/eng/1417104662171/1417104737098?chap=0#c3\">The Joint Assessment Process</a>\r\n\r\n<ul class=\"list-unstyled col-md-offset-1 mrgn-bttm-md\">\r\n\r\n<li>\r\n<a href=\"#s1c3\"><abbr title=\"1\">I</abbr>.\tPrior to conducting joint assessment and trilateral negotiations</a>\r\n\r\n</li>\r\n\r\n<li>\r\n<a href=\"#s2c3\"><abbr title=\"2\">II</abbr>.\tQuestions to be considered in developing joint phytosanitary assessment approach</a>\r\n\r\n</li>\r\n\r\n<li>\r\n<a href=\"#s3c3\"><abbr title=\"3\">III</abbr>.\tQuestions and activities to be considered during the joint assessment and/or tri-lateral negotiations</a>\r\n\r\n</li>\r\n\r\n<li>\r\n<a href=\"#s4c3\"><abbr title=\"4\">IV</abbr>.\tCommunicating results of joint assessment</a>\r\n\r\n</li>\r\n\r\n</ul>\r\n\r\n</li>\r\n\r\n<li>\r\n<a href=\"/plant-health/invasive-species/insects/spongy-moth/agm/agm-joint-assessment/eng/1417104662171/1417104737098?chap=0#c4\">Examples of Findings from Recent Joint <abbr title=\"Lymantria albescens, Lymantria umbrosa, Lymantria postalba, Lymantria dispar japonica and Lymantria dispar asiatica\">AGM</abbr> Assessments</a>\r\n\r\n</li>\r\n\r\n<li>\r\n<a href=\"/plant-health/invasive-species/insects/spongy-moth/agm/agm-joint-assessment/eng/1417104662171/1417104737098?chap=0#c5\">Recommendations and Next Steps</a>\r\n\r\n</li>\r\n\r\n<li>\r\n<a href=\"/plant-health/invasive-species/insects/spongy-moth/agm/agm-joint-assessment/eng/1417104662171/1417104737098?chap=0#c6\">Conclusion</a>\r\n\r\n</li>\r\n\r\n</ul>\r\n\r\n\r\n<section>\r\n\r\n<h2 id=\"c1\">Executive Summary</h2>\r\n\r\n\r\n<div class=\"hrline\"></div>\r\n    \n\n<p>The <a href=\"http://actionplan.gc.ca/grfx/psec-scep/pdfs/bap_report-paf_rapport-eng-dec2011.pdf\">\"Beyond The Border Perimeter Security and Economic Competitiveness Action Plan\"\n<abbr title=\"Portable Document Format\">PDF</abbr> - 3.26 <abbr title=\"megabytes\">mb</abbr>)</a>\n</p>\n\n<p>To help protect the United States and Canada from risks to food safety or animal and plant health that could originate in third countries, the Canadian Food Inspection Agency (CFIA) and the United States Department of Agriculture (USDA) were tasked with developing assessment processes and joint site-visit plans for commodities of common interest from other countries and addressing how to incorporate the findings of these site-visits into risk-management decisions.  The two agencies were also tasked with development of a mechanism to share the results of assessments when conducted separately.</p>\n\n<p>The AGM (<i lang=\"la\">Lymantria albescens</i>, <i lang=\"la\">Lymantria umbrosa</i>, <i lang=\"la\">Lymantria postalba</i>, <i lang=\"la\">Lymantria dispar japonica</i> and <i lang=\"la\">Lymantria dispar asiatica</i>) program was adopted as a pilot project for the Beyond the Border (BtB) initiative.  <abbr title=\"Lymantria albescens, Lymantria umbrosa, Lymantria postalba, Lymantria dispar japonica and Lymantria dispar asiatica\">AGM</abbr> is a pest prevalent in Asia that could cause significant damage to the forestry, agriculture and environmental sectors if it establishes in North America.  Vessels arriving at Canadian or <abbr title=\"United States\">U.S.</abbr> ports from <abbr title=\"Lymantria albescens, Lymantria umbrosa, Lymantria postalba, Lymantria dispar japonica and Lymantria dispar asiatica\">AGM</abbr> infested countries are often found with <abbr title=\"Lymantria albescens, Lymantria umbrosa, Lymantria postalba, Lymantria dispar japonica and Lymantria dispar asiatica\">AGM</abbr> egg masses.  Under the <abbr title=\"Beyond the Border\">BtB</abbr> initiative, the <abbr title=\"Canadian Food Inspection Agency\">CFIA</abbr> and <abbr title=\"United States Department of Agriculture\">USDA</abbr>-<abbr title=\"Animal and Plant Health Inspection Service\">APHIS</abbr> have agreed to a common approach to management of the risk at origin by development of pre-departure vessel certification programs with the country of origin. The United States and Canada recognize the tri-lateral approach and certification as a key measure in preventing <abbr title=\"Lymantria albescens, Lymantria umbrosa, Lymantria postalba, Lymantria dispar japonica and Lymantria dispar asiatica\">AGM</abbr> introduction into North America.</p>\n\n<p>Task team members have studied and validated the joint assessment process used by the <abbr title=\"Canadian Food Inspection Agency\">CFIA</abbr> and <abbr title=\"Animal and Plant Health Inspection Service\">APHIS</abbr> in the tri-lateral approach for <abbr title=\"Lymantria albescens, Lymantria umbrosa, Lymantria postalba, Lymantria dispar japonica and Lymantria dispar asiatica\">AGM</abbr> issues involving regulated countries and affected stakeholders. The project included a review of how <abbr title=\"Animal and Plant Health Inspection Service\">APHIS</abbr> and the <abbr title=\"Canadian Food Inspection Agency\">CFIA</abbr> conduct joint assessment and coordination of responses to outstanding non-compliance issues with regulated countries and with domestic stakeholders. One of the key outcomes of the pilot project was identification of non-harmonized policies, procedures, or technical issues between the <abbr title=\"United States\">U.S.</abbr> and Canadian <abbr title=\"Lymantria albescens, Lymantria umbrosa, Lymantria postalba, Lymantria dispar japonica and Lymantria dispar asiatica\">AGM</abbr> programs and mechanisms to address these differences are being considered.  <abbr title=\"Canadian Food Inspection Agency\">CFIA</abbr> and <abbr title=\"Animal and Plant Health Inspection Service\">APHIS</abbr> continue to communicate, both formally and informally, to consider suggestions for improvements and improve the efficiency of the program.</p>\n\n<p>This report summarizes the experience with joint assessments for the <abbr title=\"Lymantria albescens, Lymantria umbrosa, Lymantria postalba, Lymantria dispar japonica and Lymantria dispar asiatica\">AGM</abbr> risk mitigation systems in regulated countries.  The report also discusses lessons learned for the development of best practices regarding conducting joint assessments and audits to address other offshore plant and animal health risks.  The study highlights the benefit of establishing and fostering strong, collaborative relationships between our two countries.  Increased information sharing and a close relationship have strengthened our ability to enhance the <abbr title=\"Lymantria albescens, Lymantria umbrosa, Lymantria postalba, Lymantria dispar japonica and Lymantria dispar asiatica\">AGM</abbr> pre-departure certification program and serves as a model for similar studies and initiatives.</p>\n\n\r\n\r\n\r\n</section>\r\n\r\n<section>\r\n\r\n<h2 id=\"c2\">Background</h2>\r\n\r\n\r\n<div class=\"hrline\"></div>\r\n    \n\n<p>AGM <i lang=\"la\">Lymantria dispar asiatica</i> Vukovskij, <i lang=\"la\"><abbr title=\"Lymantria\">L.</abbr> dispar japonica</i> (Motschulsky), <i lang=\"la\"><abbr title=\"Lymantria\">L.</abbr> albescens</i> Hori and Umeno, <i lang=\"la\"><abbr title=\"Lymantria\">L.</abbr> umbrosa</i> (Butler), and <i lang=\"la\"><abbr title=\"Lymantria\">L.</abbr> postalba</i> Inque are not present in North America and are considered to be quarantine pests in Canada and the United States The regulated areas for <abbr title=\"Lymantria albescens, Lymantria umbrosa, Lymantria postalba, Lymantria dispar japonica and Lymantria dispar asiatica\">AGM</abbr> currently include Far East Russia, Japan, South Korea and China. The larval stage of <abbr title=\"Lymantria albescens, Lymantria umbrosa, Lymantria postalba, Lymantria dispar japonica and Lymantria dispar asiatica\">AGM</abbr> feeds on over 500 known host plants including many deciduous and coniferous trees and is considered to be a serious threat to North American forests, horticulture and agriculture industries and to biodiversity. If introduced, <abbr title=\"Lymantria albescens, Lymantria umbrosa, Lymantria postalba, Lymantria dispar japonica and Lymantria dispar asiatica\">AGM</abbr> could cause significant damage to the North American plant resource base, commerce that relies on those plant resources and to market access.</p>\n\n<p>Given the potential negative impacts of <abbr title=\"Lymantria albescens, Lymantria umbrosa, Lymantria postalba, Lymantria dispar japonica and Lymantria dispar asiatica\">AGM</abbr> in North America, incursions of the pest in the past have required immediate and extensive eradication actions at significant cost. For example, major <abbr title=\"Lymantria albescens, Lymantria umbrosa, Lymantria postalba, Lymantria dispar japonica and Lymantria dispar asiatica\">AGM</abbr> outbreaks in the early 1990s in British Columbia and in the United States were linked to introductions of <abbr title=\"Lymantria albescens, Lymantria umbrosa, Lymantria postalba, Lymantria dispar japonica and Lymantria dispar asiatica\">AGM</abbr> from Asian ships and resulted in eradication programs costing Canada C$6 Million and the United States <abbr title=\"United States\">US</abbr>$9 Million. The certification of vessels as free from <abbr title=\"Lymantria albescens, Lymantria umbrosa, Lymantria postalba, Lymantria dispar japonica and Lymantria dispar asiatica\">AGM</abbr> upon departure from ports in regulated areas is recognized by both the United States and Canada as a key measure in preventing <abbr title=\"Lymantria albescens, Lymantria umbrosa, Lymantria postalba, Lymantria dispar japonica and Lymantria dispar asiatica\">AGM</abbr> introduction into North America.</p>\n\n<p>Canada and the <abbr title=\"United States\">U.S.</abbr> implemented phytosanitary measures for <abbr title=\"Lymantria albescens, Lymantria umbrosa, Lymantria postalba, Lymantria dispar japonica and Lymantria dispar asiatica\">AGM</abbr> on vessels from the Russian Far East in 1992 to mitigate risk while minimizing impacts to Asia-Pacific trade.  In 2007, under a North American Plant Protection Organization (NAPPO) initiative, <abbr title=\"Canadian Food Inspection Agency\">CFIA</abbr> and <abbr title=\"Animal and Plant Health Inspection Service\">APHIS</abbr> informed China, Japan and South Korea that phytosanitary measures for <abbr title=\"Lymantria albescens, Lymantria umbrosa, Lymantria postalba, Lymantria dispar japonica and Lymantria dispar asiatica\">AGM</abbr> on ships calling on their ports would be required.  <abbr title=\"Animal and Plant Health Inspection Service\">APHIS</abbr> and <abbr title=\"Canadian Food Inspection Agency\">CFIA</abbr> have met with officials in regulated countries to discuss pre-departure certification and surveillance programs, regulatory and policy issues, non-compliances and joint training.  The <abbr title=\"Canadian Food Inspection Agency\">CFIA</abbr> and <abbr title=\"Animal and Plant Health Inspection Service\">APHIS</abbr> requirement for pre-departure certification for vessels as per the North American Plant Protection Organization (NAPPO) standard was fully implemented in 2012.</p>\n\n<p>Currently, cyclical outbreaks of <abbr title=\"Lymantria albescens, Lymantria umbrosa, Lymantria postalba, Lymantria dispar japonica and Lymantria dispar asiatica\">AGM</abbr> in regulated countries are creating high risks for introduction through vessel traffic arriving in North America. During summer 2012, numerous detections of <abbr title=\"Lymantria albescens, Lymantria umbrosa, Lymantria postalba, Lymantria dispar japonica and Lymantria dispar asiatica\">AGM</abbr> were made on vessels and cargo originating from regulated ports in Korea, Japan and China. These detections lead to a loss of confidence in the pre-departure inspection and certification program, costly delays to stakeholders at North American ports and higher costs for risk mitigation in North America. This resulted in <abbr title=\"Canadian Food Inspection Agency\">CFIA</abbr> and <abbr title=\"Animal and Plant Health Inspection Service\">APHIS</abbr> actively engaging in a joint assessment to discuss issues and solution, determine plans of action in tri-lateral negotiations, and improve program objectives.</p>\n\n<p>Canada and the United States believe that a well-maintained <abbr title=\"Lymantria albescens, Lymantria umbrosa, Lymantria postalba, Lymantria dispar japonica and Lymantria dispar asiatica\">AGM</abbr> certification program at origin continues to be the most cost efficient and effective method to mitigate the risk of <abbr title=\"Lymantria albescens, Lymantria umbrosa, Lymantria postalba, Lymantria dispar japonica and Lymantria dispar asiatica\">AGM</abbr> incursions with minimal impact to trade. <abbr title=\"Animal and Plant Health Inspection Service\">APHIS</abbr> and <abbr title=\"Canadian Food Inspection Agency\">CFIA</abbr> continue to work with the National Plant Protection Organizations (NPPOs) of Korea, Japan, Russia and China to enhance the pre-departure inspection and certification program.</p>\n\n\r\n\r\n\r\n</section>\r\n\r\n<section>\r\n\r\n<h2 id=\"c3\">The Joint Assessment Process</h2>\r\n\r\n\r\n<div class=\"hrline\"></div>\r\n    \n\r\n<nav>\r\n<ul class=\"list-unstyled col-md-offset-1 mrgn-tp-md mrgn-bttm-md\">\r\n\r\n<li>\r\n<a href=\"#s1c3\"><abbr title=\"1\">I</abbr>.\tPrior to conducting joint assessment and trilateral negotiations</a>\r\n\r\n</li>\r\n\r\n<li>\r\n<a href=\"#s2c3\"><abbr title=\"2\">II</abbr>.\tQuestions to be considered in developing joint phytosanitary assessment approach</a>\r\n\r\n</li>\r\n\r\n<li>\r\n<a href=\"#s3c3\"><abbr title=\"3\">III</abbr>.\tQuestions and activities to be considered during the joint assessment and/or tri-lateral negotiations</a>\r\n\r\n</li>\r\n\r\n<li>\r\n<a href=\"#s4c3\"><abbr title=\"4\">IV</abbr>.\tCommunicating results of joint assessment</a>\r\n\r\n</li>\r\n\r\n</ul>\r\n</nav>\r\n\n<p>The <abbr title=\"Lymantria albescens, Lymantria umbrosa, Lymantria postalba, Lymantria dispar japonica and Lymantria dispar asiatica\">AGM</abbr> program was chosen as a pilot under the <abbr title=\"Beyond the Border\">BtB</abbr> initiative for the development of joint assessment processes for plant health as it is an established program with a long history of <abbr title=\"United States\">U.S.</abbr> and Canadian cooperation in the tri-lateral approach. This pilot project provided an opportunity to evaluate the strengths and challenges of the program, document the on-going assessment process and identify areas for program enhancements.  The experience with the development of this program from its inception to date could serve as guiding principles for future tri-lateral programs.</p>\n\n<p>The following are the key elements proposed for joint assessment based on the process prepared and developed during the <abbr title=\"Lymantria albescens, Lymantria umbrosa, Lymantria postalba, Lymantria dispar japonica and Lymantria dispar asiatica\">AGM</abbr> pilot study.  The elements were identified by <abbr title=\"Canadian Food Inspection Agency\">CFIA</abbr> and <abbr title=\"Animal and Plant Health Inspection Service\">APHIS</abbr> officials involved in their respective country's <abbr title=\"Lymantria albescens, Lymantria umbrosa, Lymantria postalba, Lymantria dispar japonica and Lymantria dispar asiatica\">AGM</abbr> program. Based on past experiences, current discussion, and future outlook the <abbr title=\"Lymantria albescens, Lymantria umbrosa, Lymantria postalba, Lymantria dispar japonica and Lymantria dispar asiatica\">AGM</abbr> working group believe the following elements could be generally applicable in conducting joint assessments for the mitigation of agricultural risks from third countries.</p>\n\n\r\n\r\n\r\n</section>\r\n\r\n<section>\r\n\r\n<h3 id=\"s1c3\"><abbr title=\"1\">I</abbr>.\tPrior to conducting joint assessment and trilateral negotiations</h3>\r\n\r\n<ol>\n<li>Teleconferences, as required, to ensure that agendas for meetings and site visits would provide what is jointly sought (<abbr title=\"that is to say\">i.e.</abbr> Prepare questions/evaluations for assessments)</li>\n\n<li>Ensure that Embassy contacts for Canada and United States in the country being assessed are engaged with the same information at the same time. It is preferable that the <abbr title=\"United States\">U.S</abbr>, and Canadian embassy contacts work together in delivering information and making arrangements with the third country's National Plant Protection Organization (NPPO).</li>\n\n<li>Canadian and <abbr title=\"United States\">U.S.</abbr> presentations and other material provided before, during and after meetings should be complementary, as is possible and practical. This avoids duplication, reinforces a common approach and allows focus on particular program details for the United States and Canada.</li>\n\n<li> Key areas of divergence in policy and programs need to be identified and addressed before meetings with third parties. For example, <abbr title=\"Canadian Food Inspection Agency\">CFIA</abbr> and <abbr title=\"Animal and Plant Health Inspection Service\">APHIS</abbr> should agree beforehand on responses to anticipated questions from the third party where we have divergent views or policies or legislative reach. From the outset, identify areas where there are differences in regulatory reach, legislation, policy, philosophy, <abbr title=\"et cetera\">etc.</abbr> This is particularly important when conducting an assessment on each other's behalf.  What may be acceptable to Canada may not be acceptable to the United States and vice-versa.</li>\n\n<li>Pre-meeting with Canadian and <abbr title=\"United States\">U.S.</abbr> Embassy staff</li>\n\n<li>Face-to-face review of agenda and itinerary to ensure that key points and gaps are identified and prepared</li>\n\n<li>Share roles  (<abbr title=\"that is to say\">i.e.</abbr> key points delivered as per expertise of delegates so as to ensure that all aspects of the joint message are covered and that full participation of delegates is facilitated)</li>\n</ol>\n\r\n\r\n</section>\r\n\r\n<section>\r\n\r\n<h3 id=\"s2c3\"><abbr title=\"2\">II</abbr>.\tQuestions to be considered in developing joint phytosanitary assessment approach</h3>\r\n\r\n<ol>\n<li>What are the goals of the off-shore program or system that we are seeking to clarify or strengthen?</li>\n\n<li>What are the overall requirements and are requirements common to both Canada and the United States - identify differences?</li>\n\n<li>How will we request the information that we need? (<abbr title=\"for example\">e.g.</abbr> letter, teleconference, video-conference, face-to-face meetings, site visits, embassy  meetings with <abbr title=\"National Plant Protection Organization\">NPPO</abbr>, <abbr title=\"et cetera\">etc.</abbr>)</li>\n\n<li>What are the indicators that the system is working? Are demonstrations or site visits required and if so has adequate time been allocated to schedule?</li>\n\n<li>How do we take mitigating measures when the system fails? (<abbr title=\"for example\">e.g.</abbr> timely communication with <abbr title=\"National Plant Protection Organization\">NPPO</abbr> and stakeholders, enhanced inspection at ports of entry, enhanced documentation, mandatory inspection reports from third country, timely and detailed feedback on instances of non-compliance back to <abbr title=\"National Plant Protection Organizations\">NPPOs</abbr>, timely communication between <abbr title=\"Animal and Plant Health Inspection Service\">APHIS</abbr> and the <abbr title=\"Canadian Food Inspection Agency\">CFIA</abbr> on non-compliances and issues, <abbr title=\"et cetera\">etc.</abbr>)</li>\n</ol>\n\r\n\r\n</section>\r\n\r\n<section>\r\n\r\n<h3 id=\"s3c3\"><abbr title=\"3\">III</abbr>.\tQuestions and activities to be considered during the joint assessment and/or tri-lateral negotiations</h3>\r\n\r\n<ol>\n<li>Information exchange including a summary of inspection results and non-compliance</li>\n\n<li>Discussion of barriers to compliance (<abbr title=\"for example\">e.g.</abbr> legislation, delayed departures, possibilities of re-infestation beyond control of <abbr title=\"National Plant Protection Organization\">NPPO</abbr>, <abbr title=\"et cetera\">etc.</abbr>)</li>\n\n<li>Discussion of training needs? How are inspectors trained and qualified - standardized training?</li>\n\n<li>Changes to requirements and/or implementation methodology and policy changes</li>\n\n<li>Discussion of mechanism for auditing of the certification bodies and significant findings from past audits.</li>\n\n<li>Knowledge gaps - are there opportunities for collaborative research? Are there training needs?</li>\n\n<li>Identify opportunities to engage with inspection and certification bodies, industry and scientists</li>\n\n<li>Determine appropriate communication formats, mechanisms and information/data sharing (<abbr title=\"for example\">e.g.</abbr> directly with <abbr title=\"National Plant Protection Organizations\">NPPOs</abbr>, through embassy, <abbr title=\"et cetera\">etc.</abbr>)</li>\n</ol>\n\r\n\r\n</section>\r\n\r\n<section>\r\n\r\n<h3 id=\"s4c3\"><abbr title=\"4\">IV</abbr>.\tCommunicating results of joint assessment</h3>\r\n\r\n<p>The findings of the joint audit should be summarized in a report by those conducting the assessment. The report should include:</p>\n\n<ul>\n<li>A list of participants and their contact information (for future communication and follow-up of issues)</li>\n\n<li>Documentation of successes and issues of concern</li>\n\n<li>Identification of follow-up actions, by whom and when</li>\n\n<li>Identification of areas of agreement and disagreement</li>\n\n<li>Identification of opportunities for further collaboration and cooperation</li>\n\n<li>Recommendations for the <abbr title=\"Canadian Food Inspection Agency\">CFIA</abbr>, <abbr title=\"United States Department of Agriculture\">USDA</abbr>, <abbr title=\"National Plant Protection Organizations\">NPPOs</abbr> and stakeholders</li>\n</ul>\n\r\n\r\n</section>\r\n\r\n<section>\r\n\r\n<h2 id=\"c4\">Examples of Findings from Recent Joint <abbr title=\"Lymantria albescens, Lymantria umbrosa, Lymantria postalba, Lymantria dispar japonica and Lymantria dispar asiatica\">AGM</abbr> Assessments</h2>\r\n\r\n\r\n<div class=\"hrline\"></div>\r\n    \n\n<p>In addition to the preceding general elements, several key findings were documented when conducting the joint <abbr title=\"Lymantria albescens, Lymantria umbrosa, Lymantria postalba, Lymantria dispar japonica and Lymantria dispar asiatica\">AGM</abbr> assessments.  It is expected that these specific findings will contribute to overall knowledge and program enhancement.</p>\n\n<ul>\n<li>Delayed departure following <abbr title=\"Lymantria albescens, Lymantria umbrosa, Lymantria postalba, Lymantria dispar japonica and Lymantria dispar asiatica\">AGM</abbr> inspection and certification at regulated ports is a common concern and potential factor in non-compliance.</li>\n\n<li>Timely communication/information flow between <abbr title=\"National Plant Protection Organizations\">NPPOs</abbr> was identified as a mechanism for improving follow-up actions on non-compliance (<abbr title=\"for example\">e.g.</abbr> more timely information on detections).</li>\n\n<li>Precise and detailed information on detections including location and photos is used by regulated areas to improve the <abbr title=\"Lymantria albescens, Lymantria umbrosa, Lymantria postalba, Lymantria dispar japonica and Lymantria dispar asiatica\">AGM</abbr> program at origin. Follow-up action is improved with more detailed information on detections.</li>\n\n<li>Ensuring that requirements and key messages are as consistent as possible increases the likelihood of success for this program. Canada and the United States. are harmonized on the regulated areas and vessel certification requirements from those areas.  (<abbr title=\"that is to say\">i.e.</abbr>, vessels are required to have a certificate during the high risk period and must be free of <abbr title=\"Lymantria albescens, Lymantria umbrosa, Lymantria postalba, Lymantria dispar japonica and Lymantria dispar asiatica\">AGM</abbr> upon arrival in North America).</li>\n</ul>\n\n\r\n\r\n\r\n</section>\r\n\r\n<section>\r\n\r\n<h2 id=\"c5\">Recommendations and Next Steps</h2>\r\n\r\n\r\n<div class=\"hrline\"></div>\r\n    \n\n<p>Consideration should be given to further harmonization, as appropriate, between <abbr title=\"United States\">U.S.</abbr> and Canadian processes at port of entry and to further refinement/streamlining of the program.   For example:</p>\n\n<ul>\n<li><abbr title=\"National Plant Protection Organizations\">NPPOs</abbr> of regulated areas should establish formal processes to ensure consistency among and within certification bodies (<abbr title=\"for example\">e.g.</abbr> standardized training, delivery standards, communication). This is expected to lead to increased consistency and increased compliance.</li>\n\n<li>Within a regulated country, minimizing the number of periods during which inspection and certification is required should be considered, where possible, for ease of implementation and increased compliance.</li>\n\n<li>Ongoing communication is critical to the success of the <abbr title=\"Lymantria albescens, Lymantria umbrosa, Lymantria postalba, Lymantria dispar japonica and Lymantria dispar asiatica\">AGM</abbr> vessel certification program.  Engagement with <abbr title=\"National Plant Protection Organizations\">NPPOs</abbr> in regulated areas must be combined with education and outreach to the shipping industry.  Joint memoranda to industry should continue as vessels often call on both Canada and the United States.</li>\n\n<li>Determine if current requirements mitigate the risk of pest introduction or if modifications are required. (<abbr title=\"for example\">E.g.</abbr> determine if the areas currently regulated for <abbr title=\"Lymantria albescens, Lymantria umbrosa, Lymantria postalba, Lymantria dispar japonica and Lymantria dispar asiatica\">AGM</abbr> and the specified periods are consistent with available literature and data for <abbr title=\"Lymantria albescens, Lymantria umbrosa, Lymantria postalba, Lymantria dispar japonica and Lymantria dispar asiatica\">AGM</abbr> detections.  Are the current boundaries and timeframes appropriate or should they be modified?  Any change to the areas regulated or the specified periods should be adopted by both the United States and Canada simultaneously with an appropriate transition period to ensure compliance).</li>\n\n<li>Determine if further harmonization between the <abbr title=\"United States\">U.S.</abbr> and Canadian processes can be achieved. (<abbr title=\"for example\">e.g.</abbr>, process at ports of arrival. Greater harmonization may lead to increased compliance.  Must be science based and consistent with legislation in place).</li>\n\n<li>The United States and Canada should continue to share information on pest pressure, survey data and detections as it becomes available.</li>\n</ul>\n\n\r\n\r\n\r\n</section>\r\n\r\n<section>\r\n\r\n<h2 id=\"c6\">Conclusion</h2>\r\n\r\n\r\n<div class=\"hrline\"></div>\r\n    \n\n<p>Other plant health joint assessment programs could significantly benefit from the experience with the <abbr title=\"Lymantria albescens, Lymantria umbrosa, Lymantria postalba, Lymantria dispar japonica and Lymantria dispar asiatica\">AGM</abbr> pre-departure certification program joint assessments. While establishment of a standard process contributes to the success of the <abbr title=\"Lymantria albescens, Lymantria umbrosa, Lymantria postalba, Lymantria dispar japonica and Lymantria dispar asiatica\">AGM</abbr> program, it is the collaborative relationship and approach between the United States and Canada that is the essential component. As a result of that partnership and common approach our position for engagement and negotiations with third countries is strengthened.</p>\n\n\r\n\r\n\r\n</section>\r\n\r\n\n\n\r\n        \r\n\r\n\r\n\r\n<div class=\"row\">\r\n \r\n\t\r\n\t\t\t\r\n\r\n<div class=\"col-xm-12 pagedetails container\">\r\n\t\t\t\t\r\n\r\n</div>\r\n\t\r\n</div>",
        "fr": "\r\n        \r\n        \n\n\r\n\r\n\r\n\r\n\r\n\r\n\r\n<h2>Table des mati\u00e8res</h2>\r\n<ul class=\"list-unstyled col-md-offset-1 mrgn-tp-md mrgn-bttm-md\">\r\n\r\n<li>\r\n<a href=\"/protection-des-vegetaux/especes-envahissantes/insectes/la-spongieuse/la-spongieuse-asiatique/evaluation-conjointe-sur-la-spongieuse-asiatique/fra/1417104662171/1417104737098?chap=0#c1\">Sommaire</a>\r\n\r\n</li>\r\n\r\n<li>\r\n<a href=\"/protection-des-vegetaux/especes-envahissantes/insectes/la-spongieuse/la-spongieuse-asiatique/evaluation-conjointe-sur-la-spongieuse-asiatique/fra/1417104662171/1417104737098?chap=0#c2\">Contexte</a>\r\n\r\n</li>\r\n\r\n<li>\r\n<a href=\"/protection-des-vegetaux/especes-envahissantes/insectes/la-spongieuse/la-spongieuse-asiatique/evaluation-conjointe-sur-la-spongieuse-asiatique/fra/1417104662171/1417104737098?chap=0#c3\">Le processus d'\u00e9valuation conjointe</a>\r\n\r\n<ul class=\"list-unstyled col-md-offset-1 mrgn-bttm-md\">\r\n\r\n<li>\r\n<a href=\"#s1c3\"><abbr title=\"1\">I</abbr>.\tAvant de mener l'\u00e9valuation conjointe et les n\u00e9gociations trilat\u00e9rales</a>\r\n\r\n</li>\r\n\r\n<li>\r\n<a href=\"#s2c3\"><abbr title=\"2\">II</abbr>.\tQuestions \u00e0 prendre en consid\u00e9ration pour d\u00e9velopper une approche en mati\u00e8re d'\u00e9valuation phytosanitaire conjointe</a>\r\n\r\n</li>\r\n\r\n<li>\r\n<a href=\"#s3c3\"><abbr title=\"3\">III</abbr>.\tQuestions et activit\u00e9s \u00e0 prendre en consid\u00e9ration pendant l'\u00e9valuation conjointe ou les n\u00e9gociations trilat\u00e9rales</a>\r\n\r\n</li>\r\n\r\n<li>\r\n<a href=\"#s4c3\"><abbr title=\"4\">IV</abbr>.\tCommuniquer les r\u00e9sultats de l'\u00e9valuation conjointe</a>\r\n\r\n</li>\r\n\r\n</ul>\r\n\r\n</li>\r\n\r\n<li>\r\n<a href=\"/protection-des-vegetaux/especes-envahissantes/insectes/la-spongieuse/la-spongieuse-asiatique/evaluation-conjointe-sur-la-spongieuse-asiatique/fra/1417104662171/1417104737098?chap=0#c4\">Exemples de conclusions tir\u00e9es de r\u00e9centes \u00e9valuations conjointes visant la spongieuse asiatique</a>\r\n\r\n</li>\r\n\r\n<li>\r\n<a href=\"/protection-des-vegetaux/especes-envahissantes/insectes/la-spongieuse/la-spongieuse-asiatique/evaluation-conjointe-sur-la-spongieuse-asiatique/fra/1417104662171/1417104737098?chap=0#c5\">Recommandations et prochaines \u00e9tapes</a>\r\n\r\n</li>\r\n\r\n<li>\r\n<a href=\"/protection-des-vegetaux/especes-envahissantes/insectes/la-spongieuse/la-spongieuse-asiatique/evaluation-conjointe-sur-la-spongieuse-asiatique/fra/1417104662171/1417104737098?chap=0#c6\">Conclusion</a>\r\n\r\n</li>\r\n\r\n</ul>\r\n\r\n\r\n<section>\r\n\r\n<h2 id=\"c1\">Sommaire</h2>\r\n\r\n\r\n<div class=\"hrline\"></div>\r\n    \n\n<p>Le plan d'action intitul\u00e9\n<a href=\"http://actionplan.gc.ca/grfx/psec-scep/pdfs/bap_report-paf_rapport-fra-dec2011.pdf\">\u00ab\u00a0Par-del\u00e0 la fronti\u00e8re\u00a0: une vision commune de la s\u00e9curit\u00e9 et de la comp\u00e9titivit\u00e9 \u00e9conomique \u00e0 l'int\u00e9rieur du p\u00e9rim\u00e8tre\u00a0\u00bb\n<abbr title=\"Format de document portable\">PDF</abbr> - 2,94 <abbr title=\"mega-octet\">mo</abbr>)</a>\n\n<i>Par-del\u00e0 la fronti\u00e8re</i>, et la responsabilit\u00e9 partag\u00e9e des \u00c9tats-Unis et du Canada pour soutenir, \u00e9laborer, mettre en \u0153uvre et surveiller les initiatives entreprises en vue d'atteindre les objectifs. L'une des priorit\u00e9s particuli\u00e8res est de r\u00e9pondre aux menaces \u00e9manant de l'ext\u00e9rieur des deux pays avant qu'elles n'arrivent au Canada ou aux \u00c9tats-Unis et ce, par la gestion des risques, des mesures conjointes et de la technologie.</p>\n\n<p>Pour prot\u00e9ger les \u00c9tats-Unis et le Canada contre des risques mena\u00e7ant la salubrit\u00e9 des aliments ou la sant\u00e9 des animaux et des plantes et pouvant provenir de pays tiers, l'Agence canadienne d'inspection des aliments (ACIA) et le d\u00e9partement de l'Agriculture des \u00c9tats-Unis (USDA) ont \u00e9t\u00e9 charg\u00e9s de d\u00e9velopper des processus d'\u00e9valuation et des plans conjoints de visites sur place pour les marchandises d'int\u00e9r\u00eat commun provenant d'autres pays et d'examiner comment il serait possible d'inclure les conclusions de ces visites sur place dans les d\u00e9cisions li\u00e9es \u00e0 la gestion des risques. Les deux organismes ont \u00e9galement \u00e9t\u00e9 charg\u00e9s de d\u00e9velopper un m\u00e9canisme qui permettrait de communiquer les r\u00e9sultats des \u00e9valuations lorsque ces derni\u00e8res sont r\u00e9alis\u00e9es de fa\u00e7on s\u00e9par\u00e9e.</p>\n\n<p>Le programme relatif \u00e0 la spongieuse asiatique a \u00e9t\u00e9 adopt\u00e9 en tant que projet pilote de l'initiative Par-del\u00e0 la fronti\u00e8re. La spongieuse asiatique est un organisme nuisible courant en Asie qui pourrait causer des dommages consid\u00e9rables dans les secteurs de la foresterie, de l'agriculture et de l'environnement si elle s'\u00e9tablit en Am\u00e9rique du Nord. On trouve souvent des masses d'\u0153ufs de spongieuse asiatique sur les navires arrivant aux ports canadiens ou am\u00e9ricains et provenant de pays infest\u00e9s par la spongieuse asiatique. Dans le cadre de l'initiative Par-del\u00e0 la fronti\u00e8re, l'<abbr title=\"Agence canadienne d'inspection des aliments\">ACIA</abbr> et l'<span lang=\"en\">Animal and Plant Health Inspection Service</span> du d\u00e9partement de l'Agriculture des \u00c9tats-Unis (APHIS-USDA) se sont accord\u00e9s sur une approche commune en mati\u00e8re de gestion des risques \u00e0 l'origine par l'\u00e9laboration d'un programme de certification pr\u00e9-d\u00e9part des navires avec le pays d'origine. Les \u00c9tats-Unis et le Canada reconnaissent l'approche trilat\u00e9rale et la certification en tant que mesure cl\u00e9 pour pr\u00e9venir l'introduction en Am\u00e9rique du Nord de la spongieuse asiatique.</p>\n\n<p>Les membres du groupe de travail ont \u00e9tudi\u00e9 et valid\u00e9 le processus d'\u00e9valuation conjointe utilis\u00e9 par l'<abbr title=\"Agence canadienne d'inspection des aliments\">ACIA</abbr> et l'<abbr title=\"Animal and Plant Health Inspection Service\" lang=\"en\">APHIS</abbr> dans le cadre de l'approche trilat\u00e9rale pour r\u00e9pondre aux questions li\u00e9es \u00e0 la spongieuse asiatique qui impliquent des pays r\u00e9glement\u00e9s et les intervenants concern\u00e9s. Le projet incluait un examen des m\u00e9thodes utilis\u00e9es par l'<abbr title=\"Animal and Plant Health Inspection Service\" lang=\"en\">APHIS</abbr> et l'<abbr title=\"Agence canadienne d'inspection des aliments\">ACIA</abbr> pour r\u00e9aliser les \u00e9valuations conjointes et la coordination des interventions ainsi que des questions en suspens non li\u00e9es \u00e0 la conformit\u00e9 avec les pays r\u00e9glement\u00e9s et les intervenants \u00e0 l'\u00e9chelle nationale. L'un des r\u00e9sultats cl\u00e9s de ce projet pilote a \u00e9t\u00e9 le recensement des politiques, des proc\u00e9dures ou des questions techniques manquant d'harmonisation entre les \u00c9tats-Unis et le Canada en ce qui concerne leurs programmes visant la spongieuse asiatique; des m\u00e9canismes visant \u00e0 corriger ces \u00e9carts sont \u00e0 l'\u00e9tude. L'<abbr title=\"Agence canadienne d'inspection des aliments\">ACIA</abbr> et l'<abbr title=\"Animal and Plant Health Inspection Service\" lang=\"en\">APHIS</abbr> continuent de communiquer, de fa\u00e7on formelle et informelle, afin d'examiner les suggestions d'am\u00e9lioration et d'am\u00e9liorer l'efficience du programme.</p>\n\n<p>Le pr\u00e9sent rapport r\u00e9sume l'exp\u00e9rience acquise dans le cadre des \u00e9valuations conjointes des syst\u00e8mes d'att\u00e9nuation des risques li\u00e9s \u00e0 la spongieuse asiatique dans les pays r\u00e9glement\u00e9s. Le rapport pr\u00e9sente aussi les le\u00e7ons tir\u00e9es pour \u00e9laborer des pratiques exemplaires qui permettraient d'orienter la r\u00e9alisation d'\u00e9valuations et de v\u00e9rifications conjointes pour d'autres risques pour la sant\u00e9 animale et v\u00e9g\u00e9tale \u00e9manant de l'\u00e9tranger. L'\u00e9tude met en relief les avantages qui d\u00e9coulent de l'\u00e9tablissement et de la promotion de solides relations de collaboration entre nos deux pays. L'\u00e9change accru de renseignements et la relation \u00e9troite entre les deux pays ont permis de renforcer notre capacit\u00e9 \u00e0 am\u00e9liorer le programme de certification pr\u00e9-d\u00e9part visant la spongieuse asiatique, ce qui servira de mod\u00e8le pour des \u00e9tudes et des initiatives similaires.</p>\n\n\r\n\r\n\r\n</section>\r\n\r\n<section>\r\n\r\n<h2 id=\"c2\">Contexte</h2>\r\n\r\n\r\n<div class=\"hrline\"></div>\r\n    \n\n<p>Les vari\u00e9t\u00e9s de spongieuse asiatique <i lang=\"la\">Lymantria dispar asiatica</i> Vukovskij, <i lang=\"la\"><abbr title=\"Lymantria\">L.</abbr> dispar japonica</i> (Motschulsky), <i lang=\"la\"><abbr title=\"Lymantria\">L.</abbr> albescens</i> Hori et Umeno, <i lang=\"la\"><abbr title=\"Lymantria\">L.</abbr> umbrosa</i> (Butler), et <i lang=\"la\"><abbr title=\"Lymantria\">L.</abbr> postalba</i> Inque ne sont pas pr\u00e9sentes en Am\u00e9rique du Nord et sont consid\u00e9r\u00e9es comme des ravageurs de quarantaine au Canada et aux \u00c9tats-Unis. Les r\u00e9gions actuellement r\u00e9glement\u00e9es pour la spongieuse asiatique incluent l'Extr\u00eame-Orient sovi\u00e9tique, le Japon, la Cor\u00e9e du Sud et la Chine. Les larves de la spongieuse asiatique se nourrissent de plus de 500 plantes h\u00f4tes connues, y compris de nombreuses esp\u00e8ces d'arbres \u00e0 feuilles caduques et de conif\u00e8res et elles sont consid\u00e9r\u00e9es comme une menace grave pour les for\u00eats, les industries horticole et agricole et la diversit\u00e9 biologique d'Am\u00e9rique du Nord. En cas d'introduction en Am\u00e9rique du Nord, la spongieuse asiatique pourrait avoir d'importants impacts n\u00e9gatifs sur les ressources v\u00e9g\u00e9tales, le commerce li\u00e9 \u00e0 ces ressources et l'acc\u00e8s aux march\u00e9s.</p>\n\n<p>Compte tenu des effets n\u00e9fastes potentiels de la spongieuse asiatique en Am\u00e9rique du Nord, des cas ant\u00e9rieurs d'incursion de ce parasite ont n\u00e9cessit\u00e9 la prise de mesures d'\u00e9radication imm\u00e9diates et massives, \u00e0 un co\u00fbt important. Par exemple, d'importantes infestations de la spongieuse asiatique au d\u00e9but des ann\u00e9es 1990, en Colombie-Britannique et aux \u00c9tats-Unis, ont \u00e9t\u00e9 attribu\u00e9es \u00e0 l'introduction de la spongieuse par des navires asiatiques et ont n\u00e9cessit\u00e9 la mise en \u0153uvre de programmes d'\u00e9radication qui ont co\u00fbt\u00e9 au Canada 6 millions de dollars canadiens et aux \u00c9tats-Unis, 9 millions de dollars am\u00e9ricains. La certification des navires comme \u00e9tant exempts de la spongieuse asiatique \u00e0 leur d\u00e9part dans des ports de r\u00e9gions r\u00e9glement\u00e9es est reconnue par les \u00c9tats-Unis et le Canada comme une mesure cl\u00e9 pour pr\u00e9venir l'introduction de la spongieuse asiatique en Am\u00e9rique du Nord.</p>\n\n<p>Le Canada et les \u00c9tats-Unis ont mis en place des mesures phytosanitaires pour la spongieuse asiatique sur les navires de l'Extr\u00eame-Orient sovi\u00e9tique en 1992 afin d'att\u00e9nuer les risques tout en r\u00e9duisant au minimum les r\u00e9percussions sur les \u00e9changes commerciaux de l'Asie-Pacifique. En 2007, dans le cadre d'une initiative de l'Organisation nord-am\u00e9ricaine pour la protection des plantes (NAPPO), l'<abbr title=\"Agence canadienne d'inspection des aliments\">ACIA</abbr> et l'<abbr title=\"Animal and Plant Health Inspection Service\" lang=\"en\">APHIS</abbr> ont inform\u00e9 la Chine, le Japon et la Cor\u00e9e du Sud que des mesures phytosanitaires devraient \u00eatre prises pour la spongieuse asiatique sur des navires faisant escale dans leurs ports. L'<abbr title=\"Animal and Plant Health Inspection Service\" lang=\"en\">APHIS</abbr> et l'<abbr title=\"Agence canadienne d'inspection des aliments\">ACIA</abbr> ont rencontr\u00e9 des repr\u00e9sentants des pays r\u00e9glement\u00e9s afin de discuter des programmes de certification pr\u00e9-d\u00e9part et de surveillance, des questions r\u00e9glementaires et politiques, des cas de non-conformit\u00e9 et de la formation conjointe. L'exigence de l'<abbr title=\"Agence canadienne d'inspection des aliments\">ACIA</abbr> et de l'<abbr title=\"Animal and Plant Health Inspection Service\" lang=\"en\">APHIS</abbr> concernant la certification pr\u00e9-d\u00e9part pour les navires conform\u00e9ment \u00e0 la norme de l'Organisation nord-am\u00e9ricaine pour la protection des plantes (NAPPO) a \u00e9t\u00e9 pleinement appliqu\u00e9e en 2012.</p>\n\n<p>\u00c0 l'heure actuelle, des infestations cycliques de la spongieuse asiatique dans des pays r\u00e9glement\u00e9s cr\u00e9ent des risques \u00e9lev\u00e9s d'introduction par le trafic des navires arrivant en Am\u00e9rique du Nord. Au cours de l'\u00e9t\u00e9 2012, de nombreuses d\u00e9tections de spongieuses asiatiques ont \u00e9t\u00e9 faites sur des navires provenant de ports r\u00e9glement\u00e9s en Cor\u00e9e, au Japon et en Chine. Ces d\u00e9tections se traduisent par une perte de confiance \u00e0 l'\u00e9gard du programme d'inspection et de certification pr\u00e9-d\u00e9part, par des retards co\u00fbteux pour les intervenants aux ports d'Am\u00e9rique du Nord et par une augmentation des co\u00fbts pour l'att\u00e9nuation des risques en Am\u00e9rique du Nord. En cons\u00e9quence, l'<abbr title=\"Agence canadienne d'inspection des aliments\">ACIA</abbr> et l'<abbr title=\"Animal and Plant Health Inspection Service\" lang=\"en\">APHIS</abbr> ont pris activement part \u00e0 une \u00e9valuation conjointe afin de discuter de ces probl\u00e9matiques et des solutions possibles, de d\u00e9terminer des plans d'action dans le cadre des n\u00e9gociations trilat\u00e9rales et d'am\u00e9liorer les objectifs du programme.</p>\n\n<p>Le Canada et les \u00c9tats-Unis sont convaincus qu'un programme de certification li\u00e9 \u00e0 la spongieuse asiatique bien maintenu \u00e0 l'origine continue d'\u00eatre la m\u00e9thode la plus rentable et la plus efficace pour att\u00e9nuer le risque d'incursion de la spongieuse asiatique tout en limitant les r\u00e9percussions sur les \u00e9changes commerciaux. L'<abbr title=\"Animal and Plant Health Inspection Service\" lang=\"en\">APHIS</abbr> et l'<abbr title=\"Agence canadienne d'inspection des aliments\">ACIA</abbr> continuent de travailler avec les organisations nationales de protection des v\u00e9g\u00e9taux (ONPV) de la Cor\u00e9e, du Japon, de la Russie et de la Chine pour am\u00e9liorer le programme d'inspection et de certification pr\u00e9-d\u00e9part.</p>\n\n\r\n\r\n\r\n</section>\r\n\r\n<section>\r\n\r\n<h2 id=\"c3\">Le processus d'\u00e9valuation conjointe</h2>\r\n\r\n\r\n<div class=\"hrline\"></div>\r\n    \n\r\n<nav>\r\n<ul class=\"list-unstyled col-md-offset-1 mrgn-tp-md mrgn-bttm-md\">\r\n\r\n<li>\r\n<a href=\"#s1c3\"><abbr title=\"1\">I</abbr>.\tAvant de mener l'\u00e9valuation conjointe et les n\u00e9gociations trilat\u00e9rales</a>\r\n\r\n</li>\r\n\r\n<li>\r\n<a href=\"#s2c3\"><abbr title=\"2\">II</abbr>.\tQuestions \u00e0 prendre en consid\u00e9ration pour d\u00e9velopper une approche en mati\u00e8re d'\u00e9valuation phytosanitaire conjointe</a>\r\n\r\n</li>\r\n\r\n<li>\r\n<a href=\"#s3c3\"><abbr title=\"3\">III</abbr>.\tQuestions et activit\u00e9s \u00e0 prendre en consid\u00e9ration pendant l'\u00e9valuation conjointe ou les n\u00e9gociations trilat\u00e9rales</a>\r\n\r\n</li>\r\n\r\n<li>\r\n<a href=\"#s4c3\"><abbr title=\"4\">IV</abbr>.\tCommuniquer les r\u00e9sultats de l'\u00e9valuation conjointe</a>\r\n\r\n</li>\r\n\r\n</ul>\r\n</nav>\r\n\n<p>Le programme de la spongieuse asiatique a \u00e9t\u00e9 choisi comme projet pilote dans le cadre de l'initiative Par-del\u00e0 la fronti\u00e8re pour l'\u00e9laboration de processus d'\u00e9valuation conjointe pour la sant\u00e9 v\u00e9g\u00e9tale \u00e9tant donn\u00e9 qu'il s'agit d'un programme bien \u00e9tabli comportant un long historique de collaboration entre les \u00c9tats-Unis et le Canada dans le cadre d'une approche trilat\u00e9rale. Ce projet pilote a fourni l'occasion d'\u00e9valuer les forces et les d\u00e9fis du programme, de documenter le processus d'\u00e9valuation continu et de cerner les aspects du programme \u00e0 am\u00e9liorer. L'exp\u00e9rience quant au d\u00e9veloppement de ce programme depuis sa cr\u00e9ation jusqu'\u00e0 ce jour pourrait servir de principes directeurs pour les futurs programmes trilat\u00e9raux.</p>\n\n<p>Voici les principaux \u00e9l\u00e9ments propos\u00e9s pour une \u00e9valuation conjointe fond\u00e9e sur le processus pr\u00e9par\u00e9 et \u00e9labor\u00e9 au cours de l'\u00e9tude pilote visant la spongieuse asiatique. Ces \u00e9l\u00e9ments ont \u00e9t\u00e9 d\u00e9termin\u00e9s par des repr\u00e9sentants de l'<abbr title=\"Agence canadienne d'inspection des aliments\">ACIA</abbr> et de l'<abbr title=\"Animal and Plant Health Inspection Service\" lang=\"en\">APHIS</abbr> prenant part au programme de la spongieuse asiatique de leur pays respectif. Compte tenu des exp\u00e9riences pass\u00e9es, de la discussion en cours et des perspectives futures, le groupe de travail sur la spongieuse asiatique estime que les \u00e9l\u00e9ments suivants pourraient \u00eatre appliqu\u00e9s de fa\u00e7on g\u00e9n\u00e9rale pour r\u00e9aliser des \u00e9valuations conjointes visant l'att\u00e9nuation des risques agricoles \u00e9manant de pays tiers.</p>\n\n\r\n\r\n\r\n</section>\r\n\r\n<section>\r\n\r\n<h3 id=\"s1c3\"><abbr title=\"1\">I</abbr>.\tAvant de mener l'\u00e9valuation conjointe et les n\u00e9gociations trilat\u00e9rales</h3>\r\n\r\n<ol>\n<li>Organiser des t\u00e9l\u00e9conf\u00e9rences, au besoin, pour veiller \u00e0 ce que les ordres du jour des r\u00e9unions et des visites sur place permettent d'obtenir ce que l'on recherche conjointement (<abbr title=\"c'est-\u00e0-dire\">c.-\u00e0-d.</abbr> pr\u00e9parer des questions pour les \u00e9valuations).</li>\n\n<li>S'assurer que les personnes-ressources des ambassades canadienne et am\u00e9ricaine du pays \u00e9valu\u00e9 prennent part au processus et re\u00e7oivent la m\u00eame information, au m\u00eame moment. Il est pr\u00e9f\u00e9rable que les personnes-ressources des ambassades am\u00e9ricaine et canadienne travaillent ensemble pour fournir l'information et prendre les dispositions n\u00e9cessaires avec l'organisation nationale de la protection des v\u00e9g\u00e9taux (ONPV).</li>\n\n<li>Les pr\u00e9sentations et tout autre document fourni par le Canada et les \u00c9tats-Unis avant, pendant et apr\u00e8s les r\u00e9unions devraient \u00eatre compl\u00e9mentaires, dans la mesure du possible. Cela \u00e9vite les r\u00e9p\u00e9titions, renforce une approche commune et permet de mettre l'accent sur les renseignements d'un programme particulier pour les \u00c9tats-Unis et le Canada.</li>\n\n<li> Les principaux points de divergence au niveau des politiques et des programmes doivent \u00eatre cern\u00e9s et abord\u00e9s avant les rencontres avec des pays tiers. Par exemple, l'<abbr title=\"Agence canadienne d'inspection des aliments\">ACIA</abbr> et l'<abbr title=\"Animal and Plant Health Inspection Service\" lang=\"en\">APHIS</abbr> devraient convenir au pr\u00e9alable des r\u00e9ponses \u00e0 donner aux questions anticip\u00e9es d'un tiers pour lesquelles les deux pays ont des opinions, des politiques ou des port\u00e9es l\u00e9gislatives divergentes. D\u00e8s le d\u00e9part, d\u00e9celer toute diff\u00e9rence dans la port\u00e9e de la r\u00e9glementation, dans la l\u00e9gislation, les politiques, la philosophie, <abbr title=\"et cetera\">etc.</abbr> Cette mesure est particuli\u00e8rement importante lorsque l'on effectue une \u00e9valuation au nom de l'autre partie. Ce qui pourrait \u00eatre acceptable au Canada pourrait ne pas l'\u00eatre aux \u00c9tats-Unis et vice-versa.</li>\n\n<li>Tenir une r\u00e9union pr\u00e9alable avec le personnel des ambassades canadienne et am\u00e9ricaine.</li>\n\n<li>Effectuer un examen en personne de l'ordre du jour et de l'itin\u00e9raire pour veiller \u00e0 ce que l'on cerne les lacunes et points cl\u00e9s et que l'on s'y pr\u00e9pare.</li>\n\n<li>Partager les r\u00f4les (<abbr title=\"c'est-\u00e0-dire\">c.-\u00e0-d.</abbr> les points essentiels sont prononc\u00e9s en fonction de l'expertise des d\u00e9l\u00e9gu\u00e9s pour veiller \u00e0 ce que l'on aborde tous les aspects du message commun et \u00e0 ce que l'on assure la pleine participation des d\u00e9l\u00e9gu\u00e9s).</li>\n</ol>\n\r\n\r\n</section>\r\n\r\n<section>\r\n\r\n<h3 id=\"s2c3\"><abbr title=\"2\">II</abbr>.\tQuestions \u00e0 prendre en consid\u00e9ration pour d\u00e9velopper une approche en mati\u00e8re d'\u00e9valuation phytosanitaire conjointe</h3>\r\n\r\n<ol>\n<li>Quels sont les objectifs du programme ou syst\u00e8me \u00e9tranger que nous souhaitons clarifier ou renforcer?</li>\n\n<li>Quelles sont les exigences globales et ces exigences sont-elles communes au Canada et aux \u00c9tats-Unis? Quelles sont les diff\u00e9rences?</li>\n\n<li>Comment demanderons-nous l'information dont nous avons besoin? (<abbr title=\"par exemple\">p. ex.</abbr> lettre, t\u00e9l\u00e9conf\u00e9rence, vid\u00e9oconf\u00e9rence, r\u00e9unions en personne, visites sur place, rencontres entre les ambassades et les <abbr title=\"Organisations nationales de la protection des v\u00e9g\u00e9taux\">ONPV</abbr>, <abbr title=\"et cetera\">etc.</abbr>).</li>\n\n<li>Quels sont les indicateurs permettant de d\u00e9terminer que le syst\u00e8me fonctionne? Des d\u00e9monstrations ou des visites sur place sont-elles requises et, si c'est le cas, y a-t-on accord\u00e9 un temps suffisant quant au calendrier?</li>\n\n<li>Comment peut-on prendre des mesures d'att\u00e9nuation lorsque le syst\u00e8me ne r\u00e9pond pas aux attentes? (<abbr title=\"par exemple\">p. ex.</abbr> une communication en temps opportun avec l'<abbr title=\"Organisations nationales de la protection des v\u00e9g\u00e9taux\">ONPV</abbr> et les intervenants, une inspection renforc\u00e9e aux ports d'entr\u00e9e, une documentation accrue, des rapports d'inspection obligatoires de la part des pays tiers, l'offre d'une r\u00e9troaction opportune et d\u00e9taill\u00e9e aux <abbr title=\"Organisations nationales de la protection des v\u00e9g\u00e9taux\">ONPV</abbr> concernant les cas de non-conformit\u00e9, une communication opportune entre l'<abbr title=\"Animal and Plant Health Inspection Service\" lang=\"en\">APHIS</abbr> et l'<abbr title=\"Agence canadienne d'inspection des aliments\">ACIA</abbr> concernant les cas de non-conformit\u00e9 et autres questions, <abbr title=\"et cetera\">etc.</abbr>).</li>\n</ol>\n\r\n\r\n</section>\r\n\r\n<section>\r\n\r\n<h3 id=\"s3c3\"><abbr title=\"3\">III</abbr>.\tQuestions et activit\u00e9s \u00e0 prendre en consid\u00e9ration pendant l'\u00e9valuation conjointe ou les n\u00e9gociations trilat\u00e9rales</h3>\r\n\r\n<ol>\n<li>\u00c9changer de l'information, y compris un sommaire des r\u00e9sultats d'inspection et des cas de non-conformit\u00e9.</li>\n\n<li>Discuter des obstacles \u00e0 la conformit\u00e9 (<abbr title=\"par exemple\">p. ex.</abbr> la l\u00e9gislation, les d\u00e9parts retard\u00e9s, les possibilit\u00e9s de nouvelle infestation au-del\u00e0 du contr\u00f4le des <abbr title=\"Organisations nationales de la protection des v\u00e9g\u00e9taux\">ONPV</abbr>, <abbr title=\"et cetera\">etc.</abbr>).</li>\n\n<li>Discuter des besoins en mati\u00e8re de formation. Comment les inspecteurs sont-ils form\u00e9s et qualifi\u00e9s? La formation est-elle uniformis\u00e9e?</li>\n\n<li>Discuter des changements apport\u00e9s aux exigences ou \u00e0 la m\u00e9thodologie de mise en \u0153uvre et aux politiques.</li>\n\n<li>Discuter du m\u00e9canisme en place pour v\u00e9rifier les organismes de certification et des constatations importantes de v\u00e9rifications ant\u00e9rieures.</li>\n\n<li>Conna\u00eetre les lacunes. Existe-t-il des occasions de mener des recherches en collaboration? Y a-t-il des besoins en mati\u00e8re de formation?</li>\n\n<li>Cerner les occasions de dialoguer avec les organismes d'inspection et de certification, avec des intervenants de l'industrie et avec des scientifiques.</li>\n\n<li>D\u00e9terminer les formats et les m\u00e9canismes de communication et de partage de l'information et des donn\u00e9es appropri\u00e9s (<abbr title=\"par exemple\">p. ex.</abbr> directement avec les <abbr title=\"Organisations nationales de la protection des v\u00e9g\u00e9taux\">ONPV</abbr>, par l'entremise des ambassades, <abbr title=\"et cetera\">etc.</abbr>).</li>\n</ol>\n\r\n\r\n</section>\r\n\r\n<section>\r\n\r\n<h3 id=\"s4c3\"><abbr title=\"4\">IV</abbr>.\tCommuniquer les r\u00e9sultats de l'\u00e9valuation conjointe</h3>\r\n\r\n<p>Les conclusions de la v\u00e9rification conjointe devraient \u00eatre r\u00e9sum\u00e9es dans un rapport par les personnes qui effectuent l'\u00e9valuation. Le rapport devrait inclure les \u00e9l\u00e9ments suivants\u00a0:</p>\n\n<ol>\n<li>Une liste des participants et de leurs coordonn\u00e9es (aux fins de communication future et de suivi sur certaines questions).</li>\n\n<li>Une documentation des cas de r\u00e9ussite et des sujets de pr\u00e9occupation.</li>\n\n<li>La d\u00e9termination des mesures de suivi, des personnes qui en sont responsables et de leur \u00e9ch\u00e9ancier.</li>\n\n<li>La d\u00e9termination des points d'accord et de d\u00e9saccord.</li>\n\n<li>Le recensement des possibilit\u00e9s de collaboration et de coop\u00e9ration ult\u00e9rieure.</li>\n\n<li>Les recommandations pour l'<abbr title=\"Agence canadienne d'inspection des aliments\">ACIA</abbr>, l'<abbr title=\"D\u00e9partement de l'Agriculture des \u00c9tats-Unis\">USDA</abbr>, les <abbr title=\"Organisations nationales de la protection des v\u00e9g\u00e9taux\">ONPV</abbr> et les intervenants.</li>\n</ol>\n\r\n\r\n</section>\r\n\r\n<section>\r\n\r\n<h2 id=\"c4\">Exemples de conclusions tir\u00e9es de r\u00e9centes \u00e9valuations conjointes visant la spongieuse asiatique</h2>\r\n\r\n\r\n<div class=\"hrline\"></div>\r\n    \n\n<p>En plus des \u00e9l\u00e9ments g\u00e9n\u00e9raux cit\u00e9s plus haut, plusieurs conclusions importantes ont \u00e9t\u00e9 document\u00e9es lors de la r\u00e9alisation des \u00e9valuations conjointes visant la spongieuse asiatique. Ces conclusions particuli\u00e8res devraient contribuer \u00e0 l'am\u00e9lioration des connaissances et du programme.</p>\n\n<ul>\n<li>Le retard des d\u00e9parts \u00e0 la suite d'une inspection et d'un processus de certification de la spongieuse asiatique aux ports r\u00e9glement\u00e9s est une pr\u00e9occupation courante et un facteur potentiel de la non-conformit\u00e9.</li>\n\n<li>Une communication ou transmission de l'information en temps opportun entre les <abbr title=\"Organisations nationales de la protection des v\u00e9g\u00e9taux\">ONPV</abbr> est reconnue comme \u00e9tant le m\u00e9canisme permettant d'am\u00e9liorer la prise de mesures de suivi qui s'impose en cas de non-conformit\u00e9 (<abbr title=\"par exemple\">p. ex.</abbr> une information plus opportune concernant les d\u00e9tections).</li>\n\n<li>Les r\u00e9gions r\u00e9glement\u00e9es se servent de renseignements pr\u00e9cis et d\u00e9taill\u00e9s concernant les d\u00e9tections, y compris le lieu et des photos, pour am\u00e9liorer le programme de la spongieuse asiatique \u00e0 l'origine. Des renseignements plus d\u00e9taill\u00e9s sur les d\u00e9tections permettent de prendre de meilleures mesures de suivi.</li>\n\n<li>Veiller \u00e0 ce que les exigences et les messages cl\u00e9s soient aussi coh\u00e9rents que possible peut permettre d'augmenter les probabilit\u00e9s de r\u00e9ussite de ce programme. Le Canada et les \u00c9tats-Unis s'accordent sur les r\u00e9gions r\u00e9glement\u00e9es et les exigences de certification des navires provenant de ces r\u00e9gions (<abbr title=\"c'est-\u00e0-dire\">c.-\u00e0-d.</abbr>, les navires doivent avoir un certificat pendant la p\u00e9riode de risque et doivent \u00eatre exempts de spongieuses asiatiques \u00e0 leur arriv\u00e9e en Am\u00e9rique du Nord).</li>\n</ul>\n\n\r\n\r\n\r\n</section>\r\n\r\n<section>\r\n\r\n<h2 id=\"c5\">Recommandations et prochaines \u00e9tapes</h2>\r\n\r\n\r\n<div class=\"hrline\"></div>\r\n    \n\n<p>Il faudrait examiner la possibilit\u00e9 de renforcer l'harmonisation, au besoin, entre les processus am\u00e9ricains et canadiens aux ports d'entr\u00e9e et d'am\u00e9liorer et de simplifier davantage le programme. Par exemple\u00a0:</p>\n\n<ul>\n<li>Les <abbr title=\"Organisations nationales de la protection des v\u00e9g\u00e9taux\">ONPV</abbr> des r\u00e9gions r\u00e9glement\u00e9es devraient \u00e9tablir des processus officiels pour assurer la coh\u00e9rence entre les organismes de certification et au sein de ces derniers (<abbr title=\"par exemple\">p. ex.</abbr> une formation, des normes de prestation et des communications uniformis\u00e9es). Cela devrait donner lieu \u00e0 une plus grande coh\u00e9rence et conformit\u00e9.</li>\n\n<li>Au sein d'un pays r\u00e9glement\u00e9, il faudrait examiner la possibilit\u00e9 de r\u00e9duire au minimum le nombre de p\u00e9riodes durant lesquelles l'inspection et certification sont requises, si cela est possible, pour faciliter la mise en \u0153uvre du programme et augmenter la conformit\u00e9.</li>\n\n<li>Une communication continue est essentielle au succ\u00e8s du programme de certification des navires visant la spongieuse asiatique. Les activit\u00e9s d'engagement men\u00e9es aupr\u00e8s des <abbr title=\"Organisations nationales de la protection des v\u00e9g\u00e9taux\">ONPV</abbr> dans les r\u00e9gions r\u00e9glement\u00e9es doivent aller de pair avec des programmes d'\u00e9ducation et de sensibilisation aupr\u00e8s de l'industrie du transport maritime. La publication de m\u00e9morandums conjoints \u00e0 l'intention de l'industrie devrait se poursuivre puisqu'il arrive souvent que des navires fassent escale \u00e0 la fois au Canada et aux \u00c9tats-Unis.</li>\n\n<li>D\u00e9terminer si les exigences actuelles permettent d'att\u00e9nuer le risque d'introduction d'organismes nuisibles ou si des modifications sont requises (<abbr title=\"Par exemple\">P. ex.</abbr>, d\u00e9terminer si les r\u00e9gions actuellement r\u00e9glement\u00e9es pour la spongieuse asiatique et si les p\u00e9riodes sp\u00e9cifi\u00e9es sont conformes \u00e0 la documentation et aux donn\u00e9es disponibles pour les d\u00e9tections de la spongieuse asiatique. Les limites temporelles et spatiales actuelles sont-elles appropri\u00e9es ou devraient-elles \u00eatre modifi\u00e9es?  Tout changement apport\u00e9 \u00e0 la d\u00e9termination des r\u00e9gions r\u00e9glement\u00e9es ou aux p\u00e9riodes sp\u00e9cifi\u00e9es devrait \u00eatre adopt\u00e9 par les \u00c9tats-Unis et par le Canada, de fa\u00e7on simultan\u00e9e, en appliquant une p\u00e9riode de transition appropri\u00e9e pour veiller \u00e0 la conformit\u00e9.).</li>\n\n<li>D\u00e9terminer s'il serait possible de renforcer l'harmonisation entre les processus am\u00e9ricains et canadiens (<abbr title=\"Par exemple\">P. ex.</abbr>, le processus aux ports d'arriv\u00e9e. Une plus grande harmonisation pourrait donner lieu \u00e0 une plus grande conformit\u00e9. Elle doit \u00eatre fond\u00e9e sur des donn\u00e9es scientifiques et \u00eatre conforme \u00e0 la l\u00e9gislation en place.).</li>\n\n<li>Les \u00c9tats-Unis et le Canada devraient continuer \u00e0 \u00e9changer de l'information sur la pression, les donn\u00e9es d'enqu\u00eate et les d\u00e9tections d'organismes nuisibles, lorsque cette information devient disponible.</li>\n</ul>\n\n\r\n\r\n\r\n</section>\r\n\r\n<section>\r\n\r\n<h2 id=\"c6\">Conclusion</h2>\r\n\r\n\r\n<div class=\"hrline\"></div>\r\n    \n\n<p>D'autres programmes d'\u00e9valuation conjointe de la sant\u00e9 des v\u00e9g\u00e9taux pourraient profiter consid\u00e9rablement de l'exp\u00e9rience acquise dans le cadre des \u00e9valuations conjointes du programme de certification pr\u00e9-d\u00e9part visant la spongieuse asiatique. Bien que l'\u00e9tablissement d'un processus normalis\u00e9 contribue au succ\u00e8s du programme de la spongieuse asiatique, c'est la relation et l'approche de collaboration entre les \u00c9tats-Unis et le Canada qui est la cl\u00e9 du succ\u00e8s. Au moyen du travail de partenariat et de notre approche commune, notre position pour mener des n\u00e9gociations et un dialogue avec des pays tiers est renforc\u00e9e.</p>\n\n\r\n\r\n\r\n</section>\r\n\r\n<div class=\"clear\"></div>\r\n\n\n\r\n        \r\n\r\n<div class=\"row\">\r\n \r\n\t\t\t\r\n\t\t\t\r\n\r\n\t\t\r\n\t\r\n</div>"
    },
    "success": true,
    "chat_wizard": false
}