{
    "dcr_id": "1607652912304",
    "urlEn": [
        "/DAM/DAM-aboutcfia-sujetacia/STAGING/text-texte/evaluation_of_export_certification_program_infographic_1607644492629_eng.pdf",
        "/DAM/DAM-aboutcfia-sujetacia/STAGING/images-images/evaluation_of_export_certification_program_graph_1_1607646302143_eng.jpg",
        "/DAM/DAM-aboutcfia-sujetacia/STAGING/images-images/evaluation_of_export_certification_program_graph_2_1607646793072_eng.jpg",
        "/DAM/DAM-aboutcfia-sujetacia/STAGING/images-images/evaluation_of_export_certification_program_graph_3_1607649536750_eng.jpg",
        "/DAM/DAM-aboutcfia-sujetacia/STAGING/images-images/evaluation_of_export_certification_program_infographic_thumbnail_1607982774106_eng.jpg"
    ],
    "urlFr": [
        "/DAM/DAM-aboutcfia-sujetacia/STAGING/text-texte/evaluation_of_export_certification_program_infographic_1607644492629_fra.pdf",
        "/DAM/DAM-aboutcfia-sujetacia/STAGING/images-images/evaluation_of_export_certification_program_graph_1_1607646302143_fra.jpg",
        "/DAM/DAM-aboutcfia-sujetacia/STAGING/images-images/evaluation_of_export_certification_program_graph_2_1607646793072_fra.jpg",
        "/DAM/DAM-aboutcfia-sujetacia/STAGING/images-images/evaluation_of_export_certification_program_graph_3_1607649536750_fra.jpg",
        "/DAM/DAM-aboutcfia-sujetacia/STAGING/images-images/evaluation_of_export_certification_program_infographic_thumbnail_1607982774106_fra.jpg"
    ],
    "managing_branch": "comn"
}