{
    "dcr_id": "1312587385841",
    "urlEn": [
        "/DAM/DAM-plants-vegetaux/STAGING/text-texte/pota_vari_pinkpearl_1312587625278_eng.pdf",
        "/DAM/DAM-plants-vegetaux/STAGING/images-images/pota_vari_potato25a_1312587625283_eng.jpg",
        "/DAM/DAM-plants-vegetaux/STAGING/images-images/pota_vari_potato25b_1312587625288_eng.jpg",
        "/DAM/DAM-plants-vegetaux/STAGING/images-images/pota_vari_potato25c_1312587625293_eng.jpg",
        "/DAM/DAM-plants-vegetaux/STAGING/images-images/pota_vari_potato25d_1312587625298_eng.jpg",
        "/DAM/DAM-plants-vegetaux/STAGING/images-images/pota_vari_potato25f_1312587625303_eng.jpg",
        "/DAM/DAM-plants-vegetaux/STAGING/images-images/pota_vari_potato25_1312587625308_eng.jpg",
        "/DAM/DAM-plants-vegetaux/STAGING/images-images/pota_vari_potato25a_petit_1312587625315_eng.jpg",
        "/DAM/DAM-plants-vegetaux/STAGING/images-images/pota_vari_potato25b_petit_1312587625322_eng.jpg",
        "/DAM/DAM-plants-vegetaux/STAGING/images-images/pota_vari_potato25c_petit_1312587625327_eng.jpg",
        "/DAM/DAM-plants-vegetaux/STAGING/images-images/pota_vari_potato25d_petit_1312587625332_eng.jpg",
        "/DAM/DAM-plants-vegetaux/STAGING/images-images/pota_vari_potato25f_petit_1312587625337_eng.jpg",
        "/DAM/DAM-plants-vegetaux/STAGING/images-images/pota_vari_potato25e_petit_1312587625342_eng.jpg"
    ],
    "urlFr": [
        "/DAM/DAM-plants-vegetaux/STAGING/text-texte/pota_vari_pinkpearl_1312587625278_fra.pdf",
        "/DAM/DAM-plants-vegetaux/STAGING/images-images/pota_vari_potato25a_1312587625283_fra.jpg",
        "/DAM/DAM-plants-vegetaux/STAGING/images-images/pota_vari_potato25b_1312587625288_fra.jpg",
        "/DAM/DAM-plants-vegetaux/STAGING/images-images/pota_vari_potato25c_1312587625293_fra.jpg",
        "/DAM/DAM-plants-vegetaux/STAGING/images-images/pota_vari_potato25d_1312587625298_fra.jpg",
        "/DAM/DAM-plants-vegetaux/STAGING/images-images/pota_vari_potato25f_1312587625303_fra.jpg",
        "/DAM/DAM-plants-vegetaux/STAGING/images-images/pota_vari_potato25_1312587625308_fra.jpg",
        "/DAM/DAM-plants-vegetaux/STAGING/images-images/pota_vari_potato25a_petit_1312587625315_eng.jpg",
        "/DAM/DAM-plants-vegetaux/STAGING/images-images/pota_vari_potato25b_petit_1312587625322_eng.jpg",
        "/DAM/DAM-plants-vegetaux/STAGING/images-images/pota_vari_potato25c_petit_1312587625327_eng.jpg",
        "/DAM/DAM-plants-vegetaux/STAGING/images-images/pota_vari_potato25d_petit_1312587625332_eng.jpg",
        "/DAM/DAM-plants-vegetaux/STAGING/images-images/pota_vari_potato25f_petit_1312587625337_eng.jpg",
        "/DAM/DAM-plants-vegetaux/STAGING/images-images/pota_vari_potato25e_petit_1312587625342_eng.jpg"
    ],
    "managing_branch": "comn"
}