{
    "dcr_id": "1639414814002",
    "urlEn": [
        "/DAM/DAM-aboutcfia-sujetacia/STAGING/audio-audio/c360_podcast_xmas_tree_industry_ep_6_1639495071735_eng.mp3",
        "/DAM/DAM-aboutcfia-sujetacia/STAGING/images-images/c360_podcast_xmas_tree_industry_ep_6_600x600_1639415377626_eng.jpg",
        "/DAM/DAM-aboutcfia-sujetacia/STAGING/images-images/c360_inspect_protect_apple_1613668009777_eng.jpg",
        "/DAM/DAM-aboutcfia-sujetacia/STAGING/images-images/c360_inspect_protect_google_podcasts_1613668010683_eng.jpg",
        "/DAM/DAM-aboutcfia-sujetacia/STAGING/images-images/c360_inspect_protect_spotify_1613668010230_eng.jpg"
    ],
    "urlFr": [
        "/DAM/DAM-aboutcfia-sujetacia/STAGING/audio-audio/c360_podcast_xmas_tree_industry_ep_6_1639495071735_fra.mp3",
        "/DAM/DAM-aboutcfia-sujetacia/STAGING/images-images/c360_podcast_xmas_tree_industry_ep_6_600x600_1639415377626_fra.jpg",
        "/DAM/DAM-aboutcfia-sujetacia/STAGING/images-images/c360_inspect_protect_apple_1613668009777_fra.jpg",
        "/DAM/DAM-aboutcfia-sujetacia/STAGING/images-images/c360_inspect_protect_google_podcasts_1613668010683_fra.jpg",
        "/DAM/DAM-aboutcfia-sujetacia/STAGING/images-images/c360_inspect_protect_spotify_1613668010230_fra.jpg"
    ],
    "managing_branch": "comn"
}