{
    "dcr_id": "1588340580988",
    "urlEn": [
        "/DAM/DAM-food-aliments/STAGING/text-texte/undeclared_allergens_and_gluten_ready_to_eat_and_heat_and_serve_meals_apr_2016_mar_2017_1588340961255_eng.pdf"
    ],
    "urlFr": [
        "/DAM/DAM-food-aliments/STAGING/text-texte/undeclared_allergens_and_gluten_ready_to_eat_and_heat_and_serve_meals_apr_2016_mar_2017_1588340961255_fra.pdf"
    ],
    "managing_branch": "comn"
}