{
    "dcr_id": "1700078540700",
    "urlEn": [
        "/DAM/DAM-aboutcfia-sujetacia/STAGING/images-images/cultivating_science_blog_600x600_1700079231935_eng.png"
    ],
    "urlFr": [
        "/DAM/DAM-aboutcfia-sujetacia/STAGING/images-images/cultivating_science_blog_600x600_1700079231935_fra.png"
    ],
    "managing_branch": "comn"
}