{
    "dcr_id": "1576104535809",
    "urlEn": [
        "/DAM/DAM-form-forme/STAGING/text-texte/c5862_re_1576104617657_eng.pdf"
    ],
    "urlFr": [
        "/DAM/DAM-form-forme/STAGING/text-texte/c5862_re_1576104617657_fra.pdf"
    ],
    "managing_branch": "comn"
}