{
    "dcr_id": "1593698410645",
    "urlEn": [
        "/DAM/DAM-aboutcfia-sujetacia/STAGING/images-images/c360_emerging_science_fostering_policy_development_600x600_1593698785857_eng.jpg"
    ],
    "urlFr": [
        "/DAM/DAM-aboutcfia-sujetacia/STAGING/images-images/c360_emerging_science_fostering_policy_development_600x600_1593698785857_fra.jpg"
    ],
    "managing_branch": "comn"
}