{
    "dcr_id": "1304474667559",
    "urlEn": [
        "/DAM/DAM-plants-vegetaux/STAGING/images-images/plan_pnts_dir_200007_app6_1394996345934_eng.gif"
    ],
    "urlFr": [
        "/DAM/DAM-plants-vegetaux/STAGING/images-images/plan_pnts_dir_200007_app6_1394996345934_fra.gif"
    ],
    "managing_branch": "comn"
}