{
    "dcr_id": "1675712687883",
    "urlEn": [
        "/DAM/DAM-animals-animaux/STAGING/images-images/feeds_reg_guide_rg11_fig01_1675712968974_eng.jpg"
    ],
    "urlFr": [
        "/DAM/DAM-animals-animaux/STAGING/images-images/feeds_reg_guide_rg11_fig01_1675712968974_fra.jpg"
    ],
    "managing_branch": "comn"
}