{
    "dcr_id": "1312587385930",
    "urlEn": [
        "/DAM/DAM-plants-vegetaux/STAGING/text-texte/pota_vari_umatillarusset_1312587704163_eng.pdf",
        "/DAM/DAM-plants-vegetaux/STAGING/text-texte/pota_vari_umatillaphoto_1312587704169_eng.pdf",
        "/DAM/DAM-plants-vegetaux/STAGING/images-images/pota_vari_potato134a_1312587704175_eng.jpg",
        "/DAM/DAM-plants-vegetaux/STAGING/images-images/pota_vari_umatillab_1312587704181_eng.jpg",
        "/DAM/DAM-plants-vegetaux/STAGING/images-images/pota_vari_umatillac_1312587704187_eng.jpg",
        "/DAM/DAM-plants-vegetaux/STAGING/images-images/pota_vari_potato134d_1312587704193_eng.jpg",
        "/DAM/DAM-plants-vegetaux/STAGING/images-images/pota_vari_potato134_1312587704199_eng.jpg",
        "/DAM/DAM-plants-vegetaux/STAGING/images-images/pota_vari_potato134f_1312587704205_eng.jpg",
        "/DAM/DAM-plants-vegetaux/STAGING/images-images/pota_vari_potato134a_small_1312587704213_eng.jpg",
        "/DAM/DAM-plants-vegetaux/STAGING/images-images/pota_vari_umatillab_small_1312587704219_eng.jpg",
        "/DAM/DAM-plants-vegetaux/STAGING/images-images/pota_vari_umatillac_small_1312587704225_eng.jpg",
        "/DAM/DAM-plants-vegetaux/STAGING/images-images/pota_vari_potato134d_small_1312587704231_eng.jpg",
        "/DAM/DAM-plants-vegetaux/STAGING/images-images/pota_vari_potato134e_small_1312587704237_eng.jpg",
        "/DAM/DAM-plants-vegetaux/STAGING/images-images/pota_vari_potato134f_small_1312587704243_eng.jpg"
    ],
    "urlFr": [
        "/DAM/DAM-plants-vegetaux/STAGING/text-texte/pota_vari_umatillarusset_1312587704163_fra.pdf",
        "/DAM/DAM-plants-vegetaux/STAGING/text-texte/pota_vari_umatillaphoto_1312587704169_fra.pdf",
        "/DAM/DAM-plants-vegetaux/STAGING/images-images/pota_vari_potato134a_1312587704175_fra.jpg",
        "/DAM/DAM-plants-vegetaux/STAGING/images-images/pota_vari_umatillab_1312587704181_fra.jpg",
        "/DAM/DAM-plants-vegetaux/STAGING/images-images/pota_vari_umatillac_1312587704187_fra.jpg",
        "/DAM/DAM-plants-vegetaux/STAGING/images-images/pota_vari_potato134d_1312587704193_fra.jpg",
        "/DAM/DAM-plants-vegetaux/STAGING/images-images/pota_vari_potato134_1312587704199_fra.jpg",
        "/DAM/DAM-plants-vegetaux/STAGING/images-images/pota_vari_potato134f_1312587704205_fra.jpg",
        "/DAM/DAM-plants-vegetaux/STAGING/images-images/pota_vari_potato134a_small_1312587704213_eng.jpg",
        "/DAM/DAM-plants-vegetaux/STAGING/images-images/pota_vari_umatillab_small_1312587704219_eng.jpg",
        "/DAM/DAM-plants-vegetaux/STAGING/images-images/pota_vari_umatillac_small_1312587704225_eng.jpg",
        "/DAM/DAM-plants-vegetaux/STAGING/images-images/pota_vari_potato134d_small_1312587704231_eng.jpg",
        "/DAM/DAM-plants-vegetaux/STAGING/images-images/pota_vari_potato134e_small_1312587704237_eng.jpg",
        "/DAM/DAM-plants-vegetaux/STAGING/images-images/pota_vari_potato134f_small_1312587704243_eng.jpg"
    ],
    "managing_branch": "comn"
}