{
    "dcr_id": "1480105297161",
    "urlEn": [
        "/DAM/DAM-aboutcfia-sujetacia/STAGING/images-images/reg_coop_council_usa_1431365437466_eng.jpg",
        "/DAM/DAM-aboutcfia-sujetacia/STAGING/images-images/reg_coop_council_canada_1431365309500_eng.jpg"
    ],
    "urlFr": [
        "/DAM/DAM-aboutcfia-sujetacia/STAGING/images-images/reg_coop_council_usa_1431365437466_fra.jpg",
        "/DAM/DAM-aboutcfia-sujetacia/STAGING/images-images/reg_coop_council_canada_1431365309500_fra.jpg"
    ],
    "managing_branch": "comn"
}