{
    "dcr_id": "1297964599443",
    "urlEn": [
        "/DAM/DAM-aboutcfia-sujetacia/STAGING/images-images/feature_ai_in_livestock_1712096000704_eng.jpg",
        "/DAM/DAM-aboutcfia-sujetacia/STAGING/images-images/sfcr_banner_1712168738036_eng.jpg"
    ],
    "urlFr": [
        "/DAM/DAM-aboutcfia-sujetacia/STAGING/images-images/feature_ai_in_livestock_1712096000704_fra.jpg",
        "/DAM/DAM-aboutcfia-sujetacia/STAGING/images-images/sfcr_banner_1712168738036_fra.jpg"
    ],
    "managing_branch": "comn"
}