{
    "dcr_id": "1637764145918",
    "urlEn": [
        "/DAM/DAM-aboutcfia-sujetacia/STAGING/text-texte/2020-2021_strategy_report_1638559363252_eng.pdf",
        "/DAM/DAM-comn-comn/STAGING/images-images/download_pdf_1558729521562_eng.png",
        "/DAM/DAM-aboutcfia-sujetacia/STAGING/images-images/fsds_im1_1516109232543_eng.jpg",
        "/DAM/DAM-aboutcfia-sujetacia/STAGING/images-images/dsds_2020-2023_img2_1602092790809_eng.jpg",
        "/DAM/DAM-aboutcfia-sujetacia/STAGING/images-images/dsds_2020-2023_img3_1602092816495_eng.jpg",
        "/DAM/DAM-aboutcfia-sujetacia/STAGING/images-images/dsds_2020-2023_img4_1602092855030_eng.jpg"
    ],
    "urlFr": [
        "/DAM/DAM-aboutcfia-sujetacia/STAGING/text-texte/2020-2021_strategy_report_1638559363252_fra.pdf",
        "/DAM/DAM-comn-comn/STAGING/images-images/download_pdf_1558729521562_fra.png",
        "/DAM/DAM-aboutcfia-sujetacia/STAGING/images-images/fsds_im1_1516109232543_fra.jpg",
        "/DAM/DAM-aboutcfia-sujetacia/STAGING/images-images/dsds_2020-2023_img2_1602092790809_fra.jpg",
        "/DAM/DAM-aboutcfia-sujetacia/STAGING/images-images/dsds_2020-2023_img3_1602092816495_fra.jpg",
        "/DAM/DAM-aboutcfia-sujetacia/STAGING/images-images/dsds_2020-2023_img4_1602092855030_fra.jpg"
    ],
    "managing_branch": "comn"
}