{
    "dcr_id": "1348756225655",
    "urlEn": [
        "/DAM/DAM-food-aliments/STAGING/images-images/news_resource_food_safety_foodrecalls_chart1_1620612712502_eng.jpg",
        "/DAM/DAM-food-aliments/STAGING/images-images/news_resource_food_safety_foodrecalls_chart2_1620612713315_eng.jpg",
        "/DAM/DAM-food-aliments/STAGING/images-images/news_resource_food_safety_foodrecalls_chart3_1620612714127_eng.jpg",
        "/DAM/DAM-food-aliments/STAGING/images-images/news_resource_food_safety_foodrecalls_chart4_1647016806604_eng.jpg",
        "/DAM/DAM-food-aliments/STAGING/images-images/news_resource_food_safety_foodrecalls_chart5_1647016807432_eng.jpg"
    ],
    "urlFr": [
        "/DAM/DAM-food-aliments/STAGING/images-images/news_resource_food_safety_foodrecalls_chart1_1620612712502_fra.jpg",
        "/DAM/DAM-food-aliments/STAGING/images-images/news_resource_food_safety_foodrecalls_chart2_1620612713315_fra.jpg",
        "/DAM/DAM-food-aliments/STAGING/images-images/news_resource_food_safety_foodrecalls_chart3_1620612714127_fra.jpg",
        "/DAM/DAM-food-aliments/STAGING/images-images/news_resource_food_safety_foodrecalls_chart4_1647016806604_fra.jpg",
        "/DAM/DAM-food-aliments/STAGING/images-images/news_resource_food_safety_foodrecalls_chart5_1647016807432_fra.jpg"
    ],
    "managing_branch": "comn"
}