{
    "dcr_id": "1328110093179",
    "urlEn": [
        "/DAM/DAM-plants-vegetaux/STAGING/images-images/pestrava_tetcas_index_image1_1328033193625_eng.jpg"
    ],
    "urlFr": [
        "/DAM/DAM-plants-vegetaux/STAGING/images-images/pestrava_tetcas_index_image1_1328033193625_fra.jpg"
    ],
    "managing_branch": "comn"
}