{
    "dcr_id": "1312587385853",
    "urlEn": [
        "/DAM/DAM-plants-vegetaux/STAGING/text-texte/pota_vari_reba_1312587635914_eng.pdf",
        "/DAM/DAM-plants-vegetaux/STAGING/text-texte/pota_vari_rebaphoto_1312587635919_eng.pdf",
        "/DAM/DAM-plants-vegetaux/STAGING/images-images/pota_vari_rebaa_1312587635924_eng.jpg",
        "/DAM/DAM-plants-vegetaux/STAGING/images-images/pota_vari_rebab_1312587635929_eng.jpg",
        "/DAM/DAM-plants-vegetaux/STAGING/images-images/pota_vari_rebac_1312587635934_eng.jpg",
        "/DAM/DAM-plants-vegetaux/STAGING/images-images/pota_vari_rebad_1312587635939_eng.jpg",
        "/DAM/DAM-plants-vegetaux/STAGING/images-images/pota_vari_reba_1312587635944_eng.jpg",
        "/DAM/DAM-plants-vegetaux/STAGING/images-images/pota_vari_rebaf_1312587635949_eng.jpg",
        "/DAM/DAM-plants-vegetaux/STAGING/images-images/pota_vari_rebaa_small_1312587635956_eng.jpg",
        "/DAM/DAM-plants-vegetaux/STAGING/images-images/pota_vari_rebab_small_1312587635961_eng.jpg",
        "/DAM/DAM-plants-vegetaux/STAGING/images-images/pota_vari_rebac_small_1312587635966_eng.jpg",
        "/DAM/DAM-plants-vegetaux/STAGING/images-images/pota_vari_rebad_small_1312587635971_eng.jpg",
        "/DAM/DAM-plants-vegetaux/STAGING/images-images/pota_vari_rebae_small_1312587635976_eng.jpg",
        "/DAM/DAM-plants-vegetaux/STAGING/images-images/pota_vari_rebaf_small_1312587635981_eng.jpg"
    ],
    "urlFr": [
        "/DAM/DAM-plants-vegetaux/STAGING/text-texte/pota_vari_reba_1312587635914_fra.pdf",
        "/DAM/DAM-plants-vegetaux/STAGING/text-texte/pota_vari_rebaphoto_1312587635919_fra.pdf",
        "/DAM/DAM-plants-vegetaux/STAGING/images-images/pota_vari_rebaa_1312587635924_fra.jpg",
        "/DAM/DAM-plants-vegetaux/STAGING/images-images/pota_vari_rebab_1312587635929_fra.jpg",
        "/DAM/DAM-plants-vegetaux/STAGING/images-images/pota_vari_rebac_1312587635934_fra.jpg",
        "/DAM/DAM-plants-vegetaux/STAGING/images-images/pota_vari_rebad_1312587635939_fra.jpg",
        "/DAM/DAM-plants-vegetaux/STAGING/images-images/pota_vari_reba_1312587635944_fra.jpg",
        "/DAM/DAM-plants-vegetaux/STAGING/images-images/pota_vari_rebaf_1312587635949_fra.jpg",
        "/DAM/DAM-plants-vegetaux/STAGING/images-images/pota_vari_rebaa_small_1312587635956_eng.jpg",
        "/DAM/DAM-plants-vegetaux/STAGING/images-images/pota_vari_rebab_small_1312587635961_eng.jpg",
        "/DAM/DAM-plants-vegetaux/STAGING/images-images/pota_vari_rebac_small_1312587635966_eng.jpg",
        "/DAM/DAM-plants-vegetaux/STAGING/images-images/pota_vari_rebad_small_1312587635971_eng.jpg",
        "/DAM/DAM-plants-vegetaux/STAGING/images-images/pota_vari_rebae_small_1312587635976_eng.jpg",
        "/DAM/DAM-plants-vegetaux/STAGING/images-images/pota_vari_rebaf_small_1312587635981_eng.jpg"
    ],
    "managing_branch": "comn"
}