{
    "dcr_id": "1319478952479",
    "urlEn": [
        "/DAM/DAM-aboutcfia-sujetacia/STAGING/text-texte/broch_1319470825956_eng.pdf"
    ],
    "urlFr": [
        "/DAM/DAM-aboutcfia-sujetacia/STAGING/text-texte/broch_1319470825956_fra.pdf"
    ],
    "managing_branch": "comn"
}