{
    "dcr_id": "1304806669135",
    "urlEn": [
        "/DAM/DAM-plants-vegetaux/STAGING/images-images/risk-management_image1_1384536650717_eng.jpg",
        "/DAM/DAM-plants-vegetaux/STAGING/images-images/risk-management_image2_1384536691311_eng.jpg",
        "/DAM//DAM-plants-vegetaux/STAGING/images-images/protect_riskmgmt_08-02_1304808062995_eng.jpg"
    ],
    "urlFr": [
        "/DAM/DAM-plants-vegetaux/STAGING/images-images/risk-management_image1_1384536650717_eng.jpg",
        "/DAM/DAM-plants-vegetaux/STAGING/images-images/risk-management_image2_1384536691311_eng.jpg",
        "/DAM/DAM-plants-vegetaux/STAGING/images-images/protect_riskmgmt_08-02_1304808062995_fra.jpg"
    ],
    "managing_branch": "comn"
}