{
    "dcr_id": "1496368049140",
    "urlEn": [
        "/DAM/DAM-animals-animaux/STAGING/text-texte/dis_tuber_infographic_trace-out_img1_1496842889035_eng.pdf",
        "/DAM/DAM-comn-comn/WORKAREA/DAM-comn-comn/images-images/download_pdf_1558729521562_eng.png",
        "/DAM/DAM-animals-animaux/STAGING/images-images/dis_tuber_infographic_trace-out_img1_1496842711860_eng.jpg"
    ],
    "urlFr": [
        "/DAM/DAM-animals-animaux/STAGING/text-texte/dis_tuber_infographic_trace-out_img1_1496842889035_fra.pdf",
        "/DAM/DAM-comn-comn/WORKAREA/DAM-comn-comn/images-images/download_pdf_1558729521562_fra.png",
        "/DAM/DAM-animals-animaux/STAGING/images-images/dis_tuber_infographic_trace-out_img1_1496842711860_fra.jpg"
    ],
    "managing_branch": "comn"
}