{
    "dcr_id": "1312587385781",
    "urlEn": [
        "/DAM/DAM-plants-vegetaux/STAGING/text-texte/pota_vari_mainechip_1312587572045_eng.pdf",
        "/DAM/DAM-plants-vegetaux/STAGING/images-images/pota_vari_potato103a_1312587572049_eng.jpg",
        "/DAM/DAM-plants-vegetaux/STAGING/images-images/pota_vari_potato103b_1312587572053_eng.jpg",
        "/DAM/DAM-plants-vegetaux/STAGING/images-images/pota_vari_potato103c_1312587572057_eng.jpg",
        "/DAM/DAM-plants-vegetaux/STAGING/images-images/pota_vari_potato103d_1312587572061_eng.jpg",
        "/DAM/DAM-plants-vegetaux/STAGING/images-images/pota_vari_mainechip_1312587572065_eng.jpg",
        "/DAM/DAM-plants-vegetaux/STAGING/images-images/pota_vari_mainechipf_1312587572069_eng.jpg",
        "/DAM/DAM-plants-vegetaux/STAGING/images-images/pota_vari_potato103a_small_1312587572075_eng.jpg",
        "/DAM/DAM-plants-vegetaux/STAGING/images-images/pota_vari_potato103b_small_1312587572080_eng.jpg",
        "/DAM/DAM-plants-vegetaux/STAGING/images-images/pota_vari_potato103c_small_1312587572085_eng.jpg",
        "/DAM/DAM-plants-vegetaux/STAGING/images-images/pota_vari_potato103d_small_1312587572090_eng.jpg",
        "/DAM/DAM-plants-vegetaux/STAGING/images-images/pota_vari_mainechipe_small_1312587572095_eng.jpg",
        "/DAM/DAM-plants-vegetaux/STAGING/images-images/pota_vari_mainechipf_small_1312587572100_eng.jpg"
    ],
    "urlFr": [
        "/DAM/DAM-plants-vegetaux/STAGING/text-texte/pota_vari_mainechip_1312587572045_fra.pdf",
        "/DAM/DAM-plants-vegetaux/STAGING/images-images/pota_vari_potato103a_1312587572049_fra.jpg",
        "/DAM/DAM-plants-vegetaux/STAGING/images-images/pota_vari_potato103b_1312587572053_fra.jpg",
        "/DAM/DAM-plants-vegetaux/STAGING/images-images/pota_vari_potato103c_1312587572057_fra.jpg",
        "/DAM/DAM-plants-vegetaux/STAGING/images-images/pota_vari_potato103d_1312587572061_fra.jpg",
        "/DAM/DAM-plants-vegetaux/STAGING/images-images/pota_vari_mainechip_1312587572065_fra.jpg",
        "/DAM/DAM-plants-vegetaux/STAGING/images-images/pota_vari_mainechipf_1312587572069_fra.jpg",
        "/DAM/DAM-plants-vegetaux/STAGING/images-images/pota_vari_potato103a_small_1312587572075_eng.jpg",
        "/DAM/DAM-plants-vegetaux/STAGING/images-images/pota_vari_potato103b_small_1312587572080_eng.jpg",
        "/DAM/DAM-plants-vegetaux/STAGING/images-images/pota_vari_potato103c_small_1312587572085_eng.jpg",
        "/DAM/DAM-plants-vegetaux/STAGING/images-images/pota_vari_potato103d_small_1312587572090_eng.jpg",
        "/DAM/DAM-plants-vegetaux/STAGING/images-images/pota_vari_mainechipe_small_1312587572095_eng.jpg",
        "/DAM/DAM-plants-vegetaux/STAGING/images-images/pota_vari_mainechipf_small_1312587572100_eng.jpg"
    ],
    "managing_branch": "comn"
}