{
    "dcr_id": "1404825805336",
    "urlEn": [
        "/DAM/DAM-plants-vegetaux/WORKAREA/DAM-plants-vegetaux/images-images/invasive_plants_seed_factsheet_anthoxanthum_odoratum_img1_1404823398399_eng.jpg",
        "/DAM/DAM-plants-vegetaux/WORKAREA/DAM-plants-vegetaux/images-images/invasive_plants_seed_factsheet_anthoxanthum_odoratum_img2_1404823493993_eng.jpg",
        "/DAM/DAM-plants-vegetaux/WORKAREA/DAM-plants-vegetaux/images-images/invasive_plants_seed_factsheet_anthoxanthum_odoratum_img3_1404823547572_eng.jpg",
        "/DAM/DAM-plants-vegetaux/WORKAREA/DAM-plants-vegetaux/images-images/invasive_plants_seed_factsheet_anthoxanthum_aristatum_img1_1404823267117_eng.jpg"
    ],
    "urlFr": [
        "/DAM/DAM-plants-vegetaux/WORKAREA/DAM-plants-vegetaux/images-images/invasive_plants_seed_factsheet_anthoxanthum_odoratum_img1_1404823398399_fra.jpg",
        "/DAM/DAM-plants-vegetaux/WORKAREA/DAM-plants-vegetaux/images-images/invasive_plants_seed_factsheet_anthoxanthum_odoratum_img2_1404823493993_fra.jpg",
        "/DAM/DAM-plants-vegetaux/WORKAREA/DAM-plants-vegetaux/images-images/invasive_plants_seed_factsheet_anthoxanthum_odoratum_img3_1404823547572_fra.jpg",
        "/DAM/DAM-plants-vegetaux/WORKAREA/DAM-plants-vegetaux/images-images/invasive_plants_seed_factsheet_anthoxanthum_aristatum_img1_1404823267117_fra.jpg"
    ],
    "managing_branch": "comn"
}