{
    "dcr_id": "1323991831668",
    "urlEn": [
        "/DAM/DAM-animals-animaux/STAGING/images-images/dis_bseesb_index_1691784328779_eng.jpg"
    ],
    "urlFr": [
        "/DAM/DAM-animals-animaux/STAGING/images-images/dis_bseesb_index_1691784328779_fra.jpg"
    ],
    "managing_branch": "comn"
}