{
    "dcr_id": "1598382456266",
    "urlEn": [
        "/DAM/DAM-aboutcfia-sujetacia/STAGING/images-images/c360_brngng_flffy_nto_canada_600x600_1598382901688_eng.jpg",
        "/DAM/DAM-aboutcfia-sujetacia/STAGING/images-images/c360_brngng_flffy_nto_canada_img1_1598384095084_eng.jpg"
    ],
    "urlFr": [
        "/DAM/DAM-aboutcfia-sujetacia/STAGING/images-images/c360_brngng_flffy_nto_canada_600x600_1598382901688_fra.jpg",
        "/DAM/DAM-aboutcfia-sujetacia/STAGING/images-images/c360_brngng_flffy_nto_canada_img1_1598384095084_fra.jpg"
    ],
    "managing_branch": "comn"
}