{
    "dcr_id": "1385242045975",
    "urlEn": [
        "/DAM/DAM-aboutcfia-sujetacia/STAGING/images-images/acco_audit_2013_eval_fsap_report_figure1_1385580335171_eng.gif",
        "/DAM/DAM-aboutcfia-sujetacia/STAGING/images-images/acco_audit_2013_eval_fsap_report_figure4_1385580513878_eng.gif",
        "/DAM/DAM-aboutcfia-sujetacia/STAGING/images-images/acco_audit_2013_eval_fsap_report_figure1_1385580335172_thumb_eng.gif",
        "/DAM/DAM-aboutcfia-sujetacia/STAGING/images-images/acco_audit_2013_eval_fsap_report_figure2_1385580417314_eng.gif",
        "/DAM/DAM-aboutcfia-sujetacia/STAGING/images-images/acco_audit_2013_eval_fsap_report_figure3_1385580450642_eng.gif",
        "/DAM/DAM-aboutcfia-sujetacia/STAGING/images-images/acco_audit_2013_eval_fsap_report_figure4_1385580513879_thumb_eng.gif",
        "/DAM/DAM-aboutcfia-sujetacia/STAGING/images-images/acco_audit_2013_eval_fsap_report_figure5_1385580556691_eng.gif",
        "/DAM/DAM-aboutcfia-sujetacia/STAGING/images-images/acco_audit_2013_eval_fsap_report_figure6_1385580586848_eng.gif",
        "/DAM/DAM-aboutcfia-sujetacia/STAGING/images-images/acco_audit_2013_eval_fsap_report_figure7_1385580620052_eng.gif",
        "/DAM/DAM-aboutcfia-sujetacia/STAGING/images-images/acco_audit_2013_eval_fsap_report_figure8_1385580651724_eng.gif",
        "/DAM/DAM-aboutcfia-sujetacia/STAGING/images-images/acco_audit_2013_eval_fsap_report_figure9_1385580683006_eng.gif",
        "/DAM/DAM-aboutcfia-sujetacia/STAGING/images-images/acco_audit_2013_eval_fsap_report_figure10_1385580714163_eng.gif",
        "/DAM/DAM-aboutcfia-sujetacia/STAGING/images-images/acco_audit_2013_eval_fsap_report_figure11_1385580745851_eng.gif",
        "/DAM/DAM-aboutcfia-sujetacia/STAGING/images-images/acco_audit_2013_eval_fsap_report_figure12_1385580793196_eng.gif"
    ],
    "urlFr": [
        "/DAM/DAM-aboutcfia-sujetacia/STAGING/images-images/acco_audit_2013_eval_fsap_report_figure1_1385580335171_fra.gif",
        "/DAM/DAM-aboutcfia-sujetacia/STAGING/images-images/acco_audit_2013_eval_fsap_report_figure4_1385580513878_fra.gif",
        "/DAM/DAM-aboutcfia-sujetacia/STAGING/images-images/acco_audit_2013_eval_fsap_report_figure1_1385580335172_thumb_fra.gif",
        "/DAM/DAM-aboutcfia-sujetacia/STAGING/images-images/acco_audit_2013_eval_fsap_report_figure2_1385580417314_fra.gif",
        "/DAM/DAM-aboutcfia-sujetacia/STAGING/images-images/acco_audit_2013_eval_fsap_report_figure3_1385580450642_fra.gif",
        "/DAM/DAM-aboutcfia-sujetacia/STAGING/images-images/acco_audit_2013_eval_fsap_report_figure4_1385580513879_thumb_fra.gif",
        "/DAM/DAM-aboutcfia-sujetacia/STAGING/images-images/acco_audit_2013_eval_fsap_report_figure5_1385580556691_fra.gif",
        "/DAM/DAM-aboutcfia-sujetacia/STAGING/images-images/acco_audit_2013_eval_fsap_report_figure6_1385580586848_fra.gif",
        "/DAM/DAM-aboutcfia-sujetacia/STAGING/images-images/acco_audit_2013_eval_fsap_report_figure7_1385580620052_fra.gif",
        "/DAM/DAM-aboutcfia-sujetacia/STAGING/images-images/acco_audit_2013_eval_fsap_report_figure8_1385580651724_fra.gif",
        "/DAM/DAM-aboutcfia-sujetacia/STAGING/images-images/acco_audit_2013_eval_fsap_report_figure9_1385580683006_fra.gif",
        "/DAM/DAM-aboutcfia-sujetacia/STAGING/images-images/acco_audit_2013_eval_fsap_report_figure10_1385580714163_fra.gif",
        "/DAM/DAM-aboutcfia-sujetacia/STAGING/images-images/acco_audit_2013_eval_fsap_report_figure11_1385580745851_fra.gif",
        "/DAM/DAM-aboutcfia-sujetacia/STAGING/images-images/acco_audit_2013_eval_fsap_report_figure12_1385580793196_fra.gif"
    ],
    "managing_branch": "comn"
}