{
    "dcr_id": "1312587385817",
    "urlEn": [
        "/DAM/DAM-plants-vegetaux/STAGING/images-images/pota_vari_potato10a_1312587604032_eng.jpg",
        "/DAM/DAM-plants-vegetaux/STAGING/images-images/pota_vari_potato10b_1312587604037_eng.jpg",
        "/DAM/DAM-plants-vegetaux/STAGING/images-images/pota_vari_potato10c_1312587604042_eng.jpg",
        "/DAM/DAM-plants-vegetaux/STAGING/images-images/pota_vari_potato10d_1312587604047_eng.jpg",
        "/DAM/DAM-plants-vegetaux/STAGING/images-images/pota_vari_potato10f_1312587604052_eng.jpg",
        "/DAM/DAM-plants-vegetaux/STAGING/images-images/pota_vari_potato10_1312587604057_eng.jpg",
        "/DAM/DAM-plants-vegetaux/STAGING/images-images/pota_vari_potato10a_petit_1312587604064_eng.jpg",
        "/DAM/DAM-plants-vegetaux/STAGING/images-images/pota_vari_potato10b_petit_1312587604069_eng.jpg",
        "/DAM/DAM-plants-vegetaux/STAGING/images-images/pota_vari_potato10c_petit_1312587604074_eng.jpg",
        "/DAM/DAM-plants-vegetaux/STAGING/images-images/pota_vari_potato10d_petit_1312587604079_eng.jpg",
        "/DAM/DAM-plants-vegetaux/STAGING/images-images/pota_vari_potato10f_petit_1312587604084_eng.jpg",
        "/DAM/DAM-plants-vegetaux/STAGING/images-images/pota_vari_potato10e_petit_1312587604089_eng.jpg"
    ],
    "urlFr": [
        "/DAM/DAM-plants-vegetaux/STAGING/images-images/pota_vari_potato10a_1312587604032_fra.jpg",
        "/DAM/DAM-plants-vegetaux/STAGING/images-images/pota_vari_potato10b_1312587604037_fra.jpg",
        "/DAM/DAM-plants-vegetaux/STAGING/images-images/pota_vari_potato10c_1312587604042_fra.jpg",
        "/DAM/DAM-plants-vegetaux/STAGING/images-images/pota_vari_potato10d_1312587604047_fra.jpg",
        "/DAM/DAM-plants-vegetaux/STAGING/images-images/pota_vari_potato10f_1312587604052_fra.jpg",
        "/DAM/DAM-plants-vegetaux/STAGING/images-images/pota_vari_potato10_1312587604057_fra.jpg",
        "/DAM/DAM-plants-vegetaux/STAGING/images-images/pota_vari_potato10a_petit_1312587604064_eng.jpg",
        "/DAM/DAM-plants-vegetaux/STAGING/images-images/pota_vari_potato10b_petit_1312587604069_eng.jpg",
        "/DAM/DAM-plants-vegetaux/STAGING/images-images/pota_vari_potato10c_petit_1312587604074_eng.jpg",
        "/DAM/DAM-plants-vegetaux/STAGING/images-images/pota_vari_potato10d_petit_1312587604079_eng.jpg",
        "/DAM/DAM-plants-vegetaux/STAGING/images-images/pota_vari_potato10f_petit_1312587604084_eng.jpg",
        "/DAM/DAM-plants-vegetaux/STAGING/images-images/pota_vari_potato10e_petit_1312587604089_eng.jpg"
    ],
    "managing_branch": "comn"
}