{
    "dcr_id": "1672598602765",
    "urlEn": [
        "/DAM/DAM-animals-animaux/STAGING/text-texte/revocation_order_pcz_169_1683920256143_eng.pdf",
        "/DAM/DAM-animals-animaux/STAGING/text-texte/designation_order_pcz_169_1672597716954_eng.pdf",
        "/DAM/DAM-animals-animaux/STAGING/text-texte/declaration_order_pcz_169_1672597679203_eng.pdf",
        "/DAM/DAM-comn-comn/STAGING/images-images/download_pdf_1558729521562_eng.png"
    ],
    "urlFr": [
        "/DAM/DAM-animals-animaux/STAGING/text-texte/revocation_order_pcz_169_1683920256143_fra.pdf",
        "/DAM/DAM-animals-animaux/STAGING/text-texte/designation_order_pcz_169_1672597716954_fra.pdf",
        "/DAM/DAM-animals-animaux/STAGING/text-texte/declaration_order_pcz_169_1672597679203_fra.pdf",
        "/DAM/DAM-comn-comn/STAGING/images-images/download_pdf_1558729521562_fra.png"
    ],
    "managing_branch": "comn"
}