{
    "dcr_id": "1431014368582",
    "urlEn": [
        "/DAM/DAM-aboutcfia-sujetacia/STAGING/text-texte/regs_safe_food_inforgraphic_plan_1431108346112_eng.pdf",
        "/DAM/DAM-comn-comn/WORKAREA/DAM-comn-comn/images-images/download_pdf_1558729521562_eng.png",
        "/DAM/DAM-aboutcfia-sujetacia/STAGING/images-images/regs_safe_food_inforgraphic_plan_1431108312816_eng.jpg"
    ],
    "urlFr": [
        "/DAM/DAM-aboutcfia-sujetacia/STAGING/text-texte/regs_safe_food_inforgraphic_plan_1431108346112_fra.pdf",
        "/DAM/DAM-comn-comn/WORKAREA/DAM-comn-comn/images-images/download_pdf_1558729521562_fra.png",
        "/DAM/DAM-aboutcfia-sujetacia/STAGING/images-images/regs_safe_food_inforgraphic_plan_1431108312816_fra.jpg"
    ],
    "managing_branch": "comn"
}