{
    "dcr_id": "1509450792421",
    "urlEn": [
        "/DAM/DAM-form-forme/STAGING/text-texte/c5715_re_1509555502064_eng.pdf"
    ],
    "urlFr": [
        "/DAM/DAM-form-forme/STAGING/text-texte/c5715_re_1509555502064_fra.pdf"
    ],
    "managing_branch": "comn"
}