{
    "dcr_id": "1557178759770",
    "urlEn": [
        "/DAM/DAM-food-aliments/STAGING/text-texte/candy_may_2015_mar_2016_1557178532941_eng.pdf"
    ],
    "urlFr": [
        "/DAM/DAM-food-aliments/STAGING/text-texte/candy_may_2015_mar_2016_1557178532941_fra.pdf"
    ],
    "managing_branch": "comn"
}