{
    "dcr_id": "1556050284212",
    "urlEn": [
        "/DAM/DAM-animals-animaux/STAGING/images-images/travelling_pigs_asf_1556033937376_eng.jpg",
        "/DAM/DAM-animals-animaux/STAGING/images-images/economic_impact_asf_1556033444182_eng.png"
    ],
    "urlFr": [
        "/DAM/DAM-animals-animaux/STAGING/images-images/travelling_pigs_asf_1556033937376_fra.jpg",
        "/DAM/DAM-animals-animaux/STAGING/images-images/economic_impact_asf_1556033444182_fra.png"
    ],
    "managing_branch": "comn"
}