{
    "dcr_id": "1312587385591",
    "urlEn": [
        "/DAM/DAM-plants-vegetaux/STAGING/text-texte/pota_vari_aclrrusbur_1312587405968_eng.pdf",
        "/DAM/DAM-plants-vegetaux/STAGING/text-texte/pota_vari_aclrrusburphoto_1312587405971_eng.pdf",
        "/DAM/DAM-plants-vegetaux/STAGING/images-images/pota_vari_aclrrusbura_1312587405974_eng.jpg",
        "/DAM/DAM-plants-vegetaux/STAGING/images-images/pota_vari_aclrrusburb_1312587405977_eng.jpg",
        "/DAM/DAM-plants-vegetaux/STAGING/images-images/pota_vari_aclrrusburc_1312587405980_eng.jpg",
        "/DAM/DAM-plants-vegetaux/STAGING/images-images/pota_vari_aclrrusburd_1312587405983_eng.jpg",
        "/DAM/DAM-plants-vegetaux/STAGING/images-images/pota_vari_aclrrusbur_1312587405986_eng.jpg",
        "/DAM/DAM-plants-vegetaux/STAGING/images-images/pota_vari_aclrrusburf_1312587405989_eng.jpg",
        "/DAM/DAM-plants-vegetaux/STAGING/images-images/pota_vari_aclrrusbura_small_1312587405994_eng.jpg",
        "/DAM/DAM-plants-vegetaux/STAGING/images-images/pota_vari_aclrrusburb_small_1312587405997_eng.jpg",
        "/DAM/DAM-plants-vegetaux/STAGING/images-images/pota_vari_aclrrusburc_small_1312587406000_eng.jpg",
        "/DAM/DAM-plants-vegetaux/STAGING/images-images/pota_vari_aclrrusburd_small_1312587406003_eng.jpg",
        "/DAM/DAM-plants-vegetaux/STAGING/images-images/pota_vari_aclrrusbure_small_1312587406006_eng.jpg",
        "/DAM/DAM-plants-vegetaux/STAGING/images-images/pota_vari_aclrrusburf_small_1312587406009_eng.jpg"
    ],
    "urlFr": [
        "/DAM/DAM-plants-vegetaux/STAGING/text-texte/pota_vari_aclrrusbur_1312587405968_fra.pdf",
        "/DAM/DAM-plants-vegetaux/STAGING/text-texte/pota_vari_aclrrusburphoto_1312587405971_fra.pdf",
        "/DAM/DAM-plants-vegetaux/STAGING/images-images/pota_vari_aclrrusbura_1312587405974_fra.jpg",
        "/DAM/DAM-plants-vegetaux/STAGING/images-images/pota_vari_aclrrusburb_1312587405977_fra.jpg",
        "/DAM/DAM-plants-vegetaux/STAGING/images-images/pota_vari_aclrrusburc_1312587405980_fra.jpg",
        "/DAM/DAM-plants-vegetaux/STAGING/images-images/pota_vari_aclrrusburd_1312587405983_fra.jpg",
        "/DAM/DAM-plants-vegetaux/STAGING/images-images/pota_vari_aclrrusbur_1312587405986_fra.jpg",
        "/DAM/DAM-plants-vegetaux/STAGING/images-images/pota_vari_aclrrusburf_1312587405989_fra.jpg",
        "/DAM/DAM-plants-vegetaux/STAGING/images-images/pota_vari_aclrrusbura_small_1312587405994_eng.jpg",
        "/DAM/DAM-plants-vegetaux/STAGING/images-images/pota_vari_aclrrusburb_small_1312587405997_eng.jpg",
        "/DAM/DAM-plants-vegetaux/STAGING/images-images/pota_vari_aclrrusburc_small_1312587406000_eng.jpg",
        "/DAM/DAM-plants-vegetaux/STAGING/images-images/pota_vari_aclrrusburd_small_1312587406003_eng.jpg",
        "/DAM/DAM-plants-vegetaux/STAGING/images-images/pota_vari_aclrrusbure_small_1312587406006_eng.jpg",
        "/DAM/DAM-plants-vegetaux/STAGING/images-images/pota_vari_aclrrusburf_small_1312587406009_eng.jpg"
    ],
    "managing_branch": "comn"
}