{
    "dcr_id": "1327682455382",
    "urlEn": [
        "/DAM/DAM-plants-vegetaux/STAGING/images-images/pestrava_sirnoc_index_image1_1327675445224_eng.gif"
    ],
    "urlFr": [
        "/DAM/DAM-plants-vegetaux/STAGING/images-images/pestrava_sirnoc_index_image1_1327675445224_fra.gif"
    ],
    "managing_branch": "comn"
}