{
    "dcr_id": "1405513897968",
    "urlEn": [
        "/DAM/DAM-plants-vegetaux/WORKAREA/DAM-plants-vegetaux/images-images/invasive_plants_seed_factsheet_tripleuros_maritimum_inodorum_img4_1405511754531_eng.jpg",
        "/DAM/DAM-plants-vegetaux/WORKAREA/DAM-plants-vegetaux/images-images/invasive_plants_seed_factsheet_tripleuros_maritimum_inodorum_img1_1405511505015_eng.jpg",
        "/DAM/DAM-plants-vegetaux/WORKAREA/DAM-plants-vegetaux/images-images/invasive_plants_seed_factsheet_tripleuros_maritimum_inodorum_img2_1405511535421_eng.jpg",
        "/DAM/DAM-plants-vegetaux/WORKAREA/DAM-plants-vegetaux/images-images/invasive_plants_seed_factsheet_tripleuros_maritimum_inodorum_img5_1509982808468_eng.jpg",
        "/DAM/DAM-plants-vegetaux/WORKAREA/DAM-plants-vegetaux/images-images/invasive_plants_seed_factsheet_tripleuros_maritimum_inodorum_img6_1509982827460_eng.jpg",
        "/DAM/DAM-plants-vegetaux/WORKAREA/DAM-plants-vegetaux/images-images/invasive_plants_seed_factsheet_tripleuros_maritimum_maritimum_img3_1405511931140_eng.jpg",
        "/DAM/DAM-plants-vegetaux/WORKAREA/DAM-plants-vegetaux/images-images/invasive_plants_seed_factsheet_tripleuros_maritimum_maritimum_img2_1405511851156_eng.jpg",
        "/DAM/DAM-plants-vegetaux/WORKAREA/DAM-plants-vegetaux/images-images/invasive_plants_seed_factsheet_tripleuros_maritimum_maritimum_img1_1405511808328_eng.jpg"
    ],
    "urlFr": [
        "/DAM/DAM-plants-vegetaux/WORKAREA/DAM-plants-vegetaux/images-images/invasive_plants_seed_factsheet_tripleuros_maritimum_inodorum_img4_1405511754531_fra.jpg",
        "/DAM/DAM-plants-vegetaux/WORKAREA/DAM-plants-vegetaux/images-images/invasive_plants_seed_factsheet_tripleuros_maritimum_inodorum_img1_1405511505015_fra.jpg",
        "/DAM/DAM-plants-vegetaux/WORKAREA/DAM-plants-vegetaux/images-images/invasive_plants_seed_factsheet_tripleuros_maritimum_inodorum_img2_1405511535421_fra.jpg",
        "/DAM/DAM-plants-vegetaux/WORKAREA/DAM-plants-vegetaux/images-images/invasive_plants_seed_factsheet_tripleuros_maritimum_inodorum_img5_1509982808468_fra.jpg",
        "/DAM/DAM-plants-vegetaux/WORKAREA/DAM-plants-vegetaux/images-images/invasive_plants_seed_factsheet_tripleuros_maritimum_inodorum_img6_1509982827460_fra.jpg",
        "/DAM/DAM-plants-vegetaux/WORKAREA/DAM-plants-vegetaux/images-images/invasive_plants_seed_factsheet_tripleuros_maritimum_maritimum_img3_1405511931140_fra.jpg",
        "/DAM/DAM-plants-vegetaux/WORKAREA/DAM-plants-vegetaux/images-images/invasive_plants_seed_factsheet_tripleuros_maritimum_maritimum_img2_1405511851156_fra.jpg",
        "/DAM/DAM-plants-vegetaux/WORKAREA/DAM-plants-vegetaux/images-images/invasive_plants_seed_factsheet_tripleuros_maritimum_maritimum_img1_1405511808328_fra.jpg"
    ],
    "managing_branch": "comn"
}