{
    "dcr_id": "1699580359449",
    "urlEn": [
        "/DAM/DAM-animals-animaux/STAGING/text-texte/revocation_order_pcz_213_1705271069915_eng.pdf",
        "/DAM/DAM-animals-animaux/STAGING/text-texte/amendment_designation_order_for_pcz_213_1700242998947_eng.pdf",
        "/DAM/DAM-animals-animaux/STAGING/text-texte/amendment_order_declaring_pcz_213_1700243075676_eng.pdf",
        "/DAM/DAM-animals-animaux/STAGING/text-texte/designation_order_for_pcz_213_1699579341335_eng.pdf",
        "/DAM/DAM-animals-animaux/STAGING/text-texte/order_declaring_pcz_213_1699579342697_eng.pdf",
        "/DAM/DAM-comn-comn/STAGING/images-images/download_pdf_1558729521562_eng.png"
    ],
    "urlFr": [
        "/DAM/DAM-animals-animaux/STAGING/text-texte/revocation_order_pcz_213_1705271069915_fra.pdf",
        "/DAM/DAM-animals-animaux/STAGING/text-texte/amendment_designation_order_for_pcz_213_1700242998947_fra.pdf",
        "/DAM/DAM-animals-animaux/STAGING/text-texte/amendment_order_declaring_pcz_213_1700243075676_fra.pdf",
        "/DAM/DAM-animals-animaux/STAGING/text-texte/designation_order_for_pcz_213_1699579341335_fra.pdf",
        "/DAM/DAM-animals-animaux/STAGING/text-texte/order_declaring_pcz_213_1699579342697_fra.pdf",
        "/DAM/DAM-comn-comn/STAGING/images-images/download_pdf_1558729521562_fra.png"
    ],
    "managing_branch": "comn"
}