{
    "dcr_id": "1671802541583",
    "urlEn": [
        "/DAM/DAM-animals-animaux/WORKAREA/DAM-animals-animaux/text-texte/terr_anima_export_certif_dogs_cats_ferrets_sint_maarten_1671803689189_eng.pdf"
    ],
    "urlFr": [
        "/DAM/DAM-animals-animaux/WORKAREA/DAM-animals-animaux/text-texte/terr_anima_export_certif_dogs_cats_ferrets_sint_maarten_1671803689189_eng.pdf"
    ],
    "managing_branch": "comn"
}