{
    "dcr_id": "1526472289805",
    "urlEn": [
        "/DAM/DAM-aboutcfia-sujetacia/STAGING/images-images/food_sfcr_preventive_control_business_banner_1575293579553_eng.jpg",
        "/DAM/DAM-aboutcfia-sujetacia/STAGING/images-images/pcp_1576181371730_eng.jpg",
        "/DAM/DAM-aboutcfia-sujetacia/STAGING/images-images/food_illness_1576181370684_eng.jpg"
    ],
    "urlFr": [
        "/DAM/DAM-aboutcfia-sujetacia/STAGING/images-images/food_sfcr_preventive_control_business_banner_1575293579553_fra.jpg",
        "/DAM/DAM-aboutcfia-sujetacia/STAGING/images-images/pcp_1576181371730_fra.jpg",
        "/DAM/DAM-aboutcfia-sujetacia/STAGING/images-images/food_illness_1576181370684_fra.jpg"
    ],
    "managing_branch": "comn"
}