{
    "dcr_id": "1374845029541",
    "urlEn": [
        "/DAM/DAM-food-aliments/STAGING/text-texte/fresh_qual_cpiq_manual_appendixh_1375106667210_eng.pdf",
        "/DAM/DAM-aboutcfia-sujetacia/STAGING/images-images/code-space_1384467519696_eng.gif"
    ],
    "urlFr": [
        "/DAM/DAM-food-aliments/STAGING/text-texte/fresh_qual_cpiq_manual_appendixh_1375106667210_fra.pdf",
        "/DAM/DAM-aboutcfia-sujetacia/STAGING/images-images/code-space_1384467519696_fra.gif"
    ],
    "managing_branch": "comn"
}