{
    "dcr_id": "1668966741811",
    "urlEn": [
        "/DAM/DAM-animals-animaux/STAGING/text-texte/revocation_order_pcz_151_1677982577572_eng.pdf",
        "/DAM/DAM-animals-animaux/STAGING/text-texte/order_amending_designation_order_pcz_151_1669767853293_eng.pdf",
        "/DAM/DAM-animals-animaux/STAGING/text-texte/order_amending_declaration_order_pcz_151_1669767132327_eng.pdf",
        "/DAM/DAM-animals-animaux/STAGING/text-texte/designation_order_for_pcz_151_1668966875715_eng.pdf",
        "/DAM/DAM-animals-animaux/STAGING/text-texte/order_declaring_pcz_151_1668966840550_eng.pdf",
        "/DAM/DAM-comn-comn/STAGING/images-images/download_pdf_1558729521562_eng.png"
    ],
    "urlFr": [
        "/DAM/DAM-animals-animaux/STAGING/text-texte/revocation_order_pcz_151_1677982577572_fra.pdf",
        "/DAM/DAM-animals-animaux/STAGING/text-texte/order_amending_designation_order_pcz_151_1669767853293_fra.pdf",
        "/DAM/DAM-animals-animaux/STAGING/text-texte/order_amending_declaration_order_pcz_151_1669767132327_fra.pdf",
        "/DAM/DAM-animals-animaux/STAGING/text-texte/designation_order_for_pcz_151_1668966875715_fra.pdf",
        "/DAM/DAM-animals-animaux/STAGING/text-texte/order_declaring_pcz_151_1668966840550_fra.pdf",
        "/DAM/DAM-comn-comn/STAGING/images-images/download_pdf_1558729521562_fra.png"
    ],
    "managing_branch": "comn"
}