{
    "dcr_id": "1698236138644",
    "urlEn": [
        "/DAM/DAM-aboutcfia-sujetacia/STAGING/images-images/ins_lunch_snack_label_tips_600x600_1698236657901_eng.jpg"
    ],
    "urlFr": [
        "/DAM/DAM-aboutcfia-sujetacia/STAGING/images-images/ins_lunch_snack_label_tips_600x600_1698236657901_fra.jpg"
    ],
    "managing_branch": "comn"
}