{
    "dcr_id": "1394136147728",
    "urlEn": [
        "/DAM/DAM-aboutcfia-sujetacia/STAGING/images-images/code-space_1384467519696_eng.gif"
    ],
    "urlFr": [
        "/DAM/DAM-aboutcfia-sujetacia/STAGING/images-images/code-space_1384467519696_fra.gif"
    ],
    "managing_branch": "comn"
}