{
    "dcr_id": "1312587385645",
    "urlEn": [
        "/DAM/DAM-plants-vegetaux/STAGING/text-texte/pota_vari_babyboomer_1312587452661_eng.pdf",
        "/DAM/DAM-plants-vegetaux/STAGING/text-texte/pota_vari_babyboomerphoto_1312587452664_eng.pdf",
        "/DAM/DAM-plants-vegetaux/STAGING/images-images/pota_vari_babyboomera_1312587452667_eng.jpg",
        "/DAM/DAM-plants-vegetaux/STAGING/images-images/pota_vari_babyboomerb_1312587452670_eng.jpg",
        "/DAM/DAM-plants-vegetaux/STAGING/images-images/pota_vari_babyboomerc_1312587452673_eng.jpg",
        "/DAM/DAM-plants-vegetaux/STAGING/images-images/pota_vari_babyboomerd_1312587452676_eng.jpg",
        "/DAM/DAM-plants-vegetaux/STAGING/images-images/pota_vari_babyboomer_1312587452679_eng.jpg",
        "/DAM/DAM-plants-vegetaux/STAGING/images-images/pota_vari_babyboomerf_1312587452682_eng.jpg",
        "/DAM/DAM-plants-vegetaux/STAGING/images-images/pota_vari_babyboomera_small_1312587452687_eng.jpg",
        "/DAM/DAM-plants-vegetaux/STAGING/images-images/pota_vari_babyboomerb_small_1312587452691_eng.jpg",
        "/DAM/DAM-plants-vegetaux/STAGING/images-images/pota_vari_babyboomerc_small_1312587452694_eng.jpg",
        "/DAM/DAM-plants-vegetaux/STAGING/images-images/pota_vari_babyboomerd_small_1312587452697_eng.jpg",
        "/DAM/DAM-plants-vegetaux/STAGING/images-images/pota_vari_babyboomere_small_1312587452700_eng.jpg",
        "/DAM/DAM-plants-vegetaux/STAGING/images-images/pota_vari_babyboomerf_small_1312587452703_eng.jpg"
    ],
    "urlFr": [
        "/DAM/DAM-plants-vegetaux/STAGING/text-texte/pota_vari_babyboomer_1312587452661_fra.pdf",
        "/DAM/DAM-plants-vegetaux/STAGING/text-texte/pota_vari_babyboomerphoto_1312587452664_fra.pdf",
        "/DAM/DAM-plants-vegetaux/STAGING/images-images/pota_vari_babyboomera_1312587452667_fra.jpg",
        "/DAM/DAM-plants-vegetaux/STAGING/images-images/pota_vari_babyboomerb_1312587452670_fra.jpg",
        "/DAM/DAM-plants-vegetaux/STAGING/images-images/pota_vari_babyboomerc_1312587452673_fra.jpg",
        "/DAM/DAM-plants-vegetaux/STAGING/images-images/pota_vari_babyboomerd_1312587452676_fra.jpg",
        "/DAM/DAM-plants-vegetaux/STAGING/images-images/pota_vari_babyboomer_1312587452679_fra.jpg",
        "/DAM/DAM-plants-vegetaux/STAGING/images-images/pota_vari_babyboomerf_1312587452682_fra.jpg",
        "/DAM/DAM-plants-vegetaux/STAGING/images-images/pota_vari_babyboomera_small_1312587452687_eng.jpg",
        "/DAM/DAM-plants-vegetaux/STAGING/images-images/pota_vari_babyboomerb_small_1312587452691_eng.jpg",
        "/DAM/DAM-plants-vegetaux/STAGING/images-images/pota_vari_babyboomerc_small_1312587452694_eng.jpg",
        "/DAM/DAM-plants-vegetaux/STAGING/images-images/pota_vari_babyboomerd_small_1312587452697_eng.jpg",
        "/DAM/DAM-plants-vegetaux/STAGING/images-images/pota_vari_babyboomere_small_1312587452700_eng.jpg",
        "/DAM/DAM-plants-vegetaux/STAGING/images-images/pota_vari_babyboomerf_small_1312587452703_eng.jpg"
    ],
    "managing_branch": "comn"
}