{
    "dcr_id": "1689695669351",
    "urlEn": [
        "/DAM/DAM-plants-vegetaux/STAGING/text-texte/c5407_1329514095996_eng.pdf"
    ],
    "urlFr": [
        "/DAM/DAM-plants-vegetaux/STAGING/text-texte/c5407_1329514095996_fra.pdf"
    ],
    "managing_branch": "comn"
}