{
    "dcr_id": "1312587385715",
    "urlEn": [
        "/DAM/DAM-plants-vegetaux/STAGING/text-texte/pota_vari_exploits_1312587513678_eng.pdf",
        "/DAM/DAM-plants-vegetaux/STAGING/text-texte/pota_vari_exploitsphoto_1312587513682_eng.pdf",
        "/DAM/DAM-plants-vegetaux/STAGING/images-images/pota_vari_exploitsa_1312587513686_eng.jpg",
        "/DAM/DAM-plants-vegetaux/STAGING/images-images/pota_vari_exploitsb_1312587513690_eng.jpg",
        "/DAM/DAM-plants-vegetaux/STAGING/images-images/pota_vari_exploitsc_1312587513693_eng.jpg",
        "/DAM/DAM-plants-vegetaux/STAGING/images-images/pota_vari_exploitsd_1312587513696_eng.jpg",
        "/DAM/DAM-plants-vegetaux/STAGING/images-images/pota_vari_exploits_1312587513700_eng.jpg",
        "/DAM/DAM-plants-vegetaux/STAGING/images-images/pota_vari_exploitsf_1312587513704_eng.jpg",
        "/DAM/DAM-plants-vegetaux/STAGING/images-images/pota_vari_exploitsa_small_1312587513710_eng.jpg",
        "/DAM/DAM-plants-vegetaux/STAGING/images-images/pota_vari_exploitsb_small_1312587513714_eng.jpg",
        "/DAM/DAM-plants-vegetaux/STAGING/images-images/pota_vari_exploitsc_small_1312587513718_eng.jpg",
        "/DAM/DAM-plants-vegetaux/STAGING/images-images/pota_vari_exploitsd_small_1312587513722_eng.jpg",
        "/DAM/DAM-plants-vegetaux/STAGING/images-images/pota_vari_exploitse_small_1312587513726_eng.jpg",
        "/DAM/DAM-plants-vegetaux/STAGING/images-images/pota_vari_exploitsf_small_1312587513730_eng.jpg"
    ],
    "urlFr": [
        "/DAM/DAM-plants-vegetaux/STAGING/text-texte/pota_vari_exploits_1312587513678_fra.pdf",
        "/DAM/DAM-plants-vegetaux/STAGING/text-texte/pota_vari_exploitsphoto_1312587513682_fra.pdf",
        "/DAM/DAM-plants-vegetaux/STAGING/images-images/pota_vari_exploitsa_1312587513686_fra.jpg",
        "/DAM/DAM-plants-vegetaux/STAGING/images-images/pota_vari_exploitsb_1312587513690_fra.jpg",
        "/DAM/DAM-plants-vegetaux/STAGING/images-images/pota_vari_exploitsc_1312587513693_fra.jpg",
        "/DAM/DAM-plants-vegetaux/STAGING/images-images/pota_vari_exploitsd_1312587513696_fra.jpg",
        "/DAM/DAM-plants-vegetaux/STAGING/images-images/pota_vari_exploits_1312587513700_fra.jpg",
        "/DAM/DAM-plants-vegetaux/STAGING/images-images/pota_vari_exploitsf_1312587513704_fra.jpg",
        "/DAM/DAM-plants-vegetaux/STAGING/images-images/pota_vari_exploitsa_small_1312587513710_eng.jpg",
        "/DAM/DAM-plants-vegetaux/STAGING/images-images/pota_vari_exploitsb_small_1312587513714_eng.jpg",
        "/DAM/DAM-plants-vegetaux/STAGING/images-images/pota_vari_exploitsc_small_1312587513718_eng.jpg",
        "/DAM/DAM-plants-vegetaux/STAGING/images-images/pota_vari_exploitsd_small_1312587513722_eng.jpg",
        "/DAM/DAM-plants-vegetaux/STAGING/images-images/pota_vari_exploitse_small_1312587513726_eng.jpg",
        "/DAM/DAM-plants-vegetaux/STAGING/images-images/pota_vari_exploitsf_small_1312587513730_eng.jpg"
    ],
    "managing_branch": "comn"
}