{
    "dcr_id": "1546892808848",
    "urlEn": [
        "/DAM/DAM-food-aliments/STAGING/text-texte/org_insp_impmeatprod_app1_1674678579343_eng.pdf"
    ],
    "urlFr": [
        "/DAM/DAM-food-aliments/STAGING/text-texte/org_insp_impmeatprod_app1_1674678579343_fra.pdf"
    ],
    "managing_branch": "comn"
}