{
    "dcr_id": "1503603589154",
    "urlEn": [
        "/DAM/DAM-form-forme/STAGING/text-texte/c4177_re_1503931048511_eng.pdf"
    ],
    "urlFr": [
        "/DAM/DAM-form-forme/STAGING/text-texte/c4177_re_1503931048511_fra.pdf"
    ],
    "managing_branch": "comn"
}