{
    "dcr_id": "1650483430352",
    "urlEn": [
        "/DAM/DAM-plants-vegetaux/STAGING/text-texte/pestrava_popjap_bc_infected_order_all_1650589568754_eng.pdf"
    ],
    "urlFr": [
        "/DAM/DAM-plants-vegetaux/STAGING/text-texte/pestrava_popjap_bc_infected_order_all_1650589568754_fra.pdf"
    ],
    "managing_branch": "comn"
}