{
    "dcr_id": "1699475874878",
    "urlEn": [
        "/DAM/DAM-animals-animaux/STAGING/text-texte/revocation_order_pcz_211_1710621685787_eng.pdf",
        "/DAM/DAM-animals-animaux/STAGING/text-texte/amended_designation_order_pcz_211_1702334647069_eng.pdf",
        "/DAM/DAM-animals-animaux/STAGING/text-texte/amendment_declaration_order_pcz_211_1702320717333_fra.pdf",
        "/DAM/DAM-animals-animaux/STAGING/text-texte/amendment_designation_order_pcz_211_1700006413920_eng.pdf",
        "/DAM/DAM-animals-animaux/STAGING/text-texte/amendment_designation_order_pcz_211_1699798694236_eng.pdf",
        "/DAM/DAM-animals-animaux/STAGING/text-texte/amendment_order_declaring_pcz_211_1699798524826_eng.pdf",
        "/DAM/DAM-animals-animaux/STAGING/text-texte/designation_order_for_pcz_211_1699476064058_eng.pdf",
        "/DAM/DAM-animals-animaux/STAGING/text-texte/order_declaring_pcz_211_1699476189312_eng.pdf",
        "/DAM/DAM-comn-comn/STAGING/images-images/download_pdf_1558729521562_eng.png"
    ],
    "urlFr": [
        "/DAM/DAM-animals-animaux/STAGING/text-texte/revocation_order_pcz_211_1710621685787_fra.pdf",
        "/DAM/DAM-animals-animaux/STAGING/text-texte/amended_designation_order_pcz_211_1702334647069_fra.pdf",
        "/DAM/DAM-animals-animaux/STAGING/text-texte/amendment_declaration_order_pcz_211_1702320717333_fra.pdf",
        "/DAM/DAM-animals-animaux/STAGING/text-texte/amendment_designation_order_pcz_211_1699798694236_fra.pdf",
        "/DAM/DAM-animals-animaux/STAGING/text-texte/amendment_order_declaring_pcz_211_1699798524826_fra.pdf",
        "/DAM/DAM-animals-animaux/STAGING/text-texte/designation_order_for_pcz_211_1699476064058_fra.pdf",
        "/DAM/DAM-animals-animaux/STAGING/text-texte/order_declaring_pcz_211_1699476189312_fra.pdf",
        "/DAM/DAM-comn-comn/STAGING/images-images/download_pdf_1558729521562_fra.png"
    ],
    "managing_branch": "comn"
}