{
    "dcr_id": "1312587385845",
    "urlEn": [
        "/DAM/DAM-plants-vegetaux/STAGING/text-texte/pota_vari_prospect_1312587628823_eng.pdf",
        "/DAM/DAM-plants-vegetaux/STAGING/images-images/pota_vari_prospecta_1312587628828_eng.jpg",
        "/DAM/DAM-plants-vegetaux/STAGING/images-images/pota_vari_prospectb_1312587628833_eng.jpg",
        "/DAM/DAM-plants-vegetaux/STAGING/images-images/pota_vari_prospectc_1312587628838_eng.jpg",
        "/DAM/DAM-plants-vegetaux/STAGING/images-images/pota_vari_prospectd_1312587628843_eng.jpg",
        "/DAM/DAM-plants-vegetaux/STAGING/images-images/pota_vari_prospect_1312587628848_eng.jpg",
        "/DAM/DAM-plants-vegetaux/STAGING/images-images/pota_vari_prospectf_1312587628853_eng.jpg",
        "/DAM/DAM-plants-vegetaux/STAGING/images-images/pota_vari_prospecta_small_1312587628860_eng.jpg",
        "/DAM/DAM-plants-vegetaux/STAGING/images-images/pota_vari_prospectb_small_1312587628865_eng.jpg",
        "/DAM/DAM-plants-vegetaux/STAGING/images-images/pota_vari_prospectc_small_1312587628870_eng.jpg",
        "/DAM/DAM-plants-vegetaux/STAGING/images-images/pota_vari_prospectd_small_1312587628875_eng.jpg",
        "/DAM/DAM-plants-vegetaux/STAGING/images-images/pota_vari_prospecte_small_1312587628880_eng.jpg",
        "/DAM/DAM-plants-vegetaux/STAGING/images-images/pota_vari_prospectf_small_1312587628885_eng.jpg"
    ],
    "urlFr": [
        "/DAM/DAM-plants-vegetaux/STAGING/text-texte/pota_vari_prospect_1312587628823_fra.pdf",
        "/DAM/DAM-plants-vegetaux/STAGING/images-images/pota_vari_prospecta_1312587628828_fra.jpg",
        "/DAM/DAM-plants-vegetaux/STAGING/images-images/pota_vari_prospectb_1312587628833_fra.jpg",
        "/DAM/DAM-plants-vegetaux/STAGING/images-images/pota_vari_prospectc_1312587628838_fra.jpg",
        "/DAM/DAM-plants-vegetaux/STAGING/images-images/pota_vari_prospectd_1312587628843_fra.jpg",
        "/DAM/DAM-plants-vegetaux/STAGING/images-images/pota_vari_prospect_1312587628848_fra.jpg",
        "/DAM/DAM-plants-vegetaux/STAGING/images-images/pota_vari_prospectf_1312587628853_fra.jpg",
        "/DAM/DAM-plants-vegetaux/STAGING/images-images/pota_vari_prospecta_small_1312587628860_eng.jpg",
        "/DAM/DAM-plants-vegetaux/STAGING/images-images/pota_vari_prospectb_small_1312587628865_eng.jpg",
        "/DAM/DAM-plants-vegetaux/STAGING/images-images/pota_vari_prospectc_small_1312587628870_eng.jpg",
        "/DAM/DAM-plants-vegetaux/STAGING/images-images/pota_vari_prospectd_small_1312587628875_eng.jpg",
        "/DAM/DAM-plants-vegetaux/STAGING/images-images/pota_vari_prospecte_small_1312587628880_eng.jpg",
        "/DAM/DAM-plants-vegetaux/STAGING/images-images/pota_vari_prospectf_small_1312587628885_eng.jpg"
    ],
    "managing_branch": "comn"
}