{
    "dcr_id": "1598893358695",
    "urlEn": [
        "/DAM/DAM-food-aliments/STAGING/text-texte/undclrd_alrgns_gltn_tea_apr_2018_mar_2019_1598893662263_eng.pdf"
    ],
    "urlFr": [
        "/DAM/DAM-food-aliments/STAGING/text-texte/undclrd_alrgns_gltn_tea_apr_2018_mar_2019_1598893662263_fra.pdf"
    ],
    "managing_branch": "comn"
}