{
    "dcr_id": "1477321452854",
    "urlEn": [
        "/DAM/DAM-plants-vegetaux/STAGING/images-images/invasive_plants_seed_factsheet_silene_latifolia_01cnsh_1476893155644_eng.jpg",
        "/DAM/DAM-plants-vegetaux/STAGING/images-images/invasive_plants_seed_factsheet_silene_latifolia_02cnsh_1475606624825_eng.jpg",
        "/DAM/DAM-plants-vegetaux/STAGING/images-images/invasive_plants_seed_factsheet_silene_latifolia_04cnsh_1476893187853_eng.jpg",
        "/DAM/DAM-plants-vegetaux/STAGING/images-images/invasive_plants_seed_factsheet_silene_latifolia_05cnsh_1476893213354_eng.jpg",
        "/DAM/DAM-plants-vegetaux/STAGING/images-images/invasive_plants_seed_factsheet_silene_latifolia_img5_1509980839743_eng.jpg",
        "/DAM/DAM-plants-vegetaux/STAGING/images-images/invasive_plants_seed_factsheet_silene_noctiflora_05cnsh_1476893327321_eng.jpg",
        "/DAM/DAM-plants-vegetaux/STAGING/images-images/invasive_plants_seed_factsheet_silene_noctiflora_03cnsh_1476893260483_eng.jpg",
        "/DAM/DAM-plants-vegetaux/STAGING/images-images/invasive_plants_seed_factsheet_silene_vulgaris_05cnsh_1476893528028_eng.jpg",
        "/DAM/DAM-plants-vegetaux/STAGING/images-images/invasive_plants_seed_factsheet_silene_vulgaris_04cnsh_1476893494916_eng.jpg"
    ],
    "urlFr": [
        "/DAM/DAM-plants-vegetaux/STAGING/images-images/invasive_plants_seed_factsheet_silene_latifolia_01cnsh_1476893155644_fra.jpg",
        "/DAM/DAM-plants-vegetaux/STAGING/images-images/invasive_plants_seed_factsheet_silene_latifolia_02cnsh_1475606624825_fra.jpg",
        "/DAM/DAM-plants-vegetaux/STAGING/images-images/invasive_plants_seed_factsheet_silene_latifolia_04cnsh_1476893187853_fra.jpg",
        "/DAM/DAM-plants-vegetaux/STAGING/images-images/invasive_plants_seed_factsheet_silene_latifolia_05cnsh_1476893213354_fra.jpg",
        "/DAM/DAM-plants-vegetaux/STAGING/images-images/invasive_plants_seed_factsheet_silene_latifolia_img5_1509980839743_fra.jpg",
        "/DAM/DAM-plants-vegetaux/STAGING/images-images/invasive_plants_seed_factsheet_silene_noctiflora_05cnsh_1476893327321_fra.jpg",
        "/DAM/DAM-plants-vegetaux/STAGING/images-images/invasive_plants_seed_factsheet_silene_noctiflora_03cnsh_1476893260483_fra.jpg",
        "/DAM/DAM-plants-vegetaux/STAGING/images-images/invasive_plants_seed_factsheet_silene_vulgaris_05cnsh_1476893528028_fra.jpg",
        "/DAM/DAM-plants-vegetaux/STAGING/images-images/invasive_plants_seed_factsheet_silene_vulgaris_04cnsh_1476893494916_fra.jpg"
    ],
    "managing_branch": "comn"
}