{
    "dcr_id": "1633713369501",
    "urlEn": [
        "/DAM/DAM-aboutcfia-sujetacia/STAGING/audio-audio/c360_podcast_bug_fight_ep_4_1633717251947_eng.mp3",
        "/DAM/DAM-aboutcfia-sujetacia/STAGING/images-images/c360_podcast_bug_fight_600x600_1633713618917_eng.jpg",
        "/DAM/DAM-aboutcfia-sujetacia/STAGING/images-images/c360_inspect_protect_apple_1613668009777_eng.jpg",
        "/DAM/DAM-aboutcfia-sujetacia/STAGING/images-images/c360_inspect_protect_google_podcasts_1613668010683_eng.jpg",
        "/DAM/DAM-aboutcfia-sujetacia/STAGING/images-images/c360_inspect_protect_spotify_1613668010230_eng.jpg"
    ],
    "urlFr": [
        "/DAM/DAM-aboutcfia-sujetacia/STAGING/audio-audio/c360_podcast_bug_fight_ep_4_1633717251947_fra.mp3",
        "/DAM/DAM-aboutcfia-sujetacia/STAGING/images-images/c360_podcast_bug_fight_600x600_1633713618917_fra.jpg",
        "/DAM/DAM-aboutcfia-sujetacia/STAGING/images-images/c360_inspect_protect_apple_1613668009777_fra.jpg",
        "/DAM/DAM-aboutcfia-sujetacia/STAGING/images-images/c360_inspect_protect_google_podcasts_1613668010683_fra.jpg",
        "/DAM/DAM-aboutcfia-sujetacia/STAGING/images-images/c360_inspect_protect_spotify_1613668010230_fra.jpg"
    ],
    "managing_branch": "comn"
}