{
    "dcr_id": "1580436959720",
    "urlEn": [
        "/DAM/DAM-aboutcfia-sujetacia/STAGING/text-texte/acc_open_transparency_framwrk_2019-2022_1554861382026_eng.pdf"
    ],
    "urlFr": [
        "/DAM/DAM-aboutcfia-sujetacia/STAGING/text-texte/acc_open_transparency_framwrk_2019-2022_1554861382026_fra.pdf"
    ],
    "managing_branch": "comn"
}