{
    "dcr_id": "1321224571347",
    "urlEn": [
        "/DAM/DAM-aboutcfia-sujetacia/STAGING/images-images/code-space_1384467519696_eng.gif",
        "/DAM/DAM-animals-animaux/STAGING/images-images/checkbox_1321223903030_eng.gif"
    ],
    "urlFr": [
        "/DAM/DAM-aboutcfia-sujetacia/STAGING/images-images/code-space_1384467519696_fra.gif",
        "/DAM/DAM-animals-animaux/STAGING/images-images/checkbox_1321223903030_fra.gif"
    ],
    "managing_branch": "comn"
}