{
    "dcr_id": "1589286761115",
    "urlEn": [
        "/DAM/DAM-aboutcfia-sujetacia/STAGING/text-texte/chronicle_trading_cards_textc_1600702409335_eng.pdf",
        "/DAM/DAM-aboutcfia-sujetacia/STAGING/images-images/c360_calling_junior_scientists_600x600_1589287027666_eng.jpg"
    ],
    "urlFr": [
        "/DAM/DAM-aboutcfia-sujetacia/STAGING/text-texte/chronicle_trading_cards_textc_1600702409335_fra.pdf",
        "/DAM/DAM-aboutcfia-sujetacia/STAGING/images-images/c360_calling_junior_scientists_600x600_1589287027666_fra.jpg"
    ],
    "managing_branch": "comn"
}