{
    "dcr_id": "1327501711301",
    "urlEn": [
        "/DAM/DAM-plants-vegetaux/STAGING/images-images/pestrava_phapac_factsheet_image1_1327500614814_eng.jpg",
        "/DAM/DAM-plants-vegetaux/STAGING/images-images/pestrava_phapac_factsheet_image2_1327500808933_eng.jpg",
        "/DAM/DAM-plants-vegetaux/STAGING/images-images/pestrava_phapac_factsheet_image3_1327500846619_eng.jpg",
        "/DAM/DAM-plants-vegetaux/STAGING/images-images/pestrava_phapac_factsheet_image4_1327500910789_eng.jpg",
        "/DAM/DAM-plants-vegetaux/STAGING/images-images/pestrava_phapac_factsheet_image5_1327500962662_eng.jpg",
        "/DAM/DAM-plants-vegetaux/STAGING/images-images/pestrava_phapac_factsheet_image6_1327501005020_eng.jpg"
    ],
    "urlFr": [
        "/DAM/DAM-plants-vegetaux/STAGING/images-images/pestrava_phapac_factsheet_image1_1327500614814_fra.jpg",
        "/DAM/DAM-plants-vegetaux/STAGING/images-images/pestrava_phapac_factsheet_image2_1327500808933_fra.jpg",
        "/DAM/DAM-plants-vegetaux/STAGING/images-images/pestrava_phapac_factsheet_image3_1327500846619_fra.jpg",
        "/DAM/DAM-plants-vegetaux/STAGING/images-images/pestrava_phapac_factsheet_image4_1327500910789_fra.jpg",
        "/DAM/DAM-plants-vegetaux/STAGING/images-images/pestrava_phapac_factsheet_image5_1327500962662_fra.jpg",
        "/DAM/DAM-plants-vegetaux/STAGING/images-images/pestrava_phapac_factsheet_image6_1327501005020_fra.jpg"
    ],
    "managing_branch": "comn"
}