{
    "dcr_id": "1299008020759",
    "urlEn": [
        "/DAM/DAM-aboutcfia-sujetacia/STAGING/images-images/cfia_about_2020_1587482626785_eng.jpg",
        "/DAM/DAM-aboutcfia-sujetacia/STAGING/images-images/buildings_hq_2020_1587486556749_eng.jpg"
    ],
    "urlFr": [
        "/DAM/DAM-aboutcfia-sujetacia/STAGING/images-images/cfia_about_2020_1587482626785_fra.jpg",
        "/DAM/DAM-aboutcfia-sujetacia/STAGING/images-images/buildings_hq_2020_1587486556749_fra.jpg"
    ],
    "managing_branch": "comn"
}