{
    "dcr_id": "1614973488857",
    "urlEn": [
        "/DAM/DAM-form-forme/STAGING/text-texte/c5929_re_1615491193633_eng.pdf"
    ],
    "urlFr": [
        "/DAM/DAM-form-forme/STAGING/text-texte/c5929_re_1615491193633_fra.pdf"
    ],
    "managing_branch": "comn"
}