{
    "dcr_id": "1383768470507",
    "urlEn": [
        "/DAM/DAM-animals-animaux/STAGING/images-images/anim_feed_labelling_1383770710216_eng.gif",
        "/DAM/DAM-animals-animaux/STAGING/images-images/anim_feed_labelling_1383770710217_thumb_eng.gif"
    ],
    "urlFr": [
        "/DAM/DAM-animals-animaux/STAGING/images-images/anim_feed_labelling_1383770710216_fra.gif",
        "/DAM/DAM-animals-animaux/STAGING/images-images/anim_feed_labelling_1383770710217_thumb_fra.gif"
    ],
    "managing_branch": "comn"
}