{
    "dcr_id": "1634587266381",
    "urlEn": [
        "/DAM/DAM-aboutcfia-sujetacia/STAGING/text-texte/acco_repparl_2020-2021drr_full_report_1638379097950_eng.pdf",
        "/DAM/DAM-aboutcfia-sujetacia/STAGING/images-images/acco_repparl_2020-2021drr_cover_1634655101623_eng.jpg",
        "/DAM/DAM-aboutcfia-sujetacia/STAGING/images-images/2021_minister_1633456065677_eng.jpg",
        "/DAM/DAM-aboutcfia-sujetacia/STAGING/images-images/acco_repparl_2020-2021drr_img1_1634656261241_eng.jpg",
        "/DAM/DAM-aboutcfia-sujetacia/STAGING/images-images/acco_repparl_2020-2021drr_img2_1634656280711_eng.jpg",
        "/DAM/DAM-aboutcfia-sujetacia/STAGING/images-images/acco_repparl_2020-2021drr_img3_1634656312007_eng.jpg"
    ],
    "urlFr": [
        "/DAM/DAM-aboutcfia-sujetacia/STAGING/text-texte/acco_repparl_2020-2021drr_full_report_1638379097950_fra.pdf",
        "/DAM/DAM-aboutcfia-sujetacia/STAGING/images-images/acco_repparl_2020-2021drr_cover_1634655101623_fra.jpg",
        "/DAM/DAM-aboutcfia-sujetacia/STAGING/images-images/2021_minister_1633456065677_fra.jpg",
        "/DAM/DAM-aboutcfia-sujetacia/STAGING/images-images/acco_repparl_2020-2021drr_img1_1634656261241_fra.jpg",
        "/DAM/DAM-aboutcfia-sujetacia/STAGING/images-images/acco_repparl_2020-2021drr_img2_1634656280711_fra.jpg",
        "/DAM/DAM-aboutcfia-sujetacia/STAGING/images-images/acco_repparl_2020-2021drr_img3_1634656312007_fra.jpg"
    ],
    "managing_branch": "comn"
}