{
    "dcr_id": "1489410314223",
    "urlEn": [
        "/DAM/DAM-form-forme/STAGING/text-texte/c5801_re_1490892167072_eng.pdf"
    ],
    "urlFr": [
        "/DAM/DAM-form-forme/STAGING/text-texte/c5801_re_1490892167072_fra.pdf"
    ],
    "managing_branch": "comn"
}