{
    "dcr_id": "1409949165321",
    "urlEn": [
        "/DAM/DAM-food-aliments/STAGING/images-images/lble_industry_nutrition_label_toc_additionalinfo_compliance_image1_1409940017131_eng.gif",
        "/DAM/DAM-food-aliments/STAGING/images-images/lble_industry_nutrition_label_toc_additionalinfo_compliance_equation_1412859564163_eng.gif",
        "/DAM/DAM-food-aliments/STAGING/images-images/lble_industry_nutrition_label_toc_additionalinfo_compliance_letters_1412787327925_eng.gif",
        "/DAM/DAM-food-aliments/STAGING/images-images/lble_industry_nutrition_label_toc_additionalinfo_compliance_image1_1412787456505_eng.gif",
        "/DAM/DAM-food-aliments/STAGING/images-images/lble_industry_nutrition_label_toc_additionalinfo_compliance_equation2_1412787119016_eng.gif",
        "/DAM/DAM-food-aliments/STAGING/images-images/lble_industry_nutrition_label_toc_additionalinfo_compliance_graph1_1e_1412788350282_eng.gif",
        "/DAM/DAM-food-aliments/STAGING/images-images/lble_industry_nutrition_label_toc_additionalinfo_compliance_graph1_2e_1412788650052_eng.gif",
        "/DAM/DAM-food-aliments/STAGING/images-images/lble_industry_nutrition_label_toc_additionalinfo_compliance_graph2_1e_1412788905695_eng.gif",
        "/DAM/DAM-food-aliments/STAGING/images-images/lble_industry_nutrition_label_toc_additionalinfo_compliance_graph2_2e_1412789179621_eng.gif",
        "/DAM/DAM-food-aliments/STAGING/images-images/lble_industry_nutrition_label_toc_additionalinfo_compliance_graph3_1e_1412789349326_eng.gif",
        "/DAM/DAM-food-aliments/STAGING/images-images/lble_industry_nutrition_label_toc_additionalinfo_compliance_graph3_2e_1412789490594_eng.gif",
        "/DAM/DAM-food-aliments/STAGING/images-images/lble_industry_nutrition_label_toc_additionalinfo_compliance_graph4_1e_1412789679674_eng.gif",
        "/DAM/DAM-food-aliments/STAGING/images-images/lble_industry_nutrition_label_toc_additionalinfo_compliance_graph4_2e_1412789858208_eng.gif",
        "/DAM/DAM-food-aliments/STAGING/images-images/lble_industry_nutrition_label_toc_additionalinfo_compliance_graph5_1e_1412790047569_eng.gif",
        "/DAM/DAM-food-aliments/STAGING/images-images/lble_industry_nutrition_label_toc_additionalinfo_compliance_graph5_2e_1412790169477_eng.gif",
        "/DAM/DAM-food-aliments/STAGING/images-images/lble_industry_nutrition_label_toc_additionalinfo_compliance_graph6_1e_1412790361698_eng.gif",
        "/DAM/DAM-food-aliments/STAGING/images-images/lble_industry_nutrition_label_toc_additionalinfo_compliance_graph6_2e_1412790418387_eng.gif",
        "/DAM/DAM-food-aliments/STAGING/images-images/lble_industry_nutrition_label_toc_additionalinfo_compliance_letterx_1412795981489_eng.gif",
        "/DAM/DAM-food-aliments/STAGING/images-images/lble_industry_nutrition_label_toc_additionalinfo_compliance_equation3_1412796186335_eng.gif"
    ],
    "urlFr": [
        "/DAM/DAM-food-aliments/STAGING/images-images/lble_industry_nutrition_label_toc_additionalinfo_compliance_image1_1409940017131_fra.gif",
        "/DAM/DAM-food-aliments/STAGING/images-images/lble_industry_nutrition_label_toc_additionalinfo_compliance_equation_1412859564163_fra.gif",
        "/DAM/DAM-food-aliments/STAGING/images-images/lble_industry_nutrition_label_toc_additionalinfo_compliance_letters_1412787327925_fra.gif",
        "/DAM/DAM-food-aliments/STAGING/images-images/lble_industry_nutrition_label_toc_additionalinfo_compliance_image1_1412787456505_eng.gif",
        "/DAM/DAM-food-aliments/STAGING/images-images/lble_industry_nutrition_label_toc_additionalinfo_compliance_equation2_1412787119016_eng.gif",
        "/DAM/DAM-food-aliments/STAGING/images-images/lble_industry_nutrition_label_toc_additionalinfo_compliance_graph1_1e_1412788350282_fra.gif",
        "/DAM/DAM-food-aliments/STAGING/images-images/lble_industry_nutrition_label_toc_additionalinfo_compliance_graph1_2e_1412788650052_fra.gif",
        "/DAM/DAM-food-aliments/STAGING/images-images/lble_industry_nutrition_label_toc_additionalinfo_compliance_graph2_1e_1412788905695_fra.gif",
        "/DAM/DAM-food-aliments/STAGING/images-images/lble_industry_nutrition_label_toc_additionalinfo_compliance_graph2_2e_1412789179621_fra.gif",
        "/DAM/DAM-food-aliments/STAGING/images-images/lble_industry_nutrition_label_toc_additionalinfo_compliance_graph3_1e_1412789349326_fra.gif",
        "/DAM/DAM-food-aliments/STAGING/images-images/lble_industry_nutrition_label_toc_additionalinfo_compliance_graph3_2e_1412789490594_fra.gif",
        "/DAM/DAM-food-aliments/STAGING/images-images/lble_industry_nutrition_label_toc_additionalinfo_compliance_graph4_1e_1412789679674_fra.gif",
        "/DAM/DAM-food-aliments/STAGING/images-images/lble_industry_nutrition_label_toc_additionalinfo_compliance_graph4_2e_1412789858208_fra.gif",
        "/DAM/DAM-food-aliments/STAGING/images-images/lble_industry_nutrition_label_toc_additionalinfo_compliance_graph5_1e_1412790047569_fra.gif",
        "/DAM/DAM-food-aliments/STAGING/images-images/lble_industry_nutrition_label_toc_additionalinfo_compliance_graph5_2e_1412790169477_fra.gif",
        "/DAM/DAM-food-aliments/STAGING/images-images/lble_industry_nutrition_label_toc_additionalinfo_compliance_graph6_1e_1412790361698_fra.gif",
        "/DAM/DAM-food-aliments/STAGING/images-images/lble_industry_nutrition_label_toc_additionalinfo_compliance_graph6_2e_1412790418387_fra.gif",
        "/DAM/DAM-food-aliments/STAGING/images-images/lble_industry_nutrition_label_toc_additionalinfo_compliance_letterx_1412795981489_fra.gif",
        "/DAM/DAM-food-aliments/STAGING/images-images/lble_industry_nutrition_label_toc_additionalinfo_compliance_equation3_1412796186335_eng.gif"
    ],
    "managing_branch": "comn"
}