{
    "dcr_id": "1559850752991",
    "urlEn": [
        "/DAM/DAM-animals-animaux/STAGING/text-texte/dis_africswine_conditions_control_zone_hong_kong_1559851111979_eng.pdf",
        "/DAM/DAM-comn-comn/WORKAREA/DAM-comn-comn/images-images/download_pdf_1558729521562_eng.png",
        "/DAM/DAM-aboutcfia-sujetacia/STAGING/images-images/code-space_1384467519696_eng.gif"
    ],
    "urlFr": [
        "/DAM/DAM-animals-animaux/STAGING/text-texte/dis_africswine_conditions_control_zone_hong_kong_1559851111979_fra.pdf",
        "/DAM/DAM-comn-comn/WORKAREA/DAM-comn-comn/images-images/download_pdf_1558729521562_fra.png",
        "/DAM/DAM-aboutcfia-sujetacia/STAGING/images-images/code-space_1384467519696_fra.gif"
    ],
    "managing_branch": "comn"
}