{
    "dcr_id": "1543250752218",
    "urlEn": [
        "/DAM/DAM-aboutcfia-sujetacia/STAGING/images-images/fig1_dndsl_1543416727982_eng.jpg",
        "/DAM/DAM-aboutcfia-sujetacia/STAGING/images-images/fig2_eldec_1543416831667_eng.jpg",
        "/DAM/DAM-aboutcfia-sujetacia/STAGING/images-images/fig3_dndws_1543416945363_eng.jpg"
    ],
    "urlFr": [
        "/DAM/DAM-aboutcfia-sujetacia/STAGING/images-images/fig1_dndsl_1543416727982_fra.jpg",
        "/DAM/DAM-aboutcfia-sujetacia/STAGING/images-images/fig2_eldec_1543416831667_fra.jpg",
        "/DAM/DAM-aboutcfia-sujetacia/STAGING/images-images/fig3_dndws_1543416945363_fra.jpg"
    ],
    "managing_branch": "comn"
}