{
    "dcr_id": "1644011638795",
    "urlEn": [
        "/DAM/DAM-aboutcfia-sujetacia/STAGING/images-images/potato_wart_360x203_1644009161121_eng.jpg"
    ],
    "urlFr": [
        "/DAM/DAM-aboutcfia-sujetacia/STAGING/images-images/potato_wart_360x203_1644009161121_fra.jpg"
    ],
    "managing_branch": "comn"
}