{
    "dcr_id": "1574436698583",
    "urlEn": [
        "/DAM/DAM-aboutcfia-sujetacia/STAGING/images-images/topic_food_label_requirements_banner_1574453153500_eng.jpg",
        "/DAM/DAM-aboutcfia-sujetacia/STAGING/images-images/feature_putting_fish_dna_20220831_1661973335336_eng.jpg",
        "/DAM/DAM-aboutcfia-sujetacia/STAGING/images-images/women_science_1576181367965_eng.jpg",
        "/DAM/DAM-aboutcfia-sujetacia/STAGING/images-images/sfcr_main_1576181366293_eng.jpg"
    ],
    "urlFr": [
        "/DAM/DAM-aboutcfia-sujetacia/STAGING/images-images/topic_food_label_requirements_banner_1574453153500_fra.jpg",
        "/DAM/DAM-aboutcfia-sujetacia/STAGING/images-images/feature_putting_fish_dna_20220831_1661973335336_fra.jpg",
        "/DAM/DAM-aboutcfia-sujetacia/STAGING/images-images/women_science_1576181367965_fra.jpg",
        "/DAM/DAM-aboutcfia-sujetacia/STAGING/images-images/sfcr_main_1576181366293_fra.jpg"
    ],
    "managing_branch": "comn"
}