{
    "dcr_id": "1525272391906",
    "urlEn": [
        "/DAM/DAM-plants-vegetaux/STAGING/images-images/pestrava_popjap_vancouver_infected_order_img_1525269405442_eng.jpg",
        "/DAM/DAM-plants-vegetaux/STAGING/images-images/pestrava_popjap_vancouver_infected_order_img_sm_1525269363665_eng.jpg"
    ],
    "urlFr": [
        "/DAM/DAM-plants-vegetaux/STAGING/images-images/pestrava_popjap_vancouver_infected_order_img_1525269405442_fra.jpg",
        "/DAM/DAM-plants-vegetaux/STAGING/images-images/pestrava_popjap_vancouver_infected_order_img_sm_1525269363665_fra.jpg"
    ],
    "managing_branch": "comn"
}