{
    "dcr_id": "1312587385743",
    "urlEn": [
        "/DAM/DAM-plants-vegetaux/STAGING/text-texte/pota_vari_hilit_1312587538732_eng.pdf",
        "/DAM/DAM-plants-vegetaux/STAGING/text-texte/pota_vari_hilitephoto_1312587538736_eng.pdf",
        "/DAM/DAM-plants-vegetaux/STAGING/images-images/pota_vari_hiliteaa_1312587538740_eng.jpg",
        "/DAM/DAM-plants-vegetaux/STAGING/images-images/pota_vari_hiliteb_1312587538744_eng.jpg",
        "/DAM/DAM-plants-vegetaux/STAGING/images-images/pota_vari_hilitecc_1312587538748_eng.jpg",
        "/DAM/DAM-plants-vegetaux/STAGING/images-images/pota_vari_potato99d_1312587538752_eng.jpg",
        "/DAM/DAM-plants-vegetaux/STAGING/images-images/pota_vari_hilite_1312587538756_eng.jpg",
        "/DAM/DAM-plants-vegetaux/STAGING/images-images/pota_vari_hilitef_1312587538760_eng.jpg",
        "/DAM/DAM-plants-vegetaux/STAGING/images-images/pota_vari_hilitea_small_1312587538767_eng.jpg",
        "/DAM/DAM-plants-vegetaux/STAGING/images-images/pota_vari_hiliteb_small_1312587538772_eng.jpg",
        "/DAM/DAM-plants-vegetaux/STAGING/images-images/pota_vari_hilitec_small_1312587538776_eng.jpg",
        "/DAM/DAM-plants-vegetaux/STAGING/images-images/pota_vari_potato99d_small_1312587538780_eng.jpg",
        "/DAM/DAM-plants-vegetaux/STAGING/images-images/pota_vari_hilitee_small_1312587538784_eng.jpg",
        "/DAM/DAM-plants-vegetaux/STAGING/images-images/pota_vari_hilitef_small_1312587538789_eng.jpg"
    ],
    "urlFr": [
        "/DAM/DAM-plants-vegetaux/STAGING/text-texte/pota_vari_hilit_1312587538732_fra.pdf",
        "/DAM/DAM-plants-vegetaux/STAGING/text-texte/pota_vari_hilitephoto_1312587538736_fra.pdf",
        "/DAM/DAM-plants-vegetaux/STAGING/images-images/pota_vari_hiliteaa_1312587538740_fra.jpg",
        "/DAM/DAM-plants-vegetaux/STAGING/images-images/pota_vari_hiliteb_1312587538744_fra.jpg",
        "/DAM/DAM-plants-vegetaux/STAGING/images-images/pota_vari_hilitecc_1312587538748_fra.jpg",
        "/DAM/DAM-plants-vegetaux/STAGING/images-images/pota_vari_potato99d_1312587538752_fra.jpg",
        "/DAM/DAM-plants-vegetaux/STAGING/images-images/pota_vari_hilite_1312587538756_fra.jpg",
        "/DAM/DAM-plants-vegetaux/STAGING/images-images/pota_vari_hilitef_1312587538760_fra.jpg",
        "/DAM/DAM-plants-vegetaux/STAGING/images-images/pota_vari_hilitea_small_1312587538767_eng.jpg",
        "/DAM/DAM-plants-vegetaux/STAGING/images-images/pota_vari_hiliteb_small_1312587538772_eng.jpg",
        "/DAM/DAM-plants-vegetaux/STAGING/images-images/pota_vari_hilitec_small_1312587538776_eng.jpg",
        "/DAM/DAM-plants-vegetaux/STAGING/images-images/pota_vari_potato99d_small_1312587538780_eng.jpg",
        "/DAM/DAM-plants-vegetaux/STAGING/images-images/pota_vari_hilitee_small_1312587538784_eng.jpg",
        "/DAM/DAM-plants-vegetaux/STAGING/images-images/pota_vari_hilitef_small_1312587538789_eng.jpg"
    ],
    "managing_branch": "comn"
}