{
    "dcr_id": "1612993880015",
    "urlEn": [
        "/DAM/DAM-food-aliments/STAGING/text-texte/bacterial_pathogens_and_indicators_in_frozen_berries_1612278703458_eng.pdf"
    ],
    "urlFr": [
        "/DAM/DAM-food-aliments/STAGING/text-texte/bacterial_pathogens_and_indicators_in_frozen_berries_1612278703458_fra.pdf"
    ],
    "managing_branch": "comn"
}