{
    "dcr_id": "1444172486303",
    "urlEn": [
        "/DAM/DAM-animals-animaux/STAGING/text-texte/ha2894_1459345899818_eng.pdf"
    ],
    "urlFr": [
        "/DAM/DAM-animals-animaux/STAGING/text-texte/ha2894_1459345899818_fra.pdf"
    ],
    "managing_branch": "comn"
}