{
    "dcr_id": "1398289385833",
    "urlEn": [
        "/DAM/DAM-plants-vegetaux/STAGING/images-images/invasive_plants_seed_factsheet_alternanthera_image1_1401975945932_eng.jpg",
        "/DAM/DAM-plants-vegetaux/STAGING/images-images/invasive_plants_seed_factsheet_alternanthera_image2_1401975988541_eng.jpg",
        "/DAM/DAM-plants-vegetaux/STAGING/images-images/invasive_plants_seed_factsheet_alternanthera_image3_1401976028495_eng.jpg",
        "/DAM/DAM-plants-vegetaux/STAGING/images-images/invasive_plants_seed_factsheet_alternanthera_image4_1401976049604_eng.jpg"
    ],
    "urlFr": [
        "/DAM/DAM-plants-vegetaux/STAGING/images-images/invasive_plants_seed_factsheet_alternanthera_image1_1401975945932_fra.jpg",
        "/DAM/DAM-plants-vegetaux/STAGING/images-images/invasive_plants_seed_factsheet_alternanthera_image2_1401975988541_eng.jpg",
        "/DAM/DAM-plants-vegetaux/STAGING/images-images/invasive_plants_seed_factsheet_alternanthera_image3_1401976028495_eng.jpg",
        "/DAM/DAM-plants-vegetaux/STAGING/images-images/invasive_plants_seed_factsheet_alternanthera_image4_1401976049604_fra.jpg"
    ],
    "managing_branch": "comn"
}