{
    "dcr_id": "1617202733520",
    "urlEn": [
        "/DAM/DAM-food-aliments/STAGING/images-images/live_infestation_img1_1617204437088_eng.jpg",
        "/DAM/DAM-food-aliments/STAGING/images-images/live_infestation_img2_1617204438010_eng.jpg"
    ],
    "urlFr": [
        "/DAM/DAM-food-aliments/STAGING/images-images/live_infestation_img1_1617204437088_fra.jpg",
        "/DAM/DAM-food-aliments/STAGING/images-images/live_infestation_img2_1617204438010_fra.jpg"
    ],
    "managing_branch": "comn"
}