{
    "dcr_id": "1397752966598",
    "urlEn": [
        "/DAM/DAM-plants-vegetaux/STAGING/images-images/invasive_plants_seed_factsheet_PersicariaPerfoliata_img3_1397671568026_eng.jpg",
        "/DAM/DAM-plants-vegetaux/STAGING/images-images/invasive_plants_seed_factsheet_PersicariaPerfoliata_img6_1504021662319_eng.jpg",
        "/DAM/DAM-plants-vegetaux/STAGING/images-images/invasive_plants_seed_factsheet_PersicariaPerfoliata_img1_1397671472010_eng.jpg",
        "/DAM/DAM-plants-vegetaux/STAGING/images-images/invasive_plants_seed_factsheet_PersicariaPerfoliata_img2_1397671545214_eng.jpg",
        "/DAM/DAM-plants-vegetaux/STAGING/images-images/invasive_plants_seed_factsheet_PersicariaPerfoliata_img5_1397671615558_eng.jpg",
        "/DAM/DAM-plants-vegetaux/STAGING/images-images/invasive_plants_seed_factsheet_PersicariaPerfoliata_img4_1397671588917_eng.jpg"
    ],
    "urlFr": [
        "/DAM/DAM-plants-vegetaux/STAGING/images-images/invasive_plants_seed_factsheet_PersicariaPerfoliata_img3_1397671568026_fra.jpg",
        "/DAM/DAM-plants-vegetaux/STAGING/images-images/invasive_plants_seed_factsheet_PersicariaPerfoliata_img6_1504021662319_fra.jpg",
        "/DAM/DAM-plants-vegetaux/STAGING/images-images/invasive_plants_seed_factsheet_PersicariaPerfoliata_img1_1397671472010_fra.jpg",
        "/DAM/DAM-plants-vegetaux/STAGING/images-images/invasive_plants_seed_factsheet_PersicariaPerfoliata_img2_1397671545214_fra.jpg",
        "/DAM/DAM-plants-vegetaux/STAGING/images-images/invasive_plants_seed_factsheet_PersicariaPerfoliata_img5_1397671615558_fra.jpg",
        "/DAM/DAM-plants-vegetaux/STAGING/images-images/invasive_plants_seed_factsheet_PersicariaPerfoliata_img4_1397671588917_fra.jpg"
    ],
    "managing_branch": "comn"
}