{
    "dcr_id": "1359491565329",
    "urlEn": [
        "/DAM/DAM-plants-vegetaux/STAGING/images-images/required_1359490119881_eng.jpg",
        "/DAM/DAM-plants-vegetaux/STAGING/images-images/recommended_1359490186552_eng.jpg"
    ],
    "urlFr": [
        "/DAM/DAM-plants-vegetaux/STAGING/images-images/required_1359490119881_fra.jpg",
        "/DAM/DAM-plants-vegetaux/STAGING/images-images/recommended_1359490186552_fra.jpg"
    ],
    "managing_branch": "comn"
}