{
    "dcr_id": "1616793026236",
    "urlEn": [
        "/DAM/DAM-form-forme/STAGING/text-texte/c5916_re_1617824925126_eng.pdf"
    ],
    "urlFr": [
        "/DAM/DAM-form-forme/STAGING/text-texte/c5916_re_1617824925126_fra.pdf"
    ],
    "managing_branch": "comn"
}