{
    "dcr_id": "1651171863213",
    "urlEn": [
        "/DAM/DAM-animals-animaux/STAGING/text-texte/revocation_order_pcz_8_35_43_62_1656534838243_eng.pdf",
        "/DAM/DAM-animals-animaux/STAGING/text-texte/designation_order_for_pcz_43_1651171696821_eng.pdf",
        "/DAM/DAM-animals-animaux/STAGING/text-texte/order_declaring_pcz_43_1651171760548_eng.pdf",
        "https://inspection.canada.ca/DAM/DAM-comn-comn/WORKAREA/DAM-comn-comn/images-images/download_pdf_1558729521562_eng.png"
    ],
    "urlFr": [
        "/DAM/DAM-animals-animaux/STAGING/text-texte/revocation_order_pcz_8_35_43_62_1656534838243_fra.pdf",
        "/DAM/DAM-animals-animaux/STAGING/text-texte/designation_order_for_pcz_43_1651171696821_fra.pdf",
        "/DAM/DAM-animals-animaux/STAGING/text-texte/order_declaring_pcz_43_1651171760548_fra.pdf",
        "https://inspection.canada.ca/DAM/DAM-comn-comn/WORKAREA/DAM-comn-comn/images-images/download_pdf_1558729521562_fra.png"
    ],
    "managing_branch": "comn"
}