{
    "dcr_id": "1545970475812",
    "urlEn": [
        "/DAM/DAM-aboutcfia-sujetacia/STAGING/images-images/making_an_online_payment_img1_1545961649963_eng.jpg",
        "/DAM/DAM-aboutcfia-sujetacia/STAGING/images-images/making_an_online_payment_img2_1545961662927_eng.jpg",
        "/DAM/DAM-aboutcfia-sujetacia/STAGING/images-images/making_an_online_payment_img3_1545961687404_eng.jpg",
        "/DAM/DAM-aboutcfia-sujetacia/STAGING/images-images/making_an_online_payment_img4_1545961703316_eng.jpg",
        "/DAM/DAM-aboutcfia-sujetacia/STAGING/images-images/making_an_online_payment_img5_1545961724641_eng.jpg",
        "/DAM/DAM-aboutcfia-sujetacia/STAGING/images-images/making_an_online_payment_img6_1545961738213_eng.jpg",
        "/DAM/DAM-aboutcfia-sujetacia/STAGING/images-images/making_an_online_payment_img7_1545961759663_eng.jpg"
    ],
    "urlFr": [
        "/DAM/DAM-aboutcfia-sujetacia/STAGING/images-images/making_an_online_payment_img1_1545961649963_fra.jpg",
        "/DAM/DAM-aboutcfia-sujetacia/STAGING/images-images/making_an_online_payment_img2_1545961662927_fra.jpg",
        "/DAM/DAM-aboutcfia-sujetacia/STAGING/images-images/making_an_online_payment_img3_1545961687404_fra.jpg",
        "/DAM/DAM-aboutcfia-sujetacia/STAGING/images-images/making_an_online_payment_img4_1545961703316_fra.jpg",
        "/DAM/DAM-aboutcfia-sujetacia/STAGING/images-images/making_an_online_payment_img5_1545961724641_fra.jpg",
        "/DAM/DAM-aboutcfia-sujetacia/STAGING/images-images/making_an_online_payment_img6_1545961738213_fra.jpg",
        "/DAM/DAM-aboutcfia-sujetacia/STAGING/images-images/making_an_online_payment_img7_1545961759663_fra.jpg"
    ],
    "managing_branch": "comn"
}