{
    "dcr_id": "1633453542116",
    "urlEn": [
        "/DAM/DAM-aboutcfia-sujetacia/STAGING/text-texte/2020-2021_fees_report_1638381564910_eng.pdf",
        "/DAM/DAM-comn-comn/STAGING/images-images/download_pdf_1558729521562_eng.png",
        "/DAM/DAM-aboutcfia-sujetacia/STAGING/images-images/acco_repparl_2022-2023_departmental_plan_minister_1645128410957_eng.jpg"
    ],
    "urlFr": [
        "/DAM/DAM-aboutcfia-sujetacia/STAGING/text-texte/2020-2021_fees_report_1638381564910_fra.pdf",
        "/DAM/DAM-comn-comn/STAGING/images-images/download_pdf_1558729521562_fra.png",
        "/DAM/DAM-aboutcfia-sujetacia/STAGING/images-images/acco_repparl_2022-2023_departmental_plan_minister_1645128410957_fra.jpg"
    ],
    "managing_branch": "comn"
}