{
    "dcr_id": "1701810732539",
    "urlEn": [
        "/DAM/DAM-animals-animaux/STAGING/text-texte/revocation_order_pcz_225_1706824861224_eng.pdf",
        "/DAM/DAM-animals-animaux/STAGING/text-texte/designation_order_for_pcz_225_1701811581897_eng.pdf",
        "/DAM/DAM-animals-animaux/STAGING/text-texte/order_declaring_pcz_225_1701811613320_eng.pdf",
        "/DAM/DAM-comn-comn/STAGING/images-images/download_pdf_1558729521562_eng.png"
    ],
    "urlFr": [
        "/DAM/DAM-animals-animaux/STAGING/text-texte/revocation_order_pcz_225_1706824861224_fra.pdf",
        "/DAM/DAM-animals-animaux/STAGING/text-texte/designation_order_for_pcz_225_1701811581897_fra.pdf",
        "/DAM/DAM-animals-animaux/STAGING/text-texte/order_declaring_pcz_225_1701811613320_fra.pdf",
        "/DAM/DAM-comn-comn/STAGING/images-images/download_pdf_1558729521562_fra.png"
    ],
    "managing_branch": "comn"
}