{
    "dcr_id": "1398870376830",
    "urlEn": [
        "/DAM/DAM-animals-animaux/WORKAREA/DAM-animals-animaux/text-texte/terr_anima_trace_reg_description_intermediate_1399043127151_eng.pdf"
    ],
    "urlFr": [
        "/DAM/DAM-animals-animaux/WORKAREA/DAM-animals-animaux/text-texte/terr_anima_trace_reg_description_intermediate_1399043127151_fra.pdf"
    ],
    "managing_branch": "comn"
}