{
    "dcr_id": "1613078340852",
    "urlEn": [
        "/DAM/DAM-aboutcfia-sujetacia/STAGING/images-images/new_approach_1613077816268_eng.jpg"
    ],
    "urlFr": [
        "/DAM/DAM-aboutcfia-sujetacia/STAGING/images-images/new_approach_1613077816268_fra.jpg"
    ],
    "managing_branch": "comn"
}