{
    "dcr_id": "1312587385815",
    "urlEn": [
        "/DAM/DAM-plants-vegetaux/STAGING/images-images/pota_vari_potato22za_1312587602274_eng.jpg",
        "/DAM/DAM-plants-vegetaux/STAGING/images-images/pota_vari_potato22zb_1312587602278_eng.jpg",
        "/DAM/DAM-plants-vegetaux/STAGING/images-images/pota_vari_potato22zc_1312587602282_eng.jpg",
        "/DAM/DAM-plants-vegetaux/STAGING/images-images/pota_vari_potato22zd_1312587602286_eng.jpg",
        "/DAM/DAM-plants-vegetaux/STAGING/images-images/pota_vari_potato22z_1312587602291_eng.jpg",
        "/DAM/DAM-plants-vegetaux/STAGING/images-images/pota_vari_potato22zf_1312587602295_eng.jpg",
        "/DAM/DAM-plants-vegetaux/STAGING/images-images/pota_vari_potato22za_small_1312587602301_eng.jpg",
        "/DAM/DAM-plants-vegetaux/STAGING/images-images/pota_vari_potato22zb_small_1312587602306_eng.jpg",
        "/DAM/DAM-plants-vegetaux/STAGING/images-images/pota_vari_potato22zc_small_1312587602311_eng.jpg",
        "/DAM/DAM-plants-vegetaux/STAGING/images-images/pota_vari_potato22zd_small_1312587602316_eng.jpg",
        "/DAM/DAM-plants-vegetaux/STAGING/images-images/pota_vari_potato22ze_small_1312587602321_eng.jpg",
        "/DAM/DAM-plants-vegetaux/STAGING/images-images/pota_vari_potato22zf_small_1312587602326_eng.jpg"
    ],
    "urlFr": [
        "/DAM/DAM-plants-vegetaux/STAGING/images-images/pota_vari_potato22za_1312587602274_fra.jpg",
        "/DAM/DAM-plants-vegetaux/STAGING/images-images/pota_vari_potato22zb_1312587602278_fra.jpg",
        "/DAM/DAM-plants-vegetaux/STAGING/images-images/pota_vari_potato22zc_1312587602282_fra.jpg",
        "/DAM/DAM-plants-vegetaux/STAGING/images-images/pota_vari_potato22zd_1312587602286_fra.jpg",
        "/DAM/DAM-plants-vegetaux/STAGING/images-images/pota_vari_potato22z_1312587602291_fra.jpg",
        "/DAM/DAM-plants-vegetaux/STAGING/images-images/pota_vari_potato22zf_1312587602295_fra.jpg",
        "/DAM/DAM-plants-vegetaux/STAGING/images-images/pota_vari_potato22za_small_1312587602301_eng.jpg",
        "/DAM/DAM-plants-vegetaux/STAGING/images-images/pota_vari_potato22zb_small_1312587602306_eng.jpg",
        "/DAM/DAM-plants-vegetaux/STAGING/images-images/pota_vari_potato22zc_small_1312587602311_eng.jpg",
        "/DAM/DAM-plants-vegetaux/STAGING/images-images/pota_vari_potato22zd_small_1312587602316_eng.jpg",
        "/DAM/DAM-plants-vegetaux/STAGING/images-images/pota_vari_potato22ze_small_1312587602321_eng.jpg",
        "/DAM/DAM-plants-vegetaux/STAGING/images-images/pota_vari_potato22zf_small_1312587602326_eng.jpg"
    ],
    "managing_branch": "comn"
}