{
    "dcr_id": "1397746550135",
    "urlEn": [
        "/DAM/DAM-plants-vegetaux/STAGING/images-images/invasive_plants_seed_factsheet_PaspalumDilatatum_img2_1397671394947_eng.jpg",
        "/DAM/DAM-plants-vegetaux/STAGING/images-images/invasive_plants_seed_factsheet_PaspalumDilatatum_img1_1397671307212_eng.jpg",
        "/DAM/DAM-plants-vegetaux/STAGING/images-images/invasive_plants_seed_factsheet_PaspalumDilatatum_img4_1504021555094_eng.jpg",
        "/DAM/DAM-plants-vegetaux/STAGING/images-images/invasive_plants_seed_factsheet_PaspalumDilatatum_img3_1397671423182_eng.jpg",
        "/DAM/DAM-plants-vegetaux/STAGING/images-images/invasive_plants_seed_factsheet_PaspalumDilatatum_img5_1504021578275_eng.jpg"
    ],
    "urlFr": [
        "/DAM/DAM-plants-vegetaux/STAGING/images-images/invasive_plants_seed_factsheet_PaspalumDilatatum_img2_1397671394947_fra.jpg",
        "/DAM/DAM-plants-vegetaux/STAGING/images-images/invasive_plants_seed_factsheet_PaspalumDilatatum_img1_1397671307212_fra.jpg",
        "/DAM/DAM-plants-vegetaux/STAGING/images-images/invasive_plants_seed_factsheet_PaspalumDilatatum_img4_1504021555094_fra.jpg",
        "/DAM/DAM-plants-vegetaux/STAGING/images-images/invasive_plants_seed_factsheet_PaspalumDilatatum_img3_1397671423182_fra.jpg",
        "/DAM/DAM-plants-vegetaux/STAGING/images-images/invasive_plants_seed_factsheet_PaspalumDilatatum_img5_1504021578275_fra.jpg"
    ],
    "managing_branch": "comn"
}