{
    "dcr_id": "1312264422666",
    "urlEn": [
        "/DAM/DAM-aboutcfia-sujetacia/STAGING/images-images/code-space_1384467519696_eng.gif"
    ],
    "urlFr": [
        "/DAM/DAM-aboutcfia-sujetacia/STAGING/images-images/code-space_1384467519696_eng.gif"
    ],
    "managing_branch": "comn"
}