{
    "dcr_id": "1566482031157",
    "urlEn": [
        "/DAM/DAM-form-forme/STAGING/text-texte/c5860_re_1567513710585_eng.pdf"
    ],
    "urlFr": [
        "/DAM/DAM-form-forme/STAGING/text-texte/c5860_re_1567513710585_fra.pdf"
    ],
    "managing_branch": "comn"
}