{
    "dcr_id": "1672962034395",
    "urlEn": [
        "/DAM/DAM-aboutcfia-sujetacia/STAGING/text-texte/owners_guide_bison_1678980780173_eng.pdf",
        "/DAM/DAM-aboutcfia-sujetacia/STAGING/text-texte/owners_guide_cattle_1678980781033_eng.pdf",
        "/DAM/DAM-aboutcfia-sujetacia/STAGING/text-texte/owners_guide_cervids_1678980781830_eng.pdf",
        "/DAM/DAM-aboutcfia-sujetacia/STAGING/text-texte/owners_guide_goats_1678980782658_eng.pdf",
        "/DAM/DAM-aboutcfia-sujetacia/STAGING/text-texte/owners_guide_pigs_1678980783455_eng.pdf",
        "/DAM/DAM-aboutcfia-sujetacia/STAGING/text-texte/owners_guide_sheep_1678980784314_eng.pdf"
    ],
    "urlFr": [
        "/DAM/DAM-aboutcfia-sujetacia/STAGING/text-texte/owners_guide_bison_1678980780173_fra.pdf",
        "/DAM/DAM-aboutcfia-sujetacia/STAGING/text-texte/owners_guide_cattle_1678980781033_fra.pdf",
        "/DAM/DAM-aboutcfia-sujetacia/STAGING/text-texte/owners_guide_cervids_1678980781830_fra.pdf",
        "/DAM/DAM-aboutcfia-sujetacia/STAGING/text-texte/owners_guide_goats_1678980782658_fra.pdf",
        "/DAM/DAM-aboutcfia-sujetacia/STAGING/text-texte/owners_guide_pigs_1678980783455_fra.pdf",
        "/DAM/DAM-aboutcfia-sujetacia/STAGING/text-texte/owners_guide_sheep_1678980784314_fra.pdf"
    ],
    "managing_branch": "comn"
}