{
    "dcr_id": "1642699924978",
    "urlEn": [
        "/DAM/DAM-food-aliments/STAGING/text-texte/non-permitted_colours_in_red_palm_oils_report_1642695280418_eng.pdf"
    ],
    "urlFr": [
        "/DAM/DAM-food-aliments/STAGING/text-texte/non-permitted_colours_in_red_palm_oils_report_1642695280418_fra.pdf"
    ],
    "managing_branch": "comn"
}