{
    "dcr_id": "1651876372613",
    "urlEn": [
        "/DAM/DAM-animals-animaux/STAGING/text-texte/revocation_order_pcz_37_53_50_1655656911054_eng.pdf",
        "/DAM/DAM-animals-animaux/WORKAREA/DAM-animals-animaux/text-texte/designation_order_for_pcz_53_1651873217329_eng.pdf",
        "/DAM/DAM-animals-animaux/WORKAREA/DAM-animals-animaux/text-texte/order_declaring_pcz_53_1651873315499_eng.pdf",
        "https://inspection.canada.ca/DAM/DAM-comn-comn/WORKAREA/DAM-comn-comn/images-images/download_pdf_1558729521562_eng.png"
    ],
    "urlFr": [
        "/DAM/DAM-animals-animaux/STAGING/text-texte/revocation_order_pcz_37_53_50_1655656911054_fra.pdf",
        "/DAM/DAM-animals-animaux/WORKAREA/DAM-animals-animaux/text-texte/designation_order_for_pcz_53_1651873217329_fra.pdf",
        "/DAM/DAM-animals-animaux/WORKAREA/DAM-animals-animaux/text-texte/order_declaring_pcz_53_1651873315499_fra.pdf",
        "https://inspection.canada.ca/DAM/DAM-comn-comn/WORKAREA/DAM-comn-comn/images-images/download_pdf_1558729521562_fra.png"
    ],
    "managing_branch": "comn"
}