{
    "dcr_id": "1323791878398",
    "urlEn": [
        "/DAM/DAM-plants-vegetaux/STAGING/text-texte/protect_directives_d-96-05_app7_1396305131446_eng.pdf",
        "/DAM/DAM-plants-vegetaux/STAGING/images-images/d96-05app4_1328624028509_eng.jpg",
        "/DAM/DAM-plants-vegetaux/STAGING/images-images/d96-05app5_1328624311017_eng.jpg",
        "/DAM/DAM-plants-vegetaux/STAGING/images-images/d96-05app6_1328624262894_eng.jpg",
        "/DAM/DAM-plants-vegetaux/STAGING/images-images/d96-05app7_1386173588883_eng.gif",
        "/DAM/DAM-plants-vegetaux/STAGING/images-images/d96-05app4small_1328623967636_eng.jpg",
        "/DAM/DAM-plants-vegetaux/STAGING/images-images/d96-05app5sm_1328624114710_eng.jpg",
        "/DAM/DAM-plants-vegetaux/STAGING/images-images/d96-05app6sm_1328624182974_eng.jpg",
        "/DAM/DAM-plants-vegetaux/STAGING/images-images/d96-05app7_1386173588884_thumb_eng.gif"
    ],
    "urlFr": [
        "/DAM/DAM-plants-vegetaux/STAGING/text-texte/protect_directives_d-96-05_app7_1396305131446_fra.pdf",
        "/DAM/DAM-plants-vegetaux/STAGING/images-images/d96-05app4_1328624028509_fra.jpg",
        "/DAM/DAM-plants-vegetaux/STAGING/images-images/d96-05app5_1328624311017_fra.jpg",
        "/DAM/DAM-plants-vegetaux/STAGING/images-images/d96-05app6_1328624262894_fra.jpg",
        "/DAM/DAM-plants-vegetaux/STAGING/images-images/d96-05app7_1386173588883_fra.gif",
        "/DAM/DAM-plants-vegetaux/STAGING/images-images/d96-05app4small_1328623967636_fra.jpg",
        "/DAM/DAM-plants-vegetaux/STAGING/images-images/d96-05app5sm_1328624114710_fra.jpg",
        "/DAM/DAM-plants-vegetaux/STAGING/images-images/d96-05app6sm_1328624182974_fra.jpg",
        "/DAM/DAM-plants-vegetaux/STAGING/images-images/d96-05app7_1386173588884_thumb_fra.gif"
    ],
    "managing_branch": "comn"
}