{
    "dcr_id": "1454542125146",
    "urlEn": [
        "/DAM/DAM-food-aliments/WORKAREA/DAM-food-aliments/images-images/meavia_man_chapter11_export_india_annexb_1454529233686_eng.jpg"
    ],
    "urlFr": [
        "/DAM/DAM-food-aliments/WORKAREA/DAM-food-aliments/images-images/meavia_man_chapter11_export_india_annexb_1454529233686_fra.jpg"
    ],
    "managing_branch": "comn"
}