{
    "dcr_id": "1325610383502",
    "urlEn": [
        "/DAM/DAM-plants-vegetaux/STAGING/images-images/pestrava_adetsu_index_image1_1325609052283_eng.jpg"
    ],
    "urlFr": [
        "/DAM/DAM-plants-vegetaux/STAGING/images-images/pestrava_adetsu_index_image1_1325609052283_fra.jpg"
    ],
    "managing_branch": "comn"
}