{
    "dcr_id": "1525119279994",
    "urlEn": [
        "/DAM/DAM-food-aliments/STAGING/images-images/meavia_man_chapter12_annexa_cow01_1375114087153_eng.gif",
        "/DAM/DAM-food-aliments/STAGING/images-images/food_sfcr_meavia_man_chapter12_annexa_image01_1524757843956_eng.jpg",
        "/DAM/DAM-food-aliments/STAGING/images-images/meavia_man_chapter12_annexa_cow02_1375114163591_eng.gif",
        "/DAM/DAM-food-aliments/STAGING/images-images/meavia_man_chapter12_annexa_image12_1375190748359_eng.gif",
        "/DAM/DAM-food-aliments/STAGING/images-images/meavia_man_chapter12_annexa_image04_1375190041904_eng.gif",
        "/DAM/DAM-food-aliments/STAGING/images-images/meavia_man_chapter12_annexa_image05_1375190112855_eng.gif",
        "/DAM/DAM-food-aliments/STAGING/images-images/food_sfcr_meavia_man_chapter12_annexa_image02_1524757844627_eng.jpg",
        "/DAM/DAM-food-aliments/STAGING/images-images/meavia_man_chapter12_annexa_cow03_1375114335247_eng.gif",
        "/DAM/DAM-food-aliments/STAGING/images-images/meavia_man_chapter12_annexa_cow04_1375114426888_eng.gif",
        "/DAM/DAM-food-aliments/STAGING/images-images/meavia_man_chapter12_annexa_image01_1375189820502_eng.gif",
        "/DAM/DAM-food-aliments/STAGING/images-images/meavia_man_chapter12_annexa_image03_1375189965733_eng.gif",
        "/DAM/DAM-food-aliments/STAGING/images-images/meavia_man_chapter12_annexa_image14_1375190989651_eng.gif",
        "/DAM/DAM-food-aliments/STAGING/images-images/meavia_man_chapter12_annexa_ammo04_1375111999349_eng.gif",
        "/DAM/DAM-food-aliments/STAGING/images-images/meavia_man_chapter12_annexa_downarrow_1377017006822_eng.gif",
        "/DAM/DAM-food-aliments/STAGING/images-images/meavia_man_chapter12_annexa_cow05_1375114797575_eng.gif",
        "/DAM/DAM-food-aliments/STAGING/images-images/meavia_man_chapter12_annexa_pig01_1375117647888_eng.gif",
        "/DAM/DAM-food-aliments/STAGING/images-images/meavia_man_chapter12_annexa_pig02_1375117731450_eng.gif",
        "/DAM/DAM-food-aliments/STAGING/images-images/meavia_man_chapter12_annexa_pig03_1375117982763_eng.gif",
        "/DAM/DAM-food-aliments/STAGING/images-images/meavia_man_chapter12_annexa_pig04_1375118442982_eng.gif",
        "/DAM/DAM-food-aliments/STAGING/images-images/meavia_man_chapter12_annexa_pig05_1375118609107_eng.gif",
        "/DAM/DAM-food-aliments/STAGING/images-images/meavia_man_chapter12_annexa_image13_1375190866700_eng.gif",
        "/DAM/DAM-food-aliments/STAGING/images-images/meavia_man_chapter12_annexa_sheep01_1375189289031_eng.gif",
        "/DAM/DAM-food-aliments/STAGING/images-images/meavia_man_chapter12_annexa_sheep02_1375189353076_eng.gif",
        "/DAM/DAM-food-aliments/STAGING/images-images/meavia_man_chapter12_annexa_sheep03_1375189404715_eng.gif",
        "/DAM/DAM-food-aliments/STAGING/images-images/meavia_man_chapter12_annexa_sheep04_1375189470697_eng.gif",
        "/DAM/DAM-food-aliments/STAGING/images-images/meavia_man_chapter12_annexa_sheep05_1375189548585_eng.gif",
        "/DAM/DAM-food-aliments/STAGING/images-images/meavia_man_chapter12_annexa_sheep06_1375189629755_eng.gif",
        "/DAM/DAM-food-aliments/STAGING/images-images/meavia_man_chapter12_annexa_sheep07_1375189712379_eng.gif",
        "/DAM/DAM-food-aliments/STAGING/images-images/meavia_man_chapter12_annexa_image15_1375191122367_eng.gif",
        "/DAM/DAM-food-aliments/STAGING/images-images/meavia_man_chapter12_annexa_ammo03_1375111950062_eng.gif",
        "/DAM/DAM-food-aliments/STAGING/images-images/meavia_man_chapter12_annexa_bison01_1375112166584_eng.gif",
        "/DAM/DAM-food-aliments/STAGING/images-images/meavia_man_chapter12_annexa_bison02_1375112248772_eng.gif",
        "/DAM/DAM-food-aliments/STAGING/images-images/meavia_man_chapter12_annexa_bison03_1375113495466_eng.gif",
        "/DAM/DAM-food-aliments/STAGING/images-images/meavia_man_chapter12_annexa_bison04_1375113569075_eng.gif",
        "/DAM/DAM-food-aliments/STAGING/images-images/meavia_man_chapter12_annexa_bison05_1375113640450_eng.gif",
        "/DAM/DAM-food-aliments/STAGING/images-images/meavia_man_chapter12_annexa_bison07_1375113903435_eng.gif",
        "/DAM/DAM-food-aliments/STAGING/images-images/meavia_man_chapter12_annexa_image07_1375190252728_eng.gif",
        "/DAM/DAM-food-aliments/STAGING/images-images/meavia_man_chapter12_annexa_image08_1375190333929_eng.gif",
        "/DAM/DAM-food-aliments/STAGING/images-images/meavia_man_chapter12_annexa_image10_1375190620455_eng.gif",
        "/DAM/DAM-food-aliments/STAGING/images-images/meavia_man_chapter12_annexa_image16_1375191199585_eng.gif",
        "/DAM/DAM-food-aliments/STAGING/images-images/meavia_man_chapter12_annexa_bison06_1375113717325_eng.gif",
        "/DAM/DAM-food-aliments/STAGING/images-images/meavia_man_chapter12_annexa_horse01_1375115880544_eng.gif",
        "/DAM/DAM-food-aliments/STAGING/images-images/meavia_man_chapter12_annexa_horse02_1375115953091_eng.gif",
        "/DAM/DAM-food-aliments/STAGING/images-images/meavia_man_chapter12_annexa_horse03_1375116035575_eng.gif",
        "/DAM/DAM-food-aliments/STAGING/images-images/meavia_man_chapter12_annexa_image06_1375190178604_eng.gif",
        "/DAM/DAM-food-aliments/STAGING/images-images/meavia_man_chapter12_annexa_image02_1375189911891_eng.gif",
        "/DAM/DAM-food-aliments/STAGING/images-images/meavia_man_chapter12_annexa_elk02_1375115044810_eng.gif",
        "/DAM/DAM-food-aliments/STAGING/images-images/meavia_man_chapter12_annexa_elk05_1375115344122_eng.gif",
        "/DAM/DAM-food-aliments/STAGING/images-images/meavia_man_chapter12_annexa_elk03_1375115136388_eng.gif",
        "/DAM/DAM-food-aliments/STAGING/images-images/meavia_man_chapter12_annexa_elk06_1375115424185_eng.gif",
        "/DAM/DAM-food-aliments/STAGING/images-images/meavia_man_chapter12_annexa_elk01_1375114948888_eng.gif",
        "/DAM/DAM-food-aliments/STAGING/images-images/meavia_man_chapter12_annexa_elk04_1375115246825_eng.gif",
        "/DAM/DAM-food-aliments/STAGING/images-images/meavia_man_chapter12_annexa_amm01_1375111707420_eng.gif",
        "/DAM/DAM-food-aliments/STAGING/images-images/food_sfcr_meavia_man_chapter12_annexa_image03_1524757845079_eng.jpg",
        "/DAM/DAM-food-aliments/STAGING/images-images/food_sfcr_meavia_man_chapter12_annexa_image04_1524757845485_eng.jpg",
        "/DAM/DAM-food-aliments/STAGING/images-images/food_sfcr_meavia_man_chapter12_annexa_image05_1524757845875_eng.jpg",
        "/DAM/DAM-food-aliments/STAGING/images-images/food_sfcr_meavia_man_chapter12_annexa_image06_1524757846249_eng.jpg",
        "/DAM/DAM-food-aliments/STAGING/images-images/food_sfcr_meavia_man_chapter12_annexa_image07_1524757846623_eng.jpg",
        "/DAM/DAM-food-aliments/STAGING/images-images/food_sfcr_meavia_man_chapter12_annexa_image08_1524757847060_eng.jpg",
        "/DAM/DAM-food-aliments/STAGING/images-images/food_sfcr_meavia_man_chapter12_annexa_image09_1524757847450_eng.jpg"
    ],
    "urlFr": [
        "/DAM/DAM-food-aliments/STAGING/images-images/meavia_man_chapter12_annexa_cow01_1375114087153_fra.gif",
        "/DAM/DAM-food-aliments/STAGING/images-images/food_sfcr_meavia_man_chapter12_annexa_image01_1524757843956_fra.jpg",
        "/DAM/DAM-food-aliments/STAGING/images-images/meavia_man_chapter12_annexa_cow02_1375114163591_fra.gif",
        "/DAM/DAM-food-aliments/STAGING/images-images/meavia_man_chapter12_annexa_image12_1375190748359_fra.gif",
        "/DAM/DAM-food-aliments/STAGING/images-images/meavia_man_chapter12_annexa_image04_1375190041904_fra.gif",
        "/DAM/DAM-food-aliments/STAGING/images-images/meavia_man_chapter12_annexa_image05_1375190112855_fra.gif",
        "/DAM/DAM-food-aliments/STAGING/images-images/food_sfcr_meavia_man_chapter12_annexa_image02_1524757844627_fra.jpg",
        "/DAM/DAM-food-aliments/STAGING/images-images/meavia_man_chapter12_annexa_cow03_1375114335247_fra.gif",
        "/DAM/DAM-food-aliments/STAGING/images-images/meavia_man_chapter12_annexa_cow04_1375114426888_fra.gif",
        "/DAM/DAM-food-aliments/STAGING/images-images/meavia_man_chapter12_annexa_image01_1375189820502_fra.gif",
        "/DAM/DAM-food-aliments/STAGING/images-images/meavia_man_chapter12_annexa_image16_1375191199585_fra.gif",
        "/DAM/DAM-food-aliments/STAGING/images-images/meavia_man_chapter12_annexa_image14_1375190989651_fra.gif",
        "/DAM/DAM-food-aliments/STAGING/images-images/meavia_man_chapter12_annexa_ammo02_1375111801325_fra.gif",
        "/DAM/DAM-food-aliments/STAGING/images-images/meavia_man_chapter12_annexa_downarrow_1377017006822_fra.gif",
        "/DAM/DAM-food-aliments/STAGING/images-images/meavia_man_chapter12_annexa_cow05_1375114797575_fra.gif",
        "/DAM/DAM-food-aliments/STAGING/images-images/meavia_man_chapter12_annexa_pig01_1375117647888_fra.gif",
        "/DAM/DAM-food-aliments/STAGING/images-images/meavia_man_chapter12_annexa_pig02_1375117731450_fra.gif",
        "/DAM/DAM-food-aliments/STAGING/images-images/meavia_man_chapter12_annexa_pig03_1375117982763_fra.gif",
        "/DAM/DAM-food-aliments/STAGING/images-images/meavia_man_chapter12_annexa_pig04_1375118442982_fra.gif",
        "/DAM/DAM-food-aliments/STAGING/images-images/meavia_man_chapter12_annexa_pig05_1375118609107_fra.gif",
        "/DAM/DAM-food-aliments/STAGING/images-images/meavia_man_chapter12_annexa_image13_1375190866700_fra.gif",
        "/DAM/DAM-food-aliments/STAGING/images-images/meavia_man_chapter12_annexa_ammo04_1375111999349_fra.gif",
        "/DAM/DAM-food-aliments/STAGING/images-images/meavia_man_chapter12_annexa_sheep01_1375189289031_fra.gif",
        "/DAM/DAM-food-aliments/STAGING/images-images/meavia_man_chapter12_annexa_sheep02_1375189353076_fra.gif",
        "/DAM/DAM-food-aliments/STAGING/images-images/meavia_man_chapter12_annexa_sheep03_1375189404715_fra.gif",
        "/DAM/DAM-food-aliments/STAGING/images-images/meavia_man_chapter12_annexa_sheep04_1375189470697_fra.gif",
        "/DAM/DAM-food-aliments/STAGING/images-images/meavia_man_chapter12_annexa_sheep05_1375189548585_fra.gif",
        "/DAM/DAM-food-aliments/STAGING/images-images/meavia_man_chapter12_annexa_sheep06_1375189629755_fra.gif",
        "/DAM/DAM-food-aliments/STAGING/images-images/meavia_man_chapter12_annexa_sheep07_1375189712379_fra.gif",
        "/DAM/DAM-food-aliments/STAGING/images-images/meavia_man_chapter12_annexa_image15_1375191122367_fra.gif",
        "/DAM/DAM-food-aliments/STAGING/images-images/meavia_man_chapter12_annexa_ammo03_1375111950062_fra.gif",
        "/DAM/DAM-food-aliments/STAGING/images-images/meavia_man_chapter12_annexa_bison01_1375112166584_fra.gif",
        "/DAM/DAM-food-aliments/STAGING/images-images/meavia_man_chapter12_annexa_bison02_1375112248772_fra.gif",
        "/DAM/DAM-food-aliments/STAGING/images-images/meavia_man_chapter12_annexa_bison03_1375113495466_fra.gif",
        "/DAM/DAM-food-aliments/STAGING/images-images/meavia_man_chapter12_annexa_bison04_1375113569075_fra.gif",
        "/DAM/DAM-food-aliments/STAGING/images-images/meavia_man_chapter12_annexa_bison05_1375113640450_fra.gif",
        "/DAM/DAM-food-aliments/STAGING/images-images/meavia_man_chapter12_annexa_bison07_1375113903435_fra.gif",
        "/DAM/DAM-food-aliments/STAGING/images-images/meavia_man_chapter12_annexa_image07_1375190252728_fra.gif",
        "/DAM/DAM-food-aliments/STAGING/images-images/meavia_man_chapter12_annexa_image08_1375190333929_fra.gif",
        "/DAM/DAM-food-aliments/STAGING/images-images/meavia_man_chapter12_annexa_image10_1375190620455_fra.gif",
        "/DAM/DAM-food-aliments/STAGING/images-images/meavia_man_chapter12_annexa_image03_1375189965733_fra.gif",
        "/DAM/DAM-food-aliments/STAGING/images-images/meavia_man_chapter12_annexa_bison06_1375113717325_fra.gif",
        "/DAM/DAM-food-aliments/STAGING/images-images/meavia_man_chapter12_annexa_horse01_1375115880544_fra.gif",
        "/DAM/DAM-food-aliments/STAGING/images-images/meavia_man_chapter12_annexa_horse02_1375115953091_eng.gif",
        "/DAM/DAM-food-aliments/STAGING/images-images/meavia_man_chapter12_annexa_horse03_1375116035575_fra.gif",
        "/DAM/DAM-food-aliments/STAGING/images-images/meavia_man_chapter12_annexa_image06_1375190178604_fra.gif",
        "/DAM/DAM-food-aliments/STAGING/images-images/meavia_man_chapter12_annexa_image02_1375189911891_fra.gif",
        "/DAM/DAM-food-aliments/STAGING/images-images/meavia_man_chapter12_annexa_elk02_1375115044810_fra.gif",
        "/DAM/DAM-food-aliments/STAGING/images-images/meavia_man_chapter12_annexa_elk05_1375115344122_fra.gif",
        "/DAM/DAM-food-aliments/STAGING/images-images/meavia_man_chapter12_annexa_elk03_1375115136388_fra.gif",
        "/DAM/DAM-food-aliments/STAGING/images-images/meavia_man_chapter12_annexa_elk06_1375115424185_fra.gif",
        "/DAM/DAM-food-aliments/STAGING/images-images/meavia_man_chapter12_annexa_elk01_1375114948888_fra.gif",
        "/DAM/DAM-food-aliments/STAGING/images-images/meavia_man_chapter12_annexa_elk04_1375115246825_fra.gif",
        "/DAM/DAM-food-aliments/STAGING/images-images/meavia_man_chapter12_annexa_amm01_1375111707420_fra.gif",
        "/DAM/DAM-food-aliments/STAGING/images-images/food_sfcr_meavia_man_chapter12_annexa_image03_1524757845079_fra.jpg",
        "/DAM/DAM-food-aliments/STAGING/images-images/food_sfcr_meavia_man_chapter12_annexa_image04_1524757845485_fra.jpg",
        "/DAM/DAM-food-aliments/STAGING/images-images/food_sfcr_meavia_man_chapter12_annexa_image05_1524757845875_fra.jpg",
        "/DAM/DAM-food-aliments/STAGING/images-images/food_sfcr_meavia_man_chapter12_annexa_image06_1524757846249_fra.jpg",
        "/DAM/DAM-food-aliments/STAGING/images-images/food_sfcr_meavia_man_chapter12_annexa_image07_1524757846623_fra.jpg",
        "/DAM/DAM-food-aliments/STAGING/images-images/food_sfcr_meavia_man_chapter12_annexa_image08_1524757847060_fra.jpg",
        "/DAM/DAM-food-aliments/STAGING/images-images/food_sfcr_meavia_man_chapter12_annexa_image09_1524757847450_fra.jpg"
    ],
    "managing_branch": "comn"
}