{
    "dcr_id": "1662065836734",
    "urlEn": [
        "/DAM/DAM-animals-animaux/STAGING/text-texte/revocation_order_pcz_78_1667339136726_eng.pdf",
        "/DAM/DAM-animals-animaux/STAGING/text-texte/designation_order_pcz_78_1662064157637_eng.pdf",
        "/DAM/DAM-animals-animaux/STAGING/text-texte/declaration_order_pcz_78_1662064128758_eng.pdf",
        "/DAM/DAM-comn-comn/STAGING/images-images/download_pdf_1558729521562_eng.png"
    ],
    "urlFr": [
        "/DAM/DAM-animals-animaux/STAGING/text-texte/revocation_order_pcz_78_1667339136726_fra.pdf",
        "/DAM/DAM-animals-animaux/STAGING/text-texte/designation_order_pcz_78_1662064157637_fra.pdf",
        "/DAM/DAM-animals-animaux/STAGING/text-texte/declaration_order_pcz_78_1662064128758_fra.pdf",
        "/DAM/DAM-comn-comn/STAGING/images-images/download_pdf_1558729521562_fra.png"
    ],
    "managing_branch": "comn"
}