{
    "dcr_id": "1548103196285",
    "urlEn": [
        "/DAM/DAM-aboutcfia-sujetacia/STAGING/images-images/certificate_free_sale_1_1666979587981_eng.jpg",
        "/DAM/DAM-aboutcfia-sujetacia/STAGING/images-images/certificate_free_sale_2_1666979588872_eng.jpg",
        "/DAM/DAM-aboutcfia-sujetacia/STAGING/images-images/certificate_free_sale_3_1666979589718_eng.jpg",
        "/DAM/DAM-aboutcfia-sujetacia/STAGING/images-images/certificate_free_sale_4_1666979591122_eng.jpg",
        "/DAM/DAM-aboutcfia-sujetacia/STAGING/images-images/certificate_free_sale_5_1666979591946_eng.jpg",
        "/DAM/DAM-aboutcfia-sujetacia/STAGING/images-images/certificate_free_sale_6_1666979592875_eng.jpg",
        "/DAM/DAM-aboutcfia-sujetacia/STAGING/images-images/certificate_free_sale_7_1666979593694_eng.jpg",
        "/DAM/DAM-aboutcfia-sujetacia/STAGING/images-images/certificate_free_sale_7a_1666979594573_eng.jpg",
        "/DAM/DAM-aboutcfia-sujetacia/STAGING/images-images/certificate_free_sale_8_1666979595316_eng.jpg",
        "/DAM/DAM-aboutcfia-sujetacia/STAGING/images-images/certificate_free_sale_8a_1666979596174_eng.jpg",
        "/DAM/DAM-aboutcfia-sujetacia/STAGING/images-images/certificate_free_sale_9_1666979596876_eng.jpg",
        "/DAM/DAM-aboutcfia-sujetacia/STAGING/images-images/certificate_free_sale_10_1666979597709_eng.jpg",
        "/DAM/DAM-aboutcfia-sujetacia/STAGING/images-images/certificate_free_sale_11_1666979598567_eng.jpg",
        "/DAM/DAM-aboutcfia-sujetacia/STAGING/images-images/certificate_free_sale_12_1666979599478_eng.jpg",
        "/DAM/DAM-aboutcfia-sujetacia/STAGING/images-images/certificate_free_sale_12a_1666979600272_eng.jpg",
        "/DAM/DAM-aboutcfia-sujetacia/STAGING/images-images/certificate_free_sale_12b_1666979600995_eng.jpg",
        "/DAM/DAM-aboutcfia-sujetacia/STAGING/images-images/certificate_free_sale_12c_1666979601731_eng.jpg",
        "/DAM/DAM-aboutcfia-sujetacia/STAGING/images-images/certificate_free_sale_12d_1666979602459_eng.jpg",
        "/DAM/DAM-aboutcfia-sujetacia/STAGING/images-images/certificate_free_sale_13_1666979603202_eng.jpg"
    ],
    "urlFr": [
        "/DAM/DAM-aboutcfia-sujetacia/STAGING/images-images/certificate_free_sale_1_1666979587981_fra.jpg",
        "/DAM/DAM-aboutcfia-sujetacia/STAGING/images-images/certificate_free_sale_2_1666979588872_fra.jpg",
        "/DAM/DAM-aboutcfia-sujetacia/STAGING/images-images/certificate_free_sale_3_1666979589718_fra.jpg",
        "/DAM/DAM-aboutcfia-sujetacia/STAGING/images-images/certificate_free_sale_4_1666979591122_fra.jpg",
        "/DAM/DAM-aboutcfia-sujetacia/STAGING/images-images/certificate_free_sale_5_1666979591946_fra.jpg",
        "/DAM/DAM-aboutcfia-sujetacia/STAGING/images-images/certificate_free_sale_6_1666979592875_fra.jpg",
        "/DAM/DAM-aboutcfia-sujetacia/STAGING/images-images/certificate_free_sale_7_1666979593694_fra.jpg",
        "/DAM/DAM-aboutcfia-sujetacia/STAGING/images-images/certificate_free_sale_7a_1666979594573_fra.jpg",
        "/DAM/DAM-aboutcfia-sujetacia/STAGING/images-images/certificate_free_sale_8_1666979595316_fra.jpg",
        "/DAM/DAM-aboutcfia-sujetacia/STAGING/images-images/certificate_free_sale_8a_1666979596174_fra.jpg",
        "/DAM/DAM-aboutcfia-sujetacia/STAGING/images-images/certificate_free_sale_9_1666979596876_fra.jpg",
        "/DAM/DAM-aboutcfia-sujetacia/STAGING/images-images/certificate_free_sale_10_1666979597709_fra.jpg",
        "/DAM/DAM-aboutcfia-sujetacia/STAGING/images-images/certificate_free_sale_11_1666979598567_fra.jpg",
        "/DAM/DAM-aboutcfia-sujetacia/STAGING/images-images/certificate_free_sale_12_1666979599478_fra.jpg",
        "/DAM/DAM-aboutcfia-sujetacia/STAGING/images-images/certificate_free_sale_12a_1666979600272_fra.jpg",
        "/DAM/DAM-aboutcfia-sujetacia/STAGING/images-images/certificate_free_sale_12b_1666979600995_fra.jpg",
        "/DAM/DAM-aboutcfia-sujetacia/STAGING/images-images/certificate_free_sale_12c_1666979601731_fra.jpg",
        "/DAM/DAM-aboutcfia-sujetacia/STAGING/images-images/certificate_free_sale_12d_1666979602459_fra.jpg",
        "/DAM/DAM-aboutcfia-sujetacia/STAGING/images-images/certificate_free_sale_13_1666979603202_fra.jpg"
    ],
    "managing_branch": "comn"
}