{
    "dcr_id": "1556050486820",
    "urlEn": [
        "/DAM/DAM-animals-animaux/STAGING/images-images/economic_impact_asf_1556033444182_eng.png"
    ],
    "urlFr": [
        "/DAM/DAM-animals-animaux/STAGING/images-images/economic_impact_asf_1556033444182_fra.png"
    ],
    "managing_branch": "comn"
}