{
    "dcr_id": "1659725906244",
    "urlEn": [
        "/DAM/DAM-aboutcfia-sujetacia/STAGING/images-images/renewing_sidney_centre_01_1679068447049_eng.jpg",
        "/DAM/DAM-aboutcfia-sujetacia/STAGING/images-images/renewing_sidney_centre_06_1679068515885_eng.jpg",
        "/DAM/DAM-aboutcfia-sujetacia/STAGING/images-images/renewing_sidney_centre_07_1679068714128_eng.jpg",
        "/DAM/DAM-aboutcfia-sujetacia/STAGING/images-images/renewing_sidney_centre_05_1672947337117_eng.jpg",
        "/DAM/DAM-aboutcfia-sujetacia/STAGING/images-images/renewing_sidney_centre_02_1666636315614_eng.png",
        "/DAM/DAM-aboutcfia-sujetacia/STAGING/images-images/renewing_sidney_centre_03_1666636323660_eng.png",
        "/DAM/DAM-aboutcfia-sujetacia/STAGING/images-images/renewing_sidney_centre_04_1666636333176_eng.png",
        "/DAM/DAM-aboutcfia-sujetacia/STAGING/images-images/renewing_sidney_centre_08_1696443495925_eng.jpg"
    ],
    "urlFr": [
        "/DAM/DAM-aboutcfia-sujetacia/STAGING/images-images/renewing_sidney_centre_01_1679068447049_fra.jpg",
        "/DAM/DAM-aboutcfia-sujetacia/STAGING/images-images/renewing_sidney_centre_06_1679068515885_fra.jpg",
        "/DAM/DAM-aboutcfia-sujetacia/STAGING/images-images/renewing_sidney_centre_07_1679068714128_fra.jpg",
        "/DAM/DAM-aboutcfia-sujetacia/STAGING/images-images/renewing_sidney_centre_05_1672947337117_fra.jpg",
        "/DAM/DAM-aboutcfia-sujetacia/STAGING/images-images/renewing_sidney_centre_02_1666636315614_fra.png",
        "/DAM/DAM-aboutcfia-sujetacia/STAGING/images-images/renewing_sidney_centre_03_1666636323660_fra.png",
        "/DAM/DAM-aboutcfia-sujetacia/STAGING/images-images/renewing_sidney_centre_04_1666636333176_fra.png",
        "/DAM/DAM-aboutcfia-sujetacia/STAGING/images-images/renewing_sidney_centre_08_1696443495925_fra.jpg"
    ],
    "managing_branch": "comn"
}