{
    "dcr_id": "1353810575778",
    "urlEn": [
        "/DAM/DAM-aboutcfia-sujetacia/STAGING/images-images/acco_audit_h1h1lessons_report_eval1_1374506835044_eng.jpg",
        "/DAM/DAM-aboutcfia-sujetacia/STAGING/images-images/acco_audit_h1h1lessons_report_eval2_1374506842966_eng.jpg",
        "/DAM/DAM-aboutcfia-sujetacia/STAGING/images-images/acco_audit_h1h1lessons_report_eval3_1374506851122_eng.jpg",
        "/DAM/DAM-aboutcfia-sujetacia/STAGING/images-images/acco_audit_h1h1lessons_report_eval1_small_1374506830872_eng.jpg",
        "/DAM/DAM-aboutcfia-sujetacia/STAGING/images-images/acco_audit_h1h1lessons_report_eval2_small_1374506838951_eng.jpg",
        "/DAM/DAM-aboutcfia-sujetacia/STAGING/images-images/acco_audit_h1h1lessons_report_eval3_small_1374506847091_eng.jpg"
    ],
    "urlFr": [
        "/DAM/DAM-aboutcfia-sujetacia/STAGING/images-images/acco_audit_h1h1lessons_report_eval1_1374506835044_fra.jpg",
        "/DAM/DAM-aboutcfia-sujetacia/STAGING/images-images/acco_audit_h1h1lessons_report_eval2_1374506842966_fra.jpg",
        "/DAM/DAM-aboutcfia-sujetacia/STAGING/images-images/acco_audit_h1h1lessons_report_eval3_1374506851122_fra.jpg",
        "/DAM/DAM-aboutcfia-sujetacia/STAGING/images-images/acco_audit_h1h1lessons_report_eval1_small_1374506830872_fra.jpg",
        "/DAM/DAM-aboutcfia-sujetacia/STAGING/images-images/acco_audit_h1h1lessons_report_eval2_small_1374506838951_fra.jpg",
        "/DAM/DAM-aboutcfia-sujetacia/STAGING/images-images/acco_audit_h1h1lessons_report_eval3_small_1374506847091_fra.jpg"
    ],
    "managing_branch": "comn"
}