{
    "dcr_id": "1432597567412",
    "urlEn": [
        "/DAM/DAM-plants-vegetaux/STAGING/text-texte/pestrava_anogla_poster_1432594936093_eng.pdf",
        "/DAM/DAM-plants-vegetaux/STAGING/images-images/pestrava_anogla_poster_sm_1432594030672_eng.jpg",
        "/DAM/DAM-plants-vegetaux/STAGING/images-images/pestrava_anogla_index_image1_1433358437320_eng.jpg",
        "/DAM/DAM-plants-vegetaux/STAGING/images-images/pestrava_anogla_poster_symptoms1_1432650420674_eng.jpg",
        "/DAM/DAM-plants-vegetaux/STAGING/images-images/pestrava_anogla_poster_symptoms2_1432650421706_eng.jpg",
        "/DAM/DAM-plants-vegetaux/STAGING/images-images/pestrava_anogla_poster_symptoms3_1432650422768_eng.jpg",
        "/DAM/DAM-plants-vegetaux/STAGING/images-images/pestrava_anogla_poster_symptoms4_1432650423737_eng.jpg",
        "/DAM/DAM-plants-vegetaux/STAGING/images-images/pestrava_anogla_poster_symptoms5_1432650424706_eng.jpg",
        "/DAM/DAM-plants-vegetaux/STAGING/images-images/pestrava_anogla_poster_symptoms6_1432650425659_eng.jpg",
        "/DAM/DAM-plants-vegetaux/STAGING/images-images/pestrava_anogla_poster_symptoms7_1432650426721_eng.jpg",
        "/DAM/DAM-plants-vegetaux/STAGING/images-images/pestrava_anogla_poster_other1_1432652398511_eng.jpg",
        "/DAM/DAM-plants-vegetaux/STAGING/images-images/pestrava_anogla_poster_other2_1432652399605_eng.jpg",
        "/DAM/DAM-plants-vegetaux/STAGING/images-images/pestrava_anogla_poster_other3_1432652400652_eng.jpg"
    ],
    "urlFr": [
        "/DAM/DAM-plants-vegetaux/STAGING/text-texte/pestrava_anogla_poster_1432594936093_fra.pdf",
        "/DAM/DAM-plants-vegetaux/STAGING/images-images/pestrava_anogla_poster_sm_1432594030672_fra.jpg",
        "/DAM/DAM-plants-vegetaux/STAGING/images-images/pestrava_anogla_index_image1_1433358437320_fra.jpg",
        "/DAM/DAM-plants-vegetaux/STAGING/images-images/pestrava_anogla_poster_symptoms1_1432650420674_fra.jpg",
        "/DAM/DAM-plants-vegetaux/STAGING/images-images/pestrava_anogla_poster_symptoms2_1432650421706_fra.jpg",
        "/DAM/DAM-plants-vegetaux/STAGING/images-images/pestrava_anogla_poster_symptoms3_1432650422768_fra.jpg",
        "/DAM/DAM-plants-vegetaux/STAGING/images-images/pestrava_anogla_poster_symptoms4_1432650423737_fra.jpg",
        "/DAM/DAM-plants-vegetaux/STAGING/images-images/pestrava_anogla_poster_symptoms5_1432650424706_fra.jpg",
        "/DAM/DAM-plants-vegetaux/STAGING/images-images/pestrava_anogla_poster_symptoms6_1432650425659_fra.jpg",
        "/DAM/DAM-plants-vegetaux/STAGING/images-images/pestrava_anogla_poster_symptoms7_1432650426721_fra.jpg",
        "/DAM/DAM-plants-vegetaux/STAGING/images-images/pestrava_anogla_poster_other1_1432652398511_fra.jpg",
        "/DAM/DAM-plants-vegetaux/STAGING/images-images/pestrava_anogla_poster_other2_1432652399605_fra.jpg",
        "/DAM/DAM-plants-vegetaux/STAGING/images-images/pestrava_anogla_poster_other3_1432652400652_fra.jpg"
    ],
    "managing_branch": "comn"
}