{
    "dcr_id": "1578466418343",
    "urlEn": [
        "/DAM/DAM-food-aliments/STAGING/text-texte/milk_gluten_soy_juices_may_2014_mar_2015_1578526058188_eng.pdf"
    ],
    "urlFr": [
        "/DAM/DAM-food-aliments/STAGING/text-texte/milk_gluten_soy_juices_may_2014_mar_2015_1578526058188_fra.pdf"
    ],
    "managing_branch": "comn"
}