{
    "dcr_id": "1715002431366",
    "urlEn": [
        "/DAM/DAM-animals-animaux/STAGING/text-texte/cfia_facility_quest_for_exp_raw_ined_ani_by-prods_from_int_proc_pack_handling_stor_facil_1715108006741_eng.doc",
        "/DAM/DAM-comn-comn/WORKAREA/DAM-comn-comn/images-images/download_pdf_1558729521562_eng.png"
    ],
    "urlFr": [
        "/DAM/DAM-animals-animaux/STAGING/text-texte/cfia_facility_quest_for_exp_raw_ined_ani_by-prods_from_int_proc_pack_handling_stor_facil_1715108006741_fra.doc",
        "/DAM/DAM-comn-comn/WORKAREA/DAM-comn-comn/images-images/download_pdf_1558729521562_fra.png"
    ],
    "managing_branch": "comn"
}