{
    "dcr_id": "1417633025090",
    "urlEn": [
        "/DAM/DAM-form-forme/WORKAREA/DAM-form-forme/text-texte/c5749_re_1450703478290_eng.pdf"
    ],
    "urlFr": [
        "/DAM/DAM-form-forme/WORKAREA/DAM-form-forme/text-texte/c5749_re_1450703478290_fra.pdf"
    ],
    "managing_branch": "comn"
}