{
    "dcr_id": "1323873927629",
    "urlEn": [
        "/DAM/DAM-aboutcfia-sujetacia/STAGING/images-images/code-space_1384467519696_eng.gif",
        "/DAM/DAM-plants-vegetaux/STAGING/images-images/protect_directives_d-02-10_app7_1397683709211_eng.jpg"
    ],
    "urlFr": [
        "/DAM/DAM-aboutcfia-sujetacia/STAGING/images-images/code-space_1384467519696_fra.gif",
        "/DAM/DAM-plants-vegetaux/STAGING/images-images/protect_directives_d-02-10_app7_1397683709211_fra.jpg"
    ],
    "managing_branch": "comn"
}