{
    "dcr_id": "1546989036103",
    "urlEn": [
        "/DAM/DAM-aboutcfia-sujetacia/STAGING/images-images/sfcr_toolkit_compliance_enforcement_banner_1574279668405_eng.jpg",
        "/DAM/DAM-aboutcfia-sujetacia/STAGING/images-images/era_1576182621611_eng.jpg",
        "/DAM/DAM-aboutcfia-sujetacia/STAGING/images-images/efficient_inspections_1576182622439_eng.jpg"
    ],
    "urlFr": [
        "/DAM/DAM-aboutcfia-sujetacia/STAGING/images-images/sfcr_toolkit_compliance_enforcement_banner_1574279668405_fra.jpg",
        "/DAM/DAM-aboutcfia-sujetacia/STAGING/images-images/era_1576182621611_fra.jpg",
        "/DAM/DAM-aboutcfia-sujetacia/STAGING/images-images/efficient_inspections_1576182622439_fra.jpg"
    ],
    "managing_branch": "comn"
}