{
    "dcr_id": "1654548734146",
    "urlEn": [
        "/DAM/DAM-aboutcfia-sujetacia/STAGING/images-images/lab_reference_lethbridge_lab_1654543037067_eng.jpg",
        "/DAM/DAM-aboutcfia-sujetacia/STAGING/images-images/lab_reference_scientist_1654543078917_eng.jpg"
    ],
    "urlFr": [
        "/DAM/DAM-aboutcfia-sujetacia/STAGING/images-images/lab_reference_lethbridge_lab_1654543037067_fra.jpg",
        "/DAM/DAM-aboutcfia-sujetacia/STAGING/images-images/lab_reference_scientist_1654543078917_fra.jpg"
    ],
    "managing_branch": "comn"
}