{
    "dcr_id": "1651414765002",
    "urlEn": [
        "/DAM/DAM-animals-animaux/WORKAREA/DAM-animals-animaux/text-texte/revocation_order_pcz_06_09_33_45_55_58_74_1664644507593_eng.pdf",
        "/DAM/DAM-animals-animaux/STAGING/text-texte/designation_order_for_pcz_45_1651414604362_eng.pdf",
        "/DAM/DAM-animals-animaux/STAGING/text-texte/order_declaring_pcz_45_1651414607120_eng.pdf",
        "https://inspection.canada.ca/DAM/DAM-comn-comn/WORKAREA/DAM-comn-comn/images-images/download_pdf_1558729521562_eng.png"
    ],
    "urlFr": [
        "/DAM/DAM-animals-animaux/WORKAREA/DAM-animals-animaux/text-texte/revocation_order_pcz_06_09_33_45_55_58_74_1664644507593_fra.pdf",
        "/DAM/DAM-animals-animaux/STAGING/text-texte/designation_order_for_pcz_45_1651414604362_fra.pdf",
        "/DAM/DAM-animals-animaux/STAGING/text-texte/order_declaring_pcz_45_1651414607120_fra.pdf",
        "https://inspection.canada.ca/DAM/DAM-comn-comn/WORKAREA/DAM-comn-comn/images-images/download_pdf_1558729521562_fra.png"
    ],
    "managing_branch": "comn"
}