{
    "dcr_id": "1666229334633",
    "urlEn": [
        "/DAM/DAM-animals-animaux/STAGING/text-texte/revocation_order_pcz_128_1670278682166_eng.pdf",
        "/DAM/DAM-animals-animaux/STAGING/text-texte/designation_order_for_pcz_128_1666226343837_eng.pdf",
        "/DAM/DAM-animals-animaux/STAGING/text-texte/order_declaring_pcz_128_1666226342977_eng.pdf",
        "/DAM/DAM-comn-comn/STAGING/images-images/download_pdf_1558729521562_eng.png"
    ],
    "urlFr": [
        "/DAM/DAM-animals-animaux/STAGING/text-texte/revocation_order_pcz_128_1670278682166_fra.pdf",
        "/DAM/DAM-animals-animaux/STAGING/text-texte/designation_order_for_pcz_128_1666226343837_fra.pdf",
        "/DAM/DAM-animals-animaux/STAGING/text-texte/order_declaring_pcz_128_1666226342977_fra.pdf",
        "/DAM/DAM-comn-comn/STAGING/images-images/download_pdf_1558729521562_fra.png"
    ],
    "managing_branch": "comn"
}