{
    "dcr_id": "1638822409587",
    "urlEn": [
        "/DAM/DAM-animals-animaux/STAGING/text-texte/signed_order_imposition_removing_belgium_1638817976681_eng.pdf",
        "/DAM/DAM-comn-comn/STAGING/images-images/download_pdf_1558729521562_eng.png",
        "/DAM/DAM-aboutcfia-sujetacia/STAGING/images-images/code-space_1384467519696_eng.gif"
    ],
    "urlFr": [
        "/DAM/DAM-animals-animaux/STAGING/text-texte/signed_order_imposition_removing_belgium_1638817976681_fra.pdf",
        "/DAM/DAM-comn-comn/STAGING/images-images/download_pdf_1558729521562_fra.png",
        "/DAM/DAM-aboutcfia-sujetacia/STAGING/images-images/code-space_1384467519696_fra.gif"
    ],
    "managing_branch": "comn"
}