{
    "dcr_id": "1674756692480",
    "urlEn": [
        "/DAM/DAM-food-aliments/STAGING/text-texte/parasites_in_imported_fresh_leafy_herbs_1674583989370_eng.pdf",
        "/DAM/DAM-comn-comn/STAGING/images-images/download_pdf_1558729521562_eng.png"
    ],
    "urlFr": [
        "/DAM/DAM-food-aliments/STAGING/text-texte/parasites_in_imported_fresh_leafy_herbs_1674583989370_fra.pdf",
        "/DAM/DAM-comn-comn/STAGING/images-images/download_pdf_1558729521562_fra.png"
    ],
    "managing_branch": "comn"
}