{
    "dcr_id": "1331752933012",
    "urlEn": [
        "/DAM/DAM-plants-vegetaux/STAGING/images-images/invasive_plants_factsheet_echiuma_1331669826817_eng.jpg",
        "/DAM/DAM-plants-vegetaux/STAGING/images-images/invasive_plants_factsheet_echiumb_1331669873863_eng.jpg",
        "/DAM/DAM-plants-vegetaux/STAGING/images-images/invasive_plants_factsheet_echiumc_1331669911206_eng.jpg"
    ],
    "urlFr": [
        "/DAM/DAM-plants-vegetaux/STAGING/images-images/invasive_plants_factsheet_echiuma_1331669826817_fra.jpg",
        "/DAM/DAM-plants-vegetaux/STAGING/images-images/invasive_plants_factsheet_echiumb_1331669873863_fra.jpg",
        "/DAM/DAM-plants-vegetaux/STAGING/images-images/invasive_plants_factsheet_echiumc_1331669911206_fra.jpg"
    ],
    "managing_branch": "comn"
}