{
    "dcr_id": "1426264529452",
    "urlEn": [
        "/DAM/DAM-form-forme/STAGING/text-texte/c1317_re_1428677704936_eng.pdf"
    ],
    "urlFr": [
        "/DAM/DAM-form-forme/STAGING/text-texte/c1317_re_1428677704936_fra.pdf"
    ],
    "managing_branch": "comn"
}