{
    "dcr_id": "1665348439247",
    "urlEn": [
        "/DAM/DAM-animals-animaux/STAGING/text-texte/revocation_order_pcz_121_1671144220731_eng.pdf",
        "/DAM/DAM-animals-animaux/STAGING/text-texte/designation_order_pcz_121_1665348324698_eng.pdf",
        "/DAM/DAM-animals-animaux/STAGING/text-texte/declaration_order_pcz_121_1665348299605_eng.pdf",
        "/DAM/DAM-comn-comn/STAGING/images-images/download_pdf_1558729521562_eng.png"
    ],
    "urlFr": [
        "/DAM/DAM-animals-animaux/STAGING/text-texte/revocation_order_pcz_121_1671144220731_fra.pdf",
        "/DAM/DAM-animals-animaux/STAGING/text-texte/designation_order_pcz_121_1665348324698_fra.pdf",
        "/DAM/DAM-animals-animaux/STAGING/text-texte/declaration_order_pcz_121_1665348299605_fra.pdf",
        "/DAM/DAM-comn-comn/STAGING/images-images/download_pdf_1558729521562_fra.png"
    ],
    "managing_branch": "comn"
}