{
    "dcr_id": "1549576575939",
    "urlEn": [
        "/DAM/DAM-aboutcfia-sujetacia/STAGING/text-texte/cfia_scnc_lbrtrs_wnnpg_text_1556827714941_eng.pdf",
        "/DAM/DAM-aboutcfia-sujetacia/STAGING/images-images/cfia_lab_winnipeg_1498061341975_eng.jpg"
    ],
    "urlFr": [
        "/DAM/DAM-aboutcfia-sujetacia/STAGING/text-texte/cfia_scnc_lbrtrs_wnnpg_text_1556827714941_fra.pdf",
        "/DAM/DAM-aboutcfia-sujetacia/STAGING/images-images/cfia_lab_winnipeg_1498061341975_fra.jpg"
    ],
    "managing_branch": "comn"
}