{
    "dcr_id": "1323477130171",
    "urlEn": [
        "/DAM/DAM-plants-vegetaux/STAGING/images-images/chkbx_1311659882336_eng.gif",
        "/DAM/DAM-aboutcfia-sujetacia/STAGING/images-images/code-space_1384467519696_eng.gif"
    ],
    "urlFr": [
        "/DAM/DAM-plants-vegetaux/STAGING/images-images/chkbx_1311659882336_fra.gif",
        "/DAM/DAM-aboutcfia-sujetacia/STAGING/images-images/code-space_1384467519696_fra.gif"
    ],
    "managing_branch": "comn"
}