{
    "dcr_id": "1472620011267",
    "urlEn": [
        "/DAM/DAM-aboutcfia-sujetacia/STAGING/images-images/audit_staffing_framework_report_img1_1472491723866_eng.jpg"
    ],
    "urlFr": [
        "/DAM/DAM-aboutcfia-sujetacia/STAGING/images-images/audit_staffing_framework_report_img1_1472491723866_fra.jpg"
    ],
    "managing_branch": "comn"
}