{
    "dcr_id": "1332206599275",
    "urlEn": [
        "/DAM/DAM-aboutcfia-sujetacia/STAGING/images-images/news_resource_food_safety_recalls_interactive_html1_1374468777827_eng.jpg"
    ],
    "urlFr": [
        "/DAM/DAM-aboutcfia-sujetacia/STAGING/images-images/news_resource_food_safety_recalls_interactive_html1_1374468777827_fra.jpg"
    ],
    "managing_branch": "comn"
}