{
    "dcr_id": "1563991906688",
    "title": {
        "en": "Archived - Company 9208-0472 <span lang=\"fr\">Qu\u00e9bec inc.</span> fined $15,000 for violating the <i>Food and Drugs Act</i>",
        "fr": "Archiv\u00e9e - L'entreprise <span class=\"nowrap\">9208-0472 Qu\u00e9bec inc.</span> est condamn\u00e9e \u00e0 payer des amendes totalisant <span class=\"nowrap\">15 000 $</span> pour des infractions \u00e0 la <i>Loi sur les aliments et drogues</i>"
    },
    "html_modified": "2024-03-12 3:58:30 PM",
    "modified": "2019-07-24",
    "issued": "2019-07-24",
    "teamsite_location": {
        "en": "/default/main/inspection/cont-cont/pros-judi/STAGING/templatedata/comn-comn/pros-judi/data/20190724_1563991906688_eng",
        "fr": "/default/main/inspection/cont-cont/pros-judi/STAGING/templatedata/comn-comn/pros-judi/data/20190724_1563991906688_fra"
    },
    "ia_id": "1563991906954",
    "parent_ia_id": "1299852705293",
    "chronicletopic": {
        "en": "",
        "fr": ""
    },
    "chroniclecontent": {
        "en": "",
        "fr": ""
    },
    "chronicleaudience": {
        "en": "",
        "fr": ""
    },
    "sfcrdocumenttype": {
        "en": "",
        "fr": ""
    },
    "sfcraudience": {
        "en": "",
        "fr": ""
    },
    "sfcrmethodofproduction": {
        "en": "",
        "fr": ""
    },
    "activity": {
        "en": "",
        "fr": ""
    },
    "commodity": {
        "en": "",
        "fr": ""
    },
    "program": {
        "en": "",
        "fr": ""
    },
    "search_type": "other",
    "parent_node_id": "1299852705293",
    "layout_name": "content page 1 column",
    "breadcrumb": {
        "en": "Archived - Company 9208-0472 <span lang=\"fr\">Qu\u00e9bec inc.</span> fined $15,000 for violating the <i>Food and Drugs Act</i>",
        "fr": "Archiv\u00e9e - L'entreprise <span class=\"nowrap\">9208-0472 Qu\u00e9bec inc.</span> est condamn\u00e9e \u00e0 payer des amendes totalisant <span class=\"nowrap\">15 000 $</span> pour des infractions \u00e0 la <i>Loi sur les aliments et drogues</i>"
    },
    "label": {
        "en": "Archived - Company 9208-0472 <span lang=\"fr\">Qu\u00e9bec inc.</span> fined $15,000 for violating the <i>Food and Drugs Act</i>",
        "fr": "Archiv\u00e9e - L'entreprise <span class=\"nowrap\">9208-0472 Qu\u00e9bec inc.</span> est condamn\u00e9e \u00e0 payer des amendes totalisant <span class=\"nowrap\">15 000 $</span> pour des infractions \u00e0 la <i>Loi sur les aliments et drogues</i>"
    },
    "templatetype": "content page 1 column",
    "node_id": "1563991906954",
    "managing_branch": "comn",
    "type_name": "pros-judi",
    "dcr_type": "pros-judi",
    "parent_dcr_id": "1298575869119",
    "has_dcr_id": true,
    "lang": "en",
    "could_not_load": 0,
    "refaire": false,
    "interwoven_url": {
        "en": "/about-the-cfia/media-relations/prosecution-bulletins/2019-07-24/",
        "fr": "/a-propos-de-l-acia/relations-avec-les-medias/bulletins-judiciaires/2019-07-24/"
    },
    "meta": {
        "viewport": {
            "en": "width=device-width,initial-scale=1",
            "fr": "width=device-width,initial-scale=1"
        },
        "service": {
            "en": "CFIA-ACIA",
            "fr": "CFIA-ACIA"
        },
        "accessRights": {
            "en": "2",
            "fr": "2"
        },
        "title": {
            "en": "Archived - Company 9208-0472 Qu\u00e9bec inc. fined $15,000 for violating the Food and Drugs Act",
            "fr": "Archiv\u00e9e - L'entreprise 9208-0472 Qu\u00e9bec inc. est condamn\u00e9e \u00e0 payer des amendes totalisant 15 000 $ pour des infractions \u00e0 la Loi sur les aliments et drogues"
        },
        "description": {
            "en": "On December 17, 2018, at the Montreal courthouse, the Montreal-based company 9208-0472 Qu\u00e9bec Inc., operating as Bezras Hashem Select Kosher Imports, pled guilty to three violations of the Food and Drugs Act and its Regulations.",
            "fr": "Le 17 d\u00e9cembre 2018, au palais de justice de Montr\u00e9al, l'entreprise montr\u00e9alaise 9208-0472 Qu\u00e9bec Inc., faisant affaire sous le nom Bezras Hashem Select Kosher Imports, a enregistr\u00e9 un plaidoyer de culpabilit\u00e9 \u00e0 trois chefs d'accusation pour des infractions \u00e0 la Loi sur les aliments et drogues et son R\u00e8glement d'application."
        },
        "keywords": {
            "en": "prosecution bulletins, Company 9208-0472 Qu\u00e9bec inc., violating the Food and Drugs Act, Regulations, Bezras Hashem Select Kosher Imports",
            "fr": "bulletins judiciaires, L'entreprise 9208-0472 Qu\u00e9bec inc., enfreint la Loi sur les aliments et drogues, r\u00e8glements, Bezras Hashem Select Kosher Imports"
        },
        "dcterms.subject": {
            "en": "court decisions,commercial law,food inspection,consumer protection",
            "fr": "d\u00e9cision du tribunal,droit commercial,inspection des aliments,protection du consommateur"
        },
        "creator": {
            "en": "Government of Canada,Canadian Food Inspection Agency",
            "fr": "Gouvernement du Canada,Agence canadienne d'inspection des aliments"
        },
        "language": {
            "en": "eng",
            "fr": "fra"
        },
        "issued": {
            "en": "2019-07-24",
            "fr": "2019-07-24"
        },
        "modified": {
            "en": "2019-07-24",
            "fr": "2019-07-24"
        },
        "type": {
            "en": "reference material",
            "fr": "mat\u00e9riel de r\u00e9f\u00e9rence"
        },
        "audience": {
            "en": "business,government,general public",
            "fr": "entreprises,gouvernement,grand public"
        },
        "name": {
            "en": "Government of Canada",
            "fr": "Gouvernement du Canada"
        },
        "areaServed": {
            "en": "Canada",
            "fr": "Canada"
        }
    },
    "h1": {
        "en": "Archived - Company 9208-0472 Qu\u00e9bec inc. fined $15,000 for violating the Food and Drugs Act",
        "fr": "Archiv\u00e9e - L'entreprise 9208-0472 Qu\u00e9bec inc. est condamn\u00e9e \u00e0 payer des amendes totalisant 15 000 $ pour des infractions \u00e0 la Loi sur les aliments et drogues"
    },
    "body": {
        "en": "        \r\n        \n<section id=\"archived\" class=\"alert alert-warning\">\n<h2>This page has been archived</h2>\n<p>July 24, 2019, Ottawa: Information identified as archived is provided for reference, research or record-keeping purposes. It is not subject to the Government of Canada Web Standards and has not been altered or updated since it was archived. Please contact us to request a format other than those available.</p>\n</section><p>On December 17, 2018, at the Montreal courthouse, the Montreal-based company 9208-0472 <span lang=\"fr\">Qu\u00e9bec Inc.</span>, operating as \"Bezras Hashem Select Kosher Imports\", pled guilty to 3 violations of the <i>Food and Drugs Act</i> and its Regulations.</p>\n\n<p>On June 26, 2019, the Court of <span lang=\"fr\">Qu\u00e9bec</span> fined the company $5,000 for each of 3 counts of:</p>\n\n<ul class=\"lst-spcd\">\n<li>interfering with things seized, contrary to subsection 24(2) of the <i>Food and Drugs Act</i>.</li>\n<li>obstructing an inspector while engaged in carrying out their duties, contrary to subsection 24(1) of the <i>Food and Drugs Act</i>.</li>\n<li>selling breakfast cereals to which a non-approved vitamin, mineral nutrient or amino acid has been added, contrary to subsection D.03.002 (1) of the <i>Food and Drugs Regulations</i>.</li>\n</ul>\n\n<p>The events took place between March 8, 2016, and October 12, 2016.</p>\n\n<p>CFIA is responsible for the administration and enforcement of federal legislation, acts and regulations, including the <i>Food and Drugs Act</i>. We are dedicated to safeguarding food, animal, and plant health, which enhances the health and well-being of Canada's people, environment and economy.</p>\r\n        \r\n\r\n\r\n\r\n<div class=\"row\">\r\n \r\n\t\r\n\t\t\t\r\n\r\n<div class=\"col-xm-12 pagedetails container\">\r\n\t\t\t\t\r\n\r\n</div>\r\n\t\r\n</div>",
        "fr": "\r\n        \r\n        \n<section id=\"archived\" class=\"alert alert-warning\">\n<h2>Cette page a \u00e9t\u00e9 archiv\u00e9e</h2>\n<p>Le 24 juillet 2019, Ottawa : L'information dont il est indiqu\u00e9 qu'elle est archiv\u00e9e est fournie \u00e0 des fins de r\u00e9f\u00e9rence, de recherche ou de tenue de documents. Elle n'est pas assujettie aux normes Web du gouvernement du Canada et elle n'a pas \u00e9t\u00e9 modifi\u00e9e ou mise \u00e0 jour depuis son archivage. Pour obtenir cette information dans un autre format, veuillez communiquer avec nous.</p>\n</section><p>Le 17 d\u00e9cembre 2018, au palais de justice de Montr\u00e9al, l'entreprise montr\u00e9alaise <span class=\"nowrap\">9208-0472 Qu\u00e9bec Inc.</span>, faisant affaire sous le nom \u00ab\u00a0<span lang=\"en\">Bezras Hashem Select Kosher Imports</span>\u00a0\u00bb, a enregistr\u00e9 un plaidoyer de culpabilit\u00e9 \u00e0 3 chefs d'accusation pour des infractions \u00e0 la <i>Loi sur les aliments et drogues</i> et son R\u00e8glement d'application.</p>\n\n<p>Le 26 juin 2019, la Cour du Qu\u00e9bec a condamn\u00e9 la compagnie \u00e0 payer une amende de <span class=\"nowrap\">5 000 $</span> pour chacun des chefs d'accusation suivants\u00a0:</p>\n\n<ul class=\"lst-spcd\">\n<li>ne pas avoir respect\u00e9 la r\u00e9tention impos\u00e9e par l'ACIA sur des produits non conformes, contrairement au paragraphe 24(2) de la <i>Loi sur les aliments et drogues</i>.</li>\n<li>avoir entrav\u00e9 l'action de l'inspecteur dans l'exercice de ses fonctions, contrairement au paragraphe 24(1) de la <i>Loi sur les aliments et drogues.</i></li>\n<li>avoir vendu des c\u00e9r\u00e9ales \u00e0 d\u00e9jeuner auxquelles une vitamine, un min\u00e9ral nutritif ou un acide amin\u00e9 non permis a \u00e9t\u00e9 ajout\u00e9, contrairement au paragraphe <span class=\"nowrap\">D.03.002 (1)</span> du <i>R\u00e8glement sur les aliments et drogues</i>.</li>\n</ul>\n\n<p>Les \u00e9v\u00e9nements ont eu lieu entre le 8 mars 2016 et le 12 octobre 2016.</p>\n\n<p>L'ACIA est charg\u00e9e de l'administration et du contr\u00f4le de l'application de lois et de r\u00e8glements f\u00e9d\u00e9raux, y compris la <i>Loi sur les aliments et drogues</i>. Le mandat de l'ACIA est d'assurer la salubrit\u00e9 des aliments, la sant\u00e9 des animaux et la protection des v\u00e9g\u00e9taux afin de contribuer \u00e0 la sant\u00e9 et au bien-\u00eatre de la population canadienne, de prot\u00e9ger l'environnement et d'assurer la viabilit\u00e9 de l'\u00e9conomie.</p>\r\n        \r\n\r\n<div class=\"row\">\r\n \r\n\t\t\t\r\n\t\t\t\r\n\r\n\t\t\r\n\t\r\n</div>"
    },
    "js": {
        "en": "",
        "fr": ""
    },
    "success": true,
    "chat_wizard": false
}