{
    "dcr_id": "1361290991391",
    "title": {
        "en": "Processed Food and Beverages Sector",
        "fr": "Secteurs des aliments et boissons transform\u00e9s"
    },
    "modified": "2021-05-03",
    "issued": "2013-02-21",
    "templatetype": "content page 1 column",
    "page_type": "1",
    "node_id": "1354137773919",
    "dc_date_created": "2013-02-21",
    "managing_branch": "PAB",
    "parent_node_id": "1354137773765",
    "short_title": "Processed Food and Beverages",
    "exturl": "",
    "teamsite_location": {
        "en": "/default/main/AAFC-AAC/Internet-Internet/CCB-DGCC/WORKAREA/CCB-DGCC/templatedata/comm-comm/gene-gene/data/processed_food_and_beverages_1361290991391_en",
        "fr": "/default/main/AAFC-AAC/Internet-Internet/CCB-DGCC/WORKAREA/CCB-DGCC/templatedata/comm-comm/gene-gene/data/processed_food_and_beverages_1361290991391_fr"
    },
    "type_name": "sitemapinit",
    "has_dcr_id": true,
    "label": {
        "en": "Processed Food and Beverages",
        "fr": "Aliments et boissons transform\u00e9s"
    },
    "breadcrumb": {
        "en": "Processed Food and Beverages",
        "fr": "Aliments et boissons transform\u00e9s"
    },
    "layout_name": "content page 1 column",
    "lang": "en",
    "refaire": false,
    "meta": {
        "viewport": {
            "en": "width=device-width,initial-scale=1",
            "fr": "width=device-width, initial-scale=1"
        },
        "issued": {
            "en": "2013-02-21",
            "fr": "2013-02-21"
        },
        "modified": {
            "en": "2021-05-03",
            "fr": "2021-05-03"
        },
        "format": {
            "en": "gcformat",
            "fr": "gcformat"
        },
        "title": {
            "en": "Processed Food and Beverages Sector",
            "fr": "Secteurs des aliments et boissons transform\u00e9s"
        },
        "subject": {
            "en": "food and beverage processing;trade statistics",
            "fr": "statistiques du commerce;aliments et boissons-transformation"
        },
        "dcterms:subject": {
            "en": "beverage industry;food processing;international trade",
            "fr": "industrie des boissons;transformation des aliments;commerce ext\u00e9rieur"
        },
        "description": {
            "en": "Baked Goods and Bakery Products Beverages Ethnic Gourmet and Specialty Foods Packaged Food Additives and Ingredients Animal Food and Pet Food Baby Food Condiments Confectionery Pasta and Noodles Snack Foods Additional information Food Manufacturing Statistics (Industry Canada)Various statistics are presented for the food industry and it's sub-industries including definitions number of establishments value of production employments GDP trade etc... North American Industry Classification System (NAICS) 2002 -",
            "fr": "Produits de boulangerie et de p\u00e2tisserie Boissons Aliments ethniques de sp\u00e9cialit\u00e9 et \u00e9picerie fine Aliments emball\u00e9s Additifs et ingr\u00e9dients Aliments pour b\u00e9tail et animaux domestiques Aliments pour b\u00e9b\u00e9 Condiments Confiseries P\u00e2tes et nouilles Grignotines Renseignements suppl\u00e9mentaires Statistiques sur la fabrication d'aliments (Industrie Canada)Pr\u00e9sentation de diff\u00e9rentes statistiques sur l'industrie alimentaire et ses sous-secteurs y compris des d\u00e9finitions des num\u00e9ros d'\u00e9tablissements la valeur de la production l'emploi le produit int\u00e9rieur brut le commerce etc. Syst\u00e8me de classification des industries de l'Am\u00e9rique du Nord (SCIAN) 2002 - Canada (Statistique Canada)Donne"
        },
        "language": {
            "en": "eng",
            "fr": "fra"
        },
        "keywords": {
            "en": "Industry Canada)Various statistics;Beverage Processing Industry;Processed Food;other federal departments;Bakery Products Beverages Ethnic Gourmet",
            "fr": "propres \u00e0;Tables rondes;Pr\u00e9sentation de diff\u00e9rentes statistiques;valeur de la production;importance de l'industrie de la transformation des aliments"
        },
        "audience": {
            "en": "gcaudience",
            "fr": "gcaudience"
        },
        "type": {
            "en": "organizational description",
            "fr": "consultation"
        },
        "creator": {
            "en": "Agriculture and Agri-Food Canada;Government of Canada",
            "fr": "Agriculture et Agroalimentaire Canada;Gouvernement du Canada"
        },
        "spatial": {
            "en": "gcregions",
            "fr": "gcregions"
        },
        "service": {
            "en": "AAFC-AAC",
            "fr": "AAFC-AAC"
        },
        "accessRights": {
            "en": "2",
            "fr": "2"
        },
        "legalName": {
            "en": "agriculture_and_agri_food_canada",
            "fr": "agriculture_et_agroalimentaire_canada"
        },
        "areaServed": {
            "en": "Canada",
            "fr": "Canada"
        }
    },
    "h1": {
        "en": "Processed Food and Beverages Sector",
        "fr": "Secteurs des aliments et boissons transform\u00e9s"
    },
    "js": {
        "en": "",
        "fr": ""
    },
    "body": {
        "en": "\r\n    <p>Food and beverage processing is the second largest manufacturing industry in Canada in terms of value of production, and is the largest buyer of Canadian agricultural products. It is a key economic sector.</p>\n\n<h2>Services and information</h2>\n\n\n<p><a href=\"?id=1174563085690\">Industry overview</a><br>\nGet an overview of the Canadian processed food and beverages industry and its significance for Canada. </p>\n\n<p><a href=\"?id=1291045147723\">Trends and market opportunities</a><br>\nLearn about emerging trends, consumer preferences and market opportunities for the food processing sector.</p>\n\n<p><a href=\"?id=1410083148447\">International Agri-Food Market Intelligence</a><br>\nLearn about global agriculture and food opportunities and trends in your market of interest.</p>\n\n\n<h3>Contact us</h3>\n\n<p>For more information on the processed food and beverage industry, please contact Agriculture and Agri-food Canada at <a href=\"mailto:aafc.sdad-ddas.aac@canada.ca\">aafc.sdad-ddas.aac@canada.ca</a>.</p>\n\n<h3>Additional information</h3>\n\n<p><a href=\"http://www23.statcan.gc.ca/imdb/p3VD.pl?Function=getVDPage1&amp;db=imdb&amp;dis=2&amp;adm=8&amp;TVD=118464\">North American Industry Classification System (NAICS) 2017 - Canada</a> <a href=\"https://www.statcan.gc.ca/eng/subjects/standard/naics/2017/v3/index\">(Statistics Canada)</a><br>\nThis provides a description of the Classification System and, in particular, how the food and beverage industries are defined and further subdivided within the Classification.</p>\n\r\n    ",
        "fr": "\r\n    <p>La transformation des aliments et des boissons est le deuxi\u00e8me secteur manufacturier en importance au Canada pour ce qui est de la valeur de production, et le plus gros acheteur de produits agricoles canadiens. C'est un secteur \u00e9conomique cl\u00e9.</p>\n\n<h2>Services et information</h2>\n\n\n<p><a href=\"?id=1174563085690\">Aper\u00e7u du secteur</a><br>\nObtenez un aper\u00e7u du secteur canadien des aliments et des boissons transform\u00e9s et de son importance pour le Canada.</p>\n\n<p><a href=\"?id=1291045147723\">Tendances des march\u00e9s et d\u00e9bouch\u00e9s</a><br>\nApprenez-en davantage sur les nouvelles tendances, les pr\u00e9f\u00e9rences des consommateurs et les d\u00e9bouch\u00e9s du secteur de la transformation des aliments.</p>\n\n<p><a href=\"?id=1410083148447\">Renseignements sur les march\u00e9s internationaux de l\u2019agroalimentaire</a><br>\nD\u00e9couvrez les d\u00e9bouch\u00e9s et les tendances en mati\u00e8re d\u2019agriculture et d\u2019alimentation dans le march\u00e9 qui vous int\u00e9resse.</p>\n\n\n<h3>Contactez-nous</h3>\n\n<p>Pour de plus amples renseignements sur le secteur des aliments transform\u00e9s et des boissons, veuillez communiquer avec Agriculture et Agroalimentaire Canada \u00e0 l'adresse suivante <a href=\"mailto:aafc.sdad-ddas.aac@canada.ca\">aafc.sdad-ddas.aac@canada.ca</a>.</p>\n\n<h3>Renseignements suppl\u00e9mentaires</h3>\n\n<p><a href=\"http://www23.statcan.gc.ca/imdb/p3VD_f.pl?Function=getVDPage1&amp;db=imdb&amp;dis=2&amp;adm=8&amp;TVD=118464\">Syst\u00e8me de classification des industries de l'Am\u00e9rique du Nord (SCIAN) Canada 2017</a>\u00a0<a href=\"https://www.statcan.gc.ca/fra/sujets/norme/scian/2017/v3/index\">(Statistique Canada)</a><br>\nCe site fournit une description du Syst\u00e8me de classification et, en particulier, explique comment les diff\u00e9rentes cat\u00e9gories de produits alimentaires et de boissons sont d\u00e9finies et subdivis\u00e9es dans le Syst\u00e8me.</p>\n\r\n    "
    }
}