{
    "dcr_id": "1196363731573",
    "title": {
        "en": "Agricultural research results",
        "fr": "R\u00e9sultats de recherches en agriculture"
    },
    "modified": "2021-02-01",
    "issued": "2009-03-02",
    "templatetype": "content page 1 column",
    "page_type": "1",
    "node_id": "1354137774003",
    "dc_date_created": "2009-03-02",
    "managing_branch": "PAB",
    "parent_node_id": "1354137773974",
    "short_title": "",
    "exturl": "",
    "teamsite_location": {
        "en": "/default/main/AAFC-AAC/Internet-Internet/Common-Commun/WORKAREA/Common-Commun/templatedata/comm-comm/gene-gene/data/11/intro_sci_res_pubs_1196363731573_en",
        "fr": "/default/main/AAFC-AAC/Internet-Internet/Common-Commun/WORKAREA/Common-Commun/templatedata/comm-comm/gene-gene/data/11/intro_sci_res_pubs_1196363731573_fr"
    },
    "type_name": "sitemapinit",
    "has_dcr_id": true,
    "label": {
        "en": "Agricultural research results",
        "fr": "R\u00e9sultats de recherches en agriculture"
    },
    "breadcrumb": {
        "en": "Agricultural research results",
        "fr": "R\u00e9sultats de recherches en agriculture"
    },
    "layout_name": "content page 1 column",
    "lang": "en",
    "refaire": false,
    "meta": {
        "viewport": {
            "en": "width=device-width,initial-scale=1",
            "fr": "width=device-width, initial-scale=1"
        },
        "issued": {
            "en": "2009-03-02",
            "fr": "2009-03-02"
        },
        "modified": {
            "en": "2021-02-01",
            "fr": "2021-02-01"
        },
        "format": {
            "en": "text/html",
            "fr": "text/html"
        },
        "title": {
            "en": "Agricultural research results",
            "fr": "R\u00e9sultats de recherches en agriculture"
        },
        "subject": {
            "en": "aafcsubject",
            "fr": "aafcsubject"
        },
        "dcterms:subject": {
            "en": "government information;scientific research",
            "fr": "information gouvernementale;recherche scientifique"
        },
        "description": {
            "en": "Each year, Agriculture and Agri-Food Canada researchers produce a large number of publications which highlight the accomplishments of our science and innovation activities.",
            "fr": "1196363731573/iwmnt//default/main/aafc-aac/internet-internet/common-commun/workarea/common-commun/templatedata/comm-comm/gene-gene/data//default/main/aafc-aac/internet-internet/common-commun/staging/templatedata/comm-comm/gene-gene/data/subsequent_savefraintro_sci_res_pubscmsgeneric templatemod\u00e8le g\u00e9n\u00e9riquesdauth3author1publications de recherchechaque ann\u00e9e, les chercheurs d'agriculture et agroalimentaire canada produisent de nombreuses publications afin de souligner les r\u00e9alisations obtenues dans le cadre des activit\u00e9s en science et en innovation du minist\u00e8re."
        },
        "language": {
            "en": "eng",
            "fr": "fra"
        },
        "keywords": {
            "en": " specialized databases; Agri-Science E-Zine; annual reports; abstracts;publications",
            "fr": " experts ind\u00e9pendants; autres publications;  bulletins techniques;publications de recherche"
        },
        "audience": {
            "en": "gcaudience",
            "fr": "grand public;scientifiques"
        },
        "type": {
            "en": "resource list",
            "fr": "liste de r\u00e9f\u00e9rence"
        },
        "creator": {
            "en": "Research Branch;Agriculture and Agri-Food Canada;Government of Canada",
            "fr": "Direction g\u00e9n\u00e9rale de la recherche;Agriculture et Agroalimentaire Canada;Gouvernement du Canada"
        },
        "spatial": {
            "en": "gcregions",
            "fr": "gcregions"
        },
        "service": {
            "en": "AAFC-AAC",
            "fr": "AAFC-AAC"
        },
        "accessRights": {
            "en": "2",
            "fr": "2"
        },
        "legalName": {
            "en": "agriculture_and_agri_food_canada",
            "fr": "agriculture_et_agroalimentaire_canada"
        },
        "areaServed": {
            "en": "Canada",
            "fr": "Canada"
        }
    },
    "h1": {
        "en": "Agricultural research results",
        "fr": "R\u00e9sultats de recherches en agriculture"
    },
    "js": {
        "en": "",
        "fr": ""
    },
    "body": {
        "en": "\r\n    \n<p>Explore publications and articles that highlight the work of our agricultural research scientists.  Find useful resources for researchers, for farmers, and for the agriculture and agri-food sector.</p>\n\n<ul class=\"list-unstyled lst-spcd\">\n\n<li><a href=\"?id=1452277428601\">Agricultural applications and software</a><br>\n Maps and interactive tools showing climate and soil information. </li> \n\n<li><a href=\"?id=1580153237101\">Agriculture and the environment</a><br>\nWeather and climate relevant to the agricultural sector, Drought Watch, interactive maps, geospatial data and tools, soil data and land resource information, water quality and supply related to farming.</li>\n\n<li><a href=\"?id=1197056926950\">Agricultural technologies available for licensing</a> <br>\n Agricultural products and processes that are available for commercial licensing. </li>\n\n<li><a href=\"?id=1379013177194\">Scientific achievements in agriculture</a><br>\nFeature articles about work done by Agriculture and Agri-Food Canada's researchers</li>\n\n<li><a href=\"?id=1329321967651\">Climate change and agriculture</a><br>\n Greenhouse gases, climate change scenarios, weather effects on agriculture</li>\n\n<li><a href=\"https://www.youtube.com/playlist?list=PL2jqhpqaGll_lfv-xRQ66AeIK1adesbic\">Videos - Science and innovation</a><br>\n How scientific research and innovation can benefit farmers, the agricultural sector, the economy and Canadians.</li>\n\n<li><a href=\"https://profils-profiles.science.gc.ca/en/search/profiles?f%5B0%5D=field_organization%3A770&amp;f%5B1%5D=type%3Apublication\">Agricultural Research publications</a><br>\nAccess a directory of publications written by government scientists doing research in agriculture and agri-food.</li>\n</ul>\n\r\n    ",
        "fr": "\r\n    \n\n<p>D\u00e9couvrez les publications et les articles qui mettent en relief le travail de nos chercheurs en agriculture. Trouvez des ressources utiles pour les chercheurs, pour les agriculteurs, et pour le secteur agricole et agroalimentaire.</p>\n \n <ul class=\"list-unstyled lst-spcd\">\n \n <li><a href=\"?id=1452277428601\">Applications et logiciels agricoles</a><br>\n Cartes et outils interactifs pr\u00e9sentant de l\u2019information sur le climat et les sols.</li>\n\n<li><a href=\"?id=1329321967651\">Agriculture et climat</a><br>\nGaz \u00e0 effet de serre, sc\u00e9narios de changements climatiques, les effets de la m\u00e9t\u00e9o sur l'agriculture</li>\n \n<li><a href=\"?id=1580153237101\">Agriculture et environnement</a><br>\nConditions m\u00e9t\u00e9orologiques pertinentes au secteur agricole, surveillance de la s\u00e9cheresse, cartes interactives, donn\u00e9es et outils g\u00e9ospatiaux, donn\u00e9es sur les sols et information sur les terres, qualit\u00e9 de l\u2019eau et approvisionnement en eau dans le contexte de l\u2019agriculture</li>\n\n<li><a href=\"?id=1379013177194\">R\u00e9alisations scientifiques en agriculture</a><br>\nArticles au sujet de la recherche faite par les chercheurs d'Agriculture et Agroalimentaire Canada</li>\n\n <li><a href=\"?id=1197056926950\">Technologies agricoles exploitables sous licence</a><br>\n Produits et proc\u00e9d\u00e9s agricoles exploitables sous licence commerciale.</li>\n\n  <li><a href=\"https://www.youtube.com/playlist?list=PLBgf4t0puREg9H1lnS_OeuSiClO_o5MRU\">Vid\u00e9os \u2013 science et innovation</a><br>\nComment la recherche scientifique et l'innovation peuvent profiter aux agriculteurs, au secteur agricole, \u00e0 l'\u00e9conomie et aux Canadiens.</li>\n\n  <li><a href=\"https://profils-profiles.science.gc.ca/fr/recherche/profils?f%5B0%5D=field_organization%3A770&amp;f%5B1%5D=type%3Apublication\">Publications sur la recherche agricole</a><br>\nEffectuez une recherche ou parcourez ce r\u00e9pertoire de publications r\u00e9dig\u00e9es par des scientifiques gouvernementaux qui font de la recherche en agriculture et en agroalimentaire.</li>\n </ul>\n\r\n    "
    }
}