{
    "dcr_id": "1265124665112",
    "title": {
        "en": "How to Participate in Agriculture and Agri-Food Canada's  Accelerated Release Program",
        "fr": "Comment participer au Programme de mise en circulation acc\u00e9l\u00e9r\u00e9e  d'Agriculture et Agroalimentaire Canada"
    },
    "modified": "2020-03-11",
    "issued": "2010-02-05",
    "templatetype": "content page 1 column",
    "page_type": "1",
    "node_id": "1366840654996",
    "dc_date_created": "2010-02-05",
    "managing_branch": "PAB",
    "parent_node_id": "1366840625411",
    "short_title": "How to Participate",
    "exturl": "",
    "teamsite_location": {
        "en": "/default/main/AAFC-AAC/Internet-Internet/Common-Commun/WORKAREA/Common-Commun/templatedata/comm-comm/gene-gene/data/02/sci-tech-trans_2010_1265124665112_en",
        "fr": "/default/main/AAFC-AAC/Internet-Internet/Common-Commun/WORKAREA/Common-Commun/templatedata/comm-comm/gene-gene/data/02/sci-tech-trans_2010_1265124665112_fr"
    },
    "type_name": "sitemapinit",
    "has_dcr_id": true,
    "label": {
        "en": "How to Participate",
        "fr": "Comment participer"
    },
    "breadcrumb": {
        "en": "How to Participate",
        "fr": "Comment participer"
    },
    "layout_name": "content page 1 column",
    "lang": "en",
    "refaire": false,
    "meta": {
        "viewport": {
            "en": "width=device-width,initial-scale=1",
            "fr": "width=device-width, initial-scale=1"
        },
        "issued": {
            "en": "2010-02-05",
            "fr": "2010-02-05"
        },
        "modified": {
            "en": "2020-03-11",
            "fr": "2020-03-11"
        },
        "format": {
            "en": "text/html",
            "fr": "text/html"
        },
        "title": {
            "en": "How to Participate in Agriculture and Agri-Food Canada's  Accelerated Release Program",
            "fr": "Comment participer au Programme de mise en circulation acc\u00e9l\u00e9r\u00e9e  d'Agriculture et Agroalimentaire Canada"
        },
        "subject": {
            "en": "potato production;potato growers;potatoes",
            "fr": "pommes de terre-producteurs;pommes de terre-production"
        },
        "dcterms:subject": {
            "en": "crops;technology;inspection",
            "fr": "botanique;technologie;inspection"
        },
        "description": {
            "en": "The Accelerated Release Program is a two-phase mechanism to fast track the release of promising potato selections developed by Agriculture and Agri-Food Canada",
            "fr": "Le Programme de mise en circulation acc\u00e9l\u00e9r\u00e9e est un m\u00e9canisme en deux \u00e9tapes qui acc\u00e9l\u00e8re la mise en circulation de s\u00e9lections de pomme de terre mises au point par Agriculture et Agroalimentaire Canada"
        },
        "language": {
            "en": "eng",
            "fr": "fra"
        },
        "keywords": {
            "en": " AR2017; accelerated potato release; potato accelerated release; AAFC potato release;new potato selections",
            "fr": " AR2017; Programme de mise en circulation acc\u00e9l\u00e9r\u00e9e - Nouvelles vari\u00e9t\u00e9s de pommes de terre; Programme de mise en circulation acc\u00e9l\u00e9r\u00e9e de l\u2019AAC;Nouvelles vari\u00e9t\u00e9s de pommes de terre"
        },
        "audience": {
            "en": "gcaudience",
            "fr": "gcaudience"
        },
        "type": {
            "en": "event",
            "fr": "\u00e9v\u00e9nement"
        },
        "creator": {
            "en": "Research Branch;Agriculture and Agri-Food Canada;Government of Canada",
            "fr": "Direction g\u00e9n\u00e9rale de la recherche;Agriculture et Agroalimentaire Canada;Gouvernement du Canada"
        },
        "spatial": {
            "en": "gcregions",
            "fr": "gcregions"
        },
        "service": {
            "en": "AAFC-AAC",
            "fr": "AAFC-AAC"
        },
        "accessRights": {
            "en": "2",
            "fr": "2"
        },
        "legalName": {
            "en": "agriculture_and_agri_food_canada",
            "fr": "agriculture_et_agroalimentaire_canada"
        },
        "areaServed": {
            "en": "Canada",
            "fr": "Canada"
        }
    },
    "h1": {
        "en": "How to Participate in Agriculture and Agri-Food Canada's Accelerated Release Program",
        "fr": "Comment participer au Programme de mise en circulation acc\u00e9l\u00e9r\u00e9e d'Agriculture et Agroalimentaire Canada"
    },
    "js": {
        "en": "",
        "fr": ""
    },
    "body": {
        "en": "\r\n     <p>The <b>Accelerated Release Program</b> is a two-phase mechanism to fast track the release of promising potato selections developed by Agriculture and Agri-Food Canada. For a description of the program go to <a href=\"?id=1197406160572\">About the Accelerated Release Program</a>.</p>\n\n<!--<p>This page provides the information required to participate in phase&nbsp;1 and to request the new <a href=\"?id=1517351059100\">AR2018 selections</a> for non-exclusive testing. It also provides information on phase&nbsp;2 and the bidding procedure to obtain AR2016 selections  for exclusive testing.</p> \n\n\n\n<p>A brief description, picture, performance and quality data and preliminary disease resistance evaluations are provided for the <a href=\"?id=1517351059100\">AR2018 selections</a>. --> \n\t\n\n\n<h2>Phase 1: New selections offered for two years of non-exclusive field testing</h2>\n<p>No new AR2020 selections will be available this year.</p>\n<!--\n<ul>\n  <li>Requests for AR2018 selections under this phase of the program will be received until 4:00 p.m. Atlantic Standard Time on <strong>Monday, February&nbsp;26, 2018</strong>.</li>\n<li>Requests may be made on the <a href=\"?id=\">AR2018 Selection Request Form</a>.</li>\n  <li>If the demand for seed exceeds supplies, seed will be allocated on a first come, first served basis according to date of receipt of written requests (regular or registered mail, courier or fax).</li>\n  <li>Respondents will be contacted in writing prior to the end of March. At that time, respondents will be requested to sign a Material Transfer Agreement and remit a processing fee of $100&nbsp;per selection, plus applicable taxes.</li>\n  <li><b>Breeder's Selection Seed</b> from the Benton Ridge, New Brunswick and Vauxhall, Alberta Potato Breeding Substations will be available for distribution in late April  (10&nbsp;kilograms per selection each year).</li>\n</ul>  -->\n\n<h2>Phase 2: Accelerated Release selections offered for exclusive testing in 2020</h2>\n\n\t<p>Thirteen AR2018 <a href=\"?id=1517351059100\">selections</a> are available. Interested parties have had the opportunity to assess  these selections for two years and this concludes the <strong>non-exclusive</strong> testing phase of the AR2018 program. We are now inviting cash  bids from all interested parties for the <strong>exclusive</strong> phase of testing of  these selections.</p>\n\n<p>This offering is open only to Canadian registered companies. If you are considering a cash bid, please return the  \n<a href=\"?id=1390504108775\">Cash Bid Package Request Form</a> or you may contact Andrea Dilworth (Telephone: 506-460-4509, E-mail: <a href=\"mailto:andrea.dilworth@canada.ca\">andrea.dilworth@canada.ca</a>) and she will forward it to you.</p>\n\n<p><b>The Cash Bid Package includes:</b></p>\n\n<ul>\n  <li>the Bid Form and, if requested by courier, a Reply Envelope</li>\n  <li>a copy of the Evaluation and Field Testing Agreement with the model License Agreement</li>\n</ul>\n\n<p class=\"mrgn-bttm-lg\">Sealed bids for the selections will be received <strong>until 4:00 p.m. Atlantic Standard Time on Thursday January 30, 2020</strong>.</p>\n\n<div class=\"mrgn-tp-lg mrgn-bttm-lg brdr-bttm\"></div>\n\n\n<p><b>Please direct any questions regarding the Accelerated Release Program to:</b></p>\n\n<p>Andrea Dilworth<br>\nCommercialization Officer<br>\nAgriculture and Agri-Food Canada<br>\nP.O. Box 20280<br>\nFredericton, New Brunswick E3B 4Z7<br>\nTelephone: 506-460-4509<br>\nE-mail: <a href=\"mailto:andrea.dilworth@canada.ca\">andrea.dilworth@canada.ca</a></p>\n\n \n\n<p><b>Technical questions on the selections should be directed to:</b></p>\n\n<p>Virginia Dickison<br>\nPotato Breeding<br>\nTelephone: 506-460-4529<br>\nE-mail: <a href=\"mailto:virginia.dickison@canada.ca\">virginia.dickison@canada.ca</a></p>\n\r\n    ",
        "fr": "\r\n    <p>Le <b>Programme de mise en circulation acc\u00e9l\u00e9r\u00e9e</b> est un m\u00e9canisme en deux \u00e9tapes qui acc\u00e9l\u00e8re la mise en circulation de s\u00e9lections de pomme de terre mises au point par Agriculture et Agroalimentaire Canada. Pour voir la description du programme, allez \u00e0 la page <a href=\"?id=1197406160572\">\u00c0 propos du Programme de mise en circulation acc\u00e9l\u00e9r\u00e9e</a>.</p>\n\n<h2>Premi\u00e8re \u00e9tape\u00a0: Offre de nouvelles vari\u00e9t\u00e9s pour des essais de plein champ non exclusifs pendant deux ans</h2>\n\n\n<p>Aucune nouvelle s\u00e9lection AR2020 ne sera disponible cette ann\u00e9e.</p>\n<h2>Deuxi\u00e8me \u00e9tape\u00a0: S\u00e9lections offertes pour des essais exclusifs en 2020</h2>\n\n\t<p>Treize s\u00e9lections de la <a href=\"?id=1517351059100\">s\u00e9rie AR2018</a> sont disponibles. Les int\u00e9ress\u00e9s ont eu deux ans pour \u00e9valuer ces s\u00e9lections. Ceci met fin \u00e0 l'\u00e9tape des essais non exclusifs du programme. Nous invitons donc les parties int\u00e9ress\u00e9es \u00e0 faire des soumissions pour la phase exclusive des essais sur ces s\u00e9lections. </p>\n\n<p>L'offre ne s'adresse qu'aux entreprises canadiennes agr\u00e9\u00e9es. Si vous envisagez de faire une soumission, veuillez envoyer la <a href=\"?id=1390504108775\">trousse du formulaire de soumission</a>. Vous pouvez aussi demander la trousse directement \u00e0 Andrea Dilworth \n(T\u00e9l\u00e9phone\u00a0: 506-460-4509, Courriel\u00a0: <a href=\"mailto:andrea.dilworth@canada.ca\">andrea.dilworth@canada.ca</a>).</p>\n\n<p><b>La trousse comprend ce qui suit\u00a0:</b></p>\n\n<ul>\n  <li>le formulaire de soumission et, si demand\u00e9 par messager, une enveloppe de retour;</li>\n  <li>une copie de l'\u00e9valuation et de l'entente sur les essais au champ, avec le contrat de licence type.</li>\n</ul>\n\n<p class=\"mrgn-bttm-lg\">Les soumissions doivent parvenir dans une enveloppe scell\u00e9e au Centre de recherches sur la pomme de terre au plus tard <strong>le jeudi, 30 janvier 2020, \u00e0 16\u00a0h, heure de l\u2019Atlantique</strong>.</p>\n\n\n<p><b>Pour toute question se rapportant au Programme de mise en circulation acc\u00e9l\u00e9r\u00e9e, adressez-vous \u00e0\u00a0:</b></p>\n\n<p>Andrea Dilworth<br>\nAgente de commercialisation<br>\nAgriculture et Agroalimentaire Canada<br>\nC.P. 20280<br>\nFredericton (Nouveau-Brunswick)<br>\nE3B 4Z7<br>\nT\u00e9l\u00e9phone\u00a0: 506-460-4509<br>\nCourriel\u00a0: <a href=\"mailto:andrea.dilworth@canada.ca\">andrea.dilworth@canada.ca</a></p>\n\n \n\n<p><b>Pour toute question technique au sujet des s\u00e9lections, veuillez vous adresser \u00e0\u00a0:</b></p>\n\n<p>Virginia Dickison<br>\nProgramme d'am\u00e9lioration de la pomme de terre<br>\nT\u00e9l\u00e9phone\u00a0: 506-460-4529<br>\nCourriel\u00a0: <a href=\"mailto:virginia.dickison@canada.ca\">virginia.dickison@canada.ca</a></p>\n\r\n    "
    }
}