{
    "dcr_id": "1605706730291",
    "title": {
        "en": "Apple reports",
        "fr": "Rapports sur les pommes"
    },
    "modified": "2021-06-17",
    "issued": "2020-12-18",
    "templatetype": "content page 1 column",
    "page_type": "1",
    "node_id": "1368483717979",
    "dc_date_created": "2020-12-18",
    "managing_branch": "PAB",
    "parent_node_id": "1368480271586",
    "short_title": "",
    "exturl": "https://infohort.agr.gc.ca/IH5_Reports/appleReports.xhtml?lang=e&ref=apple_reports&pageMenuId=IH2000",
    "teamsite_location": {
        "en": "/default/main/AAFC-AAC/Internet-Internet/Common-Commun/WORKAREA/Common-Commun/templatedata/comm-comm/gene-gene/data/11/infohort_apple_reports_1605706730291_en",
        "fr": "/default/main/AAFC-AAC/Internet-Internet/Common-Commun/WORKAREA/Common-Commun/templatedata/comm-comm/gene-gene/data/11/infohort_apple_reports_1605706730291_fr"
    },
    "type_name": "sitemapinit",
    "has_dcr_id": true,
    "label": {
        "en": "Apple reports",
        "fr": "Rapports sur les pommes"
    },
    "breadcrumb": {
        "en": "Apple reports",
        "fr": "Rapports sur les pommes"
    },
    "layout_name": "content page 1 column",
    "lang": "en",
    "refaire": false,
    "meta": {
        "viewport": {
            "en": "width=device-width,initial-scale=1",
            "fr": "width=device-width, initial-scale=1"
        },
        "issued": {
            "en": "2020-12-18",
            "fr": "2020-12-18"
        },
        "modified": {
            "en": "2021-06-17",
            "fr": "2021-06-17"
        },
        "format": {
            "en": "text/html",
            "fr": "text/html"
        },
        "title": {
            "en": "Apple reports",
            "fr": "Rapports sur les pommes"
        },
        "subject": {
            "en": "trade agreements;rapeseed oil;business risk management",
            "fr": "produits avicoles;volailles-march\u00e9;volailles-transformation"
        },
        "dcterms:subject": {
            "en": "architecture;trade;statistics",
            "fr": "consultation;gestion des terres;importation"
        },
        "description": {
            "en": "Some sections of these materials have been redacted based on the. With respect to market diversification, discussions have focused on increasing opportunities for canola-based biofuels both domestically and in the European Union, as well as on increasing exports to growing Asian markets.On May 1, 2019, the GOC announced enhanced financial support to producers through the implementation of the new regulations to strengthen the Advance Payments Program (APP). The amendments increase loan limits from $400,000 to $1\u00a0million for all producers on a permanent basis and increase the interest-free portion of loans on canola advances from $100,000 to $500,000 in the 2019 program year. In 2019, Canadian canola seed exports to China were valued at $822.8 million (1,544.6 thousand tonnes), which represents a 71% decline from 2018 canola seed exports of $2.8 billion (4,872.9 thousand tonnes).Market diversification efforts have seen canola seed exports increase significantly in specific markets.",
            "fr": "Pour obtenir la version longue de ce document, dans laquelle vous trouverez plus de recettes dans un format imprimable, veuillez envoyer un courriel \u00e0. aafc.mas-sam.aac@canada.ca. Chauffer et porter \u00e0 \u00e9bullition, puis laisser refroidir.Pr\u00e9paration (bison). Ajouter le bison \u00e0 la marinade froide et r\u00e9frig\u00e9rer pendant au moins 24 heures (plus longtemps si vous pr\u00e9f\u00e9rez une viande ferme). Retirer le bison de la marinade et ass\u00e9cher en tapotant. Source : Agriculture et Agroalimentaire Canada. Cr\u00eapes roul\u00e9es au crabe des neiges napp\u00e9es de sauce \u00e0 l'\u00e9rable."
        },
        "language": {
            "en": "eng",
            "fr": "fra"
        },
        "keywords": {
            "en": null,
            "fr": "Nouvelle-\u00c9cosse.Goug\u00e8res;Essayez-les"
        },
        "audience": {
            "en": "gcaudience",
            "fr": "gcaudience"
        },
        "type": {
            "en": "notice",
            "fr": "\u00e9valuation"
        },
        "creator": {
            "en": "Agriculture and Agri-Food Canada;Government of Canada",
            "fr": "Agriculture et Agroalimentaire Canada;Gouvernement du Canada"
        },
        "spatial": {
            "en": "gcregions",
            "fr": "gcregions"
        },
        "service": {
            "en": "AAFC-AAC",
            "fr": "AAFC-AAC"
        },
        "accessRights": {
            "en": "2",
            "fr": "2"
        },
        "legalName": {
            "en": "agriculture_and_agri_food_canada",
            "fr": "agriculture_et_agroalimentaire_canada"
        },
        "areaServed": {
            "en": "Canada",
            "fr": "Canada"
        }
    },
    "h1": {
        "en": "Apple reports",
        "fr": "Rapports sur les pommes"
    },
    "js": {
        "en": "",
        "fr": ""
    },
    "body": {
        "en": "\r\n    <p>Storage and utilization reports will be updated by 3:00 pm EST on a monthly basis, excluding summer.</p>\n\n<p><a href=\"https://aimis-simia.agr.gc.ca/rp/index.cfm?action=pr&amp;r=301&amp;pdctc=&amp;lang=en\">Canadian Apple Storage by Type of Storage and Province</a>: This report provides data by growing province and facility type (Controlled Atmosphere, Cold and Common Rooms) as reported by storage operators and represents volumes as of the first day of each month from November to July.</p>\n\n<p><a href=\"https://aimis-simia.agr.gc.ca/rp/index.cfm?action=pr&amp;r=305&amp;pdctc=&amp;lang=en\">Canadian Apple Storage by Type of Storage Variety and Utilization</a>: This report provides data by growing province on Fresh, Juice and Peeler volumes with the storage operators intentions and represents the holdings as of the first day of each month from November to July.</p>\n\n<p><a href=\"https://aimis-simia.agr.gc.ca/rp/index.cfm?action=pr&amp;r=329&amp;pdctc=&amp;lang=en\">Canadian Monthly Apple Storage Summary by Utilization and Variety</a>: This report provides data by growing province on Fresh, Juice and Peeler volumes for each variety and represents the holdings as of the first day of each month from November to July.</p>\n\n<p><a href=\"https://aimis-simia.agr.gc.ca/rp/index.cfm?action=pr&amp;r=302&amp;pdctc=&amp;lang=en%0A\">Canadian Apple Storage Summary</a>: This report provides data by year and represents the holdings as of the first day of each month from November to July.</p>\n\n<p><b>Apple Storage Release Dates - 2020-2021 Season</b><br>\n  Please note that every effort will be made to ensure that the storage data is released at 3:00 PM (15:00) eastern standard time.</p>\n  \n<ul class=\"list-unstyled mrgn-lft-md\">  \n  <li>December 9, 2020</li>\n  <li>January 12, 2021</li>\n  <li>February 8, 2021</li>\n  <li>March 8, 2021</li>\n  <li>April 9, 2021</li>\n  <li>May 7, 2021</li>\n  <li>June 7, 2021</li>\n  <li>July 9, 2021</li>\n</ul>\n\n<p><b>To receive e-mail notification to advise that the Apple Storage Report is available on the Infohort website:</b></p>\n\n<p>Send email to: <a href=\"mailto:apst-subscribe-request@www.agr.gc.ca\">apst-subscribe-request@www.agr.gc.ca</a> leaving the subject line and body blank.</p>\n\n<p><b>To stop receiving e-mail notification of the Apple Storage Report:</b></p>\n\n<p>Send email to: <a href=\"mailto:apst-unsubscribe-request@www.agr.gc.ca\">apst-unsubscribe-request@www.agr.gc.ca</a> leaving the subject line and body blank.</p>\n\n\r\n    ",
        "fr": "\r\n    <p>Les rapports sur l'entreposage et l'utilisation seront mis \u00e0 jour au plus tard \u00e0 15 h (HNE) une fois par mois, sauf l'\u00e9t\u00e9.</p>\n\n<p><a href=\"https://aimis-simia.agr.gc.ca/rp/index.cfm?action=pr&amp;r=301&amp;pdctc=&amp;lang=fr\">Stocks de pommes canadiennes entrepos\u00e9es selon le type d'entreposage et la province</a>\u00a0: Ce rapport fournit les donn\u00e9es par province de production et par type d'entrep\u00f4t (en atmosph\u00e8re contr\u00f4l\u00e9e, frigorifique et ordinaire) d\u00e9clar\u00e9es par les exploitants d'entrep\u00f4t; ces donn\u00e9es correspondent aux volumes en entrep\u00f4t, en date du premier jour de chaque mois, de novembre \u00e0 juillet.</p>\n\n<p><a href=\"https://aimis-simia.agr.gc.ca/rp/index.cfm?action=pr&amp;r=305&amp;pdctc=&amp;lang=fr\">Stocks de pommes canadiennes entrepos\u00e9es selon le type dentreposage la vari\u00e9t\u00e9 et l'utilisation</a>\u00a0: Ce rapport fournit les donn\u00e9es par province de production sur les volumes de fruits frais, \u00e0 jus et \u00e0 peler, ainsi que sur les intentions des exploitants d'entrep\u00f4t; ces donn\u00e9es correspondent aux stocks en entrep\u00f4t, en date du premier jour de chaque mois, de novembre \u00e0 juillet.</p>\n\n<p><a href=\"https://aimis-simia.agr.gc.ca/rp/index.cfm?action=pr&amp;r=329&amp;pdctc=&amp;lang=fr\">Sommaire des stocks mensuels de pommes canadiennes entrepos\u00e9es selon l'utilisation et la vari\u00e9t\u00e9</a>\u00a0: Ce rapport fournit les donn\u00e9es par province de production sur les volumes de fruits frais, \u00e0 jus et \u00e0 peler, pour chaque vari\u00e9t\u00e9; ces donn\u00e9es correspondent aux stocks en entrep\u00f4t, en date du premier jour de chaque mois, de novembre \u00e0 juillet.</p>\n\n<p><a href=\"https://aimis-simia.agr.gc.ca/rp/index.cfm?action=pr&amp;r=302&amp;pdctc=&amp;lang=fr\">Sommaire des stocks de pommes canadiennes entrepos\u00e9es</a>\u00a0: Ce rapport fournit les donn\u00e9es par ann\u00e9e, lesquelles correspondent aux stocks en entrep\u00f4t, en date du premier jour de chaque mois, de novembre \u00e0 juillet.</p>\n\n<p><b>Dates de publication des donn\u00e9es sur l'entreposage des pommes - 2020-2021 Saison</b><br>\n  Veuillez noter que toutes les mesures seront prises pour que les donn\u00e9es d'entreposage soient publi\u00e9es \u00e0 15\u00a0h (heure normale de l'est).</p>\n\n<ul class=\"list-unstyled mrgn-lft-md\">  \n  <li>9 d\u00e9cembre 2020</li>\n  <li>12 janvier 2021</li>\n  <li>8 f\u00e9vrier 2021</li>\n  <li>8 mars 2021</li>\n  <li>9 avril 2021</li>\n  <li>7 mai 2021</li>\n  <li>7 juin 2021</li>\n   <li>9 juillet 2021</li>\n</ul>\n\n<p><b>Pour \u00eatre avis\u00e9 par courriel que le rapport sur l'entreposage des pommes est disponible sur le site Web Infohort\u00a0:</b></p>\n\n<p>Envoyez un courriel pour\u00a0: <a href=\"mailto:apst-subscribe-request@www.agr.gc.ca\">apst-subscribe-request@www.agr.gc.ca</a>. N'\u00e9crivez rien dans l'objet et le corps du message.</p>\n\n<p><b>Pour cesser de recevoir les avis concernant le rapport sur l'entreposage des pommes\u00a0:</b></p>\n\n<p>Envoyez un courriel pour\u00a0: <a href=\"mailto:apst-unsubscribe-request@www.agr.gc.ca\">apst-unsubscribe-request@www.agr.gc.ca</a>. N'\u00e9crivez rien dans l'objet et le corps du message.</p>\n\r\n    "
    }
}