{
    "dcr_id": "1173979162358",
    "title": {
        "en": "Meetings of Federal, Provincial and Territorial Ministers of Agriculture",
        "fr": "R\u00e9unions des ministres de l'agriculture des gouvernements f\u00e9d\u00e9ral, provinciaux et territoriaux"
    },
    "modified": "2021-06-24",
    "issued": "2009-01-13",
    "templatetype": "content page 1 column",
    "page_type": "1",
    "node_id": "1474402008379",
    "dc_date_created": "2009-01-13",
    "managing_branch": "PAB",
    "parent_node_id": "1354137774029",
    "short_title": "",
    "exturl": "",
    "teamsite_location": {
        "en": "/default/main/AAFC-AAC/Internet-Internet/Common-Commun/WORKAREA/Common-Commun/templatedata/comm-comm/gene-gene/data/03/about-us_pol_consult_meeting-reunion_1173979162358_en",
        "fr": "/default/main/AAFC-AAC/Internet-Internet/Common-Commun/WORKAREA/Common-Commun/templatedata/comm-comm/gene-gene/data/03/about-us_pol_consult_meeting-reunion_1173979162358_fr"
    },
    "type_name": "sitemapinit",
    "has_dcr_id": true,
    "label": {
        "en": "Meetings of Federal, Provincial and Territorial Ministers of Agriculture",
        "fr": "R\u00e9unions des ministres de l'agriculture des gouvernements f\u00e9d\u00e9ral, provinciaux et territoriaux"
    },
    "breadcrumb": {
        "en": "Meetings of Federal, Provincial and Territorial Ministers of Agriculture",
        "fr": "R\u00e9unions des ministres de l'agriculture des gouvernements f\u00e9d\u00e9ral, provinciaux et territoriaux"
    },
    "layout_name": "content page 1 column",
    "lang": "en",
    "refaire": false,
    "meta": {
        "viewport": {
            "en": "width=device-width,initial-scale=1",
            "fr": "width=device-width, initial-scale=1"
        },
        "issued": {
            "en": "2009-01-13",
            "fr": "2009-01-13"
        },
        "modified": {
            "en": "2021-06-24",
            "fr": "2021-06-24"
        },
        "format": {
            "en": "text/html",
            "fr": "text/html"
        },
        "title": {
            "en": "Meetings of Federal, Provincial and Territorial Ministers of Agriculture",
            "fr": "R\u00e9unions des ministres de l'agriculture des gouvernements f\u00e9d\u00e9ral, provinciaux et territoriaux"
        },
        "subject": {
            "en": "agricultural policy framework (apf);business risk management;agricultural policy",
            "fr": "aliments-qualit\u00e9 et s\u00e9curit\u00e9;politique agricole;Gestion des risques de l'entreprise"
        },
        "dcterms:subject": {
            "en": "policy;agricultural policy;agriculture",
            "fr": "politique;politique agricole;agriculture"
        },
        "description": {
            "en": "13541377740560As agriculture is a shared federal-provincial-territorial responsibility in Canada agriculture ministers from across the country meet face-to-face a few times a year to talk about issues facing the agriculture and agri-food sector and to make decisions on how to address these issues.",
            "fr": "la prosp\u00e9rit\u00e9Toronto (Ontario) le 11 f\u00e9vrier 2011Les ministres de l'agriculture favorisent la cr\u00e9ation de nouveaux d\u00e9bouch\u00e9s commerciaux pendant que l'industrie continue de stimuler l'\u00e9conomie canadienneSaskatoon (Saskatchewan) le 8 juillet 2010Les ministres de l'Agriculture font consensus pour stimuler la croissance gr\u00e2ce \u00e0 l'innovation au commerce et \u00e0 des programmes efficacesToronto (Ontario) le 5 f\u00e9vrier 2010Les ministres de l'Agriculture se penchent sur l'\u00e9conomie la croissance et les d\u00e9bouch\u00e9s commerciaux pour les producteurs canadiensNiagara-on-the-Lake (Ontario) le 10 juillet 2009Les ministres f\u00e9d\u00e9raux provinciaux et territoriaux de l'"
        },
        "language": {
            "en": "eng",
            "fr": "fra"
        },
        "keywords": {
            "en": "Canada's Ag Sector;Ottawa Ontario;2008FPT Agriculture Ministers;annual conference;Toronto Ontario",
            "fr": "p\u00e9riode de r\u00e9ponse;conf\u00e9rence annuelle;ministres de l'Agriculture;d\u00e9veloppement des march\u00e9s;ministres de l'agriculture"
        },
        "audience": {
            "en": "gcaudience",
            "fr": "gcaudience"
        },
        "type": {
            "en": "sound",
            "fr": "page administrative"
        },
        "creator": {
            "en": "Communications and Consultations Team;Agriculture and Agri-Food Canada;Government of Canada",
            "fr": "\u00c9quipe des communications et des consultations;Agriculture et Agroalimentaire Canada;Gouvernement du Canada"
        },
        "spatial": {
            "en": "gcregions",
            "fr": "gcregions"
        },
        "service": {
            "en": "AAFC-AAC",
            "fr": "AAFC-AAC"
        },
        "accessRights": {
            "en": "2",
            "fr": "2"
        },
        "legalName": {
            "en": "agriculture_and_agri_food_canada",
            "fr": "agriculture_et_agroalimentaire_canada"
        },
        "areaServed": {
            "en": "Canada",
            "fr": "Canada"
        }
    },
    "h1": {
        "en": "Meetings of Federal, Provincial and Territorial Ministers of Agriculture",
        "fr": "R\u00e9unions des ministres de l'agriculture des gouvernements f\u00e9d\u00e9ral, provinciaux et territoriaux"
    },
    "body": {
        "en": "\r\n    <p>As agriculture is a shared federal-provincial-territorial responsibility in Canada, agriculture ministers from across the country typically meet face-to-face at least once each year to talk about issues facing the agriculture and agri-food sector, and to make decisions on how to address these issues. These meetings include a two-day annual conference, usually held in July, as well as one-day meetings as necessary. </p>\n\n<p>Each year, the co-chair duties rotate between the provinces and territories. The provincial co-chair hosts the annual conference in their own province or territory, and co-chairs the other meetings that year with the federal minister of agriculture and agri-food. Ministers receive presentations from officials, discuss policy options, and make decisions that help build a stronger future for agriculture in Canada.</p>\n\n<p>The annual conference usually concludes with a news conference or media availability. Ministers also issue a communiqu\u00e9 following each meeting that provides an overview of the topics they discussed and the key decisions they reached at the meeting.</p>\n\n\n\n\n<ul>\n<li><a href=\"/eng/about-our-department/partners-and-agencies-agriculture-and-agri-food-canada/?id=1360701203481#a3\">Our Provincial and Territorial Partners</a></li>\n\n</ul>\n\n<h2>News Releases</h2>\n\n<ul class=\"list-unstyled lst-spcd\">\n\n\n\n<li><a href=\"https://www.canada.ca/en/agriculture-agri-food/news/2020/11/canadas-ministers-of-agriculture-focus-on-important-support-measures-for-farmers-and-processors-at-their-annual-conference.html\">Canada\u2019s Ministers of Agriculture focus on important support measures for farmers and processors at their annual conference</a> [November 27, 2020]\n<ul>\n<li><a href=\"https://www.canada.ca/en/agriculture-agri-food/news/2020/11/statement-by-the-honourable-marie-claude-bibeau-following-the-2020-federal-provincial-territorial-ministers-annual-conference.html\">Statement by the Honourable Marie-Claude Bibeau following the 2020 Federal-Provincial-Territorial Ministers Annual Conference</a></li>\n</ul>\n\n</li>\n\n<li><a href=\"https://www.canada.ca/en/agriculture-agri-food/news/2020/11/canadian-ministers-of-agriculturebetter-position-farmers-and-processors-for-recovery-and-growth.html\">Canadian Ministers of Agriculture better position farmers and processors for recovery and growth</a> [November 20, 2020]</li>\n\n<li><a href=\"https://www.canada.ca/en/agriculture-agri-food/news/2019/12/canadas-ministers-of-agriculture-advance-improvements-to-business-risk-management-programs-and-collaborate-on-other-priorities.html\">Canada\u2019s Ministers of Agriculture advance improvements to business risk management programs and collaborate on other priorities</a> [December 17, 2019]</li>\n\n<li><a href=\"https://www.canada.ca/en/agriculture-agri-food/news/2019/07/canadas-ministers-of-agriculture-meet-to-drive-a-strong-and-innovative-agriculture-and-agri-food-sector.html\">Canada's Ministers of Agriculture meet to drive a strong and innovative agriculture and agri-food sector</a> [July 19, 2019]</li>\n\n</ul>\n\n\n<!--\n<h2>Related videos</h2>\n\n<ul class=\"list-unstyled lst-spcd\">\n<li><a href=\"?id=1577193299641\">Federal-Provincial-Territorial Ministers Meeting of Agriculture</a></li>\n<li><a href=\"?id=1577193478212\">State of the Sector 2019 - Bright and Bold</a></li>\n</ul>\n\n-->\n\n\n\n<div class=\"provisional gc-prtts mrgn-tp-md  mrgn-lft-0\">\n  <div class=\"container\">\n    <div class=\"row\">\n\n\n\t    <section class=\"col-md-8 gc-prtts\">\n            <h2 class=\"h3\">Features</h2>\n<div class=\"row wb-eqht wb-init\">\n              <div class=\"col-md-6 mrgn-bttm-md\">\n                <a class=\"hght-inhrt\" href=\"?id=1461767369849\">\n                  <div class=\"well well-sm brdr-rds-0 hght-inhrt\">\n                  <figure>\n\n<img src=\"http://multimedia.agr.gc.ca/pack/img/brm_cap_logo-sm-v2-eng.gif\" alt=\"Canadian Agricultural Partnership: Innovate. Grow. Prosper.\" class=\"img-responsive\">\n<figcaption class=\"mrgn-lft-sm\">Canadian Agricultural Partnership</figcaption>\n                  </figure>                    \n                 <p class=\"mrgn-lft-sm\">The Canadian Agricultural Partnership is a five-year (2018-2023), $3 billion investment by federal, provincial and territorial governments to strengthen the agriculture and agri-food sector</p>\n </div>\n </a>\n </div>\n<div class=\"col-md-6 mrgn-bttm-md\">\n                <a class=\"hght-inhrt\" href=\"?id=1589312283901\">\n                  <div class=\"well well-sm brdr-rds-0 hght-inhrt\">\n                  <figure>\n\n<img src=\"http://multimedia.agr.gc.ca/pack/img/infographic_programs00-small20-eng.jpg\" alt=\"\" class=\"img-responsive\">\n<figcaption class=\"mrgn-lft-sm\">Supporting farmers and food businesses to help feed Canada during COVID-19</figcaption>\n                  </figure>                    \n                 <p class=\"mrgn-lft-sm\">Programs to help farmers and processors help Canada</p>\n </div>\n </a>\n </div>\n </div>\n </section>\n </div>\n </div>\n </div>\n\r\n    ",
        "fr": "\r\n    <p>Au Canada, l'agriculture est un domaine de comp\u00e9tence f\u00e9d\u00e9rale, provinciale et territoriale. Habituellement, les ministres de l'agriculture canadiens se r\u00e9unissent au moins une fois par ann\u00e9e pour discuter des enjeux auxquels fait face le secteur agricole et agroalimentaire et pour prendre des d\u00e9cisions \u00e0 cet \u00e9gard. Les ministres tiennent une conf\u00e9rence annuelle de deux jours, habituellement en juillet, et des r\u00e9unions d'une journ\u00e9e au besoin.</p>\n\n<p>La fonction de copr\u00e9sident est assur\u00e9e annuellement \u00e0 tour de r\u00f4le par un ministre d\u2019une province ou d\u2019un territoire. Le copr\u00e9sident choisi durant une ann\u00e9e donn\u00e9e agit \u00e0 titre d\u2019h\u00f4te avec son homologue f\u00e9d\u00e9ral d\u2019Agriculture et Agroalimentaire Canada pour la conf\u00e9rence annuelle et pour les autres r\u00e9unions tenues durant l\u2019ann\u00e9e; ces \u00e9v\u00e9nements ont lieu dans la province ou le territoire charg\u00e9 de la copr\u00e9sidence. Les ministres re\u00e7oivent les pr\u00e9sentations des fonctionnaires, examinent des options strat\u00e9giques et prennent des d\u00e9cisions pour aider \u00e0 renforcer les assises de l'agriculture canadienne.</p>\n\n<p>La conf\u00e9rence annuelle et les r\u00e9unions se terminent habituellement par une conf\u00e9rence de presse ou une p\u00e9riode de r\u00e9ponse aux questions des m\u00e9dias. Les ministres publient \u00e9galement apr\u00e8s chaque r\u00e9union un communiqu\u00e9 r\u00e9sumant les th\u00e8mes abord\u00e9s ainsi que les principales d\u00e9cisions prises.</p>\n\n\n\n<ul>\n  <li><a href=\"/fra/a-propos-de-notre-ministere/partenaires-et-agences-agriculture-et-agroalimentaire-canada/?id=1360701203481#a3\">Nos partenaires provinciaux et territoriaux</a></li>\n</ul>\n\n<h2>Communiqu\u00e9s</h2>\n\n\n<ul class=\"list-unstyled lst-spcd\">\n\n<li><a href=\"https://www.canada.ca/fr/agriculture-agroalimentaire/nouvelles/2020/11/les-ministres-de-lagriculture-du-canada-se-penchent-sur-dimportantes-mesures-de-soutien-pour-les-producteurs-et-les-transformateurs-a-leur-conferen.html\">Les ministres de l\u2019Agriculture du Canada se penchent sur d\u2019importantes mesures de soutien pour les producteurs et les transformateurs \u00e0 leur conf\u00e9rence annuelle</a> [Le 27 novembre 2020]\n    <ul>\n       <li><a href=\"https://www.canada.ca/fr/agriculture-agroalimentaire/nouvelles/2020/11/declaration-de-lhonorable-marie-claude-bibeau-a-la-suite-de-la-conference-annuelle-des-ministres-federale-provinciaux-et-territoriaux-de-2020.html\">D\u00e9claration de l\u2019honorable Marie-Claude Bibeau \u00e0 la suite de la Conf\u00e9rence annuelle des ministres f\u00e9d\u00e9rale, provinciaux et territoriaux de 2020</a></li>\n     </ul>\n</li>\n\n<li><a href=\"https://www.canada.ca/fr/agriculture-agroalimentaire/nouvelles/2020/11/les-ministres-de-lagriculture-du-canada-placent-les-producteurs-et-les-transformateurs-sur-la-voie-de-la-relance-et-de-la-croissance.html\">Les ministres de l\u2019Agriculture du Canada placent les producteurs et les transformateurs sur la voie de la relance et de la croissance</a> [Le 20 novembre 2020]</li>\n\n<li><a href=\"https://www.canada.ca/fr/agriculture-agroalimentaire/nouvelles/2019/12/les-ministres-de-lagriculture-du-canada-apportent-des-ameliorations-aux-programmes-de-gestion-des-risques-de-lentreprise-et-collaborent-a-dautres-p.html\">Les ministres de l\u2019Agriculture du Canada apportent des am\u00e9liorations aux programmes de gestion des risques de l\u2019entreprise et collaborent \u00e0 d\u2019autres priorit\u00e9s</a> [Le 17 d\u00e9cembre 2019]</li>\n\n<li><a href=\"https://www.canada.ca/fr/agriculture-agroalimentaire/nouvelles/2019/07/les-ministres-de-lagriculture-du-canada-se-reunissent-pour-appuyer-un-secteur-agricole-et-agroalimentaire-fort-et-innovateur.html\">Les ministres de l'Agriculture du Canada se r\u00e9unissent pour appuyer un secteur agricole et agroalimentaire fort et innovateur</a> [Le 19 juillet 2019]</li>\n\n</ul>\n\n\n<!--\n<h2>Vid&eacute;os connexes</h2>\n\n<ul class=\"list-unstyled lst-spcd\">\n<li><a href=\"?id=1577193299641\">R&eacute;union des ministres f&eacute;d&eacute;rale, provinciaux et territoriaux de l'agriculture</a></li>\n<li><a href=\"?id=1577193478212\">&Eacute;tat du secteur en 2019 - Brilliant et audacieux</a></li>\n</ul>\n-->\n\n\n<div class=\"provisional gc-prtts mrgn-tp-md  mrgn-lft-0\">\n  <div class=\"container\">\n    <div class=\"row\">\n\n\n\t    <section class=\"col-md-8 gc-prtts\">\n            <h2 class=\"h3\">En vedette</h2>\n<div class=\"row wb-eqht wb-init\">\n              <div class=\"col-md-6 mrgn-bttm-md\">\n                <a class=\"hght-inhrt\" href=\"?id=1461767369849\">\n                  <div class=\"well well-sm brdr-rds-0 hght-inhrt\">\n                  <figure>\n\n<img src=\"http://multimedia.agr.gc.ca/pack/img/brm_cap_logo-sm-v2-fra.gif\" alt=\"Partenariat canadien pour l'agriculture. Innover. Cro\u00eetre. Prosp\u00e9rer.\" class=\"img-responsive\">\n<figcaption class=\"mrgn-lft-sm\">Partenariat canadien pour l'agriculture</figcaption>\n                  </figure>                    \n                 <p class=\"mrgn-lft-sm\">Le Partenariat canadien pour l'agriculture est un investissement de 3 milliards de dollars sur cinq ans (2018-2023), par les gouvernements f\u00e9d\u00e9ral, provinciaux et territoriaux qui vise \u00e0 renforcer le secteur de l'agriculture et de l'agroalimentaire</p>\n </div>\n </a>\n </div>\n\n<div class=\"col-md-6 mrgn-bttm-md\">\n                <a class=\"hght-inhrt\" href=\"?id=1589312283901\">\n                  <div class=\"well well-sm brdr-rds-0 hght-inhrt\">\n                  <figure>\n<img src=\"http://multimedia.agr.gc.ca/pack/img/infographic_programs00-small20-fra.jpg\" alt=\"\" class=\"img-responsive\">\n\n<figcaption class=\"mrgn-lft-sm\">Soutenir les producteurs et les entreprises alimentaires pour aider \u00e0 nourrir les Canadiens pendant la pand\u00e9mie de COVID-19</figcaption>\n                  </figure>                    \n                 <p class=\"mrgn-lft-sm\">Programmes pour aider les producteurs et les transformateurs \u00e0 aider le Canada</p>\n </div>\n </a>\n </div>\n\n </div>\n </section>\n </div>\n </div>\n </div>\n\r\n    "
    },
    "js": {
        "en": "",
        "fr": ""
    }
}