{
    "dcr_id": "1515682916298",
    "title": {
        "en": "AgriInnovate Program: Step 1. What this program offers",
        "fr": "Programme Agri-innover : \u00c9tape 1. Ce qu'offre ce programme"
    },
    "modified": "2021-03-30",
    "issued": "2018-02-13",
    "templatetype": "content page 1 column",
    "page_type": "1",
    "node_id": "1517240289174",
    "dc_date_created": "2018-02-13",
    "managing_branch": "PAB",
    "parent_node_id": "1354137773676",
    "short_title": "AgriInnovate Program",
    "exturl": "",
    "teamsite_location": {
        "en": "/default/main/AAFC-AAC/Internet-Internet/Group-Ensemble/ProgServ-ProgServ/WORKAREA/ProgServ-ProgServ/templatedata/comm-comm/gene-gene/data/01/agriinnovate_1_program_offers_1515682916298_en",
        "fr": "/default/main/AAFC-AAC/Internet-Internet/Group-Ensemble/ProgServ-ProgServ/WORKAREA/ProgServ-ProgServ/templatedata/comm-comm/gene-gene/data/01/agriinnovate_1_program_offers_1515682916298_fr"
    },
    "type_name": "sitemapinit",
    "has_dcr_id": true,
    "label": {
        "en": "AgriInnovate Program",
        "fr": "Programme Agri-innover"
    },
    "breadcrumb": {
        "en": "AgriInnovate Program",
        "fr": "Programme Agri-innover"
    },
    "layout_name": "content page 1 column",
    "lang": "en",
    "refaire": false,
    "meta": {
        "viewport": {
            "en": "width=device-width,initial-scale=1",
            "fr": "width=device-width, initial-scale=1"
        },
        "issued": {
            "en": "2018-02-13",
            "fr": "2018-02-13"
        },
        "modified": {
            "en": "2021-03-30",
            "fr": "2021-03-30"
        },
        "format": {
            "en": "text/html",
            "fr": "text/html"
        },
        "title": {
            "en": "AgriInnovate Program: Step 1. What this program offers",
            "fr": "Programme Agri-innover : \u00c9tape 1. Ce qu'offre ce programme"
        },
        "subject": {
            "en": "innovation",
            "fr": "innovation"
        },
        "dcterms:subject": {
            "en": "innovation",
            "fr": "innovation"
        },
        "description": {
            "en": "The AgriInnovate program aims to accelerate the commercialization, adoption and/or demonstration of innovative products, technologies, processes or services that increase sector competitiveness and sustainability.",
            "fr": "Le programme Agri-innover vise \u00e0 acc\u00e9l\u00e9rer la commercialisation, l'adoption et la d\u00e9monstration de produits, technologies, proc\u00e9d\u00e9s ou services innovateurs afin d'accro\u00eetre la comp\u00e9titivit\u00e9 et la viabilit\u00e9 dans le secteur de l'agriculture."
        },
        "language": {
            "en": "eng",
            "fr": "fra"
        },
        "keywords": {
            "en": null,
            "fr": null
        },
        "audience": {
            "en": "gcaudience",
            "fr": "gcaudience"
        },
        "type": {
            "en": "program-service description",
            "fr": "description du programme ou du service"
        },
        "creator": {
            "en": "Agriculture and Agri-Food Canada;Government of Canada",
            "fr": "Agriculture et Agroalimentaire Canada;Gouvernement du Canada"
        },
        "spatial": {
            "en": "gcregions",
            "fr": "gcregions"
        },
        "service": {
            "en": "AAFC-AAC",
            "fr": "AAFC-AAC"
        },
        "accessRights": {
            "en": "2",
            "fr": "2"
        },
        "legalName": {
            "en": "agriculture_and_agri_food_canada",
            "fr": "agriculture_et_agroalimentaire_canada"
        },
        "areaServed": {
            "en": "Canada",
            "fr": "Canada"
        }
    },
    "h1": {
        "en": "AgriInnovate Program: Step 1. What this program offers",
        "fr": "Programme Agri-innover : \u00c9tape 1. Ce qu'offre ce programme"
    },
    "js": {
        "en": "",
        "fr": ""
    },
    "body": {
        "en": "\r\n    <div class=\"mrgn-tp-md mrgn-bttm-lg brdr-bttm\">\n\n<div class=\"row\">\n<ul class=\"toc lst-spcd col-md-12 list-unstyled\">\n<li class=\"col-md-4 col-sm-6\"><span class=\"list-group-item active\">Step 1. What this program offers</span></li>\n\n<li class=\"col-md-4 col-sm-6\"><span class=\"list-group-item\">Step 2. <a href=\"?id=1515683013647\">Who is eligible</a></span></li>\n\n<li class=\"col-md-4 col-sm-6 clr-lft-sm\"><span class=\"list-group-item\">Step 3. <a href=\"?id=1515683130392\">How to apply</a></span></li>\n\n<li class=\"col-md-4 col-sm-6\"><span class=\"list-group-item\">Step 4. <a href=\"?id=1515683224863\">After you apply</a></span></li>\n\n<li class=\"col-md-4 col-sm-6\"><span class=\"list-group-item\"><a href=\"?id=1515683309209\">Applicant guide</a></span></li>\n\n<li class=\"col-md-4 col-sm-6\"><span class=\"list-group-item\"><a href=\"?id=1515684217044\">Contact information</a></span></li>\n</ul>\n</div>\n</div>\n\n<!--\n<div class=\"col-md-4 pull-right\">\n<section class=\"panel panel-default\">\n\n<header class=\"panel-heading\">\n<h2 class=\"panel-title\">&nbsp;</h2>\n</header>\n\n<div class=\"panel-body\">\n<ul>\n<li><a href=\"https://open.canada.ca/en/search/grants?search_api_fulltext=%22agriinnovate%22&grants%5B0%5D=year%3A2018&grants%5B1%5D=year%3A2017\">Announced AgriInnovate projects </a></li>\n</ul>\n</div>\n\n</section>\n</div>\n-->\n\t\n<h2>Step 1. What this program offers</h2>\n\n<p>This program provides repayable contributions for projects that aim to accelerate the commercialization, adoption and/or demonstration of innovative products, technologies, processes or services that increase agri-sector competitiveness and sustainability.</p>\n\n<p>Applicants may apply at any point during the life of the program, until available funds have been fully allocated. Once all funds have been allocated, a notice will be posted on this website.</p>\n\n<p>Please apply early to ensure you have enough time to complete your project. Projects must be completed by March 31, 2023.</p>\n\n<h3>Program overview</h3>\n\n<p>The AgriInnovate program aims to accelerate the commercialization, adoption and/or demonstration of innovative products, technologies, processes or services that increase sector competitiveness and sustainability.</p>\n\n<p>In order to be eligible for funding, applicants must clearly illustrate how proposed projects will commercialize/adopt/demonstrate an innovation new to the sector or country.</p>\n\n<p>Once the innovation requirement has been established the program will then prioritize project applications that advance the government\u2019s agenda through one or more of the following priority areas:</p>\n\n\n<ul>\n\t<li>adoption of new or world leading clean technology (including precision agriculture)</li>\n\t<li>increase productivity through advanced manufacturing, automation or robotics</li>\n\t<li>strengthen Canada\u2019s value-added agri-sectors</li>\n\t<li>secure or expand new export markets</li>\n</ul>\n\n<p>Projects that incorporate more than one program priority area will be given greater consideration.</p>\n\n<p>If approved, support is available in the form of repayable contributions.</p>\n\n<nav>\n  <h2 class=\"wb-inv\">Previous-next document navigation - bottom</h2>\n<div class=\"row\">\n<div class=\"col-md-12 mrgn-lft-0 mrgn-rght-0\">\n<ul class=\"pager\">\n<li class=\"next\"><a href=\"?id=1515683013647\" rel=\"next\" title=\"Who is eligible\">Next</a></li>\n</ul>\n</div>\n</div>\n</nav>\n\n\r\n    ",
        "fr": "\r\n    <div class=\"mrgn-tp-md mrgn-bttm-lg brdr-bttm\">\n\n<div class=\"row\">\n<ul class=\"toc lst-spcd col-md-12 list-unstyled\">\n<li class=\"col-md-4 col-sm-6\"><span class=\"list-group-item active\">\u00c9tape 1. Ce qu'offre ce programme</span></li>\n\n<li class=\"col-md-4 col-sm-6\"><span class=\"list-group-item\">\u00c9tape 2. <a href=\"?id=1515683013647\">Qui est admissible</a></span></li>\n\n<li class=\"col-md-4 col-sm-6 clr-lft-sm\"><span class=\"list-group-item\">\u00c9tape 3. <a href=\"?id=1515683130392\">Comment pr\u00e9senter une demande</a></span></li>\n\n<li class=\"col-md-4 col-sm-6\"><span class=\"list-group-item\">\u00c9tape 4. <a href=\"?id=1515683224863\">Apr\u00e8s avoir pr\u00e9sent\u00e9 votre demande</a></span></li>\n\n<li class=\"col-md-4 col-sm-6\"><span class=\"list-group-item\"><a href=\"?id=1515683309209\">Guide du demandeur</a></span></li>\n\n<li class=\"col-md-4 col-sm-6\"><span class=\"list-group-item\"><a href=\"?id=1515684217044\">Pour nous joindre</a></span></li>\n\n</ul>\n</div>\n</div>\n\n<!--\n<div class=\"col-md-4 pull-right\">\n<section class=\"panel panel-default\">\n\n\n\n<div class=\"panel-body\">\n<ul>\n<li><a href=\"https://ouvert.canada.ca/fr/search/grants?search_api_fulltext=%22agriinnovate%22&grants%5B0%5D=year%3A2018&grants%5B1%5D=year%3A2017\">Projets annonc&eacute;s du programme Agri-innover</a></li>\n</ul>\n</div>\n\n</section>\n</div>\n\n-->\n\n<h2>\u00c9tape 1. Ce qu'offre ce programme</h2>\n\n<p>Le programme offre des contributions financi\u00e8res remboursables pour des projets qui visent \u00e0 acc\u00e9l\u00e9rer la commercialisation, l'adoption et la d\u00e9monstration de produits, technologies, proc\u00e9d\u00e9s ou services innovateurs afin d'accro\u00eetre la comp\u00e9titivit\u00e9 et la viabilit\u00e9 dans le secteur de l'agriculture.</p>\n \n<p>Les demandes peuvent \u00eatre pr\u00e9sent\u00e9es \u00e0 tout moment pendant que le programme est en vigueur jusqu'\u00e0 l'attribution compl\u00e8te de tous les fonds disponibles. Un avis sera affich\u00e9 sur le pr\u00e9sent site Web d\u00e8s que tous les fonds auront \u00e9t\u00e9 attribu\u00e9s.</p>\n\n<p>Pr\u00e9sentez votre demande rapidement afin de vous assurer de disposer de suffisamment de temps pour r\u00e9aliser votre projet. Tous les projets doivent \u00eatre achev\u00e9s au plus tard le 31 mars 2023.</p>\n\n\n<h3>Aper\u00e7u du programme</h3>\n\n<p>Le programme Agri-innover vise \u00e0 acc\u00e9l\u00e9rer la commercialisation, l'adoption et la d\u00e9monstration de produits, technologies, proc\u00e9d\u00e9s ou services innovateurs afin d'accro\u00eetre la comp\u00e9titivit\u00e9 et la viabilit\u00e9 dans le secteur de l'agriculture.</p>\n\n<p>Pour \u00eatre admissible \u00e0 un financement, le demandeur doit illustrer clairement comment les projets propos\u00e9s permettront de commercialiser, d'adopter ou d\u00e9montrer un nouveau produit innovateur dans le secteur ou au pays.</p>\n\n<p>Apr\u00e8s que le crit\u00e8re d'innovation a \u00e9t\u00e9 illustr\u00e9, le programme \u00e9tablira l'ordre de priorit\u00e9 des projets propos\u00e9s en fonction des priorit\u00e9s gouvernementales suivantes\u00a0:</p>\n\n\n<ul>\n\t<li>adopter des technologies propres de pointe ou nouvelles (y compris l'agriculture de pr\u00e9cision)</li>\n\t<li>accro\u00eetre la productivit\u00e9 gr\u00e2ce \u00e0 des technologies de pointe (fabrication, automatisation ou robotique)</li>\n\t<li>renforcer les secteurs agricoles \u00e0 valeur ajout\u00e9e du Canada</li>\n\t<li>s\u00e9curiser ou \u00e9largir de nouveaux march\u00e9s d'exportation</li>\n</ul>\n\n<p>Le programme favorisera les projets qui int\u00e8grent plus d'une priorit\u00e9 du programme.</p>\n\t\n<p>Si la demande est approuv\u00e9e, le soutien sera offert sous forme de contributions financi\u00e8res remboursables.</p>\n\n<nav>\n  <h2 class=\"wb-inv\">Navigation du document - pr\u00e9c\u00e9dente-suivante - bas</h2>\n<div class=\"row\">\n<div class=\"col-md-12 mrgn-lft-0 mrgn-rght-0\">\n<ul class=\"pager\">\n<li class=\"next\"><a href=\"?id=1515683013647\" rel=\"next\" title=\"Qui est admissible\">Suivante</a></li>\n</ul>\n</div>\n</div>\n</nav>\n\r\n    "
    }
}