{
    "dcr_id": "1522072992069",
    "title": {
        "en": "AgriRisk Initiatives: Research and Development Contribution Funding Stream: Step 3. How to apply",
        "fr": "Initiatives Agri-risques - Volet de financement par contribution de recherche et d\u00e9veloppement  : \u00c9tape 3. Comment pr\u00e9senter une demande"
    },
    "modified": "2019-08-30",
    "issued": "2018-04-04",
    "templatetype": "content page 1 column",
    "page_type": "1",
    "node_id": "1521126979723",
    "dc_date_created": "2018-04-04",
    "managing_branch": "PAB",
    "parent_node_id": "1521126928137",
    "short_title": "Step 3. How to apply",
    "exturl": "",
    "teamsite_location": {
        "en": "/default/main/AAFC-AAC/Internet-Internet/Group-Ensemble/ProgServ-ProgServ/WORKAREA/ProgServ-ProgServ/templatedata/comm-comm/gene-gene/data/03/agririsk_3_how_apply_1522072992069_en",
        "fr": "/default/main/AAFC-AAC/Internet-Internet/Group-Ensemble/ProgServ-ProgServ/WORKAREA/ProgServ-ProgServ/templatedata/comm-comm/gene-gene/data/03/agririsk_3_how_apply_1522072992069_fr"
    },
    "type_name": "sitemapinit",
    "has_dcr_id": true,
    "label": {
        "en": "Step 3. How to apply",
        "fr": "\u00c9tape 3. Comment pr\u00e9senter une demande"
    },
    "breadcrumb": {
        "en": "Step 3. How to apply",
        "fr": "\u00c9tape 3. Comment pr\u00e9senter une demande"
    },
    "layout_name": "content page 1 column",
    "lang": "en",
    "refaire": false,
    "meta": {
        "viewport": {
            "en": "width=device-width,initial-scale=1",
            "fr": "width=device-width, initial-scale=1"
        },
        "issued": {
            "en": "2018-04-04",
            "fr": "2018-04-04"
        },
        "modified": {
            "en": "2019-08-30",
            "fr": "2019-08-30"
        },
        "format": {
            "en": "text/html",
            "fr": "text/html"
        },
        "title": {
            "en": "AgriRisk Initiatives: Research and Development Contribution Funding Stream: Step 3. How to apply",
            "fr": "Initiatives Agri-risques - Volet de financement par contribution de recherche et d\u00e9veloppement  : \u00c9tape 3. Comment pr\u00e9senter une demande"
        },
        "subject": {
            "en": "technology transfer;architectural heritage;soil assessement",
            "fr": "Gestion des risques de l'entreprise;pommes de terre-producteurs;syst\u00e8mes de culture"
        },
        "dcterms:subject": {
            "en": "architectural heritage;architecture;statistics",
            "fr": "m\u00e9dicament;engrais;\u00e9conomie agricole"
        },
        "description": {
            "en": "Applicant Guide. Step 1.What this program offers. Value-added agriculture and agri-food processing. \u2013 to support the continued growth of the value-added agriculture and agri-food processing sector. Footnote. Footnote *. municipal government. Footnote.",
            "fr": "\u00c9tape 3. Comment pr\u00e9senter une demande. Vous pouvez maintenant remplir, sauvegarder et soumettre votre formulaire PDF.Remarque\u00a0:Les formulaires \u00e0 remplir/sauvegarder ont fait l'objet d'un essai visant \u00e0 en d\u00e9terminer la compatibilit\u00e9 avec Adobe Reader 11 et des versions subs\u00e9quentes; il est possible qu\u2019ils ne fonctionnent pas avec d'autres lecteurs PDF ou sur des appareils mobiles.Pr\u00e9senter une demande en ligne. , ou une version plus r\u00e9cente."
        },
        "language": {
            "en": "eng",
            "fr": "fra"
        },
        "keywords": {
            "en": "agreements.Associations;above.Innovation",
            "fr": "souris et cliquez;appara\u00eetre \u00e0 l \u00e9cran"
        },
        "audience": {
            "en": "gcaudience",
            "fr": "gcaudience"
        },
        "type": {
            "en": "form",
            "fr": "avis"
        },
        "creator": {
            "en": "Agriculture and Agri-Food Canada;Government of Canada",
            "fr": "Agriculture et Agroalimentaire Canada;Gouvernement du Canada"
        },
        "spatial": {
            "en": "gcregions",
            "fr": "gcregions"
        },
        "service": {
            "en": "AAFC-AAC",
            "fr": "AAFC-AAC"
        },
        "accessRights": {
            "en": "2",
            "fr": "2"
        },
        "legalName": {
            "en": "agriculture_and_agri_food_canada",
            "fr": "agriculture_et_agroalimentaire_canada"
        },
        "areaServed": {
            "en": "Canada",
            "fr": "Canada"
        }
    },
    "h1": {
        "en": "AgriRisk Initiatives: Research and Development Contribution Funding Stream: Step 3. How to apply",
        "fr": "Initiatives Agri-risques - Volet de financement par contribution de recherche et d\u00e9veloppement : \u00c9tape 3. Comment pr\u00e9senter une demande"
    },
    "js": {
        "en": "",
        "fr": ""
    },
    "body": {
        "en": "\r\n    <div class=\"mrgn-tp-md mrgn-bttm-lg brdr-bttm\">\n\n<div class=\"row\">\n<ul class=\"toc lst-spcd col-md-12 list-unstyled\">\n<li class=\"col-md-4 col-sm-6\"><span class=\"list-group-item\">Step 1. <a href=\"?id=1522072838788\">What this program offers</a></span></li>\n\n<li class=\"col-md-4 col-sm-6\"><span class=\"list-group-item\">Step 2. <a href=\"?id=1522072944158\">Who is eligible</a></span></li>\n\n<li class=\"col-md-4 col-sm-6 clr-lft-sm\"><span class=\"list-group-item active\">Step 3. How to apply</span></li>\n\n<li class=\"col-md-4 col-sm-6\"><span class=\"list-group-item\">Step 4. <a href=\"?id=1522073135183\">After you apply</a></span></li>\n\n<li class=\"col-md-4 col-sm-6\"><span class=\"list-group-item\"><a href=\"?id=1522073181227\">Applicant guide</a></span></li>\n\n<li class=\"col-md-4 col-sm-6\"><span class=\"list-group-item\"><a href=\"?id=1522073268316\">Contact information</a></span></li>\n</ul>\n</div>\n</div>\n \n<h2>Step 3. How to Apply</h2>\n\n<p><b>Stage 1:</b> Complete a <a href=\"?id=1561471328463\">Project Summary form</a>; this will help to determine eligibility and alignment with program criteria and priorities, prior to you preparing a full application. This will also facilitate a discussion between you and program staff about your project.</p>\n\n<p><b>Stage 2:</b> Following the submission of a Project Summary, you may be asked to submit a full application.</p>\n\n<p>For information on how to complete a Project Summary, refer to <a href=\"?id=1522073181227#annexa\">Annex A: How to Apply</a>.</p>\n\n<p class=\"text-success\"><b>There are no delays expected.</b></p>\n\n<p class=\"text-success\"><b>Online applications should be processed within 100 business days.</b></p>\n\n<nav>\n  <h2 class=\"wb-inv\">Previous-next document navigation - bottom</h2>\n\n<div class=\"row\">\n<div class=\"col-md-12 mrgn-lft-0 mrgn-rght-0\">\n<ul class=\"pager\">\n<li class=\"previous\"><a href=\"?id=1522072944158\" rel=\"prev\" title=\"Who is eligible\">Previous</a></li>\n<li class=\"next\"><a href=\"?id=1522073135183\" rel=\"next\" title=\"After you apply\">Next</a></li>\n</ul>\n</div>\n</div>\n</nav>\n\r\n    ",
        "fr": "\r\n    <div class=\"mrgn-tp-md mrgn-bttm-lg brdr-bttm\">\n\n<div class=\"row\">\n<ul class=\"toc lst-spcd col-md-12 list-unstyled\">\n<li class=\"col-md-4 col-sm-6\"><span class=\"list-group-item\">\u00c9tape 1. <a href=\"?id=1522072838788\">Ce qu\u2019offre ce programme</a></span></li>\n\n<li class=\"col-md-4 col-sm-6\"><span class=\"list-group-item\">\u00c9tape 2. <a href=\"?id=1522072944158\">Qui est admissible</a></span></li>\n\n<li class=\"col-md-4 col-sm-6 clr-lft-sm\"><span class=\"list-group-item active\">\u00c9tape 3. Comment pr\u00e9senter une demande</span></li>\n\n<li class=\"col-md-4 col-sm-6\"><span class=\"list-group-item\">\u00c9tape 4. <a href=\"?id=1522073135183\">Apr\u00e8s avoir pr\u00e9sent\u00e9 votre demande</a></span></li>\n\n<li class=\"col-md-4 col-sm-6\"><span class=\"list-group-item\"><a href=\"?id=1522073181227\">Guide du demandeur</a></span></li>\n\n<li class=\"col-md-4 col-sm-6\"><span class=\"list-group-item\"><a href=\"?id=1522073268316\">Pour nous joindre</a></span></li>\n</ul>\n</div>\n</div>\n\n<h2>\u00c9tape 3. Comment pr\u00e9senter une demande</h2>\n\n<p><b>Phase 1\u00a0:</b> Remplissez le <a href=\"?id=1561471328463\">formulaire de r\u00e9sum\u00e9 de projet</a>, qui vous aidera avec la d\u00e9termination de l\u2019admissibilit\u00e9 et de la conformit\u00e9 aux crit\u00e8res et priorit\u00e9s du programme, avant de pr\u00e9parer une demande d\u00e9taill\u00e9e. Cela facilitera \u00e9galement la discussion entre vous et le personnel du programme \u00e0 propos de votre projet.</p>\n\n<p><b>Phase 2\u00a0:</b> Apr\u00e8s la soumission d\u2019un r\u00e9sum\u00e9 de projet, il se peut que l\u2019on vous demande de soumettre une demande compl\u00e8te.</p>\n\n<p>Pour savoir comment remplir un r\u00e9sum\u00e9 de projet, consultez l'<a href=\"?id=1522073181227#annexa\">Annexe A : Comment pr\u00e9senter une demande</a>.</p>\n\n<p class=\"text-success\"><b>Nous ne pr\u00e9voyons aucun retard.</b></p>\n\n<p class=\"text-success\"><b>Les demandes en ligne devraient \u00eatre trait\u00e9es dans les 100 jours ouvrables suivant leur r\u00e9ception.</b></p>\n\n<nav>\n  <h2 class=\"wb-inv\">Navigation du document - pr\u00e9c\u00e9dente-suivante - bas</h2>\n\n<div class=\"row\">\n<div class=\"col-md-12 mrgn-lft-0 mrgn-rght-0\">\n<ul class=\"pager\">\n<li class=\"previous\"><a href=\"?id=1522072944158\" rel=\"prev\" title=\"Qui est admissible\">Pr\u00e9c\u00e9dente</a></li>\n<li class=\"next\"><a href=\"?id=1522073135183\" rel=\"next\" title=\"Apr\u00e8s avoir pr\u00e9sent\u00e9 votre demande\">Suivante</a></li>\n</ul>\n</div>\n</div>\n</nav>\n\r\n    "
    }
}