{
    "dcr_id": "1558438794234",
    "title": {
        "en": "Youth Employment and Skills Program: Step 4. After you apply",
        "fr": "Programme d\u2019emploi et de comp\u00e9tences des jeunes : \u00c9tape 4. Apr\u00e8s avoir pr\u00e9sent\u00e9 votre demande de projet"
    },
    "modified": "2021-05-05",
    "issued": "2019-06-03",
    "templatetype": "content page 1 column",
    "page_type": "1",
    "node_id": "1559744022534",
    "dc_date_created": "2019-06-03",
    "managing_branch": "PAB",
    "parent_node_id": "1559561733224",
    "short_title": "Step 4. After you apply",
    "exturl": "",
    "teamsite_location": {
        "en": "/default/main/AAFC-AAC/Internet-Internet/Group-Ensemble/ProgServ-ProgServ/WORKAREA/ProgServ-ProgServ/templatedata/comm-comm/gene-gene/data/05/yesp-pecj_4_1558438794234_en",
        "fr": "/default/main/AAFC-AAC/Internet-Internet/Group-Ensemble/ProgServ-ProgServ/WORKAREA/ProgServ-ProgServ/templatedata/comm-comm/gene-gene/data/05/yesp-pecj_4_1558438794234_fr"
    },
    "type_name": "sitemapinit",
    "has_dcr_id": true,
    "label": {
        "en": "Step 4. After you apply",
        "fr": "\u00c9tape 4. Apr\u00e8s avoir pr\u00e9sent\u00e9 votre demande de projet"
    },
    "breadcrumb": {
        "en": "Step 4. After you apply",
        "fr": "\u00c9tape 4. Apr\u00e8s avoir pr\u00e9sent\u00e9 votre demande de projet"
    },
    "layout_name": "content page 1 column",
    "lang": "en",
    "refaire": false,
    "meta": {
        "viewport": {
            "en": "width=device-width,initial-scale=1",
            "fr": "width=device-width, initial-scale=1"
        },
        "issued": {
            "en": "2019-06-03",
            "fr": "2019-06-03"
        },
        "modified": {
            "en": "2021-05-05",
            "fr": "2021-05-05"
        },
        "format": {
            "en": "text/html",
            "fr": "text/html"
        },
        "title": {
            "en": "Youth Employment and Skills Program: Step 4. After you apply",
            "fr": "Programme d\u2019emploi et de comp\u00e9tences des jeunes : \u00c9tape 4. Apr\u00e8s avoir pr\u00e9sent\u00e9 votre demande de projet"
        },
        "subject": {
            "en": "technology transfer;architectural heritage;soil assessement",
            "fr": "Gestion des risques de l'entreprise;industrie de miel;revenus agricoles"
        },
        "dcterms:subject": {
            "en": "architectural heritage;architecture;agricultural assistance",
            "fr": "engrais;g\u00e9n\u00e9tique;commerce ext\u00e9rieur"
        },
        "description": {
            "en": "Applicant Guide. Step 1.What this program offers. Program Objective. CASPP\u2019s objective is to facilitate the Canadian agricultural sector\u2019s ability to seize opportunities, to respond to new and emerging issues, and to pathfind and pilot solutions to new and ongoing issues in order to remain competitive. This is partly driven by changing tastes (market demands), new market opportunities, and a changing regulatory environment.",
            "fr": "\u00c9tape 4. Apr\u00e8s avoir pr\u00e9sent\u00e9 votre demande. Les demandes en ligne devraient \u00eatre trait\u00e9es dans les 50 jours ouvrables.Nous pourrions communiquer avec vous pour obtenir des renseignements suppl\u00e9mentaires apr\u00e8s avoir re\u00e7u votre demande. Il doit aussi participer \u00e0 l'\u00e9valuation du programme."
        },
        "language": {
            "en": "eng",
            "fr": "fra"
        },
        "keywords": {
            "en": "good.Preference;form.Contents",
            "fr": "ouvrables.Nous pourrions"
        },
        "audience": {
            "en": "gcaudience",
            "fr": "gcaudience"
        },
        "type": {
            "en": "article",
            "fr": "avis"
        },
        "creator": {
            "en": "Agriculture and Agri-Food Canada;Government of Canada",
            "fr": "Agriculture et Agroalimentaire Canada;Gouvernement du Canada"
        },
        "spatial": {
            "en": "gcregions",
            "fr": "gcregions"
        },
        "service": {
            "en": "AAFC-AAC",
            "fr": "AAFC-AAC"
        },
        "accessRights": {
            "en": "2",
            "fr": "2"
        },
        "legalName": {
            "en": "agriculture_and_agri_food_canada",
            "fr": "agriculture_et_agroalimentaire_canada"
        },
        "areaServed": {
            "en": "Canada",
            "fr": "Canada"
        }
    },
    "h1": {
        "en": "Youth Employment and Skills Program: Step 4. After you apply",
        "fr": "Programme d\u2019emploi et de comp\u00e9tences des jeunes : \u00c9tape 4. Apr\u00e8s avoir pr\u00e9sent\u00e9 votre demande de projet"
    },
    "js": {
        "en": "",
        "fr": ""
    },
    "body": {
        "en": "\r\n     <div class=\"mrgn-tp-md mrgn-bttm-lg brdr-bttm\">\n\n<div class=\"row\">\n<ul class=\"toc lst-spcd col-md-12 list-unstyled\">\n<li class=\"col-md-4 col-sm-6\"><span class=\"list-group-item\">Step 1. <a href=\"?id=1557778999519\">What this program offers</a></span></li>\n\n<li class=\"col-md-4 col-sm-6\"><span class=\"list-group-item\">Step 2. <a href=\"?id=1558438580513\">Who is eligible</a></span></li>\n\n<li class=\"col-md-4 col-sm-6 clr-lft-sm\"><span class=\"list-group-item\">Step 3. <a href=\"?id=1558438660663\">How to apply</a></span></li>\n\n<li class=\"col-md-4 col-sm-6\"><span class=\"list-group-item active\">Step 4. After you apply</span></li>\n\n<li class=\"col-md-4 col-sm-6\"><span class=\"list-group-item\"><a href=\"?id=1558438957602\">Applicant guide</a></span></li>\n\n<li class=\"col-md-4 col-sm-6\"><span class=\"list-group-item\"><a href=\"?id=1558439096634\">Contact information</a></span></li>\n</ul>\n</div>\n</div>\n\n<h2>Step 4. After you apply</h2>\n<h3>1. Your application will be assessed</h3>\n<p>Agriculture and Agri-Food Canada (AAFC) will:</p>\n<ol>\n <li>review and assess your application against the parameters and criteria of the program</li>\n <li>contact you for additional information if needed</li>\n <li>notify you in writing of final approval or rejection within 50 business days</li>\n</ol>\n<h3>2. AAFC will send you a Contribution Agreement</h3>\n<p>Successful applicants are required to enter into a Contribution Agreement (CA) with AAFC. The CA outlines the amount of funding that will be provided, as well as the applicants/recipients responsibilities and obligations.</p>\n<h3>3. AAFC will send you a payment </h3>\n<p>Successful applicants who have entered into a CA with AAFC will be sent a payment within 30 business days of receipt of a duly completed and documented claim. </p>\n<h4>Payments to recipients</h4>\n<p>AAFC will make payments based on claims submitted for eligible costs incurred and paid by the recipient in accordance with the terms and conditions of the CA. Each claim must be supported by a completed claim form certified by an authorize official of the Recipient. Recipient may also be required to submit documents that support the details of the costs being claimed, such as pay log or paid receipts.</p>\n\n <p>For <strong>projects of less than eight months</strong>, AAFC will issue 100% of funds at the end of the internship, upon receipt of the final report, Financial Claim Form and proof of salary and other expenses paid if requested.</p>\n\n<p>For <strong>projects of 8 to 12 months</strong>, AAFC will issue 50% of funds after the first half of the internship, only upon receipt of the Financial Claim Form (and proof of salary payment to the candidate and paid receipts if requested). The payment of the last 50% is made at the end of the internship, upon receipt of the final reports, the Financial Claim Form (and proof of salary payment to the candidate and paid receipts if requested).</p>\n\n<p> Applicants may require interns to relocate within Canada.\u00a0 Reasonable travel and accommodation expenses are an eligible expense to a maximum of $5,000. The employer is responsible to reimburse the employee for any expense claimed. All expenses claimed by the applicant must involve a cash outlay of funds. \u00a0</p>\n<p> Youth Employment and Skills Program funds may be allocated for salaries and social benefits. Social benefits that the employer already pays to their employees are eligible expenses, that is cell phone, travel, vacation pay, etc. </p>\n<p> If the intern is a youth facing barriers, the applicant is eligible to claim expenses related to the intern to help support and employ them. These expenses could include critical transportation, assistance with dependents, accommodation needs, accessibility equipment/technology etc. All expenses claimed by the applicant must involve a cash outlay of funds. The employer is responsible for paying the employee.</p>\n<h3>4. Employer reporting requirements</h3>\n<p>The employer is responsible for completing and submitting to AAFC the required documents and evaluation reports at the mid-point and/or at the end of the project.</p>\n<h4 id=\"ef\">Evaluation and participant information forms</h4>\n\n<nav>\n<ul>\n <li><a href=\"?id=1558556239593\">Participant Information Form</a></li>\n <li><a href=\"?id=1558555557202\">Final Report of the Employer Form</a></li>\n <li><a href=\"?id=1558554728042\">Employee's Assessment Report on the Project Form</a></li>\n <li><a href=\"?id=1558553519035\">Financial Claim Form</a></li>\n <li><a href=\"?id=1559130007703\">Financial Claim Form - 80% Reimbursement</a></li>\n</ul>\n</nav>\n\n <nav>\n <h2 class=\"wb-inv\">Previous-next document navigation - bottom</h2>\n<div class=\"row\">\n<div class=\"col-md-12 mrgn-lft-0 mrgn-rght-0\">\n<ul class=\"pager\">\n\t<li class=\"previous\"><a href=\"?id=1558438660663\" rel=\"prev\" title=\"Step 3. How to apply\">Previous</a></li>\n<li class=\"next\"><a href=\"?id=1558438957602\" rel=\"next\" title=\"Applicant guide\">Next</a></li>\n</ul>\n</div>\n</div>\n</nav>\n\n\r\n    ",
        "fr": "\r\n    <div class=\"mrgn-tp-md mrgn-bttm-lg brdr-bttm\">\n\n<div class=\"row\">\n<ul class=\"toc lst-spcd col-md-12 list-unstyled\">\n<li class=\"col-md-4 col-sm-6\"><span class=\"list-group-item\">\u00c9tape 1. <a href=\"?id=1557778999519\"> Ce qu'offre ce programme</a></span></li>\n\n<li class=\"col-md-4 col-sm-6\"><span class=\"list-group-item\">\u00c9tape 2. <a href=\"?id=1558438580513\">Qui est admissible</a></span></li>\n\n<li class=\"col-md-4 col-sm-6 clr-lft-sm\"><span class=\"list-group-item\">\u00c9tape 3. <a href=\"?id=1558438660663\">Comment pr\u00e9senter une demande</a></span></li>\n\n<li class=\"col-md-4 col-sm-6\"><span class=\"list-group-item active\">\u00c9tape 4. Apr\u00e8s avoir pr\u00e9sent\u00e9 votre demande de projet</span></li>\n\n<li class=\"col-md-4 col-sm-6\"><span class=\"list-group-item\"><a href=\"?id=1558438957602\">Guide du demandeur</a></span></li>\n\n<li class=\"col-md-4 col-sm-6\"><span class=\"list-group-item\"><a href=\"?id=1558439096634\">Pour nous joindre</a></span></li>\n</ul>\n</div>\n</div>\n\n<h2>\u00c9tape 4. Apr\u00e8s avoir pr\u00e9sent\u00e9 votre demande de projet</h2>\n<h3>1. \u00c9valuation de votre projet</h3>\n<p>Agriculture et Agroalimentaire Canada (AAC)\u00a0:</p>\n<ol>\n <li>examinera et \u00e9valuera votre demande en fonction des crit\u00e8res et des param\u00e8tres du programme;\n </li><li>vous contactera, au besoin, pour obtenir des informations suppl\u00e9mentaires;\n </li><li>vous avisera par \u00e9crit de l\u2019approbation d\u00e9finitive ou le rejet de votre demande dans un d\u00e9lai de 50 jours ouvrables. </li>\n</ol>\n\n<h3>2. AAC vous enverra une entente de contribution</h3>\n\n<p>Les demandeurs retenus devront conclure une entente de contribution avec Agriculture et Agroalimentaire Canada (AAC). L'entente de contribution indique le montant du financement qui sera offert, ainsi que les responsabilit\u00e9s et les obligations des demandeurs ou des b\u00e9n\u00e9ficiaires.</p>\n\n<h3>3. AAC vous enverra un remboursement</h3>\n\n<p>Les demandeurs qui ont conclu une entente de contribution avec AAC recevront un remboursement dans un d\u00e9lai de 30 jours suivant la r\u00e9ception d\u2019une demande de remboursement d\u00fbment compl\u00e9t\u00e9e et des documents requis. </p>\n\n<h4>Versements aux b\u00e9n\u00e9ficiaires</h4>\n\n<p>AAC effectuera les paiements  selon les demandes de remboursement de co\u00fbts admissibles engag\u00e9s et pay\u00e9s par  le b\u00e9n\u00e9ficiaire conform\u00e9ment aux conditions de l'entente de contribution. </p>\n\n<p>Chaque r\u00e9clamation doit \u00eatre appuy\u00e9e par un formulaire de Demande de paiement d\u00fbment rempli et certifi\u00e9 par un repr\u00e9sentant autoris\u00e9 du b\u00e9n\u00e9ficiaire. Le b\u00e9n\u00e9ficiaire peut \u00e9galement \u00eatre tenu de soumettre des documents \u00e0 l'appui des d\u00e9tails des co\u00fbts r\u00e9clam\u00e9s, tels que les talons de paie ou journal de paie.</p>\n\n<p>Pour les <strong>projets dont la dur\u00e9e est inf\u00e9rieure \u00e0 huit mois</strong>, AAC d\u00e9boursera 100\u00a0% des fonds \u00e0 la fin du  stage, d\u00e8s r\u00e9ception du rapport final, du formulaire de Demande de paiement et une preuve de paiement de la r\u00e9mun\u00e9ration et autres d\u00e9penses pay\u00e9es sur demande.</p>\n\n<p>Pour les <strong>projets dont la dur\u00e9e  est de huit \u00e0 douze mois</strong>, AAC d\u00e9boursera 50\u00a0% des fonds, apr\u00e8s la premi\u00e8re  moiti\u00e9 du stage, mais seulement apr\u00e8s r\u00e9ception du formulaire de Demande de paiement (et de la preuve de paiement de la r\u00e9mun\u00e9ration au stagiaire sur demande). Le paiement des 50\u00a0% restants est effectu\u00e9 \u00e0 la fin du stage, lors de la r\u00e9ception du rapport final, du formulaire de Demande de paiement (et de la preuve de paiement de la r\u00e9mun\u00e9ration au stagiaire sur demande).</p>\n\n \n\n<p>Les fonds du Programme d\u2019emploi  et de comp\u00e9tences des jeunes ne peuvent servir qu'\u00e0 couvrir la r\u00e9mun\u00e9ration des  employ\u00e9s et leurs avantages sociaux. Les avantages sociaux que l'employeur  verse d\u00e9j\u00e0 \u00e0 leurs employ\u00e9s sont des d\u00e9penses admissibles, par exemple le  t\u00e9l\u00e9phone cellulaire, les frais de voyage, l\u2019indemnit\u00e9 de vacances, etc. </p>\n\n<p>Un financement suppl\u00e9mentaire de 5\u00a0000\u00a0$ est disponible pour compenser les co\u00fbts de relogement des employ\u00e9s <b>ou</b> pour compenser les co\u00fbts des obstacles \u00e0 l\u2019emploi. Ces co\u00fbts suppl\u00e9mentaires seront rembours\u00e9s \u00e0 100\u00a0%. Une preuve de paiement doit \u00eatre fournie pour toutes les d\u00e9penses r\u00e9clam\u00e9es par l\u2019employeur et il incombe \u00e0 l\u2019employeur de payer l\u2019employ\u00e9. Les co\u00fbts des obstacles peuvent comprendre le transport essentiel, l\u2019aide aux personnes \u00e0 charge, les besoins d\u2019adaptation, l\u2019\u00e9quipement/la technologie d\u2019accessibilit\u00e9, etc. Les co\u00fbts de relogement peuvent comprendre les frais raisonnables de transport et d\u2019h\u00e9bergement.</p>\n\n<h3>4. Exigences en mati\u00e8re de rapports pour l\u2019employeur</h3>\n\n<p>Il incombe \u00e0 l'employeur de remplir les documents et les rapports d'\u00e9valuation requis et de les transmettre \u00e0 AAC au milieu et \u00e0 la fin du projet.</p>\n<h4 id=\"fp\">Les formulaires d'\u00e9valuation et d'information sur le participant</h4>\n\n<nav>\n<ul>\n\t<li><a href=\"?id=1558556239593\">Formulaire d'information sur le participant</a></li>\n\t<li><a href=\"?id=1558555557202\">Rapport final de l'employeur</a></li>\n\t<li><a href=\"?id=1558554728042\">Rapport d'\u00e9valuation de l'employ\u00e9 sur le projet</a></li>\n\t<li><a href=\"?id=1558553519035\">Demande de paiement</a></li>\n\t<li><a href=\"?id=1559130007703\">Demande de paiement - Remboursement de 80\u00a0%</a></li>\n</ul>\n</nav>\n\n<nav>\n <h2 class=\"wb-inv\">Navigation du document - pr\u00e9c\u00e9dente-suivante - bas</h2>\n<div class=\"row\">\n<div class=\"col-md-12 mrgn-lft-0 mrgn-rght-0\">\n<ul class=\"pager\">\n\t<li class=\"previous\"><a href=\"?id=1558438660663\" rel=\"prev\" title=\"\u00c9tape 3. Comment pr\u00e9senter une demande\">Pr\u00e9c\u00e9dente</a></li>\n<li class=\"next\"><a href=\"?id=1558438957602\" rel=\"next\" title=\"Guide du demandeur\">Suivante</a></li>\n</ul>\n</div>\n</div>\n</nav>\n\n\r\n    "
    }
}