{
    "dcr_id": "1563476002321",
    "title": {
        "en": "Local Food Infrastructure Fund: Applicant guide",
        "fr": "Fonds des infrastructures alimentaires locales : Guide du demandeur"
    },
    "modified": "2021-02-13",
    "issued": "2019-08-15",
    "templatetype": "content page 1 column",
    "page_type": "1",
    "node_id": "1565715849603",
    "dc_date_created": "2019-08-15",
    "managing_branch": "PAB",
    "parent_node_id": "1565713292962",
    "short_title": "Applicant guide",
    "exturl": "",
    "teamsite_location": {
        "en": "/default/main/AAFC-AAC/Internet-Internet/Group-Ensemble/ProgServ-ProgServ/WORKAREA/ProgServ-ProgServ/templatedata/comm-comm/gene-gene/data/07/lfif_stream1_5_1563476002321_en",
        "fr": "/default/main/AAFC-AAC/Internet-Internet/Group-Ensemble/ProgServ-ProgServ/WORKAREA/ProgServ-ProgServ/templatedata/comm-comm/gene-gene/data/07/lfif_stream1_5_1563476002321_fr"
    },
    "type_name": "sitemapinit",
    "has_dcr_id": true,
    "label": {
        "en": "Applicant guide",
        "fr": "Guide du demandeur"
    },
    "breadcrumb": {
        "en": "Applicant guide",
        "fr": "Guide du demandeur"
    },
    "layout_name": "content page 1 column",
    "lang": "en",
    "refaire": false,
    "meta": {
        "viewport": {
            "en": "width=device-width,initial-scale=1",
            "fr": "width=device-width, initial-scale=1"
        },
        "issued": {
            "en": "2019-08-15",
            "fr": "2019-08-15"
        },
        "modified": {
            "en": "2021-02-13",
            "fr": "2021-02-13"
        },
        "format": {
            "en": "text/html",
            "fr": "text/html"
        },
        "title": {
            "en": "Local Food Infrastructure Fund: Applicant guide",
            "fr": "Fonds des infrastructures alimentaires locales : Guide du demandeur"
        },
        "subject": {
            "en": "programs;food and nutrition;community development",
            "fr": "programmes;d\u00e9veloppement communautaire;aliments et nutrition"
        },
        "dcterms:subject": {
            "en": "programs;nutrition;federal programs;community development;food",
            "fr": "programme f\u00e9d\u00e9ral;programme;d\u00e9veloppement communautaire;alimentation"
        },
        "description": {
            "en": "The Local Food Infrastructure Fund, Infrastructure and Equipment Improvement Projects aims to enable small community-based organizations to improve their infrastructure and purchase equipment that is directly related to the accessibility of healthy, nutritious, and ideally, local foods within their community.",
            "fr": "Guide du demandeur. \u00c9tape 1.Ce qu\u2019offre ce programme. 1.0 Partenariat canadien pour l\u2019agriculture. groupes autochtones.Autre\u00a0:Si aucun des choix pr\u00e9c\u00e9dents ne s\u2019applique, s\u00e9lectionnez \u00ab\u00a0Autre\u00a0\u00bb et pr\u00e9cisez votre type d\u2019organisation.Remarque\u00a0:Pour \u00eatre admissible, un demandeur doit \u00eatre une entit\u00e9 juridique habilit\u00e9e \u00e0 conclure des accords juridiquement contraignants.Les\u00a0PME doivent exercer leurs activit\u00e9s dans les secteurs de l\u2019agriculture, de l\u2019agroalimentaire et des produits agro\u2011industriels y compris le secteur du poisson et des fruits de mer."
        },
        "language": {
            "en": "eng",
            "fr": "fra"
        },
        "keywords": {
            "en": " Food availability; Food accessibility; Fresh food; Nutritious food; Healthy food; Local food; Food equipment; Food infrastructure; Food security; Food services; Community initiative; Food initiative; Food program;Food policy",
            "fr": null
        },
        "audience": {
            "en": "gcaudience",
            "fr": "gcaudience"
        },
        "type": {
            "en": "program-service description",
            "fr": "description du programme ou du service"
        },
        "creator": {
            "en": "Agriculture and Agri-Food Canada;Government of Canada",
            "fr": "Agriculture et Agroalimentaire Canada;Gouvernement du Canada"
        },
        "spatial": {
            "en": "gcregions",
            "fr": "gcregions"
        },
        "service": {
            "en": "AAFC-AAC",
            "fr": "AAFC-AAC"
        },
        "accessRights": {
            "en": "2",
            "fr": "2"
        },
        "legalName": {
            "en": "agriculture_and_agri_food_canada",
            "fr": "agriculture_et_agroalimentaire_canada"
        },
        "areaServed": {
            "en": "Canada",
            "fr": "Canada"
        }
    },
    "h1": {
        "en": "Local Food Infrastructure Fund: Applicant guide",
        "fr": "Fonds des infrastructures alimentaires locales : Guide du demandeur"
    },
    "js": {
        "en": "",
        "fr": ""
    },
    "body": {
        "en": "\r\n    <div class=\"mrgn-tp-md mrgn-bttm-lg brdr-bttm\">\n\n<div class=\"row\">\n<ul class=\"toc lst-spcd col-md-12 list-unstyled\">\n<li class=\"col-md-4 col-sm-6\"><span class=\"list-group-item\">Step 1. <a href=\"?id=1560701480448\">What this program offers</a></span></li>\n\n<li class=\"col-md-4 col-sm-6\"><span class=\"list-group-item\">Step 2. <a href=\"?id=1563475924908\">Who is eligible</a></span></li>\n\n<li class=\"col-md-4 col-sm-6 clr-lft-sm\"><span class=\"list-group-item\">Step 3. <a href=\"?id=1563475954611\">How to apply</a></span></li>\n\n<li class=\"col-md-4 col-sm-6\"><span class=\"list-group-item\">Step 4. <a href=\"?id=1563475978180\">After you apply</a></span></li>\n\n<li class=\"col-md-4 col-sm-6\"><span class=\"list-group-item active\">Applicant guide</span></li>\n\n<li class=\"col-md-4 col-sm-6\"><span class=\"list-group-item\"><a href=\"?id=1563476024898\">Contact information</a></span></li>\n</ul>\n</div>\n</div>\n\n<h2>Applicant guide</h2>\n\n<div class=\"alert alert-info\">\n   <p>Due to the very high volume of applications received in the second phase of the Local Food Infrastructure Fund, the application intake has now been temporarily closed. Future updates on the program will be provided here.</p>\n</div>\n\n<p>Purpose of this Guide</p>\n\n<p>This guide will:</p>\n\n<ol class=\"lst-spcd\">\n\t<li>help you determine if you may be eligible for funding from Agriculture and Agri-Food Canada (AAFC) under the Local Food Infrastructure Fund.</li>\n\t<li>provide you with directions and explanations to assist you in completing an application for the program.</li>\n</ol>\n\n<nav>\n<h3>Table of contents</h3>\n\n<ul class=\"list-unstyled mrgn-lft-lg\">\n\t<li>1.0 <a href=\"#toc1.0\">About the Local Food Infrastructure Fund</a>\n\t\t<ul class=\"list-unstyled mrgn-lft-lg\">\n\t\t\t<li>1.1 <a href=\"#toc1.1\">Eligible applicants</a></li>\n\t\t\t<li>1.2 <a href=\"#toc1.2\">Eligible projects</a></li>\n\t\t\t<li>1.3 <a href=\"#toc1.3\">Eligible costs</a></li>\n\t\t\t<li>1.4 <a href=\"#toc1.4\">Funding and cost sharing</a></li>\n\t\t</ul></li>\n\t<li>2.0 <a href=\"#toc2.0\">Expected Results</a></li>\n\t<li>3.0 <a href=\"#toc3.0\">Assessment process</a></li>\n\t<li>4.0 <a href=\"#toc4.0\">Reporting on your project</a></li>\n\t<li>5.0 <a href=\"#toc5.0\">M-30 Act (for Quebec)</a></li>\n\t<li>6.0 <a href=\"#toc6.0\">How to apply</a></li>\n\t<li>7.0 <a href=\"#toc7.0\">After you apply</a></li>\n\t<li>8.0 <a href=\"#toc8.0\">Contact information</a></li>\n\t<li><a href=\"?id=1563476043606\">Annex A: How to complete the application form</a></li>\n</ul>\t\n</nav>\t\n\t\n<h3 id=\"toc1.0\">1.0\tAbout the Local Food Infrastructure Fund</h3>\n\n<p>The Local Food Infrastructure Fund (LFIF) is a five-year, $50 million initiative ending March 31, 2024. The program is part of the Government of Canada's Food Policy which is Canada's roadmap for a healthier and more sustainable food system in Canada. The LFIF objective is to strengthen food systems and to facilitate access to safe and nutritious food for at-risk populations.</p>\n\n<p>The LFIF is aimed at community-based, not-for-profit organizations with a mission to reduce food insecurity by establishing and/or strengthening their local food system. Its objectives are to:</p>\n\n<ul>\n\t<li>improve access to safe, healthy and culturally-diverse food while promoting community development</li>\n\t<li>support local economies</li>\n\t<li>improve health outcomes for Canadians most at-risk</li>\n\t<li>promote environmentally sustainable food systems</li>\n</ul>\n\n<p>The fund supports community-based, not-for-profit organizations to improve their food systems through investments in infrastructure that are directly related to addressing food insecurities and increasing the accessibility of healthy, nutritious, and ideally, local foods within their community. Food systems, including the way food is produced, processed, distributed, consumed, and disposed of, have direct impacts on the lives of Canadians. The social, health, environmental, and economic components of food systems are interdependent and are integral to the wellbeing of communities.</p>\n\n<p>The fund is designed to foster increased connections within food systems by enabling organizations to partner with communities, the private sector, academia and other organizations to collectively strengthen local food systems and address food insecurity in a sustainable manner. Through these connections, community partnerships will be able to foster integrated food system solutions that enhance the social, health, environmental, and economic benefits in a particular area.</p>\n\n<h4 id=\"toc1.1\">1.1 Eligible applicants</h4>\n\n<p>Eligible applicants are not-for-profit organizations that have been in operation for at least two years as a legal entity capable of entering into a legally-binding agreement. Furthermore, applicants must be able to demonstrate the ability to maintain the proposed operations beyond the funding period.</p>\n\n<p>Eligible applicants consist of:</p>\n\n<ul>\n\t<li>community or charitable organizations</li>\n\t<li>Indigenous groups</li>\n\t<li>not-for-profit co-operatives</li>\n</ul>\n\n<p>Although schools and school boards may apply under this program, they are encouraged to work with not-for-profit organizations to improve access to nutritious foods in schools.</p>\n\n<p>As well, municipalities may apply only if there are no not-for-profit organization in the community currently working in this capacity.</p>\n\n<p>For open markets, they must be non-profit and provide a service to populations at-risk and where no profit is generated in relation to the project.</p>\n\n<h4 id=\"toc1.2\">1.2 Eligible projects</h4>\n\n<p>Projects should be mostly infrastructure specific, community-driven and dedicated to improving access to safe and healthy foods for Canadians at risk of food insecurity. The risk factors and prevalence of food insecurity vary from community to community and can impact Canadians in both rural and urban environments through a lack of access to affordable and nutritious food choices.</p>\n\n<p>For the purpose of this fund, Canadians at risk of food insecurities are part of one of the following groups:</p>\n\n<ul>\n\t<li>Indigenous</li>\n\t<li>Persons who are homeless or street-involved</li>\n\t<li>Low income households</li>\n\t<li>Isolated and rural communities</li>\n\t<li>Persons with disabilities</li>\n\t<li>Other groups with social or employment barriers including literacy and numeracy</li>\n\t<li>Newcomers to Canada (including refugees)</li>\n\t<li>Visible minorities</li>\n\t<li>Women</li>\n\t<li>Youth</li>\n\t<li>Seniors</li>\n\t<li>LGBTQ2 community</li>\n\t<li>Official language minority communities</li>\n\t<li>Other (please specify)</li>\n</ul>\n\t\t\t\t\t\t\t\n<p>Eligible projects can range from simpler infrastructure requests such as purchasing a refrigerator for a food bank to more complex requests that strengthen local food systems, such as projects that integrate multiple areas of the value chain through the creation of partnerships. The applicant must demonstrate how their project will be integrated into and strengthen the local food system and how it will impact the well-being of community members.</p>\n\n<p>Priority will be given to projects that add to or build on local food systems that establish rich partnerships, that are sustainable, and that use a holistic approach to addressing food insecurity. Projects may include a teaching component that requires the purchase of infrastructure and complements the organization's current service; for example instruction on food preparation skills at a community kitchen or tools for teaching how to grow fresh fruits and vegetables.</p>\n\n<p>Eligible activities include, but are not limited to:</p>\n\n<ul>\n\t<li>capital assets and equipment for the collective production of food such as community kitchens, community gardens, and urban farms</li>\n\t<li>equipment needed for the preparation, refrigeration, distribution and storage of food</li>\n\t<li>vehicles and transport equipment such as refrigerated trucks and trailers</li>\n\t<li>technology systems including digital, production and/or distribution platforms</li>\n\t<li>energy systems such as greenhouses and solar panels</li>\n\t<li>water infrastructure including irrigation systems and rainwater capture</li>\n\t<li>modernizing facilities to accommodate new production and processing approaches</li>\n\t<li>exploring, testing and developing innovative solutions, best practices, and tools</li>\n\t<li>developing infrastructure to support learning opportunities that benefit local producers and consumers</li>\n</ul>\n\n<p>No profits should be derived from the projects undertaken through this fund and all benefits should return to the targeted community(ies). Infrastructure should not be used for the commercial production or processing of food.</p>\n\n<h4 id=\"toc1.3\">1.3 Eligible costs</h4>\n\n<p>Following are the eligible and ineligible costs under this program and any limitations or instructions you need to know to help you complete your budget.</p>\n\n<h5>Capital Assets</h5>\n\n<p><b>Eligible Cost Items</b></p>\n\n<ul>\n\t<li>The Purchase of new or used equipment</li>\n\t<li>Alteration or modernization of an asset that appreciably prolongs the period of usefulness of the item, or improves its functionality</li>\n</ul>\n\n<p>Examples of capital assets specific to this program:</p>\n\n<ul>\n\t<li>Refrigerators/freezers</li>\n\t<li>Refrigerated trucks</li>\n\t<li>Community kitchens</li>\n\t<li>Food processing equipment</li>\n\t<li>Cold storage/shelving/forklift</li>\n\t<li>Solar panels/generators/fuel storage</li>\n\t<li>Community gardens</li>\n\t<li>Urban farms</li>\n\t<li>Green infrastructure, such as trees and plants for food forests</li>\n\t<li>Irrigation systems/rain water capture</li>\n\t<li>Digital systems production and/or distribution platforms</li>\n</ul>\n\n<p><b>Ineligible costs and Limitations</b></p>\t\n\n<ul class=\"lst-spcd\">\n\t<li>Ineligible costs\n\t\t<ul>\n\t\t\t<li>The purchase of land or buildings</li>\n\t\t\t<li>The purchase or lease of private/personal vehicles</li>\n\t\t</ul>\n\t</li>\n\t<li>Limitations\n\t\t<ul>\n\t\t\t<li>Capital expenditures must be essential for the execution of the proposed project and their ownership must be maintained for a minimum of two years after the completion of the project</li>\n\t\t</ul>\n\t</li>\n</ul>\n\n<h5>Other Direct Project Costs</h5>\n\n<p><b>Eligible Cost Items</b></p>\n\n<ul>\n\t<li>Project costs associated with the completion of the project such as:<ul><li>Installation costs</li><li>Freight charges</li><li>Transportation costs</li><li>Personal protective equipment</li><li>Storage bins or shelves</li><li>Duties</li><li>The non-refundable portion of provincial sales taxes, GST/HST or other value-added taxes</li></ul></li>\n\t<li>Contractors if used, must be engaged through a fair, competitive and transparent process or otherwise justifiable process for a finite timeframe to perform specific services related to the project</li>\n\t<li>Labour costs may be considered for incremental (additional) staff for a specific period of time and solely required for the implementation of the project</li>\n</ul>\n\n<p><b>Ineligible costs</b></p>\n\n<ul>\n\t<li>The purchase of perishable and/or non-perishable food</li>\n\t<li>Structural renovations not specific to the project</li>\n\t<li>Normal costs of establishing a commercial operation</li>\n\t<li>Labour costs associated with the ongoing operations/current staff</li>\n\t<li>Costs related to marketing activities and business promotion</li>\n\t<li>Costs for activities intended to directly influence/lobby governments</li>\n\t<li>Hospitality costs</li>\n\t<li>Travel costs</li>\n\t<li>Costs to prepare the application and negotiate the agreement</li>\n\t<li>Other costs not specifically required for the project</li>\n</ul>\n\n<p><b>Administrative costs</b></p> \n\n<p>For large-scale project funding requests over $50,000, administration costs will be calculated at a rate of 10% of the total eligible costs of the project and will be cost-shared with the Recipient. However, capital items worth $100,000 or more are not eligible for the 10% administration rate and will not be included in the calculations.</p>\n\n<p>The administrative rate will cover the:</p>\n\n<ul>\n\t<li>costs of project management salaries or services</li>\n\t<li>use of office accommodations</li>\n\t<li>office materials</li>\n\t<li>use of office equipment</li>\n\t<li>audit fees related to the organization</li>\n\t<li>bank fees</li>\n\t<li>insurance</li>\n\t<li>membership fees</li>\n\t<li>legal fees</li>\n</ul>\n\n<p>Note: Administrative costs described in this section cannot be claimed separately under the program because they are covered by the 10% administrative flat rate.</p>\n\n<p>Costs may be retroactively covered to the date your application was received and deemed complete by the program. Incurring costs before a project decision and until an agreement is fully executed between AAFC and your organization is a risk as these costs may be deemed ineligible under the agreement.</p>\n\n<h4 id=\"toc1.4\">1.4 Funding and cost sharing</h4>\n\n<h5>Funding</h5>\n\n<p>Applicants under this program will be eligible to receive a minimum of $5,000 and up to $250,000 in non-repayable funding as follows.</p>\n\n<ol class=\"lst-spcd\">\n\t<li><b>Grant funding</b> for projects requesting funding up to and including $50,000; (no administration costs will be paid)</li>\n\t<li><b>Non-repayable contribution funding</b> for projects requesting funding above $50,000 and up to $250,000.</li>\n</ol>\n\n<p>Successful applicants are required to enter into a legal agreement with AAFC. </p>\n\n<div class=\"well\">\n<dl class=\"dl-horizontal\">\n<dt>grant</dt>\n<dd>a transfer payment subject to pre-established eligibility and other entitlement criteria. The recipient may be required to report on results achieved.</dd>\n\n<dt>contribution</dt>\n<dd>a transfer payment subject to performance conditions specified in a funding agreement. A contribution is to be accounted for and is subject to audit.</dd>\n\n<div class=\"mrgn-lft-lg\">\n<dt>cash contribution</dt>\n<dd>an expense requiring a cash outlay, by either your organization or by a participant/contributor (such as a partner or other government), during the term of the project. A cash contribution made by another project participant should be reported as part of your sources of funding, and must be contributing to an eligible project cost.</dd>\n\n<dt>in-kind contribution</dt>\n<dd>the fair market value of goods contributed to the project, which required no outlay of cash (for example use of previously-owned equipment, goods received as donation, etc.).</dd>\n</div>\n</dl>\n</div>\n\n<h5>Cost Sharing</h5>\n\n<p>Eligible project costs will normally be shared between AAFC and the applicant as well as partners who strongly support the project. Priority will be given to projects that are highly supported by other financial contributors, have built partnerships with other sections of the food supply chain and/or demonstrate community engagement, high impact and an ability to mobilize multiple resources.</p>\n\n<p>Other funding sources can be from the:</p>\n\n<ul>\n\t<li>applicant</li>\n\t<li>industry\n\t\t<ul>\n\t\t\t<li>industry associations and networks</li>\n\t\t\t<li>businesses</li>\n\t\t\t<li>academia</li>\n\t\t</ul>\n\t</li>\n\t<li>government\n\t\t<ul>\n\t\t\t<li>other federal departments</li>\n\t\t\t<li>provincial/territorial</li>\n\t\t\t<li>municipal</li>\n\t\t</ul>\n\t</li>\n</ul>\n\n<h3 id=\"toc2.0\">2.0 Expected results</h3>\n\n<p>LFIF is expected to strengthen food systems to be resilient, integrated and sustainable, and to facilitate access to safe and nutritious food for at-risk populations.</p>\n\n<p>As organizations make increased investments in local food infrastructure, their capacity to provide healthy and nutritious food within their community will increase.</p>\n\n<p>Organizations will be able to provide an improved or more efficient level of service, expanded services, or an increase in the number of service offerings.</p>\n\n<h3 id=\"toc3.0\">3.0 Assessment process</h3>\n\n<p>As the program's primary goal is to strengthen food systems and to facilitate access to safe and nutritious food for at-risk populations, priority will be given to projects that demonstrate an increase or improvement to their service.</p>\n\n<p>Partnerships and collaboration within the community and within the supply chain to increase access to healthy foods will be considered as priority projects. Impact on the food accessibility of the communities they serve, especially for rural and remote communities will also be reviewed more favorably.</p>\n\n<p>Proposals will be evaluated and ranked based on their merit and the extent to which they also meet, the following criteria:</p>\n\n<ul>\n\t<li>Impact on the community (fills an identified food-related need, number of beneficiaries, etc.)</li>\n\t<li>Relevance of the project to the local context (food security, access to traditional foods for Indigenous communities, access to fresh and locally-grown food, etc.)</li>\n\t<li>Mobilization of the community (concrete participation of various partners, financial contributions, etc.)</li>\n\t<li>Long-term sustainability of the project (how the project will continue to benefit the community after the investment)</li>\n\t<li>Social innovation, heath promotion or education as it relates to food insecurity (introduces a new way of addressing food security, etc.)</li>\n</ul>\n\n<p>Furthermore, proposals must clearly demonstrate the:</p>\n\n<ul>\n\t<li>The need for the requested infrastructure or equipment improvement</li>\n\t<li>The increased capacity to address food insecurities</li>\n\t<li>The organization's ability to achieve the proposed activities beyond the funding period</li>\n</ul>\n\n<h3 id=\"toc4.0\">4.0 Reporting on your project</h3>\n\n<p>Recipients will be required to report on expenditures and results achieved. Reporting requirements are proportionate with the amount of funding from AAFC.</p>\n\n<p>For projects of a value of $50,000 or under, only a final performance report will be required.  This report could include pictures of the installed equipment, social media posts and a brief description on the impact to the community.</p>\n\n<p>For projects of a value above $50,000 and longer-term, progress updates, budgetary reports and a final performance report will be required. Frequency will be proportionate with the amount of funding and a project risk assessment.</p> \n\n<h4>Performance and Results Reports</h4>\n\n<p>The final report should include the following:</p>\n\n<table class=\"table table-bordered\">\n<thead>\n<tr>\n<th>Performance measures[1]</th>\t\n<th>Brief description</th>\n</tr>\t\n</thead>\n<tbody>\n\t<tr>\n\t\t<td>Degree to which the Recipient has increased its <b>capacity</b> to provide healthy and nutritious food as a result of the project.\n\n<p>Note: increased capacity is defined as improved level of service, increased service efficiency, expanded/scale-up of services, increased number of service offerings, increased number of partnerships, etc.</p></td>\n\t\t<td>The Recipient will be asked to provide an assessment on a numeric scale of the level of change regarding its capacity to provide healthy and nutritious food.</td>\n\t</tr>\n\t<tr>\n\t\t<td>Degree to which healthy and nutritious food <b>availability</b> has increased in communities as a result of the project.</td>\n\t\t<td>The Recipient will be asked to provide an assessment on a numeric scale of the level of change regarding the availability of healthy and nutritious food in the targeted community(ies).</td>\n\t</tr>\n\t<tr>\n\t\t<td>Percentage change in the amount of food produced/distributed by program recipients</td>\n\t\t<td>The Recipient will be asked to report on the quantities of food that it produces/distributes to its clientele, both before and after the project.</td>\n\t</tr>\n\t<tr>\n\t\t<td>Perceived decrease in the <b>level of food insecurity</b> in the communities served by the Recipient as a result of the project.</td>\n\t\t<td>Recipient's perception of how the project has helped decrease the level of food insecurity in the communities served. The Recipient will be asked to provide an assessment on a numeric scale to support this, in addition to qualitative information.</td>\n\t</tr>\n</tbody>\n\t<tfoot>\n\t<tr>\n\t\t<td colspan=\"2\">[1] Performance measures are subject to changes at the discretion of the Minister.</td>\n\t  </tr>\n\t</tfoot>\n</table>\n\n<h4>Budgetary Reports (for projects above $50,000 only)</h4>\n\n<p>The budgetary reports will be applicable to contribution recipients only (for projects over $50,000). Recipients must retain copies of quotes, invoices, and proof of payment for eligible project costs incurred to substantiate expenditures being claimed. The frequency of the reports will be determined at the time of the signing of the contribution agreement with AAFC. These reports may also include a section that provides progress updates on multi-year projects.</p>\n\n<p>Other reports may be required at AAFC's discretion.</p>\n\n<h3 id=\"toc5.0\">5.0 M-30 Act (for Quebec)</h3>\n\n<p>The Province of Quebec's M-30 legislation may apply to Quebec-based applicants only. It is the <cite>Act Respecting the Minist\u00e8re du Conseil ex\u00e9cutif</cite> (R.S.Q., c. M-30).  More information is available online or by contacting the department from which you receive the majority of your funding.</p>\n\n<p>M-30 applies to various types of Quebec organizations. For example, organizations located in Quebec and receiving more than half of their financing from the Government of Quebec may be subject to the act. When inquiring as to whether or not your organization is subject to this act, you will need to provide your most recent financial statements and letters of patent (if applicable).</p>\n\n<p>All Quebec based organizations who are subject to the act will have to obtain a ministerial order from the Secr\u00e9tariat du Qu\u00e9bec aux relations Canadiennes (SQRC) prior to entering into an agreement with AAFC.</p>\n\n<h3 id=\"toc6.0\">6.0 How to Apply</h3>\n\n<div class=\"alert alert-info\">\n   <p>Due to the very high volume of applications received in the second phase of the Local Food Infrastructure Fund, the application intake has now been temporarily closed. </p>\n</div>\n\n<p>Applications will be accepted until December 31, 2023 (or an earlier date) based on funding availability. Applicants may submit a proposal for a minimum ask of $5,000 to a maximum ask of $250,000. Project activities must be completed by March 31, 2024.</p>\n\n<p>For information on how to complete a project application, refer to <a href=\"?id=1563476043606\">Annex A: How to complete the application</a>.</p>\n\n<section class=\"mrgn-tp-lg\" id=\"pdfforms\">\n<div class=\"alert alert-warning\">\n\n<h4>PDF forms</h4>\n\n<p>If you have problems opening a PDF form in your Internet browser, you need to:</p>\n<ul class=\"mrgn-tp-md\">\n <li>Use your computer. <strong>The forms may not open on mobile devices (iPads, tablets, mobile phones)</strong>.</li>\n <li>Make sure you have Adobe Reader 11 (or higher) already installed on your computer. If not, download <a href=\"http://get.adobe.com/reader/otherversions/\" rel=\"external\">Adobe Reader 11 or higher</a> for free. Adobe has help for <a href=\"https://helpx.adobe.com/ca/acrobat/kb/cant-view-pdf-web.html\" rel=\"external\">solving common issues</a>.</li>\n <li>You <strong>must save the file on your computer</strong> in a place you can remember.</li>\n<li>Open the file on your computer using <a href=\"http://get.adobe.com/reader/otherversions/\" rel=\"external\">Adobe Reader 11 or higher</a>.</li>\n<li>If you can't open the form with Adobe Reader 11 or higher, <a href=\"?id=1563476024898\">contact the program</a>.</li>\n</ul>\n\n\n    <h6 class=\"lead mrgn-bttm-0\">How to download and open a PDF form</h6>\n\n\n<ul class=\"list-unstyled\">\n\n\n\t<li>\n<details class=\"mrgn-tp-sm\">\n    <summary>Microsoft Windows Operating System computers using \"Internet Explorer\" or \"Microsoft Edge\" as your browser</summary>\n    <ol>\n      <li>Right-click on the link you want to save</li>\n      <li>Select \"Save target as\" or \"Save link as\"</li>\n      <li>Choose the location on your computer where you would like to save the file</li>\n      <li>Select \"Save\"</li>\n      <li>Open Adobe Reader 11 or higher</li>\n      <li>Select \"File\"</li> \n      <li>Select \"Open\"</li>\n      <li>Go to the location where you saved the file</li> \n      <li>Select the PDF file</li>\n      <li>Select \"Open\"</li>\n    </ol>\n    </details>\n</li>\n\n<li>\n<details class=\"mrgn-tp-sm\">\n<summary>Microsoft Windows Operating System or Apple computers using \"Chrome\" or Firefox\" as your browser</summary>\n    <ol>\n      <li>Right-click on the link you want to save</li>\n      <li>When the option menu appears, choose \"Download link file\" or \"Download link file as\"</li>\n      <li>Choose the location on your computer where you would like to save  the file. Your computer will start the download once you have selected a  location.</li>\n<li>Open Adobe Reader 11 or higher</li>\n      <li>Go to the location where you saved the file</li> \n      <li>Select the PDF file</li>\n      <li>Select \"Open\"</li>\n    </ol>\n    </details>\n</li>\n</ul>\n\n</div>\n</section>\n<p>A complete online application package consists of:</p>\n\n<ul>\n\t<li>a completed Project application form (required)</li>\n\t<li><a href=\"https://www.agr.gc.ca/resources/prod/doc/pdf/A6176-eng.pdf\">Signature of Applicant Authorized Representative (PDF)</a></li>\n\t<li>confirmation of legal entity and/or not-for-profit status</li>\n\t<li>letters of Financial Support, and if applicable, Project Endorsement Letters</li>\n</ul>\n\n<h4>Confidentiality</h4>\n\n<p>It is the applicant's responsibility to identify if information contained in an application is considered commercially confidential. This information will not be disclosed unless required by law, including the <cite>Access to Information Act</cite>, or upon express authorization of the applicant.</p>\n\n<h3 id=\"toc7.0\">7.0 After you apply</h3>\n\n<p>Once your application has been submitted, an acknowledgment notice will be sent to you.</p>\n\n<p>Note: Applicants should not consider an application as submitted to the program until an acknowledgement notice is received.</p>\n\n<p>After your application has been received, AAFC verifies that all required forms and declarations have been completed and there is sufficient detail in the application for a full assessment. When the application has been deemed complete and ready for assessment, notice will be provided to you. Service standards for assessments begin only once the application is deemed to be complete.</p>\n\n\n<section class=\"alert alert-info\">\n\t<h4>Service standards</h4>\n<p>Once you submit an application, AAFC's goal is to:</p>\n\n<ul>\n\t<li>respond to general inquiries made to the program's phone number or email address before the end of the next business day</li>\n\t<li>acknowledge receipt of applications within one business day</li>\n\t<li>assess applications and send approval or a rejection notification letter  within 100 business days of receiving a complete application package</li>\n\t<li>send a payment within 30 business days of receipt of a duly completed  and documented claim. This is applicable only if an agreement is signed<br>\n    </li>\n</ul>\n</section>\n\n<p>Please note that even if a project meets all eligibility criteria, the submission of an application creates no obligation on the part of the Minister or of Agriculture and Agri-Food Canada officials to provide funding for the proposed project. The Minister retains discretion to determine, based on other public policy and public interest considerations, whether an application that meets the criteria identified in this guide will ultimately receive funding.</p>\n\n<h3 id=\"toc8.0\">8.0 Contact information</h3>\n\n<p>For more information on the Local Food Infrastructure Fund, please contact the program by:</p>\n\n<p>E-mail: <a href=\"mailto:aafc.foodprograms-programmesalimentaires.aac@canada.ca\">aafc.foodprograms-programmesalimentaires.aac@canada.ca</a><br>\nTelephone: 1-877-246-4682<br>\nTDD/TTY: 613-773-2600</p>\n\n<!--\n<p>Mail:<br />\nAgriculture and Agri-Food Canada<br />\nLocal Food Infrastructure Fund<br />\n1341 Baseline Road<br />\nTower 7, Floor 8, Room 223<br />\nOttawa, ON K1A 0C5</p>\n-->\n\n\n\n<nav>\n  <h2 class=\"wb-inv\">Previous-next document navigation - bottom</h2>\n\n<div class=\"row\">\n<div class=\"col-md-12 mrgn-lft-0 mrgn-rght-0\">\n<ul class=\"pager\">\n<li class=\"previous\"><a href=\"?id=1563475978180\" rel=\"prev\" title=\"After you apply\">Previous</a></li>\n<li class=\"next\"><a href=\"?id=1563476024898\" rel=\"next\" title=\"Contact information\">Next</a></li>\n</ul>\n</div>\n</div>\n</nav>\n\r\n    ",
        "fr": "\r\n    <div class=\"mrgn-tp-md mrgn-bttm-lg brdr-bttm\">\n\n<div class=\"row\">\n<ul class=\"toc lst-spcd col-md-12 list-unstyled\">\n<li class=\"col-md-4 col-sm-6\"><span class=\"list-group-item\">\u00c9tape 1. <a href=\"?id=1560701480448\">Ce qu'offre ce programme</a></span></li>\n\n<li class=\"col-md-4 col-sm-6\"><span class=\"list-group-item\">\u00c9tape 2. <a href=\"?id=1563475924908\">Qui est admissible</a></span></li>\n\n<li class=\"col-md-4 col-sm-6 clr-lft-sm\"><span class=\"list-group-item\">\u00c9tape 3. <a href=\"?id=1563475954611\">Comment pr\u00e9senter une demande</a></span></li>\n\n<li class=\"col-md-4 col-sm-6\"><span class=\"list-group-item\">\u00c9tape 4. <a href=\"?id=1563475978180\">Apr\u00e8s avoir pr\u00e9sent\u00e9 votre demande</a></span></li>\n\n<li class=\"col-md-4 col-sm-6\"><span class=\"list-group-item active\">Guide du demandeur</span></li>\n\n<li class=\"col-md-4 col-sm-6\"><span class=\"list-group-item\"><a href=\"?id=1563476024898\">Pour nous joindre</a></span></li>\n</ul>\n</div>\n</div>\n\n<h2>Guide du demandeur</h2>\n\n<div class=\"alert alert-info\">\n   <p>\u00c9tant donn\u00e9 le tr\u00e8s grand nombre de demandes re\u00e7ues \u00e0 ce jour dans le cadre de la deuxi\u00e8me phase du Fonds des infrastructures alimentaires locales, le processus de pr\u00e9sentation de demandes est maintenant suspendu temporairement. Les futures mises \u00e0 jour du programme seront disponibles ici.</p>\n</div>\n\n<p>Objet du guide</p>\n\n<p>Le pr\u00e9sent guide\u00a0:</p>\n\n<ol class=\"lst-spcd\">\n\t<li>vous aidera \u00e0 d\u00e9terminer si vous pourriez \u00eatre admissible au financement d'Agriculture et Agroalimentaire Canada (AAC) dans le cadre du Fonds des infrastructures alimentaires locales;</li>\n\t<li>vous fournira des directives et des explications pour vous aider \u00e0 remplir une demande dans le cadre du programme.</li>\n</ol>\n\n<nav>\n<h3>Table des mati\u00e8res</h3>\n\n<ul class=\"list-unstyled mrgn-lft-lg\">\n\t<li>1.0 <a href=\"#toc1.0\">\u00c0 propos du Fonds des infrastructures alimentaires locales</a>\n\t\t<ul class=\"list-unstyled mrgn-lft-lg\">\n\t\t\t<li>1.1 <a href=\"#toc1.1\">Demandeurs admissibles</a></li>\n\t\t\t<li>1.2 <a href=\"#toc1.2\">Projets admissibles</a></li>\n\t\t\t<li>1.3 <a href=\"#toc1.3\">Co\u00fbts admissibles</a></li>\n\t\t\t<li>1.4 <a href=\"#toc1.4\">Financement et partage des co\u00fbts</a></li>\n\t\t</ul></li>\n\t<li>2.0 <a href=\"#toc2.0\">R\u00e9sultats attendus</a></li>\n\t<li>3.0 <a href=\"#toc3.0\">Processus d'\u00e9valuation</a></li>\n\t<li>4.0 <a href=\"#toc4.0\">Rapports concernant votre projet apr\u00e8s approbation</a></li>\n\t<li>5.0 <a href=\"#toc5.0\">Loi M-30 (pour le Qu\u00e9bec)</a></li>\n\t<li>6.0 <a href=\"#toc6.0\">Pr\u00e9sentation d'une demande</a></li>\n\t<li>7.0 <a href=\"#toc7.0\">Apr\u00e8s la pr\u00e9sentation d'une demande</a></li>\n\t<li>8.0 <a href=\"#toc8.0\">Pour nous joindre</a></li>\n\t<li><a href=\"?id=1563476043606\">Annexe A\u00a0: Comment remplir le formulaire de demande</a></li>\n</ul>\t\n</nav>\t\n\n<h3 id=\"toc1.0\">1.0\t\u00c0 propos du Fonds des infrastructures alimentaires locales</h3>\n\n<p>Le Fonds des infrastructures alimentaires locales (FIAL) est une initiative quinquennale de 50 millions de dollars qui prendra fin le 31 mars 2024. Ce programme fait partie de la Politique alimentaire du gouvernement du Canada, soit la feuille de route vers un syst\u00e8me alimentaire canadien plus sain et plus durable. Les objectifs du FIAL consistent \u00e0 renforcer les syst\u00e8mes alimentaires et \u00e0 faciliter l'acc\u00e8s \u00e0 des aliments sains et nutritifs pour les populations \u00e0 risque.</p>\n\n<p>Le FIAL s'adresse \u00e0 des organisations communautaires sans but lucratif dont la mission est de r\u00e9duire l'ins\u00e9curit\u00e9 alimentaire en \u00e9tablissant et/ou en renfor\u00e7ant leur syst\u00e8me alimentaire local. Ses objectifs sont les suivants\u00a0:</p>\n\n<ul>\n\t<li>Am\u00e9liorer l'acc\u00e8s \u00e0 des aliments salubres, sains et diversifi\u00e9s sur le plan culturel tout en faisant la promotion du d\u00e9veloppement des collectivit\u00e9s</li>\n\t<li>Encourager les \u00e9conomies locales</li>\n\t<li>Am\u00e9liorer la sant\u00e9 des Canadiens les plus \u00e0 risque</li>\n\t<li>Promouvoir des syst\u00e8mes alimentaires respectueux de l'environnement</li>\n</ul>\n\n<p>Le fonds aide les organisations communautaires \u00e0 but non-lucratif \u00e0 am\u00e9liorer leurs syst\u00e8mes alimentaires gr\u00e2ce \u00e0 des investissements \u00e0 de l'infrastructure directement li\u00e9e \u00e0 la lutte contre l'ins\u00e9curit\u00e9 alimentaire et \u00e0 l'accessibilit\u00e9 aux aliments sains, nutritifs et, id\u00e9alement, locaux au sein de leur communaut\u00e9. Les syst\u00e8mes alimentaires, y compris la fa\u00e7on dont les aliments sont produits, transform\u00e9s, distribu\u00e9s, consomm\u00e9s et \u00e9limin\u00e9s, ont des r\u00e9percussions directes sur la vie des Canadiens et Canadiennes. Les composantes sociales, sanitaires, environnementales et \u00e9conomiques des syst\u00e8mes alimentaires sont interd\u00e9pendantes et font partie int\u00e9grante du bien-\u00eatre des communaut\u00e9s.</p>\n\n<p>Le fonds est con\u00e7u pour favoriser des connexions accrues au sein des syst\u00e8mes alimentaires en permettant aux organisations de s'associer avec les communaut\u00e9s, le secteur priv\u00e9, le monde universitaire et d'autres organisations pour renforcer collectivement les syst\u00e8mes alimentaires locaux et lutter contre l'ins\u00e9curit\u00e9 alimentaire de mani\u00e8re durable. Gr\u00e2ce \u00e0 ces liens, les partenariats communautaires seront en mesure de favoriser des solutions de syst\u00e8mes alimentaires int\u00e9gr\u00e9s qui am\u00e9liorent les avantages sociaux, sanitaires, environnementaux et \u00e9conomiques dans un domaine particulier.</p>\n\n<h4 id=\"toc1.1\">1.1\tDemandeurs admissibles</h4>\n\n<p>Les demandeurs admissibles sont des organisations sans but lucratif qui exercent des activit\u00e9s depuis au moins deux ans en tant qu'entit\u00e9 capable de conclure une entente juridiquement contraignante. De plus, les demandeurs doivent \u00eatre en mesure de d\u00e9montrer leur capacit\u00e9 \u00e0 poursuivre les activit\u00e9s propos\u00e9es au-del\u00e0 de la p\u00e9riode de financement.</p>\n\n<p>Voici les demandeurs admissibles\u00a0:</p>\n\n<ul>\n\t<li>Organisations communautaires ou caritatives</li>\n\t<li>Groupes autochtones</li>\n\t<li>Coop\u00e9ratives sans but lucratif</li>\n</ul>\n\n<p>Les \u00e9coles et les conseils/commissions scolaires, peuvent \u00e9galement faire une demande mais elles sont encourag\u00e9es de travailler \u00e9troitement avec un organisme sans but lucratif afin d'am\u00e9liorer l'acc\u00e8s aux aliments nutritifs dans les \u00e9coles.</p>\n\n<p>Les municipalit\u00e9s peuvent ainsi faire une demande s'il n'existe aucun organisme sans but lucratif dans la communaut\u00e9 qui travaille actuellement \u00e0 ce titre.</p>\n\n<p>Pour les march\u00e9s ouverts, ils doivent \u00eatre \u00e0 but non-lucratif et fournir un service aux populations \u00e0 risque et o\u00f9 aucun profit n'est g\u00e9n\u00e9r\u00e9 en relation avec le projet.</p>\n\n<h4 id=\"toc1.2\">1.2\tProjets admissibles</h4>\n\n<p>Les projets devraient principalement \u00eatre ax\u00e9s sur l'infrastructure, les services communautaires et l'am\u00e9lioration de l'acc\u00e8s \u00e0 des aliments sains et salubres pour les Canadiens et Canadiennes vuln\u00e9rables \u00e0 l'ins\u00e9curit\u00e9 alimentaire. Les facteurs de risque et la pr\u00e9valence de l'ins\u00e9curit\u00e9 alimentaire varient d'une collectivit\u00e9 \u00e0 l'autre, et le manque d'acc\u00e8s aux aliments nutritifs et abordables peut toucher les Canadiens et Canadiennes  tant en r\u00e9gion rurale qu'en milieu urbain.</p>\n\n<p>Pour les besoins de ce fonds, les Canadiens et Canadiennes vuln\u00e9rables \u00e0 l'ins\u00e9curit\u00e9 alimentaire font partie de l'un des groupes suivants\u00a0:</p>\n\n<ul>\n\t<li>Autochtones</li>\n\t<li>Personnes sans-abri et personnes de la rue</li>\n\t<li>M\u00e9nages \u00e0 faible revenu</li>\n\t<li>Collectivit\u00e9s rurales et isol\u00e9es</li>\n\t<li>Personnes handicap\u00e9es</li>\n\t<li>Autres groupes aux prises avec des obstacles sociaux ou li\u00e9s \u00e0 l'emploi, dont des probl\u00e8mes de litt\u00e9ratie et de num\u00e9ratie</li>\n\t<li>Nouveaux arrivants au Canada (incluant les r\u00e9fugi\u00e9s)</li>\n\t<li>Minorit\u00e9s visibles</li>\n\t<li>Femmes</li>\n\t<li>Jeunes</li>\n\t<li>A\u00een\u00e9s</li>\n\t<li>Communaut\u00e9 LGBTQ2</li>\n\t<li>Communaut\u00e9s de langue officielle en situation minoritaire</li>\n\t<li>Autres (veuillez pr\u00e9ciser)</li>\n</ul>\n\n<p>Les projets admissibles peuvent varier de demandes d'infrastructure plus simples, comme l'achat d'un r\u00e9frig\u00e9rateur pour une banque alimentaire, \u00e0 des demandes plus complexes visant \u00e0 renforcir des syst\u00e8mes alimentaires locaux telles que des projets qui int\u00e8grent de multiples secteurs de la chaine alimentaire par la cr\u00e9ation de partenariats. Le demandeur doit d\u00e9montrer comment son projet sera int\u00e9gr\u00e9 et renforcera le syst\u00e8me alimentaire local et comment il aura un impact sur le bien-\u00eatre des membres de la communaut\u00e9.</p>\n\n<p>La priorit\u00e9 sera accord\u00e9e aux projets qui ajoutent ou s'appuient sur des syst\u00e8mes alimentaires locaux qui \u00e9tablissent de riches partenariats, qui sont durables et utilisent une approche globale pour traiter l'ins\u00e9curit\u00e9 alimentaire. Les projets peuvent inclure un volet d'apprentissage qui n\u00e9cessite l'achat d'infrastructures et qui compl\u00e8te le service actuel de l'organisation; par exemple, des cours sur la pr\u00e9paration des aliments dans une cuisine communautaire ou des outils pour apprendre \u00e0 cultiver des fruits et des l\u00e9gumes frais.</p>\n\n<p>Voici une liste non exhaustive d'activit\u00e9s admissibles\u00a0:</p>\n\n<ul>\n\t<li>immobilisations et \u00e9quipements utiles \u00e0 la production collective d'aliments tels des cuisines et jardins communautaires, des fermes urbaines, etc.</li>\n\t<li>\u00e9quipements n\u00e9cessaires \u00e0 la pr\u00e9paration, la r\u00e9frig\u00e9ration, la distribution et l'entreposage des aliments, etc.</li>\n\t<li>v\u00e9hicules et mat\u00e9riel de transport tels des camions frigorifiques, des remorques, etc.</li>\n\t<li>syst\u00e8mes technologiques incluant des plateformes num\u00e9riques, de production ou de distribution, etc.</li>\n\t<li>syst\u00e8mes \u00e9nerg\u00e9tiques tels des serres, des panneaux solaires, etc.</li>\n\t<li>infrastructures hydrauliques incluant les syst\u00e8mes d'irrigation, de captage de l'eau de pluie, etc.</li>\n\t<li>Modernisation d'installations pour permettre l'adoption de nouvelles approches de\nproduction et de transformation</li>\n\t<li>Exploration, mise \u00e0 l'essai et \u00e9laboration de solutions novatrices, de pratiques exemplaires et d'outils</li>\n\t<li>\u00c9tablissement d'une infrastructure permettant de saisir des occasions d'apprentissage qui profitent aux producteurs et aux consommateurs locaux</li>\n</ul>\n\n<p>Aucun profit ne devrait \u00eatre tir\u00e9 des projets entrepris par le biais de ce fonds et tous les b\u00e9n\u00e9fices devraient revenir \u00e0 la(les) communaut\u00e9(s) cibl\u00e9e(s). Les infrastructures ne devraient pas \u00eatre utilis\u00e9es \u00e0 des fins commerciales pour la production ou la transformation des aliments.</p>\n\n<h4 id=\"toc1.3\">1.3\tCo\u00fbts admissibles</h4>\n\n<p>Le tableau ci-dessous pr\u00e9sente les co\u00fbts admissibles et les co\u00fbts non admissibles dans le cadre du programme, ainsi que les restrictions et les directives que vous devez conna\u00eetre pour pr\u00e9parer votre budget.</p>\n\n<h5>Immobilisations</h5>\n\n<p><b>\u00c9l\u00e9ments de co\u00fbts admissibles</b></p>\n\n<ul>\n\t<li>L'achat d'\u00e9quipement neuf ou usag\u00e9</li>\n\t<li>Modification ou modernisation d'un actif qui prolonge consid\u00e9rablement sa dur\u00e9e de vie utile ou am\u00e9liore sa fonctionnalit\u00e9</li>\n</ul>\n\n<p>Exemples d'immobilisations admissibles au programme</p>\n\n<ul>\n\t<li>R\u00e9frig\u00e9rateurs/cong\u00e9lateurs</li>\n\t<li>Camions frigorifiques</li>\n\t<li>Cuisines communautaires</li>\n\t<li>\u00c9quipement de transformation des aliments</li>\n\t<li>Entreposage frigorifique, \u00e9tag\u00e8res, \u00e9l\u00e9vateur \u00e0 fourches</li>\n\t<li>Panneaux solaires, g\u00e9n\u00e9ratrices, stockage de combustible</li>\n\t<li>Jardins communautaires</li>\n\t<li>Fermes urbaines</li>\n\t<li>Infrastructure verte, comme des arbres et des plantes pour les for\u00eats vivri\u00e8res</li>\n\t<li>Syst\u00e8mes d'irrigation, captage des eaux pluviales</li>\n\t<li>Plateformes num\u00e9riques, de production ou de distribution</li>\n</ul>\n\n<p><b>Co\u00fbts non admissibles et restrictions</b></p>\t\n\n<ul class=\"lst-spcd\">\n\t<li>Co\u00fbts non admissibles\n\t\t<ul>\n\t\t\t<li>Achat de terrains ou de b\u00e2timents</li>\n\t\t\t<li>Achat ou location de v\u00e9hicules priv\u00e9s ou personnels.</li>\n\t\t</ul>\n\t</li>\n\t<li>Restrictions\n\t\t<ul>\n\t\t\t<li>Les d\u00e9penses en immobilisations doivent \u00eatre n\u00e9cessaires \u00e0 la r\u00e9alisation du projet propos\u00e9.</li>\n\t\t\t<li>Les immobilisations doivent \u00eatre conserv\u00e9es pendant au moins deux ans apr\u00e8s l'ach\u00e8vement du projet.</li>\n\t\t</ul>\n\t</li>\n</ul>\n\n<h5>Autres co\u00fbts directs de projet</h5>\n\n<p><b>\u00c9l\u00e9ments de co\u00fbt admissibles</b></p>\n\n<ul>\n\t<li>Co\u00fbts associ\u00e9s \u00e0 l'ach\u00e8vement du projet tels que\u00a0:\n\t\t<ul>\n\t\t\t<li>Frais d'installation</li>\n\t\t\t<li>Frais d'exp\u00e9dition</li>\n\t\t\t<li>Frais de transport</li>\n\t\t\t<li>\u00c9quipement de protection individuelle</li>\n\t\t\t<li>Bacs ou \u00e9tag\u00e8res de rangement</li>\n\t\t\t<li>Droits</li>\n\t\t\t<li>Pourcentage non remboursable de la taxe de vente provinciale, de la TPS/TVH ou de toute autre taxe sur la valeur ajout\u00e9e</li>\n\t\t</ul>\n\t</li>\n\t<li>En cas de recours \u00e0 des fournisseurs, leurs services doivent \u00eatre acquis dans le cadre d'un processus juste, concurrentiel et transparent ou de tout autre processus justifiable et fournis dans un d\u00e9lai pr\u00e9cis pour la r\u00e9alisation du projet.</li>\n\t<li>Des co\u00fbts de main-d'\u0153uvre peuvent \u00eatre admissibles pour l'embauche de personnel suppl\u00e9mentaire durant une p\u00e9riode pr\u00e9cise et uniquement pour la r\u00e9alisation du projet.</li>\n</ul>\n\n<p><b>Co\u00fbts non admissibles</b></p>\n\n<ul>\n\t<li>Achat d'aliments p\u00e9rissables et/ou non p\u00e9rissables</li>\n\t<li>R\u00e9novations structurelles non li\u00e9es au projet</li>\n\t<li>Frais courants d'\u00e9tablissement d'une exploitation commerciale</li>\n\t<li>Co\u00fbts de main-d'\u0153uvre associ\u00e9s aux t\u00e2ches courantes ou pour le personnel actuel</li>\n\t<li>Co\u00fbts li\u00e9s au marketing et \u00e0 la promotion des affaires</li>\n\t<li>Co\u00fbts d'activit\u00e9s visant \u00e0 influencer directement les gouvernements ou \u00e0 faire pression sur ceux-ci.</li>\n\t<li>Frais d'accueil</li>\n\t<li>Frais de d\u00e9placement</li>\n\t<li>Frais associ\u00e9s \u00e0 la pr\u00e9paration de la demande et \u00e0 la n\u00e9gociation de l'entente</li>\n\t<li>Autres co\u00fbts qui ne sont pas n\u00e9cessaires \u00e0 la r\u00e9alisation du projet</li>\n</ul>\n\n<p><b>Frais administratifs</b></p> \n\n<p>Dans le cas des projets \u00e0 grande \u00e9chelle pour lesquels plus de 50\u00a0000\u00a0$ sont demand\u00e9s, les frais administratifs seront calcul\u00e9s \u00e0 un taux de 10 pourcent du total des co\u00fbts admissibles du projet et seront partag\u00e9s avec le b\u00e9n\u00e9ficiaire. Cependant, les immobilisations d'une valeur de 100\u00a0000\u00a0$ et plus ne sont pas admissibles au calcul pour frais administratifs de 10 pourcent.</p>\n\n<p>Le taux pour frais administratifs inclut les \u00e9l\u00e9ments suivants\u00a0:</p>\n\n<ul>\n\t<li>Co\u00fbt des services de gestion de projet ou des salaires connexes</li>\n\t<li>Utilisation de locaux \u00e0 bureaux</li>\n\t<li>Fournitures de bureau</li>\n\t<li>Utilisation d'\u00e9quipement de bureau</li>\n\t<li>Frais d'audit reli\u00e9s \u00e0 l'organisation</li>\n\t<li>Frais bancaires</li>\n\t<li>Assurances</li>\n\t<li>Frais d'adh\u00e9sion</li>\n\t<li>Frais juridiques</li>\n</ul>\n\n<p>Remarque\u00a0: Les co\u00fbts \u00e9nonc\u00e9s dans la pr\u00e9sente section ne peuvent pas \u00eatre r\u00e9clam\u00e9s sous une autre cat\u00e9gorie du programme, car ils sont pris en compte dans le calcul du taux fixe de 10\u00a0% pour frais administratifs.</p>\n\n<p>Les co\u00fbts peuvent \u00eatre r\u00e9troactifs jusqu'\u00e0 la date \u00e0 laquelle votre demande a \u00e9t\u00e9 re\u00e7ue et jug\u00e9e compl\u00e8te par les responsables du programme. Le fait d'engager des d\u00e9penses avant qu'une d\u00e9cision soit prise relativement au projet et que l'entente entre AAC et votre organisation soit sign\u00e9e par toutes les parties constitue un risque, car les co\u00fbts connexes pourraient \u00eatre non admissibles en vertu de l'entente.</p>\n\n<h4 id=\"toc1.4\">1.4\tFinancement et partage des co\u00fbts</h4>\n\n<h5>Financement</h5>\n\n<p>Dans le cadre du programme, les demandeurs pourront recevoir de 5\u00a0000\u00a0$ \u00e0 250\u00a0000\u00a0$ en financement non remboursable. Ce financement peut prendre la forme suivante\u00a0:</p>\n\n<ol class=\"lst-spcd\">\n\t<li><b>Subvention</b> pour les projets demandant un financement de 50\u00a0000\u00a0$ et moins (aucuns frais administratifs ne seront pay\u00e9s)</li>\n\t<li><b>Contribution non remboursable</b> pour les projets demandant un financement de plus de 50\u00a0000\u00a0$, jusqu'\u00e0 concurrence de 250\u00a0000\u00a0$</li>\n</ol>\n\n<p>Dans tous les cas, les demandeurs qui seront retenus devront signer une entente juridique avec AAC.</p>\n\n<div class=\"well\">\n<dl class=\"dl-horizontal\">\n<dt>Subvention</dt>\n<dd>Paiement de transfert effectu\u00e9 en fonction de crit\u00e8res pr\u00e9\u00e9tablis d'admissibilit\u00e9. Il se peut que le b\u00e9n\u00e9ficiaire soit tenu de fournir des rapports sur les r\u00e9sultats obtenus.</dd>\n\n<dt>Contribution</dt>\n<dd>Paiement de transfert effectu\u00e9 selon les conditions de rendement \u00e9nonc\u00e9es dans une entente de financement. Une contribution est assujettie \u00e0 une reddition de comptes et est sujette \u00e0 v\u00e9rification</dd>\n\n<div class=\"mrgn-lft-lg\">\n<dt>Contribution en esp\u00e8ces</dt>\n<dd>une d\u00e9pense n\u00e9cessitant un d\u00e9caissement de la part de votre organisation ou d'un participant ou contributeur (par exemple, partenaire ou autre gouvernement) au cours du projet. Une contribution en esp\u00e8ces effectu\u00e9e par un autre participant au projet doit \u00eatre d\u00e9clar\u00e9e comme une de vos sources de financement et doit couvrir un co\u00fbt de projet admissible</dd>\n\n\n<dt>Contribution en nature</dt>\n<dd>Une signifie la juste valeur marchande des biens qui n'exigent aucune sortie d'argent (par exemple, l'utilisation d'\u00e9quipement pr\u00e9c\u00e9demment retenu, des biens re\u00e7us en don, etc.).</dd>\n</div>\n\n</dl>\n</div>\n \n<h5>Partage des co\u00fbts</h5>\n\n<p>Les co\u00fbts admissibles de projet seront normalement partag\u00e9s entre AAC et le demandeur ainsi que ses partenaires qui supportent le projet. La priorit\u00e9 sera accord\u00e9e aux projets b\u00e9n\u00e9ficiant de d'autres contributions financi\u00e8res importantes, cr\u00e9ant des partenariats avec d'autres secteurs de la chaine de valeur et/ou d\u00e9montrant un engagement envers la collectivit\u00e9, un fort impact et une facilit\u00e9 de mobiliser multiples ressources.</p>\n\n<p>Les autres sources de financement peuvent provenir\u00a0:</p>\n\n<ul>\n\t<li>du demandeur</li>\n\t<li>de l'industrie\u00a0:\n\t\t<ul>\n\t\t\t<li>Associations et r\u00e9seaux de l'industrie</li>\n\t\t\t<li>Entreprises</li>\n\t\t\t<li>Universit\u00e9s</li>\n\t\t</ul>\n\t</li>\n\t<li>du gouvernement\u00a0:\n\t\t<ul>\n\t\t\t<li>Autres minist\u00e8res f\u00e9d\u00e9raux</li>\n\t\t\t<li>Provinces et territoires</li>\n\t\t\t<li>Municipalit\u00e9s</li>\n\t\t</ul>\n\t</li>\n</ul>\n\n<h3 id=\"toc2.0\">2.0 R\u00e9sultats attendus</h3>\n\n<p>On s'attend \u00e0 ce que le Fonds des infrastructures alimentaires locales (FIAL) renforce les syst\u00e8mes alimentaires afin qu'ils soient r\u00e9silients, int\u00e9gr\u00e9s et durables, et qu'il facilite l'acc\u00e8s \u00e0 des aliments sains et nutritifs pour les populations \u00e0 risque.</p>\n\n<p>\u00c0 mesure que les organisations investiront dans l'infrastructure alimentaire locale, leur capacit\u00e9 \u00e0 fournir des aliments sains et nutritifs dans leur collectivit\u00e9 augmentera.</p>\n\n<p>Les organisations seront en mesure d'offrir un niveau de service am\u00e9lior\u00e9 ou plus efficace, des services \u00e9largis ou plus de services.</p>\n\n<h3 id=\"toc3.0\">3.0\tProcessus d'\u00e9valuation</h3>\n\n<p>\u00c9tant donn\u00e9 que l'objectif principal du programme est de renforcer les syst\u00e8mes alimentaires et de faciliter l'acc\u00e8s \u00e0 des aliments sains et nutritifs pour les populations \u00e0 risque, la priorit\u00e9 sera accord\u00e9e aux projets qui d\u00e9montrent l'augmentation et l'am\u00e9lioration de leurs services.</p>\n\n<p>Les partenariats aupr\u00e8s de la communaut\u00e9 et de la chaine de valeur afin d'accro\u00eetre l'acc\u00e8s aux aliments sains et nutritifs seront des projets prioris\u00e9s. L'impact sur l'accessibilit\u00e9 alimentaire des communaut\u00e9s qu'ils desservent, en particulier pour les projets de communaut\u00e9s rurales et \u00e9loign\u00e9es, ceux-ci seront \u00e9galement \u00e9valu\u00e9s plus favorablement.</p>\n\n<p>Les propositions seront \u00e9valu\u00e9es et class\u00e9es en fonction de leur m\u00e9rite et de la mesure dans laquelle elles satisfont aussi aux crit\u00e8res suivants\u00a0:</p>\n\n<ul>\n\t<li>R\u00e9percussions dans la collectivit\u00e9 (par exemple, r\u00e9ponse \u00e0 un besoin alimentaire r\u00e9el, nombre de b\u00e9n\u00e9ficiaires)</li>\n\t<li>Pertinence du projet dans le contexte local (par exemple, s\u00e9curit\u00e9 alimentaire, acc\u00e8s aux aliments traditionnels pour les communaut\u00e9s autochtones, acc\u00e8s \u00e0 des aliments frais et locaux)</li>\n\t<li>Mobilisation de la communaut\u00e9 (par exemple, participation concr\u00e8te des diff\u00e9rents partenaires, contributions financi\u00e8res)</li>\n\t<li>Viabilit\u00e9 \u00e0 long terme du projet (par exemple, fa\u00e7on dont le projet continuera d'offrir des avantages \u00e0 la collectivit\u00e9 apr\u00e8s l'investissement)</li>\n\t<li>Innovation sociale, promotion de la sant\u00e9 ou sensibilisation \u00e0 l'ins\u00e9curit\u00e9 alimentaire (par exemple, nouvelle fa\u00e7on d'aborder l'ins\u00e9curit\u00e9 alimentaire)</li>\n</ul>\n\n<p>De plus, les propositions doivent clairement d\u00e9montrer ce qui suit\u00a0:</p>\n\n<ul>\n\t<li>N\u00e9cessit\u00e9 de l'am\u00e9lioration de l'infrastructure ou de l'\u00e9quipement demand\u00e9</li>\n\t<li>Capacit\u00e9 accrue de r\u00e9duire l'ins\u00e9curit\u00e9 alimentaire</li>\n\t<li>Capacit\u00e9 de l'organisation de poursuivre les activit\u00e9s propos\u00e9es au-del\u00e0 de la p\u00e9riode de financement</li>\n</ul>\n\n<h3 id=\"toc4.0\">4.0 Rapports concernant votre projet apr\u00e8s approbation</h3>\n\n\n<p>Les b\u00e9n\u00e9ficiaires devront produire un rapport sur les d\u00e9penses engag\u00e9es et les r\u00e9sultats obtenus. Les exigences redditionnelles sont proportionnelles au financement d'AAC.</p>\n\n<p>Pour les projets d'une valeur de 50\u00a0000\u00a0$ ou moins, seul un rapport final de rendement sera requis. Ce rapport pourrait inclure des photos de l'\u00e9quipement install\u00e9, des publications sur les r\u00e9seaux sociaux et une courte histoire sur l'impact aupr\u00e8s de la communaut\u00e9.</p>\n\n<p>Pour les projets d'une valeur sup\u00e9rieure \u00e0 50\u00a0000\u00a0$ et \u00e0 plus long terme, des mises \u00e0 jour, des rapports budg\u00e9taires et un rapport final de rendement seront requis. La fr\u00e9quence sera proportionnelle au montant du financement et \u00e0 l'\u00e9valuation des risques du projet.</p> \n\n<h4>Rapports sur le rendement et les r\u00e9sultats</h4>\n\n<p>Le rapport final devrait comprendre les \u00e9l\u00e9ments suivants\u00a0:</p>\n\n<table class=\"table table-bordered\">\n<thead>\n<tr>\n<th>Mesures du rendement[1]</th>\t\n<th>Br\u00e8ve description</th>\n</tr>\t\n</thead>\n<tbody>\n\t<tr>\n\t\t<td>Mesure dans laquelle le b\u00e9n\u00e9ficiaire a augment\u00e9 sa <b>capacit\u00e9</b> \u00e0 fournir des aliments sains et nutritifs gr\u00e2ce au projet\n\n<p>Remarque: une capacit\u00e9 accrue est d\u00e9finie comme un niveau de service am\u00e9lior\u00e9, une efficacit\u00e9 accrue des services, une extension / expansion des services, nombre accru d'offres de services, nombre accru de partenariats, etc.</p></td>\n\t\t<td>Le b\u00e9n\u00e9ficiaire sera invit\u00e9 \u00e0 fournir une \u00e9valuation sur une \u00e9chelle num\u00e9rique du degr\u00e9 de changement concernant la capacit\u00e9 de l'organisation \u00e0 fournir des aliments sains et nutritifs.</td>\n\t</tr>\n\t<tr>\n\t\t<td>Mesure dans laquelle la <b>disponibilit\u00e9</b> d'aliments sains et nutritifs a augment\u00e9 dans les communaut\u00e9s gr\u00e2ce au projet</td>\n\t\t<td>Le b\u00e9n\u00e9ficiaire sera invit\u00e9 \u00e0 fournir une \u00e9valuation sur une \u00e9chelle num\u00e9rique du degr\u00e9 de changement concernant la disponibilit\u00e9 d'aliments sains et nutritifs dans la/les communaut\u00e9(s) cibl\u00e9e(s).</td>\n\t</tr>\n\t<tr>\n\t\t<td>Variation en pourcentage de la quantit\u00e9 de nourriture produite / distribu\u00e9e par les b\u00e9n\u00e9ficiaires du programme</td>\n\t\t<td>Le b\u00e9n\u00e9ficiaire sera invit\u00e9 \u00e0 rapporter les quantit\u00e9s de nourriture produites / distribu\u00e9es \u00e0 sa client\u00e8le avant et apr\u00e8s le projet.</td>\n\t</tr>\n\t<tr>\n\t\t<td>Diminution per\u00e7ue du <b>niveau d'ins\u00e9curit\u00e9 alimentaire</b> dans les communaut\u00e9s desservies par le b\u00e9n\u00e9ficiaire \u00e0 la suite du projet</td>\n\t\t<td>La perception du b\u00e9n\u00e9ficiaire sur la fa\u00e7on dont le projet a contribu\u00e9 \u00e0 r\u00e9duire le niveau d'ins\u00e9curit\u00e9 alimentaire dans les communaut\u00e9s desservies. Le b\u00e9n\u00e9ficiaire sera invit\u00e9 \u00e0 fournir une \u00e9valuation sur une \u00e9chelle num\u00e9rique, en plus d'informations qualitatives.</td>\n\t</tr>\n</tbody>\n\t<tfoot>\n\t<tr>\n\t\t<td colspan=\"2\">[1] Les mesures du rendement pourraient changer \u00e0 la discr\u00e9tion de la ministre.</td>\n\t  </tr>\n\t</tfoot>\n</table>\n\n<h4>Rapports budg\u00e9taires (pour les projets de plus de 50\u00a0000\u00a0$)</h4>\n\n<p>Les rapports budg\u00e9taires ne seront applicables qu'aux b\u00e9n\u00e9ficiaires de contributions (pour les projets de plus de 50\u00a0000\u00a0$). Les b\u00e9n\u00e9ficiaires sont tenus de conserver les devis, les factures et les preuves de paiement pour les d\u00e9penses de projet admissibles qui ont \u00e9t\u00e9 engag\u00e9es pour corroborer les d\u00e9penses faisant l'objet d'une demande de remboursement. La fr\u00e9quence des rapports sera d\u00e9termin\u00e9e lors de la signature de l'accord de contribution avec AAC. Ces rapports peuvent \u00e9galement inclure une section qui fournit des mises \u00e0 jour sur l'avancement des projets pluriannuels.</p>\n\n<p>D'autres rapports peuvent \u00eatre exig\u00e9s \u00e0 la discr\u00e9tion d'AAC.</p>\n\n<h3 id=\"toc5.0\">5.0 Loi M-30 (pour le Qu\u00e9bec)</h3>\n\n<p>La loi M-30 de la province de Qu\u00e9bec pourrait s'appliquer aux demandeurs provenant du Qu\u00e9bec uniquement. Il s'agit de la <cite>Loi sur le minist\u00e8re du Conseil ex\u00e9cutif</cite> (R.S.Q., c. M-30). De plus amples renseignements sont disponibles en ligne ou en communiquant avec le minist\u00e8re dont vous recevez la majorit\u00e9 de votre financement.</p>\n\n<p>La loi M-30 s'applique \u00e0 diverses organisations du Qu\u00e9bec. \u00c0 titre d'exemple, les organisations situ\u00e9es au Qu\u00e9bec qui re\u00e7oivent plus de la moiti\u00e9 de leur financement du gouvernement du Qu\u00e9bec peuvent \u00eatre assujetties \u00e0 cette loi. Pour savoir si votre organisation est assujettie ou non \u00e0 cette loi, vous devrez fournir vos \u00e9tats financiers et vos lettres patentes les plus r\u00e9cents (le cas \u00e9ch\u00e9ant).</p>\n\n<p>Toutes les organisations qu\u00e9b\u00e9coises qui sont assujetties \u00e0 la Loi devront obtenir un arr\u00eat\u00e9 minist\u00e9riel du Secr\u00e9tariat du Qu\u00e9bec aux relations canadiennes (SQRC) avant de conclure une entente avec AAC.</p>\n\n<h3 id=\"toc6.0\">6.0 Pr\u00e9sentation d'une demande</h3>\n\n<div class=\"alert alert-info\">\n   <p>\u00c9tant donn\u00e9 le tr\u00e8s grand nombre de demandes re\u00e7ues \u00e0 ce jour dans le cadre de la deuxi\u00e8me phase du Fonds des infrastructures alimentaires locales, le processus de pr\u00e9sentation de demandes est maintenant suspendu temporairement. </p>\n</div>\n\n<p>Les demandes seront accept\u00e9es jusqu'au 31 d\u00e9cembre 2023 (ou une date ant\u00e9rieure), selon la disponibilit\u00e9 des fonds. Les demandeurs peuvent pr\u00e9senter en tout temps une proposition en vue d'un financement allant de 5\u00a0000\u00a0$ \u00e0 250\u00a0000\u00a0$. Les activit\u00e9s de projet doivent \u00eatre achev\u00e9es d'ici au 31 mars 2024.</p>\n\n<p>Pour conna\u00eetre la fa\u00e7on de remplir votre demande de projet, consultez l'<a href=\"?id=1563476043606\">annexe A\u00a0: Comment remplir le formulaire de demande</a>.</p>\n\n<section class=\"mrgn-tp-lg\" id=\"pdfforms\">\n<div class=\"alert alert-warning\">\n  <h4>Formulaires en format PDF</h4>\n<p>Si vous avez de la difficult\u00e9 \u00e0 ouvrir un formulaire PDF dans votre navigateur Internet, vous devez\u00a0:</p>\n<ul class=\"mrgn-tp-md\">\n <li>utiliser votre ordinateur. <strong>Il est possible que les formulaires ne s'ouvrent pas sur des appareils mobiles (iPad, tablettes, t\u00e9l\u00e9phones cellulaires)</strong>.</li>\n  <li>vous assurer que la version 11 (ou une version ult\u00e9rieure) d'Adobe Reader est d\u00e9j\u00e0 install\u00e9e sur votre ordinateur. Si ce n'est pas le cas, t\u00e9l\u00e9chargez gratuitement <a href=\"http://get.adobe.com/fr/reader/otherversions/\" rel=\"external\">Adobe Reader 11 ou une version ult\u00e9rieure</a>. Adobe offre des <a href=\"https://helpx.adobe.com/fr/acrobat/kb/cant-view-pdf-web.html\" rel=\"external\">solutions aux principaux probl\u00e8mes d'affichage</a>;</li>\n <li><strong>sauvegarder le fichier sur votre ordinateur</strong> \u00e0 un endroit dont vous vous souviendrez;</li>\n <li>ouvrir le fichier sur votre ordinateur \u00e0 l'aide d'<a href=\"http://get.adobe.com/fr/reader/otherversions/\" rel=\"external\">Adobe Reader 11 ou une version ult\u00e9rieure</a>.</li>\n <li>Si vous ne parvenez pas \u00e0 ouvrir le formulaire avec Adobe Reader 11 ou une version ult\u00e9rieure, <a href=\"?id=1563476024898\">veuillez contacter le programme</a>.</li>\n</ul>\n\n\n    <h6 class=\"lead mrgn-bttm-0\">Comment t\u00e9l\u00e9charger et ouvrir un formulaire au format PDF</h6>\n  \n\n<ul class=\"list-unstyled\">\n\t<li>\n<details class=\"mrgn-tp-sm\">\n    <summary>Les ordinateurs utilisant le syst\u00e8me d'exploitation Microsoft Windows et se servant de  \"Internet Explorer\" ou \"Microsoft Edge\" comme fureteur</summary>\n     <ol>\n      <li>Cliquez sur le lien que vous voulez enregistrer avec le bouton droit de la souris;</li>\n      <li>S\u00e9lectionnez \u00ab\u00a0Enregistrer la cible sous\u00a0\u00bb ou \u00ab\u00a0Enregistrer le lien sous\u00a0\u00bb;</li>\n      <li>Choisissez l'emplacement o\u00f9 vous souhaitez enregistrer le fichier sur votre ordinateur;</li>\n      <li>S\u00e9lectionnez \u00ab\u00a0Enregistrer\u00a0\u00bb;</li>\n      <li>Ouvrissiez Adobe Reader 11 ou une version ult\u00e9rieure;</li>\n      <li>S\u00e9lectionnez \u00ab\u00a0Fichier\u00a0\u00bb;</li>\n      <li>S\u00e9lectionnez \u00ab\u00a0Ouvrez\u00a0\u00bb;</li>\n      <li>Acc\u00e9dez \u00e0 l'emplacement o\u00f9 vous avez enregistr\u00e9 le fichier;</li>\n      <li>Choisissez le formulaire PDF;</li>\n      <li>S\u00e9lectionnez \u00ab\u00a0Ouvrez\u00a0\u00bb.</li>\n    </ol>\n    </details>\n</li>\n\n<li>\n<details class=\"mrgn-tp-sm\">\n<summary>Les ordinateurs utilisant le syst\u00e8me d'exploitation Microsoft Windows ou Apple et se servant de \"Chrome\" ou \"Firefox\" comme fureteur</summary>\n        <ol>\n      <li>Cliquez sur le lien que vous voulez enregistrer avec le bouton droit de la souris;</li>\n      <li>Quand le menu d'options s'affiche, s\u00e9lectionnez \"T\u00e9l\u00e9charger le fichier li\u00e9\" ou \"T\u00e9l\u00e9charger le fichier li\u00e9 sous\"</li>\n      <li>Choisissez l'emplacement o\u00f9 vous souhaitez enregistrer le fichier  sur votre ordinateur. Le t\u00e9l\u00e9chargement commencera une fois que vous  aurez choisi un emplacement;</li>\n  <li>Ouvrissiez Adobe Reader 11 ou une version ult\u00e9rieure;</li>\n      <li>Acc\u00e9dez \u00e0 l'emplacement o\u00f9 vous avez enregistr\u00e9 le fichier;</li>\n      <li>Choisissez le formulaire PDF;</li>\n      <li>S\u00e9lectionnez \u00ab\u00a0Ouvrez\u00a0\u00bb.</li>\n    </ol>\n    </details>\n</li>\n</ul>\n\n</div>\n</section>\n\t\n<p>Le dossier de la demande en ligne doit comprendre les \u00e9l\u00e9ments suivants\u00a0:</p>\n\n<ul>\n\t<li>Formulaire de demande de projet d\u00fbment rempli  (requis)</li>\n\t<li><a href=\"https://www.agr.gc.ca/resources/prod/doc/pdf/A6176-fra.pdf\">Autorisation par signature du repr\u00e9sentant d\u00e9sign\u00e9 du demandeur (PDF)</a>.</li>\n\t<li>Confirmation d'\u00e9tat d'entit\u00e9 juridique et/ou d'organisation sans but lucratif</li>\n\t<li>Lettres de soutien financier et, le cas \u00e9ch\u00e9ant, lettres d'appui au projet</li>\n</ul>\n\n<h4>Confidentialit\u00e9</h4>\n\n<p>Il incombe au demandeur d'indiquer clairement les renseignements commerciaux jug\u00e9s confidentiels dans une demande. Ces renseignements ne seront pas divulgu\u00e9s \u00e0 moins que la loi le prescrive, notamment la <cite>Loi sur l'acc\u00e8s \u00e0 l'information</cite>, ou moyennant l'autorisation expresse du demandeur.</p>\n\n<h3 id=\"toc7.0\">7.0 Apr\u00e8s la pr\u00e9sentation d'une demande</h3>\n\n<p>Vous recevrez un accus\u00e9 de r\u00e9ception une fois que votre demande aura \u00e9t\u00e9 pr\u00e9sent\u00e9e.</p>\n\n<p>Remarque\u00a0: Les demandeurs ne doivent pas pr\u00e9sumer qu'une demande est pr\u00e9sent\u00e9e au programme avant d'avoir re\u00e7u l'accus\u00e9 de r\u00e9ception.</p>\n\n<p>Apr\u00e8s la r\u00e9ception d'une demande, AAC v\u00e9rifie que tous les formulaires et toutes les d\u00e9clarations obligatoires sont pr\u00e9sents et remplis, et que le dossier est suffisamment d\u00e9taill\u00e9 pour permettre l'\u00e9valuation compl\u00e8te. Vous recevrez une notification lorsque votre dossier de demande sera consid\u00e9r\u00e9 comme complet et pr\u00eat pour l'\u00e9valuation. Les normes de service relatives aux \u00e9valuations s'appliquent seulement une fois que la demande est jug\u00e9e compl\u00e8te.</p>\n\n<section class=\"alert alert-info\">\n\t<h4>Normes de service</h4>\n<p>Voici l'objectif d'AAC une fois qu'une demande a \u00e9t\u00e9 pr\u00e9sent\u00e9e\u00a0:</p>\n\n<ul>\n\t<li>R\u00e9pondre aux demandes de renseignements g\u00e9n\u00e9rales que le  programme re\u00e7oit par t\u00e9l\u00e9phone ou par courriel avant la fin du jour ouvrable  suivant</li>\n\t<li>Accuser r\u00e9ception de la demande dans un d\u00e9lai d'un jour ouvrable</li>\n\t<li>\u00c9valuer les demandes et envoyer une lettre d'approbation ou de rejet  dans un d\u00e9lai de 100 jours ouvrables \u00e0 compter de la date de r\u00e9ception de la  demande compl\u00e8te</li>\n\t<li>Exp\u00e9dier un paiement dans les 30 jours ouvrables suivant la r\u00e9ception  d'une demande de r\u00e8glement d\u00fbment remplie et justifi\u00e9e. Cette mesure s'applique  uniquement si une entente est sign\u00e9e</li>\n</ul>\n</section>\n\n<p>Veuillez prendre note que m\u00eame si un projet satisfait \u00e0 tous les crit\u00e8res d'admissibilit\u00e9, la pr\u00e9sentation d'une demande ne cr\u00e9e aucune obligation de la part de la ministre ou des fonctionnaires d'Agriculture et de l'Agroalimentaire d'offrir un financement pour le projet propos\u00e9. La ministre conserve le pouvoir discr\u00e9tionnaire de d\u00e9terminer, en se fondant sur d'autres consid\u00e9rations li\u00e9es aux politiques publiques et \u00e0 l'int\u00e9r\u00eat public, si une demande qui satisfait aux crit\u00e8res d\u00e9crits dans le pr\u00e9sent guide recevra ultimement un financement.</p>\n\n<h3 id=\"toc8.0\">8.0 Pour nous joindre</h3>\n\n<p>Pour de plus amples renseignements sur le Fonds des infrastructures alimentaires locales, veuillez communiquer avec le programme par\u00a0:</p>\n\n<p>Courriel\u00a0: <a href=\"mailto:aafc.foodprograms-programmesalimentaires.aac@canada.ca\">aafc.foodprograms-programmesalimentaires.aac@canada.ca</a><br>\nT\u00e9l\u00e9phone\u00a0: 1-877-246-4682<br>\nATS/ATME\u00a0: 613-773-2600</p>\n\n<!--\n<p>Par la poste&nbsp;:<br />\nAgriculture et Agroalimentaire Canada<br />\nFonds des infrastructures alimentaires locales<br />\n1341 chemin Baseline<br />\nTour 7, 8<sup>e</sup> &eacute;tage, salle 223<br />\nOttawa (Ontario)  K1A 0C5</p>\n-->\n\n<nav>\n  <h2 class=\"wb-inv\">Navigation du document - pr\u00e9c\u00e9dente-suivante - bas</h2>\n\n<div class=\"row\">\n<div class=\"col-md-12 mrgn-lft-0 mrgn-rght-0\">\n<ul class=\"pager\">\n<li class=\"previous\"><a href=\"?id=1563475978180\" rel=\"prev\" title=\"Apr\u00e8s avoir pr\u00e9sent\u00e9 votre demande\">Pr\u00e9c\u00e9dente</a></li>\n<li class=\"next\"><a href=\"?id=1563476024898\" rel=\"next\" title=\"Pour nous joindre\">Suivante</a></li>\n</ul>\n</div>\n</div>\n</nav>\n\r\n    "
    }
}