{
    "dcr_id": "1291828779399",
    "title": {
        "en": "AgriInvest - Step 1. What this program offers",
        "fr": "Agri-investissement - \u00c9tape 1. Ce qu'offre ce programme"
    },
    "modified": "2021-06-23",
    "issued": "2019-10-22",
    "templatetype": "content page 1 column",
    "page_type": "1",
    "node_id": "1571321713170",
    "dc_date_created": "2019-10-22",
    "managing_branch": "PAB",
    "parent_node_id": "1354137773676",
    "short_title": "AgriInvest",
    "exturl": "",
    "teamsite_location": {
        "en": "/default/main/AAFC-AAC/Internet-Internet/Group-Ensemble/ProgServ-ProgServ/WORKAREA/ProgServ-ProgServ/templatedata/comm-comm/gene-gene/data/09/ai_step1_1291828779399_en",
        "fr": "/default/main/AAFC-AAC/Internet-Internet/Group-Ensemble/ProgServ-ProgServ/WORKAREA/ProgServ-ProgServ/templatedata/comm-comm/gene-gene/data/09/ai_step1_1291828779399_fr"
    },
    "type_name": "sitemapinit",
    "has_dcr_id": true,
    "label": {
        "en": "AgriInvest",
        "fr": "Agri-investissement"
    },
    "breadcrumb": {
        "en": "AgriInvest",
        "fr": "Agri-investissement"
    },
    "layout_name": "content page 1 column",
    "lang": "en",
    "refaire": false,
    "meta": {
        "viewport": {
            "en": "width=device-width,initial-scale=1",
            "fr": "width=device-width, initial-scale=1"
        },
        "issued": {
            "en": "2019-10-22",
            "fr": "2019-10-22"
        },
        "modified": {
            "en": "2021-06-23",
            "fr": "2021-06-23"
        },
        "format": {
            "en": "text/html",
            "fr": "text/html"
        },
        "title": {
            "en": "AgriInvest - Step 1. What this program offers",
            "fr": "Agri-investissement - \u00c9tape 1. Ce qu'offre ce programme"
        },
        "subject": {
            "en": "soil science;soil assessement;architectural heritage",
            "fr": "revenus agricoles;biocarburants;Gestion des risques de l'entreprise"
        },
        "dcterms:subject": {
            "en": "agricultural assistance;architectural heritage;architecture",
            "fr": "commerce ext\u00e9rieur;finances;viande"
        },
        "description": {
            "en": "What this program offers. Step 1. What this program offers. For more information, visit. How is my AgriInvest Deposit Calculated?Your AgriInvest account grows as you make deposits, receive matching government contributions and earn interest. La Financi\u00e8re agricole. .Previous-next document navigation - bottom.",
            "fr": "Agri-investissement - \u00c9tape 1. Ce qu'offre ce programme. Agri-investissement est l\u2019un des programmes de gestion des risques de l\u2019entreprise aux termes du Partenariat canadien pour l\u2019agriculture (PCA), un investissement de 3 milliards de dollars sur cinq ans par les gouvernements f\u00e9d\u00e9ral, provinciaux et territoriaux qui vise \u00e0 renforcer le secteur de l\u2019agriculture et de l\u2019agroalimentaire.Agri-investissement est un compte d'\u00e9pargne producteur-gouvernement autog\u00e9r\u00e9 qui vous aide \u00e0 g\u00e9rer de petites baisses de revenu et \u00e0 faire des investissements dans le but d'att\u00e9nuer les risques et d'am\u00e9liorer le revenu du march\u00e9.Chaque ann\u00e9e, vous pouvez d\u00e9poser la totalit\u00e9 de vos ventes nettes ajust\u00e9es dans votre compte Agri-investissement et recevoir une contribution de contrepartie du gouvernement jusqu'\u00e0 concurrence de 1\u00a0% de ce montant. .Pour obtenir des renseignements d\u00e9taill\u00e9s sur le programme, consultez les."
        },
        "language": {
            "en": "eng",
            "fr": "fra"
        },
        "keywords": {
            "en": null,
            "fr": "Suis-je;\u00e9pargne producteur-gouvernement autog\u00e9r\u00e9"
        },
        "audience": {
            "en": "gcaudience",
            "fr": "gcaudience"
        },
        "type": {
            "en": "business plan",
            "fr": "accord"
        },
        "creator": {
            "en": "Agriculture and Agri-Food Canada;Government of Canada",
            "fr": "Agriculture et Agroalimentaire Canada;Gouvernement du Canada"
        },
        "spatial": {
            "en": "gcregions",
            "fr": "gcregions"
        },
        "service": {
            "en": "AAFC-AAC",
            "fr": "AAFC-AAC"
        },
        "accessRights": {
            "en": "2",
            "fr": "2"
        },
        "legalName": {
            "en": "agriculture_and_agri_food_canada",
            "fr": "agriculture_et_agroalimentaire_canada"
        },
        "areaServed": {
            "en": "Canada",
            "fr": "Canada"
        }
    },
    "h1": {
        "en": "AgriInvest - Step 1. What this program offers",
        "fr": "Agri-investissement - \u00c9tape 1. Ce qu'offre ce programme"
    },
    "js": {
        "en": "",
        "fr": ""
    },
    "body": {
        "en": "\r\n    <div class=\"mrgn-tp-md mrgn-bttm-lg brdr-bttm\">\n\n<div class=\"row\">\n<ul class=\"toc lst-spcd col-md-12 list-unstyled\">\n<li class=\"col-md-4 col-sm-6\"><span class=\"list-group-item active\">Step 1. What this program offers</span></li>\n<li class=\"col-md-4 col-sm-6\"><span class=\"list-group-item\"><a href=\"?id=1291836203250\">Step 2. Who is eligible</a></span></li>\n<li class=\"col-md-4 col-sm-6\"><span class=\"list-group-item\"><a href=\"?id=1463428090546\">Step 3. How to apply</a></span></li>\n<li class=\"col-md-4 col-sm-6\"><span class=\"list-group-item\"><a href=\"?id=1549485507708\">Step 4. After you apply</a></span></li>\n<li class=\"col-md-4 col-sm-6\"><span class=\"list-group-item\"><a href=\"?id=1463488151850\">Step 5. Managing your account</a></span></li>\n<li class=\"col-md-4 col-sm-6\"><span class=\"list-group-item\"><a href=\"?id=1549485586652\">Resources</a></span></li>\n<li class=\"col-md-4 col-sm-6\"><span class=\"list-group-item\"><a href=\"?id=1374687910526\">Contact information</a></span></li>\n</ul>\n</div>\n</div>\n\n<div class=\"alert alert-info\" role=\"alert\">\n<h2>Apply today to be a National Program Advisory Committee member</h2>\n<p>Agriculture and Agri-Food Canada (AAFC) is seeking experienced, engaged and enthusiastic members of the public to serve as committee members on the National Program Advisory Committee (NPAC). NPAC provides advice and guidance with respect to the administration of the Business Risk Management suite of programs (AgriStability, AgriInvest, AgriInsurance, AgriRecovery and AgriRisk). To learn more about NPAC and how to apply for the 11 vacant positions, visit <a href=\"?id=1619709127392\">Ministerial Appointments: National Program Advisory Committee member</a>.</p>\n</div>\n\n<h2 id=\"a1\">Step 1. What this program offers</h2>\n<p>AgriInvest is one of the Business Risk Management programs under the <cite>Canadian Agricultural Partnership</cite> (CAP) five-year, $3 billion investment by federal, provincial and territorial governments to strengthen the agriculture and agri-food sector.</p>\n<p>AgriInvest is a self-managed producer-government savings account designed to help you manage small income declines and make investments to manage risk and improve market income.</p>\n<p>Each year, you can deposit up to 100% of your Allowable Net Sales to your AgriInvest account and receive a matching government contribution on 1% of your Allowable Net Sales. For more information, visit <a href=\"?id=1292339868412#a3\">How is your deposit calculated?</a></p>\n\n<p>Your AgriInvest account grows as you make deposits, receive matching government contributions and earn interest. You can withdraw funds from your AgriInvest account any time. Funds are withdrawn from your account in the following order:</p>\n\n<ul>\n <li>Fund 2 \u2013 government contributions and interest (included in income for tax purposes)</li>\n <li>Fund 1 \u2013 your deposits (not taxable)</li>\n</ul>\n\n<p class=\"mrgn-tp-sm\">For more information on participating, visit <a href=\"?id=1291836203250#a1\">Who is eligible?</a> and <a href=\"?id=1463428090546#a1a\">How to apply</a>. </p>\n<p>For detailed program information, access the <a href=\"?id=1549485586652#guides\">AgriInvest Program Guidelines</a>. </p>\n\n<div class=\"well well-small\"><p><b>Note:</b> AgriInvest is delivered by the federal government in all provinces except Quebec.</p>\n  <p>In Quebec, AgriInvest is delivered provincially by <a href=\"https://www.fadq.qc.ca/en/home.html\">La Financi\u00e8re agricole</a>.</p></div>\n\n<nav>\n <h2 class=\"wb-inv\">Previous-next document navigation - bottom</h2>\n\n<div class=\"row\">\n<div class=\"col-md-12 mrgn-lft-0 mrgn-rght-0\">\n<ul class=\"pager\">\n<li class=\"next\"><a href=\"?id=1291836203250\" rel=\"next\" title=\"Step 2. Who is eligible\">Next</a></li>\n</ul>\n</div>\n</div>\n</nav>\n\r\n    ",
        "fr": "\r\n    <div class=\"mrgn-tp-md mrgn-bttm-lg brdr-bttm\">\n\n<div class=\"row\">\n<ul class=\"toc lst-spcd col-md-12 list-unstyled\">\n<li class=\"col-md-3 col-sm-6\"><span class=\"list-group-item active\">\u00c9tape 1. Ce qu'offre ce programme</span></li>\n<li class=\"col-md-3 col-sm-6\"><span class=\"list-group-item\"><a href=\"?id=1291836203250\">\u00c9tape 2. Qui est admissible</a></span></li>\n<li class=\"col-md-3 col-sm-6\"><span class=\"list-group-item\"><a href=\"?id=1463428090546\">\u00c9tape 3. Comment pr\u00e9senter une demande</a></span></li>\n<li class=\"col-md-3 col-sm-6\"><span class=\"list-group-item\"><a href=\"?id=1549485507708\">\u00c9tape 4. Apr\u00e8s avoir pr\u00e9sent\u00e9 votre demande</a></span></li>\n<li class=\"col-md-3 col-sm-6\"><span class=\"list-group-item\"><a href=\"?id=1463488151850\">\u00c9tape 5. G\u00e9rer votre compte</a></span></li>\n<li class=\"col-md-3 col-sm-6\"><span class=\"list-group-item\"><a href=\"?id=1549485586652\">Ressources</a></span></li>\n<li class=\"col-md-3 col-sm-6\"><span class=\"list-group-item\"><a href=\"?id=1374687910526\">Pour nous joindre</a></span></li>\n</ul>\n</div>\n</div>\n\n<div class=\"alert alert-info\" role=\"alert\">\n<h2>Postuler aujourd'hui pour devenir membre du Comit\u00e9 consultatif national sur les programmes</h2>\n<p>Agriculture et Agroalimentaire Canada (AAC) est \u00e0 la recherche de membres du public exp\u00e9riment\u00e9s, engag\u00e9s et enthousiastes pour si\u00e9ger \u00e0 titre de membre du Comit\u00e9 consultatif national sur les programmes (CCNP). Le CCNP fournit des conseils et une orientation concernant l'administration des programmes de gestion des risques de l'entreprise (Agri-stabilit\u00e9, Agri-investissement, Agri-protection, Agri-relance et Agri-risque). Pour en savoir plus sur le CCNP et comment postuler aux 11 postes vacants, visitez <a href=\"?id=1619709127392\">Nominations effectu\u00e9es par le ministre\u00a0: Comit\u00e9 consultatif national sur les programmes\u00a0\u2014 membre</a>.</p>\n</div>\n\n<h2 id=\"a1\">\u00c9tape 1. Ce qu'offre ce programme</h2>\n<p>Agri-investissement est l\u2019un des programmes de gestion des risques de l\u2019entreprise aux termes du <cite>Partenariat canadien pour l\u2019agriculture</cite> (PCA), un investissement de 3 milliards de dollars sur cinq ans par les gouvernements f\u00e9d\u00e9ral, provinciaux et territoriaux qui vise \u00e0 renforcer le secteur de l\u2019agriculture et de l\u2019agroalimentaire.</p>\n\n<p>Agri-investissement est un compte d'\u00e9pargne producteur-gouvernement autog\u00e9r\u00e9 qui vous aide \u00e0 g\u00e9rer de petites baisses de revenu et \u00e0 faire des investissements dans le but d'att\u00e9nuer les risques et d'am\u00e9liorer le revenu du march\u00e9.</p>\n\n<p>Chaque ann\u00e9e, vous pouvez d\u00e9poser la totalit\u00e9 de vos ventes nettes ajust\u00e9es dans votre compte Agri-investissement et recevoir une contribution de contrepartie du gouvernement jusqu'\u00e0 concurrence de 1\u00a0% de ce montant. Pour en savoir davantage \u00e0 ce sujet, consultez le document \n<a href=\"?id=1292339868412#a3\">Comment calcule-t-on votre d\u00e9p\u00f4t?</a></p>\n\n<p>Votre compte Agri-investissement grossit gr\u00e2ce \u00e0 vos d\u00e9p\u00f4ts annuels, aux contributions gouvernementales de contrepartie et aux int\u00e9r\u00eats. Vous pouvez retirer des fonds de votre compte Agri-investissement en tout temps. Les fonds sont retir\u00e9s de votre compte dans l'ordre suivant\u00a0:</p>\n<ul>\n <li>Fonds 2 \u2013 contributions de contrepartie du gouvernement et int\u00e9r\u00eats (inclus dans les revenus aux fins de l\u2019imp\u00f4t sur le revenu);</li>\n <li>Fonds 1 \u2013 vos d\u00e9p\u00f4ts (non imposables).</li>\n</ul>\n\n<p class=\"mrgn-tp-sm\">Pour en savoir davantage sur la participation au programme, consultez les documents <a href=\"?id=1291836203250#a1\">Qui est admissible?</a> et <a href=\"?id=1463428090546#a1a\">Comment pr\u00e9senter une demande</a>.</p>\n<p>Pour obtenir des renseignements d\u00e9taill\u00e9s sur le programme, consultez les <a href=\"?id=1549485586652#guides\">Lignes directrices du programme Agri-investissement</a>. </p>\n\n<div class=\"well well-small\"><p><b>Note:</b> Le programme Agri-investissement est mis en \u0153uvre par le gouvernement f\u00e9d\u00e9ral dans toutes les provinces, sauf au Qu\u00e9bec.</p>\n  <p>Au Qu\u00e9bec, le programme Agri-investissement est mis en \u0153uvre par <a href=\"https://www.fadq.qc.ca/fr/accueil/\">La Financi\u00e8re agricole</a>.</p></div>\n\n<nav>\n <h2 class=\"wb-inv\">Navigation du document - pr\u00e9c\u00e9dente-suivante - bas</h2>\n\n<div class=\"row\">\n<div class=\"col-md-12 mrgn-lft-0 mrgn-rght-0\">\n<ul class=\"pager\">\n<li class=\"next\"><a href=\"?id=1291836203250\" rel=\"next\" title=\"\u00c9tape 2. Qui est admissible\">Suivante</a></li>\n</ul>\n</div>\n</div>\n</nav>\n\r\n    "
    }
}