{
    "dcr_id": "1600996008758",
    "title": {
        "en": "Emergency On-Farm Support Fund: Applicant guide",
        "fr": "Fonds d\u2019urgence pour les mesures de soutien \u00e0 la ferme : Guide du demandeur"
    },
    "modified": "2021-03-22",
    "issued": "2020-10-05",
    "templatetype": "content page 1 column",
    "page_type": "1",
    "node_id": "1601551092013",
    "dc_date_created": "2020-10-05",
    "managing_branch": "PAB",
    "parent_node_id": "1601551054477",
    "short_title": "",
    "exturl": "",
    "teamsite_location": {
        "en": "/default/main/AAFC-AAC/Internet-Internet/Group-Ensemble/ProgServ-ProgServ/WORKAREA/ProgServ-ProgServ/templatedata/comm-comm/gene-gene/data/09/eofsf-fumsf_5_application-guide_1600996008758_en",
        "fr": "/default/main/AAFC-AAC/Internet-Internet/Group-Ensemble/ProgServ-ProgServ/WORKAREA/ProgServ-ProgServ/templatedata/comm-comm/gene-gene/data/09/eofsf-fumsf_5_application-guide_1600996008758_fr"
    },
    "type_name": "sitemapinit",
    "has_dcr_id": true,
    "label": {
        "en": "Emergency On-Farm Support Fund: Applicant guide",
        "fr": "Fonds d\u2019urgence pour les mesures de soutien \u00e0 la ferme : Guide du demandeur"
    },
    "breadcrumb": {
        "en": "Emergency On-Farm Support Fund: Applicant guide",
        "fr": "Fonds d\u2019urgence pour les mesures de soutien \u00e0 la ferme : Guide du demandeur"
    },
    "layout_name": "content page 1 column",
    "lang": "en",
    "refaire": false,
    "meta": {
        "viewport": {
            "en": "width=device-width,initial-scale=1",
            "fr": "width=device-width, initial-scale=1"
        },
        "issued": {
            "en": "2020-10-05",
            "fr": "2020-10-05"
        },
        "modified": {
            "en": "2021-03-22",
            "fr": "2021-03-22"
        },
        "format": {
            "en": "text/html",
            "fr": "text/html"
        },
        "title": {
            "en": "Emergency On-Farm Support Fund: Applicant guide",
            "fr": "Fonds d\u2019urgence pour les mesures de soutien \u00e0 la ferme : Guide du demandeur"
        },
        "subject": {
            "en": "trade agreements;rapeseed oil;business risk management",
            "fr": "politique agricole;\u00e9valuation environnementale strat\u00e9gique;gestion de l'exploitation agricole"
        },
        "dcterms:subject": {
            "en": "architecture;trade;statistics",
            "fr": "maladie;cultures;politique"
        },
        "description": {
            "en": "Some sections of these materials have been redacted based on the. With respect to market diversification, discussions have focused on increasing opportunities for canola-based biofuels both domestically and in the European Union, as well as on increasing exports to growing Asian markets.On May 1, 2019, the GOC announced enhanced financial support to producers through the implementation of the new regulations to strengthen the Advance Payments Program (APP). The amendments increase loan limits from $400,000 to $1 million for all producers on a permanent basis and increase the interest-free portion of loans on canola advances from $100,000 to $500,000 in the 2019 program year. In 2019, Canadian canola seed exports to China were valued at $822.8 million (1,544.6 thousand tonnes), which represents a 71% decline from 2018 canola seed exports of $2.8 billion (4,872.9 thousand tonnes).Market diversification efforts have seen canola seed exports increase significantly in specific markets.",
            "fr": "treecodes.length; i++) { var thistree=treecodes[i]; var myvalue=document.treecalc[thistree].value; if (myvalue==\"\") { myvalue=0;} totalRowLength+=parseInt(myvalue); if (document.treecalc.units[1].checked) { //spacing in metres if (thistree==\"ah\";;thistree==\"cc\") { totalTrees+=document.treecalc[thistree+\"x\"].value=Math.round(myvalue/1); } else { totalTrees+=document.treecalc[thistree+\"x\"].value=myvalue/3.5; } } else { //spacing in feet if (thistree==\"ah\";;thistree==\"cc\") { totalTrees+=document.treecalc[thistree+\"x\"].value=Math.round(myvalue/3); } } } document.treecalc.total.value = totalRowLength; document.treecalc.totalx.value = totalTrees; } function myalert() { alert (\"You're not supposed to type anything in Trees Required field.\"); additup(); } function filterNonNumeric(field) { var result = new String(); var numbers = \"0123456789\"; var chars = field.value.split(\"\"); // create array for (i = 0; i. Alternative Formats. Donec ultricies enim vel massa dapibus luctus vel sed odio. The asterisk is to be presented in. plain text."
        },
        "language": {
            "en": "eng",
            "fr": "fra"
        },
        "keywords": {
            "en": "closed.Purpose;Asia.We",
            "fr": "Tableaux;TO FOLLOW"
        },
        "audience": {
            "en": "gcaudience",
            "fr": "gcaudience"
        },
        "type": {
            "en": "notice",
            "fr": "pr\u00e9sentation"
        },
        "creator": {
            "en": "Agriculture and Agri-Food Canada;Government of Canada",
            "fr": "Agriculture et Agroalimentaire Canada;Gouvernement du Canada"
        },
        "spatial": {
            "en": "gcregions",
            "fr": "gcregions"
        },
        "service": {
            "en": "AAFC-AAC",
            "fr": "AAFC-AAC"
        },
        "accessRights": {
            "en": "2",
            "fr": "2"
        },
        "legalName": {
            "en": "agriculture_and_agri_food_canada",
            "fr": "agriculture_et_agroalimentaire_canada"
        },
        "areaServed": {
            "en": "Canada",
            "fr": "Canada"
        }
    },
    "h1": {
        "en": "Emergency On-Farm Support Fund: Applicant guide",
        "fr": "Fonds d\u2019urgence pour les mesures de soutien \u00e0 la ferme : Guide du demandeur"
    },
    "js": {
        "en": "",
        "fr": ""
    },
    "body": {
        "en": "\r\n     \n\n<div class=\"mrgn-tp-md mrgn-bttm-lg brdr-bttm\">\n<div class=\"row\">\n<ul class=\"toc lst-spcd col-md-12 list-unstyled\">\n<li class=\"col-md-4 col-sm-6\"><span class=\"list-group-item\">Step 1. <a href=\"?id=1600991301312\">What this program offers</a></span></li>\n\n<li class=\"col-md-4 col-sm-6\"><span class=\"list-group-item\">Step 2. <a href=\"?id=1600991389325\">Who is eligible</a></span></li>\n\n<li class=\"col-md-4 col-sm-6 clr-lft-sm\"><span class=\"list-group-item\">Step 3. <a href=\"?id=1600991495717\">How to apply</a></span></li>\n\t\n<li class=\"col-md-4 col-sm-6 clr-lft-sm\"><span class=\"list-group-item\">Step 4. <a href=\"?id=1600991170888\">After you apply</a></span></li>\t\n\n<li class=\"col-md-4 col-sm-6\"><span class=\"list-group-item active\">Applicant guide</span></li>\n\n<li class=\"col-md-4 col-sm-6\"><span class=\"list-group-item\"><a href=\"?id=1600991845228\">Contact information</a></span></li>\n</ul>\n</div>\n</div>\n\n\n<h2>Applicant guide</h2>\n<div class=\"alert alert-info\">\n   <p>The application intake period has closed.</p>\n</div>\n\n<p>Revised January 2021</p>\n\n<p><b>Purpose of this guide</b></p>\n<p>This guide will:</p>\n\n<ol class=\"lst-spcd\">\n <li>help you determine if you may be eligible for funding from Agriculture and Agri-Food Canada (AAFC) under the Emergency On-Farm Support Fund (EOFSF)</li>\n <li>provide you with instructions and explanations to assist you in completing the application </li>\n</ol>\n\n<nav>\n<h3 class=\"h4\">Table of contents</h3> \n\n<ul class=\"list-unstyled\">\n <li><a href=\"#a1\"><span class=\"badge\">New</span> 1.0 About the Emergency On-Farm Support Fund</a></li>\n <li><a href=\"#a2\">2.0 Eligible applicants</a>\n <ul class=\"list-unstyled mrgn-lft-lg\">\n <li><a href=\"#a2.1\"><span class=\"badge\">Updated</span> 2.1 Eligible safety measures</a></li>\n <li><a href=\"#a2.2\">2.2 Retroactivity</a></li>\n <li><a href=\"#a2.3\"><span class=\"badge\">Updated</span> 2.3 Ineligible safety measures</a></li>\n <li><a href=\"#a2.4\">2.4 Funding and cost-sharing</a></li>\n </ul>\n</li>\n<li><a href=\"#a3\">3.0 Application process</a>\n <ul class=\"list-unstyled mrgn-lft-lg\">\n <li><a href=\"#a3.1\"><span class=\"badge\">New</span> 3.1 Submit an application</a></li>\n <li><a href=\"#a3.2\">3.2 Assessment and approval</a></li>\n <li><a href=\"#a3.3\">3.3 Service standards</a></li>\n <li><a href=\"#a3.4\">3.4 Contribution Agreement and Claim for Reimbursement</a></li>\n <li><a href=\"#a3.5\">3.5 Payment issued</a></li>\n </ul>\n </li>\n<li><a href=\"#a4\">4.0 Official Languages</a></li>\n<li><a href=\"#a5\">5.0 Reporting</a></li>\n<li><a href=\"#a6\">6.0 Contact information</a></li>\n <li><a href=\"?id=1601053864516\">Annex A: How to complete the application </a></li>\n</ul>\n</nav>\n\n<h3 id=\"a1\">1.0 About the Emergency On-Farm Support Fund</h3>\n\n<p>The Emergency On-Farm Support Fund  was <a href=\"https://www.canada.ca/en/employment-social-development/news/2020/07/government-of-canada-invests-in-measures-to-boost-protections-for-temporary-foreign-workers-and-address-covid-19-outbreaks-on-farms.html\">announced</a> on July 31, 2020 and provides $35 million to boost protections for domestic and temporary foreign workers and address COVID-19 outbreaks on farms.</p>\n\n<p>The program will provide up to $100,000 per recipient (that is, per farm/operation) in non-repayable funding for emergency COVID-19 response activities.</p>\n\n<p>Eligible activities can be retroactive to March 15, 2020 and must be completed by February 26, 2021. </p>\n\n<div class=\"well\">\n<p>Agriculture and Agri-Food Canada (AAFC) is administering the program to producers in Yukon, Northwest Territories, Alberta, Saskatchewan, Nunavut, Manitoba, New Brunswick and Newfoundland and Labrador.</p>\n<p>In British Columbia, Ontario, Quebec, Nova Scotia and Prince Edward Island, the program will be delivered by the <a href=\"?id=1600991495717#pa\">provincial government or other agency</a>.</p>\n</div>\n\n<h3 id=\"a2\">2.0 Eligible applicants</h3>\n \n<p>Eligible recipients are primary agricultural producers (for example, a farm, ranch or other operation) that produce agricultural products for resale and employ farm workers (domestic and temporary foreign workers). They can include:</p>\n<ul>\n <li>sole proprietors</li>\n <li>partnerships</li>\n <li>corporations/cooperatives/communal organizations</li>\n <li>trusts</li>\n <li>band farms</li>\n</ul>\n \n<p>Aquaculture production is not eligible under the program.</p>\n\n<p>Applicants do not have to have registered temporary foreign workers to be eligible.</p>\n\n<p>Applicants will need to declare in the application that they are adhering to all applicable measures of the <cite><a href=\"https://laws-lois.justice.gc.ca/eng/acts/q-1.1/page-1.html\">Quarantine Act</a></cite>, including but not limited to the mandatory 14-day quarantine period for temporary foreign workers.</p>\n \n <p>Should AAFC become aware of an applicant breaching any part of those requirements, the recipient will no longer be eligible for the funding. Any amounts already paid to the recipient will be considered a debt to the Crown.</p>\n<h4 id=\"a2.1\"><span class=\"badge\">Updated</span> 2.1 Eligible safety measures</h4>\n\n<p>Eligible expenses include:</p>\n<ul>\n <li>On-farm retrofit or adjustments to existing agricultural operations to cover extraordinary costs associated with COVID-19 to ensure worker safety, such as:\n <ul>\n <li>added sanitation (cleaning and disinfection) and security requirements</li>\n <li>adjustments to current processes and processing stations to accommodate physical distancing </li>\n <li>adjustment to transportation to ensure physical distancing during movement on-farm or between off-farm accommodations and on-farm</li>\n <li>HVAC modifications or upgrades</li>\n <li>equipment such as safety barriers (Plexiglass dividers)</li>\n <li><span class=\"badge\">Updated</span> purchase/rental/lease of additional housing on farm for workers (for example, temporary and portable buildings) and/or installations/site modifications related to COVID-19 measures (this does not include long term investments such as permanent additions to existing buildings, new buildings, or purchases of real estate/land). Off-farm housing options are eligible where required for prevention of the spread of COVID-19 or control where an outbreak of COVID-19 is confirmed.</li>\n <li>site modifications and/or transportation for wellness checks </li>\n <li>disinfection and cleaning in the event of a farm outbreak</li>\n</ul>\n</li>\n <li>Costs for disposable and non-disposable personal protective equipment that are incremental to normal operations due to COVID-19, such as:\n <ul>\n <li>body temperature screening/fever detection systems, including thermal scanners </li>\n <li>washing stations </li>\n <li>workstation dividers </li>\n <li>full and half face-piece respirators </li>\n <li>impact goggles and face shields </li>\n <li>face masks and coverings, including N95 masks </li>\n <li>sanitizers and cleaning products </li>\n <li>particulate filters and gas/vapor cartridges </li>\n <li>safety glasses </li>\n <li>disposable gloves</li>\n</ul>\n</li>\n\n<li>Costs related to worker training and safety COVID-19 protocols, such as:\n<ul>\n <li>interpretation services</li>\n <li>training on COVID-19 protocols</li>\n</ul>\n</li>\n</ul>\n<h4 id=\"a2.2\">2.2 Retroactivity</h4>\n\n<p>Eligible activities can be retroactive to March 15, 2020 and must be completed by February 26, 2021.</p>\n\n<p>While the program allows for retroactive activities and costs to be submitted, the applicant assumes the risk of not being reimbursed if:</p>\n\n<ul>\n<li>the application is not approved</li>\n<li>costs exceed the maximum allowed under the program</li>\n<li>some activities or costs are not approved or deemed ineligible</li>\n <li>funding is not available</li>\n</ul>\n\n<h4 id=\"a2.3\"><span class=\"badge\">Updated</span> 2.3 Ineligible safety measures</h4>\n\n<p>Ineligible expenses include, but are not limited to:</p>\n<ul>\n <li>on-going operational costs not associated with COVID-19</li>\n <li>labour and meal expenses, other than those related to the prevention and control of COVID-19</li>\n <li>expenses related to retail or other on-site sales activities </li>\n <li>personal protective equipment that was required pre-COVID-19</li>\n <li>costs associated with <cite><a href=\"https://laws-lois.justice.gc.ca/eng/acts/q-1.1/page-1.html\">Quarantine Act</a></cite> for isolation of temporary foreign workers</li>\n <li>regular capital (which are capital expenditures made in the ordinary course of business) and machinery costs</li>\n <li><span class=\"badge\">Updated</span> long term investments such as permanent additions to existing buildings, new buildings, and real estate/land purchases</li>\n</ul>\n \n<h4 id=\"a2.4\">2.4 Funding and cost-sharing</h4>\n\n <p>The program will provide up to $100,000 per recipient (that is, per farm/operation) in non-repayable funding for emergency COVID-19 response activities. </p>\n \n <p>The contribution will cover costs associated with disposable personal protective equipment (PPE), up to a maximum of $10,000.</p>\n \n <h5>Cost sharing</h5>\n\n<p>The support is provided based on a 50/50 cost shared ratio. The federal government will provide half of the cost of implementing the safety measures, while the applicant provides the remaining half. The cost share will be 60/40 for applicants where the majority of the farm (more than 50%) is owned by one or more under-represented group. Under-represented groups include:</p>\n\n<ul>\n<li>Women</li>\n<li>Youth, aged 30 or under</li>\n<li>Indigenous </li>\n<li>Visible minorities</li> \n<li>Persons with disabilities</li>\n</ul>\n \n <h5>Sources of funding</h5>\n \n <p>Applicants must clearly indicate all sources of funding for the project. Sources of funding can be comprised of cash contributions from other sources including those from:</p>\n \n<ul>\n <li>the applicant </li>\n <li>provincial/territorial government departments and agencies</li>\n <li>industry/partners</li>\n </ul>\n <h3 id=\"a3\">3.0 Application process</h3>\n \n \n <figure class=\"mrgn-bttm-md\">\n\n<img class=\"img-responsive\" src=\"http://multimedia.agr.gc.ca/pack/img/eofsf-fumsf_app-guide-eng.jpg\" alt=\"Description of this image follows.\">\n \n<details>\n<summary>Description of above image</summary>\n \n <ul class=\"list-unstyled lst-spcd\">\n<li>Step 1. Submit an application</li>\n<li>Step 2. Assessment and approval</li>\n<li>Step 3. Contribution Agreement and Claims for Reimbursement</li>\n<li>Step 4. Payment issued</li>\n</ul>\n</details>\n</figure>\n \n \n <h4 id=\"a3.1\">3.1 Submit an application</h4>\n\n<p>All activities must be completed by February 26, 2021. For the provinces where AAFC is administering the program, the applications will be reviewed as they are received and priority will be given to the highest risk farms for COVID-19 outbreaks.</p>\n\n<p>You can submit only one completed application for your operation. </p>\n\n<p>Applicants are encouraged to submit their applications by email. </p>\n\n\n <h3 class=\"h4 text-success\" id=\"pa\">If you are an agricultural producer in British Columbia, Ontario, Quebec, Nova Scotia and Prince Edward Island</h3>\n\n<p>The <a href=\"?id=1600991495717#pa\">program will be delivered by the provincial government or other agency</a>.</p>\n\n <h3 class=\"h4 text-success\">If you are an agricultural producer in Yukon, Northwest Territories, Alberta, Saskatchewan, Nunavut, Manitoba, New Brunswick and Newfoundland and Labrador</h3>\n\n<p>Complete the following steps and apply directly to Agriculture and Agri-Food Canada.</p>\n\n<h3>1. Complete the application</h3>\n\n<section class=\"mrgn-tp-lg\" id=\"pdfforms\">\n<div class=\"alert alert-warning\">\n\n<h5>PDF forms</h5>\n\n<p>If you have problems opening a PDF form in your Internet browser, you need to:</p>\n<ul class=\"mrgn-tp-md\">\n <li>Use your computer. <strong>The forms may not open on mobile devices (iPads, tablets, mobile phones)</strong>.</li>\n <li>Make sure you have Adobe Reader 11 (or higher) already installed on your computer. If not, download <a href=\"http://get.adobe.com/reader/otherversions/\" rel=\"external\">Adobe Reader 11 or higher</a> for free. Adobe has help for <a href=\"https://helpx.adobe.com/ca/acrobat/kb/cant-view-pdf-web.html\" rel=\"external\">solving common issues</a>.</li>\n <li>You must <strong>save the file on your computer</strong> in a place you can remember.</li>\n<li>Open the file on your computer using <a href=\"http://get.adobe.com/reader/otherversions/\" rel=\"external\">Adobe Reader 11 or higher</a>.</li>\n<li>If you can't open the form with Adobe Reader 11 or higher, <a href=\"?id=1600991845228\">contact the program</a>.</li>\n</ul>\n\n\n    <h6 class=\"lead mrgn-bttm-0\">How to download and open a PDF form</h6>\n\n\n<ul class=\"list-unstyled\">\n\n\n\t<li>\n<details class=\"mrgn-tp-sm\">\n    <summary>Microsoft Windows Operating System computers using \"Internet Explorer\" or \"Microsoft Edge\" as your browser</summary>\n    <ol>\n      <li>Right-click on the link you want to save</li>\n      <li>Select \"Save target as\" or \"Save link as\"</li>\n      <li>Choose the location on your computer where you would like to save the file</li>\n      <li>Select \"Save\"</li>\n      <li>Open Adobe Reader 11 or higher</li>\n      <li>Select \"File\"</li> \n      <li>Select \"Open\"</li>\n      <li>Go to the location where you saved the file</li> \n      <li>Select the PDF file</li>\n      <li>Select \"Open\"</li>\n    </ol>\n    </details>\n</li>\n\n<li>\n<details class=\"mrgn-tp-sm\">\n<summary>Microsoft Windows Operating System or Apple computers using \"Chrome\" or Firefox\" as your browser</summary>\n    <ol>\n      <li>Right-click on the link you want to save</li>\n      <li>When the option menu appears, choose \"Download link file\" or \"Download link file as\"</li>\n      <li>Choose the location on your computer where you would like to save  the file. Your computer will start the download once you have selected a  location.</li>\n<li>Open Adobe Reader 11 or higher</li>\n      <li>Go to the location where you saved the file</li> \n      <li>Select the PDF file</li>\n      <li>Select \"Open\"</li>\n    </ol>\n    </details>\n</li>\n</ul>\n\n</div>\n</section>\n\n<p>To apply to the Emergency On-Farm Support Fund, download and complete the application.  Follow the instructions in <a href=\"?id=1601053864516\">Annex A: How to complete the application</a> to complete the application.</p>\n\n<p>Applicants may apply for costs that  were incurred on or after March 15, 2020 (\"retroactive costs\"). While  the program allows for retroactive costs to be submitted, the applicant assumes  the risk of not being reimbursed if:</p>\n\n<ul>\n  <li>some costs are not approved or deemed ineligible</li>\n  <li>costs exceed the maximum allowed under the program</li>\n  <li>all applicable measures of the <cite>Quarantine Act</cite> were       not adhered to</li>\n  <li>funding is not available</li>\n</ul>\n\n\n<h3>2. Submit your completed application</h3>\n\n<p>Applicants are encouraged to submit their applications by email. </p>\n\n<p><a href=\"?id=1600991845228\">Contact the program</a> to:</p>\n<ul>\n<li>submit a completed application by email, mail, or fax</li>\n<li>request changes to a submitted application (do not resubmit a new application form)</li>\n<li>withdraw an application</li>\n</ul> \n\n<p>Submitting an  application creates no obligation on the part of Agriculture and Agri-Food Canada to  provide funding. Funding is only provided through a <a href=\"?id=1550849115702\">Contribution  Agreement</a>.</p>\n\n \n <h4 id=\"a3.2\">3.2 Assessment and approval</h4>\n \n <p>Once you have submitted your application, the application will be assessed against the following:</p>\n \n <ul>\n <li>completeness of the application form</li>\n <li>eligibility criteria</li>\n <li>proposed costs for Eligible Activities</li>\n </ul>\n <p><b>Note:</b> We will acknowledge receipt of your application. You should not consider your  application as submitted to the program until you receive an acknowledgement notice.</p>\n \n <h4 id=\"a3.3\">3.3 Service standards</h4>\n <p>AAFC's goal is to:</p>\n <ul>\n<li>respond to general inquiries made to the program's phone number or email address before the end of the next business day</li>\n<li>acknowledge receipt of applications by email within 1 business day (if you submit your application by mail or fax it may take longer to receive an acknowledgement)</li>\n<li>process your application within 50 business days</li>\n<li>process your payment within 30 business days upon receipt of a completed claim form and signed Contribution Agreement</li>\n </ul>\n\n <h4 id=\"a3.4\">3.4 Contribution Agreement and Claim for Reimbursement</h4>\n \n<h5>Contribution agreement</h5>\n\n<p>Successful applicants will receive a <a href=\"?id=1550849115702\">Contribution Agreement</a> from Agriculture and Agri-Food Canada outlining the level of assistance awarded as well as a document providing step-by-step instructions on how to complete a claim for reimbursement. A Direct Deposit Registration Form will be enclosed with the Contribution Agreement.</p>\n\n<div class=\"well\">\n<p>Only one project or agreement is allowed per farm/operation.</p>\n</div>\n\n<h5>Claim for reimbursement</h5>\n\n<p>In order to receive a claim for reimbursement, you must first sign and return the Contribution Agreement and submit your completed claim form(s) and Direct Deposit Registration Form. Where possible, we encourage you to submit your forms by email.</p>\n\n <h4 id=\"a3.5\">3.5 Payment issued</h4>\n \n<p>You will receive a payment by direct deposit or cheque once the claim documentation is received and processed by AAFC.</p>\n<p>AAFC's goal is to process your payment within 30 business days upon receipt of a completed claim form and signed <a href=\"?id=1550849115702\">Contribution Agreement</a>.</p>\n\n\n<h3 id=\"a4\">4.0  Official Languages</h3>\n\n<p>AAFC is committed to enhancing the vitality of official language minority communities (OLMCs), supporting and assisting their development, and promoting the full recognition and use of both English and French in Canadian society.</p>\n\n<p>OLMCs consist of Francophones outside Quebec and Anglophones in Quebec. These communities are often represented by provincial and regional organizations.</p>\n\n<p>When it is determined that projects under this program involve activities related to the development and transfer of knowledge and may have an impact on OLMCs or promote the use of English and French, AAFC will include appropriate linguistic commitments in agreements with your organization and ensure that additional expenses incurred as a result of these commitments are considered eligible for contribution funding.</p>\n\n<p>Activities can include, but are not limited to:</p>\n<ul class=\"lst-spcd\">\n<li><b>Communications</b>\n<ul> \n<li>project web pages and/or project social media account(s) produced and maintained in both official languages</li>\n<li>project materials offered in both official languages (brochures, kits, handouts, newsletters, reports, etc.)</li>\n<li>directional and educational signs produced in both official languages</li>\n<li>project-related advertisement in OLMC media (newspapers, radio, social media)</li>\n<li>bilingual coordinator or other contractor hired to help deliver project-related activities in both official languages (for example, master of ceremony for a project event, workshop facilitator or simultaneous translator)</li>\n<li>distribution of invitations in both official languages</li>\n</ul>\n</li>\n\n<li><b>Outreach</b>\n<ul> \n<li>one or more OLMCs are included in the project target groups (for example, as in-kind or cash partners in project budget or to be invited to project events)</li>\n<li>other groups representing OLMCs are consulted to see if there is any potential for involvement on their end</li>\n<li>travel to or from OLMCs (costs associated with these project activities included in project budget)</li>\n</ul>\n</li>\n</ul>\n\n<p>If funded, the recipient may be required to publicly acknowledge AAFC's support for the project. In these cases, the department will request that such acknowledgments include text in both official languages.</p>\n\n\n<h3 id=\"a5\">5.0 Reporting</h3>\n\n<p>Recipients will be required to report on expenditures, performance and results.</p>\n\n<h4>Performance and results report</h4>\n\n<p>Recipients will be required to provide a final report which should include a short summary on the impact that the activity has had on the operations.</p>\n\n<h4>Budgetary reports</h4>\n\n<p>Recipients must retain copies of quotes, invoices, and proof of payment for eligible project costs incurred. An expenditure report is required with requests for reimbursement and may require proof of purchase up to 100% of total costs.</p>\n\n<h3 id=\"a6\">6.0 Contact information</h3>\n\n<p>For more information on the Emergency On-Farm Support Fund contact the program by:</p>\n\n<p><b>Email:</b> <a href=\"mailto:aafc.EOFSF-FUMSF.aac@canada.ca\">aafc.EOFSF-FUMSF.aac@canada.ca</a></p>\n\n\n<p><b>Mail:</b><br>\n Agriculture and Agri-Food Canada<br>\n Emergency On-Farm Support Fund<br>\n Box 3200<br>\n Winnipeg MB  R3C 5R7</p>\n<p><b>Telephone:</b> 1-866-367-8506<br>\n<b>Fax:</b> 1-877-949-4885</p>\n\n<nav>\n <h2 class=\"wb-inv\">Previous-next document navigation - bottom</h2>\n\n<div class=\"row\">\n<div class=\"col-md-12 mrgn-lft-0 mrgn-rght-0\">\n<ul class=\"pager\">\t\n<li class=\"previous\"><a href=\"?id=1600991170888\" rel=\"prev\" title=\"After you apply\">Previous</a></li>\t\n<li class=\"next\"><a href=\"?id=1600991845228\" rel=\"next\" title=\"Contact information\">Next</a></li>\t\n</ul>\n</div>\n</div>\n</nav>\n\r\n    ",
        "fr": "\r\n      <div class=\"mrgn-tp-md mrgn-bttm-lg brdr-bttm\">\n<div class=\"row\">\n<ul class=\"toc lst-spcd col-md-12 list-unstyled\">\n<li class=\"col-md-4 col-sm-6\"><span class=\"list-group-item\">\u00c9tape 1. <a href=\"?id=1600991301312\">Ce qu'offre le programme</a></span></li>\n\n<li class=\"col-md-4 col-sm-6\"><span class=\"list-group-item\">\u00c9tape 2. <a href=\"?id=1600991389325\">Qui est admissible</a></span></li>\n\n<li class=\"col-md-4 col-sm-6 clr-lft-sm\"><span class=\"list-group-item\">\u00c9tape 3. <a href=\"?id=1600991495717\">Comment pr\u00e9senter une demande</a></span></li>\n\n<li class=\"col-md-4 col-sm-6\"><span class=\"list-group-item\">\u00c9tape 4. <a href=\"?id=1600991170888\">Apr\u00e8s avoir pr\u00e9sent\u00e9 votre demande </a></span></li>\n\n<li class=\"col-md-4 col-sm-6\"><span class=\"list-group-item active\">Guide du demandeur</span></li>\n<li class=\"col-md-3 col-sm-6\"><span class=\"list-group-item\"><a href=\"?id=1600991845228\">Pour nous joindre</a></span></li>\n</ul>\n</div>\n</div>\n\n<h2>Guide du demandeur</h2>\n\n\n<div class=\"alert alert-info\">\n<p>La p\u00e9riode de demande est maintenant ferm\u00e9e.</p>\n</div>\n<p>R\u00e9vise en janvier 2021</p>\n\n<p><b>Objectifs du guide</b></p>\n<p>Voici les objectifs du guide :</p>\n\n<ol class=\"lst-spcd\">\n<li>Vous aider \u00e0 d\u00e9terminer si vous \u00eates admissible au financement  du Fonds d\u2019urgence pour les mesures de soutien \u00e0 la ferme (FUMSF) d\u2019Agriculture et Agroalimentaire Canada (AAC). </li>\n<li>Vous donner des instructions et des explications pour vous  aider \u00e0 remplir une demande. </li>\n</ol>\n\n<nav>\n<h3 class=\"h4\">Table des mati\u00e8res</h3> \n\n<ul class=\"list-unstyled\">\n <li><a href=\"#a1\"><span class=\"badge\">Nouveau</span> 1.0 \u00c0 propos du Fonds d'urgence pour les mesures de soutien \u00e0 la ferme</a></li>\n <li><a href=\"#a2\">2.0 Demandeurs admissibles</a>\n <ul class=\"list-unstyled mrgn-lft-lg\">\n <li><a href=\"#a2.1\"><span class=\"badge\">Mise \u00e0 jour</span> 2.1 Mesures de s\u00e9curit\u00e9 admissibles</a></li>\n <li><a href=\"#a2.2\">2.2 R\u00e9troactivit\u00e9</a></li>\n <li><a href=\"#a2.3\"><span class=\"badge\">Mise \u00e0 jour</span> 2.3 Mesures de s\u00e9curit\u00e9 non admissibles</a></li>\n <li><a href=\"#a2.4\">2.4 Financement et partage des co\u00fbts</a></li>\n </ul>\n</li>\n<li><a href=\"#a3\">3.0 Proc\u00e9dure de demande</a>\n <ul class=\"list-unstyled mrgn-lft-lg\">\n <li><a href=\"#a3.1\"><span class=\"badge\">Nouveau</span> 3.1 Soumission de la demande</a></li>\n <li><a href=\"#a3.2\">3.2 \u00c9valuation et approbation</a></li>\n <li><a href=\"#a3.3\">3.3 Normes de service</a></li>\n <li><a href=\"#a3.4\">3.4 Entente de contribution et demande de remboursement</a></li>\n <li><a href=\"#a3.5\">3.5 Paiement</a></li>\n </ul>\n </li>\n<li><a href=\"#a4\">4.0 Langues officielles</a></li>\n<li><a href=\"#a5\">5.0 Rapports</a></li>\n<li><a href=\"#a6\">6.0 Coordonn\u00e9es</a></li>\n <li><a href=\"?id=1601053864516\">Annexe A : Comment remplir une demande</a></li>\n</ul>\n</nav>\n\n<h3 id=\"a1\">1.0 \u00c0 propos du Fonds d'urgence pour les mesures de soutien \u00e0 la ferme</h3>\n\n<p>Le Fonds d'urgence pour les mesures de soutien \u00e0 la ferme, un programme de 35\u00a0millions de dollars, a \u00e9t\u00e9 <a href=\"https://www.canada.ca/fr/emploi-developpement-social/nouvelles/2020/07/xxxxxx.html\">annonc\u00e9</a> le 31\u00a0juillet\u00a02020 afin de renforcer la protection des travailleurs canadiens et des travailleurs \u00e9trangers temporaires et lutter contre les \u00e9closions de COVID-19 sur les fermes.</p>\n<p>Le programme  fournira jusqu\u2019\u00e0 100\u00a0000\u00a0dollars par b\u00e9n\u00e9ficiaire\u00a0(c\u2019est-\u00e0-dire par  exploitation) en financement non remboursable pour les activit\u00e9s d\u2019intervention  d\u2019urgence relatives \u00e0 la COVID-19. </p>\n\n<p>Les activit\u00e9s admissibles peuvent  \u00eatre r\u00e9troactives au 15\u00a0mars 2020 et doivent \u00eatre termin\u00e9es d\u2019ici le 26\u00a0f\u00e9vrier 2021.</p>\n\n\n<div class=\"well\">\n<p>Agriculture et Agroalimentaire Canada (AAC) administre le programme pour les producteurs du Yukon, des Territoires du Nord-Ouest, de l'Alberta, de la Saskatchewan, du Nunavut, du Manitoba, du Nouveau-Brunswick et de Terre-Neuve-et-Labrador.</p>\n<p>En Colombie-Britannique, en Ontario et au Qu\u00e9bec, en Nouvelle-\u00c9cosse, et \u00e0 l'\u00cele-du-Prince-\u00c9douard le programme sera ex\u00e9cut\u00e9 par le <a href=\"?id=1600991495717#pa\">gouvernement provincial ou un autre organisme</a>.</p>\n</div>\n\n\n<h3 id=\"a2\">2.0 Demandeurs admissibles</h3>\n\n<p>Les  b\u00e9n\u00e9ficiaires admissibles sont les producteurs agricoles primaires\u00a0canadiens  (par exemple, les  exploitations agricoles, les ranchs ou autres exploitations) qui produisent des  produits agricoles destin\u00e9s \u00e0 la revente et emploient  des travailleurs agricoles\u00a0(des travailleurs canadiens ou des travailleurs \u00e9trangers temporaires). Les  demandeurs peuvent inclure\u00a0: </p>\n<ul>\n  <li>des entreprises individuelles; </li>\n  <li>des partenariats; </li>\n  <li>des soci\u00e9t\u00e9s/coop\u00e9ratives/organisations communautaires; </li>\n  <li>des fiducies; </li>\n  <li>des exploitations agricoles appartenant \u00e0 une bande. </li>\n</ul>\n \n<p>Les exploitations d\u2019aquaculture ne sont pas  admissibles au titre du programme.</p>\n\n<p>Les  demandeurs n\u2019ont pas \u00e0 employer des travailleurs \u00e9trangers temporaires inscrits  pour \u00eatre admissibles.</p>\n<p>Les demandeurs devront d\u00e9clarer dans leur  demande que toutes les mesures applicables de la <cite><a href=\"https://laws-lois.justice.gc.ca/fra/lois/q-1.1/page-1.html\">Loi sur la mise en  quarantaine</a></cite> sont respect\u00e9es, y compris, mais sans s\u2019y limiter, la p\u00e9riode  d\u2019isolement obligatoire de 14\u00a0jours pour les travailleurs \u00e9trangers  temporaires.</p>\n\n<p>Si AAC apprend qu\u2019un employeur enfreint une  partie de ces exigences, le b\u00e9n\u00e9ficiaire ne sera plus admissible au  financement. Tout montant d\u00e9j\u00e0 vers\u00e9 au b\u00e9n\u00e9ficiaire sera consid\u00e9r\u00e9 comme une  dette envers \u00e0 l\u2019\u00c9tat. </p>\n\n<h4 id=\"a2.1\"><span class=\"badge\">Mise \u00e0 jour</span>  2.1 Mesures de s\u00e9curit\u00e9 admissibles</h4>\n\n<p>Parmi les d\u00e9penses  admissibles, on trouve notamment\u00a0:</p>\n<ul>\n  <li>La modernisation ou l\u2019adaptation  des exploitations agricoles existantes pour couvrir les co\u00fbts extraordinaires  li\u00e9s \u00e0 la COVID-19 afin d\u2019assurer la s\u00e9curit\u00e9 des travailleurs, par  exemple\u00a0: \n  <ul>\n  <li>exigences suppl\u00e9mentaires en  mati\u00e8re d\u2019hygi\u00e8ne\u00a0(nettoyage et d\u00e9sinfection) et de s\u00e9curit\u00e9 </li>\n  <li>modification des processus et  des stations de transformation actuels pour permettre l\u2019\u00e9loignement physique </li>\n  <li>adaptation du transport pour  assurer l\u2019\u00e9loignement physique pendant le d\u00e9placement \u00e0 l\u2019exploitation ou entre  le logement hors exploitation et l\u2019exploitation </li>\n  <li>modification ou mise \u00e0 niveau  des syst\u00e8mes de chauffage, de ventilation et de climatisation </li>\n  <li>\u00e9quipements tels que les  barri\u00e8res de s\u00e9curit\u00e9\u00a0(s\u00e9parateurs en plexiglas) </li>\n  <li><span class=\"badge\">Mise \u00e0 jour</span> achat ou location de logements suppl\u00e9mentaires \u00e0 la ferme  pour les travailleurs (c'est-\u00e0-dire b\u00e2timents  ou modification  d\u2019installations ou de sites li\u00e9s aux mesures relatives \u00e0 la COVID-19 (cela ne comprend pas les investissements \u00e0 long terme comme les rallonges de b\u00e2timents, les nouveaux b\u00e2timents ou l'achat de biens immobiliers/de terres). L'h\u00e9bergement hors ferme est admissible lorsqu'il est n\u00e9cessaire pour pr\u00e9venir la propagation de COVID-19 ou pour lutter contre la propagation de COVID-19 lorsqu'une \u00e9closion de COVID-19 est confirm\u00e9e.</li>\n  <li>modification des sites ou transport pour les  v\u00e9rifications de l\u2019\u00e9tat de sant\u00e9 </li>\n  <li>d\u00e9sinfection et nettoyage en  cas d\u2019\u00e9closion dans les exploitations agricoles </li>\n</ul>\n</li>\n\n  <li>Les co\u00fbts des \u00e9quipements de  protection individuelle jetables et non jetables qui viennent s\u2019ajouter aux activit\u00e9s  normales en raison de la COVID-19, par exemple\u00a0: \n  <ul> \n  <li>syst\u00e8mes de contr\u00f4le de la  temp\u00e9rature corporelle/de d\u00e9tection de la fi\u00e8vre, y compris les lecteurs  thermiques </li>\n  <li>stations de lavage </li>\n  <li>s\u00e9parateurs de postes de  travail </li>\n  <li>respirateurs \u00e0 masque complet  et \u00e0 demi-masque </li>\n  <li>lunettes de protection et  visi\u00e8res </li>\n  <li>masques et couvre-visages, y  compris les masques\u00a0N95 </li>\n  <li>produits d\u2019assainissement et  de nettoyage </li>\n  <li>filtres \u00e0 particules et  cartouches de gaz/vapeur </li>\n  <li>lunettes de s\u00e9curit\u00e9 </li>\n  <li>gants jetables </li>\n</ul>\n</li>\n \n \n  <li>Les co\u00fbts li\u00e9s \u00e0 la formation  des travailleurs et aux protocoles de s\u00e9curit\u00e9 relatifs \u00e0 la COVID-19, tels  que\u00a0:  \n  <ul>\n  <li>services d\u2019interpr\u00e9tation </li>\n  <li>formation sur les protocoles  relatifs \u00e0 la COVID-19 </li>\n</ul>\n</li>\n</ul>\n\n<h4 id=\"a2.2\">2.2 R\u00e9troactivit\u00e9</h4>\n\n<p>Les activit\u00e9s admissibles peuvent \u00eatre  r\u00e9troactives au 15 mars 2020 et doivent \u00eatre termin\u00e9es d\u2019ici le 26 f\u00e9vrier  2020.</p>\n\n<p>Bien que le programme permette de pr\u00e9senter r\u00e9troactivement  des activit\u00e9s et des co\u00fbts, le demandeur accepte le risque de ne pas \u00eatre  rembours\u00e9 si\u00a0: </p>\n\n<ul>\n<li>la demande n\u2019est pas approuv\u00e9e </li>\n<li>les co\u00fbts d\u00e9passent le maximum autoris\u00e9 dans le cadre du  programme </li>\n<li>certaines activit\u00e9s ou certains co\u00fbts ne sont pas approuv\u00e9s ou sont jug\u00e9s inadmissibles </li>\n  <li>les fonds ne sont pas disponibles </li>\n</ul>\n\n<h4 id=\"a2.3\"><span class=\"badge\">Mise \u00e0 jour</span> 2.3 Mesures de s\u00e9curit\u00e9 non admissibles</h4>\n\n<p>Les d\u00e9penses non admissibles comprennent entre autres\u00a0: </p>\n\n<ul>\n<li>les co\u00fbts op\u00e9rationnels  permanents non associ\u00e9s \u00e0 la COVID-19</li>\n<li>la main-d'\u0153uvre et les frais de repas, autres que ceux li\u00e9s \u00e0 la pr\u00e9vention et au contr\u00f4le de la COVID-19</li>\n<li>les d\u00e9penses li\u00e9es aux  activit\u00e9s de vente au d\u00e9tail ou \u00e0 d\u2019autres activit\u00e9s de vente sur place </li>\n<li>l\u2019\u00e9quipement de protection  individuelle qui \u00e9tait requis avant la COVID-19 </li>\n<li>les co\u00fbts li\u00e9s \u00e0 la <cite><a href=\"https://laws-lois.justice.gc.ca/fra/lois/q-1.1/page-1.html\">Loi sur la mise en  quarantaine</a></cite> pour l\u2019isolement des travailleurs \u00e9trangers temporaires</li>\n<li>les d\u00e9penses en capital  courantes (qui sont les d\u00e9penses en capital effectu\u00e9es dans le cours normal des  activit\u00e9s) et les co\u00fbts de la machinerie </li>\n<li><span class=\"badge\">Mise \u00e0 jour</span> les investissements \u00e0 long terme comme les rallonges de b\u00e2timents, les nouveaux b\u00e2timents ou l'achat de biens immobiliers/de terres</li>\n</ul>\n\n<h4 id=\"a2.4\">2.4 Financement et partage des  co\u00fbts</h4>\n<p>Le programme fournira jusqu\u2019\u00e0  100\u00a0000\u00a0dollars par b\u00e9n\u00e9ficiaire\u00a0(c\u2019est-\u00e0-dire par exploitation) en  financement non remboursable pour les activit\u00e9s d\u2019intervention d\u2019urgence  relatives \u00e0 la COVID-19. </p>\n\n<p>La contribution couvre le co\u00fbt de l'\u00e9quipement de protection individuelle (EPI) jetable, jusqu'\u00e0 un maximum de 10\u00a0000 $.</p>\n\n<h5>Partage  des co\u00fbts</h5>\n\n<p>Le soutien est fourni selon la formule de  partage des co\u00fbts 50/50. Le gouvernement f\u00e9d\u00e9ral assumera la moiti\u00e9 du co\u00fbt de  mise en oeuvre des mesures de s\u00e9curit\u00e9, tandis que le demandeur assumera  l\u2019autre moiti\u00e9. La formule de partage des co\u00fbts sera de 60:40 pour les demandeurs dont la majeure partie de l'exploitation agricole (plus de 50 %) est d\u00e9tenue par une ou des personnes appartenant \u00e0 un ou plusieurs groupes sous-repr\u00e9sent\u00e9s. Voici les groupes sous-repr\u00e9sent\u00e9s\u00a0:</p>\n\n<ul>\n<li>Femmes</li>\n<li>Jeunes \u00e2g\u00e9s de 30 ans ou moins </li>\n<li>Autochtones </li>\n<li>Minorit\u00e9s visibles</li>\n<li>Personnes handicap\u00e9es</li>\n</ul>\n\n<h5>Sources  de financement</h5>\n\n<p>Les demandeurs doivent d\u00e9clarer clairement  toutes les sources de financement applicables au projet. Les sources de  financement peuvent comprendre des contributions en esp\u00e8ces, d\u2019autres sources,  notamment des fonds provenant\u00a0: </p>\n<ul>\n<li>du demandeur </li>\n<li>de minist\u00e8res et organismes de gouvernements provinciaux et territoriaux </li>\n<li>de l\u2019industrie et de partenaires</li>\n</ul>\n \n<h3 id=\"a3\">3.0 Proc\u00e9dure de demande</h3>\n \n<figure class=\"mrgn-bttm-md\">\n\n<img class=\"img-responsive\" src=\"http://multimedia.agr.gc.ca/pack/img/eofsf-fumsf_app-guide-fr.jpg\" alt=\"La description de cette image suit.\">\n \n<details>\n<summary>Description de l\u2019image ci-dessus</summary>\n \n <ul class=\"list-unstyled lst-spcd\">\n<li>\u00c9tape\u00a01. Soumission de la demande</li>\n<li>\u00c9tape\u00a02. \u00c9valuation et approbation</li>\n<li>\u00c9tape\u00a03. Entente de contribution et demandes de remboursement</li>\n<li>\u00c9tape\u00a04. Paiement \u00e9mis</li>\n</ul>\n</details>\n</figure>\n\n<h4 id=\"a3.1\">3.1 Soumission de la demande</h4>\n\n<p>Toutes les activit\u00e9s doivent \u00eatre achev\u00e9es au  plus tard le 26\u00a0f\u00e9vrier\u00a02021. Dans le cas des provinces o\u00f9 AAC administre le programme, les demandes seront examin\u00e9es \u00e0 mesure qu'elles seront re\u00e7ues et la priorit\u00e9 sera accord\u00e9e aux exploitations agricoles qui pr\u00e9sentent le plus haut risque d'\u00e9closion de COVID-19.</p>\n\n<p>Vous ne pouvez pr\u00e9senter qu'une seule demande compl\u00e8te pour votre exploitation.</p>\n\n<p>Les demandeurs sont encourag\u00e9s \u00e0 soumettre leur demande par courriel.</p>\n\n\n<h3 class=\"h4 text-success\" id=\"pa\">Si vous \u00eates producteur agricole en Colombie-Britannique, en Ontario, au Qu\u00e9bec, en Nouvelle-\u00c9cosse, ou \u00e0 l'\u00cele-du-Prince-\u00c9douard</h3>\n\n<p>Ce <a href=\"?id=1600991495717#pa\">programme sera g\u00e9r\u00e9 par les gouvernements provinciaux ou d'autres agences</a>.</p>\n\n<h3 class=\"h4 text-success\" id=\"aafcapply\">Si vous \u00eates producteur agricole au Yukon, dans les Territoires du Nord-Ouest, en Alberta, en Saskatchewan, au Nunavut, au Manitoba, au Nouveau-Brunswick, ou \u00e0 Terre-Neuve-et-Labrador</h3>\n\n<p>Pr\u00e9sentez directement votre demande \u00e0 Agriculture et Agroalimentaire Canada en suivant les \u00e9tapes ci-dessous.</p>\n\n<h3>1. Remplir le formulaire de demande</h3>\n\n<section class=\"mrgn-tp-lg\" id=\"pdfforms\">\n<div class=\"alert alert-warning\">\n  <h4>Formulaires en format PDF</h4>\n<p>Si vous avez de la difficult\u00e9 \u00e0 ouvrir un formulaire PDF dans votre navigateur Internet, vous devez\u00a0:</p>\n<ul class=\"mrgn-tp-md\">\n <li>utiliser votre ordinateur. <strong>Il est possible que les formulaires ne s'ouvrent pas sur des appareils mobiles (iPad, tablettes, t\u00e9l\u00e9phones cellulaires)</strong>.</li>\n  <li>vous assurer que la version 11 (ou une version ult\u00e9rieure) d'Adobe Reader est d\u00e9j\u00e0 install\u00e9e sur votre ordinateur. Si ce n'est pas le cas, t\u00e9l\u00e9chargez gratuitement <a href=\"http://get.adobe.com/fr/reader/otherversions/\" rel=\"external\">Adobe Reader 11 ou une version ult\u00e9rieure</a>. Adobe offre des <a href=\"https://helpx.adobe.com/fr/acrobat/kb/cant-view-pdf-web.html\" rel=\"external\">solutions aux principaux probl\u00e8mes d'affichage</a>;</li>\n <li><strong>sauvegarder le fichier sur votre ordinateur</strong> \u00e0 un endroit dont vous vous souviendrez;</li>\n <li>ouvrir le fichier sur votre ordinateur \u00e0 l'aide d'<a href=\"http://get.adobe.com/fr/reader/otherversions/\" rel=\"external\">Adobe Reader 11 ou une version ult\u00e9rieure</a>.</li>\n <li>Si vous ne parvenez pas \u00e0 ouvrir le formulaire avec Adobe Reader 11 ou une version ult\u00e9rieure, <a href=\"?id=1600991845228\">veuillez contacter le programme</a>.</li>\n</ul>\n\n\n    <h6 class=\"lead mrgn-bttm-0\">Comment t\u00e9l\u00e9charger et ouvrir un formulaire au format PDF</h6>\n  \n\n<ul class=\"list-unstyled\">\n\t<li>\n<details class=\"mrgn-tp-sm\">\n    <summary>Les ordinateurs utilisant le syst\u00e8me d'exploitation Microsoft Windows et se servant de  \"Internet Explorer\" ou \"Microsoft Edge\" comme fureteur</summary>\n     <ol>\n      <li>Cliquez sur le lien que vous voulez enregistrer avec le bouton droit de la souris;</li>\n      <li>S\u00e9lectionnez \u00ab\u00a0Enregistrer la cible sous\u00a0\u00bb ou \u00ab\u00a0Enregistrer le lien sous\u00a0\u00bb;</li>\n      <li>Choisissez l'emplacement o\u00f9 vous souhaitez enregistrer le fichier sur votre ordinateur;</li>\n      <li>S\u00e9lectionnez \u00ab\u00a0Enregistrer\u00a0\u00bb;</li>\n      <li>Ouvrissiez Adobe Reader 11 ou une version ult\u00e9rieure;</li>\n      <li>S\u00e9lectionnez \u00ab\u00a0Fichier\u00a0\u00bb;</li>\n      <li>S\u00e9lectionnez \u00ab\u00a0Ouvrez\u00a0\u00bb;</li>\n      <li>Acc\u00e9dez \u00e0 l'emplacement o\u00f9 vous avez enregistr\u00e9 le fichier;</li>\n      <li>Choisissez le formulaire PDF;</li>\n      <li>S\u00e9lectionnez \u00ab\u00a0Ouvrez\u00a0\u00bb.</li>\n    </ol>\n    </details>\n</li>\n\n<li>\n<details class=\"mrgn-tp-sm\">\n<summary>Les ordinateurs utilisant le syst\u00e8me d'exploitation Microsoft Windows ou Apple et se servant de \"Chrome\" ou \"Firefox\" comme fureteur</summary>\n        <ol>\n      <li>Cliquez sur le lien que vous voulez enregistrer avec le bouton droit de la souris;</li>\n      <li>Quand le menu d'options s'affiche, s\u00e9lectionnez \"T\u00e9l\u00e9charger le fichier li\u00e9\" ou \"T\u00e9l\u00e9charger le fichier li\u00e9 sous\"</li>\n      <li>Choisissez l'emplacement o\u00f9 vous souhaitez enregistrer le fichier  sur votre ordinateur. Le t\u00e9l\u00e9chargement commencera une fois que vous  aurez choisi un emplacement;</li>\n  <li>Ouvrissiez Adobe Reader 11 ou une version ult\u00e9rieure;</li>\n      <li>Acc\u00e9dez \u00e0 l'emplacement o\u00f9 vous avez enregistr\u00e9 le fichier;</li>\n      <li>Choisissez le formulaire PDF;</li>\n      <li>S\u00e9lectionnez \u00ab\u00a0Ouvrez\u00a0\u00bb.</li>\n    </ol>\n    </details>\n</li>\n</ul>\n\n</div>\n</section>\n\n\n<p>Pour pr\u00e9senter une demande au titre du Fonds d'urgence pour les mesures de soutien \u00e0 la ferme, t\u00e9l\u00e9chargez et remplissez le  formulaire de demande.  Suivez les instructions de l'<a href=\"?id=1601053864516\">annexe A\u00a0: Comment remplir une demande</a> pour remplir une demande.</p>\n\n<p>Les demandeurs peuvent demander le  remboursement des frais engag\u00e9s \u00e0 partir du 15\u00a0mars\u00a02020\u00a0(\u00ab\u00a0frais r\u00e9troactifs\u00a0\u00bb). Bien que le programme permette de pr\u00e9senter  r\u00e9troactivement les frais engag\u00e9s, le demandeur accepte le risque de ne pas  \u00eatre rembours\u00e9 si :</p>\n\n<ul>\n  <li>certains frais ne sont pas approuv\u00e9s ou sont       jug\u00e9s inadmissibles;</li>\n  <li>les frais d\u00e9passent le maximum permis dans le       cadre du programme;</li>\n  <li>les mesures applicables de la <cite><a href=\"https://laws-lois.justice.gc.ca/fra/lois/q-1.1/page-1.html\">Loi sur la mise en  quarantaine</a></cite> n\u2019ont pas toutes \u00e9t\u00e9 observ\u00e9es;</li>\n  <li>les fonds ne sont pas disponibles.</li>\n</ul>\n\n\n<h3>2. Soumettez votre demande remplie </h3>\n\n<p>Les demandeurs sont invit\u00e9s \u00e0 soumettre leurs demandes par courriel.</p>\n\n<p><a href=\"?id=1600991845228\">Communiquez avec l'administration du programme</a> pour :</p>\n\n<ul>\n<li>soumettre une demande remplie par courriel, par la poste ou par t\u00e9l\u00e9copieur;</li>\n<li>demander des modifications \u00e0 une demande soumise (ne soumettez pas un nouveau formulaire de demande);</li>\n<li>retirer une demande.</li>\n</ul>\n  \n<p>La pr\u00e9sentation d\u2019une demande n\u2019oblige  aucunement Agriculture et Agroalimentaire Canada \u00e0 verser des fonds. Les fonds  sont offerts uniquement au moyen d\u2019une <a href=\"?id=1550849115702\">entente de  contribution</a>. </p>\n\n<h4 id=\"a3.2\">3.2 \u00c9valuation et approbation</h4>\n\n<p>Une fois que votre demande aura \u00e9t\u00e9 soumise,  elle sera \u00e9valu\u00e9e en regard de ce qui suit\u00a0: </p>\n<ul>\n  <li>le formulaire de demande qui a \u00e9t\u00e9 soumis est complet </li>\n  <li>les crit\u00e8res d\u2019admissibilit\u00e9 sont satisfaits </li>\n  <li>les co\u00fbts propos\u00e9s correspondent \u00e0 des activit\u00e9s admissibles </li>\n</ul>\n\n<p><b>Remarque\u00a0:</b> Nous  accuserons r\u00e9ception de votre demande. Ne tenez pas pour acquis que votre  demande a \u00e9t\u00e9 soumise tant que vous n\u2019avez pas re\u00e7u l\u2019accus\u00e9 de r\u00e9ception. </p>\n\n<h4 id=\"a3.3\">3.3 Normes de service</h4>\n\n<p>L\u2019objectif d\u2019AAC est de\u00a0: </p>\n\n<ul>\n<li>r\u00e9pondre aux demandes de renseignements g\u00e9n\u00e9rales concernant  le programme que nous recevons par t\u00e9l\u00e9phone ou par courriel avant la fin du jour ouvrable suivant </li>\n <li>accuser r\u00e9ception des demandes par courrier \u00e9lectronique dans un d\u00e9lai d\u2019un jour ouvrable\u00a0(si vous soumettez votre demande par courrier ou par t\u00e9l\u00e9copieur, il se peut que l\u2019accus\u00e9 de r\u00e9ception soit plus long) </li>\n<li>traiter votre demande dans un d\u00e9lai de 50\u00a0jours ouvrables </li>\n<li>\td'\u00e9mettre un paiement dans les 30 jours ouvrables suivant la r\u00e9ception d'un formulaire de demande de r\u00e8glement d\u00fbment rempli et d'une entente de contribution sign\u00e9e</li>\n</ul>\n\n<h4 id=\"a3.4\">3.4 Entente de contribution et  demandes de remboursement</h4>\n\n<h5>Entente  de contribution</h5>\n<p>Les demandeurs retenus recevront une <a href=\"?id=1550849115702\">entente de  contribution</a> d\u2019Agriculture et  Agroalimentaire Canada qui pr\u00e9cise le niveau de financement accord\u00e9 ainsi que  des instructions \u00e9tape par \u00e9tape sur la mani\u00e8re de remplir une demande de  remboursement.</p>\n\n<div class=\"well\">\n<p>Il est permis d'avoir seulement un projet ou une entente par exploitation agricole ou entreprise.</p>\n</div>\n\n<h5>Demande  de remboursement</h5>\n\n<p>Pour pr\u00e9senter une demande de remboursement,  vous devez d\u2019abord signer et retourner l\u2019entente de contribution, puis remplir  et soumettre un formulaire de remboursement et un formulaire d\u2019inscription au  d\u00e9p\u00f4t direct. Dans la mesure du possible, nous vous encourageons \u00e0 soumettre  vos formulaires par courrier \u00e9lectronique. </p>\n\n<h4 id=\"a3.5\">3.5 Paiement</h4>\n\n<p>Vous recevrez un paiement par d\u00e9p\u00f4t direct ou  par ch\u00e8que une fois que les documents relatifs \u00e0 la demande auront \u00e9t\u00e9 re\u00e7us et  trait\u00e9s par AAC.</p>\n\n<p>L\u2019objectif d\u2019AAC est de traiter votre paiement  dans les 30\u00a0jours ouvrables suivant la r\u00e9ception d\u2019un formulaire de  demande d\u00fbment rempli et d\u2019une entente de contribution sign\u00e9e.</p>\n\n<h3 id=\"a4\">4.0 Langues officielles</h3>\n\n<p>AAC s'engage \u00e0  am\u00e9liorer la vitalit\u00e9 des communaut\u00e9s de langue officielle en situation  minoritaire (CLOSM) et \u00e0 appuyer leur d\u00e9veloppement, ainsi qu'\u00e0 promouvoir la  pleine reconnaissance et l'usage de l'anglais et du fran\u00e7ais dans la soci\u00e9t\u00e9  canadienne.</p>\n\n<p>Les CLOSM  comprennent les francophones habitant \u00e0 l'ext\u00e9rieur du Qu\u00e9bec et les  anglophones r\u00e9sidant au Qu\u00e9bec. Ces communaut\u00e9s sont souvent repr\u00e9sent\u00e9es par  des organismes provinciaux et r\u00e9gionaux.</p>\n\n<p>S'il s'av\u00e8re  que votre projet au titre du pr\u00e9sent programme comprend des activit\u00e9s li\u00e9es au  d\u00e9veloppement et au transfert de connaissances et peut avoir des r\u00e9percussions  sur des CLOSM ou promouvoir l'utilisation des langues anglaise et fran\u00e7aise,  AAC ajoutera des engagements linguistiques aux ententes conclues avec votre  organisation et veillera \u00e0 ce que les d\u00e9penses suppl\u00e9mentaires qui en d\u00e9coulent  soient admissibles \u00e0 une contribution financi\u00e8re.</p>\n\n<p>Les activit\u00e9s  peuvent comprendre, sans s'y limiter\u00a0:</p>\n\n<ul>\n  <li><strong>Communications</strong> \n  <ul>\n<li>cr\u00e9er et tenir \u00e0 jour des pages Web et des comptes de m\u00e9dias sociaux dans les deux langues officielles pour le projet;</li>\n<li>offrir de la documentation sur le projet (par exemple brochures, trousses,  bulletins et rapports) dans les deux langues officielles;</li>\n<li>produire des panneaux indicateurs et informatifs dans les deux langues officielles;</li>\n<li>diffuser des publicit\u00e9s li\u00e9es au projet dans les m\u00e9dias s'adressant aux CLOSM (par exemple journaux, radio et m\u00e9dias sociaux);</li>\n<li>embaucher un coordonnateur bilingue ou un autre entrepreneur bilingue pour aider \u00e0 offrir des activit\u00e9s connexes au projet dans les deux langues officielles (par exemple, un ma\u00eetre de c\u00e9r\u00e9monie pour un \u00e9v\u00e9nement de projet, un animateur d'atelier ou un interpr\u00e8te en simultan\u00e9);</li>\n<li>envoyer des invitations dans les deux langues officielles.</li>\n  </ul>\n  </li>\n\n  <li><b>Sensibilisation</b>\n  <ul>\n<li>inclure des membres d'une ou de plusieurs CLOSM dans le public cible du projet (par exemple, en tant que partenaires qui contribuent en esp\u00e8ces ou en nature au projet ou en tant qu'invit\u00e9s \u00e0 un \u00e9v\u00e9nement li\u00e9 au projet);</li>\n<li>consulter d'autres groupes qui repr\u00e9sentent des CLOSM pour voir si ces groupes pourraient participer au projet;</li>\n<li>se rendre dans les CLOSM ou en revenir (les co\u00fbts li\u00e9s \u00e0 ces activit\u00e9s de projet seraient inclus dans le budget du projet).</li>\n  </ul>\n  </li>\n</ul>\n\n<p>Si le demandeur  re\u00e7oit une aide financi\u00e8re, il peut \u00eatre tenu de reconna\u00eetre publiquement le  soutien d'AAC pour le projet. Dans ces cas, le Minist\u00e8re pourra demander que  cette d\u00e9claration soit r\u00e9dig\u00e9e dans les deux langues officielles.</p>\n\n\n<h3 id=\"a5\">5.0 Rapports</h3>\n\n<p>Les  b\u00e9n\u00e9ficiaires seront tenus de faire rapport sur les d\u00e9penses, le rendement et  les r\u00e9sultats. </p>\n\n<h4>Rapport  sur le rendement et les r\u00e9sultats</h4>\n\n<p>Les  b\u00e9n\u00e9ficiaires devront fournir un rapport final qui devra comprendre un r\u00e9sum\u00e9  de l\u2019incidence de l\u2019activit\u00e9 sur les op\u00e9rations.</p>\n<h4>Rapports  budg\u00e9taires</h4>\n<p>Les  b\u00e9n\u00e9ficiaires doivent conserver des copies des devis, des factures et des  preuves de paiement des co\u00fbts admissibles pour le projet. Un rapport de  d\u00e9penses est requis avec les demandes de remboursement et peut exiger une  preuve d\u2019achat jusqu\u2019\u00e0 100\u00a0% des co\u00fbts totaux. </p>\n<h3 id=\"a6\">6.0 Coordonn\u00e9es</h3>\n\n<p>Pour  obtenir de plus amples renseignements sur le Fonds d\u2019urgence pour les mesures  de soutien \u00e0 la ferme, veuillez communiquer avec le programme par\u00a0:</p>\n\n<p><b>Courriel :</b> <a href=\"mailto:aafc.EOFSF-FUMSF.aac@canada.ca\">aafc.EOFSF-FUMSF.aac@canada.ca</a></p>\n\n\n<p><b>Courrier postal :</b><br>\n Agriculture et Agroalimentaire Canada<br>\n Fonds d'urgence pour les mesures de soutien \u00e0 la ferme<br>\n C.P. 3200<br>\nWinnipeg (Manitoba)  R3C 5R7</p>\n<p><b>T\u00e9l\u00e9phone :</b> 1-866-367-8506<br>\n<b>T\u00e9l\u00e9copieur :</b> 1-877-949-4885</p>\n\n\n<nav>\n  <h2 class=\"wb-inv\">Navigation du document - pr\u00e9c\u00e9dente-suivante - bas</h2>\n\n<div class=\"row\">\n<div class=\"col-md-12 mrgn-lft-0 mrgn-rght-0\">\n<ul class=\"pager\">\t\n<li class=\"previous\"><a href=\"?id=1600991170888\" rel=\"prev\" title=\"Comment pr\u00e9senter une demande\">Pr\u00e9c\u00e9dente</a></li>\t\n<li class=\"next\"><a href=\"?id=1600991845228\" rel=\"next\" title=\"Pour nous joindre\">Suivante</a></li>\t\n</ul>\n</div>\n</div>\n</nav>\n \n\r\n    "
    }
}